{
  "name": "furkies-purrkies-poetry-0455",
  "title": "Rising Above",
  "date": "2021-05-30T00:00:40.345Z",
  "image": "poetry-0455-illustration.jpg",
  "audio": "poetry-0455.mp3",
  "artwork": "https://unsplash.com/photos/MoaLwVf_0ho",
  "id": "furkies-purrkies-poetry-0455",
  "attachments": {},
  "guid": "bc5c1e4a-1a00-4907-a955-b8ad774c9a0c",
  "html": "<div class=\"section\">\n  <p>No, you are not immune to the effects of indoctrination,</p>\n  <p>the more you climb the more you discover, sometimes it is your own false beliefs, other times it is more of other people&apos;s false beliefs.</p>\n</div>\n\n<div class=\"section\">\n  <hr>\n</div>\n\n<div class=\"section\">\n  <p><a href=\"https://www.youtube.com/watch?v=iG9CE55wbtY\">Schools are not working</a>,</p>\n  <p>they might not have ever worked.</p>\n</div>\n\n<div class=\"section\">\n  <p><a href=\"https://www.youtube.com/watch?v=wX78iKhInsc\">They are hurting the students</a>,</p>\n  <p><a href=\"https://www.youtube.com/watch?v=sxyKNMrhEvY\">they are robbing them of their Unique Greatness</a>.</p>\n</div>\n\n<div class=\"section\">\n  <p><a href=\"https://www.youtube.com/watch?v=fmoor8DwqW4\">Nobody is being taught</a>,</p>\n  <p>what children and students do learn, they learn out of their own brilliance, they learn by standing up against <a href=\"https://www.youtube.com/watch?v=9M4tdMsg3ts\">what the schools are trying to process them into</a>.</p>\n</div>\n\n<div class=\"section\">\n  <hr>\n</div>\n\n<div class=\"section\">\n  <p>You are not supposed to go to work tired,</p>\n  <p>you are not allowed to live overworked.</p>\n</div>\n\n<div class=\"section\">\n  <p>Unless your Alarm Clock awakens you to lovely foolish things,</p>\n  <p>you are not supposed to own one.</p>\n</div>\n\n<div class=\"section\">\n  <p>You deserve a Beautiful Life,</p>\n  <p>your life should be beautiful to you, and beautiful to to others as they glance it.</p>\n</div>\n\n\n<div class=\"section\">\n  <p>It is not supposed to be making you tired,</p>\n  <p>it is supposed to make you brilliant.</p>\n</div>\n\n<div class=\"section\">\n  <p>Your life is supposed to be shaping you into an inspiration,</p>\n  <p>for others to follow.</p>\n</div>\n\n<div class=\"section\">\n  <hr>\n</div>\n\n<div class=\"section\">\n  <p>You are not allowed to sacrifice yourself for others,</p>\n  <p>your life is equally as sacred, as all other life.</p>\n</div>\n\n<div class=\"section\">\n  <p>I know what you are thinking,</p>\n  <p>but what I am telling you, is that it is a false belief.</p>\n</div>\n\n<div class=\"section\">\n  <p>You may die in battle,</p>\n  <p>but you may not die in sacrifice.</p>\n</div>\n\n<div class=\"section\">\n  <hr>\n</div>\n\n<div class=\"section\">\n  <p>You are not supposed to listen when people tell you to do something,</p>\n  <p>you are supposed to choose your own path.</p>\n</div>\n\n<div class=\"section\">\n  <p>Those people are not just strangers, managers, bosses,</p>\n  <p>but they are also your family, your parents and siblings.</p>\n</div>\n\n<div class=\"section\">\n  <p>If your dad wants you to become a lawyer,</p>\n  <p>tell him to get a second job, and become one himself.</p>\n</div>\n\n<div class=\"section\">\n  <p>You become who you want to become,</p>\n  <p>because your life is your own, and it is sacred.</p>\n</div>\n\n<div class=\"section\">\n  <p>And when your parents tell you to become someone,</p>\n  <p>they are simply forgetting how sacred and precious your life is.</p>\n</div>\n\n<div class=\"section\">\n  <p>If you want to be a Ballerina,</p>\n  <p>go get a <a href=\"https://www.youtube.com/watch?v=4GAKLwk5MhA&amp;t=82s\">TuTu</a>.</p>\n</div>\n\n<div class=\"section\">\n  <p>And if you just want to retire at 16 and become a Beach Bum,</p>\n  <p>I highly recommend Bill Bryson Audio-books...</p>\n</div>\n\n<div class=\"section\">\n  <p>because being called to this path...</p>\n  <p>will have you become a Philosopher, Poet, Writer, Critic, and a Great Thinker, and goodness knows the <a href=\"https://www.iucnredlist.org/species/15955/50659951\">Tigers Need You</a>.</p>\n</div>\n\n<div class=\"section\">\n  <hr>\n</div>\n\n<div class=\"section\">\n  <p>And you may know this one already,</p>\n  <p>money is broken.</p>\n</div>\n\n<div class=\"section\">\n  <p>Before you get a job,</p>\n  <p>before you start putting savings aside.</p>\n</div>\n\n<div class=\"section\">\n  <p>You need to see how many is working,</p>\n  <p>you have to consider how many people are living paycheck-to-paycheck.</p>\n</div>\n\n<div class=\"section\">\n  <p>You have to consider concepts like <a href=\"https://www.aclu.org/issues/criminal-law-reform/reforming-police/asset-forfeiture-abuse\">Civil Forfeiture</a>,</p>\n  <p>and Paid Medical Care, and even Paid Education, which encompass Unforgivable (by bankruptcy) Student Debt.</p>\n</div>\n\n<div class=\"section\">\n  <p>And that is just the first part of it,</p>\n  <p>because as a Human Being, you have to frame it in the context of the entire humanity.</p>\n</div>\n\n<div class=\"section\">\n  <hr>\n</div>\n\n<div class=\"section\">\n  <p>Ask yourself what will it be like to be a well-to-do dentist,</p>\n  <p>pulling teeth of your poverty stricken patients, where you could try to save them, if they had hopes of being able to afford the procedure.</p>\n</div>\n\n<div class=\"section\">\n  <p>Ask your self what will it be like to become a Police Officer,</p>\n  <p>in a precinct where hurting the people you are supposed to protect is tolerated, if not encouraged.</p>\n</div>\n\n<div class=\"section\">\n  <p>And hurting may include <a href=\"https://www.youtube.com/watch?v=esPRsT-lmw8\">striking their head which is likely to cause permanent damage</a>,</p>\n  <p><a href=\"https://www.youtube.com/watch?v=d-7o9xYp7eE\">and you will be encouraged to stretch testimony and force people to perjure themselves</a>, and p[probably as a matter of training and routine.</p>\n</div>\n\n<div class=\"section\">\n  <p>&quot;Do you know what you did wrong?&quot;</p>\n</div>\n\n<div class=\"section\">\n  <p>What will it be like to be an Attorney, Judge, or Persecutor during mass incarceration <a href=\"https://www.youtube.com/watch?v=SQ6H-Mz6hgw\">punishing people already punished by poverty</a>,</p>\n  <p>what will you do when the <a href=\"https://www.youtube.com/watch?v=hTlrSYbCbHE\">Human Rights</a> Day comes around, and you realize that you simply can&apos;t help but to be part of the problem.</p>\n</div>\n\n<div class=\"section\">\n  <hr>\n</div>\n\n<div class=\"section\">\n  <p>Also consider the alternative, a combination of the <a href=\"https://www.youtube.com/watch?v=hPSvdKTEZug\">Appalachian</a> and <a href=\"https://www.youtube.com/watch?v=F-0i2l3sqno\">Pacific Crest</a> Trails,</p>\n  <p>combined with a countless number of <a href=\"https://www.youtube.com/watch?v=ZoqgAy3h4OM\">small companies that one by one, will teach you how to succeed</a>, and perhaps give employment to your family as well.</p>\n</div>\n\n<div class=\"section\">\n  <p><a href=\"https://www.youtube.com/watch?v=g4IWpMk7esk\">Today, Humanity still lacks the Intelligence and Will to repair the money problem</a>,</p>\n  <p>that is part of the reason why you just can&apos;t get a job to make your parents happy.</p>\n</div>\n\n<div class=\"section\">\n  <p>Money is not meant to hold Humanity Back,</p>\n  <p>it is supposed to help us grow.</p>\n</div>\n\n<div class=\"section\">\n  <p>The longer we wait to repair this invisible problem,</p>\n  <p>the more needless suffering our Noble and Brilliant Sisters and Brothers will undergo.</p>\n</div>\n\n<div class=\"section\">\n  <hr>\n</div>\n\n<div class=\"section\">\n  <p>The Universe bows to you,</p>\n  <p>all the future generations bow to you, and with love and understanding, and in, gratitude.</p>\n</div>\n\n<div class=\"section\">\n  <p>Even if all you do, is think about it,</p>\n  <p>and notice it, perhaps hope to fix it.</p>\n</div>\n\n<div class=\"section\">\n  <p>The moment you do something that will touch and help the Humanity of the Future,</p>\n  <p>they will all come to visit you, in their thoughts, and appreciation.</p>\n</div>\n\n<div class=\"section\">\n  <hr>\n</div>\n\n<div class=\"section\">\n  <p>The changes that are needed,</p>\n  <p>require billions of Great Minds working together across multiple generations.</p>\n</div>\n\n<div class=\"section\">\n  <p>I believe,</p>\n  <p>You are one of those Great Minds.</p>\n</div>\n\n<div class=\"section\">\n  <p>Become,</p>\n  <p>a Great Being,</p>\n</div>\n\n<div class=\"section\">\n  <ul>\n    <li><a href=\"https://www.youtube.com/results?search_query=Greta+Thunberg\">Greta Thunberg</a></li>\n    <li><a href=\"https://www.youtube.com/results?search_query=Michell+Alexander\">Michelle Alexander</a></li>\n    <li><a href=\"https://www.youtube.com/results?search_query=Sir+Ken+Robinson\">Sir Ken Robinson</a></li>\n    <li><a href=\"https://www.youtube.com/results?search_query=Astra+Taylor\">Astra Taylor</a></li>\n    <li><a href=\"https://www.youtube.com/results?search_query=Jill+Tarter\">Jill Tarter</a></li>\n    <li><a href=\"https://www.youtube.com/results?search_query=Brene+Brown\">Bren&#xE9; Brown</a></li>\n    <li><a href=\"https://www.youtube.com/results?search_query=Richard+Dawkins\">Richard Dawkins</a></li>\n    <li><a href=\"https://www.youtube.com/results?search_query=Ayaan+Hirsi+Ali\">Ayaan Hirsi Ali</a></li>\n    <li><a href=\"https://www.youtube.com/results?search_query=Lord+Martin+Rees\">Lord Martin Rees</a></li>\n    <li><a href=\"https://www.youtube.com/results?search_query=Lawrence+Krauss\">Lawrence Krauss</a></li>\n    <li><a href=\"https://www.youtube.com/results?search_query=Dan+Dennett\">Daniel Dennett</a></li>\n    <li><a href=\"https://www.youtube.com/results?search_query=Sam+Harris\">Sam Harris</a></li>\n    <li><a href=\"https://www.youtube.com/results?search_query=Christopher+Hitchens\">Christopher Hitchens</a></li>\n    <li><a href=\"https://www.youtube.com/results?search_query=Bill+Bryson\">Bill Bryson</a></li>\n    <li><a href=\"https://www.youtube.com/results?search_query=PZ+Myers\">PZ Myers</a></li>\n    <li><a href=\"https://www.youtube.com/results?search_query=Alex+Filippenko\">Alex Filippenko</a></li>\n    <li><a href=\"https://www.youtube.com/results?search_query=Seth+Shostak\">Seth Shostak</a></li>\n    <li><a href=\"https://www.youtube.com/results?search_query=Sean+Carroll\">Sean Carroll</a></li>\n    <li><a href=\"https://www.youtube.com/results?search_query=Jared+Diamond\">Jared Diamond</a></li>\n    <li><a href=\"https://www.youtube.com/results?search_query=Howard+Zinn\">Howard Zinn</a></li>\n    <li><a href=\"https://www.youtube.com/results?search_query=Noam+Chomsky\">Noam Chomsky</a></li>\n  </ul>\n</div>\n",
  "bootstrap": "<div class=\"card card-section bg-dark text-warning shadow\">\n  <div class=\"section card-body mb-0 my-2\">\n    <div class=\"paragraph card-text card-stanza my-5 text-center\">No, you are not immune to the effects of indoctrination,</div>\n    <div class=\"paragraph card-text card-stanza my-5 text-center\">the more you climb the more you discover, sometimes it is your own false beliefs, other times it is more of other people's false beliefs.</div>\n  </div>\n</div>\n<div class=\"mb-5 section-spacer\">&nbsp;</div>\n<div class=\"card card-section bg-dark text-warning shadow\">\n  <div class=\"section card-body mb-0 my-2\">\n    <div class=\"paragraph card-text card-stanza my-5 text-center\"><a href=\"https://www.youtube.com/watch?v=iG9CE55wbtY\">Schools are not working</a>,</div>\n    <div class=\"paragraph card-text card-stanza my-5 text-center\">they might not have ever worked.</div>\n  </div>\n</div>\n<div class=\"card card-section bg-dark text-warning shadow\">\n  <div class=\"section card-body mb-0 my-2\">\n    <div class=\"paragraph card-text card-stanza my-5 text-center\"><a href=\"https://www.youtube.com/watch?v=wX78iKhInsc\">They are hurting the students</a>,</div>\n    <div class=\"paragraph card-text card-stanza my-5 text-center\"><a href=\"https://www.youtube.com/watch?v=sxyKNMrhEvY\">they are robbing them of their Unique Greatness</a>.</div>\n  </div>\n</div>\n<div class=\"card card-section bg-dark text-warning shadow\">\n  <div class=\"section card-body mb-0 my-2\">\n    <div class=\"paragraph card-text card-stanza my-5 text-center\"><a href=\"https://www.youtube.com/watch?v=fmoor8DwqW4\">Nobody is being taught</a>,</div>\n    <div class=\"paragraph card-text card-stanza my-5 text-center\">what children and students do learn, they learn out of their own brilliance, they learn by standing up against <a href=\"https://www.youtube.com/watch?v=9M4tdMsg3ts\">what the schools are trying to process them into</a>.</div>\n  </div>\n</div>\n<div class=\"mb-5 section-spacer\">&nbsp;</div>\n<div class=\"card card-section bg-dark text-warning shadow\">\n  <div class=\"section card-body mb-0 my-2\">\n    <div class=\"paragraph card-text card-stanza my-5 text-center\">You are not supposed to go to work tired,</div>\n    <div class=\"paragraph card-text card-stanza my-5 text-center\">you are not allowed to live overworked.</div>\n  </div>\n</div>\n<div class=\"card card-section bg-dark text-warning shadow\">\n  <div class=\"section card-body mb-0 my-2\">\n    <div class=\"paragraph card-text card-stanza my-5 text-center\">Unless your Alarm Clock awakens you to lovely foolish things,</div>\n    <div class=\"paragraph card-text card-stanza my-5 text-center\">you are not supposed to own one.</div>\n  </div>\n</div>\n<div class=\"card card-section bg-dark text-warning shadow\">\n  <div class=\"section card-body mb-0 my-2\">\n    <div class=\"paragraph card-text card-stanza my-5 text-center\">You deserve a Beautiful Life,</div>\n    <div class=\"paragraph card-text card-stanza my-5 text-center\">your life should be beautiful to you, and beautiful to to others as they glance it.</div>\n  </div>\n</div>\n<div class=\"card card-section bg-dark text-warning shadow\">\n  <div class=\"section card-body mb-0 my-2\">\n    <div class=\"paragraph card-text card-stanza my-5 text-center\">It is not supposed to be making you tired,</div>\n    <div class=\"paragraph card-text card-stanza my-5 text-center\">it is supposed to make you brilliant.</div>\n  </div>\n</div>\n<div class=\"card card-section bg-dark text-warning shadow\">\n  <div class=\"section card-body mb-0 my-2\">\n    <div class=\"paragraph card-text card-stanza my-5 text-center\">Your life is supposed to be shaping you into an inspiration,</div>\n    <div class=\"paragraph card-text card-stanza my-5 text-center\">for others to follow.</div>\n  </div>\n</div>\n<div class=\"mb-5 section-spacer\">&nbsp;</div>\n<div class=\"card card-section bg-dark text-warning shadow\">\n  <div class=\"section card-body mb-0 my-2\">\n    <div class=\"paragraph card-text card-stanza my-5 text-center\">You are not allowed to sacrifice yourself for others,</div>\n    <div class=\"paragraph card-text card-stanza my-5 text-center\">your life is equally as sacred, as all other life.</div>\n  </div>\n</div>\n<div class=\"card card-section bg-dark text-warning shadow\">\n  <div class=\"section card-body mb-0 my-2\">\n    <div class=\"paragraph card-text card-stanza my-5 text-center\">I know what you are thinking,</div>\n    <div class=\"paragraph card-text card-stanza my-5 text-center\">but what I am telling you, is that it is a false belief.</div>\n  </div>\n</div>\n<div class=\"card card-section bg-dark text-warning shadow\">\n  <div class=\"section card-body mb-0 my-2\">\n    <div class=\"paragraph card-text card-stanza my-5 text-center\">You may die in battle,</div>\n    <div class=\"paragraph card-text card-stanza my-5 text-center\">but you may not die in sacrifice.</div>\n  </div>\n</div>\n<div class=\"mb-5 section-spacer\">&nbsp;</div>\n<div class=\"card card-section bg-dark text-warning shadow\">\n  <div class=\"section card-body mb-0 my-2\">\n    <div class=\"paragraph card-text card-stanza my-5 text-center\">You are not supposed to listen when people tell you to do something,</div>\n    <div class=\"paragraph card-text card-stanza my-5 text-center\">you are supposed to choose your own path.</div>\n  </div>\n</div>\n<div class=\"card card-section bg-dark text-warning shadow\">\n  <div class=\"section card-body mb-0 my-2\">\n    <div class=\"paragraph card-text card-stanza my-5 text-center\">Those people are not just strangers, managers, bosses,</div>\n    <div class=\"paragraph card-text card-stanza my-5 text-center\">but they are also your family, your parents and siblings.</div>\n  </div>\n</div>\n<div class=\"card card-section bg-dark text-warning shadow\">\n  <div class=\"section card-body mb-0 my-2\">\n    <div class=\"paragraph card-text card-stanza my-5 text-center\">If your dad wants you to become a lawyer,</div>\n    <div class=\"paragraph card-text card-stanza my-5 text-center\">tell him to get a second job, and become one himself.</div>\n  </div>\n</div>\n<div class=\"card card-section bg-dark text-warning shadow\">\n  <div class=\"section card-body mb-0 my-2\">\n    <div class=\"paragraph card-text card-stanza my-5 text-center\">You become who you want to become,</div>\n    <div class=\"paragraph card-text card-stanza my-5 text-center\">because your life is your own, and it is sacred.</div>\n  </div>\n</div>\n<div class=\"card card-section bg-dark text-warning shadow\">\n  <div class=\"section card-body mb-0 my-2\">\n    <div class=\"paragraph card-text card-stanza my-5 text-center\">And when your parents tell you to become someone,</div>\n    <div class=\"paragraph card-text card-stanza my-5 text-center\">they are simply forgetting how sacred and precious your life is.</div>\n  </div>\n</div>\n<div class=\"card card-section bg-dark text-warning shadow\">\n  <div class=\"section card-body mb-0 my-2\">\n    <div class=\"paragraph card-text card-stanza my-5 text-center\">If you want to be a Ballerina,</div>\n    <div class=\"paragraph card-text card-stanza my-5 text-center\">go get a <a href=\"https://www.youtube.com/watch?v=4GAKLwk5MhA&t=82s\">TuTu</a>.</div>\n  </div>\n</div>\n<div class=\"card card-section bg-dark text-warning shadow\">\n  <div class=\"section card-body mb-0 my-2\">\n    <div class=\"paragraph card-text card-stanza my-5 text-center\">And if you just want to retire at 16 and become a Beach Bum,</div>\n    <div class=\"paragraph card-text card-stanza my-5 text-center\">I highly recommend Bill Bryson Audio-books...</div>\n  </div>\n</div>\n<div class=\"card card-section bg-dark text-warning shadow\">\n  <div class=\"section card-body mb-0 my-2\">\n    <div class=\"paragraph card-text card-stanza my-5 text-center\">because being called to this path...</div>\n    <div class=\"paragraph card-text card-stanza my-5 text-center\">will have you become a Philosopher, Poet, Writer, Critic, and a Great Thinker, and goodness knows the <a href=\"https://www.iucnredlist.org/species/15955/50659951\">Tigers Need You</a>.</div>\n  </div>\n</div>\n<div class=\"mb-5 section-spacer\">&nbsp;</div>\n<div class=\"card card-section bg-dark text-warning shadow\">\n  <div class=\"section card-body mb-0 my-2\">\n    <div class=\"paragraph card-text card-stanza my-5 text-center\">And you may know this one already,</div>\n    <div class=\"paragraph card-text card-stanza my-5 text-center\">money is broken.</div>\n  </div>\n</div>\n<div class=\"card card-section bg-dark text-warning shadow\">\n  <div class=\"section card-body mb-0 my-2\">\n    <div class=\"paragraph card-text card-stanza my-5 text-center\">Before you get a job,</div>\n    <div class=\"paragraph card-text card-stanza my-5 text-center\">before you start putting savings aside.</div>\n  </div>\n</div>\n<div class=\"card card-section bg-dark text-warning shadow\">\n  <div class=\"section card-body mb-0 my-2\">\n    <div class=\"paragraph card-text card-stanza my-5 text-center\">You need to see how many is working,</div>\n    <div class=\"paragraph card-text card-stanza my-5 text-center\">you have to consider how many people are living paycheck-to-paycheck.</div>\n  </div>\n</div>\n<div class=\"card card-section bg-dark text-warning shadow\">\n  <div class=\"section card-body mb-0 my-2\">\n    <div class=\"paragraph card-text card-stanza my-5 text-center\">You have to consider concepts like <a href=\"https://www.aclu.org/issues/criminal-law-reform/reforming-police/asset-forfeiture-abuse\">Civil Forfeiture</a>,</div>\n    <div class=\"paragraph card-text card-stanza my-5 text-center\">and Paid Medical Care, and even Paid Education, which encompass Unforgivable (by bankruptcy) Student Debt.</div>\n  </div>\n</div>\n<div class=\"card card-section bg-dark text-warning shadow\">\n  <div class=\"section card-body mb-0 my-2\">\n    <div class=\"paragraph card-text card-stanza my-5 text-center\">And that is just the first part of it,</div>\n    <div class=\"paragraph card-text card-stanza my-5 text-center\">because as a Human Being, you have to frame it in the context of the entire humanity.</div>\n  </div>\n</div>\n<div class=\"mb-5 section-spacer\">&nbsp;</div>\n<div class=\"card card-section bg-dark text-warning shadow\">\n  <div class=\"section card-body mb-0 my-2\">\n    <div class=\"paragraph card-text card-stanza my-5 text-center\">Ask yourself what will it be like to be a well-to-do dentist,</div>\n    <div class=\"paragraph card-text card-stanza my-5 text-center\">pulling teeth of your poverty stricken patients, where you could try to save them, if they had hopes of being able to afford the procedure.</div>\n  </div>\n</div>\n<div class=\"card card-section bg-dark text-warning shadow\">\n  <div class=\"section card-body mb-0 my-2\">\n    <div class=\"paragraph card-text card-stanza my-5 text-center\">Ask your self what will it be like to become a Police Officer,</div>\n    <div class=\"paragraph card-text card-stanza my-5 text-center\">in a precinct where hurting the people you are supposed to protect is tolerated, if not encouraged.</div>\n  </div>\n</div>\n<div class=\"card card-section bg-dark text-warning shadow\">\n  <div class=\"section card-body mb-0 my-2\">\n    <div class=\"paragraph card-text card-stanza my-5 text-center\">And hurting may include <a href=\"https://www.youtube.com/watch?v=esPRsT-lmw8\">striking their head which is likely to cause permanent damage</a>,</div>\n    <div class=\"paragraph card-text card-stanza my-5 text-center\"><a href=\"https://www.youtube.com/watch?v=d-7o9xYp7eE\">and you will be encouraged to stretch testimony and force people to perjure themselves</a>, and p[probably as a matter of training and routine.</div>\n  </div>\n</div>\n<div class=\"card card-section bg-dark text-warning shadow\">\n  <div class=\"section card-body mb-0 my-2\">\n    <div class=\"paragraph card-text card-stanza my-5 text-center\">\"Do you know what you did wrong?\"</div>\n  </div>\n</div>\n<div class=\"card card-section bg-dark text-warning shadow\">\n  <div class=\"section card-body mb-0 my-2\">\n    <div class=\"paragraph card-text card-stanza my-5 text-center\">What will it be like to be an Attorney, Judge, or Persecutor during mass incarceration <a href=\"https://www.youtube.com/watch?v=SQ6H-Mz6hgw\">punishing people already punished by poverty</a>,</div>\n    <div class=\"paragraph card-text card-stanza my-5 text-center\">what will you do when the <a href=\"https://www.youtube.com/watch?v=hTlrSYbCbHE\">Human Rights</a> Day comes around, and you realize that you simply can't help but to be part of the problem.</div>\n  </div>\n</div>\n<div class=\"mb-5 section-spacer\">&nbsp;</div>\n<div class=\"card card-section bg-dark text-warning shadow\">\n  <div class=\"section card-body mb-0 my-2\">\n    <div class=\"paragraph card-text card-stanza my-5 text-center\">Also consider the alternative, a combination of the <a href=\"https://www.youtube.com/watch?v=hPSvdKTEZug\">Appalachian</a> and <a href=\"https://www.youtube.com/watch?v=F-0i2l3sqno\">Pacific Crest</a> Trails,</div>\n    <div class=\"paragraph card-text card-stanza my-5 text-center\">combined with a countless number of <a href=\"https://www.youtube.com/watch?v=ZoqgAy3h4OM\">small companies that one by one, will teach you how to succeed</a>, and perhaps give employment to your family as well.</div>\n  </div>\n</div>\n<div class=\"card card-section bg-dark text-warning shadow\">\n  <div class=\"section card-body mb-0 my-2\">\n    <div class=\"paragraph card-text card-stanza my-5 text-center\"><a href=\"https://www.youtube.com/watch?v=g4IWpMk7esk\">Today, Humanity still lacks the Intelligence and Will to repair the money problem</a>,</div>\n    <div class=\"paragraph card-text card-stanza my-5 text-center\">that is part of the reason why you just can't get a job to make your parents happy.</div>\n  </div>\n</div>\n<div class=\"card card-section bg-dark text-warning shadow\">\n  <div class=\"section card-body mb-0 my-2\">\n    <div class=\"paragraph card-text card-stanza my-5 text-center\">Money is not meant to hold Humanity Back,</div>\n    <div class=\"paragraph card-text card-stanza my-5 text-center\">it is supposed to help us grow.</div>\n  </div>\n</div>\n<div class=\"card card-section bg-dark text-warning shadow\">\n  <div class=\"section card-body mb-0 my-2\">\n    <div class=\"paragraph card-text card-stanza my-5 text-center\">The longer we wait to repair this invisible problem,</div>\n    <div class=\"paragraph card-text card-stanza my-5 text-center\">the more needless suffering our Noble and Brilliant Sisters and Brothers will undergo.</div>\n  </div>\n</div>\n<div class=\"mb-5 section-spacer\">&nbsp;</div>\n<div class=\"card card-section bg-dark text-warning shadow\">\n  <div class=\"section card-body mb-0 my-2\">\n    <div class=\"paragraph card-text card-stanza my-5 text-center\">The Universe bows to you,</div>\n    <div class=\"paragraph card-text card-stanza my-5 text-center\">all the future generations bow to you, and with love and understanding, and in, gratitude.</div>\n  </div>\n</div>\n<div class=\"card card-section bg-dark text-warning shadow\">\n  <div class=\"section card-body mb-0 my-2\">\n    <div class=\"paragraph card-text card-stanza my-5 text-center\">Even if all you do, is think about it,</div>\n    <div class=\"paragraph card-text card-stanza my-5 text-center\">and notice it, perhaps hope to fix it.</div>\n  </div>\n</div>\n<div class=\"card card-section bg-dark text-warning shadow\">\n  <div class=\"section card-body mb-0 my-2\">\n    <div class=\"paragraph card-text card-stanza my-5 text-center\">The moment you do something that will touch and help the Humanity of the Future,</div>\n    <div class=\"paragraph card-text card-stanza my-5 text-center\">they will all come to visit you, in their thoughts, and appreciation.</div>\n  </div>\n</div>\n<div class=\"mb-5 section-spacer\">&nbsp;</div>\n<div class=\"card card-section bg-dark text-warning shadow\">\n  <div class=\"section card-body mb-0 my-2\">\n    <div class=\"paragraph card-text card-stanza my-5 text-center\">The changes that are needed,</div>\n    <div class=\"paragraph card-text card-stanza my-5 text-center\">require billions of Great Minds working together across multiple generations.</div>\n  </div>\n</div>\n<div class=\"card card-section bg-dark text-warning shadow\">\n  <div class=\"section card-body mb-0 my-2\">\n    <div class=\"paragraph card-text card-stanza my-5 text-center\">I believe,</div>\n    <div class=\"paragraph card-text card-stanza my-5 text-center\">You are one of those Great Minds.</div>\n  </div>\n</div>\n<div class=\"card card-section bg-dark text-warning shadow\">\n  <div class=\"section card-body mb-0 my-2\">\n    <div class=\"paragraph card-text card-stanza my-5 text-center\">Become,</div>\n    <div class=\"paragraph card-text card-stanza my-5 text-center\">a Great Being,</div>\n  </div>\n</div>\n<div class=\"card card-section bg-dark text-warning shadow\">\n  <div class=\"section card-body mb-0 my-2\">\n    <ul>\n      <li><a href=\"https://www.youtube.com/results?search_query=Greta+Thunberg\">Greta Thunberg</a></li>\n      <li><a href=\"https://www.youtube.com/results?search_query=Michell+Alexander\">Michelle Alexander</a></li>\n      <li><a href=\"https://www.youtube.com/results?search_query=Sir+Ken+Robinson\">Sir Ken Robinson</a></li>\n      <li><a href=\"https://www.youtube.com/results?search_query=Astra+Taylor\">Astra Taylor</a></li>\n      <li><a href=\"https://www.youtube.com/results?search_query=Jill+Tarter\">Jill Tarter</a></li>\n      <li><a href=\"https://www.youtube.com/results?search_query=Brene+Brown\">Brené Brown</a></li>\n      <li><a href=\"https://www.youtube.com/results?search_query=Richard+Dawkins\">Richard Dawkins</a></li>\n      <li><a href=\"https://www.youtube.com/results?search_query=Ayaan+Hirsi+Ali\">Ayaan Hirsi Ali</a></li>\n      <li><a href=\"https://www.youtube.com/results?search_query=Lord+Martin+Rees\">Lord Martin Rees</a></li>\n      <li><a href=\"https://www.youtube.com/results?search_query=Lawrence+Krauss\">Lawrence Krauss</a></li>\n      <li><a href=\"https://www.youtube.com/results?search_query=Dan+Dennett\">Daniel Dennett</a></li>\n      <li><a href=\"https://www.youtube.com/results?search_query=Sam+Harris\">Sam Harris</a></li>\n      <li><a href=\"https://www.youtube.com/results?search_query=Christopher+Hitchens\">Christopher Hitchens</a></li>\n      <li><a href=\"https://www.youtube.com/results?search_query=Bill+Bryson\">Bill Bryson</a></li>\n      <li><a href=\"https://www.youtube.com/results?search_query=PZ+Myers\">PZ Myers</a></li>\n      <li><a href=\"https://www.youtube.com/results?search_query=Alex+Filippenko\">Alex Filippenko</a></li>\n      <li><a href=\"https://www.youtube.com/results?search_query=Seth+Shostak\">Seth Shostak</a></li>\n      <li><a href=\"https://www.youtube.com/results?search_query=Sean+Carroll\">Sean Carroll</a></li>\n      <li><a href=\"https://www.youtube.com/results?search_query=Jared+Diamond\">Jared Diamond</a></li>\n      <li><a href=\"https://www.youtube.com/results?search_query=Howard+Zinn\">Howard Zinn</a></li>\n      <li><a href=\"https://www.youtube.com/results?search_query=Noam+Chomsky\">Noam Chomsky</a></li>\n    </ul>\n  </div>\n</div>",
  "print": "<div class=\"section avoid-break-inside\" style=\"padding-bottom: 2rem;\">\n  <div class=\"paragraph\">No, you are not immune to the effects of indoctrination,</div>\n  <div class=\"paragraph\">the more you climb the more you discover, sometimes it is your own false beliefs, other times it is more of other people's false beliefs.</div>\n</div>\n<div class=\"section avoid-break-inside\" style=\"padding-bottom: 2rem;\">\n  <br>\n</div>\n<div class=\"section avoid-break-inside\" style=\"padding-bottom: 2rem;\">\n  <div class=\"paragraph\"><span>Schools are not working<sup>[1]</sup></span>,</div>\n  <div class=\"paragraph\">they might not have ever worked.</div>\n</div>\n<div class=\"section avoid-break-inside\" style=\"padding-bottom: 2rem;\">\n  <div class=\"paragraph\"><span>They are hurting the students<sup>[2]</sup></span>,</div>\n  <div class=\"paragraph\"><span>they are robbing them of their Unique Greatness<sup>[3]</sup></span>.</div>\n</div>\n<div class=\"section avoid-break-inside\" style=\"padding-bottom: 2rem;\">\n  <div class=\"paragraph\"><span>Nobody is being taught<sup>[4]</sup></span>,</div>\n  <div class=\"paragraph\">what children and students do learn, they learn out of their own brilliance, they learn by standing up against <span>what the schools are trying to process them into<sup>[5]</sup></span>.</div>\n</div>\n<div class=\"section avoid-break-inside\" style=\"padding-bottom: 2rem;\">\n  <br>\n</div>\n<div class=\"section avoid-break-inside\" style=\"padding-bottom: 2rem;\">\n  <div class=\"paragraph\">You are not supposed to go to work tired,</div>\n  <div class=\"paragraph\">you are not allowed to live overworked.</div>\n</div>\n<div class=\"section avoid-break-inside\" style=\"padding-bottom: 2rem;\">\n  <div class=\"paragraph\">Unless your Alarm Clock awakens you to lovely foolish things,</div>\n  <div class=\"paragraph\">you are not supposed to own one.</div>\n</div>\n<div class=\"section avoid-break-inside\" style=\"padding-bottom: 2rem;\">\n  <div class=\"paragraph\">You deserve a Beautiful Life,</div>\n  <div class=\"paragraph\">your life should be beautiful to you, and beautiful to to others as they glance it.</div>\n</div>\n<div class=\"section avoid-break-inside\" style=\"padding-bottom: 2rem;\">\n  <div class=\"paragraph\">It is not supposed to be making you tired,</div>\n  <div class=\"paragraph\">it is supposed to make you brilliant.</div>\n</div>\n<div class=\"section avoid-break-inside\" style=\"padding-bottom: 2rem;\">\n  <div class=\"paragraph\">Your life is supposed to be shaping you into an inspiration,</div>\n  <div class=\"paragraph\">for others to follow.</div>\n</div>\n<div class=\"section avoid-break-inside\" style=\"padding-bottom: 2rem;\">\n  <br>\n</div>\n<div class=\"section avoid-break-inside\" style=\"padding-bottom: 2rem;\">\n  <div class=\"paragraph\">You are not allowed to sacrifice yourself for others,</div>\n  <div class=\"paragraph\">your life is equally as sacred, as all other life.</div>\n</div>\n<div class=\"section avoid-break-inside\" style=\"padding-bottom: 2rem;\">\n  <div class=\"paragraph\">I know what you are thinking,</div>\n  <div class=\"paragraph\">but what I am telling you, is that it is a false belief.</div>\n</div>\n<div class=\"section avoid-break-inside\" style=\"padding-bottom: 2rem;\">\n  <div class=\"paragraph\">You may die in battle,</div>\n  <div class=\"paragraph\">but you may not die in sacrifice.</div>\n</div>\n<div class=\"section avoid-break-inside\" style=\"padding-bottom: 2rem;\">\n  <br>\n</div>\n<div class=\"section avoid-break-inside\" style=\"padding-bottom: 2rem;\">\n  <div class=\"paragraph\">You are not supposed to listen when people tell you to do something,</div>\n  <div class=\"paragraph\">you are supposed to choose your own path.</div>\n</div>\n<div class=\"section avoid-break-inside\" style=\"padding-bottom: 2rem;\">\n  <div class=\"paragraph\">Those people are not just strangers, managers, bosses,</div>\n  <div class=\"paragraph\">but they are also your family, your parents and siblings.</div>\n</div>\n<div class=\"section avoid-break-inside\" style=\"padding-bottom: 2rem;\">\n  <div class=\"paragraph\">If your dad wants you to become a lawyer,</div>\n  <div class=\"paragraph\">tell him to get a second job, and become one himself.</div>\n</div>\n<div class=\"section avoid-break-inside\" style=\"padding-bottom: 2rem;\">\n  <div class=\"paragraph\">You become who you want to become,</div>\n  <div class=\"paragraph\">because your life is your own, and it is sacred.</div>\n</div>\n<div class=\"section avoid-break-inside\" style=\"padding-bottom: 2rem;\">\n  <div class=\"paragraph\">And when your parents tell you to become someone,</div>\n  <div class=\"paragraph\">they are simply forgetting how sacred and precious your life is.</div>\n</div>\n<div class=\"section avoid-break-inside\" style=\"padding-bottom: 2rem;\">\n  <div class=\"paragraph\">If you want to be a Ballerina,</div>\n  <div class=\"paragraph\">go get a <span>TuTu<sup>[6]</sup></span>.</div>\n</div>\n<div class=\"section avoid-break-inside\" style=\"padding-bottom: 2rem;\">\n  <div class=\"paragraph\">And if you just want to retire at 16 and become a Beach Bum,</div>\n  <div class=\"paragraph\">I highly recommend Bill Bryson Audio-books...</div>\n</div>\n<div class=\"section avoid-break-inside\" style=\"padding-bottom: 2rem;\">\n  <div class=\"paragraph\">because being called to this path...</div>\n  <div class=\"paragraph\">will have you become a Philosopher, Poet, Writer, Critic, and a Great Thinker, and goodness knows the <span>Tigers Need You<sup>[7]</sup></span>.</div>\n</div>\n<div class=\"section avoid-break-inside\" style=\"padding-bottom: 2rem;\">\n  <br>\n</div>\n<div class=\"section avoid-break-inside\" style=\"padding-bottom: 2rem;\">\n  <div class=\"paragraph\">And you may know this one already,</div>\n  <div class=\"paragraph\">money is broken.</div>\n</div>\n<div class=\"section avoid-break-inside\" style=\"padding-bottom: 2rem;\">\n  <div class=\"paragraph\">Before you get a job,</div>\n  <div class=\"paragraph\">before you start putting savings aside.</div>\n</div>\n<div class=\"section avoid-break-inside\" style=\"padding-bottom: 2rem;\">\n  <div class=\"paragraph\">You need to see how many is working,</div>\n  <div class=\"paragraph\">you have to consider how many people are living paycheck-to-paycheck.</div>\n</div>\n<div class=\"section avoid-break-inside\" style=\"padding-bottom: 2rem;\">\n  <div class=\"paragraph\">You have to consider concepts like <span>Civil Forfeiture<sup>[8]</sup></span>,</div>\n  <div class=\"paragraph\">and Paid Medical Care, and even Paid Education, which encompass Unforgivable (by bankruptcy) Student Debt.</div>\n</div>\n<div class=\"section avoid-break-inside\" style=\"padding-bottom: 2rem;\">\n  <div class=\"paragraph\">And that is just the first part of it,</div>\n  <div class=\"paragraph\">because as a Human Being, you have to frame it in the context of the entire humanity.</div>\n</div>\n<div class=\"section avoid-break-inside\" style=\"padding-bottom: 2rem;\">\n  <br>\n</div>\n<div class=\"section avoid-break-inside\" style=\"padding-bottom: 2rem;\">\n  <div class=\"paragraph\">Ask yourself what will it be like to be a well-to-do dentist,</div>\n  <div class=\"paragraph\">pulling teeth of your poverty stricken patients, where you could try to save them, if they had hopes of being able to afford the procedure.</div>\n</div>\n<div class=\"section avoid-break-inside\" style=\"padding-bottom: 2rem;\">\n  <div class=\"paragraph\">Ask your self what will it be like to become a Police Officer,</div>\n  <div class=\"paragraph\">in a precinct where hurting the people you are supposed to protect is tolerated, if not encouraged.</div>\n</div>\n<div class=\"section avoid-break-inside\" style=\"padding-bottom: 2rem;\">\n  <div class=\"paragraph\">And hurting may include <span>striking their head which is likely to cause permanent damage<sup>[9]</sup></span>,</div>\n  <div class=\"paragraph\"><span>and you will be encouraged to stretch testimony and force people to perjure themselves<sup>[10]</sup></span>, and p[probably as a matter of training and routine.</div>\n</div>\n<div class=\"section avoid-break-inside\" style=\"padding-bottom: 2rem;\">\n  <div class=\"paragraph\">\"Do you know what you did wrong?\"</div>\n</div>\n<div class=\"section avoid-break-inside\" style=\"padding-bottom: 2rem;\">\n  <div class=\"paragraph\">What will it be like to be an Attorney, Judge, or Persecutor during mass incarceration <span>punishing people already punished by poverty<sup>[11]</sup></span>,</div>\n  <div class=\"paragraph\">what will you do when the <span>Human Rights<sup>[12]</sup></span> Day comes around, and you realize that you simply can't help but to be part of the problem.</div>\n</div>\n<div class=\"section avoid-break-inside\" style=\"padding-bottom: 2rem;\">\n  <br>\n</div>\n<div class=\"section avoid-break-inside\" style=\"padding-bottom: 2rem;\">\n  <div class=\"paragraph\">Also consider the alternative, a combination of the <span>Appalachian<sup>[13]</sup></span> and <span>Pacific Crest<sup>[14]</sup></span> Trails,</div>\n  <div class=\"paragraph\">combined with a countless number of <span>small companies that one by one, will teach you how to succeed<sup>[15]</sup></span>, and perhaps give employment to your family as well.</div>\n</div>\n<div class=\"section avoid-break-inside\" style=\"padding-bottom: 2rem;\">\n  <div class=\"paragraph\"><span>Today, Humanity still lacks the Intelligence and Will to repair the money problem<sup>[16]</sup></span>,</div>\n  <div class=\"paragraph\">that is part of the reason why you just can't get a job to make your parents happy.</div>\n</div>\n<div class=\"section avoid-break-inside\" style=\"padding-bottom: 2rem;\">\n  <div class=\"paragraph\">Money is not meant to hold Humanity Back,</div>\n  <div class=\"paragraph\">it is supposed to help us grow.</div>\n</div>\n<div class=\"section avoid-break-inside\" style=\"padding-bottom: 2rem;\">\n  <div class=\"paragraph\">The longer we wait to repair this invisible problem,</div>\n  <div class=\"paragraph\">the more needless suffering our Noble and Brilliant Sisters and Brothers will undergo.</div>\n</div>\n<div class=\"section avoid-break-inside\" style=\"padding-bottom: 2rem;\">\n  <br>\n</div>\n<div class=\"section avoid-break-inside\" style=\"padding-bottom: 2rem;\">\n  <div class=\"paragraph\">The Universe bows to you,</div>\n  <div class=\"paragraph\">all the future generations bow to you, and with love and understanding, and in, gratitude.</div>\n</div>\n<div class=\"section avoid-break-inside\" style=\"padding-bottom: 2rem;\">\n  <div class=\"paragraph\">Even if all you do, is think about it,</div>\n  <div class=\"paragraph\">and notice it, perhaps hope to fix it.</div>\n</div>\n<div class=\"section avoid-break-inside\" style=\"padding-bottom: 2rem;\">\n  <div class=\"paragraph\">The moment you do something that will touch and help the Humanity of the Future,</div>\n  <div class=\"paragraph\">they will all come to visit you, in their thoughts, and appreciation.</div>\n</div>\n<div class=\"section avoid-break-inside\" style=\"padding-bottom: 2rem;\">\n  <br>\n</div>\n<div class=\"section avoid-break-inside\" style=\"padding-bottom: 2rem;\">\n  <div class=\"paragraph\">The changes that are needed,</div>\n  <div class=\"paragraph\">require billions of Great Minds working together across multiple generations.</div>\n</div>\n<div class=\"section avoid-break-inside\" style=\"padding-bottom: 2rem;\">\n  <div class=\"paragraph\">I believe,</div>\n  <div class=\"paragraph\">You are one of those Great Minds.</div>\n</div>\n<div class=\"section avoid-break-inside\" style=\"padding-bottom: 2rem;\">\n  <div class=\"paragraph\">Become,</div>\n  <div class=\"paragraph\">a Great Being,</div>\n</div>\n<div class=\"section avoid-break-inside\" style=\"padding-bottom: 2rem;\">\n  <ul>\n    <li><span>Greta Thunberg<sup>[17]</sup></span></li>\n    <li><span>Michelle Alexander<sup>[18]</sup></span></li>\n    <li><span>Sir Ken Robinson<sup>[19]</sup></span></li>\n    <li><span>Astra Taylor<sup>[20]</sup></span></li>\n    <li><span>Jill Tarter<sup>[21]</sup></span></li>\n    <li><span>Brené Brown<sup>[22]</sup></span></li>\n    <li><span>Richard Dawkins<sup>[23]</sup></span></li>\n    <li><span>Ayaan Hirsi Ali<sup>[24]</sup></span></li>\n    <li><span>Lord Martin Rees<sup>[25]</sup></span></li>\n    <li><span>Lawrence Krauss<sup>[26]</sup></span></li>\n    <li><span>Daniel Dennett<sup>[27]</sup></span></li>\n    <li><span>Sam Harris<sup>[28]</sup></span></li>\n    <li><span>Christopher Hitchens<sup>[29]</sup></span></li>\n    <li><span>Bill Bryson<sup>[30]</sup></span></li>\n    <li><span>PZ Myers<sup>[31]</sup></span></li>\n    <li><span>Alex Filippenko<sup>[32]</sup></span></li>\n    <li><span>Seth Shostak<sup>[33]</sup></span></li>\n    <li><span>Sean Carroll<sup>[34]</sup></span></li>\n    <li><span>Jared Diamond<sup>[35]</sup></span></li>\n    <li><span>Howard Zinn<sup>[36]</sup></span></li>\n    <li><span>Noam Chomsky<sup>[37]</sup></span></li>\n  </ul>\n</div>\n<div class=\"break-after\">&nbsp;</div>\n<div>\n  <div class=\"section\" style=\"padding-bottom: 1rem;\">References</div>\n  <div>[1]: https://www.youtube.com/watch?v=iG9CE55wbtY</div>\n  <div>[2]: https://www.youtube.com/watch?v=wX78iKhInsc</div>\n  <div>[3]: https://www.youtube.com/watch?v=sxyKNMrhEvY</div>\n  <div>[4]: https://www.youtube.com/watch?v=fmoor8DwqW4</div>\n  <div>[5]: https://www.youtube.com/watch?v=9M4tdMsg3ts</div>\n  <div>[6]: https://www.youtube.com/watch?v=4GAKLwk5MhA&t=82s</div>\n  <div>[7]: https://www.iucnredlist.org/species/15955/50659951</div>\n  <div>[8]: https://www.aclu.org/issues/criminal-law-reform/reforming-police/asset-forfeiture-abuse</div>\n  <div>[9]: https://www.youtube.com/watch?v=esPRsT-lmw8</div>\n  <div>[10]: https://www.youtube.com/watch?v=d-7o9xYp7eE</div>\n  <div>[11]: https://www.youtube.com/watch?v=SQ6H-Mz6hgw</div>\n  <div>[12]: https://www.youtube.com/watch?v=hTlrSYbCbHE</div>\n  <div>[13]: https://www.youtube.com/watch?v=hPSvdKTEZug</div>\n  <div>[14]: https://www.youtube.com/watch?v=F-0i2l3sqno</div>\n  <div>[15]: https://www.youtube.com/watch?v=ZoqgAy3h4OM</div>\n  <div>[16]: https://www.youtube.com/watch?v=g4IWpMk7esk</div>\n  <div>[17]: https://www.youtube.com/results?search_query=Greta+Thunberg</div>\n  <div>[18]: https://www.youtube.com/results?search_query=Michell+Alexander</div>\n  <div>[19]: https://www.youtube.com/results?search_query=Sir+Ken+Robinson</div>\n  <div>[20]: https://www.youtube.com/results?search_query=Astra+Taylor</div>\n  <div>[21]: https://www.youtube.com/results?search_query=Jill+Tarter</div>\n  <div>[22]: https://www.youtube.com/results?search_query=Brene+Brown</div>\n  <div>[23]: https://www.youtube.com/results?search_query=Richard+Dawkins</div>\n  <div>[24]: https://www.youtube.com/results?search_query=Ayaan+Hirsi+Ali</div>\n  <div>[25]: https://www.youtube.com/results?search_query=Lord+Martin+Rees</div>\n  <div>[26]: https://www.youtube.com/results?search_query=Lawrence+Krauss</div>\n  <div>[27]: https://www.youtube.com/results?search_query=Dan+Dennett</div>\n  <div>[28]: https://www.youtube.com/results?search_query=Sam+Harris</div>\n  <div>[29]: https://www.youtube.com/results?search_query=Christopher+Hitchens</div>\n  <div>[30]: https://www.youtube.com/results?search_query=Bill+Bryson</div>\n  <div>[31]: https://www.youtube.com/results?search_query=PZ+Myers</div>\n  <div>[32]: https://www.youtube.com/results?search_query=Alex+Filippenko</div>\n  <div>[33]: https://www.youtube.com/results?search_query=Seth+Shostak</div>\n  <div>[34]: https://www.youtube.com/results?search_query=Sean+Carroll</div>\n  <div>[35]: https://www.youtube.com/results?search_query=Jared+Diamond</div>\n  <div>[36]: https://www.youtube.com/results?search_query=Howard+Zinn</div>\n  <div>[37]: https://www.youtube.com/results?search_query=Noam+Chomsky</div>\n</div>",
  "text": "No, you are not immune to the effects of indoctrination,\nthe more you climb the more you discover, sometimes it is your own false beliefs, other times it is more of other people's false beliefs.\n\nSchools are not working[1],\nthey might not have ever worked.\nThey are hurting the students[2],\nthey are robbing them of their Unique Greatness[3].\nNobody is being taught[4],\nwhat children and students do learn, they learn out of their own brilliance, they learn by standing up against what the schools are trying to process them into[5].\n\nYou are not supposed to go to work tired,\nyou are not allowed to live overworked.\nUnless your Alarm Clock awakens you to lovely foolish things,\nyou are not supposed to own one.\nYou deserve a Beautiful Life,\nyour life should be beautiful to you, and beautiful to to others as they glance it.\nIt is not supposed to be making you tired,\nit is supposed to make you brilliant.\nYour life is supposed to be shaping you into an inspiration,\nfor others to follow.\n\nYou are not allowed to sacrifice yourself for others,\nyour life is equally as sacred, as all other life.\nI know what you are thinking,\nbut what I am telling you, is that it is a false belief.\nYou may die in battle,\nbut you may not die in sacrifice.\n\nYou are not supposed to listen when people tell you to do something,\nyou are supposed to choose your own path.\nThose people are not just strangers, managers, bosses,\nbut they are also your family, your parents and siblings.\nIf your dad wants you to become a lawyer,\ntell him to get a second job, and become one himself.\nYou become who you want to become,\nbecause your life is your own, and it is sacred.\nAnd when your parents tell you to become someone,\nthey are simply forgetting how sacred and precious your life is.\nIf you want to be a Ballerina,\ngo get a TuTu[6].\nAnd if you just want to retire at 16 and become a Beach Bum,\nI highly recommend Bill Bryson Audio-books...\nbecause being called to this path...\nwill have you become a Philosopher, Poet, Writer, Critic, and a Great Thinker, and goodness knows the Tigers Need You[7].\n\nAnd you may know this one already,\nmoney is broken.\nBefore you get a job,\nbefore you start putting savings aside.\nYou need to see how many is working,\nyou have to consider how many people are living paycheck-to-paycheck.\nYou have to consider concepts like Civil Forfeiture[8],\nand Paid Medical Care, and even Paid Education, which encompass Unforgivable (by bankruptcy) Student Debt.\nAnd that is just the first part of it,\nbecause as a Human Being, you have to frame it in the context of the entire humanity.\n\nAsk yourself what will it be like to be a well-to-do dentist,\npulling teeth of your poverty stricken patients, where you could try to save them, if they had hopes of being able to afford the procedure.\nAsk your self what will it be like to become a Police Officer,\nin a precinct where hurting the people you are supposed to protect is tolerated, if not encouraged.\nAnd hurting may include striking their head which is likely to cause permanent damage[9],\nand you will be encouraged to stretch testimony and force people to perjure themselves[10], and p[probably as a matter of training and routine.\n\"Do you know what you did wrong?\"\nWhat will it be like to be an Attorney, Judge, or Persecutor during mass incarceration punishing people already punished by poverty[11],\nwhat will you do when the Human Rights[12] Day comes around, and you realize that you simply can't help but to be part of the problem.\n\nAlso consider the alternative, a combination of the Appalachian[13] and Pacific Crest[14] Trails,\ncombined with a countless number of small companies that one by one, will teach you how to succeed[15], and perhaps give employment to your family as well.\nToday, Humanity still lacks the Intelligence and Will to repair the money problem[16],\nthat is part of the reason why you just can't get a job to make your parents happy.\nMoney is not meant to hold Humanity Back,\nit is supposed to help us grow.\nThe longer we wait to repair this invisible problem,\nthe more needless suffering our Noble and Brilliant Sisters and Brothers will undergo.\n\nThe Universe bows to you,\nall the future generations bow to you, and with love and understanding, and in, gratitude.\nEven if all you do, is think about it,\nand notice it, perhaps hope to fix it.\nThe moment you do something that will touch and help the Humanity of the Future,\nthey will all come to visit you, in their thoughts, and appreciation.\n\nThe changes that are needed,\nrequire billions of Great Minds working together across multiple generations.\nI believe,\nYou are one of those Great Minds.\nBecome,\na Great Being,\n * Greta Thunberg[17]\n * Michelle Alexander[18]\n * Sir Ken Robinson[19]\n * Astra Taylor[20]\n * Jill Tarter[21]\n * Brené Brown[22]\n * Richard Dawkins[23]\n * Ayaan Hirsi Ali[24]\n * Lord Martin Rees[25]\n * Lawrence Krauss[26]\n * Daniel Dennett[27]\n * Sam Harris[28]\n * Christopher Hitchens[29]\n * Bill Bryson[30]\n * PZ Myers[31]\n * Alex Filippenko[32]\n * Seth Shostak[33]\n * Sean Carroll[34]\n * Jared Diamond[35]\n * Howard Zinn[36]\n * Noam Chomsky[37]\n\n \nReferences\n[1]: https://www.youtube.com/watch?v=iG9CE55wbtY\n[2]: https://www.youtube.com/watch?v=wX78iKhInsc\n[3]: https://www.youtube.com/watch?v=sxyKNMrhEvY\n[4]: https://www.youtube.com/watch?v=fmoor8DwqW4\n[5]: https://www.youtube.com/watch?v=9M4tdMsg3ts\n[6]: https://www.youtube.com/watch?v=4GAKLwk5MhA&t=82s\n[7]: https://www.iucnredlist.org/species/15955/50659951\n[8]: https://www.aclu.org/issues/criminal-law-reform/reforming-police/asset-forfeiture-abuse\n[9]: https://www.youtube.com/watch?v=esPRsT-lmw8\n[10]: https://www.youtube.com/watch?v=d-7o9xYp7eE\n[11]: https://www.youtube.com/watch?v=SQ6H-Mz6hgw\n[12]: https://www.youtube.com/watch?v=hTlrSYbCbHE\n[13]: https://www.youtube.com/watch?v=hPSvdKTEZug\n[14]: https://www.youtube.com/watch?v=F-0i2l3sqno\n[15]: https://www.youtube.com/watch?v=ZoqgAy3h4OM\n[16]: https://www.youtube.com/watch?v=g4IWpMk7esk\n[17]: https://www.youtube.com/results?search_query=Greta+Thunberg\n[18]: https://www.youtube.com/results?search_query=Michell+Alexander\n[19]: https://www.youtube.com/results?search_query=Sir+Ken+Robinson\n[20]: https://www.youtube.com/results?search_query=Astra+Taylor\n[21]: https://www.youtube.com/results?search_query=Jill+Tarter\n[22]: https://www.youtube.com/results?search_query=Brene+Brown\n[23]: https://www.youtube.com/results?search_query=Richard+Dawkins\n[24]: https://www.youtube.com/results?search_query=Ayaan+Hirsi+Ali\n[25]: https://www.youtube.com/results?search_query=Lord+Martin+Rees\n[26]: https://www.youtube.com/results?search_query=Lawrence+Krauss\n[27]: https://www.youtube.com/results?search_query=Dan+Dennett\n[28]: https://www.youtube.com/results?search_query=Sam+Harris\n[29]: https://www.youtube.com/results?search_query=Christopher+Hitchens\n[30]: https://www.youtube.com/results?search_query=Bill+Bryson\n[31]: https://www.youtube.com/results?search_query=PZ+Myers\n[32]: https://www.youtube.com/results?search_query=Alex+Filippenko\n[33]: https://www.youtube.com/results?search_query=Seth+Shostak\n[34]: https://www.youtube.com/results?search_query=Sean+Carroll\n[35]: https://www.youtube.com/results?search_query=Jared+Diamond\n[36]: https://www.youtube.com/results?search_query=Howard+Zinn\n[37]: https://www.youtube.com/results?search_query=Noam+Chomsky",
  "images": [],
  "links": [
    {
      "title": "Schools are not working",
      "url": "https://www.youtube.com/watch?v=iG9CE55wbtY",
      "hostname": "www.youtube.com"
    },
    {
      "title": "They are hurting the students",
      "url": "https://www.youtube.com/watch?v=wX78iKhInsc",
      "hostname": "www.youtube.com"
    },
    {
      "title": "they are robbing them of their Unique Greatness",
      "url": "https://www.youtube.com/watch?v=sxyKNMrhEvY",
      "hostname": "www.youtube.com"
    },
    {
      "title": "Nobody is being taught",
      "url": "https://www.youtube.com/watch?v=fmoor8DwqW4",
      "hostname": "www.youtube.com"
    },
    {
      "title": "what the schools are trying to process them into",
      "url": "https://www.youtube.com/watch?v=9M4tdMsg3ts",
      "hostname": "www.youtube.com"
    },
    {
      "title": "TuTu",
      "url": "https://www.youtube.com/watch?v=4GAKLwk5MhA&t=82s",
      "hostname": "www.youtube.com"
    },
    {
      "title": "Tigers Need You",
      "url": "https://www.iucnredlist.org/species/15955/50659951",
      "hostname": "www.iucnredlist.org"
    },
    {
      "title": "Civil Forfeiture",
      "url": "https://www.aclu.org/issues/criminal-law-reform/reforming-police/asset-forfeiture-abuse",
      "hostname": "www.aclu.org"
    },
    {
      "title": "striking their head which is likely to cause permanent damage",
      "url": "https://www.youtube.com/watch?v=esPRsT-lmw8",
      "hostname": "www.youtube.com"
    },
    {
      "title": "and you will be encouraged to stretch testimony and force people to perjure themselves",
      "url": "https://www.youtube.com/watch?v=d-7o9xYp7eE",
      "hostname": "www.youtube.com"
    },
    {
      "title": "punishing people already punished by poverty",
      "url": "https://www.youtube.com/watch?v=SQ6H-Mz6hgw",
      "hostname": "www.youtube.com"
    },
    {
      "title": "Human Rights",
      "url": "https://www.youtube.com/watch?v=hTlrSYbCbHE",
      "hostname": "www.youtube.com"
    },
    {
      "title": "Appalachian",
      "url": "https://www.youtube.com/watch?v=hPSvdKTEZug",
      "hostname": "www.youtube.com"
    },
    {
      "title": "Pacific Crest",
      "url": "https://www.youtube.com/watch?v=F-0i2l3sqno",
      "hostname": "www.youtube.com"
    },
    {
      "title": "small companies that one by one, will teach you how to succeed",
      "url": "https://www.youtube.com/watch?v=ZoqgAy3h4OM",
      "hostname": "www.youtube.com"
    },
    {
      "title": "Today, Humanity still lacks the Intelligence and Will to repair the money problem",
      "url": "https://www.youtube.com/watch?v=g4IWpMk7esk",
      "hostname": "www.youtube.com"
    },
    {
      "title": "Greta Thunberg",
      "url": "https://www.youtube.com/results?search_query=Greta+Thunberg",
      "hostname": "www.youtube.com"
    },
    {
      "title": "Michelle Alexander",
      "url": "https://www.youtube.com/results?search_query=Michell+Alexander",
      "hostname": "www.youtube.com"
    },
    {
      "title": "Sir Ken Robinson",
      "url": "https://www.youtube.com/results?search_query=Sir+Ken+Robinson",
      "hostname": "www.youtube.com"
    },
    {
      "title": "Astra Taylor",
      "url": "https://www.youtube.com/results?search_query=Astra+Taylor",
      "hostname": "www.youtube.com"
    },
    {
      "title": "Jill Tarter",
      "url": "https://www.youtube.com/results?search_query=Jill+Tarter",
      "hostname": "www.youtube.com"
    },
    {
      "title": "Brené Brown",
      "url": "https://www.youtube.com/results?search_query=Brene+Brown",
      "hostname": "www.youtube.com"
    },
    {
      "title": "Richard Dawkins",
      "url": "https://www.youtube.com/results?search_query=Richard+Dawkins",
      "hostname": "www.youtube.com"
    },
    {
      "title": "Ayaan Hirsi Ali",
      "url": "https://www.youtube.com/results?search_query=Ayaan+Hirsi+Ali",
      "hostname": "www.youtube.com"
    },
    {
      "title": "Lord Martin Rees",
      "url": "https://www.youtube.com/results?search_query=Lord+Martin+Rees",
      "hostname": "www.youtube.com"
    },
    {
      "title": "Lawrence Krauss",
      "url": "https://www.youtube.com/results?search_query=Lawrence+Krauss",
      "hostname": "www.youtube.com"
    },
    {
      "title": "Daniel Dennett",
      "url": "https://www.youtube.com/results?search_query=Dan+Dennett",
      "hostname": "www.youtube.com"
    },
    {
      "title": "Sam Harris",
      "url": "https://www.youtube.com/results?search_query=Sam+Harris",
      "hostname": "www.youtube.com"
    },
    {
      "title": "Christopher Hitchens",
      "url": "https://www.youtube.com/results?search_query=Christopher+Hitchens",
      "hostname": "www.youtube.com"
    },
    {
      "title": "Bill Bryson",
      "url": "https://www.youtube.com/results?search_query=Bill+Bryson",
      "hostname": "www.youtube.com"
    },
    {
      "title": "PZ Myers",
      "url": "https://www.youtube.com/results?search_query=PZ+Myers",
      "hostname": "www.youtube.com"
    },
    {
      "title": "Alex Filippenko",
      "url": "https://www.youtube.com/results?search_query=Alex+Filippenko",
      "hostname": "www.youtube.com"
    },
    {
      "title": "Seth Shostak",
      "url": "https://www.youtube.com/results?search_query=Seth+Shostak",
      "hostname": "www.youtube.com"
    },
    {
      "title": "Sean Carroll",
      "url": "https://www.youtube.com/results?search_query=Sean+Carroll",
      "hostname": "www.youtube.com"
    },
    {
      "title": "Jared Diamond",
      "url": "https://www.youtube.com/results?search_query=Jared+Diamond",
      "hostname": "www.youtube.com"
    },
    {
      "title": "Howard Zinn",
      "url": "https://www.youtube.com/results?search_query=Howard+Zinn",
      "hostname": "www.youtube.com"
    },
    {
      "title": "Noam Chomsky",
      "url": "https://www.youtube.com/results?search_query=Noam+Chomsky",
      "hostname": "www.youtube.com"
    }
  ]
}