{
  "title": "Education",
  "date": "2020-12-12T22:36:03.026Z",
  "image": "poetry-0287-illustration.jpg",
  "audio": "poetry-0287.mp3",
  "artwork": "https://pixabay.com/photos/summerfield-woman-girl-sunset-336672/",
  "id": "furkies-purrkies-poetry-0287",
  "attachments": {},
  "guid": "a846b2d6-f62d-48c4-a541-c236e11154fd"
}
