{
  "title": "The Light Of Authenticity and Pursuits of Excellence",
  "date": "2020-09-17T01:14:16.966Z",
  "image": "poetry-0200-illustration.jpg",
  "audio": "poetry-0200.mp3",
  "artwork": "https://unsplash.com/photos/7NAFnzzB024",
  "id": "furkies-purrkies-poetry-0200",
  "attachments": {},
  "guid": "ad172d40-72a9-4508-82bf-1f6e9cdd9ca4"
}
