{
  "name": "furkies-purrkies-poetry-0189",
  "title": "Web Pages For Ages",
  "date": "2020-09-05T23:45:45.161Z",
  "image": "poetry-0189-illustration.jpg",
  "audio": "poetry-0189.mp3",
  "id": "furkies-purrkies-poetry-0189",
  "attachments": {},
  "guid": "52a2fb00-58d5-4f87-bcdf-45302bffe4aa",
  "html": "<div class=\"section\">\n  <p>I&apos;ve been making web pages for ages,</p>\n  <p>learning slowly in many stages.</p>\n</div>\n<div class=\"section\">\n  <p>I begun in 1999,</p>\n  <p>and I am still learning new things about design.</p>\n</div>\n<div class=\"section\">\n  <p>All the programming languages changed many times,</p>\n  <p>but knowing the whole history is very useful at times.</p>\n</div>\n<div class=\"section\">\n  <p>I&apos;ve learned a lot from the command line,</p>\n  <p>to art, colors, design, and how to reach the finish line.</p>\n</div>\n<div class=\"section\">\n  <p>I am surprised how long it all took,</p>\n  <p>but with all I know I am sure I could write a whole book.</p>\n</div>\n<div class=\"section\">\n  <p>I still have to learn a bunch of stuff,</p>\n  <p>but it is not going to be very tough.</p>\n</div>\n<div class=\"section\">\n  <p>I mostly have to get all the colors, and glows to dance and blend,</p>\n  <p>I kind of left all the fun stuff for the very end.</p>\n</div>",
  "bootstrap": "<div class=\"card card-section bg-dark text-warning shadow\">\n  <div class=\"section card-body mb-0 my-2\">\n    <div class=\"paragraph card-text card-stanza my-5 text-center\">I've been making web pages for ages,</div>\n    <div class=\"paragraph card-text card-stanza my-5 text-center\">learning slowly in many stages.</div>\n  </div>\n</div>\n<div class=\"card card-section bg-dark text-warning shadow\">\n  <div class=\"section card-body mb-0 my-2\">\n    <div class=\"paragraph card-text card-stanza my-5 text-center\">I begun in 1999,</div>\n    <div class=\"paragraph card-text card-stanza my-5 text-center\">and I am still learning new things about design.</div>\n  </div>\n</div>\n<div class=\"card card-section bg-dark text-warning shadow\">\n  <div class=\"section card-body mb-0 my-2\">\n    <div class=\"paragraph card-text card-stanza my-5 text-center\">All the programming languages changed many times,</div>\n    <div class=\"paragraph card-text card-stanza my-5 text-center\">but knowing the whole history is very useful at times.</div>\n  </div>\n</div>\n<div class=\"card card-section bg-dark text-warning shadow\">\n  <div class=\"section card-body mb-0 my-2\">\n    <div class=\"paragraph card-text card-stanza my-5 text-center\">I've learned a lot from the command line,</div>\n    <div class=\"paragraph card-text card-stanza my-5 text-center\">to art, colors, design, and how to reach the finish line.</div>\n  </div>\n</div>\n<div class=\"card card-section bg-dark text-warning shadow\">\n  <div class=\"section card-body mb-0 my-2\">\n    <div class=\"paragraph card-text card-stanza my-5 text-center\">I am surprised how long it all took,</div>\n    <div class=\"paragraph card-text card-stanza my-5 text-center\">but with all I know I am sure I could write a whole book.</div>\n  </div>\n</div>\n<div class=\"card card-section bg-dark text-warning shadow\">\n  <div class=\"section card-body mb-0 my-2\">\n    <div class=\"paragraph card-text card-stanza my-5 text-center\">I still have to learn a bunch of stuff,</div>\n    <div class=\"paragraph card-text card-stanza my-5 text-center\">but it is not going to be very tough.</div>\n  </div>\n</div>\n<div class=\"card card-section bg-dark text-warning shadow\">\n  <div class=\"section card-body mb-0 my-2\">\n    <div class=\"paragraph card-text card-stanza my-5 text-center\">I mostly have to get all the colors, and glows to dance and blend,</div>\n    <div class=\"paragraph card-text card-stanza my-5 text-center\">I kind of left all the fun stuff for the very end.</div>\n  </div>\n</div>",
  "print": "<div class=\"section avoid-break-inside\" style=\"padding-bottom: 2rem;\">\n  <div class=\"paragraph\">I've been making web pages for ages,</div>\n  <div class=\"paragraph\">learning slowly in many stages.</div>\n</div>\n<div class=\"section avoid-break-inside\" style=\"padding-bottom: 2rem;\">\n  <div class=\"paragraph\">I begun in 1999,</div>\n  <div class=\"paragraph\">and I am still learning new things about design.</div>\n</div>\n<div class=\"section avoid-break-inside\" style=\"padding-bottom: 2rem;\">\n  <div class=\"paragraph\">All the programming languages changed many times,</div>\n  <div class=\"paragraph\">but knowing the whole history is very useful at times.</div>\n</div>\n<div class=\"section avoid-break-inside\" style=\"padding-bottom: 2rem;\">\n  <div class=\"paragraph\">I've learned a lot from the command line,</div>\n  <div class=\"paragraph\">to art, colors, design, and how to reach the finish line.</div>\n</div>\n<div class=\"section avoid-break-inside\" style=\"padding-bottom: 2rem;\">\n  <div class=\"paragraph\">I am surprised how long it all took,</div>\n  <div class=\"paragraph\">but with all I know I am sure I could write a whole book.</div>\n</div>\n<div class=\"section avoid-break-inside\" style=\"padding-bottom: 2rem;\">\n  <div class=\"paragraph\">I still have to learn a bunch of stuff,</div>\n  <div class=\"paragraph\">but it is not going to be very tough.</div>\n</div>\n<div class=\"section avoid-break-inside\" style=\"padding-bottom: 2rem;\">\n  <div class=\"paragraph\">I mostly have to get all the colors, and glows to dance and blend,</div>\n  <div class=\"paragraph\">I kind of left all the fun stuff for the very end.</div>\n</div>",
  "text": "I've been making web pages for ages,\nlearning slowly in many stages.\nI begun in 1999,\nand I am still learning new things about design.\nAll the programming languages changed many times,\nbut knowing the whole history is very useful at times.\nI've learned a lot from the command line,\nto art, colors, design, and how to reach the finish line.\nI am surprised how long it all took,\nbut with all I know I am sure I could write a whole book.\nI still have to learn a bunch of stuff,\nbut it is not going to be very tough.\nI mostly have to get all the colors, and glows to dance and blend,\nI kind of left all the fun stuff for the very end.",
  "images": [],
  "links": []
}