{
  "name": "furkies-purrkies-poetry-0667",
  "id": "furkies-purrkies-poetry-0667",
  "title": "Westland Loco",
  "date": "2021-12-28T02:12:42.263Z",
  "image": "poetry-0667-illustration.jpg",
  "artwork": "https://catpea.com",
  "audio": "poetry-0667.mp3",
  "guid": "b69b39d5-a7f4-40b8-899d-d727c200dfba",
  "html": "<div class=\"section\">\n  <p>I know you are going to laugh,<br>but let me say it anyway.</p>\n  <p>The locomotive horn,<br>has been bulling me since third grade.</p>\n  <p>There were trains by my <a href=\"https://goo.gl/maps/hwiwrdjNskkbxDNr6\">Grandma's in Wroclaw</a>,<br>so I heard the horn way before.</p>\n  <p>But, it wasn't until <a href=\"https://goo.gl/maps/ygFsopnd1HrA7zkFA\">I moved closer to the trains</a> in third grade,<br>that I found I had quite enough - thank you.</p>\n</div>\n<div class=\"section\">\n  <hr>\n</div>\n<div class=\"section\">\n  <p>I was out on a run,<br>just doing an extra tail end before finishing.</p>\n  <p>Couple of minutes after I crossed the tracks,<br>I heard the train horn behind me.</p>\n  <p>But, I didn't think much of it,<br>I just kept running.</p>\n  <p>I felt a little warm glow about me,<br>my biceps were giving away heat.</p>\n  <p>I was carrying 10lb. in each arm,<br>I didn't ache, I wasn't tired.</p>\n  <p>If that changes in the Summer,<br>if it is the cold that makes me so strong.</p>\n  <p>Oh, I am going to write a poem then,<br>like no tomorrow.</p>\n</div>\n<div class=\"section\">\n  <hr>\n</div>\n<div class=\"section\">\n  <p>As I was nearing the highway,<br>the city lamps ended.</p>\n  <p>And it got pleasantly dark,<br>I put my headlamp on and lit the path.</p>\n  <p>I was just three miles in,<br>though it took forever, and half - two hours to be precise.</p>\n  <p>I <strong>will</strong> improve my pace,<br>I am just having too much fun right now.</p>\n  <p>I made it to the western end of my trail,<br>and gracefully did a little loop-de-loop to run back.</p>\n</div>\n<div class=\"section\">\n  <hr>\n</div>\n<div class=\"section\">\n  <p>I find it is when you do a 180,<br>you often discover that you have been running with the wind.</p>\n  <p>And now you flip the pancake,<br>the side that was used to being hidden from the wind will now face it - Ouch.</p>\n  <p>In less than five minutes,<br>I pulled up my mask and my cheeks squeaked from the cold.</p>\n  <p><strong>Hey</strong>, I am not a mountain goat,<br>yet.</p>\n  <p>I had my track jacket and a wind breaker,<br>in my bag, so it was not a problem.</p>\n  <p>After few more minutes,<br>I got used to the new chill.</p>\n</div>\n<div class=\"section\">\n  <hr>\n</div>\n<div class=\"section\">\n  <p>And that's when I saw it,<br>the light were still blinking by the train tracks.</p>\n  <p>It was like twenty minutes since I heard the horn,<br>so the train stopped.</p>\n  <p>I saw a couple of cars shoot out of the Movie Theater road,<br>pause, and drive away after a moment.</p>\n  <p>I was cut off from getting home,<br>and I couldn't stop and wait, because I would get cold.</p>\n  <p>I made it to the train cars,<br>took my backpack off and put my headphones in there.</p>\n  <p>I didn't want to loose them while crossing,<br>but my lightweight bag was no good for 20lb. of iron.</p>\n  <p>So I had to hurl them across the tracks,<br>between the train cars.</p>\n</div>\n<div class=\"section\">\n  <hr>\n</div>\n<div class=\"section\">\n  <p>Thump,<br>the first one landed OK, but a bit short.</p>\n  <p>I tried to push the second harder,<br>but it went to the side and landed in the rocks getting scuffed up.</p>\n  <p>I was weakened from carrying the 20lb.,<br>for two hours straight.</p>\n  <p>And that became really apparent,<br>as I heaved myself up the ladder on the side.</p>\n  <p>I carefully moved between the train cars,<br>and then grabbed a bar that moved while making a squeaking noise.</p>\n  <p>I would have grabbed something else if the bar was lose,<br>but I could have done away with that metal squeak.</p>\n  <p>I felt pain in my arms,<br>I am usually a lot stronger</p>\n  <p>The train popped up in the middle of my workout,<br>after all.</p>\n  <p>Then as I made it to the corner I forgot the ladder was on the side,<br>and had a whoopse moment.</p>\n  <p>I made the corner, and down like a pro,<br>with the words \"Westland Loco\" on my mind.</p>\n  <p>It is crazy that there is no other way to cross the road,<br>the Ford. Rd. overpass above is even more dangerous then crossing the train.</p>\n</div>\n<div class=\"section\">\n  <hr>\n</div>\n<div class=\"section\">\n  <p>Locomotives,<br>are loco.</p>\n</div>\n<div class=\"section\">\n  <hr>\n</div>\n<div class=\"section\">\n  <p>I got my headphones back on, took a photo,<br>and kept shuffling on - my apartment being only like 15 minutes away.</p>\n  <p>I've decided not to cross the tracks again,<br>I really like that spot where the city lamps end...</p>\n  <p>But, I don't want to get cut-off again,<br>even though there is a ladder, it is dangerous and pretty loco to climb trains.</p>\n</div>\n<div class=\"section\">\n  <hr>\n</div>\n<div class=\"section\">\n  <p>When I woke up in the morning,<br>there was snow on the ground.</p>\n  <p>That's probably what that chill was,<br>the temperature was dropping in preparation for a bit of snow.</p>\n</div>",
  "bootstrap": "<div class=\"card card-section bg-dark text-warning shadow\">\n  <div class=\"section card-body mb-0 my-2\">\n    <div class=\"paragraph card-text card-stanza my-5 text-center\">I know you are going to laugh,<br>but let me say it anyway.</div>\n    <div class=\"paragraph card-text card-stanza my-5 text-center\">The locomotive horn,<br>has been bulling me since third grade.</div>\n    <div class=\"paragraph card-text card-stanza my-5 text-center\">There were trains by my <a href=\"https://goo.gl/maps/hwiwrdjNskkbxDNr6\">Grandma's in Wroclaw</a>,<br>so I heard the horn way before.</div>\n    <div class=\"paragraph card-text card-stanza my-5 text-center\">But, it wasn't until <a href=\"https://goo.gl/maps/ygFsopnd1HrA7zkFA\">I moved closer to the trains</a> in third grade,<br>that I found I had quite enough - thank you.</div>\n  </div>\n</div>\n<div class=\"mb-5 section-spacer\">&nbsp;</div>\n<div class=\"card card-section bg-dark text-warning shadow\">\n  <div class=\"section card-body mb-0 my-2\">\n    <div class=\"paragraph card-text card-stanza my-5 text-center\">I was out on a run,<br>just doing an extra tail end before finishing.</div>\n    <div class=\"paragraph card-text card-stanza my-5 text-center\">Couple of minutes after I crossed the tracks,<br>I heard the train horn behind me.</div>\n    <div class=\"paragraph card-text card-stanza my-5 text-center\">But, I didn't think much of it,<br>I just kept running.</div>\n    <div class=\"paragraph card-text card-stanza my-5 text-center\">I felt a little warm glow about me,<br>my biceps were giving away heat.</div>\n    <div class=\"paragraph card-text card-stanza my-5 text-center\">I was carrying 10lb. in each arm,<br>I didn't ache, I wasn't tired.</div>\n    <div class=\"paragraph card-text card-stanza my-5 text-center\">If that changes in the Summer,<br>if it is the cold that makes me so strong.</div>\n    <div class=\"paragraph card-text card-stanza my-5 text-center\">Oh, I am going to write a poem then,<br>like no tomorrow.</div>\n  </div>\n</div>\n<div class=\"mb-5 section-spacer\">&nbsp;</div>\n<div class=\"card card-section bg-dark text-warning shadow\">\n  <div class=\"section card-body mb-0 my-2\">\n    <div class=\"paragraph card-text card-stanza my-5 text-center\">As I was nearing the highway,<br>the city lamps ended.</div>\n    <div class=\"paragraph card-text card-stanza my-5 text-center\">And it got pleasantly dark,<br>I put my headlamp on and lit the path.</div>\n    <div class=\"paragraph card-text card-stanza my-5 text-center\">I was just three miles in,<br>though it took forever, and half - two hours to be precise.</div>\n    <div class=\"paragraph card-text card-stanza my-5 text-center\">I <strong>will</strong> improve my pace,<br>I am just having too much fun right now.</div>\n    <div class=\"paragraph card-text card-stanza my-5 text-center\">I made it to the western end of my trail,<br>and gracefully did a little loop-de-loop to run back.</div>\n  </div>\n</div>\n<div class=\"mb-5 section-spacer\">&nbsp;</div>\n<div class=\"card card-section bg-dark text-warning shadow\">\n  <div class=\"section card-body mb-0 my-2\">\n    <div class=\"paragraph card-text card-stanza my-5 text-center\">I find it is when you do a 180,<br>you often discover that you have been running with the wind.</div>\n    <div class=\"paragraph card-text card-stanza my-5 text-center\">And now you flip the pancake,<br>the side that was used to being hidden from the wind will now face it - Ouch.</div>\n    <div class=\"paragraph card-text card-stanza my-5 text-center\">In less than five minutes,<br>I pulled up my mask and my cheeks squeaked from the cold.</div>\n    <div class=\"paragraph card-text card-stanza my-5 text-center\"><strong>Hey</strong>, I am not a mountain goat,<br>yet.</div>\n    <div class=\"paragraph card-text card-stanza my-5 text-center\">I had my track jacket and a wind breaker,<br>in my bag, so it was not a problem.</div>\n    <div class=\"paragraph card-text card-stanza my-5 text-center\">After few more minutes,<br>I got used to the new chill.</div>\n  </div>\n</div>\n<div class=\"mb-5 section-spacer\">&nbsp;</div>\n<div class=\"card card-section bg-dark text-warning shadow\">\n  <div class=\"section card-body mb-0 my-2\">\n    <div class=\"paragraph card-text card-stanza my-5 text-center\">And that's when I saw it,<br>the light were still blinking by the train tracks.</div>\n    <div class=\"paragraph card-text card-stanza my-5 text-center\">It was like twenty minutes since I heard the horn,<br>so the train stopped.</div>\n    <div class=\"paragraph card-text card-stanza my-5 text-center\">I saw a couple of cars shoot out of the Movie Theater road,<br>pause, and drive away after a moment.</div>\n    <div class=\"paragraph card-text card-stanza my-5 text-center\">I was cut off from getting home,<br>and I couldn't stop and wait, because I would get cold.</div>\n    <div class=\"paragraph card-text card-stanza my-5 text-center\">I made it to the train cars,<br>took my backpack off and put my headphones in there.</div>\n    <div class=\"paragraph card-text card-stanza my-5 text-center\">I didn't want to loose them while crossing,<br>but my lightweight bag was no good for 20lb. of iron.</div>\n    <div class=\"paragraph card-text card-stanza my-5 text-center\">So I had to hurl them across the tracks,<br>between the train cars.</div>\n  </div>\n</div>\n<div class=\"mb-5 section-spacer\">&nbsp;</div>\n<div class=\"card card-section bg-dark text-warning shadow\">\n  <div class=\"section card-body mb-0 my-2\">\n    <div class=\"paragraph card-text card-stanza my-5 text-center\">Thump,<br>the first one landed OK, but a bit short.</div>\n    <div class=\"paragraph card-text card-stanza my-5 text-center\">I tried to push the second harder,<br>but it went to the side and landed in the rocks getting scuffed up.</div>\n    <div class=\"paragraph card-text card-stanza my-5 text-center\">I was weakened from carrying the 20lb.,<br>for two hours straight.</div>\n    <div class=\"paragraph card-text card-stanza my-5 text-center\">And that became really apparent,<br>as I heaved myself up the ladder on the side.</div>\n    <div class=\"paragraph card-text card-stanza my-5 text-center\">I carefully moved between the train cars,<br>and then grabbed a bar that moved while making a squeaking noise.</div>\n    <div class=\"paragraph card-text card-stanza my-5 text-center\">I would have grabbed something else if the bar was lose,<br>but I could have done away with that metal squeak.</div>\n    <div class=\"paragraph card-text card-stanza my-5 text-center\">I felt pain in my arms,<br>I am usually a lot stronger</div>\n    <div class=\"paragraph card-text card-stanza my-5 text-center\">The train popped up in the middle of my workout,<br>after all.</div>\n    <div class=\"paragraph card-text card-stanza my-5 text-center\">Then as I made it to the corner I forgot the ladder was on the side,<br>and had a whoopse moment.</div>\n    <div class=\"paragraph card-text card-stanza my-5 text-center\">I made the corner, and down like a pro,<br>with the words \"Westland Loco\" on my mind.</div>\n    <div class=\"paragraph card-text card-stanza my-5 text-center\">It is crazy that there is no other way to cross the road,<br>the Ford. Rd. overpass above is even more dangerous then crossing the train.</div>\n  </div>\n</div>\n<div class=\"mb-5 section-spacer\">&nbsp;</div>\n<div class=\"card card-section bg-dark text-warning shadow\">\n  <div class=\"section card-body mb-0 my-2\">\n    <div class=\"paragraph card-text card-stanza my-5 text-center\">Locomotives,<br>are loco.</div>\n  </div>\n</div>\n<div class=\"mb-5 section-spacer\">&nbsp;</div>\n<div class=\"card card-section bg-dark text-warning shadow\">\n  <div class=\"section card-body mb-0 my-2\">\n    <div class=\"paragraph card-text card-stanza my-5 text-center\">I got my headphones back on, took a photo,<br>and kept shuffling on - my apartment being only like 15 minutes away.</div>\n    <div class=\"paragraph card-text card-stanza my-5 text-center\">I've decided not to cross the tracks again,<br>I really like that spot where the city lamps end...</div>\n    <div class=\"paragraph card-text card-stanza my-5 text-center\">But, I don't want to get cut-off again,<br>even though there is a ladder, it is dangerous and pretty loco to climb trains.</div>\n  </div>\n</div>\n<div class=\"mb-5 section-spacer\">&nbsp;</div>\n<div class=\"card card-section bg-dark text-warning shadow\">\n  <div class=\"section card-body mb-0 my-2\">\n    <div class=\"paragraph card-text card-stanza my-5 text-center\">When I woke up in the morning,<br>there was snow on the ground.</div>\n    <div class=\"paragraph card-text card-stanza my-5 text-center\">That's probably what that chill was,<br>the temperature was dropping in preparation for a bit of snow.</div>\n  </div>\n</div>",
  "print": "<div class=\"section avoid-break-inside\" style=\"padding-bottom: 2rem;\">\n  <div class=\"paragraph\">I know you are going to laugh,<br>but let me say it anyway.</div>\n  <div class=\"paragraph\">The locomotive horn,<br>has been bulling me since third grade.</div>\n  <div class=\"paragraph\">There were trains by my <span>Grandma's in Wroclaw<sup>[1]</sup></span>,<br>so I heard the horn way before.</div>\n  <div class=\"paragraph\">But, it wasn't until <span>I moved closer to the trains<sup>[2]</sup></span> in third grade,<br>that I found I had quite enough - thank you.</div>\n</div>\n<div class=\"section avoid-break-inside\" style=\"padding-bottom: 2rem;\">\n  <br>\n</div>\n<div class=\"section avoid-break-inside\" style=\"padding-bottom: 2rem;\">\n  <div class=\"paragraph\">I was out on a run,<br>just doing an extra tail end before finishing.</div>\n  <div class=\"paragraph\">Couple of minutes after I crossed the tracks,<br>I heard the train horn behind me.</div>\n  <div class=\"paragraph\">But, I didn't think much of it,<br>I just kept running.</div>\n  <div class=\"paragraph\">I felt a little warm glow about me,<br>my biceps were giving away heat.</div>\n  <div class=\"paragraph\">I was carrying 10lb. in each arm,<br>I didn't ache, I wasn't tired.</div>\n  <div class=\"paragraph\">If that changes in the Summer,<br>if it is the cold that makes me so strong.</div>\n  <div class=\"paragraph\">Oh, I am going to write a poem then,<br>like no tomorrow.</div>\n</div>\n<div class=\"section avoid-break-inside\" style=\"padding-bottom: 2rem;\">\n  <br>\n</div>\n<div class=\"section avoid-break-inside\" style=\"padding-bottom: 2rem;\">\n  <div class=\"paragraph\">As I was nearing the highway,<br>the city lamps ended.</div>\n  <div class=\"paragraph\">And it got pleasantly dark,<br>I put my headlamp on and lit the path.</div>\n  <div class=\"paragraph\">I was just three miles in,<br>though it took forever, and half - two hours to be precise.</div>\n  <div class=\"paragraph\">I <strong>will</strong> improve my pace,<br>I am just having too much fun right now.</div>\n  <div class=\"paragraph\">I made it to the western end of my trail,<br>and gracefully did a little loop-de-loop to run back.</div>\n</div>\n<div class=\"section avoid-break-inside\" style=\"padding-bottom: 2rem;\">\n  <br>\n</div>\n<div class=\"section avoid-break-inside\" style=\"padding-bottom: 2rem;\">\n  <div class=\"paragraph\">I find it is when you do a 180,<br>you often discover that you have been running with the wind.</div>\n  <div class=\"paragraph\">And now you flip the pancake,<br>the side that was used to being hidden from the wind will now face it - Ouch.</div>\n  <div class=\"paragraph\">In less than five minutes,<br>I pulled up my mask and my cheeks squeaked from the cold.</div>\n  <div class=\"paragraph\"><strong>Hey</strong>, I am not a mountain goat,<br>yet.</div>\n  <div class=\"paragraph\">I had my track jacket and a wind breaker,<br>in my bag, so it was not a problem.</div>\n  <div class=\"paragraph\">After few more minutes,<br>I got used to the new chill.</div>\n</div>\n<div class=\"section avoid-break-inside\" style=\"padding-bottom: 2rem;\">\n  <br>\n</div>\n<div class=\"section avoid-break-inside\" style=\"padding-bottom: 2rem;\">\n  <div class=\"paragraph\">And that's when I saw it,<br>the light were still blinking by the train tracks.</div>\n  <div class=\"paragraph\">It was like twenty minutes since I heard the horn,<br>so the train stopped.</div>\n  <div class=\"paragraph\">I saw a couple of cars shoot out of the Movie Theater road,<br>pause, and drive away after a moment.</div>\n  <div class=\"paragraph\">I was cut off from getting home,<br>and I couldn't stop and wait, because I would get cold.</div>\n  <div class=\"paragraph\">I made it to the train cars,<br>took my backpack off and put my headphones in there.</div>\n  <div class=\"paragraph\">I didn't want to loose them while crossing,<br>but my lightweight bag was no good for 20lb. of iron.</div>\n  <div class=\"paragraph\">So I had to hurl them across the tracks,<br>between the train cars.</div>\n</div>\n<div class=\"section avoid-break-inside\" style=\"padding-bottom: 2rem;\">\n  <br>\n</div>\n<div class=\"section avoid-break-inside\" style=\"padding-bottom: 2rem;\">\n  <div class=\"paragraph\">Thump,<br>the first one landed OK, but a bit short.</div>\n  <div class=\"paragraph\">I tried to push the second harder,<br>but it went to the side and landed in the rocks getting scuffed up.</div>\n  <div class=\"paragraph\">I was weakened from carrying the 20lb.,<br>for two hours straight.</div>\n  <div class=\"paragraph\">And that became really apparent,<br>as I heaved myself up the ladder on the side.</div>\n  <div class=\"paragraph\">I carefully moved between the train cars,<br>and then grabbed a bar that moved while making a squeaking noise.</div>\n  <div class=\"paragraph\">I would have grabbed something else if the bar was lose,<br>but I could have done away with that metal squeak.</div>\n  <div class=\"paragraph\">I felt pain in my arms,<br>I am usually a lot stronger</div>\n  <div class=\"paragraph\">The train popped up in the middle of my workout,<br>after all.</div>\n  <div class=\"paragraph\">Then as I made it to the corner I forgot the ladder was on the side,<br>and had a whoopse moment.</div>\n  <div class=\"paragraph\">I made the corner, and down like a pro,<br>with the words \"Westland Loco\" on my mind.</div>\n  <div class=\"paragraph\">It is crazy that there is no other way to cross the road,<br>the Ford. Rd. overpass above is even more dangerous then crossing the train.</div>\n</div>\n<div class=\"section avoid-break-inside\" style=\"padding-bottom: 2rem;\">\n  <br>\n</div>\n<div class=\"section avoid-break-inside\" style=\"padding-bottom: 2rem;\">\n  <div class=\"paragraph\">Locomotives,<br>are loco.</div>\n</div>\n<div class=\"section avoid-break-inside\" style=\"padding-bottom: 2rem;\">\n  <br>\n</div>\n<div class=\"section avoid-break-inside\" style=\"padding-bottom: 2rem;\">\n  <div class=\"paragraph\">I got my headphones back on, took a photo,<br>and kept shuffling on - my apartment being only like 15 minutes away.</div>\n  <div class=\"paragraph\">I've decided not to cross the tracks again,<br>I really like that spot where the city lamps end...</div>\n  <div class=\"paragraph\">But, I don't want to get cut-off again,<br>even though there is a ladder, it is dangerous and pretty loco to climb trains.</div>\n</div>\n<div class=\"section avoid-break-inside\" style=\"padding-bottom: 2rem;\">\n  <br>\n</div>\n<div class=\"section avoid-break-inside\" style=\"padding-bottom: 2rem;\">\n  <div class=\"paragraph\">When I woke up in the morning,<br>there was snow on the ground.</div>\n  <div class=\"paragraph\">That's probably what that chill was,<br>the temperature was dropping in preparation for a bit of snow.</div>\n</div>\n<div class=\"break-after\">&nbsp;</div>\n<div>\n  <div class=\"section\" style=\"padding-bottom: 1rem;\">References</div>\n  <div>[1]: https://goo.gl/maps/hwiwrdjNskkbxDNr6</div>\n  <div>[2]: https://goo.gl/maps/ygFsopnd1HrA7zkFA</div>\n</div>",
  "text": "I know you are going to laugh,\nbut let me say it anyway.\nThe locomotive horn,\nhas been bulling me since third grade.\nThere were trains by my Grandma's in Wroclaw[1],\nso I heard the horn way before.\nBut, it wasn't until I moved closer to the trains[2] in third grade,\nthat I found I had quite enough - thank you.\n\nI was out on a run,\njust doing an extra tail end before finishing.\nCouple of minutes after I crossed the tracks,\nI heard the train horn behind me.\nBut, I didn't think much of it,\nI just kept running.\nI felt a little warm glow about me,\nmy biceps were giving away heat.\nI was carrying 10lb. in each arm,\nI didn't ache, I wasn't tired.\nIf that changes in the Summer,\nif it is the cold that makes me so strong.\nOh, I am going to write a poem then,\nlike no tomorrow.\n\nAs I was nearing the highway,\nthe city lamps ended.\nAnd it got pleasantly dark,\nI put my headlamp on and lit the path.\nI was just three miles in,\nthough it took forever, and half - two hours to be precise.\nI will improve my pace,\nI am just having too much fun right now.\nI made it to the western end of my trail,\nand gracefully did a little loop-de-loop to run back.\n\nI find it is when you do a 180,\nyou often discover that you have been running with the wind.\nAnd now you flip the pancake,\nthe side that was used to being hidden from the wind will now face it - Ouch.\nIn less than five minutes,\nI pulled up my mask and my cheeks squeaked from the cold.\nHey, I am not a mountain goat,\nyet.\nI had my track jacket and a wind breaker,\nin my bag, so it was not a problem.\nAfter few more minutes,\nI got used to the new chill.\n\nAnd that's when I saw it,\nthe light were still blinking by the train tracks.\nIt was like twenty minutes since I heard the horn,\nso the train stopped.\nI saw a couple of cars shoot out of the Movie Theater road,\npause, and drive away after a moment.\nI was cut off from getting home,\nand I couldn't stop and wait, because I would get cold.\nI made it to the train cars,\ntook my backpack off and put my headphones in there.\nI didn't want to loose them while crossing,\nbut my lightweight bag was no good for 20lb. of iron.\nSo I had to hurl them across the tracks,\nbetween the train cars.\n\nThump,\nthe first one landed OK, but a bit short.\nI tried to push the second harder,\nbut it went to the side and landed in the rocks getting scuffed up.\nI was weakened from carrying the 20lb.,\nfor two hours straight.\nAnd that became really apparent,\nas I heaved myself up the ladder on the side.\nI carefully moved between the train cars,\nand then grabbed a bar that moved while making a squeaking noise.\nI would have grabbed something else if the bar was lose,\nbut I could have done away with that metal squeak.\nI felt pain in my arms,\nI am usually a lot stronger\nThe train popped up in the middle of my workout,\nafter all.\nThen as I made it to the corner I forgot the ladder was on the side,\nand had a whoopse moment.\nI made the corner, and down like a pro,\nwith the words \"Westland Loco\" on my mind.\nIt is crazy that there is no other way to cross the road,\nthe Ford. Rd. overpass above is even more dangerous then crossing the train.\n\nLocomotives,\nare loco.\n\nI got my headphones back on, took a photo,\nand kept shuffling on - my apartment being only like 15 minutes away.\nI've decided not to cross the tracks again,\nI really like that spot where the city lamps end...\nBut, I don't want to get cut-off again,\neven though there is a ladder, it is dangerous and pretty loco to climb trains.\n\nWhen I woke up in the morning,\nthere was snow on the ground.\nThat's probably what that chill was,\nthe temperature was dropping in preparation for a bit of snow.\n \nReferences\n[1]: https://goo.gl/maps/hwiwrdjNskkbxDNr6\n[2]: https://goo.gl/maps/ygFsopnd1HrA7zkFA",
  "images": [],
  "links": [
    {
      "title": "Grandma's in Wroclaw",
      "url": "https://goo.gl/maps/hwiwrdjNskkbxDNr6",
      "hostname": "goo.gl"
    },
    {
      "title": "I moved closer to the trains",
      "url": "https://goo.gl/maps/ygFsopnd1HrA7zkFA",
      "hostname": "goo.gl"
    }
  ]
}