{
  "name": "furkies-purrkies-poetry-0575",
  "id": "furkies-purrkies-poetry-0575",
  "title": "Each Generation Must Guard Real Education",
  "date": "2021-09-27T03:13:18.742Z",
  "image": "poetry-0575-illustration.jpg",
  "artwork": "https://unsplash.com/photos/RJ0dPrxj8N8",
  "audio": "poetry-0575.mp3",
  "guid": "617103a2-ff3c-4c0f-b4ee-ac4dfef3b7ca",
  "html": "<div class=\"section\">\n  <p>We all need to start somewhere,<br>and with a place for a comfortable armchair.</p>\n  <p>A laboratory is perfect for that,<br>plus it is a nice place to rest at.</p>\n  <p>A secret laboratory is great,<br>but it can be as small as your 3D printer plate.</p>\n  <p>So as long as you don’t make a big boom,<br>you can probably event setup in the living room.</p>\n</div>\n<div class=\"section\">\n  <hr>\n</div>\n<div class=\"section\">\n  <p>But above all it is about a solid start,<br>to all your unique art.</p>\n  <p>Use a projector to start painting,<br>you can outline anything.</p>\n  <p>Get an <a href=\"https://www.youtube.com/results?search_query=ender+3+v2+assembly\">Ender</a>,<br>and print a screw you generated in <a href=\"https://www.youtube.com/results?search_query=blender+tutorial\">Blender</a>.</p>\n  <p>Easy peasy meow,<br>and you can start right now.</p>\n  <p>It is all about starting and then moving along,<br>and this path is life long.</p>\n</div>\n<div class=\"section\">\n  <hr>\n</div>\n<div class=\"section\">\n  <p>We don’t know why we have fake education,<br>but it affects every person in every nation.</p>\n  <p>Eventually it will catch up to them,<br>and it will be up to you to fix the mayhem.</p>\n  <p>Even wining a great prize,<br>will not fix problems that are about to arise.</p>\n  <p>The world needed real schools and real wisdom,<br>but we ended up with a broken system.</p>\n  <p>Now we have to teach the world to grow,<br>but this is a talent that the self-taught know.</p>\n  <p>To make real changes right now,<br>you will need to replace schools somehow.</p>\n  <p>Real education will soon be in real need,<br>and the world will need a leader that can lead.</p>\n</div>\n<div class=\"section\">\n  <hr>\n</div>\n<div class=\"section\">\n  <p>The world does not need to unite to look up to you,<br>it needs leaders that will teach, inspire, and stay true.</p>\n  <p>It needs you in narrated books,<br>so that everyone can learn from you despite all the crooks.</p>\n  <p>Due to climate and political change,<br>the new schools need to have a wider range.</p>\n  <p>Lectures can’t be cut up by some abstract subject,<br>they must be self guided and actually connect.</p>\n  <p>The world is not coming to an end,<br>but education is something that we must fix and defend.</p>\n</div>\n<div class=\"section\">\n  <hr>\n</div>\n<div class=\"section\">\n  <p>It all needs a simple start,<br>and there is nothing more pleasant than beginning with art.</p>\n  <p>Then move onto computers, programming, and design,<br>and make all your lessons connect and align.</p>\n  <p>Once you get a taste for real education and school,<br>it will become your most powerful tool.</p>\n  <p>Then all you need to do is help others to the same,<br>and that is not an impossible aim.</p>\n  <p>Once the idea of self education takes root,<br>wisdom and real education will bear fruit.</p>\n  <p>The next generations will take it from there,<br>they will view climate change as something they can repair.</p>\n</div>\n<div class=\"section\">\n  <hr>\n</div>\n<div class=\"section\">\n  <p>Rather than bringing all the students to school,<br>create a new tool.</p>\n  <p>Bring the school to all the students, to that they can learn for real,<br><a href=\"https://www.youtube.com/watch?v=fmoor8DwqW4\">in a place where there are no paycheck to steal</a>.</p>\n  <p>Self paced and self guided learning for real is fun,<br>and at every step of the way the students will feel they have won.</p>\n  <p>No one will have to ask them to pay attention,<br>they will be too busing building some invention.</p>\n  <p>The future is always bright,<br>but we must help the world learn for real, and keep things right.</p>\n  <p>Each generation, must guard real education,<br>despite all the borders we are one family, one real nation.</p>\n</div>",
  "bootstrap": "<div class=\"card card-section bg-dark text-warning shadow\">\n  <div class=\"section card-body mb-0 my-2\">\n    <div class=\"paragraph card-text card-stanza my-5 text-center\">We all need to start somewhere,<br>and with a place for a comfortable armchair.</div>\n    <div class=\"paragraph card-text card-stanza my-5 text-center\">A laboratory is perfect for that,<br>plus it is a nice place to rest at.</div>\n    <div class=\"paragraph card-text card-stanza my-5 text-center\">A secret laboratory is great,<br>but it can be as small as your 3D printer plate.</div>\n    <div class=\"paragraph card-text card-stanza my-5 text-center\">So as long as you don’t make a big boom,<br>you can probably event setup in the living room.</div>\n  </div>\n</div>\n<div class=\"mb-5 section-spacer\">&nbsp;</div>\n<div class=\"card card-section bg-dark text-warning shadow\">\n  <div class=\"section card-body mb-0 my-2\">\n    <div class=\"paragraph card-text card-stanza my-5 text-center\">But above all it is about a solid start,<br>to all your unique art.</div>\n    <div class=\"paragraph card-text card-stanza my-5 text-center\">Use a projector to start painting,<br>you can outline anything.</div>\n    <div class=\"paragraph card-text card-stanza my-5 text-center\">Get an <a href=\"https://www.youtube.com/results?search_query=ender+3+v2+assembly\">Ender</a>,<br>and print a screw you generated in <a href=\"https://www.youtube.com/results?search_query=blender+tutorial\">Blender</a>.</div>\n    <div class=\"paragraph card-text card-stanza my-5 text-center\">Easy peasy meow,<br>and you can start right now.</div>\n    <div class=\"paragraph card-text card-stanza my-5 text-center\">It is all about starting and then moving along,<br>and this path is life long.</div>\n  </div>\n</div>\n<div class=\"mb-5 section-spacer\">&nbsp;</div>\n<div class=\"card card-section bg-dark text-warning shadow\">\n  <div class=\"section card-body mb-0 my-2\">\n    <div class=\"paragraph card-text card-stanza my-5 text-center\">We don’t know why we have fake education,<br>but it affects every person in every nation.</div>\n    <div class=\"paragraph card-text card-stanza my-5 text-center\">Eventually it will catch up to them,<br>and it will be up to you to fix the mayhem.</div>\n    <div class=\"paragraph card-text card-stanza my-5 text-center\">Even wining a great prize,<br>will not fix problems that are about to arise.</div>\n    <div class=\"paragraph card-text card-stanza my-5 text-center\">The world needed real schools and real wisdom,<br>but we ended up with a broken system.</div>\n    <div class=\"paragraph card-text card-stanza my-5 text-center\">Now we have to teach the world to grow,<br>but this is a talent that the self-taught know.</div>\n    <div class=\"paragraph card-text card-stanza my-5 text-center\">To make real changes right now,<br>you will need to replace schools somehow.</div>\n    <div class=\"paragraph card-text card-stanza my-5 text-center\">Real education will soon be in real need,<br>and the world will need a leader that can lead.</div>\n  </div>\n</div>\n<div class=\"mb-5 section-spacer\">&nbsp;</div>\n<div class=\"card card-section bg-dark text-warning shadow\">\n  <div class=\"section card-body mb-0 my-2\">\n    <div class=\"paragraph card-text card-stanza my-5 text-center\">The world does not need to unite to look up to you,<br>it needs leaders that will teach, inspire, and stay true.</div>\n    <div class=\"paragraph card-text card-stanza my-5 text-center\">It needs you in narrated books,<br>so that everyone can learn from you despite all the crooks.</div>\n    <div class=\"paragraph card-text card-stanza my-5 text-center\">Due to climate and political change,<br>the new schools need to have a wider range.</div>\n    <div class=\"paragraph card-text card-stanza my-5 text-center\">Lectures can’t be cut up by some abstract subject,<br>they must be self guided and actually connect.</div>\n    <div class=\"paragraph card-text card-stanza my-5 text-center\">The world is not coming to an end,<br>but education is something that we must fix and defend.</div>\n  </div>\n</div>\n<div class=\"mb-5 section-spacer\">&nbsp;</div>\n<div class=\"card card-section bg-dark text-warning shadow\">\n  <div class=\"section card-body mb-0 my-2\">\n    <div class=\"paragraph card-text card-stanza my-5 text-center\">It all needs a simple start,<br>and there is nothing more pleasant than beginning with art.</div>\n    <div class=\"paragraph card-text card-stanza my-5 text-center\">Then move onto computers, programming, and design,<br>and make all your lessons connect and align.</div>\n    <div class=\"paragraph card-text card-stanza my-5 text-center\">Once you get a taste for real education and school,<br>it will become your most powerful tool.</div>\n    <div class=\"paragraph card-text card-stanza my-5 text-center\">Then all you need to do is help others to the same,<br>and that is not an impossible aim.</div>\n    <div class=\"paragraph card-text card-stanza my-5 text-center\">Once the idea of self education takes root,<br>wisdom and real education will bear fruit.</div>\n    <div class=\"paragraph card-text card-stanza my-5 text-center\">The next generations will take it from there,<br>they will view climate change as something they can repair.</div>\n  </div>\n</div>\n<div class=\"mb-5 section-spacer\">&nbsp;</div>\n<div class=\"card card-section bg-dark text-warning shadow\">\n  <div class=\"section card-body mb-0 my-2\">\n    <div class=\"paragraph card-text card-stanza my-5 text-center\">Rather than bringing all the students to school,<br>create a new tool.</div>\n    <div class=\"paragraph card-text card-stanza my-5 text-center\">Bring the school to all the students, to that they can learn for real,<br><a href=\"https://www.youtube.com/watch?v=fmoor8DwqW4\">in a place where there are no paycheck to steal</a>.</div>\n    <div class=\"paragraph card-text card-stanza my-5 text-center\">Self paced and self guided learning for real is fun,<br>and at every step of the way the students will feel they have won.</div>\n    <div class=\"paragraph card-text card-stanza my-5 text-center\">No one will have to ask them to pay attention,<br>they will be too busing building some invention.</div>\n    <div class=\"paragraph card-text card-stanza my-5 text-center\">The future is always bright,<br>but we must help the world learn for real, and keep things right.</div>\n    <div class=\"paragraph card-text card-stanza my-5 text-center\">Each generation, must guard real education,<br>despite all the borders we are one family, one real nation.</div>\n  </div>\n</div>",
  "print": "<div class=\"section avoid-break-inside\" style=\"padding-bottom: 2rem;\">\n  <div class=\"paragraph\">We all need to start somewhere,<br>and with a place for a comfortable armchair.</div>\n  <div class=\"paragraph\">A laboratory is perfect for that,<br>plus it is a nice place to rest at.</div>\n  <div class=\"paragraph\">A secret laboratory is great,<br>but it can be as small as your 3D printer plate.</div>\n  <div class=\"paragraph\">So as long as you don’t make a big boom,<br>you can probably event setup in the living room.</div>\n</div>\n<div class=\"section avoid-break-inside\" style=\"padding-bottom: 2rem;\">\n  <br>\n</div>\n<div class=\"section avoid-break-inside\" style=\"padding-bottom: 2rem;\">\n  <div class=\"paragraph\">But above all it is about a solid start,<br>to all your unique art.</div>\n  <div class=\"paragraph\">Use a projector to start painting,<br>you can outline anything.</div>\n  <div class=\"paragraph\">Get an <span>Ender<sup>[1]</sup></span>,<br>and print a screw you generated in <span>Blender<sup>[2]</sup></span>.</div>\n  <div class=\"paragraph\">Easy peasy meow,<br>and you can start right now.</div>\n  <div class=\"paragraph\">It is all about starting and then moving along,<br>and this path is life long.</div>\n</div>\n<div class=\"section avoid-break-inside\" style=\"padding-bottom: 2rem;\">\n  <br>\n</div>\n<div class=\"section avoid-break-inside\" style=\"padding-bottom: 2rem;\">\n  <div class=\"paragraph\">We don’t know why we have fake education,<br>but it affects every person in every nation.</div>\n  <div class=\"paragraph\">Eventually it will catch up to them,<br>and it will be up to you to fix the mayhem.</div>\n  <div class=\"paragraph\">Even wining a great prize,<br>will not fix problems that are about to arise.</div>\n  <div class=\"paragraph\">The world needed real schools and real wisdom,<br>but we ended up with a broken system.</div>\n  <div class=\"paragraph\">Now we have to teach the world to grow,<br>but this is a talent that the self-taught know.</div>\n  <div class=\"paragraph\">To make real changes right now,<br>you will need to replace schools somehow.</div>\n  <div class=\"paragraph\">Real education will soon be in real need,<br>and the world will need a leader that can lead.</div>\n</div>\n<div class=\"section avoid-break-inside\" style=\"padding-bottom: 2rem;\">\n  <br>\n</div>\n<div class=\"section avoid-break-inside\" style=\"padding-bottom: 2rem;\">\n  <div class=\"paragraph\">The world does not need to unite to look up to you,<br>it needs leaders that will teach, inspire, and stay true.</div>\n  <div class=\"paragraph\">It needs you in narrated books,<br>so that everyone can learn from you despite all the crooks.</div>\n  <div class=\"paragraph\">Due to climate and political change,<br>the new schools need to have a wider range.</div>\n  <div class=\"paragraph\">Lectures can’t be cut up by some abstract subject,<br>they must be self guided and actually connect.</div>\n  <div class=\"paragraph\">The world is not coming to an end,<br>but education is something that we must fix and defend.</div>\n</div>\n<div class=\"section avoid-break-inside\" style=\"padding-bottom: 2rem;\">\n  <br>\n</div>\n<div class=\"section avoid-break-inside\" style=\"padding-bottom: 2rem;\">\n  <div class=\"paragraph\">It all needs a simple start,<br>and there is nothing more pleasant than beginning with art.</div>\n  <div class=\"paragraph\">Then move onto computers, programming, and design,<br>and make all your lessons connect and align.</div>\n  <div class=\"paragraph\">Once you get a taste for real education and school,<br>it will become your most powerful tool.</div>\n  <div class=\"paragraph\">Then all you need to do is help others to the same,<br>and that is not an impossible aim.</div>\n  <div class=\"paragraph\">Once the idea of self education takes root,<br>wisdom and real education will bear fruit.</div>\n  <div class=\"paragraph\">The next generations will take it from there,<br>they will view climate change as something they can repair.</div>\n</div>\n<div class=\"section avoid-break-inside\" style=\"padding-bottom: 2rem;\">\n  <br>\n</div>\n<div class=\"section avoid-break-inside\" style=\"padding-bottom: 2rem;\">\n  <div class=\"paragraph\">Rather than bringing all the students to school,<br>create a new tool.</div>\n  <div class=\"paragraph\">Bring the school to all the students, to that they can learn for real,<br><span>in a place where there are no paycheck to steal<sup>[3]</sup></span>.</div>\n  <div class=\"paragraph\">Self paced and self guided learning for real is fun,<br>and at every step of the way the students will feel they have won.</div>\n  <div class=\"paragraph\">No one will have to ask them to pay attention,<br>they will be too busing building some invention.</div>\n  <div class=\"paragraph\">The future is always bright,<br>but we must help the world learn for real, and keep things right.</div>\n  <div class=\"paragraph\">Each generation, must guard real education,<br>despite all the borders we are one family, one real nation.</div>\n</div>\n<div class=\"break-after\">&nbsp;</div>\n<div>\n  <div class=\"section\" style=\"padding-bottom: 1rem;\">References</div>\n  <div>[1]: https://www.youtube.com/results?search_query=ender+3+v2+assembly</div>\n  <div>[2]: https://www.youtube.com/results?search_query=blender+tutorial</div>\n  <div>[3]: https://www.youtube.com/watch?v=fmoor8DwqW4</div>\n</div>",
  "text": "We all need to start somewhere,\nand with a place for a comfortable armchair.\nA laboratory is perfect for that,\nplus it is a nice place to rest at.\nA secret laboratory is great,\nbut it can be as small as your 3D printer plate.\nSo as long as you don’t make a big boom,\nyou can probably event setup in the living room.\n\nBut above all it is about a solid start,\nto all your unique art.\nUse a projector to start painting,\nyou can outline anything.\nGet an Ender[1],\nand print a screw you generated in Blender[2].\nEasy peasy meow,\nand you can start right now.\nIt is all about starting and then moving along,\nand this path is life long.\n\nWe don’t know why we have fake education,\nbut it affects every person in every nation.\nEventually it will catch up to them,\nand it will be up to you to fix the mayhem.\nEven wining a great prize,\nwill not fix problems that are about to arise.\nThe world needed real schools and real wisdom,\nbut we ended up with a broken system.\nNow we have to teach the world to grow,\nbut this is a talent that the self-taught know.\nTo make real changes right now,\nyou will need to replace schools somehow.\nReal education will soon be in real need,\nand the world will need a leader that can lead.\n\nThe world does not need to unite to look up to you,\nit needs leaders that will teach, inspire, and stay true.\nIt needs you in narrated books,\nso that everyone can learn from you despite all the crooks.\nDue to climate and political change,\nthe new schools need to have a wider range.\nLectures can’t be cut up by some abstract subject,\nthey must be self guided and actually connect.\nThe world is not coming to an end,\nbut education is something that we must fix and defend.\n\nIt all needs a simple start,\nand there is nothing more pleasant than beginning with art.\nThen move onto computers, programming, and design,\nand make all your lessons connect and align.\nOnce you get a taste for real education and school,\nit will become your most powerful tool.\nThen all you need to do is help others to the same,\nand that is not an impossible aim.\nOnce the idea of self education takes root,\nwisdom and real education will bear fruit.\nThe next generations will take it from there,\nthey will view climate change as something they can repair.\n\nRather than bringing all the students to school,\ncreate a new tool.\nBring the school to all the students, to that they can learn for real,\nin a place where there are no paycheck to steal[3].\nSelf paced and self guided learning for real is fun,\nand at every step of the way the students will feel they have won.\nNo one will have to ask them to pay attention,\nthey will be too busing building some invention.\nThe future is always bright,\nbut we must help the world learn for real, and keep things right.\nEach generation, must guard real education,\ndespite all the borders we are one family, one real nation.\n \nReferences\n[1]: https://www.youtube.com/results?search_query=ender+3+v2+assembly\n[2]: https://www.youtube.com/results?search_query=blender+tutorial\n[3]: https://www.youtube.com/watch?v=fmoor8DwqW4",
  "images": [],
  "links": [
    {
      "title": "Ender",
      "url": "https://www.youtube.com/results?search_query=ender+3+v2+assembly",
      "hostname": "www.youtube.com"
    },
    {
      "title": "Blender",
      "url": "https://www.youtube.com/results?search_query=blender+tutorial",
      "hostname": "www.youtube.com"
    },
    {
      "title": "in a place where there are no paycheck to steal",
      "url": "https://www.youtube.com/watch?v=fmoor8DwqW4",
      "hostname": "www.youtube.com"
    }
  ]
}