{
  "title": "We Must All Write",
  "date": "2020-09-15T21:12:36.380Z",
  "image": "poetry-0199-illustration.jpg",
  "audio": "poetry-0199.mp3",
  "artwork": "https://unsplash.com/photos/tcyW6Im5Uug",
  "id": "furkies-purrkies-poetry-0199",
  "attachments": {},
  "guid": "10b5b4e1-4c85-43ce-b0f5-52c7d8636edc"
}
