{
  "title": "Web Pages For Ages",
  "date": "2020-09-05T23:45:45.161Z",
  "image": "poetry-0189-illustration.jpg",
  "audio": "poetry-0189.mp3",
  "id": "furkies-purrkies-poetry-0189",
  "attachments": {},
  "guid": "52a2fb00-58d5-4f87-bcdf-45302bffe4aa"
}
