{
  "name": "furkies-purrkies-poetry-0738",
  "id": "furkies-purrkies-poetry-0738",
  "title": "The Art Teacher's Story",
  "date": "2022-03-08T21:37:32.450Z",
  "image": "poetry-0738-illustration.jpg",
  "artwork": "https://catpea.com",
  "audio": "poetry-0738.mp3",
  "guid": "22fc7b7d-d37c-47eb-8dd6-723838f87874",
  "html": "<div class=\"section\">\n  <p>Please understand that Superpowers are... real,<br>but the real ones are a magnitude more profound than the stuff in the comics.</p>\n  <p>Hyperrealism or Fantasy Art is a superpower,<br>and so is selling your art, selling creations that come from your heart.</p>\n</div>\n<div class=\"section\">\n  <hr>\n</div>\n<div class=\"section\">\n  <p>Teaching! Hyperrealism and Stylization,<br>is extremely powerful as it helps people out of poverty.</p>\n  <p>Elements of stylization such as glowing eye techniques, or face highlights,<br>or playing with camera focus are perfectly awesome superpowers as well.</p>\n  <p>As the case is with highlights of the cheek, nose and lip, possibly forehead,<br>Hyperrealism is more than just realism.</p>\n  <p>Hyperealism unlike a mere photo,<br>captures the way the image is processed by our minds.</p>\n  <p>And as you progress beyond the wonders of Hyperrealism,<br>you will be stepping into a world of uncharted superpowers.</p>\n</div>\n<div class=\"section\">\n  <hr>\n</div>\n<div class=\"section\">\n  <p>You will actually need a real and fancy journal,<br>so that you can write things down.</p>\n  <p>There will be hundreds of things here,<br>not just glowing eye styles but notes on times of day, and backgrounds.</p>\n  <p>To make eyes glow brighter for example,<br>you don't use a brighter color, nuh uh.</p>\n  <p>You put your character in the middle of dark woods,<br>among cheerful fireflies and maybe a patch of foxfire.</p>\n  <p>What better way to show a bright light,<br>than to make it shine at night.</p>\n  <p>And to capture a sunset,<br>goodness - you don't put a sun in your painting...</p>\n  <p>You highlight the ear<br>so that it glows red, as if lit by a bright sun</p>\n  <p>Hundreds, and hundreds of things,<br>and not so much about the stricture of the head for example.</p>\n  <p>But, just, where the most meaningful shadows and highlights go,<br>that make portraits come to life...</p>\n  <p>And not just in your hands,<br>your journal stands for more...</p>\n</div>\n<div class=\"section\">\n  <hr>\n</div>\n<div class=\"section\">\n  <p>Can you imagine it?</p>\n  <p>It is a deep and dark December,<br>your defiant heals are clicking on cold concrete.</p>\n  <p>Might as well trade your biggest purse for a backpack,<br>you brought a bunch of tablets with you.</p>\n  <p>You feel footsteps behind you, you try to ignore it,<br>so you keep it cool and ponder the backup tablets you brought just in case.</p>\n  <p>But eventually,<br>you just have to look.</p>\n  <p>And it is the cheery eyed lady with the sweet accent,<br>that always shows up first in class and never says anything.</p>\n  <p>But she hears your every word,<br>with awe.</p>\n  <p>Her nose is red,<br>and that totally just made half your lecture about noses.</p>\n  <p>And she has her tablet under her arm,<br>you smile, she smiles, the universe smiles, and the future of the human kind if brighter for it.</p>\n</div>\n<div class=\"section\">\n  <hr>\n</div>\n<div class=\"section\">\n  <p>You are on a mission,<br>as far as you can tell School/craft won't call you back next semester.</p>\n  <p>So you set your mind on getting theses kids,<br>from zero to hero every lecture.</p>\n  <p>And it may not be clear to you,<br>but your two first lectures left them freaking the heck out.</p>\n  <p>Orientation is supposed to go slow mo,<br>but you showed up few hours early and set-up Krita and all the tablets ... which cost you $1,100 dollars -- but f**k it, cause your class is a work of art too.</p>\n  <p>And all of them did setup with art sellers,<br>and some art <strong>was</strong> bought, mostly parents, but it <strong>absolutley</strong> counts.</p>\n</div>\n<div class=\"section\">\n  <hr>\n</div>\n<div class=\"section\">\n  <p>Your third lecture,<br>will show every one of your students through and through, that they don't have to be scared of poverty anymore.</p>\n  <p>They can see the road,<br>unbeknownst to you - the young lady behind you is about to make a sale during your lecture.</p>\n  <p>Everyone will just pause,<br>they will look at your rosy smiling face, and the portrait that was sold, and the young lady squeaking with delight, and back to the smiling you.</p>\n  <p>On your fourth lecture,<br>you will read out a note from the customer, that they had the portrait printed on a canvas and that they love it.</p>\n</div>\n<div class=\"section\">\n  <hr>\n</div>\n<div class=\"section\">\n  <p>All of your twelve lectures,<br>make the kids speechless, as you armed each of your meetings with real results.</p>\n  <p>And you are constantly interrupted,<br>by squeaks of new sales.</p>\n</div>\n<div class=\"section\">\n  <hr>\n</div>\n<div class=\"section\">\n  <p>The two girls in middle row that were talking on the first lecture,<br>until they saw how easy portraits are.</p>\n  <p>They actually end up teaching digital art at Peace Corps,<br>and later on, end up with a huge fashion design studio.</p>\n</div>\n<div class=\"section\">\n  <hr>\n</div>\n<div class=\"section\">\n  <p>Not only will they never forget you,<br>but they too become teachers.</p>\n  <p>Certainly for their friends,<br>but also, one teaches at UofM, and another started her own art school.</p>\n  <p>The cheery young lady,<br>ends up working at the UN...</p>\n  <p>And nothing she does, is without that start-and-end punch,<br>that you taught her.</p>\n  <p>She'll talk about you for decades,<br>\"Not only did she make each lecture meaningful, but she showed us we were not poor.\"</p>\n</div>\n<div class=\"section\">\n  <hr>\n</div>\n<div class=\"section\">\n  <p>Friedrich Nietzsche caught on the importance of art,<br>\"Art is the proper task of life.\" - Mindful and meaningful life.</p>\n  <p>Art was never about the works, ever,<br>it was always about harnessing the power to change the world - about building bridges to greater places.</p>\n  <p>Here you taught your students a way out of poverty,<br>and they took that beyond anything that you could have grasped,</p>\n  <p>You changed their world,<br>and in return they changed the world in a way that kept all, away from the terrors of poverty.</p>\n</div>",
  "bootstrap": "<div class=\"card card-section bg-dark text-warning shadow\">\n  <div class=\"section card-body mb-0 my-2\">\n    <div class=\"paragraph card-text card-stanza my-5 text-center\">Please understand that Superpowers are... real,<br>but the real ones are a magnitude more profound than the stuff in the comics.</div>\n    <div class=\"paragraph card-text card-stanza my-5 text-center\">Hyperrealism or Fantasy Art is a superpower,<br>and so is selling your art, selling creations that come from your heart.</div>\n  </div>\n</div>\n<div class=\"mb-5 section-spacer\">&nbsp;</div>\n<div class=\"card card-section bg-dark text-warning shadow\">\n  <div class=\"section card-body mb-0 my-2\">\n    <div class=\"paragraph card-text card-stanza my-5 text-center\">Teaching! Hyperrealism and Stylization,<br>is extremely powerful as it helps people out of poverty.</div>\n    <div class=\"paragraph card-text card-stanza my-5 text-center\">Elements of stylization such as glowing eye techniques, or face highlights,<br>or playing with camera focus are perfectly awesome superpowers as well.</div>\n    <div class=\"paragraph card-text card-stanza my-5 text-center\">As the case is with highlights of the cheek, nose and lip, possibly forehead,<br>Hyperrealism is more than just realism.</div>\n    <div class=\"paragraph card-text card-stanza my-5 text-center\">Hyperealism unlike a mere photo,<br>captures the way the image is processed by our minds.</div>\n    <div class=\"paragraph card-text card-stanza my-5 text-center\">And as you progress beyond the wonders of Hyperrealism,<br>you will be stepping into a world of uncharted superpowers.</div>\n  </div>\n</div>\n<div class=\"mb-5 section-spacer\">&nbsp;</div>\n<div class=\"card card-section bg-dark text-warning shadow\">\n  <div class=\"section card-body mb-0 my-2\">\n    <div class=\"paragraph card-text card-stanza my-5 text-center\">You will actually need a real and fancy journal,<br>so that you can write things down.</div>\n    <div class=\"paragraph card-text card-stanza my-5 text-center\">There will be hundreds of things here,<br>not just glowing eye styles but notes on times of day, and backgrounds.</div>\n    <div class=\"paragraph card-text card-stanza my-5 text-center\">To make eyes glow brighter for example,<br>you don't use a brighter color, nuh uh.</div>\n    <div class=\"paragraph card-text card-stanza my-5 text-center\">You put your character in the middle of dark woods,<br>among cheerful fireflies and maybe a patch of foxfire.</div>\n    <div class=\"paragraph card-text card-stanza my-5 text-center\">What better way to show a bright light,<br>than to make it shine at night.</div>\n    <div class=\"paragraph card-text card-stanza my-5 text-center\">And to capture a sunset,<br>goodness - you don't put a sun in your painting...</div>\n    <div class=\"paragraph card-text card-stanza my-5 text-center\">You highlight the ear<br>so that it glows red, as if lit by a bright sun</div>\n    <div class=\"paragraph card-text card-stanza my-5 text-center\">Hundreds, and hundreds of things,<br>and not so much about the stricture of the head for example.</div>\n    <div class=\"paragraph card-text card-stanza my-5 text-center\">But, just, where the most meaningful shadows and highlights go,<br>that make portraits come to life...</div>\n    <div class=\"paragraph card-text card-stanza my-5 text-center\">And not just in your hands,<br>your journal stands for more...</div>\n  </div>\n</div>\n<div class=\"mb-5 section-spacer\">&nbsp;</div>\n<div class=\"card card-section bg-dark text-warning shadow\">\n  <div class=\"section card-body mb-0 my-2\">\n    <div class=\"paragraph card-text card-stanza my-5 text-center\">Can you imagine it?</div>\n    <div class=\"paragraph card-text card-stanza my-5 text-center\">It is a deep and dark December,<br>your defiant heals are clicking on cold concrete.</div>\n    <div class=\"paragraph card-text card-stanza my-5 text-center\">Might as well trade your biggest purse for a backpack,<br>you brought a bunch of tablets with you.</div>\n    <div class=\"paragraph card-text card-stanza my-5 text-center\">You feel footsteps behind you, you try to ignore it,<br>so you keep it cool and ponder the backup tablets you brought just in case.</div>\n    <div class=\"paragraph card-text card-stanza my-5 text-center\">But eventually,<br>you just have to look.</div>\n    <div class=\"paragraph card-text card-stanza my-5 text-center\">And it is the cheery eyed lady with the sweet accent,<br>that always shows up first in class and never says anything.</div>\n    <div class=\"paragraph card-text card-stanza my-5 text-center\">But she hears your every word,<br>with awe.</div>\n    <div class=\"paragraph card-text card-stanza my-5 text-center\">Her nose is red,<br>and that totally just made half your lecture about noses.</div>\n    <div class=\"paragraph card-text card-stanza my-5 text-center\">And she has her tablet under her arm,<br>you smile, she smiles, the universe smiles, and the future of the human kind if brighter for it.</div>\n  </div>\n</div>\n<div class=\"mb-5 section-spacer\">&nbsp;</div>\n<div class=\"card card-section bg-dark text-warning shadow\">\n  <div class=\"section card-body mb-0 my-2\">\n    <div class=\"paragraph card-text card-stanza my-5 text-center\">You are on a mission,<br>as far as you can tell School/craft won't call you back next semester.</div>\n    <div class=\"paragraph card-text card-stanza my-5 text-center\">So you set your mind on getting theses kids,<br>from zero to hero every lecture.</div>\n    <div class=\"paragraph card-text card-stanza my-5 text-center\">And it may not be clear to you,<br>but your two first lectures left them freaking the heck out.</div>\n    <div class=\"paragraph card-text card-stanza my-5 text-center\">Orientation is supposed to go slow mo,<br>but you showed up few hours early and set-up Krita and all the tablets ... which cost you $1,100 dollars -- but f**k it, cause your class is a work of art too.</div>\n    <div class=\"paragraph card-text card-stanza my-5 text-center\">And all of them did setup with art sellers,<br>and some art <strong>was</strong> bought, mostly parents, but it <strong>absolutley</strong> counts.</div>\n  </div>\n</div>\n<div class=\"mb-5 section-spacer\">&nbsp;</div>\n<div class=\"card card-section bg-dark text-warning shadow\">\n  <div class=\"section card-body mb-0 my-2\">\n    <div class=\"paragraph card-text card-stanza my-5 text-center\">Your third lecture,<br>will show every one of your students through and through, that they don't have to be scared of poverty anymore.</div>\n    <div class=\"paragraph card-text card-stanza my-5 text-center\">They can see the road,<br>unbeknownst to you - the young lady behind you is about to make a sale during your lecture.</div>\n    <div class=\"paragraph card-text card-stanza my-5 text-center\">Everyone will just pause,<br>they will look at your rosy smiling face, and the portrait that was sold, and the young lady squeaking with delight, and back to the smiling you.</div>\n    <div class=\"paragraph card-text card-stanza my-5 text-center\">On your fourth lecture,<br>you will read out a note from the customer, that they had the portrait printed on a canvas and that they love it.</div>\n  </div>\n</div>\n<div class=\"mb-5 section-spacer\">&nbsp;</div>\n<div class=\"card card-section bg-dark text-warning shadow\">\n  <div class=\"section card-body mb-0 my-2\">\n    <div class=\"paragraph card-text card-stanza my-5 text-center\">All of your twelve lectures,<br>make the kids speechless, as you armed each of your meetings with real results.</div>\n    <div class=\"paragraph card-text card-stanza my-5 text-center\">And you are constantly interrupted,<br>by squeaks of new sales.</div>\n  </div>\n</div>\n<div class=\"mb-5 section-spacer\">&nbsp;</div>\n<div class=\"card card-section bg-dark text-warning shadow\">\n  <div class=\"section card-body mb-0 my-2\">\n    <div class=\"paragraph card-text card-stanza my-5 text-center\">The two girls in middle row that were talking on the first lecture,<br>until they saw how easy portraits are.</div>\n    <div class=\"paragraph card-text card-stanza my-5 text-center\">They actually end up teaching digital art at Peace Corps,<br>and later on, end up with a huge fashion design studio.</div>\n  </div>\n</div>\n<div class=\"mb-5 section-spacer\">&nbsp;</div>\n<div class=\"card card-section bg-dark text-warning shadow\">\n  <div class=\"section card-body mb-0 my-2\">\n    <div class=\"paragraph card-text card-stanza my-5 text-center\">Not only will they never forget you,<br>but they too become teachers.</div>\n    <div class=\"paragraph card-text card-stanza my-5 text-center\">Certainly for their friends,<br>but also, one teaches at UofM, and another started her own art school.</div>\n    <div class=\"paragraph card-text card-stanza my-5 text-center\">The cheery young lady,<br>ends up working at the UN...</div>\n    <div class=\"paragraph card-text card-stanza my-5 text-center\">And nothing she does, is without that start-and-end punch,<br>that you taught her.</div>\n    <div class=\"paragraph card-text card-stanza my-5 text-center\">She'll talk about you for decades,<br>\"Not only did she make each lecture meaningful, but she showed us we were not poor.\"</div>\n  </div>\n</div>\n<div class=\"mb-5 section-spacer\">&nbsp;</div>\n<div class=\"card card-section bg-dark text-warning shadow\">\n  <div class=\"section card-body mb-0 my-2\">\n    <div class=\"paragraph card-text card-stanza my-5 text-center\">Friedrich Nietzsche caught on the importance of art,<br>\"Art is the proper task of life.\" - Mindful and meaningful life.</div>\n    <div class=\"paragraph card-text card-stanza my-5 text-center\">Art was never about the works, ever,<br>it was always about harnessing the power to change the world - about building bridges to greater places.</div>\n    <div class=\"paragraph card-text card-stanza my-5 text-center\">Here you taught your students a way out of poverty,<br>and they took that beyond anything that you could have grasped,</div>\n    <div class=\"paragraph card-text card-stanza my-5 text-center\">You changed their world,<br>and in return they changed the world in a way that kept all, away from the terrors of poverty.</div>\n  </div>\n</div>",
  "print": "<div class=\"section avoid-break-inside\" style=\"padding-bottom: 2rem;\">\n  <div class=\"paragraph\">Please understand that Superpowers are... real,<br>but the real ones are a magnitude more profound than the stuff in the comics.</div>\n  <div class=\"paragraph\">Hyperrealism or Fantasy Art is a superpower,<br>and so is selling your art, selling creations that come from your heart.</div>\n</div>\n<div class=\"section avoid-break-inside\" style=\"padding-bottom: 2rem;\">\n  <br>\n</div>\n<div class=\"section avoid-break-inside\" style=\"padding-bottom: 2rem;\">\n  <div class=\"paragraph\">Teaching! Hyperrealism and Stylization,<br>is extremely powerful as it helps people out of poverty.</div>\n  <div class=\"paragraph\">Elements of stylization such as glowing eye techniques, or face highlights,<br>or playing with camera focus are perfectly awesome superpowers as well.</div>\n  <div class=\"paragraph\">As the case is with highlights of the cheek, nose and lip, possibly forehead,<br>Hyperrealism is more than just realism.</div>\n  <div class=\"paragraph\">Hyperealism unlike a mere photo,<br>captures the way the image is processed by our minds.</div>\n  <div class=\"paragraph\">And as you progress beyond the wonders of Hyperrealism,<br>you will be stepping into a world of uncharted superpowers.</div>\n</div>\n<div class=\"section avoid-break-inside\" style=\"padding-bottom: 2rem;\">\n  <br>\n</div>\n<div class=\"section avoid-break-inside\" style=\"padding-bottom: 2rem;\">\n  <div class=\"paragraph\">You will actually need a real and fancy journal,<br>so that you can write things down.</div>\n  <div class=\"paragraph\">There will be hundreds of things here,<br>not just glowing eye styles but notes on times of day, and backgrounds.</div>\n  <div class=\"paragraph\">To make eyes glow brighter for example,<br>you don't use a brighter color, nuh uh.</div>\n  <div class=\"paragraph\">You put your character in the middle of dark woods,<br>among cheerful fireflies and maybe a patch of foxfire.</div>\n  <div class=\"paragraph\">What better way to show a bright light,<br>than to make it shine at night.</div>\n  <div class=\"paragraph\">And to capture a sunset,<br>goodness - you don't put a sun in your painting...</div>\n  <div class=\"paragraph\">You highlight the ear<br>so that it glows red, as if lit by a bright sun</div>\n  <div class=\"paragraph\">Hundreds, and hundreds of things,<br>and not so much about the stricture of the head for example.</div>\n  <div class=\"paragraph\">But, just, where the most meaningful shadows and highlights go,<br>that make portraits come to life...</div>\n  <div class=\"paragraph\">And not just in your hands,<br>your journal stands for more...</div>\n</div>\n<div class=\"section avoid-break-inside\" style=\"padding-bottom: 2rem;\">\n  <br>\n</div>\n<div class=\"section avoid-break-inside\" style=\"padding-bottom: 2rem;\">\n  <div class=\"paragraph\">Can you imagine it?</div>\n  <div class=\"paragraph\">It is a deep and dark December,<br>your defiant heals are clicking on cold concrete.</div>\n  <div class=\"paragraph\">Might as well trade your biggest purse for a backpack,<br>you brought a bunch of tablets with you.</div>\n  <div class=\"paragraph\">You feel footsteps behind you, you try to ignore it,<br>so you keep it cool and ponder the backup tablets you brought just in case.</div>\n  <div class=\"paragraph\">But eventually,<br>you just have to look.</div>\n  <div class=\"paragraph\">And it is the cheery eyed lady with the sweet accent,<br>that always shows up first in class and never says anything.</div>\n  <div class=\"paragraph\">But she hears your every word,<br>with awe.</div>\n  <div class=\"paragraph\">Her nose is red,<br>and that totally just made half your lecture about noses.</div>\n  <div class=\"paragraph\">And she has her tablet under her arm,<br>you smile, she smiles, the universe smiles, and the future of the human kind if brighter for it.</div>\n</div>\n<div class=\"section avoid-break-inside\" style=\"padding-bottom: 2rem;\">\n  <br>\n</div>\n<div class=\"section avoid-break-inside\" style=\"padding-bottom: 2rem;\">\n  <div class=\"paragraph\">You are on a mission,<br>as far as you can tell School/craft won't call you back next semester.</div>\n  <div class=\"paragraph\">So you set your mind on getting theses kids,<br>from zero to hero every lecture.</div>\n  <div class=\"paragraph\">And it may not be clear to you,<br>but your two first lectures left them freaking the heck out.</div>\n  <div class=\"paragraph\">Orientation is supposed to go slow mo,<br>but you showed up few hours early and set-up Krita and all the tablets ... which cost you $1,100 dollars -- but f**k it, cause your class is a work of art too.</div>\n  <div class=\"paragraph\">And all of them did setup with art sellers,<br>and some art <strong>was</strong> bought, mostly parents, but it <strong>absolutley</strong> counts.</div>\n</div>\n<div class=\"section avoid-break-inside\" style=\"padding-bottom: 2rem;\">\n  <br>\n</div>\n<div class=\"section avoid-break-inside\" style=\"padding-bottom: 2rem;\">\n  <div class=\"paragraph\">Your third lecture,<br>will show every one of your students through and through, that they don't have to be scared of poverty anymore.</div>\n  <div class=\"paragraph\">They can see the road,<br>unbeknownst to you - the young lady behind you is about to make a sale during your lecture.</div>\n  <div class=\"paragraph\">Everyone will just pause,<br>they will look at your rosy smiling face, and the portrait that was sold, and the young lady squeaking with delight, and back to the smiling you.</div>\n  <div class=\"paragraph\">On your fourth lecture,<br>you will read out a note from the customer, that they had the portrait printed on a canvas and that they love it.</div>\n</div>\n<div class=\"section avoid-break-inside\" style=\"padding-bottom: 2rem;\">\n  <br>\n</div>\n<div class=\"section avoid-break-inside\" style=\"padding-bottom: 2rem;\">\n  <div class=\"paragraph\">All of your twelve lectures,<br>make the kids speechless, as you armed each of your meetings with real results.</div>\n  <div class=\"paragraph\">And you are constantly interrupted,<br>by squeaks of new sales.</div>\n</div>\n<div class=\"section avoid-break-inside\" style=\"padding-bottom: 2rem;\">\n  <br>\n</div>\n<div class=\"section avoid-break-inside\" style=\"padding-bottom: 2rem;\">\n  <div class=\"paragraph\">The two girls in middle row that were talking on the first lecture,<br>until they saw how easy portraits are.</div>\n  <div class=\"paragraph\">They actually end up teaching digital art at Peace Corps,<br>and later on, end up with a huge fashion design studio.</div>\n</div>\n<div class=\"section avoid-break-inside\" style=\"padding-bottom: 2rem;\">\n  <br>\n</div>\n<div class=\"section avoid-break-inside\" style=\"padding-bottom: 2rem;\">\n  <div class=\"paragraph\">Not only will they never forget you,<br>but they too become teachers.</div>\n  <div class=\"paragraph\">Certainly for their friends,<br>but also, one teaches at UofM, and another started her own art school.</div>\n  <div class=\"paragraph\">The cheery young lady,<br>ends up working at the UN...</div>\n  <div class=\"paragraph\">And nothing she does, is without that start-and-end punch,<br>that you taught her.</div>\n  <div class=\"paragraph\">She'll talk about you for decades,<br>\"Not only did she make each lecture meaningful, but she showed us we were not poor.\"</div>\n</div>\n<div class=\"section avoid-break-inside\" style=\"padding-bottom: 2rem;\">\n  <br>\n</div>\n<div class=\"section avoid-break-inside\" style=\"padding-bottom: 2rem;\">\n  <div class=\"paragraph\">Friedrich Nietzsche caught on the importance of art,<br>\"Art is the proper task of life.\" - Mindful and meaningful life.</div>\n  <div class=\"paragraph\">Art was never about the works, ever,<br>it was always about harnessing the power to change the world - about building bridges to greater places.</div>\n  <div class=\"paragraph\">Here you taught your students a way out of poverty,<br>and they took that beyond anything that you could have grasped,</div>\n  <div class=\"paragraph\">You changed their world,<br>and in return they changed the world in a way that kept all, away from the terrors of poverty.</div>\n</div>",
  "text": "Please understand that Superpowers are... real,\nbut the real ones are a magnitude more profound than the stuff in the comics.\nHyperrealism or Fantasy Art is a superpower,\nand so is selling your art, selling creations that come from your heart.\n\nTeaching! Hyperrealism and Stylization,\nis extremely powerful as it helps people out of poverty.\nElements of stylization such as glowing eye techniques, or face highlights,\nor playing with camera focus are perfectly awesome superpowers as well.\nAs the case is with highlights of the cheek, nose and lip, possibly forehead,\nHyperrealism is more than just realism.\nHyperealism unlike a mere photo,\ncaptures the way the image is processed by our minds.\nAnd as you progress beyond the wonders of Hyperrealism,\nyou will be stepping into a world of uncharted superpowers.\n\nYou will actually need a real and fancy journal,\nso that you can write things down.\nThere will be hundreds of things here,\nnot just glowing eye styles but notes on times of day, and backgrounds.\nTo make eyes glow brighter for example,\nyou don't use a brighter color, nuh uh.\nYou put your character in the middle of dark woods,\namong cheerful fireflies and maybe a patch of foxfire.\nWhat better way to show a bright light,\nthan to make it shine at night.\nAnd to capture a sunset,\ngoodness - you don't put a sun in your painting...\nYou highlight the ear\nso that it glows red, as if lit by a bright sun\nHundreds, and hundreds of things,\nand not so much about the stricture of the head for example.\nBut, just, where the most meaningful shadows and highlights go,\nthat make portraits come to life...\nAnd not just in your hands,\nyour journal stands for more...\n\nCan you imagine it?\nIt is a deep and dark December,\nyour defiant heals are clicking on cold concrete.\nMight as well trade your biggest purse for a backpack,\nyou brought a bunch of tablets with you.\nYou feel footsteps behind you, you try to ignore it,\nso you keep it cool and ponder the backup tablets you brought just in case.\nBut eventually,\nyou just have to look.\nAnd it is the cheery eyed lady with the sweet accent,\nthat always shows up first in class and never says anything.\nBut she hears your every word,\nwith awe.\nHer nose is red,\nand that totally just made half your lecture about noses.\nAnd she has her tablet under her arm,\nyou smile, she smiles, the universe smiles, and the future of the human kind if brighter for it.\n\nYou are on a mission,\nas far as you can tell School/craft won't call you back next semester.\nSo you set your mind on getting theses kids,\nfrom zero to hero every lecture.\nAnd it may not be clear to you,\nbut your two first lectures left them freaking the heck out.\nOrientation is supposed to go slow mo,\nbut you showed up few hours early and set-up Krita and all the tablets ... which cost you $1,100 dollars -- but f**k it, cause your class is a work of art too.\nAnd all of them did setup with art sellers,\nand some art was bought, mostly parents, but it absolutley counts.\n\nYour third lecture,\nwill show every one of your students through and through, that they don't have to be scared of poverty anymore.\nThey can see the road,\nunbeknownst to you - the young lady behind you is about to make a sale during your lecture.\nEveryone will just pause,\nthey will look at your rosy smiling face, and the portrait that was sold, and the young lady squeaking with delight, and back to the smiling you.\nOn your fourth lecture,\nyou will read out a note from the customer, that they had the portrait printed on a canvas and that they love it.\n\nAll of your twelve lectures,\nmake the kids speechless, as you armed each of your meetings with real results.\nAnd you are constantly interrupted,\nby squeaks of new sales.\n\nThe two girls in middle row that were talking on the first lecture,\nuntil they saw how easy portraits are.\nThey actually end up teaching digital art at Peace Corps,\nand later on, end up with a huge fashion design studio.\n\nNot only will they never forget you,\nbut they too become teachers.\nCertainly for their friends,\nbut also, one teaches at UofM, and another started her own art school.\nThe cheery young lady,\nends up working at the UN...\nAnd nothing she does, is without that start-and-end punch,\nthat you taught her.\nShe'll talk about you for decades,\n\"Not only did she make each lecture meaningful, but she showed us we were not poor.\"\n\nFriedrich Nietzsche caught on the importance of art,\n\"Art is the proper task of life.\" - Mindful and meaningful life.\nArt was never about the works, ever,\nit was always about harnessing the power to change the world - about building bridges to greater places.\nHere you taught your students a way out of poverty,\nand they took that beyond anything that you could have grasped,\nYou changed their world,\nand in return they changed the world in a way that kept all, away from the terrors of poverty.",
  "images": [],
  "links": []
}