{
  "title": "Demon by Friedrich Nietzsche",
  "date": "2020-03-25T23:33:22.740Z",
  "image": "poetry-0013-illustration.jpg",
  "artwork": "https://unsplash.com/photos/S0Ogzvql3Vg",
  "id": "furkies-purrkies-poetry-0013",
  "attachments": {},
  "guid": "a9430996-43ad-4b7e-a056-42da474f0f68"
}
