{
  "title": "Helping Humanity Grow in Wisdom",
  "date": "2020-09-28T23:39:49.398Z",
  "image": "poetry-0212-illustration.jpg",
  "audio": "poetry-0212.mp3",
  "artwork": "https://unsplash.com/photos/ViEBSoZH6M4",
  "id": "furkies-purrkies-poetry-0212",
  "attachments": {},
  "guid": "76a963f6-bb37-424a-a944-876cec2b326c"
}
