{
  "name": "furkies-purrkies-poetry-0637",
  "id": "furkies-purrkies-poetry-0637",
  "title": "Education: Your Own Creation",
  "date": "2021-11-28T01:17:28.352Z",
  "image": "poetry-0637-illustration.jpg",
  "artwork": "https://unsplash.com/photos/ax6y-zxBG_4",
  "audio": "poetry-0637.mp3",
  "guid": "a86cc4eb-0828-43c5-8237-c52ba16d702c",
  "html": "<div class=\"section\">\n  <p>Grow, but don't let the world push you,<br>as happiness is meant for you too.</p>\n  <p>Don't worry about grades,<br>the dog and pony show eventually fades.</p>\n  <p>And you wont find much of real knowledge,<br>in college.</p>\n</div>\n<div class=\"section\">\n  <hr>\n</div>\n<div class=\"section\">\n  <p>Just focus on taking classes you like,<br>maybe hope to fix education by going on strike.</p>\n  <p>You can only learn when studying on your own,<br>we learn best when we study alone.</p>\n  <p>Even if what you memorized was useful,<br>you'd still miss out on every invention and tool.</p>\n</div>\n<div class=\"section\">\n  <hr>\n</div>\n<div class=\"section\">\n  <p>Knowledge is not just about knowing,<br>but about everything being connected and flowing.</p>\n  <p>You have to independently invent your own way,<br>and do in a way that feels like play.</p>\n  <p>There is nothing to advance by leaping over everything,<br>reinventing is how ideas spring.</p>\n</div>\n<div class=\"section\">\n  <hr>\n</div>\n<div class=\"section\">\n  <p>To cram for tests and leap into a career,<br>is to forget how life is dear.</p>\n  <p>We are neither machines nor cogs in one,<br>to blindly fulfill a task until we are done.</p>\n  <p>We are beauty, poetry and nature,<br>and it matters what our lives feature.</p>\n</div>\n<div class=\"section\">\n  <hr>\n</div>\n<div class=\"section\">\n  <p>We have to set off to search for wisdom,<br>we are not to blindly take part in any system.</p>\n  <p>Knowledge gives way to wisdom and boundless creativity,<br>and without an ounce of any kind of negativity.</p>\n  <p>Wisdom will call to you to become great,<br>you find greatness in the timeless things you create.</p>\n</div>\n<div class=\"section\">\n  <hr>\n</div>\n<div class=\"section\">\n  <p>Please, be careful with subject divisions,<br>as they will prevent you from making correct decisions.</p>\n  <p>Maths is not a subject for one,<br>and you cannot just learn it and be done.</p>\n  <p>Math is always part of something magnificent,<br>trying to learn it directly is an impediment.</p>\n</div>\n<div class=\"section\">\n  <hr>\n</div>\n<div class=\"section\">\n  <p>Math shouldn't be a real word,<br>learning it directly is absurd.</p>\n  <p><a href=\"https://www.mit.edu/~6.005/sp08/project6/assignment.html\">Create a fractal MUD</a> or a <a href=\"https://www.youtube.com/watch?v=upB7CSoxNTs&list=PLbe67PprBSpqM_-HU49fmIS8ncApw4i08\">series of screensavers</a>,<br>because the math teacher is not doing you any favors.</p>\n</div>\n<div class=\"section\">\n  <hr>\n</div>\n<div class=\"section\">\n  <p>All the subjects are divided wrong,<br>cut up like this they cannot belong.</p>\n</div>\n<div class=\"section\">\n  <hr>\n</div>\n<div class=\"section\">\n  <p>Composing music has nothing to do with notes or the piano,<br>or learning how to sing soprano.</p>\n  <p><a href=\"https://www.youtube.com/watch?v=0sRvkaxh8EU\">Just grab lmms and compose to no end</a>,<br>reinvent new notes from raw frequencies to start a new trend.</p>\n</div>\n<div class=\"section\">\n  <hr>\n</div>\n<div class=\"section\">\n  <p><a href=\"https://www.youtube.com/watch?v=Qk5T8wKp9h8\">You design circuits with software</a>,<br>it will teach you all the things that you are not aware.</p>\n  <p>It will calculate all the voltages and resistors for you,<br>and then generate a professional circuit you can view.</p>\n</div>\n<div class=\"section\">\n  <hr>\n</div>\n<div class=\"section\">\n  <p>For <a href=\"https://www.youtube.com/watch?v=5uZLkKvsWWE\">portraits use a projector</a>, for pixel art,<br>use your patience and heart.</p>\n  <p>Art does not need study as it is for all,<br>that has always been the goal.</p>\n</div>\n<div class=\"section\">\n  <hr>\n</div>\n<div class=\"section\">\n  <p>You can't <a href=\"https://www.youtube.com/watch?v=TPrnSACiTJ4&list=PLexwJr_iILK7IkuhEeAYeN7aLV5AAXKa-\">learn 3D modeling</a> without <a href=\"https://www.youtube.com/watch?v=gokN9xNG94U\">3D printing</a> too,<br>model from your imagination and make it come true.</p>\n</div>\n<div class=\"section\">\n  <hr>\n</div>\n<div class=\"section\">\n  <p>Do no allow anything to disrupt your education,<br>and your body of knowledge should be your own creation.</p>\n  <p>Do not let anything push you around,<br>as that is a sure way to run aground.</p>\n  <p>Paint your life like an artist paints a canvas in time,<br>a life aught to rhyme.</p>\n</div>",
  "bootstrap": "<div class=\"card card-section bg-dark text-warning shadow\">\n  <div class=\"section card-body mb-0 my-2\">\n    <div class=\"paragraph card-text card-stanza my-5 text-center\">Grow, but don't let the world push you,<br>as happiness is meant for you too.</div>\n    <div class=\"paragraph card-text card-stanza my-5 text-center\">Don't worry about grades,<br>the dog and pony show eventually fades.</div>\n    <div class=\"paragraph card-text card-stanza my-5 text-center\">And you wont find much of real knowledge,<br>in college.</div>\n  </div>\n</div>\n<div class=\"mb-5 section-spacer\">&nbsp;</div>\n<div class=\"card card-section bg-dark text-warning shadow\">\n  <div class=\"section card-body mb-0 my-2\">\n    <div class=\"paragraph card-text card-stanza my-5 text-center\">Just focus on taking classes you like,<br>maybe hope to fix education by going on strike.</div>\n    <div class=\"paragraph card-text card-stanza my-5 text-center\">You can only learn when studying on your own,<br>we learn best when we study alone.</div>\n    <div class=\"paragraph card-text card-stanza my-5 text-center\">Even if what you memorized was useful,<br>you'd still miss out on every invention and tool.</div>\n  </div>\n</div>\n<div class=\"mb-5 section-spacer\">&nbsp;</div>\n<div class=\"card card-section bg-dark text-warning shadow\">\n  <div class=\"section card-body mb-0 my-2\">\n    <div class=\"paragraph card-text card-stanza my-5 text-center\">Knowledge is not just about knowing,<br>but about everything being connected and flowing.</div>\n    <div class=\"paragraph card-text card-stanza my-5 text-center\">You have to independently invent your own way,<br>and do in a way that feels like play.</div>\n    <div class=\"paragraph card-text card-stanza my-5 text-center\">There is nothing to advance by leaping over everything,<br>reinventing is how ideas spring.</div>\n  </div>\n</div>\n<div class=\"mb-5 section-spacer\">&nbsp;</div>\n<div class=\"card card-section bg-dark text-warning shadow\">\n  <div class=\"section card-body mb-0 my-2\">\n    <div class=\"paragraph card-text card-stanza my-5 text-center\">To cram for tests and leap into a career,<br>is to forget how life is dear.</div>\n    <div class=\"paragraph card-text card-stanza my-5 text-center\">We are neither machines nor cogs in one,<br>to blindly fulfill a task until we are done.</div>\n    <div class=\"paragraph card-text card-stanza my-5 text-center\">We are beauty, poetry and nature,<br>and it matters what our lives feature.</div>\n  </div>\n</div>\n<div class=\"mb-5 section-spacer\">&nbsp;</div>\n<div class=\"card card-section bg-dark text-warning shadow\">\n  <div class=\"section card-body mb-0 my-2\">\n    <div class=\"paragraph card-text card-stanza my-5 text-center\">We have to set off to search for wisdom,<br>we are not to blindly take part in any system.</div>\n    <div class=\"paragraph card-text card-stanza my-5 text-center\">Knowledge gives way to wisdom and boundless creativity,<br>and without an ounce of any kind of negativity.</div>\n    <div class=\"paragraph card-text card-stanza my-5 text-center\">Wisdom will call to you to become great,<br>you find greatness in the timeless things you create.</div>\n  </div>\n</div>\n<div class=\"mb-5 section-spacer\">&nbsp;</div>\n<div class=\"card card-section bg-dark text-warning shadow\">\n  <div class=\"section card-body mb-0 my-2\">\n    <div class=\"paragraph card-text card-stanza my-5 text-center\">Please, be careful with subject divisions,<br>as they will prevent you from making correct decisions.</div>\n    <div class=\"paragraph card-text card-stanza my-5 text-center\">Maths is not a subject for one,<br>and you cannot just learn it and be done.</div>\n    <div class=\"paragraph card-text card-stanza my-5 text-center\">Math is always part of something magnificent,<br>trying to learn it directly is an impediment.</div>\n  </div>\n</div>\n<div class=\"mb-5 section-spacer\">&nbsp;</div>\n<div class=\"card card-section bg-dark text-warning shadow\">\n  <div class=\"section card-body mb-0 my-2\">\n    <div class=\"paragraph card-text card-stanza my-5 text-center\">Math shouldn't be a real word,<br>learning it directly is absurd.</div>\n    <div class=\"paragraph card-text card-stanza my-5 text-center\"><a href=\"https://www.mit.edu/~6.005/sp08/project6/assignment.html\">Create a fractal MUD</a> or a <a href=\"https://www.youtube.com/watch?v=upB7CSoxNTs&list=PLbe67PprBSpqM_-HU49fmIS8ncApw4i08\">series of screensavers</a>,<br>because the math teacher is not doing you any favors.</div>\n  </div>\n</div>\n<div class=\"mb-5 section-spacer\">&nbsp;</div>\n<div class=\"card card-section bg-dark text-warning shadow\">\n  <div class=\"section card-body mb-0 my-2\">\n    <div class=\"paragraph card-text card-stanza my-5 text-center\">All the subjects are divided wrong,<br>cut up like this they cannot belong.</div>\n  </div>\n</div>\n<div class=\"mb-5 section-spacer\">&nbsp;</div>\n<div class=\"card card-section bg-dark text-warning shadow\">\n  <div class=\"section card-body mb-0 my-2\">\n    <div class=\"paragraph card-text card-stanza my-5 text-center\">Composing music has nothing to do with notes or the piano,<br>or learning how to sing soprano.</div>\n    <div class=\"paragraph card-text card-stanza my-5 text-center\"><a href=\"https://www.youtube.com/watch?v=0sRvkaxh8EU\">Just grab lmms and compose to no end</a>,<br>reinvent new notes from raw frequencies to start a new trend.</div>\n  </div>\n</div>\n<div class=\"mb-5 section-spacer\">&nbsp;</div>\n<div class=\"card card-section bg-dark text-warning shadow\">\n  <div class=\"section card-body mb-0 my-2\">\n    <div class=\"paragraph card-text card-stanza my-5 text-center\"><a href=\"https://www.youtube.com/watch?v=Qk5T8wKp9h8\">You design circuits with software</a>,<br>it will teach you all the things that you are not aware.</div>\n    <div class=\"paragraph card-text card-stanza my-5 text-center\">It will calculate all the voltages and resistors for you,<br>and then generate a professional circuit you can view.</div>\n  </div>\n</div>\n<div class=\"mb-5 section-spacer\">&nbsp;</div>\n<div class=\"card card-section bg-dark text-warning shadow\">\n  <div class=\"section card-body mb-0 my-2\">\n    <div class=\"paragraph card-text card-stanza my-5 text-center\">For <a href=\"https://www.youtube.com/watch?v=5uZLkKvsWWE\">portraits use a projector</a>, for pixel art,<br>use your patience and heart.</div>\n    <div class=\"paragraph card-text card-stanza my-5 text-center\">Art does not need study as it is for all,<br>that has always been the goal.</div>\n  </div>\n</div>\n<div class=\"mb-5 section-spacer\">&nbsp;</div>\n<div class=\"card card-section bg-dark text-warning shadow\">\n  <div class=\"section card-body mb-0 my-2\">\n    <div class=\"paragraph card-text card-stanza my-5 text-center\">You can't <a href=\"https://www.youtube.com/watch?v=TPrnSACiTJ4&list=PLexwJr_iILK7IkuhEeAYeN7aLV5AAXKa-\">learn 3D modeling</a> without <a href=\"https://www.youtube.com/watch?v=gokN9xNG94U\">3D printing</a> too,<br>model from your imagination and make it come true.</div>\n  </div>\n</div>\n<div class=\"mb-5 section-spacer\">&nbsp;</div>\n<div class=\"card card-section bg-dark text-warning shadow\">\n  <div class=\"section card-body mb-0 my-2\">\n    <div class=\"paragraph card-text card-stanza my-5 text-center\">Do no allow anything to disrupt your education,<br>and your body of knowledge should be your own creation.</div>\n    <div class=\"paragraph card-text card-stanza my-5 text-center\">Do not let anything push you around,<br>as that is a sure way to run aground.</div>\n    <div class=\"paragraph card-text card-stanza my-5 text-center\">Paint your life like an artist paints a canvas in time,<br>a life aught to rhyme.</div>\n  </div>\n</div>",
  "print": "<div class=\"section avoid-break-inside\" style=\"padding-bottom: 2rem;\">\n  <div class=\"paragraph\">Grow, but don't let the world push you,<br>as happiness is meant for you too.</div>\n  <div class=\"paragraph\">Don't worry about grades,<br>the dog and pony show eventually fades.</div>\n  <div class=\"paragraph\">And you wont find much of real knowledge,<br>in college.</div>\n</div>\n<div class=\"section avoid-break-inside\" style=\"padding-bottom: 2rem;\">\n  <br>\n</div>\n<div class=\"section avoid-break-inside\" style=\"padding-bottom: 2rem;\">\n  <div class=\"paragraph\">Just focus on taking classes you like,<br>maybe hope to fix education by going on strike.</div>\n  <div class=\"paragraph\">You can only learn when studying on your own,<br>we learn best when we study alone.</div>\n  <div class=\"paragraph\">Even if what you memorized was useful,<br>you'd still miss out on every invention and tool.</div>\n</div>\n<div class=\"section avoid-break-inside\" style=\"padding-bottom: 2rem;\">\n  <br>\n</div>\n<div class=\"section avoid-break-inside\" style=\"padding-bottom: 2rem;\">\n  <div class=\"paragraph\">Knowledge is not just about knowing,<br>but about everything being connected and flowing.</div>\n  <div class=\"paragraph\">You have to independently invent your own way,<br>and do in a way that feels like play.</div>\n  <div class=\"paragraph\">There is nothing to advance by leaping over everything,<br>reinventing is how ideas spring.</div>\n</div>\n<div class=\"section avoid-break-inside\" style=\"padding-bottom: 2rem;\">\n  <br>\n</div>\n<div class=\"section avoid-break-inside\" style=\"padding-bottom: 2rem;\">\n  <div class=\"paragraph\">To cram for tests and leap into a career,<br>is to forget how life is dear.</div>\n  <div class=\"paragraph\">We are neither machines nor cogs in one,<br>to blindly fulfill a task until we are done.</div>\n  <div class=\"paragraph\">We are beauty, poetry and nature,<br>and it matters what our lives feature.</div>\n</div>\n<div class=\"section avoid-break-inside\" style=\"padding-bottom: 2rem;\">\n  <br>\n</div>\n<div class=\"section avoid-break-inside\" style=\"padding-bottom: 2rem;\">\n  <div class=\"paragraph\">We have to set off to search for wisdom,<br>we are not to blindly take part in any system.</div>\n  <div class=\"paragraph\">Knowledge gives way to wisdom and boundless creativity,<br>and without an ounce of any kind of negativity.</div>\n  <div class=\"paragraph\">Wisdom will call to you to become great,<br>you find greatness in the timeless things you create.</div>\n</div>\n<div class=\"section avoid-break-inside\" style=\"padding-bottom: 2rem;\">\n  <br>\n</div>\n<div class=\"section avoid-break-inside\" style=\"padding-bottom: 2rem;\">\n  <div class=\"paragraph\">Please, be careful with subject divisions,<br>as they will prevent you from making correct decisions.</div>\n  <div class=\"paragraph\">Maths is not a subject for one,<br>and you cannot just learn it and be done.</div>\n  <div class=\"paragraph\">Math is always part of something magnificent,<br>trying to learn it directly is an impediment.</div>\n</div>\n<div class=\"section avoid-break-inside\" style=\"padding-bottom: 2rem;\">\n  <br>\n</div>\n<div class=\"section avoid-break-inside\" style=\"padding-bottom: 2rem;\">\n  <div class=\"paragraph\">Math shouldn't be a real word,<br>learning it directly is absurd.</div>\n  <div class=\"paragraph\"><span>Create a fractal MUD<sup>[1]</sup></span> or a <span>series of screensavers<sup>[2]</sup></span>,<br>because the math teacher is not doing you any favors.</div>\n</div>\n<div class=\"section avoid-break-inside\" style=\"padding-bottom: 2rem;\">\n  <br>\n</div>\n<div class=\"section avoid-break-inside\" style=\"padding-bottom: 2rem;\">\n  <div class=\"paragraph\">All the subjects are divided wrong,<br>cut up like this they cannot belong.</div>\n</div>\n<div class=\"section avoid-break-inside\" style=\"padding-bottom: 2rem;\">\n  <br>\n</div>\n<div class=\"section avoid-break-inside\" style=\"padding-bottom: 2rem;\">\n  <div class=\"paragraph\">Composing music has nothing to do with notes or the piano,<br>or learning how to sing soprano.</div>\n  <div class=\"paragraph\"><span>Just grab lmms and compose to no end<sup>[3]</sup></span>,<br>reinvent new notes from raw frequencies to start a new trend.</div>\n</div>\n<div class=\"section avoid-break-inside\" style=\"padding-bottom: 2rem;\">\n  <br>\n</div>\n<div class=\"section avoid-break-inside\" style=\"padding-bottom: 2rem;\">\n  <div class=\"paragraph\"><span>You design circuits with software<sup>[4]</sup></span>,<br>it will teach you all the things that you are not aware.</div>\n  <div class=\"paragraph\">It will calculate all the voltages and resistors for you,<br>and then generate a professional circuit you can view.</div>\n</div>\n<div class=\"section avoid-break-inside\" style=\"padding-bottom: 2rem;\">\n  <br>\n</div>\n<div class=\"section avoid-break-inside\" style=\"padding-bottom: 2rem;\">\n  <div class=\"paragraph\">For <span>portraits use a projector<sup>[5]</sup></span>, for pixel art,<br>use your patience and heart.</div>\n  <div class=\"paragraph\">Art does not need study as it is for all,<br>that has always been the goal.</div>\n</div>\n<div class=\"section avoid-break-inside\" style=\"padding-bottom: 2rem;\">\n  <br>\n</div>\n<div class=\"section avoid-break-inside\" style=\"padding-bottom: 2rem;\">\n  <div class=\"paragraph\">You can't <span>learn 3D modeling<sup>[6]</sup></span> without <span>3D printing<sup>[7]</sup></span> too,<br>model from your imagination and make it come true.</div>\n</div>\n<div class=\"section avoid-break-inside\" style=\"padding-bottom: 2rem;\">\n  <br>\n</div>\n<div class=\"section avoid-break-inside\" style=\"padding-bottom: 2rem;\">\n  <div class=\"paragraph\">Do no allow anything to disrupt your education,<br>and your body of knowledge should be your own creation.</div>\n  <div class=\"paragraph\">Do not let anything push you around,<br>as that is a sure way to run aground.</div>\n  <div class=\"paragraph\">Paint your life like an artist paints a canvas in time,<br>a life aught to rhyme.</div>\n</div>\n<div class=\"break-after\">&nbsp;</div>\n<div>\n  <div class=\"section\" style=\"padding-bottom: 1rem;\">References</div>\n  <div>[1]: https://www.mit.edu/~6.005/sp08/project6/assignment.html</div>\n  <div>[2]: https://www.youtube.com/watch?v=upB7CSoxNTs&list=PLbe67PprBSpqM_-HU49fmIS8ncApw4i08</div>\n  <div>[3]: https://www.youtube.com/watch?v=0sRvkaxh8EU</div>\n  <div>[4]: https://www.youtube.com/watch?v=Qk5T8wKp9h8</div>\n  <div>[5]: https://www.youtube.com/watch?v=5uZLkKvsWWE</div>\n  <div>[6]: https://www.youtube.com/watch?v=TPrnSACiTJ4&list=PLexwJr_iILK7IkuhEeAYeN7aLV5AAXKa-</div>\n  <div>[7]: https://www.youtube.com/watch?v=gokN9xNG94U</div>\n</div>",
  "text": "Grow, but don't let the world push you,\nas happiness is meant for you too.\nDon't worry about grades,\nthe dog and pony show eventually fades.\nAnd you wont find much of real knowledge,\nin college.\n\nJust focus on taking classes you like,\nmaybe hope to fix education by going on strike.\nYou can only learn when studying on your own,\nwe learn best when we study alone.\nEven if what you memorized was useful,\nyou'd still miss out on every invention and tool.\n\nKnowledge is not just about knowing,\nbut about everything being connected and flowing.\nYou have to independently invent your own way,\nand do in a way that feels like play.\nThere is nothing to advance by leaping over everything,\nreinventing is how ideas spring.\n\nTo cram for tests and leap into a career,\nis to forget how life is dear.\nWe are neither machines nor cogs in one,\nto blindly fulfill a task until we are done.\nWe are beauty, poetry and nature,\nand it matters what our lives feature.\n\nWe have to set off to search for wisdom,\nwe are not to blindly take part in any system.\nKnowledge gives way to wisdom and boundless creativity,\nand without an ounce of any kind of negativity.\nWisdom will call to you to become great,\nyou find greatness in the timeless things you create.\n\nPlease, be careful with subject divisions,\nas they will prevent you from making correct decisions.\nMaths is not a subject for one,\nand you cannot just learn it and be done.\nMath is always part of something magnificent,\ntrying to learn it directly is an impediment.\n\nMath shouldn't be a real word,\nlearning it directly is absurd.\nCreate a fractal MUD[1] or a series of screensavers[2],\nbecause the math teacher is not doing you any favors.\n\nAll the subjects are divided wrong,\ncut up like this they cannot belong.\n\nComposing music has nothing to do with notes or the piano,\nor learning how to sing soprano.\nJust grab lmms and compose to no end[3],\nreinvent new notes from raw frequencies to start a new trend.\n\nYou design circuits with software[4],\nit will teach you all the things that you are not aware.\nIt will calculate all the voltages and resistors for you,\nand then generate a professional circuit you can view.\n\nFor portraits use a projector[5], for pixel art,\nuse your patience and heart.\nArt does not need study as it is for all,\nthat has always been the goal.\n\nYou can't learn 3D modeling[6] without 3D printing[7] too,\nmodel from your imagination and make it come true.\n\nDo no allow anything to disrupt your education,\nand your body of knowledge should be your own creation.\nDo not let anything push you around,\nas that is a sure way to run aground.\nPaint your life like an artist paints a canvas in time,\na life aught to rhyme.\n \nReferences\n[1]: https://www.mit.edu/~6.005/sp08/project6/assignment.html\n[2]: https://www.youtube.com/watch?v=upB7CSoxNTs&list=PLbe67PprBSpqM_-HU49fmIS8ncApw4i08\n[3]: https://www.youtube.com/watch?v=0sRvkaxh8EU\n[4]: https://www.youtube.com/watch?v=Qk5T8wKp9h8\n[5]: https://www.youtube.com/watch?v=5uZLkKvsWWE\n[6]: https://www.youtube.com/watch?v=TPrnSACiTJ4&list=PLexwJr_iILK7IkuhEeAYeN7aLV5AAXKa-\n[7]: https://www.youtube.com/watch?v=gokN9xNG94U",
  "images": [],
  "links": [
    {
      "title": "Create a fractal MUD",
      "url": "https://www.mit.edu/~6.005/sp08/project6/assignment.html",
      "hostname": "www.mit.edu"
    },
    {
      "title": "series of screensavers",
      "url": "https://www.youtube.com/watch?v=upB7CSoxNTs&list=PLbe67PprBSpqM_-HU49fmIS8ncApw4i08",
      "hostname": "www.youtube.com"
    },
    {
      "title": "Just grab lmms and compose to no end",
      "url": "https://www.youtube.com/watch?v=0sRvkaxh8EU",
      "hostname": "www.youtube.com"
    },
    {
      "title": "You design circuits with software",
      "url": "https://www.youtube.com/watch?v=Qk5T8wKp9h8",
      "hostname": "www.youtube.com"
    },
    {
      "title": "portraits use a projector",
      "url": "https://www.youtube.com/watch?v=5uZLkKvsWWE",
      "hostname": "www.youtube.com"
    },
    {
      "title": "learn 3D modeling",
      "url": "https://www.youtube.com/watch?v=TPrnSACiTJ4&list=PLexwJr_iILK7IkuhEeAYeN7aLV5AAXKa-",
      "hostname": "www.youtube.com"
    },
    {
      "title": "3D printing",
      "url": "https://www.youtube.com/watch?v=gokN9xNG94U",
      "hostname": "www.youtube.com"
    }
  ]
}