{
  "name": "furkies-purrkies-poetry-0806",
  "id": "furkies-purrkies-poetry-0806",
  "title": "The Jeweler’s Lament; Or, Why Make Food Fly?",
  "date": "2022-05-16T02:25:06.682Z",
  "image": "poetry-0806-illustration.jpg",
  "artwork": "https://catpea.com",
  "audio": "poetry-0806.mp3",
  "guid": "e7d8db9d-c353-4998-a173-cf0075b3b91f",
  "html": "<div class=\"section\">\n  <p>I really wanted to create,<br>something that fancy people won’t hate.</p>\n  <p>But I only came up with sausage earrings,<br>each with tiny delicate wings.</p>\n  <p>Which is sooo bad... that it is good,<br>I came up with an original idea, as I should.</p>\n</div>\n<div class=\"section\">\n  <hr>\n</div>\n<div class=\"section\">\n  <p>But why would anyone wear such strange things,<br>after all why the heck would food need wings.</p>\n  <p>I wanted to invent something unique,<br>a piece destined to become an antique.</p>\n</div>\n<div class=\"section\">\n  <hr>\n</div>\n<div class=\"section\">\n  <p>Previously I created a <a href=\"https://skfb.ly/ouuXM\">pug tag</a>,<br>an invention that guarantees a doggy bag.</p>\n  <p>I suppose that where the sausage comes from,<br>so as far as sanity, this idea has some.</p>\n  <p>But that sausage was for a little big pup,<br>and today, I wanted to move on up.</p>\n</div>\n<div class=\"section\">\n  <hr>\n</div>\n<div class=\"section\">\n  <p>Yes, I will create the flying bratwurst,<br>for all the ideas I had - it certainly isn’t the worst.</p>\n  <p>And I must make a matching necklace too,<br>but this is not, a breakthrough.</p>\n</div>\n<div class=\"section\">\n  <hr>\n</div>\n<div class=\"section\">\n  <p>The question remains,<br>what do fancy people wear on their golden chains.</p>\n  <p>It sure be nice to create a series,<br>something shiny but extremely mysterious.</p>\n</div>\n<div class=\"section\">\n  <hr>\n</div>\n<div class=\"section\">\n  <p>Classy miniature artifacts from ancient past,<br>surely that would make for a keepsake that would last.</p>\n  <p>But that is already made by an ancient artist,<br>so this idea is also not the smartest.</p>\n</div>\n<div class=\"section\">\n  <hr>\n</div>\n<div class=\"section\">\n  <p>For all the shamncy,<br>I just wanted to create something new and fancy.</p>\n  <p>Alas, all smart things that come to mind,<br>have already been designed.</p>\n</div>",
  "bootstrap": "<div class=\"card card-section bg-dark text-warning shadow\">\n  <div class=\"section card-body mb-0 my-2\">\n    <div class=\"paragraph card-text card-stanza my-5 text-center\">I really wanted to create,<br>something that fancy people won’t hate.</div>\n    <div class=\"paragraph card-text card-stanza my-5 text-center\">But I only came up with sausage earrings,<br>each with tiny delicate wings.</div>\n    <div class=\"paragraph card-text card-stanza my-5 text-center\">Which is sooo bad... that it is good,<br>I came up with an original idea, as I should.</div>\n  </div>\n</div>\n<div class=\"mb-5 section-spacer\">&nbsp;</div>\n<div class=\"card card-section bg-dark text-warning shadow\">\n  <div class=\"section card-body mb-0 my-2\">\n    <div class=\"paragraph card-text card-stanza my-5 text-center\">But why would anyone wear such strange things,<br>after all why the heck would food need wings.</div>\n    <div class=\"paragraph card-text card-stanza my-5 text-center\">I wanted to invent something unique,<br>a piece destined to become an antique.</div>\n  </div>\n</div>\n<div class=\"mb-5 section-spacer\">&nbsp;</div>\n<div class=\"card card-section bg-dark text-warning shadow\">\n  <div class=\"section card-body mb-0 my-2\">\n    <div class=\"paragraph card-text card-stanza my-5 text-center\">Previously I created a <a href=\"https://skfb.ly/ouuXM\">pug tag</a>,<br>an invention that guarantees a doggy bag.</div>\n    <div class=\"paragraph card-text card-stanza my-5 text-center\">I suppose that where the sausage comes from,<br>so as far as sanity, this idea has some.</div>\n    <div class=\"paragraph card-text card-stanza my-5 text-center\">But that sausage was for a little big pup,<br>and today, I wanted to move on up.</div>\n  </div>\n</div>\n<div class=\"mb-5 section-spacer\">&nbsp;</div>\n<div class=\"card card-section bg-dark text-warning shadow\">\n  <div class=\"section card-body mb-0 my-2\">\n    <div class=\"paragraph card-text card-stanza my-5 text-center\">Yes, I will create the flying bratwurst,<br>for all the ideas I had - it certainly isn’t the worst.</div>\n    <div class=\"paragraph card-text card-stanza my-5 text-center\">And I must make a matching necklace too,<br>but this is not, a breakthrough.</div>\n  </div>\n</div>\n<div class=\"mb-5 section-spacer\">&nbsp;</div>\n<div class=\"card card-section bg-dark text-warning shadow\">\n  <div class=\"section card-body mb-0 my-2\">\n    <div class=\"paragraph card-text card-stanza my-5 text-center\">The question remains,<br>what do fancy people wear on their golden chains.</div>\n    <div class=\"paragraph card-text card-stanza my-5 text-center\">It sure be nice to create a series,<br>something shiny but extremely mysterious.</div>\n  </div>\n</div>\n<div class=\"mb-5 section-spacer\">&nbsp;</div>\n<div class=\"card card-section bg-dark text-warning shadow\">\n  <div class=\"section card-body mb-0 my-2\">\n    <div class=\"paragraph card-text card-stanza my-5 text-center\">Classy miniature artifacts from ancient past,<br>surely that would make for a keepsake that would last.</div>\n    <div class=\"paragraph card-text card-stanza my-5 text-center\">But that is already made by an ancient artist,<br>so this idea is also not the smartest.</div>\n  </div>\n</div>\n<div class=\"mb-5 section-spacer\">&nbsp;</div>\n<div class=\"card card-section bg-dark text-warning shadow\">\n  <div class=\"section card-body mb-0 my-2\">\n    <div class=\"paragraph card-text card-stanza my-5 text-center\">For all the shamncy,<br>I just wanted to create something new and fancy.</div>\n    <div class=\"paragraph card-text card-stanza my-5 text-center\">Alas, all smart things that come to mind,<br>have already been designed.</div>\n  </div>\n</div>",
  "print": "<div class=\"section avoid-break-inside\" style=\"padding-bottom: 2rem;\">\n  <div class=\"paragraph\">I really wanted to create,<br>something that fancy people won’t hate.</div>\n  <div class=\"paragraph\">But I only came up with sausage earrings,<br>each with tiny delicate wings.</div>\n  <div class=\"paragraph\">Which is sooo bad... that it is good,<br>I came up with an original idea, as I should.</div>\n</div>\n<div class=\"section avoid-break-inside\" style=\"padding-bottom: 2rem;\">\n  <br>\n</div>\n<div class=\"section avoid-break-inside\" style=\"padding-bottom: 2rem;\">\n  <div class=\"paragraph\">But why would anyone wear such strange things,<br>after all why the heck would food need wings.</div>\n  <div class=\"paragraph\">I wanted to invent something unique,<br>a piece destined to become an antique.</div>\n</div>\n<div class=\"section avoid-break-inside\" style=\"padding-bottom: 2rem;\">\n  <br>\n</div>\n<div class=\"section avoid-break-inside\" style=\"padding-bottom: 2rem;\">\n  <div class=\"paragraph\">Previously I created a <span>pug tag<sup>[1]</sup></span>,<br>an invention that guarantees a doggy bag.</div>\n  <div class=\"paragraph\">I suppose that where the sausage comes from,<br>so as far as sanity, this idea has some.</div>\n  <div class=\"paragraph\">But that sausage was for a little big pup,<br>and today, I wanted to move on up.</div>\n</div>\n<div class=\"section avoid-break-inside\" style=\"padding-bottom: 2rem;\">\n  <br>\n</div>\n<div class=\"section avoid-break-inside\" style=\"padding-bottom: 2rem;\">\n  <div class=\"paragraph\">Yes, I will create the flying bratwurst,<br>for all the ideas I had - it certainly isn’t the worst.</div>\n  <div class=\"paragraph\">And I must make a matching necklace too,<br>but this is not, a breakthrough.</div>\n</div>\n<div class=\"section avoid-break-inside\" style=\"padding-bottom: 2rem;\">\n  <br>\n</div>\n<div class=\"section avoid-break-inside\" style=\"padding-bottom: 2rem;\">\n  <div class=\"paragraph\">The question remains,<br>what do fancy people wear on their golden chains.</div>\n  <div class=\"paragraph\">It sure be nice to create a series,<br>something shiny but extremely mysterious.</div>\n</div>\n<div class=\"section avoid-break-inside\" style=\"padding-bottom: 2rem;\">\n  <br>\n</div>\n<div class=\"section avoid-break-inside\" style=\"padding-bottom: 2rem;\">\n  <div class=\"paragraph\">Classy miniature artifacts from ancient past,<br>surely that would make for a keepsake that would last.</div>\n  <div class=\"paragraph\">But that is already made by an ancient artist,<br>so this idea is also not the smartest.</div>\n</div>\n<div class=\"section avoid-break-inside\" style=\"padding-bottom: 2rem;\">\n  <br>\n</div>\n<div class=\"section avoid-break-inside\" style=\"padding-bottom: 2rem;\">\n  <div class=\"paragraph\">For all the shamncy,<br>I just wanted to create something new and fancy.</div>\n  <div class=\"paragraph\">Alas, all smart things that come to mind,<br>have already been designed.</div>\n</div>\n<div class=\"break-after\">&nbsp;</div>\n<div>\n  <div class=\"section\" style=\"padding-bottom: 1rem;\">References</div>\n  <div>[1]: https://skfb.ly/ouuXM</div>\n</div>",
  "text": "I really wanted to create,\nsomething that fancy people won’t hate.\nBut I only came up with sausage earrings,\neach with tiny delicate wings.\nWhich is sooo bad... that it is good,\nI came up with an original idea, as I should.\n\nBut why would anyone wear such strange things,\nafter all why the heck would food need wings.\nI wanted to invent something unique,\na piece destined to become an antique.\n\nPreviously I created a pug tag[1],\nan invention that guarantees a doggy bag.\nI suppose that where the sausage comes from,\nso as far as sanity, this idea has some.\nBut that sausage was for a little big pup,\nand today, I wanted to move on up.\n\nYes, I will create the flying bratwurst,\nfor all the ideas I had - it certainly isn’t the worst.\nAnd I must make a matching necklace too,\nbut this is not, a breakthrough.\n\nThe question remains,\nwhat do fancy people wear on their golden chains.\nIt sure be nice to create a series,\nsomething shiny but extremely mysterious.\n\nClassy miniature artifacts from ancient past,\nsurely that would make for a keepsake that would last.\nBut that is already made by an ancient artist,\nso this idea is also not the smartest.\n\nFor all the shamncy,\nI just wanted to create something new and fancy.\nAlas, all smart things that come to mind,\nhave already been designed.\n \nReferences\n[1]: https://skfb.ly/ouuXM",
  "images": [],
  "links": [
    {
      "title": "pug tag",
      "url": "https://skfb.ly/ouuXM",
      "hostname": "skfb.ly"
    }
  ]
}