{
  "id": "furkies-purrkies-poetry-0552",
  "title": "3D Models",
  "date": "2021-09-04T02:22:28.417Z",
  "image": "poetry-0552-illustration.jpg",
  "artwork": "https://example.com",
  "audio": "poetry-0552.mp3",
  "guid": "7f2b0e55-9ea6-4b48-a16a-6f92098f0731"
}
