{
  "id": "furkies-purrkies-poetry-0496",
  "title": "Curious Things",
  "date": "2021-07-10T01:54:02.196Z",
  "image": "poetry-0496-illustration.jpg",
  "artwork": "https://unsplash.com/photos/nJx-bOJcisc",
  "audio": "poetry-0496.mp3",
  "guid": "41803e25-395a-45ad-a690-6f22ed6d6488"
}
