{
  "name": "furkies-purrkies-poetry-0201",
  "title": "Her Wisdom and World Peace",
  "date": "2020-09-17T23:52:13.367Z",
  "image": "poetry-0201-illustration.jpg",
  "audio": "poetry-0201.mp3",
  "artwork": "https://unsplash.com/photos/oUyfE8l8sRI",
  "id": "furkies-purrkies-poetry-0201",
  "attachments": {},
  "guid": "8bcd61fb-1e17-4dfd-98cd-09ad0353a919",
  "html": "<div class=\"section\">\n  <p>There was a little lady that figured out how to change the world,</p>\n  <p>all that is known, is that she wasn&apos;t very old.</p>\n</div>\n<div class=\"section\">\n  <p>She posted a single long video, that opened with &quot;I don&apos;t want to be a bother,&quot;</p>\n  <p>today, everyone just calls her, Mum or Mother.</p>\n</div>\n<div class=\"section\">\n  <hr>\n</div>\n<div class=\"section\">\n  <p>She said that Democracies require educated voters to operate,</p>\n  <p>that without real education a Democracy can fill with hate.</p>\n</div>\n<div class=\"section\">\n  <p>&quot;A democratic majority consensus is a really big deal,</p>\n  <p>without a consensus a nation will always suffer and never heal.&quot;</p>\n</div>\n<div class=\"section\">\n  <p>She spoke of the blight of Fake Education,</p>\n  <p>she said it lasted long enough to bring her nation down into great desperation.</p>\n</div>\n<div class=\"section\">\n  <hr>\n</div>\n<div class=\"section\">\n  <p>She said Politics were as fake as Education,</p>\n  <p>&quot;everyone role-playing and quite blind to the real needs of the nation&quot;</p>\n</div>\n<div class=\"section\">\n  <hr>\n</div>\n<div class=\"section\">\n  <p>The video was several hours long,</p>\n  <p>it showed her computer programs and how they brought the world together to get along.</p>\n</div>\n<div class=\"section\">\n  <p>She showed how Nations can invest into the futures of their kids,</p>\n  <p>creating educational paths with rewards and bids.</p>\n</div>\n<div class=\"section\">\n  <p>Game companies inspired by her imagination,</p>\n  <p>built it all, her entire virtual nation.</p>\n</div>\n<div class=\"section\">\n  <p>Slowly one by one, cities around the word adopted her program,</p>\n  <p>to this day it is still true to the original diagram.</p>\n</div>\n<div class=\"section\">\n  <hr>\n</div>\n<div class=\"section\">\n  <p>Today, marks the programs 500th release,</p>\n  <p>and we celebrate 500 hundred years of Her Wisdom and World Peace.</p>\n</div>",
  "bootstrap": "<div class=\"card card-section bg-dark text-warning shadow\">\n  <div class=\"section card-body mb-0 my-2\">\n    <div class=\"paragraph card-text card-stanza my-5 text-center\">There was a little lady that figured out how to change the world,</div>\n    <div class=\"paragraph card-text card-stanza my-5 text-center\">all that is known, is that she wasn't very old.</div>\n  </div>\n</div>\n<div class=\"card card-section bg-dark text-warning shadow\">\n  <div class=\"section card-body mb-0 my-2\">\n    <div class=\"paragraph card-text card-stanza my-5 text-center\">She posted a single long video, that opened with \"I don't want to be a bother,\"</div>\n    <div class=\"paragraph card-text card-stanza my-5 text-center\">today, everyone just calls her, Mum or Mother.</div>\n  </div>\n</div>\n<div class=\"mb-5 section-spacer\">&nbsp;</div>\n<div class=\"card card-section bg-dark text-warning shadow\">\n  <div class=\"section card-body mb-0 my-2\">\n    <div class=\"paragraph card-text card-stanza my-5 text-center\">She said that Democracies require educated voters to operate,</div>\n    <div class=\"paragraph card-text card-stanza my-5 text-center\">that without real education a Democracy can fill with hate.</div>\n  </div>\n</div>\n<div class=\"card card-section bg-dark text-warning shadow\">\n  <div class=\"section card-body mb-0 my-2\">\n    <div class=\"paragraph card-text card-stanza my-5 text-center\">\"A democratic majority consensus is a really big deal,</div>\n    <div class=\"paragraph card-text card-stanza my-5 text-center\">without a consensus a nation will always suffer and never heal.\"</div>\n  </div>\n</div>\n<div class=\"card card-section bg-dark text-warning shadow\">\n  <div class=\"section card-body mb-0 my-2\">\n    <div class=\"paragraph card-text card-stanza my-5 text-center\">She spoke of the blight of Fake Education,</div>\n    <div class=\"paragraph card-text card-stanza my-5 text-center\">she said it lasted long enough to bring her nation down into great desperation.</div>\n  </div>\n</div>\n<div class=\"mb-5 section-spacer\">&nbsp;</div>\n<div class=\"card card-section bg-dark text-warning shadow\">\n  <div class=\"section card-body mb-0 my-2\">\n    <div class=\"paragraph card-text card-stanza my-5 text-center\">She said Politics were as fake as Education,</div>\n    <div class=\"paragraph card-text card-stanza my-5 text-center\">\"everyone role-playing and quite blind to the real needs of the nation\"</div>\n  </div>\n</div>\n<div class=\"mb-5 section-spacer\">&nbsp;</div>\n<div class=\"card card-section bg-dark text-warning shadow\">\n  <div class=\"section card-body mb-0 my-2\">\n    <div class=\"paragraph card-text card-stanza my-5 text-center\">The video was several hours long,</div>\n    <div class=\"paragraph card-text card-stanza my-5 text-center\">it showed her computer programs and how they brought the world together to get along.</div>\n  </div>\n</div>\n<div class=\"card card-section bg-dark text-warning shadow\">\n  <div class=\"section card-body mb-0 my-2\">\n    <div class=\"paragraph card-text card-stanza my-5 text-center\">She showed how Nations can invest into the futures of their kids,</div>\n    <div class=\"paragraph card-text card-stanza my-5 text-center\">creating educational paths with rewards and bids.</div>\n  </div>\n</div>\n<div class=\"card card-section bg-dark text-warning shadow\">\n  <div class=\"section card-body mb-0 my-2\">\n    <div class=\"paragraph card-text card-stanza my-5 text-center\">Game companies inspired by her imagination,</div>\n    <div class=\"paragraph card-text card-stanza my-5 text-center\">built it all, her entire virtual nation.</div>\n  </div>\n</div>\n<div class=\"card card-section bg-dark text-warning shadow\">\n  <div class=\"section card-body mb-0 my-2\">\n    <div class=\"paragraph card-text card-stanza my-5 text-center\">Slowly one by one, cities around the word adopted her program,</div>\n    <div class=\"paragraph card-text card-stanza my-5 text-center\">to this day it is still true to the original diagram.</div>\n  </div>\n</div>\n<div class=\"mb-5 section-spacer\">&nbsp;</div>\n<div class=\"card card-section bg-dark text-warning shadow\">\n  <div class=\"section card-body mb-0 my-2\">\n    <div class=\"paragraph card-text card-stanza my-5 text-center\">Today, marks the programs 500th release,</div>\n    <div class=\"paragraph card-text card-stanza my-5 text-center\">and we celebrate 500 hundred years of Her Wisdom and World Peace.</div>\n  </div>\n</div>",
  "print": "<div class=\"section avoid-break-inside\" style=\"padding-bottom: 2rem;\">\n  <div class=\"paragraph\">There was a little lady that figured out how to change the world,</div>\n  <div class=\"paragraph\">all that is known, is that she wasn't very old.</div>\n</div>\n<div class=\"section avoid-break-inside\" style=\"padding-bottom: 2rem;\">\n  <div class=\"paragraph\">She posted a single long video, that opened with \"I don't want to be a bother,\"</div>\n  <div class=\"paragraph\">today, everyone just calls her, Mum or Mother.</div>\n</div>\n<div class=\"section avoid-break-inside\" style=\"padding-bottom: 2rem;\">\n  <br>\n</div>\n<div class=\"section avoid-break-inside\" style=\"padding-bottom: 2rem;\">\n  <div class=\"paragraph\">She said that Democracies require educated voters to operate,</div>\n  <div class=\"paragraph\">that without real education a Democracy can fill with hate.</div>\n</div>\n<div class=\"section avoid-break-inside\" style=\"padding-bottom: 2rem;\">\n  <div class=\"paragraph\">\"A democratic majority consensus is a really big deal,</div>\n  <div class=\"paragraph\">without a consensus a nation will always suffer and never heal.\"</div>\n</div>\n<div class=\"section avoid-break-inside\" style=\"padding-bottom: 2rem;\">\n  <div class=\"paragraph\">She spoke of the blight of Fake Education,</div>\n  <div class=\"paragraph\">she said it lasted long enough to bring her nation down into great desperation.</div>\n</div>\n<div class=\"section avoid-break-inside\" style=\"padding-bottom: 2rem;\">\n  <br>\n</div>\n<div class=\"section avoid-break-inside\" style=\"padding-bottom: 2rem;\">\n  <div class=\"paragraph\">She said Politics were as fake as Education,</div>\n  <div class=\"paragraph\">\"everyone role-playing and quite blind to the real needs of the nation\"</div>\n</div>\n<div class=\"section avoid-break-inside\" style=\"padding-bottom: 2rem;\">\n  <br>\n</div>\n<div class=\"section avoid-break-inside\" style=\"padding-bottom: 2rem;\">\n  <div class=\"paragraph\">The video was several hours long,</div>\n  <div class=\"paragraph\">it showed her computer programs and how they brought the world together to get along.</div>\n</div>\n<div class=\"section avoid-break-inside\" style=\"padding-bottom: 2rem;\">\n  <div class=\"paragraph\">She showed how Nations can invest into the futures of their kids,</div>\n  <div class=\"paragraph\">creating educational paths with rewards and bids.</div>\n</div>\n<div class=\"section avoid-break-inside\" style=\"padding-bottom: 2rem;\">\n  <div class=\"paragraph\">Game companies inspired by her imagination,</div>\n  <div class=\"paragraph\">built it all, her entire virtual nation.</div>\n</div>\n<div class=\"section avoid-break-inside\" style=\"padding-bottom: 2rem;\">\n  <div class=\"paragraph\">Slowly one by one, cities around the word adopted her program,</div>\n  <div class=\"paragraph\">to this day it is still true to the original diagram.</div>\n</div>\n<div class=\"section avoid-break-inside\" style=\"padding-bottom: 2rem;\">\n  <br>\n</div>\n<div class=\"section avoid-break-inside\" style=\"padding-bottom: 2rem;\">\n  <div class=\"paragraph\">Today, marks the programs 500th release,</div>\n  <div class=\"paragraph\">and we celebrate 500 hundred years of Her Wisdom and World Peace.</div>\n</div>",
  "text": "There was a little lady that figured out how to change the world,\nall that is known, is that she wasn't very old.\nShe posted a single long video, that opened with \"I don't want to be a bother,\"\ntoday, everyone just calls her, Mum or Mother.\n\nShe said that Democracies require educated voters to operate,\nthat without real education a Democracy can fill with hate.\n\"A democratic majority consensus is a really big deal,\nwithout a consensus a nation will always suffer and never heal.\"\nShe spoke of the blight of Fake Education,\nshe said it lasted long enough to bring her nation down into great desperation.\n\nShe said Politics were as fake as Education,\n\"everyone role-playing and quite blind to the real needs of the nation\"\n\nThe video was several hours long,\nit showed her computer programs and how they brought the world together to get along.\nShe showed how Nations can invest into the futures of their kids,\ncreating educational paths with rewards and bids.\nGame companies inspired by her imagination,\nbuilt it all, her entire virtual nation.\nSlowly one by one, cities around the word adopted her program,\nto this day it is still true to the original diagram.\n\nToday, marks the programs 500th release,\nand we celebrate 500 hundred years of Her Wisdom and World Peace.",
  "images": [],
  "links": []
}