{
  "name": "furkies-purrkies-poetry-0075",
  "title": "The Harmony of Growing Up",
  "date": "2020-05-19T02:39:25.191Z",
  "image": "poetry-0075-illustration.jpg",
  "audio": "poetry-0075.mp3",
  "id": "furkies-purrkies-poetry-0075",
  "attachments": {},
  "guid": "6bd4f0e6-80f5-4eb9-a0ab-524a218cfed5",
  "html": "<div class=\"section\">\n  <p>Well, from the first moment on,</p>\n  <p>we are asked if we should live in harmony.</p>\n</div>\n<div class=\"section\">\n  <p>We are still very young,</p>\n  <p>barely know of the world.</p>\n</div>\n<div class=\"section\">\n  <p>And already the question of harmony comes,</p>\n  <p>and in harmony we learn, and thrive.</p>\n</div>\n<div class=\"section\">\n  <p>Away from it, we&apos;ll be interrupted,</p>\n  <p>and feel lost in the void.</p>\n</div>\n<div class=\"section\">\n  <p>It is a simple choice,</p>\n  <p>but out minds are not ready to make it.</p>\n</div>\n<div class=\"section\">\n  <p>Often we forget.</p>\n</div>\n<div class=\"section\">\n  <p>We forget about our little gardens,</p>\n  <p>and all the little walks.</p>\n</div>\n<div class=\"section\">\n  <p>We forget how amazing it felt,</p>\n  <p>to stand on the wing of a plane.</p>\n</div>\n<div class=\"section\">\n  <p>We forget the taste of popcorn at the Zoo,</p>\n  <p>or even how enormous Zoo felt.</p>\n</div>\n<div class=\"section\">\n  <p>We forget pebbles at the river,</p>\n  <p>and mischievous squires at the park.</p>\n</div>\n<div class=\"section\">\n  <hr>\n</div>\n<div class=\"section\">\n  <p>That little dog with a bark,</p>\n  <p>that scaredy kitten always hiding in the dark.</p>\n</div>\n<div class=\"section\">\n  <p>Our collection of unused keys,</p>\n  <p>and the box of bottle caps we collected with ease.</p>\n</div>\n<div class=\"section\">\n  <p>We forgot our Lego and the old bike,</p>\n  <p>with that seat that we used to really like.</p>\n</div>\n<div class=\"section\">\n  <p>We don&apos;t remember the Palaces and Castles,</p>\n  <p>that we used to love, and those swords, that fit us like a glove.</p>\n</div>\n<div class=\"section\">\n  <hr>\n</div>\n<div class=\"section\">\n  <p>Everybody else came around,</p>\n  <p>acting like they know the ground.</p>\n</div>\n<div class=\"section\">\n  <p>But, this was our gift from the Universe,</p>\n  <p>an affinity for flowering gardens, and little passage ways, and all those flying planes.</p>\n</div>\n<div class=\"section\">\n  <p>It was a key to unlock our mind,</p>\n  <p>to understand the zoo, and our size in the universe, connect with pebbles at the beach.</p>\n</div>\n<div class=\"section\">\n  <p>It is a pathway that fits us best,</p>\n  <p>to love little creatures, and collect some shineys, and build with blocks, and ride far and wide.</p>\n</div>\n<div class=\"section\">\n  <p>It was to remind us,</p>\n  <p>to find our place among Great Beings, and study and pursue excellence, in all we do.</p>\n</div>\n<div class=\"section\">\n  <hr>\n</div>\n<div class=\"section\">\n  <p>Then they sent us to First Grade,</p>\n  <p>and the weird kid peed into the Duplo, they didn&apos;t even have Lego.</p>\n</div>\n<div class=\"section\">\n  <p>Then the teacher graded you down for counting pebles in your pocket,</p>\n  <p>and did it so many times, you lost track.</p>\n</div>\n<div class=\"section\">\n  <hr>\n</div>\n<div class=\"section\">\n  <p>There was a whisper about the pebbles,</p>\n  <p>it was Mr. Sagan - &quot;You are made of Star Stuff.&quot;</p>\n</div>\n<div class=\"section\">\n  <p>And then the kids whispered...</p>\n  <p>to push you in the mud.</p>\n</div>\n<div class=\"section\">\n  <hr>\n</div>\n<div class=\"section\">\n  <p>Push their laughter aside,</p>\n  <p>you&apos;ll need to Learn, and learn really hard.</p>\n</div>\n<div class=\"section\">\n  <p>Cause right now, you&apos;re in the mud,</p>\n  <p>and you need to hang on.</p>\n</div>\n<div class=\"section\">\n  <p>It will get worse,</p>\n  <p>but all you have to do is rise.</p>\n</div>\n<div class=\"section\">\n  <p>Each time,</p>\n  <p>you&apos;ll rise higher.</p>\n</div>\n<div class=\"section\">\n  <p>(When in trouble, call the Police it is OK for kids to call the Police, they&apos;ll love helping you, don&apos;t be scared.)</p>\n</div>\n<div class=\"section\">\n  <hr>\n</div>\n<div class=\"section\">\n  <p>Third Grade,</p>\n  <p>Fifth Grade.</p>\n</div>\n<div class=\"section\">\n  <p>Low grade,</p>\n  <p>Uhh, but there can&apos;t be higher.</p>\n</div>\n<div class=\"section\">\n  <p>Because by this time, you&apos;re getting bad grades,</p>\n  <p>because the teacher thinks you&apos;re copying from somewhere.</p>\n</div>\n<div class=\"section\">\n  <p>The bullies know,</p>\n  <p>you did it on your own.</p>\n</div>\n<div class=\"section\">\n  <p>Saw you pacing for days,</p>\n  <p>with your first program.</p>\n</div>\n<div class=\"section\">\n  <p>Keep going forward,</p>\n  <p>don&apos;t let go - you&apos;re doing great, stay away from the hate.</p>\n</div>\n<div class=\"section\">\n  <hr>\n</div>\n<div class=\"section\">\n  <p>By the time you&apos;re out of Eight Grade,</p>\n  <p>by rejecting crazy, and nonsense, and stupid, and lazy, you graduate above all others.</p>\n</div>\n<div class=\"section\">\n  <p>Because you didn&apos;t follow,</p>\n  <p>because you chose to study on your own, at your own pace.</p>\n</div>\n<div class=\"section\">\n  <p>Because worthless grades meant nothing,</p>\n  <p>you felt no stress.</p>\n</div>\n<div class=\"section\">\n  <p>Because, you didn&apos;t follow</p>\n  <p>nothing could hurt you.</p>\n</div>\n<div class=\"section\">\n  <p>And your world is yours,</p>\n  <p>truly-truly yours.</p>\n</div>\n<div class=\"section\">\n  <hr>\n</div>\n<div class=\"section\">\n  <p>We unravel, when we forget who we are,</p>\n  <p>the moment we hide, or pretend, or follow.</p>\n</div>\n<div class=\"section\">\n  <p>And, gosh darn it,</p>\n  <p>it happens when we are still kids.</p>\n</div>\n<div class=\"section\">\n  <p>We are completely unprepared,</p>\n  <p>and none will help.</p>\n</div>\n<div class=\"section\">\n  <hr>\n</div>\n<div class=\"section\">\n  <p>So you! have to keep it together,</p>\n  <p>you can&apos;t let anyone hurt your mind.</p>\n</div>\n<div class=\"section\">\n  <p>In High School, the pretenders make a sudden appearance,</p>\n  <p>never held a book in their hand.</p>\n</div>\n<div class=\"section\">\n  <p>The back of Hamlet,</p>\n  <p>all the quotes have more IQ.</p>\n</div>\n<div class=\"section\">\n  <p>Let the little Caesars,</p>\n  <p>keep the wind from the hall away.</p>\n</div>\n<div class=\"section\">\n  <p>You need to pace your reading at the library,</p>\n  <p>teach yourself focus.</p>\n</div>\n<div class=\"section\">\n  <p>Don&apos;t EVER! finish the books,</p>\n  <p>just get to the part that is valuable to you, and skip the rest.</p>\n</div>\n<div class=\"section\">\n  <hr>\n</div>\n<div class=\"section\">\n  <p>Start working on your start-up early,</p>\n  <p>it is a study in failure.</p>\n</div>\n<div class=\"section\">\n  <p>You need to create a series of CONTROLLED FAILURES,</p>\n  <p>this is very important.</p>\n</div>\n<div class=\"section\">\n  <p>Learn [content management][1],</p>\n  <p>and figure out [billing][2]</p>\n</div>\n<div class=\"section\">\n  <p>That&apos;s your surface platform,</p>\n  <p>and think about nature of business.</p>\n</div>\n<div class=\"section\">\n  <p>Never try to build things directly,</p>\n  <p>facilitate the building of direct things for others.</p>\n</div>\n<div class=\"section\">\n  <p>Help them setup,</p>\n  <p>so that you are not burdened, and keep going.</p>\n</div>\n<div class=\"section\">\n  <p>Look at the structure of start-up accelerators, or even banks,</p>\n  <p>they take a percent, and never create what will weigh them down.</p>\n</div>\n<div class=\"section\">\n  <p>Eventually, you can build your own Tesla,</p>\n  <p>but at first, you start with services.</p>\n</div>\n<div class=\"section\">\n  <p>Look at the gym,</p>\n  <p>monthly subscription, is most stable.</p>\n</div>\n<div class=\"section\">\n  <p>The lessons, are all around you.</p>\n</div>\n<div class=\"section\">\n  <hr>\n</div>\n<div class=\"section\">\n  <p>You don&apos;t need college,</p>\n  <p>but taking college classes is very relaxing.</p>\n</div>\n<div class=\"section\">\n  <p>Make sure you get a 4.0 at each class,</p>\n  <p>be ready to repeat it.</p>\n</div>\n<div class=\"section\">\n  <p>And enjoy,</p>\n  <p>the lectures.</p>\n</div>\n<div class=\"section\">\n  <p>College is just a toy,</p>\n  <p>it looks bad on your Portfolio, so hide it.</p>\n</div>\n<div class=\"section\">\n  <p>It is a very weak teaching experience,</p>\n  <p>and people know that there there is minimal learning involved.</p>\n</div>\n<div class=\"section\">\n  <p>Jumping from high school to start-ups is more impressive,</p>\n  <p>and shows that you chose knowledge over nonsense.</p>\n</div>\n<div class=\"section\">\n  <p>It shows that you chose to learn on your own,</p>\n  <p>to take care of your own mind,</p>\n  <p>rather than to pretend to learn for grades.</p>\n</div>\n<div class=\"section\">\n  <p>Authenticity is very important in life,</p>\n  <p>it is hard to connect with people that role play.</p>\n</div>\n<div class=\"section\">\n  <hr>\n</div>\n<div class=\"section\">\n  <p>Bonding with people that are just acting,</p>\n  <p>is only functional for as long as they are acting.</p>\n</div>\n<div class=\"section\">\n  <p>But it is never good,</p>\n  <p>eventually they&apos;ll have a crisis, similar to a mid-life crisis.</p>\n</div>\n<div class=\"section\">\n  <p>Stay Authentic,</p>\n  <p>keep to to those who are Authentic.</p>\n</div>\n<div class=\"section\">\n  <p>Be safe.</p>\n</div>\n<div class=\"section\">\n  <hr>\n</div>\n<div class=\"section\">\n  <p>When it feels like everyone else is having an amazing life,</p>\n  <p>and you are stuck.</p>\n</div>\n<div class=\"section\">\n  <p>Umm... that not true</p>\n</div>\n<div class=\"section\">\n  <p>But it is also not healthy to think this way about yourself,</p>\n  <p>you are not beneath the party goers, they don&apos;t have what you have in your mind.</p>\n</div>\n<div class=\"section\">\n  <hr>\n</div>\n<div class=\"section\">\n  <p>But, that&apos;s far enough,</p>\n  <p>time to get some rest.</p>\n</div>\n<div class=\"section\">\n  <hr>\n</div>\n<div class=\"section\">\n  <p>This is where it gets interesting,</p>\n  <p>you have primed your mind for Business.</p>\n</div>\n<div class=\"section\">\n  <p>That is a fine first step,</p>\n  <p>now you need to get ready for the real graduation.</p>\n</div>\n<div class=\"section\">\n  <p>You need to section hike the equivalent of the Appalachian Trail,</p>\n  <p>and measure your jogging a hundred miles at a time.</p>\n</div>\n<div class=\"section\">\n  <p>Section jogging, the Western States 100.</p>\n</div>\n<div class=\"section\">\n  <p>Mind and Body, for the rest of your life.</p>\n</div>\n<div class=\"section\">\n  <p>You must take good care of both.</p>\n</div>\n<div class=\"section\">\n  <hr>\n</div>\n<div class=\"section\">\n  <p>At mile fifty, halfway through a run,</p>\n  <p>as you piece together your blurry thoughts of your next business.</p>\n</div>\n<div class=\"section\">\n  <p>Take some time to understand what it is that College Grads have,</p>\n  <p>those are very brittle relationships, and inflexible careers.</p>\n</div>\n<div class=\"section\">\n  <p>We all feel the promise, but we can&apos;t fake it,</p>\n  <p>it would be the opposite, and certainly not worthy of you, my Friends.</p>\n</div>\n<div class=\"section\">\n  <p>You can only find your meaning in Authenticity,</p>\n  <p>shortcuts will only take you back to the beginning.</p>\n</div>\n<div class=\"section\">\n  <p>To live among the Extraordinary,</p>\n  <p>you must become Extraordinary yourself.</p>\n</div>\n<div class=\"section\">\n  <hr>\n</div>\n<div class=\"section\">\n  <p>The gateway to Meaning of Life,</p>\n  <p>is in that tiny moment when you think to your self:</p>\n</div>\n<div class=\"section\">\n  <p>&quot;I am not going to jog tonight, I need rest.&quot;</p>\n</div>\n<div class=\"section\">\n  <p>Right there in that dot,</p>\n  <p>is the keyhole,</p>\n  <p>to the key that you are,</p>\n  <p>to the gateway that you need to open.</p>\n</div>\n<div class=\"section\">\n  <p>Life is not a simulation,</p>\n  <p>there are no days off,</p>\n  <p>life is quite a challenge,</p>\n  <p>and demands that each moment builds on the authenticity of the previous.</p>\n</div>\n<div class=\"section\">\n  <hr>\n</div>\n<div class=\"section\">\n  <p>Open the dot, how can you yearn for Authenticity and Companionship,</p>\n  <p>and cancel, and fall short, and not enough, and rest some more.</p>\n</div>\n<div class=\"section\">\n  <p>The gateway between Ordinary and Extraordinary,</p>\n  <p>is in accepting that we haven&apos;t got a choice to make.</p>\n</div>\n<div class=\"section\">\n  <p>But shoes... to put on,</p>\n  <p>your Mind and Body must grow in harmony.</p>\n</div>\n<div class=\"section\">\n  <p>You must not let go of the Harmony,</p>\n  <p>of your Magnificent Existence.</p>\n</div>\n<div class=\"section\">\n  <p>Each small success, by subtle analogy,</p>\n  <p>pushes you forward, to your next step.</p>\n</div>\n<div class=\"section\">\n  <hr>\n</div>\n<div class=\"section\">\n  <p>Eventually your tightly controlled business failures,</p>\n  <p>will fail, they will, fail to fail.</p>\n</div>\n<div class=\"section\">\n  <p>Your mind too,</p>\n  <p>it won&apos;t perceive the easy choice as an option.</p>\n</div>\n<div class=\"section\">\n  <p>All- will proceed,</p>\n  <p>in harmony.</p>\n</div>\n<div class=\"section\">\n  <hr>\n</div>\n<div class=\"section\">\n  <p>Labored breathing,</p>\n  <p>by the Pine Trees at Western States,</p>\n</div>\n<div class=\"section\">\n  <p>Another great step in Automation of your business,</p>\n  <p>and more investors.</p>\n</div>\n<div class=\"section\">\n  <p>And you&apos;re no longer stopping at the first thing you find in books,</p>\n  <p>you understand all of it.</p>\n</div>\n<div class=\"section\">\n  <p>What is made by humans,</p>\n  <p>is also All Too Human.</p>\n</div>\n<div class=\"section\">\n  <hr>\n</div>\n<div class=\"section\">\n  <p>And the Bullies are Gone,</p>\n  <p>and Eight Grade still sucks.</p>\n</div>\n<div class=\"section\">\n  <p>High school ... influences,</p>\n  <p>are trying to figure out where they went wrong - good luck!</p>\n</div>\n<div class=\"section\">\n  <p>College, is still a very romantic idea,</p>\n  <p>but it is best left to imagination.</p>\n</div>\n<div class=\"section\">\n  <p>Your dreams are so much more now,</p>\n  <p>only what you create can live up to them.</p>\n</div>\n<div class=\"section\">\n  <p>You are a Leader,</p>\n  <p>full of might an joy.</p>\n</div>\n<div class=\"section\">\n  <hr>\n</div>\n<div class=\"section\">\n  <p>And now you know,</p>\n  <p>shortcuts only lead people to their beginnings.</p>\n</div>\n<div class=\"section\">\n  <p>And the one road, the only road,</p>\n  <p>was the one of Authenticity, and Achievement.</p>\n</div>\n<div class=\"section\">\n  <p>Where we learned for real, not for grades,</p>\n  <p>where what we learned added up to create wisdom, and not a stupid GPA.</p>\n</div>\n<div class=\"section\">\n  <p>You&apos;ll be OK, so as long as you Learn onward and become Wise,</p>\n  <p>and Live in Authentic Harmony with Yourself.</p>\n</div>\n<div class=\"section\">\n  <p>This is how you become an Adult,</p>\n  <p>that was the one thing that all others were missing.</p>\n</div>\n<div class=\"section\">\n  <p>It&apos;s what made them pretend and simulate,</p>\n  <p>but, growing up can&apos;t be faked.</p>\n</div>\n<div class=\"section\">\n  <p>Growing up has to be written by the choices you make,</p>\n  <p>on the surface, that is your lifetime.</p>\n</div>\n<div class=\"section\">\n  <p>The dreams you always dream, will come true,</p>\n  <p>but not in your childhood, childhood is for learning.</p>\n</div>\n<div class=\"section\">\n  <p>Live in Harmony with yourself,</p>\n  <p>and live in harmony with the Universe.</p>\n</div>\n<div class=\"section\">\n  <p>Growing up is really special,</p>\n  <p>it is really important for our health.</p>\n</div>\n<div class=\"section\">\n  <p>It is a deeply internal process,</p>\n  <p>and there are no shortcuts to growing up.</p>\n</div>\n<div class=\"section\">\n  <p>It is meant to be,</p>\n  <p>Beautiful.</p>\n</div>\n<div class=\"section\">\n  <p>[1]: <a href=\"https://www.youtube.com/results?search_query=content+management\">https://www.youtube.com/results?search_query=content+management</a></p>\n  <p>[2]: <a href=\"https://www.youtube.com/results?search_query=stripe+wordpress\">https://www.youtube.com/results?search_query=stripe+wordpress</a></p>\n</div>",
  "bootstrap": "<div class=\"card card-section bg-dark text-warning shadow\">\n  <div class=\"section card-body mb-0 my-2\">\n    <div class=\"paragraph card-text card-stanza my-5 text-center\">Well, from the first moment on,</div>\n    <div class=\"paragraph card-text card-stanza my-5 text-center\">we are asked if we should live in harmony.</div>\n  </div>\n</div>\n<div class=\"card card-section bg-dark text-warning shadow\">\n  <div class=\"section card-body mb-0 my-2\">\n    <div class=\"paragraph card-text card-stanza my-5 text-center\">We are still very young,</div>\n    <div class=\"paragraph card-text card-stanza my-5 text-center\">barely know of the world.</div>\n  </div>\n</div>\n<div class=\"card card-section bg-dark text-warning shadow\">\n  <div class=\"section card-body mb-0 my-2\">\n    <div class=\"paragraph card-text card-stanza my-5 text-center\">And already the question of harmony comes,</div>\n    <div class=\"paragraph card-text card-stanza my-5 text-center\">and in harmony we learn, and thrive.</div>\n  </div>\n</div>\n<div class=\"card card-section bg-dark text-warning shadow\">\n  <div class=\"section card-body mb-0 my-2\">\n    <div class=\"paragraph card-text card-stanza my-5 text-center\">Away from it, we'll be interrupted,</div>\n    <div class=\"paragraph card-text card-stanza my-5 text-center\">and feel lost in the void.</div>\n  </div>\n</div>\n<div class=\"card card-section bg-dark text-warning shadow\">\n  <div class=\"section card-body mb-0 my-2\">\n    <div class=\"paragraph card-text card-stanza my-5 text-center\">It is a simple choice,</div>\n    <div class=\"paragraph card-text card-stanza my-5 text-center\">but out minds are not ready to make it.</div>\n  </div>\n</div>\n<div class=\"card card-section bg-dark text-warning shadow\">\n  <div class=\"section card-body mb-0 my-2\">\n    <div class=\"paragraph card-text card-stanza my-5 text-center\">Often we forget.</div>\n  </div>\n</div>\n<div class=\"card card-section bg-dark text-warning shadow\">\n  <div class=\"section card-body mb-0 my-2\">\n    <div class=\"paragraph card-text card-stanza my-5 text-center\">We forget about our little gardens,</div>\n    <div class=\"paragraph card-text card-stanza my-5 text-center\">and all the little walks.</div>\n  </div>\n</div>\n<div class=\"card card-section bg-dark text-warning shadow\">\n  <div class=\"section card-body mb-0 my-2\">\n    <div class=\"paragraph card-text card-stanza my-5 text-center\">We forget how amazing it felt,</div>\n    <div class=\"paragraph card-text card-stanza my-5 text-center\">to stand on the wing of a plane.</div>\n  </div>\n</div>\n<div class=\"card card-section bg-dark text-warning shadow\">\n  <div class=\"section card-body mb-0 my-2\">\n    <div class=\"paragraph card-text card-stanza my-5 text-center\">We forget the taste of popcorn at the Zoo,</div>\n    <div class=\"paragraph card-text card-stanza my-5 text-center\">or even how enormous Zoo felt.</div>\n  </div>\n</div>\n<div class=\"card card-section bg-dark text-warning shadow\">\n  <div class=\"section card-body mb-0 my-2\">\n    <div class=\"paragraph card-text card-stanza my-5 text-center\">We forget pebbles at the river,</div>\n    <div class=\"paragraph card-text card-stanza my-5 text-center\">and mischievous squires at the park.</div>\n  </div>\n</div>\n<div class=\"mb-5 section-spacer\">&nbsp;</div>\n<div class=\"card card-section bg-dark text-warning shadow\">\n  <div class=\"section card-body mb-0 my-2\">\n    <div class=\"paragraph card-text card-stanza my-5 text-center\">That little dog with a bark,</div>\n    <div class=\"paragraph card-text card-stanza my-5 text-center\">that scaredy kitten always hiding in the dark.</div>\n  </div>\n</div>\n<div class=\"card card-section bg-dark text-warning shadow\">\n  <div class=\"section card-body mb-0 my-2\">\n    <div class=\"paragraph card-text card-stanza my-5 text-center\">Our collection of unused keys,</div>\n    <div class=\"paragraph card-text card-stanza my-5 text-center\">and the box of bottle caps we collected with ease.</div>\n  </div>\n</div>\n<div class=\"card card-section bg-dark text-warning shadow\">\n  <div class=\"section card-body mb-0 my-2\">\n    <div class=\"paragraph card-text card-stanza my-5 text-center\">We forgot our Lego and the old bike,</div>\n    <div class=\"paragraph card-text card-stanza my-5 text-center\">with that seat that we used to really like.</div>\n  </div>\n</div>\n<div class=\"card card-section bg-dark text-warning shadow\">\n  <div class=\"section card-body mb-0 my-2\">\n    <div class=\"paragraph card-text card-stanza my-5 text-center\">We don't remember the Palaces and Castles,</div>\n    <div class=\"paragraph card-text card-stanza my-5 text-center\">that we used to love, and those swords, that fit us like a glove.</div>\n  </div>\n</div>\n<div class=\"mb-5 section-spacer\">&nbsp;</div>\n<div class=\"card card-section bg-dark text-warning shadow\">\n  <div class=\"section card-body mb-0 my-2\">\n    <div class=\"paragraph card-text card-stanza my-5 text-center\">Everybody else came around,</div>\n    <div class=\"paragraph card-text card-stanza my-5 text-center\">acting like they know the ground.</div>\n  </div>\n</div>\n<div class=\"card card-section bg-dark text-warning shadow\">\n  <div class=\"section card-body mb-0 my-2\">\n    <div class=\"paragraph card-text card-stanza my-5 text-center\">But, this was our gift from the Universe,</div>\n    <div class=\"paragraph card-text card-stanza my-5 text-center\">an affinity for flowering gardens, and little passage ways, and all those flying planes.</div>\n  </div>\n</div>\n<div class=\"card card-section bg-dark text-warning shadow\">\n  <div class=\"section card-body mb-0 my-2\">\n    <div class=\"paragraph card-text card-stanza my-5 text-center\">It was a key to unlock our mind,</div>\n    <div class=\"paragraph card-text card-stanza my-5 text-center\">to understand the zoo, and our size in the universe, connect with pebbles at the beach.</div>\n  </div>\n</div>\n<div class=\"card card-section bg-dark text-warning shadow\">\n  <div class=\"section card-body mb-0 my-2\">\n    <div class=\"paragraph card-text card-stanza my-5 text-center\">It is a pathway that fits us best,</div>\n    <div class=\"paragraph card-text card-stanza my-5 text-center\">to love little creatures, and collect some shineys, and build with blocks, and ride far and wide.</div>\n  </div>\n</div>\n<div class=\"card card-section bg-dark text-warning shadow\">\n  <div class=\"section card-body mb-0 my-2\">\n    <div class=\"paragraph card-text card-stanza my-5 text-center\">It was to remind us,</div>\n    <div class=\"paragraph card-text card-stanza my-5 text-center\">to find our place among Great Beings, and study and pursue excellence, in all we do.</div>\n  </div>\n</div>\n<div class=\"mb-5 section-spacer\">&nbsp;</div>\n<div class=\"card card-section bg-dark text-warning shadow\">\n  <div class=\"section card-body mb-0 my-2\">\n    <div class=\"paragraph card-text card-stanza my-5 text-center\">Then they sent us to First Grade,</div>\n    <div class=\"paragraph card-text card-stanza my-5 text-center\">and the weird kid peed into the Duplo, they didn't even have Lego.</div>\n  </div>\n</div>\n<div class=\"card card-section bg-dark text-warning shadow\">\n  <div class=\"section card-body mb-0 my-2\">\n    <div class=\"paragraph card-text card-stanza my-5 text-center\">Then the teacher graded you down for counting pebles in your pocket,</div>\n    <div class=\"paragraph card-text card-stanza my-5 text-center\">and did it so many times, you lost track.</div>\n  </div>\n</div>\n<div class=\"mb-5 section-spacer\">&nbsp;</div>\n<div class=\"card card-section bg-dark text-warning shadow\">\n  <div class=\"section card-body mb-0 my-2\">\n    <div class=\"paragraph card-text card-stanza my-5 text-center\">There was a whisper about the pebbles,</div>\n    <div class=\"paragraph card-text card-stanza my-5 text-center\">it was Mr. Sagan - \"You are made of Star Stuff.\"</div>\n  </div>\n</div>\n<div class=\"card card-section bg-dark text-warning shadow\">\n  <div class=\"section card-body mb-0 my-2\">\n    <div class=\"paragraph card-text card-stanza my-5 text-center\">And then the kids whispered...</div>\n    <div class=\"paragraph card-text card-stanza my-5 text-center\">to push you in the mud.</div>\n  </div>\n</div>\n<div class=\"mb-5 section-spacer\">&nbsp;</div>\n<div class=\"card card-section bg-dark text-warning shadow\">\n  <div class=\"section card-body mb-0 my-2\">\n    <div class=\"paragraph card-text card-stanza my-5 text-center\">Push their laughter aside,</div>\n    <div class=\"paragraph card-text card-stanza my-5 text-center\">you'll need to Learn, and learn really hard.</div>\n  </div>\n</div>\n<div class=\"card card-section bg-dark text-warning shadow\">\n  <div class=\"section card-body mb-0 my-2\">\n    <div class=\"paragraph card-text card-stanza my-5 text-center\">Cause right now, you're in the mud,</div>\n    <div class=\"paragraph card-text card-stanza my-5 text-center\">and you need to hang on.</div>\n  </div>\n</div>\n<div class=\"card card-section bg-dark text-warning shadow\">\n  <div class=\"section card-body mb-0 my-2\">\n    <div class=\"paragraph card-text card-stanza my-5 text-center\">It will get worse,</div>\n    <div class=\"paragraph card-text card-stanza my-5 text-center\">but all you have to do is rise.</div>\n  </div>\n</div>\n<div class=\"card card-section bg-dark text-warning shadow\">\n  <div class=\"section card-body mb-0 my-2\">\n    <div class=\"paragraph card-text card-stanza my-5 text-center\">Each time,</div>\n    <div class=\"paragraph card-text card-stanza my-5 text-center\">you'll rise higher.</div>\n  </div>\n</div>\n<div class=\"card card-section bg-dark text-warning shadow\">\n  <div class=\"section card-body mb-0 my-2\">\n    <div class=\"paragraph card-text card-stanza my-5 text-center\">(When in trouble, call the Police it is OK for kids to call the Police, they'll love helping you, don't be scared.)</div>\n  </div>\n</div>\n<div class=\"mb-5 section-spacer\">&nbsp;</div>\n<div class=\"card card-section bg-dark text-warning shadow\">\n  <div class=\"section card-body mb-0 my-2\">\n    <div class=\"paragraph card-text card-stanza my-5 text-center\">Third Grade,</div>\n    <div class=\"paragraph card-text card-stanza my-5 text-center\">Fifth Grade.</div>\n  </div>\n</div>\n<div class=\"card card-section bg-dark text-warning shadow\">\n  <div class=\"section card-body mb-0 my-2\">\n    <div class=\"paragraph card-text card-stanza my-5 text-center\">Low grade,</div>\n    <div class=\"paragraph card-text card-stanza my-5 text-center\">Uhh, but there can't be higher.</div>\n  </div>\n</div>\n<div class=\"card card-section bg-dark text-warning shadow\">\n  <div class=\"section card-body mb-0 my-2\">\n    <div class=\"paragraph card-text card-stanza my-5 text-center\">Because by this time, you're getting bad grades,</div>\n    <div class=\"paragraph card-text card-stanza my-5 text-center\">because the teacher thinks you're copying from somewhere.</div>\n  </div>\n</div>\n<div class=\"card card-section bg-dark text-warning shadow\">\n  <div class=\"section card-body mb-0 my-2\">\n    <div class=\"paragraph card-text card-stanza my-5 text-center\">The bullies know,</div>\n    <div class=\"paragraph card-text card-stanza my-5 text-center\">you did it on your own.</div>\n  </div>\n</div>\n<div class=\"card card-section bg-dark text-warning shadow\">\n  <div class=\"section card-body mb-0 my-2\">\n    <div class=\"paragraph card-text card-stanza my-5 text-center\">Saw you pacing for days,</div>\n    <div class=\"paragraph card-text card-stanza my-5 text-center\">with your first program.</div>\n  </div>\n</div>\n<div class=\"card card-section bg-dark text-warning shadow\">\n  <div class=\"section card-body mb-0 my-2\">\n    <div class=\"paragraph card-text card-stanza my-5 text-center\">Keep going forward,</div>\n    <div class=\"paragraph card-text card-stanza my-5 text-center\">don't let go - you're doing great, stay away from the hate.</div>\n  </div>\n</div>\n<div class=\"mb-5 section-spacer\">&nbsp;</div>\n<div class=\"card card-section bg-dark text-warning shadow\">\n  <div class=\"section card-body mb-0 my-2\">\n    <div class=\"paragraph card-text card-stanza my-5 text-center\">By the time you're out of Eight Grade,</div>\n    <div class=\"paragraph card-text card-stanza my-5 text-center\">by rejecting crazy, and nonsense, and stupid, and lazy, you graduate above all others.</div>\n  </div>\n</div>\n<div class=\"card card-section bg-dark text-warning shadow\">\n  <div class=\"section card-body mb-0 my-2\">\n    <div class=\"paragraph card-text card-stanza my-5 text-center\">Because you didn't follow,</div>\n    <div class=\"paragraph card-text card-stanza my-5 text-center\">because you chose to study on your own, at your own pace.</div>\n  </div>\n</div>\n<div class=\"card card-section bg-dark text-warning shadow\">\n  <div class=\"section card-body mb-0 my-2\">\n    <div class=\"paragraph card-text card-stanza my-5 text-center\">Because worthless grades meant nothing,</div>\n    <div class=\"paragraph card-text card-stanza my-5 text-center\">you felt no stress.</div>\n  </div>\n</div>\n<div class=\"card card-section bg-dark text-warning shadow\">\n  <div class=\"section card-body mb-0 my-2\">\n    <div class=\"paragraph card-text card-stanza my-5 text-center\">Because, you didn't follow</div>\n    <div class=\"paragraph card-text card-stanza my-5 text-center\">nothing could hurt you.</div>\n  </div>\n</div>\n<div class=\"card card-section bg-dark text-warning shadow\">\n  <div class=\"section card-body mb-0 my-2\">\n    <div class=\"paragraph card-text card-stanza my-5 text-center\">And your world is yours,</div>\n    <div class=\"paragraph card-text card-stanza my-5 text-center\">truly-truly yours.</div>\n  </div>\n</div>\n<div class=\"mb-5 section-spacer\">&nbsp;</div>\n<div class=\"card card-section bg-dark text-warning shadow\">\n  <div class=\"section card-body mb-0 my-2\">\n    <div class=\"paragraph card-text card-stanza my-5 text-center\">We unravel, when we forget who we are,</div>\n    <div class=\"paragraph card-text card-stanza my-5 text-center\">the moment we hide, or pretend, or follow.</div>\n  </div>\n</div>\n<div class=\"card card-section bg-dark text-warning shadow\">\n  <div class=\"section card-body mb-0 my-2\">\n    <div class=\"paragraph card-text card-stanza my-5 text-center\">And, gosh darn it,</div>\n    <div class=\"paragraph card-text card-stanza my-5 text-center\">it happens when we are still kids.</div>\n  </div>\n</div>\n<div class=\"card card-section bg-dark text-warning shadow\">\n  <div class=\"section card-body mb-0 my-2\">\n    <div class=\"paragraph card-text card-stanza my-5 text-center\">We are completely unprepared,</div>\n    <div class=\"paragraph card-text card-stanza my-5 text-center\">and none will help.</div>\n  </div>\n</div>\n<div class=\"mb-5 section-spacer\">&nbsp;</div>\n<div class=\"card card-section bg-dark text-warning shadow\">\n  <div class=\"section card-body mb-0 my-2\">\n    <div class=\"paragraph card-text card-stanza my-5 text-center\">So you! have to keep it together,</div>\n    <div class=\"paragraph card-text card-stanza my-5 text-center\">you can't let anyone hurt your mind.</div>\n  </div>\n</div>\n<div class=\"card card-section bg-dark text-warning shadow\">\n  <div class=\"section card-body mb-0 my-2\">\n    <div class=\"paragraph card-text card-stanza my-5 text-center\">In High School, the pretenders make a sudden appearance,</div>\n    <div class=\"paragraph card-text card-stanza my-5 text-center\">never held a book in their hand.</div>\n  </div>\n</div>\n<div class=\"card card-section bg-dark text-warning shadow\">\n  <div class=\"section card-body mb-0 my-2\">\n    <div class=\"paragraph card-text card-stanza my-5 text-center\">The back of Hamlet,</div>\n    <div class=\"paragraph card-text card-stanza my-5 text-center\">all the quotes have more IQ.</div>\n  </div>\n</div>\n<div class=\"card card-section bg-dark text-warning shadow\">\n  <div class=\"section card-body mb-0 my-2\">\n    <div class=\"paragraph card-text card-stanza my-5 text-center\">Let the little Caesars,</div>\n    <div class=\"paragraph card-text card-stanza my-5 text-center\">keep the wind from the hall away.</div>\n  </div>\n</div>\n<div class=\"card card-section bg-dark text-warning shadow\">\n  <div class=\"section card-body mb-0 my-2\">\n    <div class=\"paragraph card-text card-stanza my-5 text-center\">You need to pace your reading at the library,</div>\n    <div class=\"paragraph card-text card-stanza my-5 text-center\">teach yourself focus.</div>\n  </div>\n</div>\n<div class=\"card card-section bg-dark text-warning shadow\">\n  <div class=\"section card-body mb-0 my-2\">\n    <div class=\"paragraph card-text card-stanza my-5 text-center\">Don't EVER! finish the books,</div>\n    <div class=\"paragraph card-text card-stanza my-5 text-center\">just get to the part that is valuable to you, and skip the rest.</div>\n  </div>\n</div>\n<div class=\"mb-5 section-spacer\">&nbsp;</div>\n<div class=\"card card-section bg-dark text-warning shadow\">\n  <div class=\"section card-body mb-0 my-2\">\n    <div class=\"paragraph card-text card-stanza my-5 text-center\">Start working on your start-up early,</div>\n    <div class=\"paragraph card-text card-stanza my-5 text-center\">it is a study in failure.</div>\n  </div>\n</div>\n<div class=\"card card-section bg-dark text-warning shadow\">\n  <div class=\"section card-body mb-0 my-2\">\n    <div class=\"paragraph card-text card-stanza my-5 text-center\">You need to create a series of CONTROLLED FAILURES,</div>\n    <div class=\"paragraph card-text card-stanza my-5 text-center\">this is very important.</div>\n  </div>\n</div>\n<div class=\"card card-section bg-dark text-warning shadow\">\n  <div class=\"section card-body mb-0 my-2\">\n    <div class=\"paragraph card-text card-stanza my-5 text-center\">Learn [content management][1],</div>\n    <div class=\"paragraph card-text card-stanza my-5 text-center\">and figure out [billing][2]</div>\n  </div>\n</div>\n<div class=\"card card-section bg-dark text-warning shadow\">\n  <div class=\"section card-body mb-0 my-2\">\n    <div class=\"paragraph card-text card-stanza my-5 text-center\">That's your surface platform,</div>\n    <div class=\"paragraph card-text card-stanza my-5 text-center\">and think about nature of business.</div>\n  </div>\n</div>\n<div class=\"card card-section bg-dark text-warning shadow\">\n  <div class=\"section card-body mb-0 my-2\">\n    <div class=\"paragraph card-text card-stanza my-5 text-center\">Never try to build things directly,</div>\n    <div class=\"paragraph card-text card-stanza my-5 text-center\">facilitate the building of direct things for others.</div>\n  </div>\n</div>\n<div class=\"card card-section bg-dark text-warning shadow\">\n  <div class=\"section card-body mb-0 my-2\">\n    <div class=\"paragraph card-text card-stanza my-5 text-center\">Help them setup,</div>\n    <div class=\"paragraph card-text card-stanza my-5 text-center\">so that you are not burdened, and keep going.</div>\n  </div>\n</div>\n<div class=\"card card-section bg-dark text-warning shadow\">\n  <div class=\"section card-body mb-0 my-2\">\n    <div class=\"paragraph card-text card-stanza my-5 text-center\">Look at the structure of start-up accelerators, or even banks,</div>\n    <div class=\"paragraph card-text card-stanza my-5 text-center\">they take a percent, and never create what will weigh them down.</div>\n  </div>\n</div>\n<div class=\"card card-section bg-dark text-warning shadow\">\n  <div class=\"section card-body mb-0 my-2\">\n    <div class=\"paragraph card-text card-stanza my-5 text-center\">Eventually, you can build your own Tesla,</div>\n    <div class=\"paragraph card-text card-stanza my-5 text-center\">but at first, you start with services.</div>\n  </div>\n</div>\n<div class=\"card card-section bg-dark text-warning shadow\">\n  <div class=\"section card-body mb-0 my-2\">\n    <div class=\"paragraph card-text card-stanza my-5 text-center\">Look at the gym,</div>\n    <div class=\"paragraph card-text card-stanza my-5 text-center\">monthly subscription, is most stable.</div>\n  </div>\n</div>\n<div class=\"card card-section bg-dark text-warning shadow\">\n  <div class=\"section card-body mb-0 my-2\">\n    <div class=\"paragraph card-text card-stanza my-5 text-center\">The lessons, are all around you.</div>\n  </div>\n</div>\n<div class=\"mb-5 section-spacer\">&nbsp;</div>\n<div class=\"card card-section bg-dark text-warning shadow\">\n  <div class=\"section card-body mb-0 my-2\">\n    <div class=\"paragraph card-text card-stanza my-5 text-center\">You don't need college,</div>\n    <div class=\"paragraph card-text card-stanza my-5 text-center\">but taking college classes is very relaxing.</div>\n  </div>\n</div>\n<div class=\"card card-section bg-dark text-warning shadow\">\n  <div class=\"section card-body mb-0 my-2\">\n    <div class=\"paragraph card-text card-stanza my-5 text-center\">Make sure you get a 4.0 at each class,</div>\n    <div class=\"paragraph card-text card-stanza my-5 text-center\">be ready to repeat it.</div>\n  </div>\n</div>\n<div class=\"card card-section bg-dark text-warning shadow\">\n  <div class=\"section card-body mb-0 my-2\">\n    <div class=\"paragraph card-text card-stanza my-5 text-center\">And enjoy,</div>\n    <div class=\"paragraph card-text card-stanza my-5 text-center\">the lectures.</div>\n  </div>\n</div>\n<div class=\"card card-section bg-dark text-warning shadow\">\n  <div class=\"section card-body mb-0 my-2\">\n    <div class=\"paragraph card-text card-stanza my-5 text-center\">College is just a toy,</div>\n    <div class=\"paragraph card-text card-stanza my-5 text-center\">it looks bad on your Portfolio, so hide it.</div>\n  </div>\n</div>\n<div class=\"card card-section bg-dark text-warning shadow\">\n  <div class=\"section card-body mb-0 my-2\">\n    <div class=\"paragraph card-text card-stanza my-5 text-center\">It is a very weak teaching experience,</div>\n    <div class=\"paragraph card-text card-stanza my-5 text-center\">and people know that there there is minimal learning involved.</div>\n  </div>\n</div>\n<div class=\"card card-section bg-dark text-warning shadow\">\n  <div class=\"section card-body mb-0 my-2\">\n    <div class=\"paragraph card-text card-stanza my-5 text-center\">Jumping from high school to start-ups is more impressive,</div>\n    <div class=\"paragraph card-text card-stanza my-5 text-center\">and shows that you chose knowledge over nonsense.</div>\n  </div>\n</div>\n<div class=\"card card-section bg-dark text-warning shadow\">\n  <div class=\"section card-body mb-0 my-2\">\n    <div class=\"paragraph card-text card-stanza my-5 text-center\">It shows that you chose to learn on your own,</div>\n    <div class=\"paragraph card-text card-stanza my-5 text-center\">to take care of your own mind,</div>\n    <div class=\"paragraph card-text card-stanza my-5 text-center\">rather than to pretend to learn for grades.</div>\n  </div>\n</div>\n<div class=\"card card-section bg-dark text-warning shadow\">\n  <div class=\"section card-body mb-0 my-2\">\n    <div class=\"paragraph card-text card-stanza my-5 text-center\">Authenticity is very important in life,</div>\n    <div class=\"paragraph card-text card-stanza my-5 text-center\">it is hard to connect with people that role play.</div>\n  </div>\n</div>\n<div class=\"mb-5 section-spacer\">&nbsp;</div>\n<div class=\"card card-section bg-dark text-warning shadow\">\n  <div class=\"section card-body mb-0 my-2\">\n    <div class=\"paragraph card-text card-stanza my-5 text-center\">Bonding with people that are just acting,</div>\n    <div class=\"paragraph card-text card-stanza my-5 text-center\">is only functional for as long as they are acting.</div>\n  </div>\n</div>\n<div class=\"card card-section bg-dark text-warning shadow\">\n  <div class=\"section card-body mb-0 my-2\">\n    <div class=\"paragraph card-text card-stanza my-5 text-center\">But it is never good,</div>\n    <div class=\"paragraph card-text card-stanza my-5 text-center\">eventually they'll have a crisis, similar to a mid-life crisis.</div>\n  </div>\n</div>\n<div class=\"card card-section bg-dark text-warning shadow\">\n  <div class=\"section card-body mb-0 my-2\">\n    <div class=\"paragraph card-text card-stanza my-5 text-center\">Stay Authentic,</div>\n    <div class=\"paragraph card-text card-stanza my-5 text-center\">keep to to those who are Authentic.</div>\n  </div>\n</div>\n<div class=\"card card-section bg-dark text-warning shadow\">\n  <div class=\"section card-body mb-0 my-2\">\n    <div class=\"paragraph card-text card-stanza my-5 text-center\">Be safe.</div>\n  </div>\n</div>\n<div class=\"mb-5 section-spacer\">&nbsp;</div>\n<div class=\"card card-section bg-dark text-warning shadow\">\n  <div class=\"section card-body mb-0 my-2\">\n    <div class=\"paragraph card-text card-stanza my-5 text-center\">When it feels like everyone else is having an amazing life,</div>\n    <div class=\"paragraph card-text card-stanza my-5 text-center\">and you are stuck.</div>\n  </div>\n</div>\n<div class=\"card card-section bg-dark text-warning shadow\">\n  <div class=\"section card-body mb-0 my-2\">\n    <div class=\"paragraph card-text card-stanza my-5 text-center\">Umm... that not true</div>\n  </div>\n</div>\n<div class=\"card card-section bg-dark text-warning shadow\">\n  <div class=\"section card-body mb-0 my-2\">\n    <div class=\"paragraph card-text card-stanza my-5 text-center\">But it is also not healthy to think this way about yourself,</div>\n    <div class=\"paragraph card-text card-stanza my-5 text-center\">you are not beneath the party goers, they don't have what you have in your mind.</div>\n  </div>\n</div>\n<div class=\"mb-5 section-spacer\">&nbsp;</div>\n<div class=\"card card-section bg-dark text-warning shadow\">\n  <div class=\"section card-body mb-0 my-2\">\n    <div class=\"paragraph card-text card-stanza my-5 text-center\">But, that's far enough,</div>\n    <div class=\"paragraph card-text card-stanza my-5 text-center\">time to get some rest.</div>\n  </div>\n</div>\n<div class=\"mb-5 section-spacer\">&nbsp;</div>\n<div class=\"card card-section bg-dark text-warning shadow\">\n  <div class=\"section card-body mb-0 my-2\">\n    <div class=\"paragraph card-text card-stanza my-5 text-center\">This is where it gets interesting,</div>\n    <div class=\"paragraph card-text card-stanza my-5 text-center\">you have primed your mind for Business.</div>\n  </div>\n</div>\n<div class=\"card card-section bg-dark text-warning shadow\">\n  <div class=\"section card-body mb-0 my-2\">\n    <div class=\"paragraph card-text card-stanza my-5 text-center\">That is a fine first step,</div>\n    <div class=\"paragraph card-text card-stanza my-5 text-center\">now you need to get ready for the real graduation.</div>\n  </div>\n</div>\n<div class=\"card card-section bg-dark text-warning shadow\">\n  <div class=\"section card-body mb-0 my-2\">\n    <div class=\"paragraph card-text card-stanza my-5 text-center\">You need to section hike the equivalent of the Appalachian Trail,</div>\n    <div class=\"paragraph card-text card-stanza my-5 text-center\">and measure your jogging a hundred miles at a time.</div>\n  </div>\n</div>\n<div class=\"card card-section bg-dark text-warning shadow\">\n  <div class=\"section card-body mb-0 my-2\">\n    <div class=\"paragraph card-text card-stanza my-5 text-center\">Section jogging, the Western States 100.</div>\n  </div>\n</div>\n<div class=\"card card-section bg-dark text-warning shadow\">\n  <div class=\"section card-body mb-0 my-2\">\n    <div class=\"paragraph card-text card-stanza my-5 text-center\">Mind and Body, for the rest of your life.</div>\n  </div>\n</div>\n<div class=\"card card-section bg-dark text-warning shadow\">\n  <div class=\"section card-body mb-0 my-2\">\n    <div class=\"paragraph card-text card-stanza my-5 text-center\">You must take good care of both.</div>\n  </div>\n</div>\n<div class=\"mb-5 section-spacer\">&nbsp;</div>\n<div class=\"card card-section bg-dark text-warning shadow\">\n  <div class=\"section card-body mb-0 my-2\">\n    <div class=\"paragraph card-text card-stanza my-5 text-center\">At mile fifty, halfway through a run,</div>\n    <div class=\"paragraph card-text card-stanza my-5 text-center\">as you piece together your blurry thoughts of your next business.</div>\n  </div>\n</div>\n<div class=\"card card-section bg-dark text-warning shadow\">\n  <div class=\"section card-body mb-0 my-2\">\n    <div class=\"paragraph card-text card-stanza my-5 text-center\">Take some time to understand what it is that College Grads have,</div>\n    <div class=\"paragraph card-text card-stanza my-5 text-center\">those are very brittle relationships, and inflexible careers.</div>\n  </div>\n</div>\n<div class=\"card card-section bg-dark text-warning shadow\">\n  <div class=\"section card-body mb-0 my-2\">\n    <div class=\"paragraph card-text card-stanza my-5 text-center\">We all feel the promise, but we can't fake it,</div>\n    <div class=\"paragraph card-text card-stanza my-5 text-center\">it would be the opposite, and certainly not worthy of you, my Friends.</div>\n  </div>\n</div>\n<div class=\"card card-section bg-dark text-warning shadow\">\n  <div class=\"section card-body mb-0 my-2\">\n    <div class=\"paragraph card-text card-stanza my-5 text-center\">You can only find your meaning in Authenticity,</div>\n    <div class=\"paragraph card-text card-stanza my-5 text-center\">shortcuts will only take you back to the beginning.</div>\n  </div>\n</div>\n<div class=\"card card-section bg-dark text-warning shadow\">\n  <div class=\"section card-body mb-0 my-2\">\n    <div class=\"paragraph card-text card-stanza my-5 text-center\">To live among the Extraordinary,</div>\n    <div class=\"paragraph card-text card-stanza my-5 text-center\">you must become Extraordinary yourself.</div>\n  </div>\n</div>\n<div class=\"mb-5 section-spacer\">&nbsp;</div>\n<div class=\"card card-section bg-dark text-warning shadow\">\n  <div class=\"section card-body mb-0 my-2\">\n    <div class=\"paragraph card-text card-stanza my-5 text-center\">The gateway to Meaning of Life,</div>\n    <div class=\"paragraph card-text card-stanza my-5 text-center\">is in that tiny moment when you think to your self:</div>\n  </div>\n</div>\n<div class=\"card card-section bg-dark text-warning shadow\">\n  <div class=\"section card-body mb-0 my-2\">\n    <div class=\"paragraph card-text card-stanza my-5 text-center\">\"I am not going to jog tonight, I need rest.\"</div>\n  </div>\n</div>\n<div class=\"card card-section bg-dark text-warning shadow\">\n  <div class=\"section card-body mb-0 my-2\">\n    <div class=\"paragraph card-text card-stanza my-5 text-center\">Right there in that dot,</div>\n    <div class=\"paragraph card-text card-stanza my-5 text-center\">is the keyhole,</div>\n    <div class=\"paragraph card-text card-stanza my-5 text-center\">to the key that you are,</div>\n    <div class=\"paragraph card-text card-stanza my-5 text-center\">to the gateway that you need to open.</div>\n  </div>\n</div>\n<div class=\"card card-section bg-dark text-warning shadow\">\n  <div class=\"section card-body mb-0 my-2\">\n    <div class=\"paragraph card-text card-stanza my-5 text-center\">Life is not a simulation,</div>\n    <div class=\"paragraph card-text card-stanza my-5 text-center\">there are no days off,</div>\n    <div class=\"paragraph card-text card-stanza my-5 text-center\">life is quite a challenge,</div>\n    <div class=\"paragraph card-text card-stanza my-5 text-center\">and demands that each moment builds on the authenticity of the previous.</div>\n  </div>\n</div>\n<div class=\"mb-5 section-spacer\">&nbsp;</div>\n<div class=\"card card-section bg-dark text-warning shadow\">\n  <div class=\"section card-body mb-0 my-2\">\n    <div class=\"paragraph card-text card-stanza my-5 text-center\">Open the dot, how can you yearn for Authenticity and Companionship,</div>\n    <div class=\"paragraph card-text card-stanza my-5 text-center\">and cancel, and fall short, and not enough, and rest some more.</div>\n  </div>\n</div>\n<div class=\"card card-section bg-dark text-warning shadow\">\n  <div class=\"section card-body mb-0 my-2\">\n    <div class=\"paragraph card-text card-stanza my-5 text-center\">The gateway between Ordinary and Extraordinary,</div>\n    <div class=\"paragraph card-text card-stanza my-5 text-center\">is in accepting that we haven't got a choice to make.</div>\n  </div>\n</div>\n<div class=\"card card-section bg-dark text-warning shadow\">\n  <div class=\"section card-body mb-0 my-2\">\n    <div class=\"paragraph card-text card-stanza my-5 text-center\">But shoes... to put on,</div>\n    <div class=\"paragraph card-text card-stanza my-5 text-center\">your Mind and Body must grow in harmony.</div>\n  </div>\n</div>\n<div class=\"card card-section bg-dark text-warning shadow\">\n  <div class=\"section card-body mb-0 my-2\">\n    <div class=\"paragraph card-text card-stanza my-5 text-center\">You must not let go of the Harmony,</div>\n    <div class=\"paragraph card-text card-stanza my-5 text-center\">of your Magnificent Existence.</div>\n  </div>\n</div>\n<div class=\"card card-section bg-dark text-warning shadow\">\n  <div class=\"section card-body mb-0 my-2\">\n    <div class=\"paragraph card-text card-stanza my-5 text-center\">Each small success, by subtle analogy,</div>\n    <div class=\"paragraph card-text card-stanza my-5 text-center\">pushes you forward, to your next step.</div>\n  </div>\n</div>\n<div class=\"mb-5 section-spacer\">&nbsp;</div>\n<div class=\"card card-section bg-dark text-warning shadow\">\n  <div class=\"section card-body mb-0 my-2\">\n    <div class=\"paragraph card-text card-stanza my-5 text-center\">Eventually your tightly controlled business failures,</div>\n    <div class=\"paragraph card-text card-stanza my-5 text-center\">will fail, they will, fail to fail.</div>\n  </div>\n</div>\n<div class=\"card card-section bg-dark text-warning shadow\">\n  <div class=\"section card-body mb-0 my-2\">\n    <div class=\"paragraph card-text card-stanza my-5 text-center\">Your mind too,</div>\n    <div class=\"paragraph card-text card-stanza my-5 text-center\">it won't perceive the easy choice as an option.</div>\n  </div>\n</div>\n<div class=\"card card-section bg-dark text-warning shadow\">\n  <div class=\"section card-body mb-0 my-2\">\n    <div class=\"paragraph card-text card-stanza my-5 text-center\">All- will proceed,</div>\n    <div class=\"paragraph card-text card-stanza my-5 text-center\">in harmony.</div>\n  </div>\n</div>\n<div class=\"mb-5 section-spacer\">&nbsp;</div>\n<div class=\"card card-section bg-dark text-warning shadow\">\n  <div class=\"section card-body mb-0 my-2\">\n    <div class=\"paragraph card-text card-stanza my-5 text-center\">Labored breathing,</div>\n    <div class=\"paragraph card-text card-stanza my-5 text-center\">by the Pine Trees at Western States,</div>\n  </div>\n</div>\n<div class=\"card card-section bg-dark text-warning shadow\">\n  <div class=\"section card-body mb-0 my-2\">\n    <div class=\"paragraph card-text card-stanza my-5 text-center\">Another great step in Automation of your business,</div>\n    <div class=\"paragraph card-text card-stanza my-5 text-center\">and more investors.</div>\n  </div>\n</div>\n<div class=\"card card-section bg-dark text-warning shadow\">\n  <div class=\"section card-body mb-0 my-2\">\n    <div class=\"paragraph card-text card-stanza my-5 text-center\">And you're no longer stopping at the first thing you find in books,</div>\n    <div class=\"paragraph card-text card-stanza my-5 text-center\">you understand all of it.</div>\n  </div>\n</div>\n<div class=\"card card-section bg-dark text-warning shadow\">\n  <div class=\"section card-body mb-0 my-2\">\n    <div class=\"paragraph card-text card-stanza my-5 text-center\">What is made by humans,</div>\n    <div class=\"paragraph card-text card-stanza my-5 text-center\">is also All Too Human.</div>\n  </div>\n</div>\n<div class=\"mb-5 section-spacer\">&nbsp;</div>\n<div class=\"card card-section bg-dark text-warning shadow\">\n  <div class=\"section card-body mb-0 my-2\">\n    <div class=\"paragraph card-text card-stanza my-5 text-center\">And the Bullies are Gone,</div>\n    <div class=\"paragraph card-text card-stanza my-5 text-center\">and Eight Grade still sucks.</div>\n  </div>\n</div>\n<div class=\"card card-section bg-dark text-warning shadow\">\n  <div class=\"section card-body mb-0 my-2\">\n    <div class=\"paragraph card-text card-stanza my-5 text-center\">High school ... influences,</div>\n    <div class=\"paragraph card-text card-stanza my-5 text-center\">are trying to figure out where they went wrong - good luck!</div>\n  </div>\n</div>\n<div class=\"card card-section bg-dark text-warning shadow\">\n  <div class=\"section card-body mb-0 my-2\">\n    <div class=\"paragraph card-text card-stanza my-5 text-center\">College, is still a very romantic idea,</div>\n    <div class=\"paragraph card-text card-stanza my-5 text-center\">but it is best left to imagination.</div>\n  </div>\n</div>\n<div class=\"card card-section bg-dark text-warning shadow\">\n  <div class=\"section card-body mb-0 my-2\">\n    <div class=\"paragraph card-text card-stanza my-5 text-center\">Your dreams are so much more now,</div>\n    <div class=\"paragraph card-text card-stanza my-5 text-center\">only what you create can live up to them.</div>\n  </div>\n</div>\n<div class=\"card card-section bg-dark text-warning shadow\">\n  <div class=\"section card-body mb-0 my-2\">\n    <div class=\"paragraph card-text card-stanza my-5 text-center\">You are a Leader,</div>\n    <div class=\"paragraph card-text card-stanza my-5 text-center\">full of might an joy.</div>\n  </div>\n</div>\n<div class=\"mb-5 section-spacer\">&nbsp;</div>\n<div class=\"card card-section bg-dark text-warning shadow\">\n  <div class=\"section card-body mb-0 my-2\">\n    <div class=\"paragraph card-text card-stanza my-5 text-center\">And now you know,</div>\n    <div class=\"paragraph card-text card-stanza my-5 text-center\">shortcuts only lead people to their beginnings.</div>\n  </div>\n</div>\n<div class=\"card card-section bg-dark text-warning shadow\">\n  <div class=\"section card-body mb-0 my-2\">\n    <div class=\"paragraph card-text card-stanza my-5 text-center\">And the one road, the only road,</div>\n    <div class=\"paragraph card-text card-stanza my-5 text-center\">was the one of Authenticity, and Achievement.</div>\n  </div>\n</div>\n<div class=\"card card-section bg-dark text-warning shadow\">\n  <div class=\"section card-body mb-0 my-2\">\n    <div class=\"paragraph card-text card-stanza my-5 text-center\">Where we learned for real, not for grades,</div>\n    <div class=\"paragraph card-text card-stanza my-5 text-center\">where what we learned added up to create wisdom, and not a stupid GPA.</div>\n  </div>\n</div>\n<div class=\"card card-section bg-dark text-warning shadow\">\n  <div class=\"section card-body mb-0 my-2\">\n    <div class=\"paragraph card-text card-stanza my-5 text-center\">You'll be OK, so as long as you Learn onward and become Wise,</div>\n    <div class=\"paragraph card-text card-stanza my-5 text-center\">and Live in Authentic Harmony with Yourself.</div>\n  </div>\n</div>\n<div class=\"card card-section bg-dark text-warning shadow\">\n  <div class=\"section card-body mb-0 my-2\">\n    <div class=\"paragraph card-text card-stanza my-5 text-center\">This is how you become an Adult,</div>\n    <div class=\"paragraph card-text card-stanza my-5 text-center\">that was the one thing that all others were missing.</div>\n  </div>\n</div>\n<div class=\"card card-section bg-dark text-warning shadow\">\n  <div class=\"section card-body mb-0 my-2\">\n    <div class=\"paragraph card-text card-stanza my-5 text-center\">It's what made them pretend and simulate,</div>\n    <div class=\"paragraph card-text card-stanza my-5 text-center\">but, growing up can't be faked.</div>\n  </div>\n</div>\n<div class=\"card card-section bg-dark text-warning shadow\">\n  <div class=\"section card-body mb-0 my-2\">\n    <div class=\"paragraph card-text card-stanza my-5 text-center\">Growing up has to be written by the choices you make,</div>\n    <div class=\"paragraph card-text card-stanza my-5 text-center\">on the surface, that is your lifetime.</div>\n  </div>\n</div>\n<div class=\"card card-section bg-dark text-warning shadow\">\n  <div class=\"section card-body mb-0 my-2\">\n    <div class=\"paragraph card-text card-stanza my-5 text-center\">The dreams you always dream, will come true,</div>\n    <div class=\"paragraph card-text card-stanza my-5 text-center\">but not in your childhood, childhood is for learning.</div>\n  </div>\n</div>\n<div class=\"card card-section bg-dark text-warning shadow\">\n  <div class=\"section card-body mb-0 my-2\">\n    <div class=\"paragraph card-text card-stanza my-5 text-center\">Live in Harmony with yourself,</div>\n    <div class=\"paragraph card-text card-stanza my-5 text-center\">and live in harmony with the Universe.</div>\n  </div>\n</div>\n<div class=\"card card-section bg-dark text-warning shadow\">\n  <div class=\"section card-body mb-0 my-2\">\n    <div class=\"paragraph card-text card-stanza my-5 text-center\">Growing up is really special,</div>\n    <div class=\"paragraph card-text card-stanza my-5 text-center\">it is really important for our health.</div>\n  </div>\n</div>\n<div class=\"card card-section bg-dark text-warning shadow\">\n  <div class=\"section card-body mb-0 my-2\">\n    <div class=\"paragraph card-text card-stanza my-5 text-center\">It is a deeply internal process,</div>\n    <div class=\"paragraph card-text card-stanza my-5 text-center\">and there are no shortcuts to growing up.</div>\n  </div>\n</div>\n<div class=\"card card-section bg-dark text-warning shadow\">\n  <div class=\"section card-body mb-0 my-2\">\n    <div class=\"paragraph card-text card-stanza my-5 text-center\">It is meant to be,</div>\n    <div class=\"paragraph card-text card-stanza my-5 text-center\">Beautiful.</div>\n  </div>\n</div>\n<div class=\"card card-section bg-dark text-warning shadow\">\n  <div class=\"section card-body mb-0 my-2\">\n    <div class=\"paragraph card-text card-stanza my-5 text-center\">[1]: <a href=\"https://www.youtube.com/results?search_query=content+management\">https://www.youtube.com/results?search_query=content+management</a></div>\n    <div class=\"paragraph card-text card-stanza my-5 text-center\">[2]: <a href=\"https://www.youtube.com/results?search_query=stripe+wordpress\">https://www.youtube.com/results?search_query=stripe+wordpress</a></div>\n  </div>\n</div>",
  "print": "<div class=\"section avoid-break-inside\" style=\"padding-bottom: 2rem;\">\n  <div class=\"paragraph\">Well, from the first moment on,</div>\n  <div class=\"paragraph\">we are asked if we should live in harmony.</div>\n</div>\n<div class=\"section avoid-break-inside\" style=\"padding-bottom: 2rem;\">\n  <div class=\"paragraph\">We are still very young,</div>\n  <div class=\"paragraph\">barely know of the world.</div>\n</div>\n<div class=\"section avoid-break-inside\" style=\"padding-bottom: 2rem;\">\n  <div class=\"paragraph\">And already the question of harmony comes,</div>\n  <div class=\"paragraph\">and in harmony we learn, and thrive.</div>\n</div>\n<div class=\"section avoid-break-inside\" style=\"padding-bottom: 2rem;\">\n  <div class=\"paragraph\">Away from it, we'll be interrupted,</div>\n  <div class=\"paragraph\">and feel lost in the void.</div>\n</div>\n<div class=\"section avoid-break-inside\" style=\"padding-bottom: 2rem;\">\n  <div class=\"paragraph\">It is a simple choice,</div>\n  <div class=\"paragraph\">but out minds are not ready to make it.</div>\n</div>\n<div class=\"section avoid-break-inside\" style=\"padding-bottom: 2rem;\">\n  <div class=\"paragraph\">Often we forget.</div>\n</div>\n<div class=\"section avoid-break-inside\" style=\"padding-bottom: 2rem;\">\n  <div class=\"paragraph\">We forget about our little gardens,</div>\n  <div class=\"paragraph\">and all the little walks.</div>\n</div>\n<div class=\"section avoid-break-inside\" style=\"padding-bottom: 2rem;\">\n  <div class=\"paragraph\">We forget how amazing it felt,</div>\n  <div class=\"paragraph\">to stand on the wing of a plane.</div>\n</div>\n<div class=\"section avoid-break-inside\" style=\"padding-bottom: 2rem;\">\n  <div class=\"paragraph\">We forget the taste of popcorn at the Zoo,</div>\n  <div class=\"paragraph\">or even how enormous Zoo felt.</div>\n</div>\n<div class=\"section avoid-break-inside\" style=\"padding-bottom: 2rem;\">\n  <div class=\"paragraph\">We forget pebbles at the river,</div>\n  <div class=\"paragraph\">and mischievous squires at the park.</div>\n</div>\n<div class=\"section avoid-break-inside\" style=\"padding-bottom: 2rem;\">\n  <br>\n</div>\n<div class=\"section avoid-break-inside\" style=\"padding-bottom: 2rem;\">\n  <div class=\"paragraph\">That little dog with a bark,</div>\n  <div class=\"paragraph\">that scaredy kitten always hiding in the dark.</div>\n</div>\n<div class=\"section avoid-break-inside\" style=\"padding-bottom: 2rem;\">\n  <div class=\"paragraph\">Our collection of unused keys,</div>\n  <div class=\"paragraph\">and the box of bottle caps we collected with ease.</div>\n</div>\n<div class=\"section avoid-break-inside\" style=\"padding-bottom: 2rem;\">\n  <div class=\"paragraph\">We forgot our Lego and the old bike,</div>\n  <div class=\"paragraph\">with that seat that we used to really like.</div>\n</div>\n<div class=\"section avoid-break-inside\" style=\"padding-bottom: 2rem;\">\n  <div class=\"paragraph\">We don't remember the Palaces and Castles,</div>\n  <div class=\"paragraph\">that we used to love, and those swords, that fit us like a glove.</div>\n</div>\n<div class=\"section avoid-break-inside\" style=\"padding-bottom: 2rem;\">\n  <br>\n</div>\n<div class=\"section avoid-break-inside\" style=\"padding-bottom: 2rem;\">\n  <div class=\"paragraph\">Everybody else came around,</div>\n  <div class=\"paragraph\">acting like they know the ground.</div>\n</div>\n<div class=\"section avoid-break-inside\" style=\"padding-bottom: 2rem;\">\n  <div class=\"paragraph\">But, this was our gift from the Universe,</div>\n  <div class=\"paragraph\">an affinity for flowering gardens, and little passage ways, and all those flying planes.</div>\n</div>\n<div class=\"section avoid-break-inside\" style=\"padding-bottom: 2rem;\">\n  <div class=\"paragraph\">It was a key to unlock our mind,</div>\n  <div class=\"paragraph\">to understand the zoo, and our size in the universe, connect with pebbles at the beach.</div>\n</div>\n<div class=\"section avoid-break-inside\" style=\"padding-bottom: 2rem;\">\n  <div class=\"paragraph\">It is a pathway that fits us best,</div>\n  <div class=\"paragraph\">to love little creatures, and collect some shineys, and build with blocks, and ride far and wide.</div>\n</div>\n<div class=\"section avoid-break-inside\" style=\"padding-bottom: 2rem;\">\n  <div class=\"paragraph\">It was to remind us,</div>\n  <div class=\"paragraph\">to find our place among Great Beings, and study and pursue excellence, in all we do.</div>\n</div>\n<div class=\"section avoid-break-inside\" style=\"padding-bottom: 2rem;\">\n  <br>\n</div>\n<div class=\"section avoid-break-inside\" style=\"padding-bottom: 2rem;\">\n  <div class=\"paragraph\">Then they sent us to First Grade,</div>\n  <div class=\"paragraph\">and the weird kid peed into the Duplo, they didn't even have Lego.</div>\n</div>\n<div class=\"section avoid-break-inside\" style=\"padding-bottom: 2rem;\">\n  <div class=\"paragraph\">Then the teacher graded you down for counting pebles in your pocket,</div>\n  <div class=\"paragraph\">and did it so many times, you lost track.</div>\n</div>\n<div class=\"section avoid-break-inside\" style=\"padding-bottom: 2rem;\">\n  <br>\n</div>\n<div class=\"section avoid-break-inside\" style=\"padding-bottom: 2rem;\">\n  <div class=\"paragraph\">There was a whisper about the pebbles,</div>\n  <div class=\"paragraph\">it was Mr. Sagan - \"You are made of Star Stuff.\"</div>\n</div>\n<div class=\"section avoid-break-inside\" style=\"padding-bottom: 2rem;\">\n  <div class=\"paragraph\">And then the kids whispered...</div>\n  <div class=\"paragraph\">to push you in the mud.</div>\n</div>\n<div class=\"section avoid-break-inside\" style=\"padding-bottom: 2rem;\">\n  <br>\n</div>\n<div class=\"section avoid-break-inside\" style=\"padding-bottom: 2rem;\">\n  <div class=\"paragraph\">Push their laughter aside,</div>\n  <div class=\"paragraph\">you'll need to Learn, and learn really hard.</div>\n</div>\n<div class=\"section avoid-break-inside\" style=\"padding-bottom: 2rem;\">\n  <div class=\"paragraph\">Cause right now, you're in the mud,</div>\n  <div class=\"paragraph\">and you need to hang on.</div>\n</div>\n<div class=\"section avoid-break-inside\" style=\"padding-bottom: 2rem;\">\n  <div class=\"paragraph\">It will get worse,</div>\n  <div class=\"paragraph\">but all you have to do is rise.</div>\n</div>\n<div class=\"section avoid-break-inside\" style=\"padding-bottom: 2rem;\">\n  <div class=\"paragraph\">Each time,</div>\n  <div class=\"paragraph\">you'll rise higher.</div>\n</div>\n<div class=\"section avoid-break-inside\" style=\"padding-bottom: 2rem;\">\n  <div class=\"paragraph\">(When in trouble, call the Police it is OK for kids to call the Police, they'll love helping you, don't be scared.)</div>\n</div>\n<div class=\"section avoid-break-inside\" style=\"padding-bottom: 2rem;\">\n  <br>\n</div>\n<div class=\"section avoid-break-inside\" style=\"padding-bottom: 2rem;\">\n  <div class=\"paragraph\">Third Grade,</div>\n  <div class=\"paragraph\">Fifth Grade.</div>\n</div>\n<div class=\"section avoid-break-inside\" style=\"padding-bottom: 2rem;\">\n  <div class=\"paragraph\">Low grade,</div>\n  <div class=\"paragraph\">Uhh, but there can't be higher.</div>\n</div>\n<div class=\"section avoid-break-inside\" style=\"padding-bottom: 2rem;\">\n  <div class=\"paragraph\">Because by this time, you're getting bad grades,</div>\n  <div class=\"paragraph\">because the teacher thinks you're copying from somewhere.</div>\n</div>\n<div class=\"section avoid-break-inside\" style=\"padding-bottom: 2rem;\">\n  <div class=\"paragraph\">The bullies know,</div>\n  <div class=\"paragraph\">you did it on your own.</div>\n</div>\n<div class=\"section avoid-break-inside\" style=\"padding-bottom: 2rem;\">\n  <div class=\"paragraph\">Saw you pacing for days,</div>\n  <div class=\"paragraph\">with your first program.</div>\n</div>\n<div class=\"section avoid-break-inside\" style=\"padding-bottom: 2rem;\">\n  <div class=\"paragraph\">Keep going forward,</div>\n  <div class=\"paragraph\">don't let go - you're doing great, stay away from the hate.</div>\n</div>\n<div class=\"section avoid-break-inside\" style=\"padding-bottom: 2rem;\">\n  <br>\n</div>\n<div class=\"section avoid-break-inside\" style=\"padding-bottom: 2rem;\">\n  <div class=\"paragraph\">By the time you're out of Eight Grade,</div>\n  <div class=\"paragraph\">by rejecting crazy, and nonsense, and stupid, and lazy, you graduate above all others.</div>\n</div>\n<div class=\"section avoid-break-inside\" style=\"padding-bottom: 2rem;\">\n  <div class=\"paragraph\">Because you didn't follow,</div>\n  <div class=\"paragraph\">because you chose to study on your own, at your own pace.</div>\n</div>\n<div class=\"section avoid-break-inside\" style=\"padding-bottom: 2rem;\">\n  <div class=\"paragraph\">Because worthless grades meant nothing,</div>\n  <div class=\"paragraph\">you felt no stress.</div>\n</div>\n<div class=\"section avoid-break-inside\" style=\"padding-bottom: 2rem;\">\n  <div class=\"paragraph\">Because, you didn't follow</div>\n  <div class=\"paragraph\">nothing could hurt you.</div>\n</div>\n<div class=\"section avoid-break-inside\" style=\"padding-bottom: 2rem;\">\n  <div class=\"paragraph\">And your world is yours,</div>\n  <div class=\"paragraph\">truly-truly yours.</div>\n</div>\n<div class=\"section avoid-break-inside\" style=\"padding-bottom: 2rem;\">\n  <br>\n</div>\n<div class=\"section avoid-break-inside\" style=\"padding-bottom: 2rem;\">\n  <div class=\"paragraph\">We unravel, when we forget who we are,</div>\n  <div class=\"paragraph\">the moment we hide, or pretend, or follow.</div>\n</div>\n<div class=\"section avoid-break-inside\" style=\"padding-bottom: 2rem;\">\n  <div class=\"paragraph\">And, gosh darn it,</div>\n  <div class=\"paragraph\">it happens when we are still kids.</div>\n</div>\n<div class=\"section avoid-break-inside\" style=\"padding-bottom: 2rem;\">\n  <div class=\"paragraph\">We are completely unprepared,</div>\n  <div class=\"paragraph\">and none will help.</div>\n</div>\n<div class=\"section avoid-break-inside\" style=\"padding-bottom: 2rem;\">\n  <br>\n</div>\n<div class=\"section avoid-break-inside\" style=\"padding-bottom: 2rem;\">\n  <div class=\"paragraph\">So you! have to keep it together,</div>\n  <div class=\"paragraph\">you can't let anyone hurt your mind.</div>\n</div>\n<div class=\"section avoid-break-inside\" style=\"padding-bottom: 2rem;\">\n  <div class=\"paragraph\">In High School, the pretenders make a sudden appearance,</div>\n  <div class=\"paragraph\">never held a book in their hand.</div>\n</div>\n<div class=\"section avoid-break-inside\" style=\"padding-bottom: 2rem;\">\n  <div class=\"paragraph\">The back of Hamlet,</div>\n  <div class=\"paragraph\">all the quotes have more IQ.</div>\n</div>\n<div class=\"section avoid-break-inside\" style=\"padding-bottom: 2rem;\">\n  <div class=\"paragraph\">Let the little Caesars,</div>\n  <div class=\"paragraph\">keep the wind from the hall away.</div>\n</div>\n<div class=\"section avoid-break-inside\" style=\"padding-bottom: 2rem;\">\n  <div class=\"paragraph\">You need to pace your reading at the library,</div>\n  <div class=\"paragraph\">teach yourself focus.</div>\n</div>\n<div class=\"section avoid-break-inside\" style=\"padding-bottom: 2rem;\">\n  <div class=\"paragraph\">Don't EVER! finish the books,</div>\n  <div class=\"paragraph\">just get to the part that is valuable to you, and skip the rest.</div>\n</div>\n<div class=\"section avoid-break-inside\" style=\"padding-bottom: 2rem;\">\n  <br>\n</div>\n<div class=\"section avoid-break-inside\" style=\"padding-bottom: 2rem;\">\n  <div class=\"paragraph\">Start working on your start-up early,</div>\n  <div class=\"paragraph\">it is a study in failure.</div>\n</div>\n<div class=\"section avoid-break-inside\" style=\"padding-bottom: 2rem;\">\n  <div class=\"paragraph\">You need to create a series of CONTROLLED FAILURES,</div>\n  <div class=\"paragraph\">this is very important.</div>\n</div>\n<div class=\"section avoid-break-inside\" style=\"padding-bottom: 2rem;\">\n  <div class=\"paragraph\">Learn [content management][1],</div>\n  <div class=\"paragraph\">and figure out [billing][2]</div>\n</div>\n<div class=\"section avoid-break-inside\" style=\"padding-bottom: 2rem;\">\n  <div class=\"paragraph\">That's your surface platform,</div>\n  <div class=\"paragraph\">and think about nature of business.</div>\n</div>\n<div class=\"section avoid-break-inside\" style=\"padding-bottom: 2rem;\">\n  <div class=\"paragraph\">Never try to build things directly,</div>\n  <div class=\"paragraph\">facilitate the building of direct things for others.</div>\n</div>\n<div class=\"section avoid-break-inside\" style=\"padding-bottom: 2rem;\">\n  <div class=\"paragraph\">Help them setup,</div>\n  <div class=\"paragraph\">so that you are not burdened, and keep going.</div>\n</div>\n<div class=\"section avoid-break-inside\" style=\"padding-bottom: 2rem;\">\n  <div class=\"paragraph\">Look at the structure of start-up accelerators, or even banks,</div>\n  <div class=\"paragraph\">they take a percent, and never create what will weigh them down.</div>\n</div>\n<div class=\"section avoid-break-inside\" style=\"padding-bottom: 2rem;\">\n  <div class=\"paragraph\">Eventually, you can build your own Tesla,</div>\n  <div class=\"paragraph\">but at first, you start with services.</div>\n</div>\n<div class=\"section avoid-break-inside\" style=\"padding-bottom: 2rem;\">\n  <div class=\"paragraph\">Look at the gym,</div>\n  <div class=\"paragraph\">monthly subscription, is most stable.</div>\n</div>\n<div class=\"section avoid-break-inside\" style=\"padding-bottom: 2rem;\">\n  <div class=\"paragraph\">The lessons, are all around you.</div>\n</div>\n<div class=\"section avoid-break-inside\" style=\"padding-bottom: 2rem;\">\n  <br>\n</div>\n<div class=\"section avoid-break-inside\" style=\"padding-bottom: 2rem;\">\n  <div class=\"paragraph\">You don't need college,</div>\n  <div class=\"paragraph\">but taking college classes is very relaxing.</div>\n</div>\n<div class=\"section avoid-break-inside\" style=\"padding-bottom: 2rem;\">\n  <div class=\"paragraph\">Make sure you get a 4.0 at each class,</div>\n  <div class=\"paragraph\">be ready to repeat it.</div>\n</div>\n<div class=\"section avoid-break-inside\" style=\"padding-bottom: 2rem;\">\n  <div class=\"paragraph\">And enjoy,</div>\n  <div class=\"paragraph\">the lectures.</div>\n</div>\n<div class=\"section avoid-break-inside\" style=\"padding-bottom: 2rem;\">\n  <div class=\"paragraph\">College is just a toy,</div>\n  <div class=\"paragraph\">it looks bad on your Portfolio, so hide it.</div>\n</div>\n<div class=\"section avoid-break-inside\" style=\"padding-bottom: 2rem;\">\n  <div class=\"paragraph\">It is a very weak teaching experience,</div>\n  <div class=\"paragraph\">and people know that there there is minimal learning involved.</div>\n</div>\n<div class=\"section avoid-break-inside\" style=\"padding-bottom: 2rem;\">\n  <div class=\"paragraph\">Jumping from high school to start-ups is more impressive,</div>\n  <div class=\"paragraph\">and shows that you chose knowledge over nonsense.</div>\n</div>\n<div class=\"section avoid-break-inside\" style=\"padding-bottom: 2rem;\">\n  <div class=\"paragraph\">It shows that you chose to learn on your own,</div>\n  <div class=\"paragraph\">to take care of your own mind,</div>\n  <div class=\"paragraph\">rather than to pretend to learn for grades.</div>\n</div>\n<div class=\"section avoid-break-inside\" style=\"padding-bottom: 2rem;\">\n  <div class=\"paragraph\">Authenticity is very important in life,</div>\n  <div class=\"paragraph\">it is hard to connect with people that role play.</div>\n</div>\n<div class=\"section avoid-break-inside\" style=\"padding-bottom: 2rem;\">\n  <br>\n</div>\n<div class=\"section avoid-break-inside\" style=\"padding-bottom: 2rem;\">\n  <div class=\"paragraph\">Bonding with people that are just acting,</div>\n  <div class=\"paragraph\">is only functional for as long as they are acting.</div>\n</div>\n<div class=\"section avoid-break-inside\" style=\"padding-bottom: 2rem;\">\n  <div class=\"paragraph\">But it is never good,</div>\n  <div class=\"paragraph\">eventually they'll have a crisis, similar to a mid-life crisis.</div>\n</div>\n<div class=\"section avoid-break-inside\" style=\"padding-bottom: 2rem;\">\n  <div class=\"paragraph\">Stay Authentic,</div>\n  <div class=\"paragraph\">keep to to those who are Authentic.</div>\n</div>\n<div class=\"section avoid-break-inside\" style=\"padding-bottom: 2rem;\">\n  <div class=\"paragraph\">Be safe.</div>\n</div>\n<div class=\"section avoid-break-inside\" style=\"padding-bottom: 2rem;\">\n  <br>\n</div>\n<div class=\"section avoid-break-inside\" style=\"padding-bottom: 2rem;\">\n  <div class=\"paragraph\">When it feels like everyone else is having an amazing life,</div>\n  <div class=\"paragraph\">and you are stuck.</div>\n</div>\n<div class=\"section avoid-break-inside\" style=\"padding-bottom: 2rem;\">\n  <div class=\"paragraph\">Umm... that not true</div>\n</div>\n<div class=\"section avoid-break-inside\" style=\"padding-bottom: 2rem;\">\n  <div class=\"paragraph\">But it is also not healthy to think this way about yourself,</div>\n  <div class=\"paragraph\">you are not beneath the party goers, they don't have what you have in your mind.</div>\n</div>\n<div class=\"section avoid-break-inside\" style=\"padding-bottom: 2rem;\">\n  <br>\n</div>\n<div class=\"section avoid-break-inside\" style=\"padding-bottom: 2rem;\">\n  <div class=\"paragraph\">But, that's far enough,</div>\n  <div class=\"paragraph\">time to get some rest.</div>\n</div>\n<div class=\"section avoid-break-inside\" style=\"padding-bottom: 2rem;\">\n  <br>\n</div>\n<div class=\"section avoid-break-inside\" style=\"padding-bottom: 2rem;\">\n  <div class=\"paragraph\">This is where it gets interesting,</div>\n  <div class=\"paragraph\">you have primed your mind for Business.</div>\n</div>\n<div class=\"section avoid-break-inside\" style=\"padding-bottom: 2rem;\">\n  <div class=\"paragraph\">That is a fine first step,</div>\n  <div class=\"paragraph\">now you need to get ready for the real graduation.</div>\n</div>\n<div class=\"section avoid-break-inside\" style=\"padding-bottom: 2rem;\">\n  <div class=\"paragraph\">You need to section hike the equivalent of the Appalachian Trail,</div>\n  <div class=\"paragraph\">and measure your jogging a hundred miles at a time.</div>\n</div>\n<div class=\"section avoid-break-inside\" style=\"padding-bottom: 2rem;\">\n  <div class=\"paragraph\">Section jogging, the Western States 100.</div>\n</div>\n<div class=\"section avoid-break-inside\" style=\"padding-bottom: 2rem;\">\n  <div class=\"paragraph\">Mind and Body, for the rest of your life.</div>\n</div>\n<div class=\"section avoid-break-inside\" style=\"padding-bottom: 2rem;\">\n  <div class=\"paragraph\">You must take good care of both.</div>\n</div>\n<div class=\"section avoid-break-inside\" style=\"padding-bottom: 2rem;\">\n  <br>\n</div>\n<div class=\"section avoid-break-inside\" style=\"padding-bottom: 2rem;\">\n  <div class=\"paragraph\">At mile fifty, halfway through a run,</div>\n  <div class=\"paragraph\">as you piece together your blurry thoughts of your next business.</div>\n</div>\n<div class=\"section avoid-break-inside\" style=\"padding-bottom: 2rem;\">\n  <div class=\"paragraph\">Take some time to understand what it is that College Grads have,</div>\n  <div class=\"paragraph\">those are very brittle relationships, and inflexible careers.</div>\n</div>\n<div class=\"section avoid-break-inside\" style=\"padding-bottom: 2rem;\">\n  <div class=\"paragraph\">We all feel the promise, but we can't fake it,</div>\n  <div class=\"paragraph\">it would be the opposite, and certainly not worthy of you, my Friends.</div>\n</div>\n<div class=\"section avoid-break-inside\" style=\"padding-bottom: 2rem;\">\n  <div class=\"paragraph\">You can only find your meaning in Authenticity,</div>\n  <div class=\"paragraph\">shortcuts will only take you back to the beginning.</div>\n</div>\n<div class=\"section avoid-break-inside\" style=\"padding-bottom: 2rem;\">\n  <div class=\"paragraph\">To live among the Extraordinary,</div>\n  <div class=\"paragraph\">you must become Extraordinary yourself.</div>\n</div>\n<div class=\"section avoid-break-inside\" style=\"padding-bottom: 2rem;\">\n  <br>\n</div>\n<div class=\"section avoid-break-inside\" style=\"padding-bottom: 2rem;\">\n  <div class=\"paragraph\">The gateway to Meaning of Life,</div>\n  <div class=\"paragraph\">is in that tiny moment when you think to your self:</div>\n</div>\n<div class=\"section avoid-break-inside\" style=\"padding-bottom: 2rem;\">\n  <div class=\"paragraph\">\"I am not going to jog tonight, I need rest.\"</div>\n</div>\n<div class=\"section avoid-break-inside\" style=\"padding-bottom: 2rem;\">\n  <div class=\"paragraph\">Right there in that dot,</div>\n  <div class=\"paragraph\">is the keyhole,</div>\n  <div class=\"paragraph\">to the key that you are,</div>\n  <div class=\"paragraph\">to the gateway that you need to open.</div>\n</div>\n<div class=\"section avoid-break-inside\" style=\"padding-bottom: 2rem;\">\n  <div class=\"paragraph\">Life is not a simulation,</div>\n  <div class=\"paragraph\">there are no days off,</div>\n  <div class=\"paragraph\">life is quite a challenge,</div>\n  <div class=\"paragraph\">and demands that each moment builds on the authenticity of the previous.</div>\n</div>\n<div class=\"section avoid-break-inside\" style=\"padding-bottom: 2rem;\">\n  <br>\n</div>\n<div class=\"section avoid-break-inside\" style=\"padding-bottom: 2rem;\">\n  <div class=\"paragraph\">Open the dot, how can you yearn for Authenticity and Companionship,</div>\n  <div class=\"paragraph\">and cancel, and fall short, and not enough, and rest some more.</div>\n</div>\n<div class=\"section avoid-break-inside\" style=\"padding-bottom: 2rem;\">\n  <div class=\"paragraph\">The gateway between Ordinary and Extraordinary,</div>\n  <div class=\"paragraph\">is in accepting that we haven't got a choice to make.</div>\n</div>\n<div class=\"section avoid-break-inside\" style=\"padding-bottom: 2rem;\">\n  <div class=\"paragraph\">But shoes... to put on,</div>\n  <div class=\"paragraph\">your Mind and Body must grow in harmony.</div>\n</div>\n<div class=\"section avoid-break-inside\" style=\"padding-bottom: 2rem;\">\n  <div class=\"paragraph\">You must not let go of the Harmony,</div>\n  <div class=\"paragraph\">of your Magnificent Existence.</div>\n</div>\n<div class=\"section avoid-break-inside\" style=\"padding-bottom: 2rem;\">\n  <div class=\"paragraph\">Each small success, by subtle analogy,</div>\n  <div class=\"paragraph\">pushes you forward, to your next step.</div>\n</div>\n<div class=\"section avoid-break-inside\" style=\"padding-bottom: 2rem;\">\n  <br>\n</div>\n<div class=\"section avoid-break-inside\" style=\"padding-bottom: 2rem;\">\n  <div class=\"paragraph\">Eventually your tightly controlled business failures,</div>\n  <div class=\"paragraph\">will fail, they will, fail to fail.</div>\n</div>\n<div class=\"section avoid-break-inside\" style=\"padding-bottom: 2rem;\">\n  <div class=\"paragraph\">Your mind too,</div>\n  <div class=\"paragraph\">it won't perceive the easy choice as an option.</div>\n</div>\n<div class=\"section avoid-break-inside\" style=\"padding-bottom: 2rem;\">\n  <div class=\"paragraph\">All- will proceed,</div>\n  <div class=\"paragraph\">in harmony.</div>\n</div>\n<div class=\"section avoid-break-inside\" style=\"padding-bottom: 2rem;\">\n  <br>\n</div>\n<div class=\"section avoid-break-inside\" style=\"padding-bottom: 2rem;\">\n  <div class=\"paragraph\">Labored breathing,</div>\n  <div class=\"paragraph\">by the Pine Trees at Western States,</div>\n</div>\n<div class=\"section avoid-break-inside\" style=\"padding-bottom: 2rem;\">\n  <div class=\"paragraph\">Another great step in Automation of your business,</div>\n  <div class=\"paragraph\">and more investors.</div>\n</div>\n<div class=\"section avoid-break-inside\" style=\"padding-bottom: 2rem;\">\n  <div class=\"paragraph\">And you're no longer stopping at the first thing you find in books,</div>\n  <div class=\"paragraph\">you understand all of it.</div>\n</div>\n<div class=\"section avoid-break-inside\" style=\"padding-bottom: 2rem;\">\n  <div class=\"paragraph\">What is made by humans,</div>\n  <div class=\"paragraph\">is also All Too Human.</div>\n</div>\n<div class=\"section avoid-break-inside\" style=\"padding-bottom: 2rem;\">\n  <br>\n</div>\n<div class=\"section avoid-break-inside\" style=\"padding-bottom: 2rem;\">\n  <div class=\"paragraph\">And the Bullies are Gone,</div>\n  <div class=\"paragraph\">and Eight Grade still sucks.</div>\n</div>\n<div class=\"section avoid-break-inside\" style=\"padding-bottom: 2rem;\">\n  <div class=\"paragraph\">High school ... influences,</div>\n  <div class=\"paragraph\">are trying to figure out where they went wrong - good luck!</div>\n</div>\n<div class=\"section avoid-break-inside\" style=\"padding-bottom: 2rem;\">\n  <div class=\"paragraph\">College, is still a very romantic idea,</div>\n  <div class=\"paragraph\">but it is best left to imagination.</div>\n</div>\n<div class=\"section avoid-break-inside\" style=\"padding-bottom: 2rem;\">\n  <div class=\"paragraph\">Your dreams are so much more now,</div>\n  <div class=\"paragraph\">only what you create can live up to them.</div>\n</div>\n<div class=\"section avoid-break-inside\" style=\"padding-bottom: 2rem;\">\n  <div class=\"paragraph\">You are a Leader,</div>\n  <div class=\"paragraph\">full of might an joy.</div>\n</div>\n<div class=\"section avoid-break-inside\" style=\"padding-bottom: 2rem;\">\n  <br>\n</div>\n<div class=\"section avoid-break-inside\" style=\"padding-bottom: 2rem;\">\n  <div class=\"paragraph\">And now you know,</div>\n  <div class=\"paragraph\">shortcuts only lead people to their beginnings.</div>\n</div>\n<div class=\"section avoid-break-inside\" style=\"padding-bottom: 2rem;\">\n  <div class=\"paragraph\">And the one road, the only road,</div>\n  <div class=\"paragraph\">was the one of Authenticity, and Achievement.</div>\n</div>\n<div class=\"section avoid-break-inside\" style=\"padding-bottom: 2rem;\">\n  <div class=\"paragraph\">Where we learned for real, not for grades,</div>\n  <div class=\"paragraph\">where what we learned added up to create wisdom, and not a stupid GPA.</div>\n</div>\n<div class=\"section avoid-break-inside\" style=\"padding-bottom: 2rem;\">\n  <div class=\"paragraph\">You'll be OK, so as long as you Learn onward and become Wise,</div>\n  <div class=\"paragraph\">and Live in Authentic Harmony with Yourself.</div>\n</div>\n<div class=\"section avoid-break-inside\" style=\"padding-bottom: 2rem;\">\n  <div class=\"paragraph\">This is how you become an Adult,</div>\n  <div class=\"paragraph\">that was the one thing that all others were missing.</div>\n</div>\n<div class=\"section avoid-break-inside\" style=\"padding-bottom: 2rem;\">\n  <div class=\"paragraph\">It's what made them pretend and simulate,</div>\n  <div class=\"paragraph\">but, growing up can't be faked.</div>\n</div>\n<div class=\"section avoid-break-inside\" style=\"padding-bottom: 2rem;\">\n  <div class=\"paragraph\">Growing up has to be written by the choices you make,</div>\n  <div class=\"paragraph\">on the surface, that is your lifetime.</div>\n</div>\n<div class=\"section avoid-break-inside\" style=\"padding-bottom: 2rem;\">\n  <div class=\"paragraph\">The dreams you always dream, will come true,</div>\n  <div class=\"paragraph\">but not in your childhood, childhood is for learning.</div>\n</div>\n<div class=\"section avoid-break-inside\" style=\"padding-bottom: 2rem;\">\n  <div class=\"paragraph\">Live in Harmony with yourself,</div>\n  <div class=\"paragraph\">and live in harmony with the Universe.</div>\n</div>\n<div class=\"section avoid-break-inside\" style=\"padding-bottom: 2rem;\">\n  <div class=\"paragraph\">Growing up is really special,</div>\n  <div class=\"paragraph\">it is really important for our health.</div>\n</div>\n<div class=\"section avoid-break-inside\" style=\"padding-bottom: 2rem;\">\n  <div class=\"paragraph\">It is a deeply internal process,</div>\n  <div class=\"paragraph\">and there are no shortcuts to growing up.</div>\n</div>\n<div class=\"section avoid-break-inside\" style=\"padding-bottom: 2rem;\">\n  <div class=\"paragraph\">It is meant to be,</div>\n  <div class=\"paragraph\">Beautiful.</div>\n</div>\n<div class=\"section avoid-break-inside\" style=\"padding-bottom: 2rem;\">\n  <div class=\"paragraph\">[1]: <span>https://www.youtube.com/results?search_query=content+management<sup>[1]</sup></span></div>\n  <div class=\"paragraph\">[2]: <span>https://www.youtube.com/results?search_query=stripe+wordpress<sup>[2]</sup></span></div>\n</div>\n<div class=\"break-after\">&nbsp;</div>\n<div>\n  <div class=\"section\" style=\"padding-bottom: 1rem;\">References</div>\n  <div>[1]: https://www.youtube.com/results?search_query=content+management</div>\n  <div>[2]: https://www.youtube.com/results?search_query=stripe+wordpress</div>\n</div>",
  "text": "Well, from the first moment on,\nwe are asked if we should live in harmony.\nWe are still very young,\nbarely know of the world.\nAnd already the question of harmony comes,\nand in harmony we learn, and thrive.\nAway from it, we'll be interrupted,\nand feel lost in the void.\nIt is a simple choice,\nbut out minds are not ready to make it.\nOften we forget.\nWe forget about our little gardens,\nand all the little walks.\nWe forget how amazing it felt,\nto stand on the wing of a plane.\nWe forget the taste of popcorn at the Zoo,\nor even how enormous Zoo felt.\nWe forget pebbles at the river,\nand mischievous squires at the park.\n\nThat little dog with a bark,\nthat scaredy kitten always hiding in the dark.\nOur collection of unused keys,\nand the box of bottle caps we collected with ease.\nWe forgot our Lego and the old bike,\nwith that seat that we used to really like.\nWe don't remember the Palaces and Castles,\nthat we used to love, and those swords, that fit us like a glove.\n\nEverybody else came around,\nacting like they know the ground.\nBut, this was our gift from the Universe,\nan affinity for flowering gardens, and little passage ways, and all those flying planes.\nIt was a key to unlock our mind,\nto understand the zoo, and our size in the universe, connect with pebbles at the beach.\nIt is a pathway that fits us best,\nto love little creatures, and collect some shineys, and build with blocks, and ride far and wide.\nIt was to remind us,\nto find our place among Great Beings, and study and pursue excellence, in all we do.\n\nThen they sent us to First Grade,\nand the weird kid peed into the Duplo, they didn't even have Lego.\nThen the teacher graded you down for counting pebles in your pocket,\nand did it so many times, you lost track.\n\nThere was a whisper about the pebbles,\nit was Mr. Sagan - \"You are made of Star Stuff.\"\nAnd then the kids whispered...\nto push you in the mud.\n\nPush their laughter aside,\nyou'll need to Learn, and learn really hard.\nCause right now, you're in the mud,\nand you need to hang on.\nIt will get worse,\nbut all you have to do is rise.\nEach time,\nyou'll rise higher.\n(When in trouble, call the Police it is OK for kids to call the Police, they'll love helping you, don't be scared.)\n\nThird Grade,\nFifth Grade.\nLow grade,\nUhh, but there can't be higher.\nBecause by this time, you're getting bad grades,\nbecause the teacher thinks you're copying from somewhere.\nThe bullies know,\nyou did it on your own.\nSaw you pacing for days,\nwith your first program.\nKeep going forward,\ndon't let go - you're doing great, stay away from the hate.\n\nBy the time you're out of Eight Grade,\nby rejecting crazy, and nonsense, and stupid, and lazy, you graduate above all others.\nBecause you didn't follow,\nbecause you chose to study on your own, at your own pace.\nBecause worthless grades meant nothing,\nyou felt no stress.\nBecause, you didn't follow\nnothing could hurt you.\nAnd your world is yours,\ntruly-truly yours.\n\nWe unravel, when we forget who we are,\nthe moment we hide, or pretend, or follow.\nAnd, gosh darn it,\nit happens when we are still kids.\nWe are completely unprepared,\nand none will help.\n\nSo you! have to keep it together,\nyou can't let anyone hurt your mind.\nIn High School, the pretenders make a sudden appearance,\nnever held a book in their hand.\nThe back of Hamlet,\nall the quotes have more IQ.\nLet the little Caesars,\nkeep the wind from the hall away.\nYou need to pace your reading at the library,\nteach yourself focus.\nDon't EVER! finish the books,\njust get to the part that is valuable to you, and skip the rest.\n\nStart working on your start-up early,\nit is a study in failure.\nYou need to create a series of CONTROLLED FAILURES,\nthis is very important.\nLearn [content management][1],\nand figure out [billing][2]\nThat's your surface platform,\nand think about nature of business.\nNever try to build things directly,\nfacilitate the building of direct things for others.\nHelp them setup,\nso that you are not burdened, and keep going.\nLook at the structure of start-up accelerators, or even banks,\nthey take a percent, and never create what will weigh them down.\nEventually, you can build your own Tesla,\nbut at first, you start with services.\nLook at the gym,\nmonthly subscription, is most stable.\nThe lessons, are all around you.\n\nYou don't need college,\nbut taking college classes is very relaxing.\nMake sure you get a 4.0 at each class,\nbe ready to repeat it.\nAnd enjoy,\nthe lectures.\nCollege is just a toy,\nit looks bad on your Portfolio, so hide it.\nIt is a very weak teaching experience,\nand people know that there there is minimal learning involved.\nJumping from high school to start-ups is more impressive,\nand shows that you chose knowledge over nonsense.\nIt shows that you chose to learn on your own,\nto take care of your own mind,\nrather than to pretend to learn for grades.\nAuthenticity is very important in life,\nit is hard to connect with people that role play.\n\nBonding with people that are just acting,\nis only functional for as long as they are acting.\nBut it is never good,\neventually they'll have a crisis, similar to a mid-life crisis.\nStay Authentic,\nkeep to to those who are Authentic.\nBe safe.\n\nWhen it feels like everyone else is having an amazing life,\nand you are stuck.\nUmm... that not true\nBut it is also not healthy to think this way about yourself,\nyou are not beneath the party goers, they don't have what you have in your mind.\n\nBut, that's far enough,\ntime to get some rest.\n\nThis is where it gets interesting,\nyou have primed your mind for Business.\nThat is a fine first step,\nnow you need to get ready for the real graduation.\nYou need to section hike the equivalent of the Appalachian Trail,\nand measure your jogging a hundred miles at a time.\nSection jogging, the Western States 100.\nMind and Body, for the rest of your life.\nYou must take good care of both.\n\nAt mile fifty, halfway through a run,\nas you piece together your blurry thoughts of your next business.\nTake some time to understand what it is that College Grads have,\nthose are very brittle relationships, and inflexible careers.\nWe all feel the promise, but we can't fake it,\nit would be the opposite, and certainly not worthy of you, my Friends.\nYou can only find your meaning in Authenticity,\nshortcuts will only take you back to the beginning.\nTo live among the Extraordinary,\nyou must become Extraordinary yourself.\n\nThe gateway to Meaning of Life,\nis in that tiny moment when you think to your self:\n\"I am not going to jog tonight, I need rest.\"\nRight there in that dot,\nis the keyhole,\nto the key that you are,\nto the gateway that you need to open.\nLife is not a simulation,\nthere are no days off,\nlife is quite a challenge,\nand demands that each moment builds on the authenticity of the previous.\n\nOpen the dot, how can you yearn for Authenticity and Companionship,\nand cancel, and fall short, and not enough, and rest some more.\nThe gateway between Ordinary and Extraordinary,\nis in accepting that we haven't got a choice to make.\nBut shoes... to put on,\nyour Mind and Body must grow in harmony.\nYou must not let go of the Harmony,\nof your Magnificent Existence.\nEach small success, by subtle analogy,\npushes you forward, to your next step.\n\nEventually your tightly controlled business failures,\nwill fail, they will, fail to fail.\nYour mind too,\nit won't perceive the easy choice as an option.\nAll- will proceed,\nin harmony.\n\nLabored breathing,\nby the Pine Trees at Western States,\nAnother great step in Automation of your business,\nand more investors.\nAnd you're no longer stopping at the first thing you find in books,\nyou understand all of it.\nWhat is made by humans,\nis also All Too Human.\n\nAnd the Bullies are Gone,\nand Eight Grade still sucks.\nHigh school ... influences,\nare trying to figure out where they went wrong - good luck!\nCollege, is still a very romantic idea,\nbut it is best left to imagination.\nYour dreams are so much more now,\nonly what you create can live up to them.\nYou are a Leader,\nfull of might an joy.\n\nAnd now you know,\nshortcuts only lead people to their beginnings.\nAnd the one road, the only road,\nwas the one of Authenticity, and Achievement.\nWhere we learned for real, not for grades,\nwhere what we learned added up to create wisdom, and not a stupid GPA.\nYou'll be OK, so as long as you Learn onward and become Wise,\nand Live in Authentic Harmony with Yourself.\nThis is how you become an Adult,\nthat was the one thing that all others were missing.\nIt's what made them pretend and simulate,\nbut, growing up can't be faked.\nGrowing up has to be written by the choices you make,\non the surface, that is your lifetime.\nThe dreams you always dream, will come true,\nbut not in your childhood, childhood is for learning.\nLive in Harmony with yourself,\nand live in harmony with the Universe.\nGrowing up is really special,\nit is really important for our health.\nIt is a deeply internal process,\nand there are no shortcuts to growing up.\nIt is meant to be,\nBeautiful.\n[1]: https://www.youtube.com/results?search_query=content+management[1]\n[2]: https://www.youtube.com/results?search_query=stripe+wordpress[2]\n \nReferences\n[1]: https://www.youtube.com/results?search_query=content+management\n[2]: https://www.youtube.com/results?search_query=stripe+wordpress",
  "images": [],
  "links": [
    {
      "title": "https://www.youtube.com/results?search_query=content+management",
      "url": "https://www.youtube.com/results?search_query=content+management",
      "hostname": "www.youtube.com"
    },
    {
      "title": "https://www.youtube.com/results?search_query=stripe+wordpress",
      "url": "https://www.youtube.com/results?search_query=stripe+wordpress",
      "hostname": "www.youtube.com"
    }
  ]
}