{
  "id": "furkies-purrkies-poetry-0481",
  "title": "There Are No Ordinary People",
  "date": "2021-06-25T01:34:19.501Z",
  "image": "poetry-0481-illustration.jpg",
  "artwork": "https://unsplash.com/photos/jxd_BtnzQBQ",
  "audio": "poetry-0481.mp3",
  "guid": "21f9124f-32d4-4893-8deb-5dc6cfdec6d1"
}
