{
  "id": "furkies-purrkies-poetry-0830",
  "title": "Unlocking The Future Of The World; Or, Stalemate Prevention",
  "date": "2022-06-08T21:27:26.259Z",
  "image": "poetry-0830-illustration.jpg",
  "artwork": "https://unsplash.com/photos/3Y76QujaIDg",
  "audio": "poetry-0830.mp3",
  "guid": "c5c2850e-6d6d-4735-8691-a1771dc93ec6"
}
