{
  "name": "furkies-purrkies-poetry-0141",
  "title": "In The Eyes Of The Future Generations",
  "date": "2020-07-19T03:12:28.354Z",
  "image": "poetry-0141-illustration.jpg",
  "audio": "poetry-0141.mp3",
  "id": "furkies-purrkies-poetry-0141",
  "attachments": {},
  "guid": "71196e8f-9f25-401a-aed2-d79ba745ebff",
  "html": "<div class=\"section\">\n  <p>We are not Island Universes scattered to no end in some void,</p>\n  <p>we are a part of a growing civilization with a past and a future.</p>\n</div>\n<div class=\"section\">\n  <p>And we might have become confused about the Scope of Our Existence,</p>\n  <p>we stand divided by borders and committed to repeating history&apos;s mistakes.</p>\n</div>\n<div class=\"section\">\n  <p>It is unwise to pretend to be able to handle a great responsibility,</p>\n  <p>only desperation, fractures, and exploitation by other desperate pretenders can follow.</p>\n</div>\n<div class=\"section\">\n  <p>Those who are granted authority are often not wise enough to handle it,</p>\n  <p>and in their mediocrity they commit what in larger scope translates to real Crimes Against Humanity.</p>\n</div>\n<div class=\"section\">\n  <p>There cannot be wisdom without understanding and inheriting from past generations,</p>\n  <p>the transfer of knowledge occurs by means of Understanding Books.</p>\n</div>\n<div class=\"section\">\n  <p>And there cannot be understanding without Authenticity,</p>\n  <p>in haste of chasing a career there can only be memorization and misunderstanding.</p>\n</div>\n<div class=\"section\">\n  <p>We must keep in mind; that what the future generations do not perceive as clear progress,</p>\n  <p>will be seen as the continuation of dark ages with authorities on the wrong side of history.</p>\n</div>\n<div class=\"section\">\n  <p>The World United, is not a fairy-tale, nor should it be a mere dream for us,</p>\n  <p>but a Gift of Peace for The Future Generations, so that they may grow in Dignity, Health, and Wisdom.</p>\n</div>\n<div class=\"section\">\n  <p>We are neither disconnected from the future generations, nor the past generations,</p>\n  <p>we are a stepping stone in the development of The Human Kind.</p>\n</div>\n<div class=\"section\">\n  <p>And we should recognize this Great Honor and Reward,</p>\n  <p>and understand that the larger context is found in helping to build a better world for future generations.</p>\n</div>\n<div class=\"section\">\n  <p>All our decisions, across all levels and authorities,</p>\n  <p>Police, Attorneys and Judges, Parents, Teachers and Principals, Mayors, Governors, Prime Misters and Presidents, and everybody else...</p>\n</div>\n<div class=\"section\">\n  <p>Must be mindful of future generations, of a growing world, of making lasting and meaningful contributions to the entire human kind,</p>\n  <p>a World that will eventually become united and free of borders.</p>\n</div>\n<div class=\"section\">\n  <p>A world with future generations that will look back at us,</p>\n  <p>right now, right here, with questions that we must present answers to.</p>\n</div>\n<div class=\"section\">\n  <p>We are getting stuck in circles,</p>\n  <p>because people are forgetting history&apos;s lessons.</p>\n</div>\n<div class=\"section\">\n  <p>Because we are not thinking on a large enough scale,</p>\n  <p>we end up building more prisons rather than ending poverty with meaningful prevention programs.</p>\n</div>\n<div class=\"section\">\n  <p>Endless cycles of heartless poverty that freeze the best of us,</p>\n  <p>poverty that wouldn&apos;t even be a feature of modern society had we in our wisdom recognized it for what it is.</p>\n</div>\n<div class=\"section\">\n  <p>Poverty denies people food and well being,</p>\n  <p>causes stress and great harm to mind and body.</p>\n</div>\n<div class=\"section\">\n  <p>Love above Law, before we allow the practice of law,</p>\n  <p>we must end the cycles of poverty.</p>\n</div>\n<div class=\"section\">\n  <p>Money must not be used to limit people,</p>\n  <p>it is meant to help.</p>\n</div>\n<div class=\"section\">\n  <p>And how can a culture be to fail to see, how a young person allowed to build a business without the threat of homelessness and starvation,</p>\n  <p>will contribute back to the city and everyone&apos;s well being.</p>\n</div>\n<div class=\"section\">\n  <p>What is so hard about seeing that rather than sending non-violent criminals to prison,</p>\n  <p>we can prevent their biggest mistakes by putting an end to their worries of sleeping hungry on the street.</p>\n</div>\n<div class=\"section\">\n  <hr>\n</div>\n<div class=\"section\">\n  <p>Any time, we fail to keep to reality,</p>\n  <p>be it sending a 15 year old lady to prison, or denying science, or tolerating arrests by obscured or unidentified agencies, or abuses of power or discretion.</p>\n</div>\n<div class=\"section\">\n  <p>We create fractures and distrust,</p>\n  <p>blindly defacing and destroying work of many much wiser great beings, who gave their best trusting that we can carry on, in wisdom.</p>\n</div>\n<div class=\"section\">\n  <p>We must not move against the grain of reality,</p>\n  <p>any and all divergence will only create a cascade of fractures that will demand constant attention</p>\n  <p>and result in nothing more than systems that merely stand to support themselves and as an affront to justice and future generations.</p>\n</div>\n<div class=\"section\">\n  <p>Where there was once a solution as clear as helping children to inherit the wisdom of their elders,</p>\n  <p>we now see the emergence of a failed and impotent educational system with a mass incarceration backed.</p>\n</div>\n<div class=\"section\">\n  <p>Wisdom and inheritance of knowledge cannot be replaced by a &quot;fake it until you make it&quot; trickery,</p>\n  <p>the work of great beings must not be stained by people who fail to see their vision.</p>\n</div>\n<div class=\"section\">\n  <hr>\n</div>\n<div class=\"section\">\n  <p>Once again, the world grows a generation at a time,</p>\n  <p>the education of the teenagers from 20 years ago is currently influencing the state of the world.</p>\n</div>\n<div class=\"section\">\n  <p>Likewise, how we treat out children today,</p>\n  <p>will have a monumental impact on the world 20 years from now.</p>\n</div>\n<div class=\"section\">\n  <hr>\n</div>\n<div class=\"section\">\n  <p>Let us honor our children and all the future generations by encouraging them to books,</p>\n  <p>by reminding them of the Great Power of Thinking Beings, of Philosophers and Lovers of Wisdom.</p>\n</div>\n<div class=\"section\">\n  <p>By reminding them that their Pursuit of Excellence,</p>\n  <p>can only make the world a better place for us all, and even those that are yet to come.</p>\n</div>\n<div class=\"section\">\n  <p>Let us remind them that Books (and now Audio Books) serve as a wonderful source of our wisdom,</p>\n  <p>especially when read in a sequence that fits them best, and understood at thier own pace.</p>\n</div>\n<div class=\"section\">\n  <hr>\n</div>\n<div class=\"section\">\n  <p>Let us remind each other that we must reject short thinking and shortest paths,</p>\n  <p>that do not help the world grow and keep us divided.</p>\n</div>\n<div class=\"section\">\n  <p>Let us break out of that selfish endless loop of repeating mistakes of past generations,</p>\n  <p>by working towards a better world a more united world where we recognize each other as One Family.</p>\n</div>\n<div class=\"section\">\n  <hr>\n</div>\n<div class=\"section\">\n  <p>And let us remember that the great and wise beings of past generations,</p>\n  <p>demand that we honor hard won triumphs and do not repeat history&apos;s mistakes.</p>\n</div>\n<div class=\"section\">\n  <p>The very nature of that demand requires that once we take to wisdom,</p>\n  <p>we must stop following orders, and begin thinking, evaluating, and judging for ourselves.</p>\n</div>\n<div class=\"section\">\n  <p>To honor triumphs and guard against heartbreaking mistakes,</p>\n  <p>is the duty we hold to those who came before us,</p>\n  <p>and all the future generations that are yet to follow.</p>\n</div>\n<div class=\"section\">\n  <hr>\n</div>\n<div class=\"section\">\n  <p>As children we are asked to listen and follow,</p>\n  <p>as we grow we must learn to Lead and become Unbreakable.</p>\n</div>\n<div class=\"section\">\n  <p>It is not just the challenges of life that will test us,</p>\n  <p>we must also think and evaluate and reject that which is wrong.</p>\n</div>\n<div class=\"section\">\n  <hr>\n</div>\n<div class=\"section\">\n  <p>We are constantly made to listen and expected to follow,</p>\n  <p>look behind any protest, or scandal, or angry headline.</p>\n</div>\n<div class=\"section\">\n  <p>We must judge all the contradictory information for ourselves,</p>\n  <p>and make an informed decision as to whether or not majority is correct.</p>\n</div>\n<div class=\"section\">\n  <hr>\n</div>\n<div class=\"section\">\n  <p>Life will always challenge us,</p>\n  <p>and My Goodness - times are always changing.</p>\n</div>\n<div class=\"section\">\n  <p>Humanity is constantly bettering her self,</p>\n  <p>what used to be acceptable - may now, be an affront to justice.</p>\n</div>\n<div class=\"section\">\n  <p>And while there isn&apos;t enough time to comprehend all the books,</p>\n  <p>there is plenty of time to be come a Loving and Wise Compassionate Human Being,</p>\n</div>\n<div class=\"section\">\n  <p>Let us remember that we are a chain-link between the Hard Work of Past Generations,</p>\n  <p>and the United, Free from Poverty, and Peaceful Word of <strong>Future</strong> Generations.</p>\n</div>\n<div class=\"section\">\n  <p>We are One Growing Family, and that is the correct context for local, state, and federal levels, for all legal and administrative decision making,</p>\n  <p>to diverge from this reality is to get stuck in an endless loop of repeating history&apos;s mistakes, the very thing that the past generations are asking us not to do.</p>\n</div>",
  "bootstrap": "<div class=\"card card-section bg-dark text-warning shadow\">\n  <div class=\"section card-body mb-0 my-2\">\n    <div class=\"paragraph card-text card-stanza my-5 text-center\">We are not Island Universes scattered to no end in some void,</div>\n    <div class=\"paragraph card-text card-stanza my-5 text-center\">we are a part of a growing civilization with a past and a future.</div>\n  </div>\n</div>\n<div class=\"card card-section bg-dark text-warning shadow\">\n  <div class=\"section card-body mb-0 my-2\">\n    <div class=\"paragraph card-text card-stanza my-5 text-center\">And we might have become confused about the Scope of Our Existence,</div>\n    <div class=\"paragraph card-text card-stanza my-5 text-center\">we stand divided by borders and committed to repeating history's mistakes.</div>\n  </div>\n</div>\n<div class=\"card card-section bg-dark text-warning shadow\">\n  <div class=\"section card-body mb-0 my-2\">\n    <div class=\"paragraph card-text card-stanza my-5 text-center\">It is unwise to pretend to be able to handle a great responsibility,</div>\n    <div class=\"paragraph card-text card-stanza my-5 text-center\">only desperation, fractures, and exploitation by other desperate pretenders can follow.</div>\n  </div>\n</div>\n<div class=\"card card-section bg-dark text-warning shadow\">\n  <div class=\"section card-body mb-0 my-2\">\n    <div class=\"paragraph card-text card-stanza my-5 text-center\">Those who are granted authority are often not wise enough to handle it,</div>\n    <div class=\"paragraph card-text card-stanza my-5 text-center\">and in their mediocrity they commit what in larger scope translates to real Crimes Against Humanity.</div>\n  </div>\n</div>\n<div class=\"card card-section bg-dark text-warning shadow\">\n  <div class=\"section card-body mb-0 my-2\">\n    <div class=\"paragraph card-text card-stanza my-5 text-center\">There cannot be wisdom without understanding and inheriting from past generations,</div>\n    <div class=\"paragraph card-text card-stanza my-5 text-center\">the transfer of knowledge occurs by means of Understanding Books.</div>\n  </div>\n</div>\n<div class=\"card card-section bg-dark text-warning shadow\">\n  <div class=\"section card-body mb-0 my-2\">\n    <div class=\"paragraph card-text card-stanza my-5 text-center\">And there cannot be understanding without Authenticity,</div>\n    <div class=\"paragraph card-text card-stanza my-5 text-center\">in haste of chasing a career there can only be memorization and misunderstanding.</div>\n  </div>\n</div>\n<div class=\"card card-section bg-dark text-warning shadow\">\n  <div class=\"section card-body mb-0 my-2\">\n    <div class=\"paragraph card-text card-stanza my-5 text-center\">We must keep in mind; that what the future generations do not perceive as clear progress,</div>\n    <div class=\"paragraph card-text card-stanza my-5 text-center\">will be seen as the continuation of dark ages with authorities on the wrong side of history.</div>\n  </div>\n</div>\n<div class=\"card card-section bg-dark text-warning shadow\">\n  <div class=\"section card-body mb-0 my-2\">\n    <div class=\"paragraph card-text card-stanza my-5 text-center\">The World United, is not a fairy-tale, nor should it be a mere dream for us,</div>\n    <div class=\"paragraph card-text card-stanza my-5 text-center\">but a Gift of Peace for The Future Generations, so that they may grow in Dignity, Health, and Wisdom.</div>\n  </div>\n</div>\n<div class=\"card card-section bg-dark text-warning shadow\">\n  <div class=\"section card-body mb-0 my-2\">\n    <div class=\"paragraph card-text card-stanza my-5 text-center\">We are neither disconnected from the future generations, nor the past generations,</div>\n    <div class=\"paragraph card-text card-stanza my-5 text-center\">we are a stepping stone in the development of The Human Kind.</div>\n  </div>\n</div>\n<div class=\"card card-section bg-dark text-warning shadow\">\n  <div class=\"section card-body mb-0 my-2\">\n    <div class=\"paragraph card-text card-stanza my-5 text-center\">And we should recognize this Great Honor and Reward,</div>\n    <div class=\"paragraph card-text card-stanza my-5 text-center\">and understand that the larger context is found in helping to build a better world for future generations.</div>\n  </div>\n</div>\n<div class=\"card card-section bg-dark text-warning shadow\">\n  <div class=\"section card-body mb-0 my-2\">\n    <div class=\"paragraph card-text card-stanza my-5 text-center\">All our decisions, across all levels and authorities,</div>\n    <div class=\"paragraph card-text card-stanza my-5 text-center\">Police, Attorneys and Judges, Parents, Teachers and Principals, Mayors, Governors, Prime Misters and Presidents, and everybody else...</div>\n  </div>\n</div>\n<div class=\"card card-section bg-dark text-warning shadow\">\n  <div class=\"section card-body mb-0 my-2\">\n    <div class=\"paragraph card-text card-stanza my-5 text-center\">Must be mindful of future generations, of a growing world, of making lasting and meaningful contributions to the entire human kind,</div>\n    <div class=\"paragraph card-text card-stanza my-5 text-center\">a World that will eventually become united and free of borders.</div>\n  </div>\n</div>\n<div class=\"card card-section bg-dark text-warning shadow\">\n  <div class=\"section card-body mb-0 my-2\">\n    <div class=\"paragraph card-text card-stanza my-5 text-center\">A world with future generations that will look back at us,</div>\n    <div class=\"paragraph card-text card-stanza my-5 text-center\">right now, right here, with questions that we must present answers to.</div>\n  </div>\n</div>\n<div class=\"card card-section bg-dark text-warning shadow\">\n  <div class=\"section card-body mb-0 my-2\">\n    <div class=\"paragraph card-text card-stanza my-5 text-center\">We are getting stuck in circles,</div>\n    <div class=\"paragraph card-text card-stanza my-5 text-center\">because people are forgetting history's lessons.</div>\n  </div>\n</div>\n<div class=\"card card-section bg-dark text-warning shadow\">\n  <div class=\"section card-body mb-0 my-2\">\n    <div class=\"paragraph card-text card-stanza my-5 text-center\">Because we are not thinking on a large enough scale,</div>\n    <div class=\"paragraph card-text card-stanza my-5 text-center\">we end up building more prisons rather than ending poverty with meaningful prevention programs.</div>\n  </div>\n</div>\n<div class=\"card card-section bg-dark text-warning shadow\">\n  <div class=\"section card-body mb-0 my-2\">\n    <div class=\"paragraph card-text card-stanza my-5 text-center\">Endless cycles of heartless poverty that freeze the best of us,</div>\n    <div class=\"paragraph card-text card-stanza my-5 text-center\">poverty that wouldn't even be a feature of modern society had we in our wisdom recognized it for what it is.</div>\n  </div>\n</div>\n<div class=\"card card-section bg-dark text-warning shadow\">\n  <div class=\"section card-body mb-0 my-2\">\n    <div class=\"paragraph card-text card-stanza my-5 text-center\">Poverty denies people food and well being,</div>\n    <div class=\"paragraph card-text card-stanza my-5 text-center\">causes stress and great harm to mind and body.</div>\n  </div>\n</div>\n<div class=\"card card-section bg-dark text-warning shadow\">\n  <div class=\"section card-body mb-0 my-2\">\n    <div class=\"paragraph card-text card-stanza my-5 text-center\">Love above Law, before we allow the practice of law,</div>\n    <div class=\"paragraph card-text card-stanza my-5 text-center\">we must end the cycles of poverty.</div>\n  </div>\n</div>\n<div class=\"card card-section bg-dark text-warning shadow\">\n  <div class=\"section card-body mb-0 my-2\">\n    <div class=\"paragraph card-text card-stanza my-5 text-center\">Money must not be used to limit people,</div>\n    <div class=\"paragraph card-text card-stanza my-5 text-center\">it is meant to help.</div>\n  </div>\n</div>\n<div class=\"card card-section bg-dark text-warning shadow\">\n  <div class=\"section card-body mb-0 my-2\">\n    <div class=\"paragraph card-text card-stanza my-5 text-center\">And how can a culture be to fail to see, how a young person allowed to build a business without the threat of homelessness and starvation,</div>\n    <div class=\"paragraph card-text card-stanza my-5 text-center\">will contribute back to the city and everyone's well being.</div>\n  </div>\n</div>\n<div class=\"card card-section bg-dark text-warning shadow\">\n  <div class=\"section card-body mb-0 my-2\">\n    <div class=\"paragraph card-text card-stanza my-5 text-center\">What is so hard about seeing that rather than sending non-violent criminals to prison,</div>\n    <div class=\"paragraph card-text card-stanza my-5 text-center\">we can prevent their biggest mistakes by putting an end to their worries of sleeping hungry on the street.</div>\n  </div>\n</div>\n<div class=\"mb-5 section-spacer\">&nbsp;</div>\n<div class=\"card card-section bg-dark text-warning shadow\">\n  <div class=\"section card-body mb-0 my-2\">\n    <div class=\"paragraph card-text card-stanza my-5 text-center\">Any time, we fail to keep to reality,</div>\n    <div class=\"paragraph card-text card-stanza my-5 text-center\">be it sending a 15 year old lady to prison, or denying science, or tolerating arrests by obscured or unidentified agencies, or abuses of power or discretion.</div>\n  </div>\n</div>\n<div class=\"card card-section bg-dark text-warning shadow\">\n  <div class=\"section card-body mb-0 my-2\">\n    <div class=\"paragraph card-text card-stanza my-5 text-center\">We create fractures and distrust,</div>\n    <div class=\"paragraph card-text card-stanza my-5 text-center\">blindly defacing and destroying work of many much wiser great beings, who gave their best trusting that we can carry on, in wisdom.</div>\n  </div>\n</div>\n<div class=\"card card-section bg-dark text-warning shadow\">\n  <div class=\"section card-body mb-0 my-2\">\n    <div class=\"paragraph card-text card-stanza my-5 text-center\">We must not move against the grain of reality,</div>\n    <div class=\"paragraph card-text card-stanza my-5 text-center\">any and all divergence will only create a cascade of fractures that will demand constant attention</div>\n    <div class=\"paragraph card-text card-stanza my-5 text-center\">and result in nothing more than systems that merely stand to support themselves and as an affront to justice and future generations.</div>\n  </div>\n</div>\n<div class=\"card card-section bg-dark text-warning shadow\">\n  <div class=\"section card-body mb-0 my-2\">\n    <div class=\"paragraph card-text card-stanza my-5 text-center\">Where there was once a solution as clear as helping children to inherit the wisdom of their elders,</div>\n    <div class=\"paragraph card-text card-stanza my-5 text-center\">we now see the emergence of a failed and impotent educational system with a mass incarceration backed.</div>\n  </div>\n</div>\n<div class=\"card card-section bg-dark text-warning shadow\">\n  <div class=\"section card-body mb-0 my-2\">\n    <div class=\"paragraph card-text card-stanza my-5 text-center\">Wisdom and inheritance of knowledge cannot be replaced by a \"fake it until you make it\" trickery,</div>\n    <div class=\"paragraph card-text card-stanza my-5 text-center\">the work of great beings must not be stained by people who fail to see their vision.</div>\n  </div>\n</div>\n<div class=\"mb-5 section-spacer\">&nbsp;</div>\n<div class=\"card card-section bg-dark text-warning shadow\">\n  <div class=\"section card-body mb-0 my-2\">\n    <div class=\"paragraph card-text card-stanza my-5 text-center\">Once again, the world grows a generation at a time,</div>\n    <div class=\"paragraph card-text card-stanza my-5 text-center\">the education of the teenagers from 20 years ago is currently influencing the state of the world.</div>\n  </div>\n</div>\n<div class=\"card card-section bg-dark text-warning shadow\">\n  <div class=\"section card-body mb-0 my-2\">\n    <div class=\"paragraph card-text card-stanza my-5 text-center\">Likewise, how we treat out children today,</div>\n    <div class=\"paragraph card-text card-stanza my-5 text-center\">will have a monumental impact on the world 20 years from now.</div>\n  </div>\n</div>\n<div class=\"mb-5 section-spacer\">&nbsp;</div>\n<div class=\"card card-section bg-dark text-warning shadow\">\n  <div class=\"section card-body mb-0 my-2\">\n    <div class=\"paragraph card-text card-stanza my-5 text-center\">Let us honor our children and all the future generations by encouraging them to books,</div>\n    <div class=\"paragraph card-text card-stanza my-5 text-center\">by reminding them of the Great Power of Thinking Beings, of Philosophers and Lovers of Wisdom.</div>\n  </div>\n</div>\n<div class=\"card card-section bg-dark text-warning shadow\">\n  <div class=\"section card-body mb-0 my-2\">\n    <div class=\"paragraph card-text card-stanza my-5 text-center\">By reminding them that their Pursuit of Excellence,</div>\n    <div class=\"paragraph card-text card-stanza my-5 text-center\">can only make the world a better place for us all, and even those that are yet to come.</div>\n  </div>\n</div>\n<div class=\"card card-section bg-dark text-warning shadow\">\n  <div class=\"section card-body mb-0 my-2\">\n    <div class=\"paragraph card-text card-stanza my-5 text-center\">Let us remind them that Books (and now Audio Books) serve as a wonderful source of our wisdom,</div>\n    <div class=\"paragraph card-text card-stanza my-5 text-center\">especially when read in a sequence that fits them best, and understood at thier own pace.</div>\n  </div>\n</div>\n<div class=\"mb-5 section-spacer\">&nbsp;</div>\n<div class=\"card card-section bg-dark text-warning shadow\">\n  <div class=\"section card-body mb-0 my-2\">\n    <div class=\"paragraph card-text card-stanza my-5 text-center\">Let us remind each other that we must reject short thinking and shortest paths,</div>\n    <div class=\"paragraph card-text card-stanza my-5 text-center\">that do not help the world grow and keep us divided.</div>\n  </div>\n</div>\n<div class=\"card card-section bg-dark text-warning shadow\">\n  <div class=\"section card-body mb-0 my-2\">\n    <div class=\"paragraph card-text card-stanza my-5 text-center\">Let us break out of that selfish endless loop of repeating mistakes of past generations,</div>\n    <div class=\"paragraph card-text card-stanza my-5 text-center\">by working towards a better world a more united world where we recognize each other as One Family.</div>\n  </div>\n</div>\n<div class=\"mb-5 section-spacer\">&nbsp;</div>\n<div class=\"card card-section bg-dark text-warning shadow\">\n  <div class=\"section card-body mb-0 my-2\">\n    <div class=\"paragraph card-text card-stanza my-5 text-center\">And let us remember that the great and wise beings of past generations,</div>\n    <div class=\"paragraph card-text card-stanza my-5 text-center\">demand that we honor hard won triumphs and do not repeat history's mistakes.</div>\n  </div>\n</div>\n<div class=\"card card-section bg-dark text-warning shadow\">\n  <div class=\"section card-body mb-0 my-2\">\n    <div class=\"paragraph card-text card-stanza my-5 text-center\">The very nature of that demand requires that once we take to wisdom,</div>\n    <div class=\"paragraph card-text card-stanza my-5 text-center\">we must stop following orders, and begin thinking, evaluating, and judging for ourselves.</div>\n  </div>\n</div>\n<div class=\"card card-section bg-dark text-warning shadow\">\n  <div class=\"section card-body mb-0 my-2\">\n    <div class=\"paragraph card-text card-stanza my-5 text-center\">To honor triumphs and guard against heartbreaking mistakes,</div>\n    <div class=\"paragraph card-text card-stanza my-5 text-center\">is the duty we hold to those who came before us,</div>\n    <div class=\"paragraph card-text card-stanza my-5 text-center\">and all the future generations that are yet to follow.</div>\n  </div>\n</div>\n<div class=\"mb-5 section-spacer\">&nbsp;</div>\n<div class=\"card card-section bg-dark text-warning shadow\">\n  <div class=\"section card-body mb-0 my-2\">\n    <div class=\"paragraph card-text card-stanza my-5 text-center\">As children we are asked to listen and follow,</div>\n    <div class=\"paragraph card-text card-stanza my-5 text-center\">as we grow we must learn to Lead and become Unbreakable.</div>\n  </div>\n</div>\n<div class=\"card card-section bg-dark text-warning shadow\">\n  <div class=\"section card-body mb-0 my-2\">\n    <div class=\"paragraph card-text card-stanza my-5 text-center\">It is not just the challenges of life that will test us,</div>\n    <div class=\"paragraph card-text card-stanza my-5 text-center\">we must also think and evaluate and reject that which is wrong.</div>\n  </div>\n</div>\n<div class=\"mb-5 section-spacer\">&nbsp;</div>\n<div class=\"card card-section bg-dark text-warning shadow\">\n  <div class=\"section card-body mb-0 my-2\">\n    <div class=\"paragraph card-text card-stanza my-5 text-center\">We are constantly made to listen and expected to follow,</div>\n    <div class=\"paragraph card-text card-stanza my-5 text-center\">look behind any protest, or scandal, or angry headline.</div>\n  </div>\n</div>\n<div class=\"card card-section bg-dark text-warning shadow\">\n  <div class=\"section card-body mb-0 my-2\">\n    <div class=\"paragraph card-text card-stanza my-5 text-center\">We must judge all the contradictory information for ourselves,</div>\n    <div class=\"paragraph card-text card-stanza my-5 text-center\">and make an informed decision as to whether or not majority is correct.</div>\n  </div>\n</div>\n<div class=\"mb-5 section-spacer\">&nbsp;</div>\n<div class=\"card card-section bg-dark text-warning shadow\">\n  <div class=\"section card-body mb-0 my-2\">\n    <div class=\"paragraph card-text card-stanza my-5 text-center\">Life will always challenge us,</div>\n    <div class=\"paragraph card-text card-stanza my-5 text-center\">and My Goodness - times are always changing.</div>\n  </div>\n</div>\n<div class=\"card card-section bg-dark text-warning shadow\">\n  <div class=\"section card-body mb-0 my-2\">\n    <div class=\"paragraph card-text card-stanza my-5 text-center\">Humanity is constantly bettering her self,</div>\n    <div class=\"paragraph card-text card-stanza my-5 text-center\">what used to be acceptable - may now, be an affront to justice.</div>\n  </div>\n</div>\n<div class=\"card card-section bg-dark text-warning shadow\">\n  <div class=\"section card-body mb-0 my-2\">\n    <div class=\"paragraph card-text card-stanza my-5 text-center\">And while there isn't enough time to comprehend all the books,</div>\n    <div class=\"paragraph card-text card-stanza my-5 text-center\">there is plenty of time to be come a Loving and Wise Compassionate Human Being,</div>\n  </div>\n</div>\n<div class=\"card card-section bg-dark text-warning shadow\">\n  <div class=\"section card-body mb-0 my-2\">\n    <div class=\"paragraph card-text card-stanza my-5 text-center\">Let us remember that we are a chain-link between the Hard Work of Past Generations,</div>\n    <div class=\"paragraph card-text card-stanza my-5 text-center\">and the United, Free from Poverty, and Peaceful Word of <strong>Future</strong> Generations.</div>\n  </div>\n</div>\n<div class=\"card card-section bg-dark text-warning shadow\">\n  <div class=\"section card-body mb-0 my-2\">\n    <div class=\"paragraph card-text card-stanza my-5 text-center\">We are One Growing Family, and that is the correct context for local, state, and federal levels, for all legal and administrative decision making,</div>\n    <div class=\"paragraph card-text card-stanza my-5 text-center\">to diverge from this reality is to get stuck in an endless loop of repeating history's mistakes, the very thing that the past generations are asking us not to do.</div>\n  </div>\n</div>",
  "print": "<div class=\"section avoid-break-inside\" style=\"padding-bottom: 2rem;\">\n  <div class=\"paragraph\">We are not Island Universes scattered to no end in some void,</div>\n  <div class=\"paragraph\">we are a part of a growing civilization with a past and a future.</div>\n</div>\n<div class=\"section avoid-break-inside\" style=\"padding-bottom: 2rem;\">\n  <div class=\"paragraph\">And we might have become confused about the Scope of Our Existence,</div>\n  <div class=\"paragraph\">we stand divided by borders and committed to repeating history's mistakes.</div>\n</div>\n<div class=\"section avoid-break-inside\" style=\"padding-bottom: 2rem;\">\n  <div class=\"paragraph\">It is unwise to pretend to be able to handle a great responsibility,</div>\n  <div class=\"paragraph\">only desperation, fractures, and exploitation by other desperate pretenders can follow.</div>\n</div>\n<div class=\"section avoid-break-inside\" style=\"padding-bottom: 2rem;\">\n  <div class=\"paragraph\">Those who are granted authority are often not wise enough to handle it,</div>\n  <div class=\"paragraph\">and in their mediocrity they commit what in larger scope translates to real Crimes Against Humanity.</div>\n</div>\n<div class=\"section avoid-break-inside\" style=\"padding-bottom: 2rem;\">\n  <div class=\"paragraph\">There cannot be wisdom without understanding and inheriting from past generations,</div>\n  <div class=\"paragraph\">the transfer of knowledge occurs by means of Understanding Books.</div>\n</div>\n<div class=\"section avoid-break-inside\" style=\"padding-bottom: 2rem;\">\n  <div class=\"paragraph\">And there cannot be understanding without Authenticity,</div>\n  <div class=\"paragraph\">in haste of chasing a career there can only be memorization and misunderstanding.</div>\n</div>\n<div class=\"section avoid-break-inside\" style=\"padding-bottom: 2rem;\">\n  <div class=\"paragraph\">We must keep in mind; that what the future generations do not perceive as clear progress,</div>\n  <div class=\"paragraph\">will be seen as the continuation of dark ages with authorities on the wrong side of history.</div>\n</div>\n<div class=\"section avoid-break-inside\" style=\"padding-bottom: 2rem;\">\n  <div class=\"paragraph\">The World United, is not a fairy-tale, nor should it be a mere dream for us,</div>\n  <div class=\"paragraph\">but a Gift of Peace for The Future Generations, so that they may grow in Dignity, Health, and Wisdom.</div>\n</div>\n<div class=\"section avoid-break-inside\" style=\"padding-bottom: 2rem;\">\n  <div class=\"paragraph\">We are neither disconnected from the future generations, nor the past generations,</div>\n  <div class=\"paragraph\">we are a stepping stone in the development of The Human Kind.</div>\n</div>\n<div class=\"section avoid-break-inside\" style=\"padding-bottom: 2rem;\">\n  <div class=\"paragraph\">And we should recognize this Great Honor and Reward,</div>\n  <div class=\"paragraph\">and understand that the larger context is found in helping to build a better world for future generations.</div>\n</div>\n<div class=\"section avoid-break-inside\" style=\"padding-bottom: 2rem;\">\n  <div class=\"paragraph\">All our decisions, across all levels and authorities,</div>\n  <div class=\"paragraph\">Police, Attorneys and Judges, Parents, Teachers and Principals, Mayors, Governors, Prime Misters and Presidents, and everybody else...</div>\n</div>\n<div class=\"section avoid-break-inside\" style=\"padding-bottom: 2rem;\">\n  <div class=\"paragraph\">Must be mindful of future generations, of a growing world, of making lasting and meaningful contributions to the entire human kind,</div>\n  <div class=\"paragraph\">a World that will eventually become united and free of borders.</div>\n</div>\n<div class=\"section avoid-break-inside\" style=\"padding-bottom: 2rem;\">\n  <div class=\"paragraph\">A world with future generations that will look back at us,</div>\n  <div class=\"paragraph\">right now, right here, with questions that we must present answers to.</div>\n</div>\n<div class=\"section avoid-break-inside\" style=\"padding-bottom: 2rem;\">\n  <div class=\"paragraph\">We are getting stuck in circles,</div>\n  <div class=\"paragraph\">because people are forgetting history's lessons.</div>\n</div>\n<div class=\"section avoid-break-inside\" style=\"padding-bottom: 2rem;\">\n  <div class=\"paragraph\">Because we are not thinking on a large enough scale,</div>\n  <div class=\"paragraph\">we end up building more prisons rather than ending poverty with meaningful prevention programs.</div>\n</div>\n<div class=\"section avoid-break-inside\" style=\"padding-bottom: 2rem;\">\n  <div class=\"paragraph\">Endless cycles of heartless poverty that freeze the best of us,</div>\n  <div class=\"paragraph\">poverty that wouldn't even be a feature of modern society had we in our wisdom recognized it for what it is.</div>\n</div>\n<div class=\"section avoid-break-inside\" style=\"padding-bottom: 2rem;\">\n  <div class=\"paragraph\">Poverty denies people food and well being,</div>\n  <div class=\"paragraph\">causes stress and great harm to mind and body.</div>\n</div>\n<div class=\"section avoid-break-inside\" style=\"padding-bottom: 2rem;\">\n  <div class=\"paragraph\">Love above Law, before we allow the practice of law,</div>\n  <div class=\"paragraph\">we must end the cycles of poverty.</div>\n</div>\n<div class=\"section avoid-break-inside\" style=\"padding-bottom: 2rem;\">\n  <div class=\"paragraph\">Money must not be used to limit people,</div>\n  <div class=\"paragraph\">it is meant to help.</div>\n</div>\n<div class=\"section avoid-break-inside\" style=\"padding-bottom: 2rem;\">\n  <div class=\"paragraph\">And how can a culture be to fail to see, how a young person allowed to build a business without the threat of homelessness and starvation,</div>\n  <div class=\"paragraph\">will contribute back to the city and everyone's well being.</div>\n</div>\n<div class=\"section avoid-break-inside\" style=\"padding-bottom: 2rem;\">\n  <div class=\"paragraph\">What is so hard about seeing that rather than sending non-violent criminals to prison,</div>\n  <div class=\"paragraph\">we can prevent their biggest mistakes by putting an end to their worries of sleeping hungry on the street.</div>\n</div>\n<div class=\"section avoid-break-inside\" style=\"padding-bottom: 2rem;\">\n  <br>\n</div>\n<div class=\"section avoid-break-inside\" style=\"padding-bottom: 2rem;\">\n  <div class=\"paragraph\">Any time, we fail to keep to reality,</div>\n  <div class=\"paragraph\">be it sending a 15 year old lady to prison, or denying science, or tolerating arrests by obscured or unidentified agencies, or abuses of power or discretion.</div>\n</div>\n<div class=\"section avoid-break-inside\" style=\"padding-bottom: 2rem;\">\n  <div class=\"paragraph\">We create fractures and distrust,</div>\n  <div class=\"paragraph\">blindly defacing and destroying work of many much wiser great beings, who gave their best trusting that we can carry on, in wisdom.</div>\n</div>\n<div class=\"section avoid-break-inside\" style=\"padding-bottom: 2rem;\">\n  <div class=\"paragraph\">We must not move against the grain of reality,</div>\n  <div class=\"paragraph\">any and all divergence will only create a cascade of fractures that will demand constant attention</div>\n  <div class=\"paragraph\">and result in nothing more than systems that merely stand to support themselves and as an affront to justice and future generations.</div>\n</div>\n<div class=\"section avoid-break-inside\" style=\"padding-bottom: 2rem;\">\n  <div class=\"paragraph\">Where there was once a solution as clear as helping children to inherit the wisdom of their elders,</div>\n  <div class=\"paragraph\">we now see the emergence of a failed and impotent educational system with a mass incarceration backed.</div>\n</div>\n<div class=\"section avoid-break-inside\" style=\"padding-bottom: 2rem;\">\n  <div class=\"paragraph\">Wisdom and inheritance of knowledge cannot be replaced by a \"fake it until you make it\" trickery,</div>\n  <div class=\"paragraph\">the work of great beings must not be stained by people who fail to see their vision.</div>\n</div>\n<div class=\"section avoid-break-inside\" style=\"padding-bottom: 2rem;\">\n  <br>\n</div>\n<div class=\"section avoid-break-inside\" style=\"padding-bottom: 2rem;\">\n  <div class=\"paragraph\">Once again, the world grows a generation at a time,</div>\n  <div class=\"paragraph\">the education of the teenagers from 20 years ago is currently influencing the state of the world.</div>\n</div>\n<div class=\"section avoid-break-inside\" style=\"padding-bottom: 2rem;\">\n  <div class=\"paragraph\">Likewise, how we treat out children today,</div>\n  <div class=\"paragraph\">will have a monumental impact on the world 20 years from now.</div>\n</div>\n<div class=\"section avoid-break-inside\" style=\"padding-bottom: 2rem;\">\n  <br>\n</div>\n<div class=\"section avoid-break-inside\" style=\"padding-bottom: 2rem;\">\n  <div class=\"paragraph\">Let us honor our children and all the future generations by encouraging them to books,</div>\n  <div class=\"paragraph\">by reminding them of the Great Power of Thinking Beings, of Philosophers and Lovers of Wisdom.</div>\n</div>\n<div class=\"section avoid-break-inside\" style=\"padding-bottom: 2rem;\">\n  <div class=\"paragraph\">By reminding them that their Pursuit of Excellence,</div>\n  <div class=\"paragraph\">can only make the world a better place for us all, and even those that are yet to come.</div>\n</div>\n<div class=\"section avoid-break-inside\" style=\"padding-bottom: 2rem;\">\n  <div class=\"paragraph\">Let us remind them that Books (and now Audio Books) serve as a wonderful source of our wisdom,</div>\n  <div class=\"paragraph\">especially when read in a sequence that fits them best, and understood at thier own pace.</div>\n</div>\n<div class=\"section avoid-break-inside\" style=\"padding-bottom: 2rem;\">\n  <br>\n</div>\n<div class=\"section avoid-break-inside\" style=\"padding-bottom: 2rem;\">\n  <div class=\"paragraph\">Let us remind each other that we must reject short thinking and shortest paths,</div>\n  <div class=\"paragraph\">that do not help the world grow and keep us divided.</div>\n</div>\n<div class=\"section avoid-break-inside\" style=\"padding-bottom: 2rem;\">\n  <div class=\"paragraph\">Let us break out of that selfish endless loop of repeating mistakes of past generations,</div>\n  <div class=\"paragraph\">by working towards a better world a more united world where we recognize each other as One Family.</div>\n</div>\n<div class=\"section avoid-break-inside\" style=\"padding-bottom: 2rem;\">\n  <br>\n</div>\n<div class=\"section avoid-break-inside\" style=\"padding-bottom: 2rem;\">\n  <div class=\"paragraph\">And let us remember that the great and wise beings of past generations,</div>\n  <div class=\"paragraph\">demand that we honor hard won triumphs and do not repeat history's mistakes.</div>\n</div>\n<div class=\"section avoid-break-inside\" style=\"padding-bottom: 2rem;\">\n  <div class=\"paragraph\">The very nature of that demand requires that once we take to wisdom,</div>\n  <div class=\"paragraph\">we must stop following orders, and begin thinking, evaluating, and judging for ourselves.</div>\n</div>\n<div class=\"section avoid-break-inside\" style=\"padding-bottom: 2rem;\">\n  <div class=\"paragraph\">To honor triumphs and guard against heartbreaking mistakes,</div>\n  <div class=\"paragraph\">is the duty we hold to those who came before us,</div>\n  <div class=\"paragraph\">and all the future generations that are yet to follow.</div>\n</div>\n<div class=\"section avoid-break-inside\" style=\"padding-bottom: 2rem;\">\n  <br>\n</div>\n<div class=\"section avoid-break-inside\" style=\"padding-bottom: 2rem;\">\n  <div class=\"paragraph\">As children we are asked to listen and follow,</div>\n  <div class=\"paragraph\">as we grow we must learn to Lead and become Unbreakable.</div>\n</div>\n<div class=\"section avoid-break-inside\" style=\"padding-bottom: 2rem;\">\n  <div class=\"paragraph\">It is not just the challenges of life that will test us,</div>\n  <div class=\"paragraph\">we must also think and evaluate and reject that which is wrong.</div>\n</div>\n<div class=\"section avoid-break-inside\" style=\"padding-bottom: 2rem;\">\n  <br>\n</div>\n<div class=\"section avoid-break-inside\" style=\"padding-bottom: 2rem;\">\n  <div class=\"paragraph\">We are constantly made to listen and expected to follow,</div>\n  <div class=\"paragraph\">look behind any protest, or scandal, or angry headline.</div>\n</div>\n<div class=\"section avoid-break-inside\" style=\"padding-bottom: 2rem;\">\n  <div class=\"paragraph\">We must judge all the contradictory information for ourselves,</div>\n  <div class=\"paragraph\">and make an informed decision as to whether or not majority is correct.</div>\n</div>\n<div class=\"section avoid-break-inside\" style=\"padding-bottom: 2rem;\">\n  <br>\n</div>\n<div class=\"section avoid-break-inside\" style=\"padding-bottom: 2rem;\">\n  <div class=\"paragraph\">Life will always challenge us,</div>\n  <div class=\"paragraph\">and My Goodness - times are always changing.</div>\n</div>\n<div class=\"section avoid-break-inside\" style=\"padding-bottom: 2rem;\">\n  <div class=\"paragraph\">Humanity is constantly bettering her self,</div>\n  <div class=\"paragraph\">what used to be acceptable - may now, be an affront to justice.</div>\n</div>\n<div class=\"section avoid-break-inside\" style=\"padding-bottom: 2rem;\">\n  <div class=\"paragraph\">And while there isn't enough time to comprehend all the books,</div>\n  <div class=\"paragraph\">there is plenty of time to be come a Loving and Wise Compassionate Human Being,</div>\n</div>\n<div class=\"section avoid-break-inside\" style=\"padding-bottom: 2rem;\">\n  <div class=\"paragraph\">Let us remember that we are a chain-link between the Hard Work of Past Generations,</div>\n  <div class=\"paragraph\">and the United, Free from Poverty, and Peaceful Word of <strong>Future</strong> Generations.</div>\n</div>\n<div class=\"section avoid-break-inside\" style=\"padding-bottom: 2rem;\">\n  <div class=\"paragraph\">We are One Growing Family, and that is the correct context for local, state, and federal levels, for all legal and administrative decision making,</div>\n  <div class=\"paragraph\">to diverge from this reality is to get stuck in an endless loop of repeating history's mistakes, the very thing that the past generations are asking us not to do.</div>\n</div>",
  "text": "We are not Island Universes scattered to no end in some void,\nwe are a part of a growing civilization with a past and a future.\nAnd we might have become confused about the Scope of Our Existence,\nwe stand divided by borders and committed to repeating history's mistakes.\nIt is unwise to pretend to be able to handle a great responsibility,\nonly desperation, fractures, and exploitation by other desperate pretenders can follow.\nThose who are granted authority are often not wise enough to handle it,\nand in their mediocrity they commit what in larger scope translates to real Crimes Against Humanity.\nThere cannot be wisdom without understanding and inheriting from past generations,\nthe transfer of knowledge occurs by means of Understanding Books.\nAnd there cannot be understanding without Authenticity,\nin haste of chasing a career there can only be memorization and misunderstanding.\nWe must keep in mind; that what the future generations do not perceive as clear progress,\nwill be seen as the continuation of dark ages with authorities on the wrong side of history.\nThe World United, is not a fairy-tale, nor should it be a mere dream for us,\nbut a Gift of Peace for The Future Generations, so that they may grow in Dignity, Health, and Wisdom.\nWe are neither disconnected from the future generations, nor the past generations,\nwe are a stepping stone in the development of The Human Kind.\nAnd we should recognize this Great Honor and Reward,\nand understand that the larger context is found in helping to build a better world for future generations.\nAll our decisions, across all levels and authorities,\nPolice, Attorneys and Judges, Parents, Teachers and Principals, Mayors, Governors, Prime Misters and Presidents, and everybody else...\nMust be mindful of future generations, of a growing world, of making lasting and meaningful contributions to the entire human kind,\na World that will eventually become united and free of borders.\nA world with future generations that will look back at us,\nright now, right here, with questions that we must present answers to.\nWe are getting stuck in circles,\nbecause people are forgetting history's lessons.\nBecause we are not thinking on a large enough scale,\nwe end up building more prisons rather than ending poverty with meaningful prevention programs.\nEndless cycles of heartless poverty that freeze the best of us,\npoverty that wouldn't even be a feature of modern society had we in our wisdom recognized it for what it is.\nPoverty denies people food and well being,\ncauses stress and great harm to mind and body.\nLove above Law, before we allow the practice of law,\nwe must end the cycles of poverty.\nMoney must not be used to limit people,\nit is meant to help.\nAnd how can a culture be to fail to see, how a young person allowed to build a business without the threat of homelessness and starvation,\nwill contribute back to the city and everyone's well being.\nWhat is so hard about seeing that rather than sending non-violent criminals to prison,\nwe can prevent their biggest mistakes by putting an end to their worries of sleeping hungry on the street.\n\nAny time, we fail to keep to reality,\nbe it sending a 15 year old lady to prison, or denying science, or tolerating arrests by obscured or unidentified agencies, or abuses of power or discretion.\nWe create fractures and distrust,\nblindly defacing and destroying work of many much wiser great beings, who gave their best trusting that we can carry on, in wisdom.\nWe must not move against the grain of reality,\nany and all divergence will only create a cascade of fractures that will demand constant attention\nand result in nothing more than systems that merely stand to support themselves and as an affront to justice and future generations.\nWhere there was once a solution as clear as helping children to inherit the wisdom of their elders,\nwe now see the emergence of a failed and impotent educational system with a mass incarceration backed.\nWisdom and inheritance of knowledge cannot be replaced by a \"fake it until you make it\" trickery,\nthe work of great beings must not be stained by people who fail to see their vision.\n\nOnce again, the world grows a generation at a time,\nthe education of the teenagers from 20 years ago is currently influencing the state of the world.\nLikewise, how we treat out children today,\nwill have a monumental impact on the world 20 years from now.\n\nLet us honor our children and all the future generations by encouraging them to books,\nby reminding them of the Great Power of Thinking Beings, of Philosophers and Lovers of Wisdom.\nBy reminding them that their Pursuit of Excellence,\ncan only make the world a better place for us all, and even those that are yet to come.\nLet us remind them that Books (and now Audio Books) serve as a wonderful source of our wisdom,\nespecially when read in a sequence that fits them best, and understood at thier own pace.\n\nLet us remind each other that we must reject short thinking and shortest paths,\nthat do not help the world grow and keep us divided.\nLet us break out of that selfish endless loop of repeating mistakes of past generations,\nby working towards a better world a more united world where we recognize each other as One Family.\n\nAnd let us remember that the great and wise beings of past generations,\ndemand that we honor hard won triumphs and do not repeat history's mistakes.\nThe very nature of that demand requires that once we take to wisdom,\nwe must stop following orders, and begin thinking, evaluating, and judging for ourselves.\nTo honor triumphs and guard against heartbreaking mistakes,\nis the duty we hold to those who came before us,\nand all the future generations that are yet to follow.\n\nAs children we are asked to listen and follow,\nas we grow we must learn to Lead and become Unbreakable.\nIt is not just the challenges of life that will test us,\nwe must also think and evaluate and reject that which is wrong.\n\nWe are constantly made to listen and expected to follow,\nlook behind any protest, or scandal, or angry headline.\nWe must judge all the contradictory information for ourselves,\nand make an informed decision as to whether or not majority is correct.\n\nLife will always challenge us,\nand My Goodness - times are always changing.\nHumanity is constantly bettering her self,\nwhat used to be acceptable - may now, be an affront to justice.\nAnd while there isn't enough time to comprehend all the books,\nthere is plenty of time to be come a Loving and Wise Compassionate Human Being,\nLet us remember that we are a chain-link between the Hard Work of Past Generations,\nand the United, Free from Poverty, and Peaceful Word of Future Generations.\nWe are One Growing Family, and that is the correct context for local, state, and federal levels, for all legal and administrative decision making,\nto diverge from this reality is to get stuck in an endless loop of repeating history's mistakes, the very thing that the past generations are asking us not to do.",
  "images": [],
  "links": []
}