{
  "id": "furkies-purrkies-poetry-0933",
  "guid": "79689bfd-9365-4b7a-a814-957222fdfaa3",
  "title": "Furkies Purrkies Poetry 0933",
  "date": "2022-09-20T03:11:25.643Z",
  "image": "poetry-0933-illustration.jpg",
  "artwork": "https://example.com",
  "audio": "poetry-0933.mp3"
}