{
  "name": "furkies-purrkies-poetry-0121",
  "title": "Brilliance and Enlightenment",
  "date": "2020-06-29T03:34:49.241Z",
  "image": "poetry-0121-illustration.jpg",
  "audio": "poetry-0121.mp3",
  "id": "furkies-purrkies-poetry-0121",
  "attachments": {},
  "guid": "d5e8c047-a194-4f8e-85ab-d9a29eabcf2e",
  "html": "<div class=\"section\">\n  <p>No worries, the only real darkness is the Twilight of Hesitation,</p>\n  <p>it is dangerous because it makes time go by all too fast.</p>\n</div>\n<div class=\"section\">\n  <p>So you just have to make a promise to your self,</p>\n  <p>that each day will be a tiny-tiny itsy-bitsy better; than then previous.</p>\n</div>\n<div class=\"section\">\n  <p>Other than that, no cloud could ever stop the sun from rising,</p>\n  <p>nothing can endanger your brilliance, there is nothing to fear.</p>\n</div>\n<div class=\"section\">\n  <hr>\n</div>\n<div class=\"section\">\n  <p>And brilliance,</p>\n  <p>brilliance leads to enlightenment.</p>\n</div>\n<div class=\"section\">\n  <p>So as long as you protect your light,</p>\n  <p>know that wisdom is your right.</p>\n</div>\n<div class=\"section\">\n  <p>Never stand still and always take to flight,</p>\n  <p>yours is enlightenment, the brightest of light.</p>\n</div>\n<div class=\"section\">\n  <hr>\n</div>\n<div class=\"section\">\n  <p>Never has there been a night,</p>\n  <p>that was wasn&apos;t lit by light.</p>\n</div>\n<div class=\"section\">\n  <p>Never has there been a fight,</p>\n  <p>that wasn&apos;t won by Wisdom&apos;s Might.</p>\n</div>\n<div class=\"section\">\n  <p>Rise, rise in spite of the fright,</p>\n  <p>rise to no end in sight.</p>\n</div>",
  "bootstrap": "<div class=\"card card-section bg-dark text-warning shadow\">\n  <div class=\"section card-body mb-0 my-2\">\n    <div class=\"paragraph card-text card-stanza my-5 text-center\">No worries, the only real darkness is the Twilight of Hesitation,</div>\n    <div class=\"paragraph card-text card-stanza my-5 text-center\">it is dangerous because it makes time go by all too fast.</div>\n  </div>\n</div>\n<div class=\"card card-section bg-dark text-warning shadow\">\n  <div class=\"section card-body mb-0 my-2\">\n    <div class=\"paragraph card-text card-stanza my-5 text-center\">So you just have to make a promise to your self,</div>\n    <div class=\"paragraph card-text card-stanza my-5 text-center\">that each day will be a tiny-tiny itsy-bitsy better; than then previous.</div>\n  </div>\n</div>\n<div class=\"card card-section bg-dark text-warning shadow\">\n  <div class=\"section card-body mb-0 my-2\">\n    <div class=\"paragraph card-text card-stanza my-5 text-center\">Other than that, no cloud could ever stop the sun from rising,</div>\n    <div class=\"paragraph card-text card-stanza my-5 text-center\">nothing can endanger your brilliance, there is nothing to fear.</div>\n  </div>\n</div>\n<div class=\"mb-5 section-spacer\">&nbsp;</div>\n<div class=\"card card-section bg-dark text-warning shadow\">\n  <div class=\"section card-body mb-0 my-2\">\n    <div class=\"paragraph card-text card-stanza my-5 text-center\">And brilliance,</div>\n    <div class=\"paragraph card-text card-stanza my-5 text-center\">brilliance leads to enlightenment.</div>\n  </div>\n</div>\n<div class=\"card card-section bg-dark text-warning shadow\">\n  <div class=\"section card-body mb-0 my-2\">\n    <div class=\"paragraph card-text card-stanza my-5 text-center\">So as long as you protect your light,</div>\n    <div class=\"paragraph card-text card-stanza my-5 text-center\">know that wisdom is your right.</div>\n  </div>\n</div>\n<div class=\"card card-section bg-dark text-warning shadow\">\n  <div class=\"section card-body mb-0 my-2\">\n    <div class=\"paragraph card-text card-stanza my-5 text-center\">Never stand still and always take to flight,</div>\n    <div class=\"paragraph card-text card-stanza my-5 text-center\">yours is enlightenment, the brightest of light.</div>\n  </div>\n</div>\n<div class=\"mb-5 section-spacer\">&nbsp;</div>\n<div class=\"card card-section bg-dark text-warning shadow\">\n  <div class=\"section card-body mb-0 my-2\">\n    <div class=\"paragraph card-text card-stanza my-5 text-center\">Never has there been a night,</div>\n    <div class=\"paragraph card-text card-stanza my-5 text-center\">that was wasn't lit by light.</div>\n  </div>\n</div>\n<div class=\"card card-section bg-dark text-warning shadow\">\n  <div class=\"section card-body mb-0 my-2\">\n    <div class=\"paragraph card-text card-stanza my-5 text-center\">Never has there been a fight,</div>\n    <div class=\"paragraph card-text card-stanza my-5 text-center\">that wasn't won by Wisdom's Might.</div>\n  </div>\n</div>\n<div class=\"card card-section bg-dark text-warning shadow\">\n  <div class=\"section card-body mb-0 my-2\">\n    <div class=\"paragraph card-text card-stanza my-5 text-center\">Rise, rise in spite of the fright,</div>\n    <div class=\"paragraph card-text card-stanza my-5 text-center\">rise to no end in sight.</div>\n  </div>\n</div>",
  "print": "<div class=\"section avoid-break-inside\" style=\"padding-bottom: 2rem;\">\n  <div class=\"paragraph\">No worries, the only real darkness is the Twilight of Hesitation,</div>\n  <div class=\"paragraph\">it is dangerous because it makes time go by all too fast.</div>\n</div>\n<div class=\"section avoid-break-inside\" style=\"padding-bottom: 2rem;\">\n  <div class=\"paragraph\">So you just have to make a promise to your self,</div>\n  <div class=\"paragraph\">that each day will be a tiny-tiny itsy-bitsy better; than then previous.</div>\n</div>\n<div class=\"section avoid-break-inside\" style=\"padding-bottom: 2rem;\">\n  <div class=\"paragraph\">Other than that, no cloud could ever stop the sun from rising,</div>\n  <div class=\"paragraph\">nothing can endanger your brilliance, there is nothing to fear.</div>\n</div>\n<div class=\"section avoid-break-inside\" style=\"padding-bottom: 2rem;\">\n  <br>\n</div>\n<div class=\"section avoid-break-inside\" style=\"padding-bottom: 2rem;\">\n  <div class=\"paragraph\">And brilliance,</div>\n  <div class=\"paragraph\">brilliance leads to enlightenment.</div>\n</div>\n<div class=\"section avoid-break-inside\" style=\"padding-bottom: 2rem;\">\n  <div class=\"paragraph\">So as long as you protect your light,</div>\n  <div class=\"paragraph\">know that wisdom is your right.</div>\n</div>\n<div class=\"section avoid-break-inside\" style=\"padding-bottom: 2rem;\">\n  <div class=\"paragraph\">Never stand still and always take to flight,</div>\n  <div class=\"paragraph\">yours is enlightenment, the brightest of light.</div>\n</div>\n<div class=\"section avoid-break-inside\" style=\"padding-bottom: 2rem;\">\n  <br>\n</div>\n<div class=\"section avoid-break-inside\" style=\"padding-bottom: 2rem;\">\n  <div class=\"paragraph\">Never has there been a night,</div>\n  <div class=\"paragraph\">that was wasn't lit by light.</div>\n</div>\n<div class=\"section avoid-break-inside\" style=\"padding-bottom: 2rem;\">\n  <div class=\"paragraph\">Never has there been a fight,</div>\n  <div class=\"paragraph\">that wasn't won by Wisdom's Might.</div>\n</div>\n<div class=\"section avoid-break-inside\" style=\"padding-bottom: 2rem;\">\n  <div class=\"paragraph\">Rise, rise in spite of the fright,</div>\n  <div class=\"paragraph\">rise to no end in sight.</div>\n</div>",
  "text": "No worries, the only real darkness is the Twilight of Hesitation,\nit is dangerous because it makes time go by all too fast.\nSo you just have to make a promise to your self,\nthat each day will be a tiny-tiny itsy-bitsy better; than then previous.\nOther than that, no cloud could ever stop the sun from rising,\nnothing can endanger your brilliance, there is nothing to fear.\n\nAnd brilliance,\nbrilliance leads to enlightenment.\nSo as long as you protect your light,\nknow that wisdom is your right.\nNever stand still and always take to flight,\nyours is enlightenment, the brightest of light.\n\nNever has there been a night,\nthat was wasn't lit by light.\nNever has there been a fight,\nthat wasn't won by Wisdom's Might.\nRise, rise in spite of the fright,\nrise to no end in sight.",
  "images": [],
  "links": []
}