{
  "title": "Amazing Diet",
  "date": "2020-04-24T01:36:49.000Z",
  "audio": "poetry-0043.mp3",
  "image": "poetry-0043-illustration.jpg",
  "artwork": "https://catpea.com/",
  "id": "furkies-purrkies-poetry-0043",
  "attachments": {},
  "guid": "03501a11-f86a-4610-8b82-3973c53cf8a8"
}
