{
  "id": "furkies-purrkies-poetry-0863",
  "title": "Schools Where Teachers Are Trained To Teach Students Who Just Want To Learn",
  "date": "2022-07-11T17:35:32.704Z",
  "image": "poetry-0863-illustration.jpg",
  "artwork": "https://unsplash.com/photos/J-oq05vZR48",
  "audio": "poetry-0863.mp3",
  "guid": "41175611-85ed-4970-9365-9d6bcb2b2a40"
}
