{
  "id": "furkies-purrkies-poetry-0905",
  "title": "Furkies Purrkies Poetry 0905",
  "date": "2022-08-23T01:46:55.663Z",
  "image": "poetry-0905-illustration.jpg",
  "artwork": "https://example.com",
  "audio": "poetry-0905.mp3"
}