{
  "name": "furkies-purrkies-poetry-0118",
  "title": "Amazing Nap",
  "date": "2020-06-26T02:54:26.311Z",
  "image": "poetry-0118-illustration.jpg",
  "audio": "poetry-0118.mp3",
  "id": "furkies-purrkies-poetry-0118",
  "attachments": {},
  "guid": "2225ae06-4e14-4aad-bb1f-fddfe151329e",
  "html": "<div class=\"section\">\n  <p>Back when I was a Teenager,</p>\n  <p>one late Friday afternoon.</p>\n</div>\n<div class=\"section\">\n  <p>I had a nap, so amazing,</p>\n  <p>I have never forgotten about it.</p>\n</div>\n<div class=\"section\">\n  <p>I woke up light as a feather,</p>\n  <p>and I dressed beautifully.</p>\n</div>\n<div class=\"section\">\n  <p>And went exploring,</p>\n  <p>little Coffee Shops in Plymouth.</p>\n</div>\n<div class=\"section\">\n  <p>I went to see The Brew Ha Ha,</p>\n  <p>full of Mighty Minds with Extreme Dreams.</p>\n</div>\n<div class=\"section\">\n  <p>I peeked into Coffee Studio,</p>\n  <p>and saw Angel-headed Hipsters reading Tolstoy.</p>\n</div>\n<div class=\"section\">\n  <p>I poked into The Bean,</p>\n  <p>full of Dirty Hippies, reciting Beautiful Poetry.</p>\n</div>\n<div class=\"section\">\n  <p>I made my way back home,</p>\n  <p>walking alone through streets of gold.</p>\n</div>\n<div class=\"section\">\n  <p>I read Chaucer,</p>\n  <p>programmed Visual Basic.</p>\n</div>\n<div class=\"section\">\n  <p>And went back to sleep,</p>\n  <p>full of new memories that I would keep.</p>\n</div>",
  "bootstrap": "<div class=\"card card-section bg-dark text-warning shadow\">\n  <div class=\"section card-body mb-0 my-2\">\n    <div class=\"paragraph card-text card-stanza my-5 text-center\">Back when I was a Teenager,</div>\n    <div class=\"paragraph card-text card-stanza my-5 text-center\">one late Friday afternoon.</div>\n  </div>\n</div>\n<div class=\"card card-section bg-dark text-warning shadow\">\n  <div class=\"section card-body mb-0 my-2\">\n    <div class=\"paragraph card-text card-stanza my-5 text-center\">I had a nap, so amazing,</div>\n    <div class=\"paragraph card-text card-stanza my-5 text-center\">I have never forgotten about it.</div>\n  </div>\n</div>\n<div class=\"card card-section bg-dark text-warning shadow\">\n  <div class=\"section card-body mb-0 my-2\">\n    <div class=\"paragraph card-text card-stanza my-5 text-center\">I woke up light as a feather,</div>\n    <div class=\"paragraph card-text card-stanza my-5 text-center\">and I dressed beautifully.</div>\n  </div>\n</div>\n<div class=\"card card-section bg-dark text-warning shadow\">\n  <div class=\"section card-body mb-0 my-2\">\n    <div class=\"paragraph card-text card-stanza my-5 text-center\">And went exploring,</div>\n    <div class=\"paragraph card-text card-stanza my-5 text-center\">little Coffee Shops in Plymouth.</div>\n  </div>\n</div>\n<div class=\"card card-section bg-dark text-warning shadow\">\n  <div class=\"section card-body mb-0 my-2\">\n    <div class=\"paragraph card-text card-stanza my-5 text-center\">I went to see The Brew Ha Ha,</div>\n    <div class=\"paragraph card-text card-stanza my-5 text-center\">full of Mighty Minds with Extreme Dreams.</div>\n  </div>\n</div>\n<div class=\"card card-section bg-dark text-warning shadow\">\n  <div class=\"section card-body mb-0 my-2\">\n    <div class=\"paragraph card-text card-stanza my-5 text-center\">I peeked into Coffee Studio,</div>\n    <div class=\"paragraph card-text card-stanza my-5 text-center\">and saw Angel-headed Hipsters reading Tolstoy.</div>\n  </div>\n</div>\n<div class=\"card card-section bg-dark text-warning shadow\">\n  <div class=\"section card-body mb-0 my-2\">\n    <div class=\"paragraph card-text card-stanza my-5 text-center\">I poked into The Bean,</div>\n    <div class=\"paragraph card-text card-stanza my-5 text-center\">full of Dirty Hippies, reciting Beautiful Poetry.</div>\n  </div>\n</div>\n<div class=\"card card-section bg-dark text-warning shadow\">\n  <div class=\"section card-body mb-0 my-2\">\n    <div class=\"paragraph card-text card-stanza my-5 text-center\">I made my way back home,</div>\n    <div class=\"paragraph card-text card-stanza my-5 text-center\">walking alone through streets of gold.</div>\n  </div>\n</div>\n<div class=\"card card-section bg-dark text-warning shadow\">\n  <div class=\"section card-body mb-0 my-2\">\n    <div class=\"paragraph card-text card-stanza my-5 text-center\">I read Chaucer,</div>\n    <div class=\"paragraph card-text card-stanza my-5 text-center\">programmed Visual Basic.</div>\n  </div>\n</div>\n<div class=\"card card-section bg-dark text-warning shadow\">\n  <div class=\"section card-body mb-0 my-2\">\n    <div class=\"paragraph card-text card-stanza my-5 text-center\">And went back to sleep,</div>\n    <div class=\"paragraph card-text card-stanza my-5 text-center\">full of new memories that I would keep.</div>\n  </div>\n</div>",
  "print": "<div class=\"section avoid-break-inside\" style=\"padding-bottom: 2rem;\">\n  <div class=\"paragraph\">Back when I was a Teenager,</div>\n  <div class=\"paragraph\">one late Friday afternoon.</div>\n</div>\n<div class=\"section avoid-break-inside\" style=\"padding-bottom: 2rem;\">\n  <div class=\"paragraph\">I had a nap, so amazing,</div>\n  <div class=\"paragraph\">I have never forgotten about it.</div>\n</div>\n<div class=\"section avoid-break-inside\" style=\"padding-bottom: 2rem;\">\n  <div class=\"paragraph\">I woke up light as a feather,</div>\n  <div class=\"paragraph\">and I dressed beautifully.</div>\n</div>\n<div class=\"section avoid-break-inside\" style=\"padding-bottom: 2rem;\">\n  <div class=\"paragraph\">And went exploring,</div>\n  <div class=\"paragraph\">little Coffee Shops in Plymouth.</div>\n</div>\n<div class=\"section avoid-break-inside\" style=\"padding-bottom: 2rem;\">\n  <div class=\"paragraph\">I went to see The Brew Ha Ha,</div>\n  <div class=\"paragraph\">full of Mighty Minds with Extreme Dreams.</div>\n</div>\n<div class=\"section avoid-break-inside\" style=\"padding-bottom: 2rem;\">\n  <div class=\"paragraph\">I peeked into Coffee Studio,</div>\n  <div class=\"paragraph\">and saw Angel-headed Hipsters reading Tolstoy.</div>\n</div>\n<div class=\"section avoid-break-inside\" style=\"padding-bottom: 2rem;\">\n  <div class=\"paragraph\">I poked into The Bean,</div>\n  <div class=\"paragraph\">full of Dirty Hippies, reciting Beautiful Poetry.</div>\n</div>\n<div class=\"section avoid-break-inside\" style=\"padding-bottom: 2rem;\">\n  <div class=\"paragraph\">I made my way back home,</div>\n  <div class=\"paragraph\">walking alone through streets of gold.</div>\n</div>\n<div class=\"section avoid-break-inside\" style=\"padding-bottom: 2rem;\">\n  <div class=\"paragraph\">I read Chaucer,</div>\n  <div class=\"paragraph\">programmed Visual Basic.</div>\n</div>\n<div class=\"section avoid-break-inside\" style=\"padding-bottom: 2rem;\">\n  <div class=\"paragraph\">And went back to sleep,</div>\n  <div class=\"paragraph\">full of new memories that I would keep.</div>\n</div>",
  "text": "Back when I was a Teenager,\none late Friday afternoon.\nI had a nap, so amazing,\nI have never forgotten about it.\nI woke up light as a feather,\nand I dressed beautifully.\nAnd went exploring,\nlittle Coffee Shops in Plymouth.\nI went to see The Brew Ha Ha,\nfull of Mighty Minds with Extreme Dreams.\nI peeked into Coffee Studio,\nand saw Angel-headed Hipsters reading Tolstoy.\nI poked into The Bean,\nfull of Dirty Hippies, reciting Beautiful Poetry.\nI made my way back home,\nwalking alone through streets of gold.\nI read Chaucer,\nprogrammed Visual Basic.\nAnd went back to sleep,\nfull of new memories that I would keep.",
  "images": [],
  "links": []
}