{
  "title": "The Final Century Of Lies, Deceptions And Confusion: Rise Of The Culture Of Greatness",
  "date": "2021-05-30T19:26:47.056Z",
  "image": "poetry-0456-illustration.jpg",
  "audio": "poetry-0456.mp3",
  "artwork": "https://unsplash.com/photos/QJIRuO3ymU8",
  "id": "furkies-purrkies-poetry-0456",
  "attachments": {},
  "guid": "07bcf150-6ca3-4bae-bf5a-9c67761aeb57"
}
