{
  "id": "furkies-purrkies-poetry-0719",
  "title": "True Colors",
  "date": "2022-02-18T02:07:56.201Z",
  "image": "poetry-0719-illustration.jpg",
  "artwork": "https://catpea.com",
  "audio": "poetry-0719.mp3",
  "guid": "ae8b73a5-3ef5-4f91-a5bd-606cec247bf7"
}
