{
  "name": "furkies-purrkies-poetry-0185",
  "title": "Of Mountain Ranges And Tipping Points",
  "date": "2020-09-01T23:33:39.448Z",
  "image": "poetry-0185-illustration.jpg",
  "audio": "poetry-0185.mp3",
  "id": "furkies-purrkies-poetry-0185",
  "attachments": {},
  "guid": "a96aae3d-1801-4eb6-900c-915babbc1981",
  "html": "<div class=\"section\">\n  <p>When you gather a comfortable amount of observation,</p>\n  <p>there is a moment when you go from observer to creator.</p>\n</div>\n<div class=\"section\">\n  <p>It is similar to how you arrive in a new city,</p>\n  <p>at first you are unsure, but eventually it becomes your home town.</p>\n</div>\n<div class=\"section\">\n  <p>In politics, politicians so through something similar,</p>\n  <p>but it is a mistake, they become comfortable around manipulators,</p>\n  <p>and get comfortable with manipulating, propagating the blight.</p>\n</div>\n<div class=\"section\">\n  <p>In the world of books, the authors that resonate with you,</p>\n  <p>become your friends, Carl Sagan, Bill Bryson, Dan Brown,</p>\n  <p>they become family and you get to know them in your own way.</p>\n</div>\n<div class=\"section\">\n  <p>In world adventures, it is called going native, or emanating mana,</p>\n  <p>one moment you are an outsider, and the next you are riding a bull to work,</p>\n  <p>where you spend your days working hard on digging new wells,</p>\n  <p>hurrying to finish before your visa expires and you have get back to the loud and filthy city.</p>\n</div>\n<div class=\"section\">\n  <p>When knowledge becomes internalized, it becomes wisdom,</p>\n  <p>you become able to synthesize more knowledge out of what you already know,</p>\n  <p>some call it Enlightenment.</p>\n</div>\n<div class=\"section\">\n  <p>It all cases, it is natural, human, simple and easy to get to,</p>\n  <p>it is not rare, it is not a power granted only to special people,</p>\n  <p>it is a power that makes people more special.</p>\n</div>\n<div class=\"section\">\n  <p>If you read enough audio books that move you in the same direction,</p>\n  <p>you&apos;ll go from listening about something to becoming a participant in thinking about it.</p>\n</div>\n<div class=\"section\">\n  <p>It is a feeling so powerful at first,</p>\n  <p>that some become convinced they are geniuses,</p>\n  <p>and have deeper knowledge</p>\n</div>\n<div class=\"section\">\n  <p>&quot;Nope! that&apos;s just your first tipping point dude,</p>\n  <p>keep going though, because you are just about as amazing as you think you are, don&apos;t stop learning&quot;.</p>\n</div>\n<div class=\"section\">\n  <p>The more tipping points, and plateaus,</p>\n  <p>upon which we rests as we move towards the sunny parts of our mountain range.</p>\n</div>\n<div class=\"section\">\n  <p>The more capable we become, the more we can synthesize,</p>\n  <p>and the more of the things we synthesize slowly do become unique and amazing.</p>\n</div>\n<div class=\"section\">\n  <p>Finally, the more we know,</p>\n  <p>the easier it is to understand other people&apos;s works,</p>\n  <p>we begin sharing more and more with other creators.</p>\n</div>\n<div class=\"section\">\n  <p>That&apos;s Real Education,</p>\n  <p>we become specialists in our own unique corners of the world,</p>\n</div>\n<div class=\"section\">\n  <p>Eventually we too get stung by the urge to share what we know,</p>\n  <p>both the unique little discoveries or contributions we made,</p>\n  <p>and in memoirs that describe all the twisty little passages that got us there.</p>\n</div>",
  "bootstrap": "<div class=\"card card-section bg-dark text-warning shadow\">\n  <div class=\"section card-body mb-0 my-2\">\n    <div class=\"paragraph card-text card-stanza my-5 text-center\">When you gather a comfortable amount of observation,</div>\n    <div class=\"paragraph card-text card-stanza my-5 text-center\">there is a moment when you go from observer to creator.</div>\n  </div>\n</div>\n<div class=\"card card-section bg-dark text-warning shadow\">\n  <div class=\"section card-body mb-0 my-2\">\n    <div class=\"paragraph card-text card-stanza my-5 text-center\">It is similar to how you arrive in a new city,</div>\n    <div class=\"paragraph card-text card-stanza my-5 text-center\">at first you are unsure, but eventually it becomes your home town.</div>\n  </div>\n</div>\n<div class=\"card card-section bg-dark text-warning shadow\">\n  <div class=\"section card-body mb-0 my-2\">\n    <div class=\"paragraph card-text card-stanza my-5 text-center\">In politics, politicians so through something similar,</div>\n    <div class=\"paragraph card-text card-stanza my-5 text-center\">but it is a mistake, they become comfortable around manipulators,</div>\n    <div class=\"paragraph card-text card-stanza my-5 text-center\">and get comfortable with manipulating, propagating the blight.</div>\n  </div>\n</div>\n<div class=\"card card-section bg-dark text-warning shadow\">\n  <div class=\"section card-body mb-0 my-2\">\n    <div class=\"paragraph card-text card-stanza my-5 text-center\">In the world of books, the authors that resonate with you,</div>\n    <div class=\"paragraph card-text card-stanza my-5 text-center\">become your friends, Carl Sagan, Bill Bryson, Dan Brown,</div>\n    <div class=\"paragraph card-text card-stanza my-5 text-center\">they become family and you get to know them in your own way.</div>\n  </div>\n</div>\n<div class=\"card card-section bg-dark text-warning shadow\">\n  <div class=\"section card-body mb-0 my-2\">\n    <div class=\"paragraph card-text card-stanza my-5 text-center\">In world adventures, it is called going native, or emanating mana,</div>\n    <div class=\"paragraph card-text card-stanza my-5 text-center\">one moment you are an outsider, and the next you are riding a bull to work,</div>\n    <div class=\"paragraph card-text card-stanza my-5 text-center\">where you spend your days working hard on digging new wells,</div>\n    <div class=\"paragraph card-text card-stanza my-5 text-center\">hurrying to finish before your visa expires and you have get back to the loud and filthy city.</div>\n  </div>\n</div>\n<div class=\"card card-section bg-dark text-warning shadow\">\n  <div class=\"section card-body mb-0 my-2\">\n    <div class=\"paragraph card-text card-stanza my-5 text-center\">When knowledge becomes internalized, it becomes wisdom,</div>\n    <div class=\"paragraph card-text card-stanza my-5 text-center\">you become able to synthesize more knowledge out of what you already know,</div>\n    <div class=\"paragraph card-text card-stanza my-5 text-center\">some call it Enlightenment.</div>\n  </div>\n</div>\n<div class=\"card card-section bg-dark text-warning shadow\">\n  <div class=\"section card-body mb-0 my-2\">\n    <div class=\"paragraph card-text card-stanza my-5 text-center\">It all cases, it is natural, human, simple and easy to get to,</div>\n    <div class=\"paragraph card-text card-stanza my-5 text-center\">it is not rare, it is not a power granted only to special people,</div>\n    <div class=\"paragraph card-text card-stanza my-5 text-center\">it is a power that makes people more special.</div>\n  </div>\n</div>\n<div class=\"card card-section bg-dark text-warning shadow\">\n  <div class=\"section card-body mb-0 my-2\">\n    <div class=\"paragraph card-text card-stanza my-5 text-center\">If you read enough audio books that move you in the same direction,</div>\n    <div class=\"paragraph card-text card-stanza my-5 text-center\">you'll go from listening about something to becoming a participant in thinking about it.</div>\n  </div>\n</div>\n<div class=\"card card-section bg-dark text-warning shadow\">\n  <div class=\"section card-body mb-0 my-2\">\n    <div class=\"paragraph card-text card-stanza my-5 text-center\">It is a feeling so powerful at first,</div>\n    <div class=\"paragraph card-text card-stanza my-5 text-center\">that some become convinced they are geniuses,</div>\n    <div class=\"paragraph card-text card-stanza my-5 text-center\">and have deeper knowledge</div>\n  </div>\n</div>\n<div class=\"card card-section bg-dark text-warning shadow\">\n  <div class=\"section card-body mb-0 my-2\">\n    <div class=\"paragraph card-text card-stanza my-5 text-center\">\"Nope! that's just your first tipping point dude,</div>\n    <div class=\"paragraph card-text card-stanza my-5 text-center\">keep going though, because you are just about as amazing as you think you are, don't stop learning\".</div>\n  </div>\n</div>\n<div class=\"card card-section bg-dark text-warning shadow\">\n  <div class=\"section card-body mb-0 my-2\">\n    <div class=\"paragraph card-text card-stanza my-5 text-center\">The more tipping points, and plateaus,</div>\n    <div class=\"paragraph card-text card-stanza my-5 text-center\">upon which we rests as we move towards the sunny parts of our mountain range.</div>\n  </div>\n</div>\n<div class=\"card card-section bg-dark text-warning shadow\">\n  <div class=\"section card-body mb-0 my-2\">\n    <div class=\"paragraph card-text card-stanza my-5 text-center\">The more capable we become, the more we can synthesize,</div>\n    <div class=\"paragraph card-text card-stanza my-5 text-center\">and the more of the things we synthesize slowly do become unique and amazing.</div>\n  </div>\n</div>\n<div class=\"card card-section bg-dark text-warning shadow\">\n  <div class=\"section card-body mb-0 my-2\">\n    <div class=\"paragraph card-text card-stanza my-5 text-center\">Finally, the more we know,</div>\n    <div class=\"paragraph card-text card-stanza my-5 text-center\">the easier it is to understand other people's works,</div>\n    <div class=\"paragraph card-text card-stanza my-5 text-center\">we begin sharing more and more with other creators.</div>\n  </div>\n</div>\n<div class=\"card card-section bg-dark text-warning shadow\">\n  <div class=\"section card-body mb-0 my-2\">\n    <div class=\"paragraph card-text card-stanza my-5 text-center\">That's Real Education,</div>\n    <div class=\"paragraph card-text card-stanza my-5 text-center\">we become specialists in our own unique corners of the world,</div>\n  </div>\n</div>\n<div class=\"card card-section bg-dark text-warning shadow\">\n  <div class=\"section card-body mb-0 my-2\">\n    <div class=\"paragraph card-text card-stanza my-5 text-center\">Eventually we too get stung by the urge to share what we know,</div>\n    <div class=\"paragraph card-text card-stanza my-5 text-center\">both the unique little discoveries or contributions we made,</div>\n    <div class=\"paragraph card-text card-stanza my-5 text-center\">and in memoirs that describe all the twisty little passages that got us there.</div>\n  </div>\n</div>",
  "print": "<div class=\"section avoid-break-inside\" style=\"padding-bottom: 2rem;\">\n  <div class=\"paragraph\">When you gather a comfortable amount of observation,</div>\n  <div class=\"paragraph\">there is a moment when you go from observer to creator.</div>\n</div>\n<div class=\"section avoid-break-inside\" style=\"padding-bottom: 2rem;\">\n  <div class=\"paragraph\">It is similar to how you arrive in a new city,</div>\n  <div class=\"paragraph\">at first you are unsure, but eventually it becomes your home town.</div>\n</div>\n<div class=\"section avoid-break-inside\" style=\"padding-bottom: 2rem;\">\n  <div class=\"paragraph\">In politics, politicians so through something similar,</div>\n  <div class=\"paragraph\">but it is a mistake, they become comfortable around manipulators,</div>\n  <div class=\"paragraph\">and get comfortable with manipulating, propagating the blight.</div>\n</div>\n<div class=\"section avoid-break-inside\" style=\"padding-bottom: 2rem;\">\n  <div class=\"paragraph\">In the world of books, the authors that resonate with you,</div>\n  <div class=\"paragraph\">become your friends, Carl Sagan, Bill Bryson, Dan Brown,</div>\n  <div class=\"paragraph\">they become family and you get to know them in your own way.</div>\n</div>\n<div class=\"section avoid-break-inside\" style=\"padding-bottom: 2rem;\">\n  <div class=\"paragraph\">In world adventures, it is called going native, or emanating mana,</div>\n  <div class=\"paragraph\">one moment you are an outsider, and the next you are riding a bull to work,</div>\n  <div class=\"paragraph\">where you spend your days working hard on digging new wells,</div>\n  <div class=\"paragraph\">hurrying to finish before your visa expires and you have get back to the loud and filthy city.</div>\n</div>\n<div class=\"section avoid-break-inside\" style=\"padding-bottom: 2rem;\">\n  <div class=\"paragraph\">When knowledge becomes internalized, it becomes wisdom,</div>\n  <div class=\"paragraph\">you become able to synthesize more knowledge out of what you already know,</div>\n  <div class=\"paragraph\">some call it Enlightenment.</div>\n</div>\n<div class=\"section avoid-break-inside\" style=\"padding-bottom: 2rem;\">\n  <div class=\"paragraph\">It all cases, it is natural, human, simple and easy to get to,</div>\n  <div class=\"paragraph\">it is not rare, it is not a power granted only to special people,</div>\n  <div class=\"paragraph\">it is a power that makes people more special.</div>\n</div>\n<div class=\"section avoid-break-inside\" style=\"padding-bottom: 2rem;\">\n  <div class=\"paragraph\">If you read enough audio books that move you in the same direction,</div>\n  <div class=\"paragraph\">you'll go from listening about something to becoming a participant in thinking about it.</div>\n</div>\n<div class=\"section avoid-break-inside\" style=\"padding-bottom: 2rem;\">\n  <div class=\"paragraph\">It is a feeling so powerful at first,</div>\n  <div class=\"paragraph\">that some become convinced they are geniuses,</div>\n  <div class=\"paragraph\">and have deeper knowledge</div>\n</div>\n<div class=\"section avoid-break-inside\" style=\"padding-bottom: 2rem;\">\n  <div class=\"paragraph\">\"Nope! that's just your first tipping point dude,</div>\n  <div class=\"paragraph\">keep going though, because you are just about as amazing as you think you are, don't stop learning\".</div>\n</div>\n<div class=\"section avoid-break-inside\" style=\"padding-bottom: 2rem;\">\n  <div class=\"paragraph\">The more tipping points, and plateaus,</div>\n  <div class=\"paragraph\">upon which we rests as we move towards the sunny parts of our mountain range.</div>\n</div>\n<div class=\"section avoid-break-inside\" style=\"padding-bottom: 2rem;\">\n  <div class=\"paragraph\">The more capable we become, the more we can synthesize,</div>\n  <div class=\"paragraph\">and the more of the things we synthesize slowly do become unique and amazing.</div>\n</div>\n<div class=\"section avoid-break-inside\" style=\"padding-bottom: 2rem;\">\n  <div class=\"paragraph\">Finally, the more we know,</div>\n  <div class=\"paragraph\">the easier it is to understand other people's works,</div>\n  <div class=\"paragraph\">we begin sharing more and more with other creators.</div>\n</div>\n<div class=\"section avoid-break-inside\" style=\"padding-bottom: 2rem;\">\n  <div class=\"paragraph\">That's Real Education,</div>\n  <div class=\"paragraph\">we become specialists in our own unique corners of the world,</div>\n</div>\n<div class=\"section avoid-break-inside\" style=\"padding-bottom: 2rem;\">\n  <div class=\"paragraph\">Eventually we too get stung by the urge to share what we know,</div>\n  <div class=\"paragraph\">both the unique little discoveries or contributions we made,</div>\n  <div class=\"paragraph\">and in memoirs that describe all the twisty little passages that got us there.</div>\n</div>",
  "text": "When you gather a comfortable amount of observation,\nthere is a moment when you go from observer to creator.\nIt is similar to how you arrive in a new city,\nat first you are unsure, but eventually it becomes your home town.\nIn politics, politicians so through something similar,\nbut it is a mistake, they become comfortable around manipulators,\nand get comfortable with manipulating, propagating the blight.\nIn the world of books, the authors that resonate with you,\nbecome your friends, Carl Sagan, Bill Bryson, Dan Brown,\nthey become family and you get to know them in your own way.\nIn world adventures, it is called going native, or emanating mana,\none moment you are an outsider, and the next you are riding a bull to work,\nwhere you spend your days working hard on digging new wells,\nhurrying to finish before your visa expires and you have get back to the loud and filthy city.\nWhen knowledge becomes internalized, it becomes wisdom,\nyou become able to synthesize more knowledge out of what you already know,\nsome call it Enlightenment.\nIt all cases, it is natural, human, simple and easy to get to,\nit is not rare, it is not a power granted only to special people,\nit is a power that makes people more special.\nIf you read enough audio books that move you in the same direction,\nyou'll go from listening about something to becoming a participant in thinking about it.\nIt is a feeling so powerful at first,\nthat some become convinced they are geniuses,\nand have deeper knowledge\n\"Nope! that's just your first tipping point dude,\nkeep going though, because you are just about as amazing as you think you are, don't stop learning\".\nThe more tipping points, and plateaus,\nupon which we rests as we move towards the sunny parts of our mountain range.\nThe more capable we become, the more we can synthesize,\nand the more of the things we synthesize slowly do become unique and amazing.\nFinally, the more we know,\nthe easier it is to understand other people's works,\nwe begin sharing more and more with other creators.\nThat's Real Education,\nwe become specialists in our own unique corners of the world,\nEventually we too get stung by the urge to share what we know,\nboth the unique little discoveries or contributions we made,\nand in memoirs that describe all the twisty little passages that got us there.",
  "images": [],
  "links": []
}