{
  "name": "furkies-purrkies-poetry-0217",
  "title": "The World Belongs To You",
  "date": "2020-10-03T15:15:42.153Z",
  "image": "poetry-0217-illustration.jpg",
  "audio": "poetry-0217.mp3",
  "artwork": "https://unsplash.com/photos/3tkxfe2GocY",
  "id": "furkies-purrkies-poetry-0217",
  "attachments": {},
  "guid": "3f748386-d469-4389-943b-21277f397e7a",
  "html": "<div class=\"section\">\n  <p>By the time you realize how true it is that the world is yours,</p>\n  <p>all the authority figures you once knew, will have retired.</p>\n</div>\n<div class=\"section\">\n  <p>So in teenage days, just as teachers are brainlessly trying to convince everyone,</p>\n  <p>that we are not good enough because we don&apos;t listen, or because we are failing their questionable curriculum.</p>\n</div>\n<div class=\"section\">\n  <p>We actually need to take a step back,</p>\n  <p>and find a way to learn for real.</p>\n</div>\n<div class=\"section\">\n  <p>Because even if, we don&apos;t waste, a single day,</p>\n  <p>real life will do a pretty good job at overwhelming us anyway.</p>\n</div>\n<div class=\"section\">\n  <hr>\n</div>\n<div class=\"section\">\n  <p>You need to be learning hard,</p>\n  <p>with your friends.</p>\n</div>\n<div class=\"section\">\n  <p>You need to be learning,</p>\n  <p>from Lectures, Documentaries, Audio Books, Maker Shops and Hacker Spaces.</p>\n</div>\n<div class=\"section\">\n  <p>You need to be learning how to build real businesses,</p>\n  <p>that have a long lasting impact on your community, and maybe the world.</p>\n</div>\n<div class=\"section\">\n  <hr>\n</div>\n<div class=\"section\">\n  <p>For those of us who aren&apos;t going into cozy Science or Medicine,</p>\n  <p>we need to come out of High School fists up, fighting, and swinging and kicking.</p>\n</div>\n<div class=\"section\">\n  <p>Because it is not college that should follow High School,</p>\n  <p>college is something you do for entertainment.</p>\n</div>\n<div class=\"section\">\n  <p>Taking late classes to unwind,</p>\n  <p>and sharpen your memorization and concept mapping skills.</p>\n</div>\n<div class=\"section\">\n  <p>After High School, you need to put an A-Team together, bitchy parents included,</p>\n  <p>and cross the <a href=\"https://www.youtube.com/watch?v=hPSvdKTEZug\">Appalachian Trail</a>, and keep in mind, that you may become a regular hiker.</p>\n</div>\n<div class=\"section\">\n  <p>After High School,</p>\n  <p>your first and only aim, is to find a reasonable path to Greatness.</p>\n</div>\n<div class=\"section\">\n  <hr>\n</div>\n<div class=\"section\">\n  <p>Do you hear me,</p>\n  <p>My Friends?</p>\n</div>\n<div class=\"section\">\n  <p>Greatness... because everywhere else,</p>\n  <p>somehow, unforgivably, may just lead right back to the start.</p>\n</div>\n<div class=\"section\">\n  <hr>\n</div>\n<div class=\"section\">\n  <p>You just don&apos;t know what it is going to be like when you return,</p>\n  <p>but you will be part mountain goat, part wild person that comfortably sh*ts in the woods.</p>\n</div>\n<div class=\"section\">\n  <p>And what is more, my friends, you will know, that should life ever challenge you,</p>\n  <p>you will be able to handle it, with Heart and Soul, with Wisdom, Humor and Grace.</p>\n</div>\n<div class=\"section\">\n  <p>There is not a moment to waste, there is not a day to pass,</p>\n  <p>make everyone of them count, and then help others to their own paths.</p>\n</div>\n<div class=\"section\">\n  <p>Remind your younger generation,</p>\n  <p>that they are not to lead sleepy lives of <a href=\"https://www.youtube.com/watch?v=mmtEiOs50u0\">mild discontent</a>.</p>\n</div>\n<div class=\"section\">\n  <hr>\n</div>\n<div class=\"section\">\n  <p>You are the future, you are wisdom that the world needs to survive,</p>\n  <p>you are the leaders that are all the Hopes and Dreams of the past generations,</p>\n  <p>and your rightful stance in life, is that of a Great Being, and nothing less.</p>\n</div>",
  "bootstrap": "<div class=\"card card-section bg-dark text-warning shadow\">\n  <div class=\"section card-body mb-0 my-2\">\n    <div class=\"paragraph card-text card-stanza my-5 text-center\">By the time you realize how true it is that the world is yours,</div>\n    <div class=\"paragraph card-text card-stanza my-5 text-center\">all the authority figures you once knew, will have retired.</div>\n  </div>\n</div>\n<div class=\"card card-section bg-dark text-warning shadow\">\n  <div class=\"section card-body mb-0 my-2\">\n    <div class=\"paragraph card-text card-stanza my-5 text-center\">So in teenage days, just as teachers are brainlessly trying to convince everyone,</div>\n    <div class=\"paragraph card-text card-stanza my-5 text-center\">that we are not good enough because we don't listen, or because we are failing their questionable curriculum.</div>\n  </div>\n</div>\n<div class=\"card card-section bg-dark text-warning shadow\">\n  <div class=\"section card-body mb-0 my-2\">\n    <div class=\"paragraph card-text card-stanza my-5 text-center\">We actually need to take a step back,</div>\n    <div class=\"paragraph card-text card-stanza my-5 text-center\">and find a way to learn for real.</div>\n  </div>\n</div>\n<div class=\"card card-section bg-dark text-warning shadow\">\n  <div class=\"section card-body mb-0 my-2\">\n    <div class=\"paragraph card-text card-stanza my-5 text-center\">Because even if, we don't waste, a single day,</div>\n    <div class=\"paragraph card-text card-stanza my-5 text-center\">real life will do a pretty good job at overwhelming us anyway.</div>\n  </div>\n</div>\n<div class=\"mb-5 section-spacer\">&nbsp;</div>\n<div class=\"card card-section bg-dark text-warning shadow\">\n  <div class=\"section card-body mb-0 my-2\">\n    <div class=\"paragraph card-text card-stanza my-5 text-center\">You need to be learning hard,</div>\n    <div class=\"paragraph card-text card-stanza my-5 text-center\">with your friends.</div>\n  </div>\n</div>\n<div class=\"card card-section bg-dark text-warning shadow\">\n  <div class=\"section card-body mb-0 my-2\">\n    <div class=\"paragraph card-text card-stanza my-5 text-center\">You need to be learning,</div>\n    <div class=\"paragraph card-text card-stanza my-5 text-center\">from Lectures, Documentaries, Audio Books, Maker Shops and Hacker Spaces.</div>\n  </div>\n</div>\n<div class=\"card card-section bg-dark text-warning shadow\">\n  <div class=\"section card-body mb-0 my-2\">\n    <div class=\"paragraph card-text card-stanza my-5 text-center\">You need to be learning how to build real businesses,</div>\n    <div class=\"paragraph card-text card-stanza my-5 text-center\">that have a long lasting impact on your community, and maybe the world.</div>\n  </div>\n</div>\n<div class=\"mb-5 section-spacer\">&nbsp;</div>\n<div class=\"card card-section bg-dark text-warning shadow\">\n  <div class=\"section card-body mb-0 my-2\">\n    <div class=\"paragraph card-text card-stanza my-5 text-center\">For those of us who aren't going into cozy Science or Medicine,</div>\n    <div class=\"paragraph card-text card-stanza my-5 text-center\">we need to come out of High School fists up, fighting, and swinging and kicking.</div>\n  </div>\n</div>\n<div class=\"card card-section bg-dark text-warning shadow\">\n  <div class=\"section card-body mb-0 my-2\">\n    <div class=\"paragraph card-text card-stanza my-5 text-center\">Because it is not college that should follow High School,</div>\n    <div class=\"paragraph card-text card-stanza my-5 text-center\">college is something you do for entertainment.</div>\n  </div>\n</div>\n<div class=\"card card-section bg-dark text-warning shadow\">\n  <div class=\"section card-body mb-0 my-2\">\n    <div class=\"paragraph card-text card-stanza my-5 text-center\">Taking late classes to unwind,</div>\n    <div class=\"paragraph card-text card-stanza my-5 text-center\">and sharpen your memorization and concept mapping skills.</div>\n  </div>\n</div>\n<div class=\"card card-section bg-dark text-warning shadow\">\n  <div class=\"section card-body mb-0 my-2\">\n    <div class=\"paragraph card-text card-stanza my-5 text-center\">After High School, you need to put an A-Team together, bitchy parents included,</div>\n    <div class=\"paragraph card-text card-stanza my-5 text-center\">and cross the <a href=\"https://www.youtube.com/watch?v=hPSvdKTEZug\">Appalachian Trail</a>, and keep in mind, that you may become a regular hiker.</div>\n  </div>\n</div>\n<div class=\"card card-section bg-dark text-warning shadow\">\n  <div class=\"section card-body mb-0 my-2\">\n    <div class=\"paragraph card-text card-stanza my-5 text-center\">After High School,</div>\n    <div class=\"paragraph card-text card-stanza my-5 text-center\">your first and only aim, is to find a reasonable path to Greatness.</div>\n  </div>\n</div>\n<div class=\"mb-5 section-spacer\">&nbsp;</div>\n<div class=\"card card-section bg-dark text-warning shadow\">\n  <div class=\"section card-body mb-0 my-2\">\n    <div class=\"paragraph card-text card-stanza my-5 text-center\">Do you hear me,</div>\n    <div class=\"paragraph card-text card-stanza my-5 text-center\">My Friends?</div>\n  </div>\n</div>\n<div class=\"card card-section bg-dark text-warning shadow\">\n  <div class=\"section card-body mb-0 my-2\">\n    <div class=\"paragraph card-text card-stanza my-5 text-center\">Greatness... because everywhere else,</div>\n    <div class=\"paragraph card-text card-stanza my-5 text-center\">somehow, unforgivably, may just lead right back to the start.</div>\n  </div>\n</div>\n<div class=\"mb-5 section-spacer\">&nbsp;</div>\n<div class=\"card card-section bg-dark text-warning shadow\">\n  <div class=\"section card-body mb-0 my-2\">\n    <div class=\"paragraph card-text card-stanza my-5 text-center\">You just don't know what it is going to be like when you return,</div>\n    <div class=\"paragraph card-text card-stanza my-5 text-center\">but you will be part mountain goat, part wild person that comfortably sh*ts in the woods.</div>\n  </div>\n</div>\n<div class=\"card card-section bg-dark text-warning shadow\">\n  <div class=\"section card-body mb-0 my-2\">\n    <div class=\"paragraph card-text card-stanza my-5 text-center\">And what is more, my friends, you will know, that should life ever challenge you,</div>\n    <div class=\"paragraph card-text card-stanza my-5 text-center\">you will be able to handle it, with Heart and Soul, with Wisdom, Humor and Grace.</div>\n  </div>\n</div>\n<div class=\"card card-section bg-dark text-warning shadow\">\n  <div class=\"section card-body mb-0 my-2\">\n    <div class=\"paragraph card-text card-stanza my-5 text-center\">There is not a moment to waste, there is not a day to pass,</div>\n    <div class=\"paragraph card-text card-stanza my-5 text-center\">make everyone of them count, and then help others to their own paths.</div>\n  </div>\n</div>\n<div class=\"card card-section bg-dark text-warning shadow\">\n  <div class=\"section card-body mb-0 my-2\">\n    <div class=\"paragraph card-text card-stanza my-5 text-center\">Remind your younger generation,</div>\n    <div class=\"paragraph card-text card-stanza my-5 text-center\">that they are not to lead sleepy lives of <a href=\"https://www.youtube.com/watch?v=mmtEiOs50u0\">mild discontent</a>.</div>\n  </div>\n</div>\n<div class=\"mb-5 section-spacer\">&nbsp;</div>\n<div class=\"card card-section bg-dark text-warning shadow\">\n  <div class=\"section card-body mb-0 my-2\">\n    <div class=\"paragraph card-text card-stanza my-5 text-center\">You are the future, you are wisdom that the world needs to survive,</div>\n    <div class=\"paragraph card-text card-stanza my-5 text-center\">you are the leaders that are all the Hopes and Dreams of the past generations,</div>\n    <div class=\"paragraph card-text card-stanza my-5 text-center\">and your rightful stance in life, is that of a Great Being, and nothing less.</div>\n  </div>\n</div>",
  "print": "<div class=\"section avoid-break-inside\" style=\"padding-bottom: 2rem;\">\n  <div class=\"paragraph\">By the time you realize how true it is that the world is yours,</div>\n  <div class=\"paragraph\">all the authority figures you once knew, will have retired.</div>\n</div>\n<div class=\"section avoid-break-inside\" style=\"padding-bottom: 2rem;\">\n  <div class=\"paragraph\">So in teenage days, just as teachers are brainlessly trying to convince everyone,</div>\n  <div class=\"paragraph\">that we are not good enough because we don't listen, or because we are failing their questionable curriculum.</div>\n</div>\n<div class=\"section avoid-break-inside\" style=\"padding-bottom: 2rem;\">\n  <div class=\"paragraph\">We actually need to take a step back,</div>\n  <div class=\"paragraph\">and find a way to learn for real.</div>\n</div>\n<div class=\"section avoid-break-inside\" style=\"padding-bottom: 2rem;\">\n  <div class=\"paragraph\">Because even if, we don't waste, a single day,</div>\n  <div class=\"paragraph\">real life will do a pretty good job at overwhelming us anyway.</div>\n</div>\n<div class=\"section avoid-break-inside\" style=\"padding-bottom: 2rem;\">\n  <br>\n</div>\n<div class=\"section avoid-break-inside\" style=\"padding-bottom: 2rem;\">\n  <div class=\"paragraph\">You need to be learning hard,</div>\n  <div class=\"paragraph\">with your friends.</div>\n</div>\n<div class=\"section avoid-break-inside\" style=\"padding-bottom: 2rem;\">\n  <div class=\"paragraph\">You need to be learning,</div>\n  <div class=\"paragraph\">from Lectures, Documentaries, Audio Books, Maker Shops and Hacker Spaces.</div>\n</div>\n<div class=\"section avoid-break-inside\" style=\"padding-bottom: 2rem;\">\n  <div class=\"paragraph\">You need to be learning how to build real businesses,</div>\n  <div class=\"paragraph\">that have a long lasting impact on your community, and maybe the world.</div>\n</div>\n<div class=\"section avoid-break-inside\" style=\"padding-bottom: 2rem;\">\n  <br>\n</div>\n<div class=\"section avoid-break-inside\" style=\"padding-bottom: 2rem;\">\n  <div class=\"paragraph\">For those of us who aren't going into cozy Science or Medicine,</div>\n  <div class=\"paragraph\">we need to come out of High School fists up, fighting, and swinging and kicking.</div>\n</div>\n<div class=\"section avoid-break-inside\" style=\"padding-bottom: 2rem;\">\n  <div class=\"paragraph\">Because it is not college that should follow High School,</div>\n  <div class=\"paragraph\">college is something you do for entertainment.</div>\n</div>\n<div class=\"section avoid-break-inside\" style=\"padding-bottom: 2rem;\">\n  <div class=\"paragraph\">Taking late classes to unwind,</div>\n  <div class=\"paragraph\">and sharpen your memorization and concept mapping skills.</div>\n</div>\n<div class=\"section avoid-break-inside\" style=\"padding-bottom: 2rem;\">\n  <div class=\"paragraph\">After High School, you need to put an A-Team together, bitchy parents included,</div>\n  <div class=\"paragraph\">and cross the <span>Appalachian Trail<sup>[1]</sup></span>, and keep in mind, that you may become a regular hiker.</div>\n</div>\n<div class=\"section avoid-break-inside\" style=\"padding-bottom: 2rem;\">\n  <div class=\"paragraph\">After High School,</div>\n  <div class=\"paragraph\">your first and only aim, is to find a reasonable path to Greatness.</div>\n</div>\n<div class=\"section avoid-break-inside\" style=\"padding-bottom: 2rem;\">\n  <br>\n</div>\n<div class=\"section avoid-break-inside\" style=\"padding-bottom: 2rem;\">\n  <div class=\"paragraph\">Do you hear me,</div>\n  <div class=\"paragraph\">My Friends?</div>\n</div>\n<div class=\"section avoid-break-inside\" style=\"padding-bottom: 2rem;\">\n  <div class=\"paragraph\">Greatness... because everywhere else,</div>\n  <div class=\"paragraph\">somehow, unforgivably, may just lead right back to the start.</div>\n</div>\n<div class=\"section avoid-break-inside\" style=\"padding-bottom: 2rem;\">\n  <br>\n</div>\n<div class=\"section avoid-break-inside\" style=\"padding-bottom: 2rem;\">\n  <div class=\"paragraph\">You just don't know what it is going to be like when you return,</div>\n  <div class=\"paragraph\">but you will be part mountain goat, part wild person that comfortably sh*ts in the woods.</div>\n</div>\n<div class=\"section avoid-break-inside\" style=\"padding-bottom: 2rem;\">\n  <div class=\"paragraph\">And what is more, my friends, you will know, that should life ever challenge you,</div>\n  <div class=\"paragraph\">you will be able to handle it, with Heart and Soul, with Wisdom, Humor and Grace.</div>\n</div>\n<div class=\"section avoid-break-inside\" style=\"padding-bottom: 2rem;\">\n  <div class=\"paragraph\">There is not a moment to waste, there is not a day to pass,</div>\n  <div class=\"paragraph\">make everyone of them count, and then help others to their own paths.</div>\n</div>\n<div class=\"section avoid-break-inside\" style=\"padding-bottom: 2rem;\">\n  <div class=\"paragraph\">Remind your younger generation,</div>\n  <div class=\"paragraph\">that they are not to lead sleepy lives of <span>mild discontent<sup>[2]</sup></span>.</div>\n</div>\n<div class=\"section avoid-break-inside\" style=\"padding-bottom: 2rem;\">\n  <br>\n</div>\n<div class=\"section avoid-break-inside\" style=\"padding-bottom: 2rem;\">\n  <div class=\"paragraph\">You are the future, you are wisdom that the world needs to survive,</div>\n  <div class=\"paragraph\">you are the leaders that are all the Hopes and Dreams of the past generations,</div>\n  <div class=\"paragraph\">and your rightful stance in life, is that of a Great Being, and nothing less.</div>\n</div>\n<div class=\"break-after\">&nbsp;</div>\n<div>\n  <div class=\"section\" style=\"padding-bottom: 1rem;\">References</div>\n  <div>[1]: https://www.youtube.com/watch?v=hPSvdKTEZug</div>\n  <div>[2]: https://www.youtube.com/watch?v=mmtEiOs50u0</div>\n</div>",
  "text": "By the time you realize how true it is that the world is yours,\nall the authority figures you once knew, will have retired.\nSo in teenage days, just as teachers are brainlessly trying to convince everyone,\nthat we are not good enough because we don't listen, or because we are failing their questionable curriculum.\nWe actually need to take a step back,\nand find a way to learn for real.\nBecause even if, we don't waste, a single day,\nreal life will do a pretty good job at overwhelming us anyway.\n\nYou need to be learning hard,\nwith your friends.\nYou need to be learning,\nfrom Lectures, Documentaries, Audio Books, Maker Shops and Hacker Spaces.\nYou need to be learning how to build real businesses,\nthat have a long lasting impact on your community, and maybe the world.\n\nFor those of us who aren't going into cozy Science or Medicine,\nwe need to come out of High School fists up, fighting, and swinging and kicking.\nBecause it is not college that should follow High School,\ncollege is something you do for entertainment.\nTaking late classes to unwind,\nand sharpen your memorization and concept mapping skills.\nAfter High School, you need to put an A-Team together, bitchy parents included,\nand cross the Appalachian Trail[1], and keep in mind, that you may become a regular hiker.\nAfter High School,\nyour first and only aim, is to find a reasonable path to Greatness.\n\nDo you hear me,\nMy Friends?\nGreatness... because everywhere else,\nsomehow, unforgivably, may just lead right back to the start.\n\nYou just don't know what it is going to be like when you return,\nbut you will be part mountain goat, part wild person that comfortably sh*ts in the woods.\nAnd what is more, my friends, you will know, that should life ever challenge you,\nyou will be able to handle it, with Heart and Soul, with Wisdom, Humor and Grace.\nThere is not a moment to waste, there is not a day to pass,\nmake everyone of them count, and then help others to their own paths.\nRemind your younger generation,\nthat they are not to lead sleepy lives of mild discontent[2].\n\nYou are the future, you are wisdom that the world needs to survive,\nyou are the leaders that are all the Hopes and Dreams of the past generations,\nand your rightful stance in life, is that of a Great Being, and nothing less.\n \nReferences\n[1]: https://www.youtube.com/watch?v=hPSvdKTEZug\n[2]: https://www.youtube.com/watch?v=mmtEiOs50u0",
  "images": [],
  "links": [
    {
      "title": "Appalachian Trail",
      "url": "https://www.youtube.com/watch?v=hPSvdKTEZug",
      "hostname": "www.youtube.com"
    },
    {
      "title": "mild discontent",
      "url": "https://www.youtube.com/watch?v=mmtEiOs50u0",
      "hostname": "www.youtube.com"
    }
  ]
}