{
  "id": "furkies-purrkies-poetry-0595",
  "title": "To Carry On The Hopes And Dreams",
  "date": "2021-10-16T22:50:08.700Z",
  "image": "poetry-0595-illustration.jpg",
  "artwork": "https://unsplash.com/photos/_ETohnW9Ock",
  "audio": "poetry-0595.mp3",
  "guid": "a76f6424-ce2d-4052-a6b1-37075ff90178"
}
