{
  "title": "Karaoke Pokie: A Cappella Eve With The Dr. Meow Quartet",
  "date": "2021-02-06T22:06:30.799Z",
  "image": "poetry-0343-illustration.jpg",
  "audio": "poetry-0343.mp3",
  "artwork": "https://catpea.com/",
  "id": "furkies-purrkies-poetry-0343",
  "attachments": {},
  "guid": "68f9c25e-cef0-40f1-9f95-aae7944c9c52"
}
