{
  "id": "furkies-purrkies-poetry-0822",
  "title": "Prototype Five: Superhero Jewelry Box",
  "date": "2022-05-31T23:12:50.921Z",
  "image": "poetry-0822-illustration.jpg",
  "artwork": "https://catpea.com",
  "audio": "poetry-0822.mp3",
  "guid": "0b162433-c91e-47a7-945b-d988e60c10db"
}
