{
  "id": "furkies-purrkies-poetry-0875",
  "title": "World Peace: Replace Politicians With Cute Cats And Computer Programs",
  "date": "2022-07-23T23:24:06.280Z",
  "image": "poetry-0875-illustration.jpg",
  "artwork": "https://catpea.com",
  "audio": "poetry-0875.mp3",
  "guid": "af593b42-7585-480f-8fe1-29c3cf2ea7ad"
}
