{
  "title": "Make Me Young by Kurt Vonnegut Jr",
  "date": "2020-03-23T20:32:49.019Z",
  "image": "poetry-0008-illustration.jpg",
  "artwork": "https://unsplash.com/photos/l58BGug1EtI",
  "id": "furkies-purrkies-poetry-0008",
  "attachments": {},
  "guid": "c5936669-32d8-4418-9651-b5859c69e4fe"
}
