{
  "name": "furkies-purrkies-poetry-0011",
  "title": "If by Rudyard Kipling",
  "date": "2020-03-24T15:18:57.286Z",
  "image": "poetry-0011-illustration.jpg",
  "artwork": "https://catpea.com/",
  "id": "furkies-purrkies-poetry-0011",
  "attachments": {},
  "guid": "8ca2a36d-f634-49aa-b74a-c51fab150ff4",
  "html": "<div class=\"section\">\n  <p>If&#x2014;</p>\n</div>\n<div class=\"section\">\n  <p>IF you can keep your head when all about you</p>\n  <p>Are losing theirs and blaming it on you,</p>\n  <p>If you can trust yourself when all men doubt you,</p>\n  <p>But make allowance for their doubting too;</p>\n  <p>If you can wait and not be tired by waiting,</p>\n  <p>Or being lied about, don&apos;t deal in lies,</p>\n  <p>Or being hated, don&apos;t give way to hating,</p>\n  <p>And yet don&apos;t look too good, nor talk too wise:</p>\n</div>\n<div class=\"section\">\n  <p>If you can dream - and not make dreams your master;</p>\n  <p>If you can think - and not make thoughts your aim;</p>\n  <p>If you can meet with Triumph and Disaster</p>\n  <p>And treat those two impostors just the same;</p>\n  <p>If you can bear to hear the truth you&apos;ve spoken</p>\n  <p>Twisted by knaves to make a trap for fools,</p>\n  <p>Or watch the things you gave your life to, broken,</p>\n  <p>And stoop and build &apos;em up with worn-out tools:</p>\n</div>\n<div class=\"section\">\n  <p>If you can make one heap of all your winnings</p>\n  <p>And risk it on one turn of pitch-and-toss,</p>\n  <p>And lose, and start again at your beginnings</p>\n  <p>And never breathe a word about your loss;</p>\n  <p>If you can force your heart and nerve and sinew</p>\n  <p>To serve your turn long after they are gone,</p>\n  <p>And so hold on when there is nothing in you</p>\n  <p>Except the Will which says to them: &apos;Hold on!&apos;</p>\n</div>\n<div class=\"section\">\n  <p>If you can talk with crowds and keep your virtue,</p>\n  <p>&apos; Or walk with Kings - nor lose the common touch,</p>\n  <p>if neither foes nor loving friends can hurt you,</p>\n  <p>If all men count with you, but none too much;</p>\n  <p>If you can fill the unforgiving minute</p>\n  <p>With sixty seconds&apos; worth of distance run,</p>\n  <p>Yours is the Earth and everything that&apos;s in it,</p>\n  <p>And - which is more - you&apos;ll be a Man, my son!</p>\n</div>",
  "bootstrap": "<div class=\"card card-section bg-dark text-warning shadow\">\n  <div class=\"section card-body mb-0 my-2\">\n    <div class=\"paragraph card-text card-stanza my-5 text-center\">If—</div>\n  </div>\n</div>\n<div class=\"card card-section bg-dark text-warning shadow\">\n  <div class=\"section card-body mb-0 my-2\">\n    <div class=\"paragraph card-text card-stanza my-5 text-center\">IF you can keep your head when all about you</div>\n    <div class=\"paragraph card-text card-stanza my-5 text-center\">Are losing theirs and blaming it on you,</div>\n    <div class=\"paragraph card-text card-stanza my-5 text-center\">If you can trust yourself when all men doubt you,</div>\n    <div class=\"paragraph card-text card-stanza my-5 text-center\">But make allowance for their doubting too;</div>\n    <div class=\"paragraph card-text card-stanza my-5 text-center\">If you can wait and not be tired by waiting,</div>\n    <div class=\"paragraph card-text card-stanza my-5 text-center\">Or being lied about, don't deal in lies,</div>\n    <div class=\"paragraph card-text card-stanza my-5 text-center\">Or being hated, don't give way to hating,</div>\n    <div class=\"paragraph card-text card-stanza my-5 text-center\">And yet don't look too good, nor talk too wise:</div>\n  </div>\n</div>\n<div class=\"card card-section bg-dark text-warning shadow\">\n  <div class=\"section card-body mb-0 my-2\">\n    <div class=\"paragraph card-text card-stanza my-5 text-center\">If you can dream - and not make dreams your master;</div>\n    <div class=\"paragraph card-text card-stanza my-5 text-center\">If you can think - and not make thoughts your aim;</div>\n    <div class=\"paragraph card-text card-stanza my-5 text-center\">If you can meet with Triumph and Disaster</div>\n    <div class=\"paragraph card-text card-stanza my-5 text-center\">And treat those two impostors just the same;</div>\n    <div class=\"paragraph card-text card-stanza my-5 text-center\">If you can bear to hear the truth you've spoken</div>\n    <div class=\"paragraph card-text card-stanza my-5 text-center\">Twisted by knaves to make a trap for fools,</div>\n    <div class=\"paragraph card-text card-stanza my-5 text-center\">Or watch the things you gave your life to, broken,</div>\n    <div class=\"paragraph card-text card-stanza my-5 text-center\">And stoop and build 'em up with worn-out tools:</div>\n  </div>\n</div>\n<div class=\"card card-section bg-dark text-warning shadow\">\n  <div class=\"section card-body mb-0 my-2\">\n    <div class=\"paragraph card-text card-stanza my-5 text-center\">If you can make one heap of all your winnings</div>\n    <div class=\"paragraph card-text card-stanza my-5 text-center\">And risk it on one turn of pitch-and-toss,</div>\n    <div class=\"paragraph card-text card-stanza my-5 text-center\">And lose, and start again at your beginnings</div>\n    <div class=\"paragraph card-text card-stanza my-5 text-center\">And never breathe a word about your loss;</div>\n    <div class=\"paragraph card-text card-stanza my-5 text-center\">If you can force your heart and nerve and sinew</div>\n    <div class=\"paragraph card-text card-stanza my-5 text-center\">To serve your turn long after they are gone,</div>\n    <div class=\"paragraph card-text card-stanza my-5 text-center\">And so hold on when there is nothing in you</div>\n    <div class=\"paragraph card-text card-stanza my-5 text-center\">Except the Will which says to them: 'Hold on!'</div>\n  </div>\n</div>\n<div class=\"card card-section bg-dark text-warning shadow\">\n  <div class=\"section card-body mb-0 my-2\">\n    <div class=\"paragraph card-text card-stanza my-5 text-center\">If you can talk with crowds and keep your virtue,</div>\n    <div class=\"paragraph card-text card-stanza my-5 text-center\">' Or walk with Kings - nor lose the common touch,</div>\n    <div class=\"paragraph card-text card-stanza my-5 text-center\">if neither foes nor loving friends can hurt you,</div>\n    <div class=\"paragraph card-text card-stanza my-5 text-center\">If all men count with you, but none too much;</div>\n    <div class=\"paragraph card-text card-stanza my-5 text-center\">If you can fill the unforgiving minute</div>\n    <div class=\"paragraph card-text card-stanza my-5 text-center\">With sixty seconds' worth of distance run,</div>\n    <div class=\"paragraph card-text card-stanza my-5 text-center\">Yours is the Earth and everything that's in it,</div>\n    <div class=\"paragraph card-text card-stanza my-5 text-center\">And - which is more - you'll be a Man, my son!</div>\n  </div>\n</div>",
  "print": "<div class=\"section avoid-break-inside\" style=\"padding-bottom: 2rem;\">\n  <div class=\"paragraph\">If—</div>\n</div>\n<div class=\"section avoid-break-inside\" style=\"padding-bottom: 2rem;\">\n  <div class=\"paragraph\">IF you can keep your head when all about you</div>\n  <div class=\"paragraph\">Are losing theirs and blaming it on you,</div>\n  <div class=\"paragraph\">If you can trust yourself when all men doubt you,</div>\n  <div class=\"paragraph\">But make allowance for their doubting too;</div>\n  <div class=\"paragraph\">If you can wait and not be tired by waiting,</div>\n  <div class=\"paragraph\">Or being lied about, don't deal in lies,</div>\n  <div class=\"paragraph\">Or being hated, don't give way to hating,</div>\n  <div class=\"paragraph\">And yet don't look too good, nor talk too wise:</div>\n</div>\n<div class=\"section avoid-break-inside\" style=\"padding-bottom: 2rem;\">\n  <div class=\"paragraph\">If you can dream - and not make dreams your master;</div>\n  <div class=\"paragraph\">If you can think - and not make thoughts your aim;</div>\n  <div class=\"paragraph\">If you can meet with Triumph and Disaster</div>\n  <div class=\"paragraph\">And treat those two impostors just the same;</div>\n  <div class=\"paragraph\">If you can bear to hear the truth you've spoken</div>\n  <div class=\"paragraph\">Twisted by knaves to make a trap for fools,</div>\n  <div class=\"paragraph\">Or watch the things you gave your life to, broken,</div>\n  <div class=\"paragraph\">And stoop and build 'em up with worn-out tools:</div>\n</div>\n<div class=\"section avoid-break-inside\" style=\"padding-bottom: 2rem;\">\n  <div class=\"paragraph\">If you can make one heap of all your winnings</div>\n  <div class=\"paragraph\">And risk it on one turn of pitch-and-toss,</div>\n  <div class=\"paragraph\">And lose, and start again at your beginnings</div>\n  <div class=\"paragraph\">And never breathe a word about your loss;</div>\n  <div class=\"paragraph\">If you can force your heart and nerve and sinew</div>\n  <div class=\"paragraph\">To serve your turn long after they are gone,</div>\n  <div class=\"paragraph\">And so hold on when there is nothing in you</div>\n  <div class=\"paragraph\">Except the Will which says to them: 'Hold on!'</div>\n</div>\n<div class=\"section avoid-break-inside\" style=\"padding-bottom: 2rem;\">\n  <div class=\"paragraph\">If you can talk with crowds and keep your virtue,</div>\n  <div class=\"paragraph\">' Or walk with Kings - nor lose the common touch,</div>\n  <div class=\"paragraph\">if neither foes nor loving friends can hurt you,</div>\n  <div class=\"paragraph\">If all men count with you, but none too much;</div>\n  <div class=\"paragraph\">If you can fill the unforgiving minute</div>\n  <div class=\"paragraph\">With sixty seconds' worth of distance run,</div>\n  <div class=\"paragraph\">Yours is the Earth and everything that's in it,</div>\n  <div class=\"paragraph\">And - which is more - you'll be a Man, my son!</div>\n</div>",
  "text": "If—\nIF you can keep your head when all about you\nAre losing theirs and blaming it on you,\nIf you can trust yourself when all men doubt you,\nBut make allowance for their doubting too;\nIf you can wait and not be tired by waiting,\nOr being lied about, don't deal in lies,\nOr being hated, don't give way to hating,\nAnd yet don't look too good, nor talk too wise:\nIf you can dream - and not make dreams your master;\nIf you can think - and not make thoughts your aim;\nIf you can meet with Triumph and Disaster\nAnd treat those two impostors just the same;\nIf you can bear to hear the truth you've spoken\nTwisted by knaves to make a trap for fools,\nOr watch the things you gave your life to, broken,\nAnd stoop and build 'em up with worn-out tools:\nIf you can make one heap of all your winnings\nAnd risk it on one turn of pitch-and-toss,\nAnd lose, and start again at your beginnings\nAnd never breathe a word about your loss;\nIf you can force your heart and nerve and sinew\nTo serve your turn long after they are gone,\nAnd so hold on when there is nothing in you\nExcept the Will which says to them: 'Hold on!'\nIf you can talk with crowds and keep your virtue,\n' Or walk with Kings - nor lose the common touch,\nif neither foes nor loving friends can hurt you,\nIf all men count with you, but none too much;\nIf you can fill the unforgiving minute\nWith sixty seconds' worth of distance run,\nYours is the Earth and everything that's in it,\nAnd - which is more - you'll be a Man, my son!",
  "images": [],
  "links": []
}