{
  "name": "furkies-purrkies-poetry-0636",
  "id": "furkies-purrkies-poetry-0636",
  "title": "Always Learning",
  "date": "2021-11-27T00:27:42.332Z",
  "image": "poetry-0636-illustration.jpg",
  "artwork": "https://unsplash.com/photos/qoAIlAmLJBU",
  "audio": "poetry-0636.mp3",
  "guid": "15319613-40a1-4bf4-a1d3-899d90f04fdd",
  "html": "<div class=\"section\">\n  <p>Learning is an art,<br>so as long as we learn bit by bit we will become smart.</p>\n</div>\n<div class=\"section\">\n  <hr>\n</div>\n<div class=\"section\">\n  <p>In schools teachers threaten to memorize,<br>but you should always aim to become wise.</p>\n  <p>You need to understand,<br>because you get nothing if you just perform and pretend.</p>\n</div>\n<div class=\"section\">\n  <hr>\n</div>\n<div class=\"section\">\n  <p>You don't have to learn huge lessons just a tiny bit,<br>you should aim just to sharpen your wit.</p>\n</div>\n<div class=\"section\">\n  <hr>\n</div>\n<div class=\"section\">\n  <p>We walk away from a school class with a test,<br>but learning for real is best.</p>\n  <p>We won't always understand everything at once,<br>because we have to give ourselves a chance.</p>\n</div>\n<div class=\"section\">\n  <hr>\n</div>\n<div class=\"section\">\n  <p>You shouldn't aim to compose entire songs,<br>learn about drums and where the back-beat belongs.</p>\n  <p>You don't need to know how physics works for circuit design,<br>using a program to design your circuit and measure your voltages is fine.</p>\n  <p>The need to sketch freehand to become an artist is dumb,<br>use a projector and keep having fun.</p>\n</div>\n<div class=\"section\">\n  <hr>\n</div>\n<div class=\"section\">\n  <p>Yes, you will not become a master of all while learning bit by bit,<br>but with each step you will enhance your mental toolkit.</p>\n  <p>Just because you know only a little about music composition,<br>and can't compose like a wold famous musician...</p>\n  <p>Does not make you worse,<br>not knowing the whole thing is not a curse.</p>\n  <p>It is one of the things that make you beautiful,<br>it simply means you are expanding your mind tool by tool.</p>\n</div>\n<div class=\"section\">\n  <hr>\n</div>\n<div class=\"section\">\n  <p>When those who crammed for tests say you are Jack of all trades, and a master of none,<br>just tell them at least you are having fun.</p>\n  <p>But the truth of the matter is that you are learning for real,<br>and they frequently pretend to be a big deal.</p>\n  <p>The only way to learn for real is bit by bit,<br>and that's the only way anybody can make it.</p>\n  <p>Merely passing tests makes a student hollow,<br>but learning for real makes a know it all.</p>\n</div>\n<div class=\"section\">\n  <hr>\n</div>\n<div class=\"section\">\n  <p>That our curiosities branch in a few hundred directions,<br>means that we can make beautiful connections.</p>\n  <p>Being a master of none while learning for real,<br>makes you beautiful, it <strong>is</strong> a big deal.</p>\n  <p>Believe me when I say,<br>that all your unfinished works are precious as they show your way.</p>\n  <p>They tell a history of who you are,<br>they show the path you took to become a star.</p>\n</div>\n<div class=\"section\">\n  <hr>\n</div>\n<div class=\"section\">\n  <p>For example,</p>\n</div>\n<div class=\"section\">\n  <hr>\n</div>\n<div class=\"section\">\n  <p>Drums have begun calling to me,<br>as <a href=\"https://www.youtube.com/watch?v=fwWmcMz0ZVk\">I danced to a Scottish song for everyone to see</a>.</p>\n  <p>My dancing and curiosity about music are are merging,<br>and soon something new will be emerging.</p>\n  <p>I am already learning to give my drums an upgrade,<br>let me show you an incomplete song I just made.</p>\n  <p>I don't know how to fix it yet,<br>but I know once I discover it, I will never forget.</p>\n  <p>All my dance songs have thus far been incomplete this way,<br>but I'll learn how to do it right, someday.</p>\n  <p>Just because I am not a master,<br>does not mean this is a disaster.</p>\n  <p>I am just learning for real,<br>and I know that eventually all my songs will have great appeal.</p>\n</div>\n<div class=\"section\">\n  <hr>\n</div>\n<div class=\"section\">\n  <p>Take good care of your curiosities,<br>as they can only enhance your knowledge and qualities.</p>\n  <p>And love the wisdom you find along the way,<br>as it will never lead you astray.</p>\n</div>\n<div class=\"section\">\n  <hr>\n</div>\n<div class=\"section\">\n  <p><a href=\"/audio/classical-music.mp3\">Here is my strange incomplete classical dance song</a>,<br>I hope it is not too long.</p>\n</div>",
  "bootstrap": "<div class=\"card card-section bg-dark text-warning shadow\">\n  <div class=\"section card-body mb-0 my-2\">\n    <div class=\"paragraph card-text card-stanza my-5 text-center\">Learning is an art,<br>so as long as we learn bit by bit we will become smart.</div>\n  </div>\n</div>\n<div class=\"mb-5 section-spacer\">&nbsp;</div>\n<div class=\"card card-section bg-dark text-warning shadow\">\n  <div class=\"section card-body mb-0 my-2\">\n    <div class=\"paragraph card-text card-stanza my-5 text-center\">In schools teachers threaten to memorize,<br>but you should always aim to become wise.</div>\n    <div class=\"paragraph card-text card-stanza my-5 text-center\">You need to understand,<br>because you get nothing if you just perform and pretend.</div>\n  </div>\n</div>\n<div class=\"mb-5 section-spacer\">&nbsp;</div>\n<div class=\"card card-section bg-dark text-warning shadow\">\n  <div class=\"section card-body mb-0 my-2\">\n    <div class=\"paragraph card-text card-stanza my-5 text-center\">You don't have to learn huge lessons just a tiny bit,<br>you should aim just to sharpen your wit.</div>\n  </div>\n</div>\n<div class=\"mb-5 section-spacer\">&nbsp;</div>\n<div class=\"card card-section bg-dark text-warning shadow\">\n  <div class=\"section card-body mb-0 my-2\">\n    <div class=\"paragraph card-text card-stanza my-5 text-center\">We walk away from a school class with a test,<br>but learning for real is best.</div>\n    <div class=\"paragraph card-text card-stanza my-5 text-center\">We won't always understand everything at once,<br>because we have to give ourselves a chance.</div>\n  </div>\n</div>\n<div class=\"mb-5 section-spacer\">&nbsp;</div>\n<div class=\"card card-section bg-dark text-warning shadow\">\n  <div class=\"section card-body mb-0 my-2\">\n    <div class=\"paragraph card-text card-stanza my-5 text-center\">You shouldn't aim to compose entire songs,<br>learn about drums and where the back-beat belongs.</div>\n    <div class=\"paragraph card-text card-stanza my-5 text-center\">You don't need to know how physics works for circuit design,<br>using a program to design your circuit and measure your voltages is fine.</div>\n    <div class=\"paragraph card-text card-stanza my-5 text-center\">The need to sketch freehand to become an artist is dumb,<br>use a projector and keep having fun.</div>\n  </div>\n</div>\n<div class=\"mb-5 section-spacer\">&nbsp;</div>\n<div class=\"card card-section bg-dark text-warning shadow\">\n  <div class=\"section card-body mb-0 my-2\">\n    <div class=\"paragraph card-text card-stanza my-5 text-center\">Yes, you will not become a master of all while learning bit by bit,<br>but with each step you will enhance your mental toolkit.</div>\n    <div class=\"paragraph card-text card-stanza my-5 text-center\">Just because you know only a little about music composition,<br>and can't compose like a wold famous musician...</div>\n    <div class=\"paragraph card-text card-stanza my-5 text-center\">Does not make you worse,<br>not knowing the whole thing is not a curse.</div>\n    <div class=\"paragraph card-text card-stanza my-5 text-center\">It is one of the things that make you beautiful,<br>it simply means you are expanding your mind tool by tool.</div>\n  </div>\n</div>\n<div class=\"mb-5 section-spacer\">&nbsp;</div>\n<div class=\"card card-section bg-dark text-warning shadow\">\n  <div class=\"section card-body mb-0 my-2\">\n    <div class=\"paragraph card-text card-stanza my-5 text-center\">When those who crammed for tests say you are Jack of all trades, and a master of none,<br>just tell them at least you are having fun.</div>\n    <div class=\"paragraph card-text card-stanza my-5 text-center\">But the truth of the matter is that you are learning for real,<br>and they frequently pretend to be a big deal.</div>\n    <div class=\"paragraph card-text card-stanza my-5 text-center\">The only way to learn for real is bit by bit,<br>and that's the only way anybody can make it.</div>\n    <div class=\"paragraph card-text card-stanza my-5 text-center\">Merely passing tests makes a student hollow,<br>but learning for real makes a know it all.</div>\n  </div>\n</div>\n<div class=\"mb-5 section-spacer\">&nbsp;</div>\n<div class=\"card card-section bg-dark text-warning shadow\">\n  <div class=\"section card-body mb-0 my-2\">\n    <div class=\"paragraph card-text card-stanza my-5 text-center\">That our curiosities branch in a few hundred directions,<br>means that we can make beautiful connections.</div>\n    <div class=\"paragraph card-text card-stanza my-5 text-center\">Being a master of none while learning for real,<br>makes you beautiful, it <strong>is</strong> a big deal.</div>\n    <div class=\"paragraph card-text card-stanza my-5 text-center\">Believe me when I say,<br>that all your unfinished works are precious as they show your way.</div>\n    <div class=\"paragraph card-text card-stanza my-5 text-center\">They tell a history of who you are,<br>they show the path you took to become a star.</div>\n  </div>\n</div>\n<div class=\"mb-5 section-spacer\">&nbsp;</div>\n<div class=\"card card-section bg-dark text-warning shadow\">\n  <div class=\"section card-body mb-0 my-2\">\n    <div class=\"paragraph card-text card-stanza my-5 text-center\">For example,</div>\n  </div>\n</div>\n<div class=\"mb-5 section-spacer\">&nbsp;</div>\n<div class=\"card card-section bg-dark text-warning shadow\">\n  <div class=\"section card-body mb-0 my-2\">\n    <div class=\"paragraph card-text card-stanza my-5 text-center\">Drums have begun calling to me,<br>as <a href=\"https://www.youtube.com/watch?v=fwWmcMz0ZVk\">I danced to a Scottish song for everyone to see</a>.</div>\n    <div class=\"paragraph card-text card-stanza my-5 text-center\">My dancing and curiosity about music are are merging,<br>and soon something new will be emerging.</div>\n    <div class=\"paragraph card-text card-stanza my-5 text-center\">I am already learning to give my drums an upgrade,<br>let me show you an incomplete song I just made.</div>\n    <div class=\"paragraph card-text card-stanza my-5 text-center\">I don't know how to fix it yet,<br>but I know once I discover it, I will never forget.</div>\n    <div class=\"paragraph card-text card-stanza my-5 text-center\">All my dance songs have thus far been incomplete this way,<br>but I'll learn how to do it right, someday.</div>\n    <div class=\"paragraph card-text card-stanza my-5 text-center\">Just because I am not a master,<br>does not mean this is a disaster.</div>\n    <div class=\"paragraph card-text card-stanza my-5 text-center\">I am just learning for real,<br>and I know that eventually all my songs will have great appeal.</div>\n  </div>\n</div>\n<div class=\"mb-5 section-spacer\">&nbsp;</div>\n<div class=\"card card-section bg-dark text-warning shadow\">\n  <div class=\"section card-body mb-0 my-2\">\n    <div class=\"paragraph card-text card-stanza my-5 text-center\">Take good care of your curiosities,<br>as they can only enhance your knowledge and qualities.</div>\n    <div class=\"paragraph card-text card-stanza my-5 text-center\">And love the wisdom you find along the way,<br>as it will never lead you astray.</div>\n  </div>\n</div>\n<div class=\"mb-5 section-spacer\">&nbsp;</div>\n<div class=\"card card-section bg-dark text-warning shadow\">\n  <div class=\"section card-body mb-0 my-2\">\n    <div class=\"paragraph card-text card-stanza my-5 text-center\"><a href=\"/audio/classical-music.mp3\">Here is my strange incomplete classical dance song</a>,<br>I hope it is not too long.</div>\n  </div>\n</div>",
  "print": "<div class=\"section avoid-break-inside\" style=\"padding-bottom: 2rem;\">\n  <div class=\"paragraph\">Learning is an art,<br>so as long as we learn bit by bit we will become smart.</div>\n</div>\n<div class=\"section avoid-break-inside\" style=\"padding-bottom: 2rem;\">\n  <br>\n</div>\n<div class=\"section avoid-break-inside\" style=\"padding-bottom: 2rem;\">\n  <div class=\"paragraph\">In schools teachers threaten to memorize,<br>but you should always aim to become wise.</div>\n  <div class=\"paragraph\">You need to understand,<br>because you get nothing if you just perform and pretend.</div>\n</div>\n<div class=\"section avoid-break-inside\" style=\"padding-bottom: 2rem;\">\n  <br>\n</div>\n<div class=\"section avoid-break-inside\" style=\"padding-bottom: 2rem;\">\n  <div class=\"paragraph\">You don't have to learn huge lessons just a tiny bit,<br>you should aim just to sharpen your wit.</div>\n</div>\n<div class=\"section avoid-break-inside\" style=\"padding-bottom: 2rem;\">\n  <br>\n</div>\n<div class=\"section avoid-break-inside\" style=\"padding-bottom: 2rem;\">\n  <div class=\"paragraph\">We walk away from a school class with a test,<br>but learning for real is best.</div>\n  <div class=\"paragraph\">We won't always understand everything at once,<br>because we have to give ourselves a chance.</div>\n</div>\n<div class=\"section avoid-break-inside\" style=\"padding-bottom: 2rem;\">\n  <br>\n</div>\n<div class=\"section avoid-break-inside\" style=\"padding-bottom: 2rem;\">\n  <div class=\"paragraph\">You shouldn't aim to compose entire songs,<br>learn about drums and where the back-beat belongs.</div>\n  <div class=\"paragraph\">You don't need to know how physics works for circuit design,<br>using a program to design your circuit and measure your voltages is fine.</div>\n  <div class=\"paragraph\">The need to sketch freehand to become an artist is dumb,<br>use a projector and keep having fun.</div>\n</div>\n<div class=\"section avoid-break-inside\" style=\"padding-bottom: 2rem;\">\n  <br>\n</div>\n<div class=\"section avoid-break-inside\" style=\"padding-bottom: 2rem;\">\n  <div class=\"paragraph\">Yes, you will not become a master of all while learning bit by bit,<br>but with each step you will enhance your mental toolkit.</div>\n  <div class=\"paragraph\">Just because you know only a little about music composition,<br>and can't compose like a wold famous musician...</div>\n  <div class=\"paragraph\">Does not make you worse,<br>not knowing the whole thing is not a curse.</div>\n  <div class=\"paragraph\">It is one of the things that make you beautiful,<br>it simply means you are expanding your mind tool by tool.</div>\n</div>\n<div class=\"section avoid-break-inside\" style=\"padding-bottom: 2rem;\">\n  <br>\n</div>\n<div class=\"section avoid-break-inside\" style=\"padding-bottom: 2rem;\">\n  <div class=\"paragraph\">When those who crammed for tests say you are Jack of all trades, and a master of none,<br>just tell them at least you are having fun.</div>\n  <div class=\"paragraph\">But the truth of the matter is that you are learning for real,<br>and they frequently pretend to be a big deal.</div>\n  <div class=\"paragraph\">The only way to learn for real is bit by bit,<br>and that's the only way anybody can make it.</div>\n  <div class=\"paragraph\">Merely passing tests makes a student hollow,<br>but learning for real makes a know it all.</div>\n</div>\n<div class=\"section avoid-break-inside\" style=\"padding-bottom: 2rem;\">\n  <br>\n</div>\n<div class=\"section avoid-break-inside\" style=\"padding-bottom: 2rem;\">\n  <div class=\"paragraph\">That our curiosities branch in a few hundred directions,<br>means that we can make beautiful connections.</div>\n  <div class=\"paragraph\">Being a master of none while learning for real,<br>makes you beautiful, it <strong>is</strong> a big deal.</div>\n  <div class=\"paragraph\">Believe me when I say,<br>that all your unfinished works are precious as they show your way.</div>\n  <div class=\"paragraph\">They tell a history of who you are,<br>they show the path you took to become a star.</div>\n</div>\n<div class=\"section avoid-break-inside\" style=\"padding-bottom: 2rem;\">\n  <br>\n</div>\n<div class=\"section avoid-break-inside\" style=\"padding-bottom: 2rem;\">\n  <div class=\"paragraph\">For example,</div>\n</div>\n<div class=\"section avoid-break-inside\" style=\"padding-bottom: 2rem;\">\n  <br>\n</div>\n<div class=\"section avoid-break-inside\" style=\"padding-bottom: 2rem;\">\n  <div class=\"paragraph\">Drums have begun calling to me,<br>as <span>I danced to a Scottish song for everyone to see<sup>[1]</sup></span>.</div>\n  <div class=\"paragraph\">My dancing and curiosity about music are are merging,<br>and soon something new will be emerging.</div>\n  <div class=\"paragraph\">I am already learning to give my drums an upgrade,<br>let me show you an incomplete song I just made.</div>\n  <div class=\"paragraph\">I don't know how to fix it yet,<br>but I know once I discover it, I will never forget.</div>\n  <div class=\"paragraph\">All my dance songs have thus far been incomplete this way,<br>but I'll learn how to do it right, someday.</div>\n  <div class=\"paragraph\">Just because I am not a master,<br>does not mean this is a disaster.</div>\n  <div class=\"paragraph\">I am just learning for real,<br>and I know that eventually all my songs will have great appeal.</div>\n</div>\n<div class=\"section avoid-break-inside\" style=\"padding-bottom: 2rem;\">\n  <br>\n</div>\n<div class=\"section avoid-break-inside\" style=\"padding-bottom: 2rem;\">\n  <div class=\"paragraph\">Take good care of your curiosities,<br>as they can only enhance your knowledge and qualities.</div>\n  <div class=\"paragraph\">And love the wisdom you find along the way,<br>as it will never lead you astray.</div>\n</div>\n<div class=\"section avoid-break-inside\" style=\"padding-bottom: 2rem;\">\n  <br>\n</div>\n<div class=\"section avoid-break-inside\" style=\"padding-bottom: 2rem;\">\n  <div class=\"paragraph\"><span>Here is my strange incomplete classical dance song<sup>[2]</sup></span>,<br>I hope it is not too long.</div>\n</div>\n<div class=\"break-after\">&nbsp;</div>\n<div>\n  <div class=\"section\" style=\"padding-bottom: 1rem;\">References</div>\n  <div>[1]: https://www.youtube.com/watch?v=fwWmcMz0ZVk</div>\n  <div>[2]: /audio/classical-music.mp3</div>\n</div>",
  "text": "Learning is an art,\nso as long as we learn bit by bit we will become smart.\n\nIn schools teachers threaten to memorize,\nbut you should always aim to become wise.\nYou need to understand,\nbecause you get nothing if you just perform and pretend.\n\nYou don't have to learn huge lessons just a tiny bit,\nyou should aim just to sharpen your wit.\n\nWe walk away from a school class with a test,\nbut learning for real is best.\nWe won't always understand everything at once,\nbecause we have to give ourselves a chance.\n\nYou shouldn't aim to compose entire songs,\nlearn about drums and where the back-beat belongs.\nYou don't need to know how physics works for circuit design,\nusing a program to design your circuit and measure your voltages is fine.\nThe need to sketch freehand to become an artist is dumb,\nuse a projector and keep having fun.\n\nYes, you will not become a master of all while learning bit by bit,\nbut with each step you will enhance your mental toolkit.\nJust because you know only a little about music composition,\nand can't compose like a wold famous musician...\nDoes not make you worse,\nnot knowing the whole thing is not a curse.\nIt is one of the things that make you beautiful,\nit simply means you are expanding your mind tool by tool.\n\nWhen those who crammed for tests say you are Jack of all trades, and a master of none,\njust tell them at least you are having fun.\nBut the truth of the matter is that you are learning for real,\nand they frequently pretend to be a big deal.\nThe only way to learn for real is bit by bit,\nand that's the only way anybody can make it.\nMerely passing tests makes a student hollow,\nbut learning for real makes a know it all.\n\nThat our curiosities branch in a few hundred directions,\nmeans that we can make beautiful connections.\nBeing a master of none while learning for real,\nmakes you beautiful, it is a big deal.\nBelieve me when I say,\nthat all your unfinished works are precious as they show your way.\nThey tell a history of who you are,\nthey show the path you took to become a star.\n\nFor example,\n\nDrums have begun calling to me,\nas I danced to a Scottish song for everyone to see[1].\nMy dancing and curiosity about music are are merging,\nand soon something new will be emerging.\nI am already learning to give my drums an upgrade,\nlet me show you an incomplete song I just made.\nI don't know how to fix it yet,\nbut I know once I discover it, I will never forget.\nAll my dance songs have thus far been incomplete this way,\nbut I'll learn how to do it right, someday.\nJust because I am not a master,\ndoes not mean this is a disaster.\nI am just learning for real,\nand I know that eventually all my songs will have great appeal.\n\nTake good care of your curiosities,\nas they can only enhance your knowledge and qualities.\nAnd love the wisdom you find along the way,\nas it will never lead you astray.\n\nHere is my strange incomplete classical dance song[2],\nI hope it is not too long.\n \nReferences\n[1]: https://www.youtube.com/watch?v=fwWmcMz0ZVk\n[2]: /audio/classical-music.mp3",
  "images": [],
  "links": [
    {
      "title": "I danced to a Scottish song for everyone to see",
      "url": "https://www.youtube.com/watch?v=fwWmcMz0ZVk",
      "hostname": "www.youtube.com"
    },
    {
      "title": "Here is my strange incomplete classical dance song",
      "url": "/audio/classical-music.mp3",
      "hostname": "local"
    }
  ]
}