{
  "name": "furkies-purrkies-poetry-0137",
  "title": "The Amazing Power of Audio Books",
  "date": "2020-07-15T00:49:49.894Z",
  "image": "poetry-0137-illustration.jpg",
  "audio": "poetry-0137.mp3",
  "id": "furkies-purrkies-poetry-0137",
  "attachments": {},
  "guid": "2211809b-1d0b-4c76-b6fb-9b27ba0d7999",
  "html": "<div class=\"section\">\n  <hr>\n</div>\n<div class=\"section\">\n  <p>First of All,</p>\n</div>\n<div class=\"section\">\n  <p>Let me share with you a secret to a great intellectual wealth,</p>\n  <p>if you ever get hurt, or lonely the Audio Books will completely restore your health.</p>\n</div>\n<div class=\"section\">\n  <p>They will help you understand the world a lot better,</p>\n  <p>and they will piece your heart right back together.</p>\n</div>\n<div class=\"section\">\n  <p>Audio books will make your heart whole,</p>\n  <p>and they will add great Wisdom and Strength to your Soul.</p>\n</div>\n<div class=\"section\">\n  <hr>\n</div>\n<div class=\"section\">\n  <p>And Let Me Tell You,</p>\n</div>\n<div class=\"section\">\n  <p>They help us resume great works and understand great lives,</p>\n  <p>connect with great beings, their minds, and drives.</p>\n</div>\n<div class=\"section\">\n  <p>And it really, really works, they help you inherit power,</p>\n  <p>it gets into your soul, and grows like a flower.</p>\n</div>\n<div class=\"section\">\n  <p>And they help us see better with our own eyes,</p>\n  <p>see World Poverty as the enemy, and World Peace as The Prize.</p>\n</div>\n<div class=\"section\">\n  <hr>\n</div>\n<div class=\"section\">\n  <p>And the more lives you inherit from,</p>\n  <p>the sooner, you will find your way Home.</p>\n</div>\n<div class=\"section\">\n  <p>The original way, we used to learn to rise higher,</p>\n  <p><strong>was</strong> by listening to Moving Stories by a cracking fire.</p>\n</div>\n<div class=\"section\">\n  <p>By listening to all the world&apos;s great stories we push poverty away,</p>\n  <p>and we become Wiser to no end, each and every day.</p>\n</div>",
  "bootstrap": "<div class=\"mb-5 section-spacer\">&nbsp;</div>\n<div class=\"card card-section bg-dark text-warning shadow\">\n  <div class=\"section card-body mb-0 my-2\">\n    <div class=\"paragraph card-text card-stanza my-5 text-center\">First of All,</div>\n  </div>\n</div>\n<div class=\"card card-section bg-dark text-warning shadow\">\n  <div class=\"section card-body mb-0 my-2\">\n    <div class=\"paragraph card-text card-stanza my-5 text-center\">Let me share with you a secret to a great intellectual wealth,</div>\n    <div class=\"paragraph card-text card-stanza my-5 text-center\">if you ever get hurt, or lonely the Audio Books will completely restore your health.</div>\n  </div>\n</div>\n<div class=\"card card-section bg-dark text-warning shadow\">\n  <div class=\"section card-body mb-0 my-2\">\n    <div class=\"paragraph card-text card-stanza my-5 text-center\">They will help you understand the world a lot better,</div>\n    <div class=\"paragraph card-text card-stanza my-5 text-center\">and they will piece your heart right back together.</div>\n  </div>\n</div>\n<div class=\"card card-section bg-dark text-warning shadow\">\n  <div class=\"section card-body mb-0 my-2\">\n    <div class=\"paragraph card-text card-stanza my-5 text-center\">Audio books will make your heart whole,</div>\n    <div class=\"paragraph card-text card-stanza my-5 text-center\">and they will add great Wisdom and Strength to your Soul.</div>\n  </div>\n</div>\n<div class=\"mb-5 section-spacer\">&nbsp;</div>\n<div class=\"card card-section bg-dark text-warning shadow\">\n  <div class=\"section card-body mb-0 my-2\">\n    <div class=\"paragraph card-text card-stanza my-5 text-center\">And Let Me Tell You,</div>\n  </div>\n</div>\n<div class=\"card card-section bg-dark text-warning shadow\">\n  <div class=\"section card-body mb-0 my-2\">\n    <div class=\"paragraph card-text card-stanza my-5 text-center\">They help us resume great works and understand great lives,</div>\n    <div class=\"paragraph card-text card-stanza my-5 text-center\">connect with great beings, their minds, and drives.</div>\n  </div>\n</div>\n<div class=\"card card-section bg-dark text-warning shadow\">\n  <div class=\"section card-body mb-0 my-2\">\n    <div class=\"paragraph card-text card-stanza my-5 text-center\">And it really, really works, they help you inherit power,</div>\n    <div class=\"paragraph card-text card-stanza my-5 text-center\">it gets into your soul, and grows like a flower.</div>\n  </div>\n</div>\n<div class=\"card card-section bg-dark text-warning shadow\">\n  <div class=\"section card-body mb-0 my-2\">\n    <div class=\"paragraph card-text card-stanza my-5 text-center\">And they help us see better with our own eyes,</div>\n    <div class=\"paragraph card-text card-stanza my-5 text-center\">see World Poverty as the enemy, and World Peace as The Prize.</div>\n  </div>\n</div>\n<div class=\"mb-5 section-spacer\">&nbsp;</div>\n<div class=\"card card-section bg-dark text-warning shadow\">\n  <div class=\"section card-body mb-0 my-2\">\n    <div class=\"paragraph card-text card-stanza my-5 text-center\">And the more lives you inherit from,</div>\n    <div class=\"paragraph card-text card-stanza my-5 text-center\">the sooner, you will find your way Home.</div>\n  </div>\n</div>\n<div class=\"card card-section bg-dark text-warning shadow\">\n  <div class=\"section card-body mb-0 my-2\">\n    <div class=\"paragraph card-text card-stanza my-5 text-center\">The original way, we used to learn to rise higher,</div>\n    <div class=\"paragraph card-text card-stanza my-5 text-center\"><strong>was</strong> by listening to Moving Stories by a cracking fire.</div>\n  </div>\n</div>\n<div class=\"card card-section bg-dark text-warning shadow\">\n  <div class=\"section card-body mb-0 my-2\">\n    <div class=\"paragraph card-text card-stanza my-5 text-center\">By listening to all the world's great stories we push poverty away,</div>\n    <div class=\"paragraph card-text card-stanza my-5 text-center\">and we become Wiser to no end, each and every day.</div>\n  </div>\n</div>",
  "print": "<div class=\"section avoid-break-inside\" style=\"padding-bottom: 2rem;\">\n  <br>\n</div>\n<div class=\"section avoid-break-inside\" style=\"padding-bottom: 2rem;\">\n  <div class=\"paragraph\">First of All,</div>\n</div>\n<div class=\"section avoid-break-inside\" style=\"padding-bottom: 2rem;\">\n  <div class=\"paragraph\">Let me share with you a secret to a great intellectual wealth,</div>\n  <div class=\"paragraph\">if you ever get hurt, or lonely the Audio Books will completely restore your health.</div>\n</div>\n<div class=\"section avoid-break-inside\" style=\"padding-bottom: 2rem;\">\n  <div class=\"paragraph\">They will help you understand the world a lot better,</div>\n  <div class=\"paragraph\">and they will piece your heart right back together.</div>\n</div>\n<div class=\"section avoid-break-inside\" style=\"padding-bottom: 2rem;\">\n  <div class=\"paragraph\">Audio books will make your heart whole,</div>\n  <div class=\"paragraph\">and they will add great Wisdom and Strength to your Soul.</div>\n</div>\n<div class=\"section avoid-break-inside\" style=\"padding-bottom: 2rem;\">\n  <br>\n</div>\n<div class=\"section avoid-break-inside\" style=\"padding-bottom: 2rem;\">\n  <div class=\"paragraph\">And Let Me Tell You,</div>\n</div>\n<div class=\"section avoid-break-inside\" style=\"padding-bottom: 2rem;\">\n  <div class=\"paragraph\">They help us resume great works and understand great lives,</div>\n  <div class=\"paragraph\">connect with great beings, their minds, and drives.</div>\n</div>\n<div class=\"section avoid-break-inside\" style=\"padding-bottom: 2rem;\">\n  <div class=\"paragraph\">And it really, really works, they help you inherit power,</div>\n  <div class=\"paragraph\">it gets into your soul, and grows like a flower.</div>\n</div>\n<div class=\"section avoid-break-inside\" style=\"padding-bottom: 2rem;\">\n  <div class=\"paragraph\">And they help us see better with our own eyes,</div>\n  <div class=\"paragraph\">see World Poverty as the enemy, and World Peace as The Prize.</div>\n</div>\n<div class=\"section avoid-break-inside\" style=\"padding-bottom: 2rem;\">\n  <br>\n</div>\n<div class=\"section avoid-break-inside\" style=\"padding-bottom: 2rem;\">\n  <div class=\"paragraph\">And the more lives you inherit from,</div>\n  <div class=\"paragraph\">the sooner, you will find your way Home.</div>\n</div>\n<div class=\"section avoid-break-inside\" style=\"padding-bottom: 2rem;\">\n  <div class=\"paragraph\">The original way, we used to learn to rise higher,</div>\n  <div class=\"paragraph\"><strong>was</strong> by listening to Moving Stories by a cracking fire.</div>\n</div>\n<div class=\"section avoid-break-inside\" style=\"padding-bottom: 2rem;\">\n  <div class=\"paragraph\">By listening to all the world's great stories we push poverty away,</div>\n  <div class=\"paragraph\">and we become Wiser to no end, each and every day.</div>\n</div>",
  "text": "\n\nFirst of All,\nLet me share with you a secret to a great intellectual wealth,\nif you ever get hurt, or lonely the Audio Books will completely restore your health.\nThey will help you understand the world a lot better,\nand they will piece your heart right back together.\nAudio books will make your heart whole,\nand they will add great Wisdom and Strength to your Soul.\n\nAnd Let Me Tell You,\nThey help us resume great works and understand great lives,\nconnect with great beings, their minds, and drives.\nAnd it really, really works, they help you inherit power,\nit gets into your soul, and grows like a flower.\nAnd they help us see better with our own eyes,\nsee World Poverty as the enemy, and World Peace as The Prize.\n\nAnd the more lives you inherit from,\nthe sooner, you will find your way Home.\nThe original way, we used to learn to rise higher,\nwas by listening to Moving Stories by a cracking fire.\nBy listening to all the world's great stories we push poverty away,\nand we become Wiser to no end, each and every day.",
  "images": [],
  "links": []
}