{
  "id": "furkies-purrkies-poetry-0929",
  "guid": "a7c310a2-d899-4754-8ad9-cbff11e4d8d9",
  "title": "Web Design Is Super Fine",
  "date": "2022-09-16T02:33:26.665Z",
  "image": "poetry-0929-illustration.jpg",
  "artwork": "https://catpea.com",
  "audio": "poetry-0929.mp3"
}
