{
  "title": "A Tiny Introduction To Drums",
  "date": "2021-02-19T02:13:14.309Z",
  "image": "poetry-0355-illustration.jpg",
  "audio": "poetry-0355.mp3",
  "artwork": "https://unsplash.com/photos/9lfubBqLbRc",
  "id": "furkies-purrkies-poetry-0355",
  "attachments": {},
  "guid": "4a677f0b-4f1e-47f7-9ec9-33a7ec75588a"
}
