{
  "name": "furkies-purrkies-poetry-0051",
  "title": "At the Center of The Being",
  "date": "2020-04-28T23:27:30.660Z",
  "image": "poetry-0051-illustration.jpg",
  "audio": "poetry-0051.mp3",
  "id": "furkies-purrkies-poetry-0051",
  "attachments": {},
  "guid": "1e526529-a6e9-4b9e-ba54-e092e937b1f6",
  "html": "<div class=\"section\">\n  <p>At the center of our being,</p>\n  <p>we each have a collection.</p>\n</div>\n<div class=\"section\">\n  <p>It makes us unique,</p>\n  <p>but we never lose our connection.</p>\n</div>\n<div class=\"section\">\n  <p>As with all things in life,</p>\n  <p>it is too easy to get lost in strife.</p>\n</div>\n<div class=\"section\">\n  <p>We have to protect what makes us unique,</p>\n  <p>if you fail, your future will be bleak.</p>\n</div>\n<div class=\"section\">\n  <p>With all things we do,</p>\n  <p>sometimes the bad guys slip through.</p>\n</div>\n<div class=\"section\">\n  <p>This is what we need courage for,</p>\n  <p>to look them in the eyes, and slam the door.</p>\n</div>\n<div class=\"section\">\n  <p>The unique collection at our center, is our power.</p>\n  <p>It transforms, and evolves, hour after hour.</p>\n</div>\n<div class=\"section\">\n  <p>We start with just the Ocean, Skies, Mountains, Stars, Earth and Mars,</p>\n  <p>maybe Flowers, Gardens, Kittens, Dogs, Horses and Frogs.</p>\n</div>\n<div class=\"section\">\n  <p>But then it grows, call it soul, or spirit, personality or vitality,</p>\n  <p>it becomes... Beauty, Endurance, Authenticity, Nobility, Love and Dignity.</p>\n</div>\n<div class=\"section\">\n  <p>And it keeps growing, so as long as you Love Yourself,</p>\n</div>\n<div class=\"section\">\n  <p>It creates Leaders, Protectors, Guides, Teachers, Dreamers,</p>\n  <p>Adventurers, Explorers and Discoverers,</p>\n  <p>Intellectuals, Humanitarians, Philosophers,</p>\n  <p>Scientists, Astronomers,</p>\n  <p>Dancers, Athletes, Bodybuilders,</p>\n  <p>Chefs, Blacksmiths, and Makers,</p>\n  <p>Musicians, Poets, Sculptors, Photographers and Filmmakers,</p>\n  <p>Artists and Designers,</p>\n  <p>Hackers and Programmers,</p>\n  <p>Genius...</p>\n  <p>Visionaries...</p>\n  <p>Founders....</p>\n</div>\n<div class=\"section\">\n  <p>You have to protect what makes you unique at all cost,</p>\n  <p>if you start letting go, you will become lost.</p>\n</div>\n<div class=\"section\">\n  <p>And many will come, and many with care and kindness,</p>\n  <p>and they will try to change you, in their blindness.</p>\n</div>\n<div class=\"section\">\n  <p>You cannot grow up, if you start letting go,</p>\n  <p>you need an unbroken chain, you need that flow.</p>\n</div>\n<div class=\"section\">\n  <p>You have to learn to say,</p>\n  <p>that it&apos;s either you, the one one who stands and is true,</p>\n  <p>or you are through.</p>\n</div>\n<div class=\"section\">\n  <p>To grow up, into who you need to be,</p>\n  <p>is your right, and your dignity.</p>\n</div>\n<div class=\"section\">\n  <p>To let bullies push you around,</p>\n  <p>is to fail, and falter,</p>\n  <p>and run aground.</p>\n</div>\n<div class=\"section\">\n  <p>Decades, decades after they are long gone, do not let go,</p>\n  <p>do not take their turns, do not change your view,</p>\n  <p>you must aim to become worthy of you.</p>\n</div>\n<div class=\"section\">\n  <p>Whether you believe in Heroes,</p>\n  <p>on that we are only Human.</p>\n</div>\n<div class=\"section\">\n  <p>It is the same height,</p>\n  <p>just a maximum of our might.</p>\n</div>\n<div class=\"section\">\n  <p>Push, and stand up, and aim up, and rise,</p>\n  <p>Open your eyes,</p>\n  <p>it is the only way to become wise.</p>\n</div>\n<div class=\"section\">\n  <p>Fight for who you are,</p>\n  <p>because in time,</p>\n  <p>that fight is also for who you need to be.</p>\n</div>\n<div class=\"section\">\n  <p>For who you need to be,</p>\n  <p>to be strong and healthy,</p>\n  <p>and unbreakable and worthy.</p>\n</div>",
  "bootstrap": "<div class=\"card card-section bg-dark text-warning shadow\">\n  <div class=\"section card-body mb-0 my-2\">\n    <div class=\"paragraph card-text card-stanza my-5 text-center\">At the center of our being,</div>\n    <div class=\"paragraph card-text card-stanza my-5 text-center\">we each have a collection.</div>\n  </div>\n</div>\n<div class=\"card card-section bg-dark text-warning shadow\">\n  <div class=\"section card-body mb-0 my-2\">\n    <div class=\"paragraph card-text card-stanza my-5 text-center\">It makes us unique,</div>\n    <div class=\"paragraph card-text card-stanza my-5 text-center\">but we never lose our connection.</div>\n  </div>\n</div>\n<div class=\"card card-section bg-dark text-warning shadow\">\n  <div class=\"section card-body mb-0 my-2\">\n    <div class=\"paragraph card-text card-stanza my-5 text-center\">As with all things in life,</div>\n    <div class=\"paragraph card-text card-stanza my-5 text-center\">it is too easy to get lost in strife.</div>\n  </div>\n</div>\n<div class=\"card card-section bg-dark text-warning shadow\">\n  <div class=\"section card-body mb-0 my-2\">\n    <div class=\"paragraph card-text card-stanza my-5 text-center\">We have to protect what makes us unique,</div>\n    <div class=\"paragraph card-text card-stanza my-5 text-center\">if you fail, your future will be bleak.</div>\n  </div>\n</div>\n<div class=\"card card-section bg-dark text-warning shadow\">\n  <div class=\"section card-body mb-0 my-2\">\n    <div class=\"paragraph card-text card-stanza my-5 text-center\">With all things we do,</div>\n    <div class=\"paragraph card-text card-stanza my-5 text-center\">sometimes the bad guys slip through.</div>\n  </div>\n</div>\n<div class=\"card card-section bg-dark text-warning shadow\">\n  <div class=\"section card-body mb-0 my-2\">\n    <div class=\"paragraph card-text card-stanza my-5 text-center\">This is what we need courage for,</div>\n    <div class=\"paragraph card-text card-stanza my-5 text-center\">to look them in the eyes, and slam the door.</div>\n  </div>\n</div>\n<div class=\"card card-section bg-dark text-warning shadow\">\n  <div class=\"section card-body mb-0 my-2\">\n    <div class=\"paragraph card-text card-stanza my-5 text-center\">The unique collection at our center, is our power.</div>\n    <div class=\"paragraph card-text card-stanza my-5 text-center\">It transforms, and evolves, hour after hour.</div>\n  </div>\n</div>\n<div class=\"card card-section bg-dark text-warning shadow\">\n  <div class=\"section card-body mb-0 my-2\">\n    <div class=\"paragraph card-text card-stanza my-5 text-center\">We start with just the Ocean, Skies, Mountains, Stars, Earth and Mars,</div>\n    <div class=\"paragraph card-text card-stanza my-5 text-center\">maybe Flowers, Gardens, Kittens, Dogs, Horses and Frogs.</div>\n  </div>\n</div>\n<div class=\"card card-section bg-dark text-warning shadow\">\n  <div class=\"section card-body mb-0 my-2\">\n    <div class=\"paragraph card-text card-stanza my-5 text-center\">But then it grows, call it soul, or spirit, personality or vitality,</div>\n    <div class=\"paragraph card-text card-stanza my-5 text-center\">it becomes... Beauty, Endurance, Authenticity, Nobility, Love and Dignity.</div>\n  </div>\n</div>\n<div class=\"card card-section bg-dark text-warning shadow\">\n  <div class=\"section card-body mb-0 my-2\">\n    <div class=\"paragraph card-text card-stanza my-5 text-center\">And it keeps growing, so as long as you Love Yourself,</div>\n  </div>\n</div>\n<div class=\"card card-section bg-dark text-warning shadow\">\n  <div class=\"section card-body mb-0 my-2\">\n    <div class=\"paragraph card-text card-stanza my-5 text-center\">It creates Leaders, Protectors, Guides, Teachers, Dreamers,</div>\n    <div class=\"paragraph card-text card-stanza my-5 text-center\">Adventurers, Explorers and Discoverers,</div>\n    <div class=\"paragraph card-text card-stanza my-5 text-center\">Intellectuals, Humanitarians, Philosophers,</div>\n    <div class=\"paragraph card-text card-stanza my-5 text-center\">Scientists, Astronomers,</div>\n    <div class=\"paragraph card-text card-stanza my-5 text-center\">Dancers, Athletes, Bodybuilders,</div>\n    <div class=\"paragraph card-text card-stanza my-5 text-center\">Chefs, Blacksmiths, and Makers,</div>\n    <div class=\"paragraph card-text card-stanza my-5 text-center\">Musicians, Poets, Sculptors, Photographers and Filmmakers,</div>\n    <div class=\"paragraph card-text card-stanza my-5 text-center\">Artists and Designers,</div>\n    <div class=\"paragraph card-text card-stanza my-5 text-center\">Hackers and Programmers,</div>\n    <div class=\"paragraph card-text card-stanza my-5 text-center\">Genius...</div>\n    <div class=\"paragraph card-text card-stanza my-5 text-center\">Visionaries...</div>\n    <div class=\"paragraph card-text card-stanza my-5 text-center\">Founders....</div>\n  </div>\n</div>\n<div class=\"card card-section bg-dark text-warning shadow\">\n  <div class=\"section card-body mb-0 my-2\">\n    <div class=\"paragraph card-text card-stanza my-5 text-center\">You have to protect what makes you unique at all cost,</div>\n    <div class=\"paragraph card-text card-stanza my-5 text-center\">if you start letting go, you will become lost.</div>\n  </div>\n</div>\n<div class=\"card card-section bg-dark text-warning shadow\">\n  <div class=\"section card-body mb-0 my-2\">\n    <div class=\"paragraph card-text card-stanza my-5 text-center\">And many will come, and many with care and kindness,</div>\n    <div class=\"paragraph card-text card-stanza my-5 text-center\">and they will try to change you, in their blindness.</div>\n  </div>\n</div>\n<div class=\"card card-section bg-dark text-warning shadow\">\n  <div class=\"section card-body mb-0 my-2\">\n    <div class=\"paragraph card-text card-stanza my-5 text-center\">You cannot grow up, if you start letting go,</div>\n    <div class=\"paragraph card-text card-stanza my-5 text-center\">you need an unbroken chain, you need that flow.</div>\n  </div>\n</div>\n<div class=\"card card-section bg-dark text-warning shadow\">\n  <div class=\"section card-body mb-0 my-2\">\n    <div class=\"paragraph card-text card-stanza my-5 text-center\">You have to learn to say,</div>\n    <div class=\"paragraph card-text card-stanza my-5 text-center\">that it's either you, the one one who stands and is true,</div>\n    <div class=\"paragraph card-text card-stanza my-5 text-center\">or you are through.</div>\n  </div>\n</div>\n<div class=\"card card-section bg-dark text-warning shadow\">\n  <div class=\"section card-body mb-0 my-2\">\n    <div class=\"paragraph card-text card-stanza my-5 text-center\">To grow up, into who you need to be,</div>\n    <div class=\"paragraph card-text card-stanza my-5 text-center\">is your right, and your dignity.</div>\n  </div>\n</div>\n<div class=\"card card-section bg-dark text-warning shadow\">\n  <div class=\"section card-body mb-0 my-2\">\n    <div class=\"paragraph card-text card-stanza my-5 text-center\">To let bullies push you around,</div>\n    <div class=\"paragraph card-text card-stanza my-5 text-center\">is to fail, and falter,</div>\n    <div class=\"paragraph card-text card-stanza my-5 text-center\">and run aground.</div>\n  </div>\n</div>\n<div class=\"card card-section bg-dark text-warning shadow\">\n  <div class=\"section card-body mb-0 my-2\">\n    <div class=\"paragraph card-text card-stanza my-5 text-center\">Decades, decades after they are long gone, do not let go,</div>\n    <div class=\"paragraph card-text card-stanza my-5 text-center\">do not take their turns, do not change your view,</div>\n    <div class=\"paragraph card-text card-stanza my-5 text-center\">you must aim to become worthy of you.</div>\n  </div>\n</div>\n<div class=\"card card-section bg-dark text-warning shadow\">\n  <div class=\"section card-body mb-0 my-2\">\n    <div class=\"paragraph card-text card-stanza my-5 text-center\">Whether you believe in Heroes,</div>\n    <div class=\"paragraph card-text card-stanza my-5 text-center\">on that we are only Human.</div>\n  </div>\n</div>\n<div class=\"card card-section bg-dark text-warning shadow\">\n  <div class=\"section card-body mb-0 my-2\">\n    <div class=\"paragraph card-text card-stanza my-5 text-center\">It is the same height,</div>\n    <div class=\"paragraph card-text card-stanza my-5 text-center\">just a maximum of our might.</div>\n  </div>\n</div>\n<div class=\"card card-section bg-dark text-warning shadow\">\n  <div class=\"section card-body mb-0 my-2\">\n    <div class=\"paragraph card-text card-stanza my-5 text-center\">Push, and stand up, and aim up, and rise,</div>\n    <div class=\"paragraph card-text card-stanza my-5 text-center\">Open your eyes,</div>\n    <div class=\"paragraph card-text card-stanza my-5 text-center\">it is the only way to become wise.</div>\n  </div>\n</div>\n<div class=\"card card-section bg-dark text-warning shadow\">\n  <div class=\"section card-body mb-0 my-2\">\n    <div class=\"paragraph card-text card-stanza my-5 text-center\">Fight for who you are,</div>\n    <div class=\"paragraph card-text card-stanza my-5 text-center\">because in time,</div>\n    <div class=\"paragraph card-text card-stanza my-5 text-center\">that fight is also for who you need to be.</div>\n  </div>\n</div>\n<div class=\"card card-section bg-dark text-warning shadow\">\n  <div class=\"section card-body mb-0 my-2\">\n    <div class=\"paragraph card-text card-stanza my-5 text-center\">For who you need to be,</div>\n    <div class=\"paragraph card-text card-stanza my-5 text-center\">to be strong and healthy,</div>\n    <div class=\"paragraph card-text card-stanza my-5 text-center\">and unbreakable and worthy.</div>\n  </div>\n</div>",
  "print": "<div class=\"section avoid-break-inside\" style=\"padding-bottom: 2rem;\">\n  <div class=\"paragraph\">At the center of our being,</div>\n  <div class=\"paragraph\">we each have a collection.</div>\n</div>\n<div class=\"section avoid-break-inside\" style=\"padding-bottom: 2rem;\">\n  <div class=\"paragraph\">It makes us unique,</div>\n  <div class=\"paragraph\">but we never lose our connection.</div>\n</div>\n<div class=\"section avoid-break-inside\" style=\"padding-bottom: 2rem;\">\n  <div class=\"paragraph\">As with all things in life,</div>\n  <div class=\"paragraph\">it is too easy to get lost in strife.</div>\n</div>\n<div class=\"section avoid-break-inside\" style=\"padding-bottom: 2rem;\">\n  <div class=\"paragraph\">We have to protect what makes us unique,</div>\n  <div class=\"paragraph\">if you fail, your future will be bleak.</div>\n</div>\n<div class=\"section avoid-break-inside\" style=\"padding-bottom: 2rem;\">\n  <div class=\"paragraph\">With all things we do,</div>\n  <div class=\"paragraph\">sometimes the bad guys slip through.</div>\n</div>\n<div class=\"section avoid-break-inside\" style=\"padding-bottom: 2rem;\">\n  <div class=\"paragraph\">This is what we need courage for,</div>\n  <div class=\"paragraph\">to look them in the eyes, and slam the door.</div>\n</div>\n<div class=\"section avoid-break-inside\" style=\"padding-bottom: 2rem;\">\n  <div class=\"paragraph\">The unique collection at our center, is our power.</div>\n  <div class=\"paragraph\">It transforms, and evolves, hour after hour.</div>\n</div>\n<div class=\"section avoid-break-inside\" style=\"padding-bottom: 2rem;\">\n  <div class=\"paragraph\">We start with just the Ocean, Skies, Mountains, Stars, Earth and Mars,</div>\n  <div class=\"paragraph\">maybe Flowers, Gardens, Kittens, Dogs, Horses and Frogs.</div>\n</div>\n<div class=\"section avoid-break-inside\" style=\"padding-bottom: 2rem;\">\n  <div class=\"paragraph\">But then it grows, call it soul, or spirit, personality or vitality,</div>\n  <div class=\"paragraph\">it becomes... Beauty, Endurance, Authenticity, Nobility, Love and Dignity.</div>\n</div>\n<div class=\"section avoid-break-inside\" style=\"padding-bottom: 2rem;\">\n  <div class=\"paragraph\">And it keeps growing, so as long as you Love Yourself,</div>\n</div>\n<div class=\"section avoid-break-inside\" style=\"padding-bottom: 2rem;\">\n  <div class=\"paragraph\">It creates Leaders, Protectors, Guides, Teachers, Dreamers,</div>\n  <div class=\"paragraph\">Adventurers, Explorers and Discoverers,</div>\n  <div class=\"paragraph\">Intellectuals, Humanitarians, Philosophers,</div>\n  <div class=\"paragraph\">Scientists, Astronomers,</div>\n  <div class=\"paragraph\">Dancers, Athletes, Bodybuilders,</div>\n  <div class=\"paragraph\">Chefs, Blacksmiths, and Makers,</div>\n  <div class=\"paragraph\">Musicians, Poets, Sculptors, Photographers and Filmmakers,</div>\n  <div class=\"paragraph\">Artists and Designers,</div>\n  <div class=\"paragraph\">Hackers and Programmers,</div>\n  <div class=\"paragraph\">Genius...</div>\n  <div class=\"paragraph\">Visionaries...</div>\n  <div class=\"paragraph\">Founders....</div>\n</div>\n<div class=\"section avoid-break-inside\" style=\"padding-bottom: 2rem;\">\n  <div class=\"paragraph\">You have to protect what makes you unique at all cost,</div>\n  <div class=\"paragraph\">if you start letting go, you will become lost.</div>\n</div>\n<div class=\"section avoid-break-inside\" style=\"padding-bottom: 2rem;\">\n  <div class=\"paragraph\">And many will come, and many with care and kindness,</div>\n  <div class=\"paragraph\">and they will try to change you, in their blindness.</div>\n</div>\n<div class=\"section avoid-break-inside\" style=\"padding-bottom: 2rem;\">\n  <div class=\"paragraph\">You cannot grow up, if you start letting go,</div>\n  <div class=\"paragraph\">you need an unbroken chain, you need that flow.</div>\n</div>\n<div class=\"section avoid-break-inside\" style=\"padding-bottom: 2rem;\">\n  <div class=\"paragraph\">You have to learn to say,</div>\n  <div class=\"paragraph\">that it's either you, the one one who stands and is true,</div>\n  <div class=\"paragraph\">or you are through.</div>\n</div>\n<div class=\"section avoid-break-inside\" style=\"padding-bottom: 2rem;\">\n  <div class=\"paragraph\">To grow up, into who you need to be,</div>\n  <div class=\"paragraph\">is your right, and your dignity.</div>\n</div>\n<div class=\"section avoid-break-inside\" style=\"padding-bottom: 2rem;\">\n  <div class=\"paragraph\">To let bullies push you around,</div>\n  <div class=\"paragraph\">is to fail, and falter,</div>\n  <div class=\"paragraph\">and run aground.</div>\n</div>\n<div class=\"section avoid-break-inside\" style=\"padding-bottom: 2rem;\">\n  <div class=\"paragraph\">Decades, decades after they are long gone, do not let go,</div>\n  <div class=\"paragraph\">do not take their turns, do not change your view,</div>\n  <div class=\"paragraph\">you must aim to become worthy of you.</div>\n</div>\n<div class=\"section avoid-break-inside\" style=\"padding-bottom: 2rem;\">\n  <div class=\"paragraph\">Whether you believe in Heroes,</div>\n  <div class=\"paragraph\">on that we are only Human.</div>\n</div>\n<div class=\"section avoid-break-inside\" style=\"padding-bottom: 2rem;\">\n  <div class=\"paragraph\">It is the same height,</div>\n  <div class=\"paragraph\">just a maximum of our might.</div>\n</div>\n<div class=\"section avoid-break-inside\" style=\"padding-bottom: 2rem;\">\n  <div class=\"paragraph\">Push, and stand up, and aim up, and rise,</div>\n  <div class=\"paragraph\">Open your eyes,</div>\n  <div class=\"paragraph\">it is the only way to become wise.</div>\n</div>\n<div class=\"section avoid-break-inside\" style=\"padding-bottom: 2rem;\">\n  <div class=\"paragraph\">Fight for who you are,</div>\n  <div class=\"paragraph\">because in time,</div>\n  <div class=\"paragraph\">that fight is also for who you need to be.</div>\n</div>\n<div class=\"section avoid-break-inside\" style=\"padding-bottom: 2rem;\">\n  <div class=\"paragraph\">For who you need to be,</div>\n  <div class=\"paragraph\">to be strong and healthy,</div>\n  <div class=\"paragraph\">and unbreakable and worthy.</div>\n</div>",
  "text": "At the center of our being,\nwe each have a collection.\nIt makes us unique,\nbut we never lose our connection.\nAs with all things in life,\nit is too easy to get lost in strife.\nWe have to protect what makes us unique,\nif you fail, your future will be bleak.\nWith all things we do,\nsometimes the bad guys slip through.\nThis is what we need courage for,\nto look them in the eyes, and slam the door.\nThe unique collection at our center, is our power.\nIt transforms, and evolves, hour after hour.\nWe start with just the Ocean, Skies, Mountains, Stars, Earth and Mars,\nmaybe Flowers, Gardens, Kittens, Dogs, Horses and Frogs.\nBut then it grows, call it soul, or spirit, personality or vitality,\nit becomes... Beauty, Endurance, Authenticity, Nobility, Love and Dignity.\nAnd it keeps growing, so as long as you Love Yourself,\nIt creates Leaders, Protectors, Guides, Teachers, Dreamers,\nAdventurers, Explorers and Discoverers,\nIntellectuals, Humanitarians, Philosophers,\nScientists, Astronomers,\nDancers, Athletes, Bodybuilders,\nChefs, Blacksmiths, and Makers,\nMusicians, Poets, Sculptors, Photographers and Filmmakers,\nArtists and Designers,\nHackers and Programmers,\nGenius...\nVisionaries...\nFounders....\nYou have to protect what makes you unique at all cost,\nif you start letting go, you will become lost.\nAnd many will come, and many with care and kindness,\nand they will try to change you, in their blindness.\nYou cannot grow up, if you start letting go,\nyou need an unbroken chain, you need that flow.\nYou have to learn to say,\nthat it's either you, the one one who stands and is true,\nor you are through.\nTo grow up, into who you need to be,\nis your right, and your dignity.\nTo let bullies push you around,\nis to fail, and falter,\nand run aground.\nDecades, decades after they are long gone, do not let go,\ndo not take their turns, do not change your view,\nyou must aim to become worthy of you.\nWhether you believe in Heroes,\non that we are only Human.\nIt is the same height,\njust a maximum of our might.\nPush, and stand up, and aim up, and rise,\nOpen your eyes,\nit is the only way to become wise.\nFight for who you are,\nbecause in time,\nthat fight is also for who you need to be.\nFor who you need to be,\nto be strong and healthy,\nand unbreakable and worthy.",
  "images": [],
  "links": []
}