{
  "title": "Authenticity Helps Us Learn",
  "date": "2020-06-13T04:05:02.742Z",
  "image": "poetry-0104-illustration.jpg",
  "audio": "poetry-0104.mp3",
  "id": "furkies-purrkies-poetry-0104",
  "attachments": {},
  "guid": "5f2bcf7a-c67a-46d1-8081-2251331a647c"
}
