{
  "id": "furkies-purrkies-poetry-0559",
  "title": "Biographies: Stories of Wisdom, and Adventures in Life",
  "date": "2021-09-11T02:04:58.250Z",
  "image": "poetry-0559-illustration.jpg",
  "artwork": "https://unsplash.com/photos/ZpnVeCKf6KM",
  "audio": "poetry-0559.mp3",
  "guid": "fcefd5ae-49a0-4616-a13b-c2499b1e6393"
}
