{
  "title": "Epoch by Epoch",
  "date": "2020-05-16T01:30:32.940Z",
  "image": "poetry-0071-illustration.jpg",
  "audio": "poetry-0071.mp3",
  "id": "furkies-purrkies-poetry-0071",
  "attachments": {},
  "guid": "5eb37514-17f9-4cf1-8066-b4926de979d6"
}
