{
  "title": "Ensue",
  "date": "2020-07-27T03:47:43.249Z",
  "image": "poetry-0148-illustration.jpg",
  "audio": "poetry-0148.mp3",
  "id": "furkies-purrkies-poetry-0148",
  "attachments": {},
  "guid": "058cbaf5-557b-4ce2-9d95-85e85490d67c"
}
