{
  "title": "De Hominis Dignitate",
  "date": "2020-10-15T02:20:44.076Z",
  "image": "poetry-0228-illustration.jpg",
  "audio": "poetry-0228.mp3",
  "artwork": "https://unsplash.com/",
  "id": "furkies-purrkies-poetry-0228",
  "attachments": {},
  "guid": "8aace94b-15a3-4478-8cf8-4b63634d87b0"
}
