{
  "name": "furkies-purrkies-poetry-0395",
  "title": "My Greatest Archaeological Discovery, That Belonged In A Museum!",
  "date": "2021-03-31T01:09:09.153Z",
  "image": "poetry-0395-illustration.jpg",
  "audio": "poetry-0395.mp3",
  "artwork": "https://catpea.com/",
  "id": "furkies-purrkies-poetry-0395",
  "attachments": {},
  "guid": "af5aed38-7b28-4984-88bc-ee279e0c9cf4",
  "html": "<div class=\"section\">\n  <p>I was digging in Eastern Europe,</p>\n  <p>it was an old Airplane Field.</p>\n</div>\n\n<div class=\"section\">\n  <p>There was a number of bunkers,</p>\n  <p>and there was a house in the city that still had bullet holes in it.</p>\n</div>\n\n<div class=\"section\">\n  <p>It was meant to be a reminder,</p>\n  <p>of what the city walls used to look like.</p>\n</div>\n\n<div class=\"section\">\n  <hr>\n</div>\n\n<div class=\"section\">\n  <p>They were building a new apartment complex,</p>\n  <p>in preparation for new infrastructure there was a new dig.</p>\n</div>\n\n<div class=\"section\">\n  <p>It was maybe four times my height,</p>\n  <p>this was right at edge of the old air-field</p>\n</div>\n\n<div class=\"section\">\n  <p>It was used as a land fill right after the war ended,</p>\n  <p>or they were expanding it, by bringing rubble from another land-fill.</p>\n</div>\n\n<div class=\"section\">\n  <hr>\n</div>\n\n<div class=\"section\">\n  <p>It was a rough day,</p>\n  <p>I woke up early.</p>\n</div>\n\n<div class=\"section\">\n  <p>And set of for the dig site,</p>\n  <p>I had plenty of time left before the work crew showed up.</p>\n</div>\n\n<div class=\"section\">\n  <p>So, I focused on careful excavation of the site,</p>\n  <p>layer by layer, artifact by artifact.</p>\n</div>\n\n<div class=\"section\">\n  <hr>\n</div>\n\n<div class=\"section\">\n  <p>I found many bottles,</p>\n  <p>some of them could have gone as far back as early 1800s, it seemed.</p>\n</div>\n\n<div class=\"section\">\n  <p>I found graphite sticks dating back to early 40s,</p>\n  <p>these were likely of military origin, used in batteries to power portable equipment.</p>\n</div>\n\n<div class=\"section\">\n  <p>I hit a patch of <a href=\"https://en.wikipedia.org/wiki/Redware\">Redware</a>,</p>\n  <p>but it was hard to be sure, because of all the red shingles and crushed brick.</p>\n</div>\n\n<div class=\"section\">\n  <hr>\n</div>\n\n<div class=\"section\">\n  <p>As I was trying to make sense of what I had on this site,</p>\n  <p>I remembered a kid from across the city with a jar of black power.</p>\n</div>\n\n<div class=\"section\">\n  <p>Crazy, son of a gun, was saying it was Trinitrotoluene,</p>\n  <p>that he extracted from rusted armor piercing rounds, as in tank armor.</p>\n</div>\n\n<div class=\"section\">\n  <p>I hope he was wrong, and I hope is is OK,</p>\n  <p>the only reason to have a deadly jar like that, is to try to light it later on, poor bastard.</p>\n</div>\n\n<div class=\"section\">\n  <hr>\n</div>\n\n<div class=\"section\">\n  <p>Just last month, early March 2021, <a href=\"https://www.polishnews.co.uk/wroclaw-250-kg-bomb-detonated-at-the-training-ground-recording/\">a 550 lb (or quarter ton) bomb was discovered</a>,</p>\n  <p>over at Popowice, which wasn&apos;t that far away, it is no joke.</p>\n</div>\n\n<div class=\"section\">\n  <p><a href=\"https://www.youtube.com/watch?v=ipVhWXVU_ts\">The expert states that it was a Russian bomb of German manufacture, and says that they have a name for them &quot;Rusty Death&quot;</a>,</p>\n  <p>and explains that the rust is only on the surface, the bomb is still an active explosive.</p>\n</div>\n\n<div class=\"section\">\n  <p>Search internet for <a href=\"https://www.youtube.com/watch?v=PwVAuokrHrI\">550-pound WWII bomb In Munich, 2012</a>,</p>\n  <p>to see how enormous, and city shaking those explosions are - since these bombs cannot be moved, the only safe way to remove them, is to detonate them on purpose after evacuating the town.</p>\n</div>\n\n<div class=\"section\">\n  <hr>\n</div>\n\n<div class=\"section\">\n  <p>You don&apos;t become an Archaeologist,</p>\n  <p>Archaeology finds you, when it has something to say.</p>\n</div>\n\n<div class=\"section\">\n  <p>Then I saw it, it was a shiny colorful and beautiful round object,</p>\n  <p>about the size of my hand.</p>\n</div>\n\n<div class=\"section\">\n  <p>It was a crystal, at first I thought the color came from it sitting in the ground,</p>\n  <p>but now, I am certain, it was an iridescent crystal.</p>\n</div>\n\n<div class=\"section\">\n  <hr>\n</div>\n\n<div class=\"section\">\n  <p>I brushed away the deep dark soil, and gasped,</p>\n  <p>and just stood there holding it.</p>\n</div>\n\n<div class=\"section\">\n  <p>It was a crystal snail,</p>\n  <p>it was not some part of a expensive chandelier, it was a work of art that stood on its own.</p>\n</div>\n\n<div class=\"section\">\n  <p>I couldn&apos;t believe it,</p>\n  <p>I found a treasure lost to history, it could be much much older than the dig site, a family heirloom, maybe.</p>\n</div>\n\n<div class=\"section\">\n  <hr>\n</div>\n\n<div class=\"section\">\n  <p>But you know how it is,</p>\n  <p>history will let you hold it, but it belongs to her.</p>\n</div>\n\n<div class=\"section\">\n  <p>For the moment that I held it in my hand,</p>\n  <p>it seemed like time has stopped.</p>\n</div>\n\n<div class=\"section\">\n  <p>But now, it begun flowing again,</p>\n  <p>and almost like after a loud explosion, I regained my hearing, to discover I am being shouted at.</p>\n</div>\n\n<div class=\"section\">\n  <hr>\n</div>\n\n<div class=\"section\">\n  <p>The workers, arrived a the site,</p>\n  <p>they were packed in the bed of a huge dump truck that they used for moving the rubble as they dig.</p>\n</div>\n\n<div class=\"section\">\n  <p>They were shouting because they saw a Nine Year old boy,</p>\n  <p>by the flat wall of a deep hole, these walls have a tendency to collapse.</p>\n</div>\n\n<div class=\"section\">\n  <p>I still had to crawl out of there, it was still very deep for me,</p>\n  <p>and the earth was really soft.</p>\n</div>\n\n<div class=\"section\">\n  <hr>\n</div>\n\n<div class=\"section\">\n  <p>I threw my Crystal Snail up on top of the wall I had to climb,</p>\n  <p>and as I made my way up there among all the shouting and the truck being really close,</p>\n</div>\n\n<div class=\"section\">\n  <p>I lost site of it,</p>\n  <p>and I searched for it courageously until the workers were right there.</p>\n</div>\n\n<div class=\"section\">\n  <p>But it was gone,</p>\n  <p>I lost my magical treasure.</p>\n</div>\n\n<div class=\"section\">\n  <hr>\n</div>\n\n<div class=\"section\">\n  <p>Post Scriptum,</p>\n  <p>Here, I mark the <a href=\"https://www.google.com/maps/place/51%C2%B007&apos;34.0%22N+16%C2%B057&apos;25.0%22E/@51.12611,16.9564088,177m/data=!3m2!1e3!4b1!4m14!1m7!3m6!1s0x470fea782aa2b505:0xf1a0f3fd873694e3!2sTa%C5%84skiego+17,+54-129+Wroc%C5%82aw,+Poland!3b1!8m2!3d51.125645!4d16.9578668!3m5!1s0x0:0x0!7e2!8m2!3d51.1261095!4d16.956956\">location of my dig site</a>,</p>\n  <p>and where I lost my magical crystal snail, 51&#xB0;07&apos;34.0&quot;N 16&#xB0;57&apos;25.0&quot;E, it could be beneath the sidewalk, but perhaps the hole I was in was the foundation for that six story building.</p>\n</div>",
  "bootstrap": "<div class=\"card card-section bg-dark text-warning shadow\">\n  <div class=\"section card-body mb-0 my-2\">\n    <div class=\"paragraph card-text card-stanza my-5 text-center\">I was digging in Eastern Europe,</div>\n    <div class=\"paragraph card-text card-stanza my-5 text-center\">it was an old Airplane Field.</div>\n  </div>\n</div>\n<div class=\"card card-section bg-dark text-warning shadow\">\n  <div class=\"section card-body mb-0 my-2\">\n    <div class=\"paragraph card-text card-stanza my-5 text-center\">There was a number of bunkers,</div>\n    <div class=\"paragraph card-text card-stanza my-5 text-center\">and there was a house in the city that still had bullet holes in it.</div>\n  </div>\n</div>\n<div class=\"card card-section bg-dark text-warning shadow\">\n  <div class=\"section card-body mb-0 my-2\">\n    <div class=\"paragraph card-text card-stanza my-5 text-center\">It was meant to be a reminder,</div>\n    <div class=\"paragraph card-text card-stanza my-5 text-center\">of what the city walls used to look like.</div>\n  </div>\n</div>\n<div class=\"mb-5 section-spacer\">&nbsp;</div>\n<div class=\"card card-section bg-dark text-warning shadow\">\n  <div class=\"section card-body mb-0 my-2\">\n    <div class=\"paragraph card-text card-stanza my-5 text-center\">They were building a new apartment complex,</div>\n    <div class=\"paragraph card-text card-stanza my-5 text-center\">in preparation for new infrastructure there was a new dig.</div>\n  </div>\n</div>\n<div class=\"card card-section bg-dark text-warning shadow\">\n  <div class=\"section card-body mb-0 my-2\">\n    <div class=\"paragraph card-text card-stanza my-5 text-center\">It was maybe four times my height,</div>\n    <div class=\"paragraph card-text card-stanza my-5 text-center\">this was right at edge of the old air-field</div>\n  </div>\n</div>\n<div class=\"card card-section bg-dark text-warning shadow\">\n  <div class=\"section card-body mb-0 my-2\">\n    <div class=\"paragraph card-text card-stanza my-5 text-center\">It was used as a land fill right after the war ended,</div>\n    <div class=\"paragraph card-text card-stanza my-5 text-center\">or they were expanding it, by bringing rubble from another land-fill.</div>\n  </div>\n</div>\n<div class=\"mb-5 section-spacer\">&nbsp;</div>\n<div class=\"card card-section bg-dark text-warning shadow\">\n  <div class=\"section card-body mb-0 my-2\">\n    <div class=\"paragraph card-text card-stanza my-5 text-center\">It was a rough day,</div>\n    <div class=\"paragraph card-text card-stanza my-5 text-center\">I woke up early.</div>\n  </div>\n</div>\n<div class=\"card card-section bg-dark text-warning shadow\">\n  <div class=\"section card-body mb-0 my-2\">\n    <div class=\"paragraph card-text card-stanza my-5 text-center\">And set of for the dig site,</div>\n    <div class=\"paragraph card-text card-stanza my-5 text-center\">I had plenty of time left before the work crew showed up.</div>\n  </div>\n</div>\n<div class=\"card card-section bg-dark text-warning shadow\">\n  <div class=\"section card-body mb-0 my-2\">\n    <div class=\"paragraph card-text card-stanza my-5 text-center\">So, I focused on careful excavation of the site,</div>\n    <div class=\"paragraph card-text card-stanza my-5 text-center\">layer by layer, artifact by artifact.</div>\n  </div>\n</div>\n<div class=\"mb-5 section-spacer\">&nbsp;</div>\n<div class=\"card card-section bg-dark text-warning shadow\">\n  <div class=\"section card-body mb-0 my-2\">\n    <div class=\"paragraph card-text card-stanza my-5 text-center\">I found many bottles,</div>\n    <div class=\"paragraph card-text card-stanza my-5 text-center\">some of them could have gone as far back as early 1800s, it seemed.</div>\n  </div>\n</div>\n<div class=\"card card-section bg-dark text-warning shadow\">\n  <div class=\"section card-body mb-0 my-2\">\n    <div class=\"paragraph card-text card-stanza my-5 text-center\">I found graphite sticks dating back to early 40s,</div>\n    <div class=\"paragraph card-text card-stanza my-5 text-center\">these were likely of military origin, used in batteries to power portable equipment.</div>\n  </div>\n</div>\n<div class=\"card card-section bg-dark text-warning shadow\">\n  <div class=\"section card-body mb-0 my-2\">\n    <div class=\"paragraph card-text card-stanza my-5 text-center\">I hit a patch of <a href=\"https://en.wikipedia.org/wiki/Redware\">Redware</a>,</div>\n    <div class=\"paragraph card-text card-stanza my-5 text-center\">but it was hard to be sure, because of all the red shingles and crushed brick.</div>\n  </div>\n</div>\n<div class=\"mb-5 section-spacer\">&nbsp;</div>\n<div class=\"card card-section bg-dark text-warning shadow\">\n  <div class=\"section card-body mb-0 my-2\">\n    <div class=\"paragraph card-text card-stanza my-5 text-center\">As I was trying to make sense of what I had on this site,</div>\n    <div class=\"paragraph card-text card-stanza my-5 text-center\">I remembered a kid from across the city with a jar of black power.</div>\n  </div>\n</div>\n<div class=\"card card-section bg-dark text-warning shadow\">\n  <div class=\"section card-body mb-0 my-2\">\n    <div class=\"paragraph card-text card-stanza my-5 text-center\">Crazy, son of a gun, was saying it was Trinitrotoluene,</div>\n    <div class=\"paragraph card-text card-stanza my-5 text-center\">that he extracted from rusted armor piercing rounds, as in tank armor.</div>\n  </div>\n</div>\n<div class=\"card card-section bg-dark text-warning shadow\">\n  <div class=\"section card-body mb-0 my-2\">\n    <div class=\"paragraph card-text card-stanza my-5 text-center\">I hope he was wrong, and I hope is is OK,</div>\n    <div class=\"paragraph card-text card-stanza my-5 text-center\">the only reason to have a deadly jar like that, is to try to light it later on, poor bastard.</div>\n  </div>\n</div>\n<div class=\"mb-5 section-spacer\">&nbsp;</div>\n<div class=\"card card-section bg-dark text-warning shadow\">\n  <div class=\"section card-body mb-0 my-2\">\n    <div class=\"paragraph card-text card-stanza my-5 text-center\">Just last month, early March 2021, <a href=\"https://www.polishnews.co.uk/wroclaw-250-kg-bomb-detonated-at-the-training-ground-recording/\">a 550 lb (or quarter ton) bomb was discovered</a>,</div>\n    <div class=\"paragraph card-text card-stanza my-5 text-center\">over at Popowice, which wasn't that far away, it is no joke.</div>\n  </div>\n</div>\n<div class=\"card card-section bg-dark text-warning shadow\">\n  <div class=\"section card-body mb-0 my-2\">\n    <div class=\"paragraph card-text card-stanza my-5 text-center\"><a href=\"https://www.youtube.com/watch?v=ipVhWXVU_ts\">The expert states that it was a Russian bomb of German manufacture, and says that they have a name for them \"Rusty Death\"</a>,</div>\n    <div class=\"paragraph card-text card-stanza my-5 text-center\">and explains that the rust is only on the surface, the bomb is still an active explosive.</div>\n  </div>\n</div>\n<div class=\"card card-section bg-dark text-warning shadow\">\n  <div class=\"section card-body mb-0 my-2\">\n    <div class=\"paragraph card-text card-stanza my-5 text-center\">Search internet for <a href=\"https://www.youtube.com/watch?v=PwVAuokrHrI\">550-pound WWII bomb In Munich, 2012</a>,</div>\n    <div class=\"paragraph card-text card-stanza my-5 text-center\">to see how enormous, and city shaking those explosions are - since these bombs cannot be moved, the only safe way to remove them, is to detonate them on purpose after evacuating the town.</div>\n  </div>\n</div>\n<div class=\"mb-5 section-spacer\">&nbsp;</div>\n<div class=\"card card-section bg-dark text-warning shadow\">\n  <div class=\"section card-body mb-0 my-2\">\n    <div class=\"paragraph card-text card-stanza my-5 text-center\">You don't become an Archaeologist,</div>\n    <div class=\"paragraph card-text card-stanza my-5 text-center\">Archaeology finds you, when it has something to say.</div>\n  </div>\n</div>\n<div class=\"card card-section bg-dark text-warning shadow\">\n  <div class=\"section card-body mb-0 my-2\">\n    <div class=\"paragraph card-text card-stanza my-5 text-center\">Then I saw it, it was a shiny colorful and beautiful round object,</div>\n    <div class=\"paragraph card-text card-stanza my-5 text-center\">about the size of my hand.</div>\n  </div>\n</div>\n<div class=\"card card-section bg-dark text-warning shadow\">\n  <div class=\"section card-body mb-0 my-2\">\n    <div class=\"paragraph card-text card-stanza my-5 text-center\">It was a crystal, at first I thought the color came from it sitting in the ground,</div>\n    <div class=\"paragraph card-text card-stanza my-5 text-center\">but now, I am certain, it was an iridescent crystal.</div>\n  </div>\n</div>\n<div class=\"mb-5 section-spacer\">&nbsp;</div>\n<div class=\"card card-section bg-dark text-warning shadow\">\n  <div class=\"section card-body mb-0 my-2\">\n    <div class=\"paragraph card-text card-stanza my-5 text-center\">I brushed away the deep dark soil, and gasped,</div>\n    <div class=\"paragraph card-text card-stanza my-5 text-center\">and just stood there holding it.</div>\n  </div>\n</div>\n<div class=\"card card-section bg-dark text-warning shadow\">\n  <div class=\"section card-body mb-0 my-2\">\n    <div class=\"paragraph card-text card-stanza my-5 text-center\">It was a crystal snail,</div>\n    <div class=\"paragraph card-text card-stanza my-5 text-center\">it was not some part of a expensive chandelier, it was a work of art that stood on its own.</div>\n  </div>\n</div>\n<div class=\"card card-section bg-dark text-warning shadow\">\n  <div class=\"section card-body mb-0 my-2\">\n    <div class=\"paragraph card-text card-stanza my-5 text-center\">I couldn't believe it,</div>\n    <div class=\"paragraph card-text card-stanza my-5 text-center\">I found a treasure lost to history, it could be much much older than the dig site, a family heirloom, maybe.</div>\n  </div>\n</div>\n<div class=\"mb-5 section-spacer\">&nbsp;</div>\n<div class=\"card card-section bg-dark text-warning shadow\">\n  <div class=\"section card-body mb-0 my-2\">\n    <div class=\"paragraph card-text card-stanza my-5 text-center\">But you know how it is,</div>\n    <div class=\"paragraph card-text card-stanza my-5 text-center\">history will let you hold it, but it belongs to her.</div>\n  </div>\n</div>\n<div class=\"card card-section bg-dark text-warning shadow\">\n  <div class=\"section card-body mb-0 my-2\">\n    <div class=\"paragraph card-text card-stanza my-5 text-center\">For the moment that I held it in my hand,</div>\n    <div class=\"paragraph card-text card-stanza my-5 text-center\">it seemed like time has stopped.</div>\n  </div>\n</div>\n<div class=\"card card-section bg-dark text-warning shadow\">\n  <div class=\"section card-body mb-0 my-2\">\n    <div class=\"paragraph card-text card-stanza my-5 text-center\">But now, it begun flowing again,</div>\n    <div class=\"paragraph card-text card-stanza my-5 text-center\">and almost like after a loud explosion, I regained my hearing, to discover I am being shouted at.</div>\n  </div>\n</div>\n<div class=\"mb-5 section-spacer\">&nbsp;</div>\n<div class=\"card card-section bg-dark text-warning shadow\">\n  <div class=\"section card-body mb-0 my-2\">\n    <div class=\"paragraph card-text card-stanza my-5 text-center\">The workers, arrived a the site,</div>\n    <div class=\"paragraph card-text card-stanza my-5 text-center\">they were packed in the bed of a huge dump truck that they used for moving the rubble as they dig.</div>\n  </div>\n</div>\n<div class=\"card card-section bg-dark text-warning shadow\">\n  <div class=\"section card-body mb-0 my-2\">\n    <div class=\"paragraph card-text card-stanza my-5 text-center\">They were shouting because they saw a Nine Year old boy,</div>\n    <div class=\"paragraph card-text card-stanza my-5 text-center\">by the flat wall of a deep hole, these walls have a tendency to collapse.</div>\n  </div>\n</div>\n<div class=\"card card-section bg-dark text-warning shadow\">\n  <div class=\"section card-body mb-0 my-2\">\n    <div class=\"paragraph card-text card-stanza my-5 text-center\">I still had to crawl out of there, it was still very deep for me,</div>\n    <div class=\"paragraph card-text card-stanza my-5 text-center\">and the earth was really soft.</div>\n  </div>\n</div>\n<div class=\"mb-5 section-spacer\">&nbsp;</div>\n<div class=\"card card-section bg-dark text-warning shadow\">\n  <div class=\"section card-body mb-0 my-2\">\n    <div class=\"paragraph card-text card-stanza my-5 text-center\">I threw my Crystal Snail up on top of the wall I had to climb,</div>\n    <div class=\"paragraph card-text card-stanza my-5 text-center\">and as I made my way up there among all the shouting and the truck being really close,</div>\n  </div>\n</div>\n<div class=\"card card-section bg-dark text-warning shadow\">\n  <div class=\"section card-body mb-0 my-2\">\n    <div class=\"paragraph card-text card-stanza my-5 text-center\">I lost site of it,</div>\n    <div class=\"paragraph card-text card-stanza my-5 text-center\">and I searched for it courageously until the workers were right there.</div>\n  </div>\n</div>\n<div class=\"card card-section bg-dark text-warning shadow\">\n  <div class=\"section card-body mb-0 my-2\">\n    <div class=\"paragraph card-text card-stanza my-5 text-center\">But it was gone,</div>\n    <div class=\"paragraph card-text card-stanza my-5 text-center\">I lost my magical treasure.</div>\n  </div>\n</div>\n<div class=\"mb-5 section-spacer\">&nbsp;</div>\n<div class=\"card card-section bg-dark text-warning shadow\">\n  <div class=\"section card-body mb-0 my-2\">\n    <div class=\"paragraph card-text card-stanza my-5 text-center\">Post Scriptum,</div>\n    <div class=\"paragraph card-text card-stanza my-5 text-center\">Here, I mark the <a href=\"https://www.google.com/maps/place/51%C2%B007'34.0%22N+16%C2%B057'25.0%22E/@51.12611,16.9564088,177m/data=!3m2!1e3!4b1!4m14!1m7!3m6!1s0x470fea782aa2b505:0xf1a0f3fd873694e3!2sTa%C5%84skiego+17,+54-129+Wroc%C5%82aw,+Poland!3b1!8m2!3d51.125645!4d16.9578668!3m5!1s0x0:0x0!7e2!8m2!3d51.1261095!4d16.956956\">location of my dig site</a>,</div>\n    <div class=\"paragraph card-text card-stanza my-5 text-center\">and where I lost my magical crystal snail, 51°07'34.0\"N 16°57'25.0\"E, it could be beneath the sidewalk, but perhaps the hole I was in was the foundation for that six story building.</div>\n  </div>\n</div>",
  "print": "<div class=\"section avoid-break-inside\" style=\"padding-bottom: 2rem;\">\n  <div class=\"paragraph\">I was digging in Eastern Europe,</div>\n  <div class=\"paragraph\">it was an old Airplane Field.</div>\n</div>\n<div class=\"section avoid-break-inside\" style=\"padding-bottom: 2rem;\">\n  <div class=\"paragraph\">There was a number of bunkers,</div>\n  <div class=\"paragraph\">and there was a house in the city that still had bullet holes in it.</div>\n</div>\n<div class=\"section avoid-break-inside\" style=\"padding-bottom: 2rem;\">\n  <div class=\"paragraph\">It was meant to be a reminder,</div>\n  <div class=\"paragraph\">of what the city walls used to look like.</div>\n</div>\n<div class=\"section avoid-break-inside\" style=\"padding-bottom: 2rem;\">\n  <br>\n</div>\n<div class=\"section avoid-break-inside\" style=\"padding-bottom: 2rem;\">\n  <div class=\"paragraph\">They were building a new apartment complex,</div>\n  <div class=\"paragraph\">in preparation for new infrastructure there was a new dig.</div>\n</div>\n<div class=\"section avoid-break-inside\" style=\"padding-bottom: 2rem;\">\n  <div class=\"paragraph\">It was maybe four times my height,</div>\n  <div class=\"paragraph\">this was right at edge of the old air-field</div>\n</div>\n<div class=\"section avoid-break-inside\" style=\"padding-bottom: 2rem;\">\n  <div class=\"paragraph\">It was used as a land fill right after the war ended,</div>\n  <div class=\"paragraph\">or they were expanding it, by bringing rubble from another land-fill.</div>\n</div>\n<div class=\"section avoid-break-inside\" style=\"padding-bottom: 2rem;\">\n  <br>\n</div>\n<div class=\"section avoid-break-inside\" style=\"padding-bottom: 2rem;\">\n  <div class=\"paragraph\">It was a rough day,</div>\n  <div class=\"paragraph\">I woke up early.</div>\n</div>\n<div class=\"section avoid-break-inside\" style=\"padding-bottom: 2rem;\">\n  <div class=\"paragraph\">And set of for the dig site,</div>\n  <div class=\"paragraph\">I had plenty of time left before the work crew showed up.</div>\n</div>\n<div class=\"section avoid-break-inside\" style=\"padding-bottom: 2rem;\">\n  <div class=\"paragraph\">So, I focused on careful excavation of the site,</div>\n  <div class=\"paragraph\">layer by layer, artifact by artifact.</div>\n</div>\n<div class=\"section avoid-break-inside\" style=\"padding-bottom: 2rem;\">\n  <br>\n</div>\n<div class=\"section avoid-break-inside\" style=\"padding-bottom: 2rem;\">\n  <div class=\"paragraph\">I found many bottles,</div>\n  <div class=\"paragraph\">some of them could have gone as far back as early 1800s, it seemed.</div>\n</div>\n<div class=\"section avoid-break-inside\" style=\"padding-bottom: 2rem;\">\n  <div class=\"paragraph\">I found graphite sticks dating back to early 40s,</div>\n  <div class=\"paragraph\">these were likely of military origin, used in batteries to power portable equipment.</div>\n</div>\n<div class=\"section avoid-break-inside\" style=\"padding-bottom: 2rem;\">\n  <div class=\"paragraph\">I hit a patch of <span>Redware<sup>[1]</sup></span>,</div>\n  <div class=\"paragraph\">but it was hard to be sure, because of all the red shingles and crushed brick.</div>\n</div>\n<div class=\"section avoid-break-inside\" style=\"padding-bottom: 2rem;\">\n  <br>\n</div>\n<div class=\"section avoid-break-inside\" style=\"padding-bottom: 2rem;\">\n  <div class=\"paragraph\">As I was trying to make sense of what I had on this site,</div>\n  <div class=\"paragraph\">I remembered a kid from across the city with a jar of black power.</div>\n</div>\n<div class=\"section avoid-break-inside\" style=\"padding-bottom: 2rem;\">\n  <div class=\"paragraph\">Crazy, son of a gun, was saying it was Trinitrotoluene,</div>\n  <div class=\"paragraph\">that he extracted from rusted armor piercing rounds, as in tank armor.</div>\n</div>\n<div class=\"section avoid-break-inside\" style=\"padding-bottom: 2rem;\">\n  <div class=\"paragraph\">I hope he was wrong, and I hope is is OK,</div>\n  <div class=\"paragraph\">the only reason to have a deadly jar like that, is to try to light it later on, poor bastard.</div>\n</div>\n<div class=\"section avoid-break-inside\" style=\"padding-bottom: 2rem;\">\n  <br>\n</div>\n<div class=\"section avoid-break-inside\" style=\"padding-bottom: 2rem;\">\n  <div class=\"paragraph\">Just last month, early March 2021, <span>a 550 lb (or quarter ton) bomb was discovered<sup>[2]</sup></span>,</div>\n  <div class=\"paragraph\">over at Popowice, which wasn't that far away, it is no joke.</div>\n</div>\n<div class=\"section avoid-break-inside\" style=\"padding-bottom: 2rem;\">\n  <div class=\"paragraph\"><span>The expert states that it was a Russian bomb of German manufacture, and says that they have a name for them \"Rusty Death\"<sup>[3]</sup></span>,</div>\n  <div class=\"paragraph\">and explains that the rust is only on the surface, the bomb is still an active explosive.</div>\n</div>\n<div class=\"section avoid-break-inside\" style=\"padding-bottom: 2rem;\">\n  <div class=\"paragraph\">Search internet for <span>550-pound WWII bomb In Munich, 2012<sup>[4]</sup></span>,</div>\n  <div class=\"paragraph\">to see how enormous, and city shaking those explosions are - since these bombs cannot be moved, the only safe way to remove them, is to detonate them on purpose after evacuating the town.</div>\n</div>\n<div class=\"section avoid-break-inside\" style=\"padding-bottom: 2rem;\">\n  <br>\n</div>\n<div class=\"section avoid-break-inside\" style=\"padding-bottom: 2rem;\">\n  <div class=\"paragraph\">You don't become an Archaeologist,</div>\n  <div class=\"paragraph\">Archaeology finds you, when it has something to say.</div>\n</div>\n<div class=\"section avoid-break-inside\" style=\"padding-bottom: 2rem;\">\n  <div class=\"paragraph\">Then I saw it, it was a shiny colorful and beautiful round object,</div>\n  <div class=\"paragraph\">about the size of my hand.</div>\n</div>\n<div class=\"section avoid-break-inside\" style=\"padding-bottom: 2rem;\">\n  <div class=\"paragraph\">It was a crystal, at first I thought the color came from it sitting in the ground,</div>\n  <div class=\"paragraph\">but now, I am certain, it was an iridescent crystal.</div>\n</div>\n<div class=\"section avoid-break-inside\" style=\"padding-bottom: 2rem;\">\n  <br>\n</div>\n<div class=\"section avoid-break-inside\" style=\"padding-bottom: 2rem;\">\n  <div class=\"paragraph\">I brushed away the deep dark soil, and gasped,</div>\n  <div class=\"paragraph\">and just stood there holding it.</div>\n</div>\n<div class=\"section avoid-break-inside\" style=\"padding-bottom: 2rem;\">\n  <div class=\"paragraph\">It was a crystal snail,</div>\n  <div class=\"paragraph\">it was not some part of a expensive chandelier, it was a work of art that stood on its own.</div>\n</div>\n<div class=\"section avoid-break-inside\" style=\"padding-bottom: 2rem;\">\n  <div class=\"paragraph\">I couldn't believe it,</div>\n  <div class=\"paragraph\">I found a treasure lost to history, it could be much much older than the dig site, a family heirloom, maybe.</div>\n</div>\n<div class=\"section avoid-break-inside\" style=\"padding-bottom: 2rem;\">\n  <br>\n</div>\n<div class=\"section avoid-break-inside\" style=\"padding-bottom: 2rem;\">\n  <div class=\"paragraph\">But you know how it is,</div>\n  <div class=\"paragraph\">history will let you hold it, but it belongs to her.</div>\n</div>\n<div class=\"section avoid-break-inside\" style=\"padding-bottom: 2rem;\">\n  <div class=\"paragraph\">For the moment that I held it in my hand,</div>\n  <div class=\"paragraph\">it seemed like time has stopped.</div>\n</div>\n<div class=\"section avoid-break-inside\" style=\"padding-bottom: 2rem;\">\n  <div class=\"paragraph\">But now, it begun flowing again,</div>\n  <div class=\"paragraph\">and almost like after a loud explosion, I regained my hearing, to discover I am being shouted at.</div>\n</div>\n<div class=\"section avoid-break-inside\" style=\"padding-bottom: 2rem;\">\n  <br>\n</div>\n<div class=\"section avoid-break-inside\" style=\"padding-bottom: 2rem;\">\n  <div class=\"paragraph\">The workers, arrived a the site,</div>\n  <div class=\"paragraph\">they were packed in the bed of a huge dump truck that they used for moving the rubble as they dig.</div>\n</div>\n<div class=\"section avoid-break-inside\" style=\"padding-bottom: 2rem;\">\n  <div class=\"paragraph\">They were shouting because they saw a Nine Year old boy,</div>\n  <div class=\"paragraph\">by the flat wall of a deep hole, these walls have a tendency to collapse.</div>\n</div>\n<div class=\"section avoid-break-inside\" style=\"padding-bottom: 2rem;\">\n  <div class=\"paragraph\">I still had to crawl out of there, it was still very deep for me,</div>\n  <div class=\"paragraph\">and the earth was really soft.</div>\n</div>\n<div class=\"section avoid-break-inside\" style=\"padding-bottom: 2rem;\">\n  <br>\n</div>\n<div class=\"section avoid-break-inside\" style=\"padding-bottom: 2rem;\">\n  <div class=\"paragraph\">I threw my Crystal Snail up on top of the wall I had to climb,</div>\n  <div class=\"paragraph\">and as I made my way up there among all the shouting and the truck being really close,</div>\n</div>\n<div class=\"section avoid-break-inside\" style=\"padding-bottom: 2rem;\">\n  <div class=\"paragraph\">I lost site of it,</div>\n  <div class=\"paragraph\">and I searched for it courageously until the workers were right there.</div>\n</div>\n<div class=\"section avoid-break-inside\" style=\"padding-bottom: 2rem;\">\n  <div class=\"paragraph\">But it was gone,</div>\n  <div class=\"paragraph\">I lost my magical treasure.</div>\n</div>\n<div class=\"section avoid-break-inside\" style=\"padding-bottom: 2rem;\">\n  <br>\n</div>\n<div class=\"section avoid-break-inside\" style=\"padding-bottom: 2rem;\">\n  <div class=\"paragraph\">Post Scriptum,</div>\n  <div class=\"paragraph\">Here, I mark the <span>location of my dig site<sup>[5]</sup></span>,</div>\n  <div class=\"paragraph\">and where I lost my magical crystal snail, 51°07'34.0\"N 16°57'25.0\"E, it could be beneath the sidewalk, but perhaps the hole I was in was the foundation for that six story building.</div>\n</div>\n<div class=\"break-after\">&nbsp;</div>\n<div>\n  <div class=\"section\" style=\"padding-bottom: 1rem;\">References</div>\n  <div>[1]: https://en.wikipedia.org/wiki/Redware</div>\n  <div>[2]: https://www.polishnews.co.uk/wroclaw-250-kg-bomb-detonated-at-the-training-ground-recording/</div>\n  <div>[3]: https://www.youtube.com/watch?v=ipVhWXVU_ts</div>\n  <div>[4]: https://www.youtube.com/watch?v=PwVAuokrHrI</div>\n  <div>[5]: https://www.google.com/maps/place/51%C2%B007'34.0%22N+16%C2%B057'25.0%22E/@51.12611,16.9564088,177m/data=!3m2!1e3!4b1!4m14!1m7!3m6!1s0x470fea782aa2b505:0xf1a0f3fd873694e3!2sTa%C5%84skiego+17,+54-129+Wroc%C5%82aw,+Poland!3b1!8m2!3d51.125645!4d16.9578668!3m5!1s0x0:0x0!7e2!8m2!3d51.1261095!4d16.956956</div>\n</div>",
  "text": "I was digging in Eastern Europe,\nit was an old Airplane Field.\nThere was a number of bunkers,\nand there was a house in the city that still had bullet holes in it.\nIt was meant to be a reminder,\nof what the city walls used to look like.\n\nThey were building a new apartment complex,\nin preparation for new infrastructure there was a new dig.\nIt was maybe four times my height,\nthis was right at edge of the old air-field\nIt was used as a land fill right after the war ended,\nor they were expanding it, by bringing rubble from another land-fill.\n\nIt was a rough day,\nI woke up early.\nAnd set of for the dig site,\nI had plenty of time left before the work crew showed up.\nSo, I focused on careful excavation of the site,\nlayer by layer, artifact by artifact.\n\nI found many bottles,\nsome of them could have gone as far back as early 1800s, it seemed.\nI found graphite sticks dating back to early 40s,\nthese were likely of military origin, used in batteries to power portable equipment.\nI hit a patch of Redware[1],\nbut it was hard to be sure, because of all the red shingles and crushed brick.\n\nAs I was trying to make sense of what I had on this site,\nI remembered a kid from across the city with a jar of black power.\nCrazy, son of a gun, was saying it was Trinitrotoluene,\nthat he extracted from rusted armor piercing rounds, as in tank armor.\nI hope he was wrong, and I hope is is OK,\nthe only reason to have a deadly jar like that, is to try to light it later on, poor bastard.\n\nJust last month, early March 2021, a 550 lb (or quarter ton) bomb was discovered[2],\nover at Popowice, which wasn't that far away, it is no joke.\nThe expert states that it was a Russian bomb of German manufacture, and says that they have a name for them \"Rusty Death\"[3],\nand explains that the rust is only on the surface, the bomb is still an active explosive.\nSearch internet for 550-pound WWII bomb In Munich, 2012[4],\nto see how enormous, and city shaking those explosions are - since these bombs cannot be moved, the only safe way to remove them, is to detonate them on purpose after evacuating the town.\n\nYou don't become an Archaeologist,\nArchaeology finds you, when it has something to say.\nThen I saw it, it was a shiny colorful and beautiful round object,\nabout the size of my hand.\nIt was a crystal, at first I thought the color came from it sitting in the ground,\nbut now, I am certain, it was an iridescent crystal.\n\nI brushed away the deep dark soil, and gasped,\nand just stood there holding it.\nIt was a crystal snail,\nit was not some part of a expensive chandelier, it was a work of art that stood on its own.\nI couldn't believe it,\nI found a treasure lost to history, it could be much much older than the dig site, a family heirloom, maybe.\n\nBut you know how it is,\nhistory will let you hold it, but it belongs to her.\nFor the moment that I held it in my hand,\nit seemed like time has stopped.\nBut now, it begun flowing again,\nand almost like after a loud explosion, I regained my hearing, to discover I am being shouted at.\n\nThe workers, arrived a the site,\nthey were packed in the bed of a huge dump truck that they used for moving the rubble as they dig.\nThey were shouting because they saw a Nine Year old boy,\nby the flat wall of a deep hole, these walls have a tendency to collapse.\nI still had to crawl out of there, it was still very deep for me,\nand the earth was really soft.\n\nI threw my Crystal Snail up on top of the wall I had to climb,\nand as I made my way up there among all the shouting and the truck being really close,\nI lost site of it,\nand I searched for it courageously until the workers were right there.\nBut it was gone,\nI lost my magical treasure.\n\nPost Scriptum,\nHere, I mark the location of my dig site[5],\nand where I lost my magical crystal snail, 51°07'34.0\"N 16°57'25.0\"E, it could be beneath the sidewalk, but perhaps the hole I was in was the foundation for that six story building.\n \nReferences\n[1]: https://en.wikipedia.org/wiki/Redware\n[2]: https://www.polishnews.co.uk/wroclaw-250-kg-bomb-detonated-at-the-training-ground-recording/\n[3]: https://www.youtube.com/watch?v=ipVhWXVU_ts\n[4]: https://www.youtube.com/watch?v=PwVAuokrHrI\n[5]: https://www.google.com/maps/place/51%C2%B007'34.0%22N+16%C2%B057'25.0%22E/@51.12611,16.9564088,177m/data=!3m2!1e3!4b1!4m14!1m7!3m6!1s0x470fea782aa2b505:0xf1a0f3fd873694e3!2sTa%C5%84skiego+17,+54-129+Wroc%C5%82aw,+Poland!3b1!8m2!3d51.125645!4d16.9578668!3m5!1s0x0:0x0!7e2!8m2!3d51.1261095!4d16.956956",
  "images": [],
  "links": [
    {
      "title": "Redware",
      "url": "https://en.wikipedia.org/wiki/Redware",
      "hostname": "en.wikipedia.org"
    },
    {
      "title": "a 550 lb (or quarter ton) bomb was discovered",
      "url": "https://www.polishnews.co.uk/wroclaw-250-kg-bomb-detonated-at-the-training-ground-recording/",
      "hostname": "www.polishnews.co.uk"
    },
    {
      "title": "The expert states that it was a Russian bomb of German manufacture, and says that they have a name for them \"Rusty Death\"",
      "url": "https://www.youtube.com/watch?v=ipVhWXVU_ts",
      "hostname": "www.youtube.com"
    },
    {
      "title": "550-pound WWII bomb In Munich, 2012",
      "url": "https://www.youtube.com/watch?v=PwVAuokrHrI",
      "hostname": "www.youtube.com"
    },
    {
      "title": "location of my dig site",
      "url": "https://www.google.com/maps/place/51%C2%B007'34.0%22N+16%C2%B057'25.0%22E/@51.12611,16.9564088,177m/data=!3m2!1e3!4b1!4m14!1m7!3m6!1s0x470fea782aa2b505:0xf1a0f3fd873694e3!2sTa%C5%84skiego+17,+54-129+Wroc%C5%82aw,+Poland!3b1!8m2!3d51.125645!4d16.9578668!3m5!1s0x0:0x0!7e2!8m2!3d51.1261095!4d16.956956",
      "hostname": "www.google.com"
    }
  ]
}