{
  "name": "furkies-purrkies-poetry-0159",
  "title": "An Evening Before A Run",
  "date": "2020-08-06T23:57:25.653Z",
  "image": "poetry-0159-illustration.jpg",
  "audio": "poetry-0159.mp3",
  "id": "furkies-purrkies-poetry-0159",
  "attachments": {},
  "guid": "19d5eda0-e098-4836-9350-05cbd979158c",
  "html": "<div class=\"section\">\n  <p>I went bicycling today,</p>\n  <p>but I was lost in thoughts all day.</p>\n</div>\n<div class=\"section\">\n  <hr>\n</div>\n<div class=\"section\">\n  <p>I thought about Typography and Art,</p>\n  <p>and how evey Human Being is really smart.</p>\n</div>\n<div class=\"section\">\n  <p>How people get busy,</p>\n  <p>and how life is rarely easy.</p>\n</div>\n<div class=\"section\">\n  <p>How we get tired, how creativity is made,</p>\n  <p>otherwise it will just fade.</p>\n</div>\n<div class=\"section\">\n  <p>How there is only ever time for big things,</p>\n  <p>it matters not if its vagabonds or kings.</p>\n</div>\n<div class=\"section\">\n  <p>We are all limited in time,</p>\n  <p>we truly are meant to learn, become wise and climb.</p>\n</div>\n<div class=\"section\">\n  <hr>\n</div>\n<div class=\"section\">\n  <p>Now, I am ready for bed,</p>\n  <p>I really feel tired.</p>\n</div>\n<div class=\"section\">\n  <p>I am already packed for my morning run,</p>\n  <p>the weather says, no rain, only sun.</p>\n</div>\n<div class=\"section\">\n  <p>Though, I&apos;ve noticed it will snow,</p>\n  <p>at the Rocky Mountains... but that&apos;s good to know.</p>\n</div>\n<div class=\"section\">\n  <p>Because you can&apos;t ever be too far away from that,</p>\n  <p>I am pretty far away, and glad.</p>\n</div>",
  "bootstrap": "<div class=\"card card-section bg-dark text-warning shadow\">\n  <div class=\"section card-body mb-0 my-2\">\n    <div class=\"paragraph card-text card-stanza my-5 text-center\">I went bicycling today,</div>\n    <div class=\"paragraph card-text card-stanza my-5 text-center\">but I was lost in thoughts all day.</div>\n  </div>\n</div>\n<div class=\"mb-5 section-spacer\">&nbsp;</div>\n<div class=\"card card-section bg-dark text-warning shadow\">\n  <div class=\"section card-body mb-0 my-2\">\n    <div class=\"paragraph card-text card-stanza my-5 text-center\">I thought about Typography and Art,</div>\n    <div class=\"paragraph card-text card-stanza my-5 text-center\">and how evey Human Being is really smart.</div>\n  </div>\n</div>\n<div class=\"card card-section bg-dark text-warning shadow\">\n  <div class=\"section card-body mb-0 my-2\">\n    <div class=\"paragraph card-text card-stanza my-5 text-center\">How people get busy,</div>\n    <div class=\"paragraph card-text card-stanza my-5 text-center\">and how life is rarely easy.</div>\n  </div>\n</div>\n<div class=\"card card-section bg-dark text-warning shadow\">\n  <div class=\"section card-body mb-0 my-2\">\n    <div class=\"paragraph card-text card-stanza my-5 text-center\">How we get tired, how creativity is made,</div>\n    <div class=\"paragraph card-text card-stanza my-5 text-center\">otherwise it will just fade.</div>\n  </div>\n</div>\n<div class=\"card card-section bg-dark text-warning shadow\">\n  <div class=\"section card-body mb-0 my-2\">\n    <div class=\"paragraph card-text card-stanza my-5 text-center\">How there is only ever time for big things,</div>\n    <div class=\"paragraph card-text card-stanza my-5 text-center\">it matters not if its vagabonds or kings.</div>\n  </div>\n</div>\n<div class=\"card card-section bg-dark text-warning shadow\">\n  <div class=\"section card-body mb-0 my-2\">\n    <div class=\"paragraph card-text card-stanza my-5 text-center\">We are all limited in time,</div>\n    <div class=\"paragraph card-text card-stanza my-5 text-center\">we truly are meant to learn, become wise and climb.</div>\n  </div>\n</div>\n<div class=\"mb-5 section-spacer\">&nbsp;</div>\n<div class=\"card card-section bg-dark text-warning shadow\">\n  <div class=\"section card-body mb-0 my-2\">\n    <div class=\"paragraph card-text card-stanza my-5 text-center\">Now, I am ready for bed,</div>\n    <div class=\"paragraph card-text card-stanza my-5 text-center\">I really feel tired.</div>\n  </div>\n</div>\n<div class=\"card card-section bg-dark text-warning shadow\">\n  <div class=\"section card-body mb-0 my-2\">\n    <div class=\"paragraph card-text card-stanza my-5 text-center\">I am already packed for my morning run,</div>\n    <div class=\"paragraph card-text card-stanza my-5 text-center\">the weather says, no rain, only sun.</div>\n  </div>\n</div>\n<div class=\"card card-section bg-dark text-warning shadow\">\n  <div class=\"section card-body mb-0 my-2\">\n    <div class=\"paragraph card-text card-stanza my-5 text-center\">Though, I've noticed it will snow,</div>\n    <div class=\"paragraph card-text card-stanza my-5 text-center\">at the Rocky Mountains... but that's good to know.</div>\n  </div>\n</div>\n<div class=\"card card-section bg-dark text-warning shadow\">\n  <div class=\"section card-body mb-0 my-2\">\n    <div class=\"paragraph card-text card-stanza my-5 text-center\">Because you can't ever be too far away from that,</div>\n    <div class=\"paragraph card-text card-stanza my-5 text-center\">I am pretty far away, and glad.</div>\n  </div>\n</div>",
  "print": "<div class=\"section avoid-break-inside\" style=\"padding-bottom: 2rem;\">\n  <div class=\"paragraph\">I went bicycling today,</div>\n  <div class=\"paragraph\">but I was lost in thoughts all day.</div>\n</div>\n<div class=\"section avoid-break-inside\" style=\"padding-bottom: 2rem;\">\n  <br>\n</div>\n<div class=\"section avoid-break-inside\" style=\"padding-bottom: 2rem;\">\n  <div class=\"paragraph\">I thought about Typography and Art,</div>\n  <div class=\"paragraph\">and how evey Human Being is really smart.</div>\n</div>\n<div class=\"section avoid-break-inside\" style=\"padding-bottom: 2rem;\">\n  <div class=\"paragraph\">How people get busy,</div>\n  <div class=\"paragraph\">and how life is rarely easy.</div>\n</div>\n<div class=\"section avoid-break-inside\" style=\"padding-bottom: 2rem;\">\n  <div class=\"paragraph\">How we get tired, how creativity is made,</div>\n  <div class=\"paragraph\">otherwise it will just fade.</div>\n</div>\n<div class=\"section avoid-break-inside\" style=\"padding-bottom: 2rem;\">\n  <div class=\"paragraph\">How there is only ever time for big things,</div>\n  <div class=\"paragraph\">it matters not if its vagabonds or kings.</div>\n</div>\n<div class=\"section avoid-break-inside\" style=\"padding-bottom: 2rem;\">\n  <div class=\"paragraph\">We are all limited in time,</div>\n  <div class=\"paragraph\">we truly are meant to learn, become wise and climb.</div>\n</div>\n<div class=\"section avoid-break-inside\" style=\"padding-bottom: 2rem;\">\n  <br>\n</div>\n<div class=\"section avoid-break-inside\" style=\"padding-bottom: 2rem;\">\n  <div class=\"paragraph\">Now, I am ready for bed,</div>\n  <div class=\"paragraph\">I really feel tired.</div>\n</div>\n<div class=\"section avoid-break-inside\" style=\"padding-bottom: 2rem;\">\n  <div class=\"paragraph\">I am already packed for my morning run,</div>\n  <div class=\"paragraph\">the weather says, no rain, only sun.</div>\n</div>\n<div class=\"section avoid-break-inside\" style=\"padding-bottom: 2rem;\">\n  <div class=\"paragraph\">Though, I've noticed it will snow,</div>\n  <div class=\"paragraph\">at the Rocky Mountains... but that's good to know.</div>\n</div>\n<div class=\"section avoid-break-inside\" style=\"padding-bottom: 2rem;\">\n  <div class=\"paragraph\">Because you can't ever be too far away from that,</div>\n  <div class=\"paragraph\">I am pretty far away, and glad.</div>\n</div>",
  "text": "I went bicycling today,\nbut I was lost in thoughts all day.\n\nI thought about Typography and Art,\nand how evey Human Being is really smart.\nHow people get busy,\nand how life is rarely easy.\nHow we get tired, how creativity is made,\notherwise it will just fade.\nHow there is only ever time for big things,\nit matters not if its vagabonds or kings.\nWe are all limited in time,\nwe truly are meant to learn, become wise and climb.\n\nNow, I am ready for bed,\nI really feel tired.\nI am already packed for my morning run,\nthe weather says, no rain, only sun.\nThough, I've noticed it will snow,\nat the Rocky Mountains... but that's good to know.\nBecause you can't ever be too far away from that,\nI am pretty far away, and glad.",
  "images": [],
  "links": []
}