{
  "title": "Flowers Of Earth: We set off to meet the others at Betelgeuse.",
  "date": "2020-10-08T23:47:57.000Z",
  "image": "poetry-0222-illustration.jpg",
  "audio": "poetry-0222.mp3",
  "artwork": "https://unsplash.com/photos/OwbUG4UrWm0",
  "id": "furkies-purrkies-poetry-0222",
  "attachments": {},
  "guid": "1a9c8cb0-0ebd-4582-bf98-38dd71284a9b"
}
