{
  "id": "furkies-purrkies-poetry-0690",
  "title": "Exceptional Abilities: You Learn Most When You Do The Things You Like",
  "date": "2022-01-19T20:13:56.560Z",
  "image": "poetry-0690-illustration.jpg",
  "artwork": "https://unsplash.com/photos/K2s_YE031CA",
  "audio": "poetry-0690.mp3",
  "guid": "b0cab19c-3739-49e8-9011-9b6470bacdfe"
}
