{
  "id": "furkies-purrkies-poetry-0596",
  "title": "Silliness, Joy And Fun Are Serious Teachers",
  "date": "2021-10-18T03:12:25.055Z",
  "image": "poetry-0596-illustration.jpg",
  "artwork": "https://catpea.com",
  "audio": "poetry-0596.mp3",
  "guid": "72b382fb-52a0-427e-9379-304d5d7eba36"
}
