{
  "name": "furkies-purrkies-poetry-0172",
  "title": "The Sword Can't Even Compare To Your Pen",
  "date": "2020-08-20T00:06:40.703Z",
  "image": "poetry-0172-illustration.jpg",
  "audio": "poetry-0172.mp3",
  "id": "furkies-purrkies-poetry-0172",
  "attachments": {},
  "guid": "6329f590-8093-4d47-b22b-e350cebfab5a",
  "html": "<div class=\"section\">\n  <p>You are not alone,</p>\n  <p>and all you do matters.</p>\n</div>\n<div class=\"section\">\n  <p>As you rise,</p>\n  <p>you create a way for others to follow.</p>\n</div>\n<div class=\"section\">\n  <p>Struggle, like suffering,</p>\n  <p>is a gas that fills all the available space.</p>\n</div>\n<div class=\"section\">\n  <p>It is never easy for anybody,</p>\n  <p>the difference is in the choices we make and the aims we set.</p>\n</div>\n<div class=\"section\">\n  <p>The first Great Choice is to set off towards wisdom,</p>\n  <p>to continuously transcend our limits thorough out our entire existence.</p>\n</div>\n<div class=\"section\">\n  <p>One of the finest choices we can make,</p>\n  <p>is to Live Above Common Levels of Life.</p>\n</div>\n<div class=\"section\">\n  <p>There are no guarantees,</p>\n  <p>your choice to proceed forward is all the guarantee there is.</p>\n</div>\n<div class=\"section\">\n  <p>Our biological life is not finely crafted,</p>\n  <p>it is a result of fundamental principles of Physics and Chemistry.</p>\n</div>\n<div class=\"section\">\n  <p>But our mind, is up to us to shape,</p>\n  <p>hence Audio Books and Lectures and our inheritance from of Other Lives, Times, and Works.</p>\n</div>\n<div class=\"section\">\n  <p>You need not hurry,</p>\n  <p>but you do need to slow down so that you may read and write.</p>\n</div>\n<div class=\"section\">\n  <hr>\n</div>\n<div class=\"section\">\n  <p>We each have a story to tell,</p>\n  <p>and many will follow a similar path to ours across the vastness of future.</p>\n</div>\n<div class=\"section\">\n  <p>They could use some advice,</p>\n  <p>a few fine words about rising, about what it is like to see the sun for the first time.</p>\n</div>\n<div class=\"section\">\n  <p>Do not let your readers suffer the same loneliness you did,</p>\n  <p>let them learn from you.</p>\n</div>\n<div class=\"section\">\n  <hr>\n</div>\n<div class=\"section\">\n  <p>And the way you write,</p>\n  <p>is one thought at a time.</p>\n</div>\n<div class=\"section\">\n  <p>So as long as your write about your unlimited travels,</p>\n  <p>you never run out of the story to tell.</p>\n</div>\n<div class=\"section\">\n  <p>And every once in a while,</p>\n  <p>a poem will leap ahead of you.</p>\n</div>\n<div class=\"section\">\n  <p>The thought will arrive,</p>\n  <p>from the future before you get there.</p>\n</div>\n<div class=\"section\">\n  <p>You are connected to your future self,</p>\n  <p>no one can hold a stronger bond.</p>\n</div>\n<div class=\"section\">\n  <p>You are a being, with a mind and body, you are in the present,</p>\n  <p>but you exist across time.</p>\n</div>\n<div class=\"section\">\n  <p>Your Life Line, your Life Time,</p>\n  <p>The past you and the future you, are connected.</p>\n</div>\n<div class=\"section\">\n  <p>And just the same those who came before you,</p>\n  <p>and those who are yet to follow, are connected to you.</p>\n</div>\n<div class=\"section\">\n  <p>But you have to write your thoughts,</p>\n  <p>...when you are rising in your childhood,</p>\n  <p>the children can understand it best.</p>\n</div>\n<div class=\"section\">\n  <p>In your early age, as you make your way,</p>\n  <p>as you learn to rise, and find your rhythm,</p>\n  <p>your readers will be in their twenties.</p>\n</div>\n<div class=\"section\">\n  <p>And then, forties, and then sixties, and eighties, and hundreds,</p>\n  <p>at no point in your life should you be ashamed to write,</p>\n  <p>or be shamed for writing.</p>\n</div>\n<div class=\"section\">\n  <hr>\n</div>\n<div class=\"section\">\n  <p>Because if you can manage to hold your pen,</p>\n  <p>it is more than most others can.</p>\n</div>\n<div class=\"section\">\n  <p>One thought at a time,</p>\n  <p>help others understand how to climb.</p>\n</div>\n<div class=\"section\">\n  <p>Make all your struggles count for more,</p>\n  <p>show them how you fought for wisdom in your war.</p>\n</div>\n<div class=\"section\">\n  <p>Tell the world what you know,</p>\n  <p>so that others may safely follow.</p>\n</div>\n<div class=\"section\">\n  <p>Know that the first struggles sometimes mean more,</p>\n  <p>sometimes the hardest challenge is to get off the floor.</p>\n</div>\n<div class=\"section\">\n  <p>The first steps after all,</p>\n  <p>matter the most to those whose worlds may be seem small.</p>\n</div>\n<div class=\"section\">\n  <p>All steps matter and in many ways,</p>\n  <p>all lead to enlightenment, and the Sun&apos;s rays.</p>\n</div>",
  "bootstrap": "<div class=\"card card-section bg-dark text-warning shadow\">\n  <div class=\"section card-body mb-0 my-2\">\n    <div class=\"paragraph card-text card-stanza my-5 text-center\">You are not alone,</div>\n    <div class=\"paragraph card-text card-stanza my-5 text-center\">and all you do matters.</div>\n  </div>\n</div>\n<div class=\"card card-section bg-dark text-warning shadow\">\n  <div class=\"section card-body mb-0 my-2\">\n    <div class=\"paragraph card-text card-stanza my-5 text-center\">As you rise,</div>\n    <div class=\"paragraph card-text card-stanza my-5 text-center\">you create a way for others to follow.</div>\n  </div>\n</div>\n<div class=\"card card-section bg-dark text-warning shadow\">\n  <div class=\"section card-body mb-0 my-2\">\n    <div class=\"paragraph card-text card-stanza my-5 text-center\">Struggle, like suffering,</div>\n    <div class=\"paragraph card-text card-stanza my-5 text-center\">is a gas that fills all the available space.</div>\n  </div>\n</div>\n<div class=\"card card-section bg-dark text-warning shadow\">\n  <div class=\"section card-body mb-0 my-2\">\n    <div class=\"paragraph card-text card-stanza my-5 text-center\">It is never easy for anybody,</div>\n    <div class=\"paragraph card-text card-stanza my-5 text-center\">the difference is in the choices we make and the aims we set.</div>\n  </div>\n</div>\n<div class=\"card card-section bg-dark text-warning shadow\">\n  <div class=\"section card-body mb-0 my-2\">\n    <div class=\"paragraph card-text card-stanza my-5 text-center\">The first Great Choice is to set off towards wisdom,</div>\n    <div class=\"paragraph card-text card-stanza my-5 text-center\">to continuously transcend our limits thorough out our entire existence.</div>\n  </div>\n</div>\n<div class=\"card card-section bg-dark text-warning shadow\">\n  <div class=\"section card-body mb-0 my-2\">\n    <div class=\"paragraph card-text card-stanza my-5 text-center\">One of the finest choices we can make,</div>\n    <div class=\"paragraph card-text card-stanza my-5 text-center\">is to Live Above Common Levels of Life.</div>\n  </div>\n</div>\n<div class=\"card card-section bg-dark text-warning shadow\">\n  <div class=\"section card-body mb-0 my-2\">\n    <div class=\"paragraph card-text card-stanza my-5 text-center\">There are no guarantees,</div>\n    <div class=\"paragraph card-text card-stanza my-5 text-center\">your choice to proceed forward is all the guarantee there is.</div>\n  </div>\n</div>\n<div class=\"card card-section bg-dark text-warning shadow\">\n  <div class=\"section card-body mb-0 my-2\">\n    <div class=\"paragraph card-text card-stanza my-5 text-center\">Our biological life is not finely crafted,</div>\n    <div class=\"paragraph card-text card-stanza my-5 text-center\">it is a result of fundamental principles of Physics and Chemistry.</div>\n  </div>\n</div>\n<div class=\"card card-section bg-dark text-warning shadow\">\n  <div class=\"section card-body mb-0 my-2\">\n    <div class=\"paragraph card-text card-stanza my-5 text-center\">But our mind, is up to us to shape,</div>\n    <div class=\"paragraph card-text card-stanza my-5 text-center\">hence Audio Books and Lectures and our inheritance from of Other Lives, Times, and Works.</div>\n  </div>\n</div>\n<div class=\"card card-section bg-dark text-warning shadow\">\n  <div class=\"section card-body mb-0 my-2\">\n    <div class=\"paragraph card-text card-stanza my-5 text-center\">You need not hurry,</div>\n    <div class=\"paragraph card-text card-stanza my-5 text-center\">but you do need to slow down so that you may read and write.</div>\n  </div>\n</div>\n<div class=\"mb-5 section-spacer\">&nbsp;</div>\n<div class=\"card card-section bg-dark text-warning shadow\">\n  <div class=\"section card-body mb-0 my-2\">\n    <div class=\"paragraph card-text card-stanza my-5 text-center\">We each have a story to tell,</div>\n    <div class=\"paragraph card-text card-stanza my-5 text-center\">and many will follow a similar path to ours across the vastness of future.</div>\n  </div>\n</div>\n<div class=\"card card-section bg-dark text-warning shadow\">\n  <div class=\"section card-body mb-0 my-2\">\n    <div class=\"paragraph card-text card-stanza my-5 text-center\">They could use some advice,</div>\n    <div class=\"paragraph card-text card-stanza my-5 text-center\">a few fine words about rising, about what it is like to see the sun for the first time.</div>\n  </div>\n</div>\n<div class=\"card card-section bg-dark text-warning shadow\">\n  <div class=\"section card-body mb-0 my-2\">\n    <div class=\"paragraph card-text card-stanza my-5 text-center\">Do not let your readers suffer the same loneliness you did,</div>\n    <div class=\"paragraph card-text card-stanza my-5 text-center\">let them learn from you.</div>\n  </div>\n</div>\n<div class=\"mb-5 section-spacer\">&nbsp;</div>\n<div class=\"card card-section bg-dark text-warning shadow\">\n  <div class=\"section card-body mb-0 my-2\">\n    <div class=\"paragraph card-text card-stanza my-5 text-center\">And the way you write,</div>\n    <div class=\"paragraph card-text card-stanza my-5 text-center\">is one thought at a time.</div>\n  </div>\n</div>\n<div class=\"card card-section bg-dark text-warning shadow\">\n  <div class=\"section card-body mb-0 my-2\">\n    <div class=\"paragraph card-text card-stanza my-5 text-center\">So as long as your write about your unlimited travels,</div>\n    <div class=\"paragraph card-text card-stanza my-5 text-center\">you never run out of the story to tell.</div>\n  </div>\n</div>\n<div class=\"card card-section bg-dark text-warning shadow\">\n  <div class=\"section card-body mb-0 my-2\">\n    <div class=\"paragraph card-text card-stanza my-5 text-center\">And every once in a while,</div>\n    <div class=\"paragraph card-text card-stanza my-5 text-center\">a poem will leap ahead of you.</div>\n  </div>\n</div>\n<div class=\"card card-section bg-dark text-warning shadow\">\n  <div class=\"section card-body mb-0 my-2\">\n    <div class=\"paragraph card-text card-stanza my-5 text-center\">The thought will arrive,</div>\n    <div class=\"paragraph card-text card-stanza my-5 text-center\">from the future before you get there.</div>\n  </div>\n</div>\n<div class=\"card card-section bg-dark text-warning shadow\">\n  <div class=\"section card-body mb-0 my-2\">\n    <div class=\"paragraph card-text card-stanza my-5 text-center\">You are connected to your future self,</div>\n    <div class=\"paragraph card-text card-stanza my-5 text-center\">no one can hold a stronger bond.</div>\n  </div>\n</div>\n<div class=\"card card-section bg-dark text-warning shadow\">\n  <div class=\"section card-body mb-0 my-2\">\n    <div class=\"paragraph card-text card-stanza my-5 text-center\">You are a being, with a mind and body, you are in the present,</div>\n    <div class=\"paragraph card-text card-stanza my-5 text-center\">but you exist across time.</div>\n  </div>\n</div>\n<div class=\"card card-section bg-dark text-warning shadow\">\n  <div class=\"section card-body mb-0 my-2\">\n    <div class=\"paragraph card-text card-stanza my-5 text-center\">Your Life Line, your Life Time,</div>\n    <div class=\"paragraph card-text card-stanza my-5 text-center\">The past you and the future you, are connected.</div>\n  </div>\n</div>\n<div class=\"card card-section bg-dark text-warning shadow\">\n  <div class=\"section card-body mb-0 my-2\">\n    <div class=\"paragraph card-text card-stanza my-5 text-center\">And just the same those who came before you,</div>\n    <div class=\"paragraph card-text card-stanza my-5 text-center\">and those who are yet to follow, are connected to you.</div>\n  </div>\n</div>\n<div class=\"card card-section bg-dark text-warning shadow\">\n  <div class=\"section card-body mb-0 my-2\">\n    <div class=\"paragraph card-text card-stanza my-5 text-center\">But you have to write your thoughts,</div>\n    <div class=\"paragraph card-text card-stanza my-5 text-center\">...when you are rising in your childhood,</div>\n    <div class=\"paragraph card-text card-stanza my-5 text-center\">the children can understand it best.</div>\n  </div>\n</div>\n<div class=\"card card-section bg-dark text-warning shadow\">\n  <div class=\"section card-body mb-0 my-2\">\n    <div class=\"paragraph card-text card-stanza my-5 text-center\">In your early age, as you make your way,</div>\n    <div class=\"paragraph card-text card-stanza my-5 text-center\">as you learn to rise, and find your rhythm,</div>\n    <div class=\"paragraph card-text card-stanza my-5 text-center\">your readers will be in their twenties.</div>\n  </div>\n</div>\n<div class=\"card card-section bg-dark text-warning shadow\">\n  <div class=\"section card-body mb-0 my-2\">\n    <div class=\"paragraph card-text card-stanza my-5 text-center\">And then, forties, and then sixties, and eighties, and hundreds,</div>\n    <div class=\"paragraph card-text card-stanza my-5 text-center\">at no point in your life should you be ashamed to write,</div>\n    <div class=\"paragraph card-text card-stanza my-5 text-center\">or be shamed for writing.</div>\n  </div>\n</div>\n<div class=\"mb-5 section-spacer\">&nbsp;</div>\n<div class=\"card card-section bg-dark text-warning shadow\">\n  <div class=\"section card-body mb-0 my-2\">\n    <div class=\"paragraph card-text card-stanza my-5 text-center\">Because if you can manage to hold your pen,</div>\n    <div class=\"paragraph card-text card-stanza my-5 text-center\">it is more than most others can.</div>\n  </div>\n</div>\n<div class=\"card card-section bg-dark text-warning shadow\">\n  <div class=\"section card-body mb-0 my-2\">\n    <div class=\"paragraph card-text card-stanza my-5 text-center\">One thought at a time,</div>\n    <div class=\"paragraph card-text card-stanza my-5 text-center\">help others understand how to climb.</div>\n  </div>\n</div>\n<div class=\"card card-section bg-dark text-warning shadow\">\n  <div class=\"section card-body mb-0 my-2\">\n    <div class=\"paragraph card-text card-stanza my-5 text-center\">Make all your struggles count for more,</div>\n    <div class=\"paragraph card-text card-stanza my-5 text-center\">show them how you fought for wisdom in your war.</div>\n  </div>\n</div>\n<div class=\"card card-section bg-dark text-warning shadow\">\n  <div class=\"section card-body mb-0 my-2\">\n    <div class=\"paragraph card-text card-stanza my-5 text-center\">Tell the world what you know,</div>\n    <div class=\"paragraph card-text card-stanza my-5 text-center\">so that others may safely follow.</div>\n  </div>\n</div>\n<div class=\"card card-section bg-dark text-warning shadow\">\n  <div class=\"section card-body mb-0 my-2\">\n    <div class=\"paragraph card-text card-stanza my-5 text-center\">Know that the first struggles sometimes mean more,</div>\n    <div class=\"paragraph card-text card-stanza my-5 text-center\">sometimes the hardest challenge is to get off the floor.</div>\n  </div>\n</div>\n<div class=\"card card-section bg-dark text-warning shadow\">\n  <div class=\"section card-body mb-0 my-2\">\n    <div class=\"paragraph card-text card-stanza my-5 text-center\">The first steps after all,</div>\n    <div class=\"paragraph card-text card-stanza my-5 text-center\">matter the most to those whose worlds may be seem small.</div>\n  </div>\n</div>\n<div class=\"card card-section bg-dark text-warning shadow\">\n  <div class=\"section card-body mb-0 my-2\">\n    <div class=\"paragraph card-text card-stanza my-5 text-center\">All steps matter and in many ways,</div>\n    <div class=\"paragraph card-text card-stanza my-5 text-center\">all lead to enlightenment, and the Sun's rays.</div>\n  </div>\n</div>",
  "print": "<div class=\"section avoid-break-inside\" style=\"padding-bottom: 2rem;\">\n  <div class=\"paragraph\">You are not alone,</div>\n  <div class=\"paragraph\">and all you do matters.</div>\n</div>\n<div class=\"section avoid-break-inside\" style=\"padding-bottom: 2rem;\">\n  <div class=\"paragraph\">As you rise,</div>\n  <div class=\"paragraph\">you create a way for others to follow.</div>\n</div>\n<div class=\"section avoid-break-inside\" style=\"padding-bottom: 2rem;\">\n  <div class=\"paragraph\">Struggle, like suffering,</div>\n  <div class=\"paragraph\">is a gas that fills all the available space.</div>\n</div>\n<div class=\"section avoid-break-inside\" style=\"padding-bottom: 2rem;\">\n  <div class=\"paragraph\">It is never easy for anybody,</div>\n  <div class=\"paragraph\">the difference is in the choices we make and the aims we set.</div>\n</div>\n<div class=\"section avoid-break-inside\" style=\"padding-bottom: 2rem;\">\n  <div class=\"paragraph\">The first Great Choice is to set off towards wisdom,</div>\n  <div class=\"paragraph\">to continuously transcend our limits thorough out our entire existence.</div>\n</div>\n<div class=\"section avoid-break-inside\" style=\"padding-bottom: 2rem;\">\n  <div class=\"paragraph\">One of the finest choices we can make,</div>\n  <div class=\"paragraph\">is to Live Above Common Levels of Life.</div>\n</div>\n<div class=\"section avoid-break-inside\" style=\"padding-bottom: 2rem;\">\n  <div class=\"paragraph\">There are no guarantees,</div>\n  <div class=\"paragraph\">your choice to proceed forward is all the guarantee there is.</div>\n</div>\n<div class=\"section avoid-break-inside\" style=\"padding-bottom: 2rem;\">\n  <div class=\"paragraph\">Our biological life is not finely crafted,</div>\n  <div class=\"paragraph\">it is a result of fundamental principles of Physics and Chemistry.</div>\n</div>\n<div class=\"section avoid-break-inside\" style=\"padding-bottom: 2rem;\">\n  <div class=\"paragraph\">But our mind, is up to us to shape,</div>\n  <div class=\"paragraph\">hence Audio Books and Lectures and our inheritance from of Other Lives, Times, and Works.</div>\n</div>\n<div class=\"section avoid-break-inside\" style=\"padding-bottom: 2rem;\">\n  <div class=\"paragraph\">You need not hurry,</div>\n  <div class=\"paragraph\">but you do need to slow down so that you may read and write.</div>\n</div>\n<div class=\"section avoid-break-inside\" style=\"padding-bottom: 2rem;\">\n  <br>\n</div>\n<div class=\"section avoid-break-inside\" style=\"padding-bottom: 2rem;\">\n  <div class=\"paragraph\">We each have a story to tell,</div>\n  <div class=\"paragraph\">and many will follow a similar path to ours across the vastness of future.</div>\n</div>\n<div class=\"section avoid-break-inside\" style=\"padding-bottom: 2rem;\">\n  <div class=\"paragraph\">They could use some advice,</div>\n  <div class=\"paragraph\">a few fine words about rising, about what it is like to see the sun for the first time.</div>\n</div>\n<div class=\"section avoid-break-inside\" style=\"padding-bottom: 2rem;\">\n  <div class=\"paragraph\">Do not let your readers suffer the same loneliness you did,</div>\n  <div class=\"paragraph\">let them learn from you.</div>\n</div>\n<div class=\"section avoid-break-inside\" style=\"padding-bottom: 2rem;\">\n  <br>\n</div>\n<div class=\"section avoid-break-inside\" style=\"padding-bottom: 2rem;\">\n  <div class=\"paragraph\">And the way you write,</div>\n  <div class=\"paragraph\">is one thought at a time.</div>\n</div>\n<div class=\"section avoid-break-inside\" style=\"padding-bottom: 2rem;\">\n  <div class=\"paragraph\">So as long as your write about your unlimited travels,</div>\n  <div class=\"paragraph\">you never run out of the story to tell.</div>\n</div>\n<div class=\"section avoid-break-inside\" style=\"padding-bottom: 2rem;\">\n  <div class=\"paragraph\">And every once in a while,</div>\n  <div class=\"paragraph\">a poem will leap ahead of you.</div>\n</div>\n<div class=\"section avoid-break-inside\" style=\"padding-bottom: 2rem;\">\n  <div class=\"paragraph\">The thought will arrive,</div>\n  <div class=\"paragraph\">from the future before you get there.</div>\n</div>\n<div class=\"section avoid-break-inside\" style=\"padding-bottom: 2rem;\">\n  <div class=\"paragraph\">You are connected to your future self,</div>\n  <div class=\"paragraph\">no one can hold a stronger bond.</div>\n</div>\n<div class=\"section avoid-break-inside\" style=\"padding-bottom: 2rem;\">\n  <div class=\"paragraph\">You are a being, with a mind and body, you are in the present,</div>\n  <div class=\"paragraph\">but you exist across time.</div>\n</div>\n<div class=\"section avoid-break-inside\" style=\"padding-bottom: 2rem;\">\n  <div class=\"paragraph\">Your Life Line, your Life Time,</div>\n  <div class=\"paragraph\">The past you and the future you, are connected.</div>\n</div>\n<div class=\"section avoid-break-inside\" style=\"padding-bottom: 2rem;\">\n  <div class=\"paragraph\">And just the same those who came before you,</div>\n  <div class=\"paragraph\">and those who are yet to follow, are connected to you.</div>\n</div>\n<div class=\"section avoid-break-inside\" style=\"padding-bottom: 2rem;\">\n  <div class=\"paragraph\">But you have to write your thoughts,</div>\n  <div class=\"paragraph\">...when you are rising in your childhood,</div>\n  <div class=\"paragraph\">the children can understand it best.</div>\n</div>\n<div class=\"section avoid-break-inside\" style=\"padding-bottom: 2rem;\">\n  <div class=\"paragraph\">In your early age, as you make your way,</div>\n  <div class=\"paragraph\">as you learn to rise, and find your rhythm,</div>\n  <div class=\"paragraph\">your readers will be in their twenties.</div>\n</div>\n<div class=\"section avoid-break-inside\" style=\"padding-bottom: 2rem;\">\n  <div class=\"paragraph\">And then, forties, and then sixties, and eighties, and hundreds,</div>\n  <div class=\"paragraph\">at no point in your life should you be ashamed to write,</div>\n  <div class=\"paragraph\">or be shamed for writing.</div>\n</div>\n<div class=\"section avoid-break-inside\" style=\"padding-bottom: 2rem;\">\n  <br>\n</div>\n<div class=\"section avoid-break-inside\" style=\"padding-bottom: 2rem;\">\n  <div class=\"paragraph\">Because if you can manage to hold your pen,</div>\n  <div class=\"paragraph\">it is more than most others can.</div>\n</div>\n<div class=\"section avoid-break-inside\" style=\"padding-bottom: 2rem;\">\n  <div class=\"paragraph\">One thought at a time,</div>\n  <div class=\"paragraph\">help others understand how to climb.</div>\n</div>\n<div class=\"section avoid-break-inside\" style=\"padding-bottom: 2rem;\">\n  <div class=\"paragraph\">Make all your struggles count for more,</div>\n  <div class=\"paragraph\">show them how you fought for wisdom in your war.</div>\n</div>\n<div class=\"section avoid-break-inside\" style=\"padding-bottom: 2rem;\">\n  <div class=\"paragraph\">Tell the world what you know,</div>\n  <div class=\"paragraph\">so that others may safely follow.</div>\n</div>\n<div class=\"section avoid-break-inside\" style=\"padding-bottom: 2rem;\">\n  <div class=\"paragraph\">Know that the first struggles sometimes mean more,</div>\n  <div class=\"paragraph\">sometimes the hardest challenge is to get off the floor.</div>\n</div>\n<div class=\"section avoid-break-inside\" style=\"padding-bottom: 2rem;\">\n  <div class=\"paragraph\">The first steps after all,</div>\n  <div class=\"paragraph\">matter the most to those whose worlds may be seem small.</div>\n</div>\n<div class=\"section avoid-break-inside\" style=\"padding-bottom: 2rem;\">\n  <div class=\"paragraph\">All steps matter and in many ways,</div>\n  <div class=\"paragraph\">all lead to enlightenment, and the Sun's rays.</div>\n</div>",
  "text": "You are not alone,\nand all you do matters.\nAs you rise,\nyou create a way for others to follow.\nStruggle, like suffering,\nis a gas that fills all the available space.\nIt is never easy for anybody,\nthe difference is in the choices we make and the aims we set.\nThe first Great Choice is to set off towards wisdom,\nto continuously transcend our limits thorough out our entire existence.\nOne of the finest choices we can make,\nis to Live Above Common Levels of Life.\nThere are no guarantees,\nyour choice to proceed forward is all the guarantee there is.\nOur biological life is not finely crafted,\nit is a result of fundamental principles of Physics and Chemistry.\nBut our mind, is up to us to shape,\nhence Audio Books and Lectures and our inheritance from of Other Lives, Times, and Works.\nYou need not hurry,\nbut you do need to slow down so that you may read and write.\n\nWe each have a story to tell,\nand many will follow a similar path to ours across the vastness of future.\nThey could use some advice,\na few fine words about rising, about what it is like to see the sun for the first time.\nDo not let your readers suffer the same loneliness you did,\nlet them learn from you.\n\nAnd the way you write,\nis one thought at a time.\nSo as long as your write about your unlimited travels,\nyou never run out of the story to tell.\nAnd every once in a while,\na poem will leap ahead of you.\nThe thought will arrive,\nfrom the future before you get there.\nYou are connected to your future self,\nno one can hold a stronger bond.\nYou are a being, with a mind and body, you are in the present,\nbut you exist across time.\nYour Life Line, your Life Time,\nThe past you and the future you, are connected.\nAnd just the same those who came before you,\nand those who are yet to follow, are connected to you.\nBut you have to write your thoughts,\n...when you are rising in your childhood,\nthe children can understand it best.\nIn your early age, as you make your way,\nas you learn to rise, and find your rhythm,\nyour readers will be in their twenties.\nAnd then, forties, and then sixties, and eighties, and hundreds,\nat no point in your life should you be ashamed to write,\nor be shamed for writing.\n\nBecause if you can manage to hold your pen,\nit is more than most others can.\nOne thought at a time,\nhelp others understand how to climb.\nMake all your struggles count for more,\nshow them how you fought for wisdom in your war.\nTell the world what you know,\nso that others may safely follow.\nKnow that the first struggles sometimes mean more,\nsometimes the hardest challenge is to get off the floor.\nThe first steps after all,\nmatter the most to those whose worlds may be seem small.\nAll steps matter and in many ways,\nall lead to enlightenment, and the Sun's rays.",
  "images": [],
  "links": []
}