{
  "name": "furkies-purrkies-poetry-0655",
  "id": "furkies-purrkies-poetry-0655",
  "title": "Self Education First",
  "date": "2021-12-16T03:14:25.112Z",
  "image": "poetry-0655-illustration.jpg",
  "artwork": "https://unsplash.com/photos/BdNQ4JIkX7M",
  "audio": "poetry-0655.mp3",
  "guid": "7200fdd5-f071-4c78-a0c7-60ed35c809c7",
  "html": "<div class=\"section\">\n  <p>It is not possible to learn within a preset time period,<br>nor is it possible to learn following some curriculum.</p>\n  <p>Even in self education we can't expect to just finish a subject on time,<br>we may need to stop for several weeks, for any number of reasons.</p>\n  <p>Though the way we dictate our own path in self education,<br>is perfect.</p>\n  <p>Schools need to use computers to allow students to build their own path,<br>and as an extension of this self directed learning, the students will learn at the correct pace.</p>\n</div>\n<div class=\"section\">\n  <hr>\n</div>\n<div class=\"section\">\n  <p>This is just the top of the iceberg,<br>the consequences of preset time divisions and prearranged curricula are devastating.</p>\n  <p>By forcing students to learn at a specific pace, and in a specific sequence,<br>we turn them away from education.</p>\n  <p>But it gets even worse, because we then grade them down,<br>and convince them that they are not smart.</p>\n  <p>Not as smart as the kids that are just memorizing,<br>with minimal comprehension.</p>\n</div>\n<div class=\"section\">\n  <hr>\n</div>\n<div class=\"section\">\n  <p>To add insult to injury,<br>the teachers may not be aware they are preventing real education.</p>\n  <p>And when cornered about it, they may just say,<br>\"How were we supposed to know.\"</p>\n</div>\n<div class=\"section\">\n  <hr>\n</div>\n<div class=\"section\">\n  <p>It is important to admit that schools are not working,<br>and that grades are neither correct not a judgment of intelligence.</p>\n  <p>Just look at the teachers, surely they were A grade students,<br>they have little idea that they are not only failing, but preventing real education as well.</p>\n  <p>In their misunderstanding,<br>they are convincing children that they can't learn as well as the smart kids.</p>\n  <p>A lot of students will not pick up a book after that,<br>they will not try to learn.</p>\n  <p>They will never figure out that schools were broken,<br>that they were sold out for paychecks...</p>\n  <p>But convinced they are not smart,<br>for no reason at all.</p>\n</div>\n<div class=\"section\">\n  <hr>\n</div>\n<div class=\"section\">\n  <p>There may not be any change on the way,<br>schools may permanently stay the way they are.</p>\n  <p><a href=\"https://www.youtube.com/watch?v=L9zWDtDKDS8\">We used to talk about saving the Amazon, but there was no change, just talk</a>,<br><a href=\"https://www.youtube.com/watch?v=K_fXokyqeQ8\">we lost 20 percent of the Amazon in 45 years</a>.</p>\n  <p>Young people have to understand,<br>that reason is not the driving force - and we need reason to survive into the future.</p>\n  <p>Schools are a beautiful idea, in terms of reason,<br>but fake schools are a beautiful idea in terms of money.</p>\n  <p>Same as with the Rain Forest of Brazil, saving it is beautiful in terms or reason,<br>destroying it for short term money, is more fetching to people wanting to escape poverty.</p>\n</div>\n<div class=\"section\">\n  <hr>\n</div>\n<div class=\"section\">\n  <p>Education is very special, because proper education,<br>will protect the world and help our civilization grow.</p>\n  <p>Without real education people can't see the wrongs,<br>with real education we can correct our mistakes before it is too late.</p>\n  <p>With real education the world would probably create a Universal Income programme,<br>that would prevent farmers from clearing the land.</p>\n</div>\n<div class=\"section\">\n  <hr>\n</div>\n<div class=\"section\">\n  <p>There is a Kurt Vonnegut quote that I want to mention in closing,<br>\"True terror is to wake up one morning and realize that your high school class is running the country.\"</p>\n  <p>We need to understand this,<br>correctly.</p>\n  <p>First of all, forget today's politicians, they will soon retire,<br>the students of today; are future politicians.</p>\n  <p>And they need real education to repair the world,<br>broken by the uneducated, who live in a fantasy world, and don't what happens to the world after they pass.</p>\n  <p>This means that laws must be created with future generations in mind,<br>and this requires reality based lifestyles, real thinking, real education, real wisdom, and real greatness.</p>\n  <p>This means that children of today need a real education,<br>as they will be inheriting a broken world that will require greatness of mind to fix.</p>\n  <p>It means that we can't pretend to get an education,<br>we need real education instead.</p>\n  <p>We need self education,<br>because fake diploma-based education cannot be tolerated, as it means nothing.</p>\n  <p>In the absence of real teachers,<br>we must become the teachers.</p>\n  <p>Powerful, reality based, self education must come first,<br>real knowledge will beget wisdom, and wisdom will beget greatness.</p>\n</div>",
  "bootstrap": "<div class=\"card card-section bg-dark text-warning shadow\">\n  <div class=\"section card-body mb-0 my-2\">\n    <div class=\"paragraph card-text card-stanza my-5 text-center\">It is not possible to learn within a preset time period,<br>nor is it possible to learn following some curriculum.</div>\n    <div class=\"paragraph card-text card-stanza my-5 text-center\">Even in self education we can't expect to just finish a subject on time,<br>we may need to stop for several weeks, for any number of reasons.</div>\n    <div class=\"paragraph card-text card-stanza my-5 text-center\">Though the way we dictate our own path in self education,<br>is perfect.</div>\n    <div class=\"paragraph card-text card-stanza my-5 text-center\">Schools need to use computers to allow students to build their own path,<br>and as an extension of this self directed learning, the students will learn at the correct pace.</div>\n  </div>\n</div>\n<div class=\"mb-5 section-spacer\">&nbsp;</div>\n<div class=\"card card-section bg-dark text-warning shadow\">\n  <div class=\"section card-body mb-0 my-2\">\n    <div class=\"paragraph card-text card-stanza my-5 text-center\">This is just the top of the iceberg,<br>the consequences of preset time divisions and prearranged curricula are devastating.</div>\n    <div class=\"paragraph card-text card-stanza my-5 text-center\">By forcing students to learn at a specific pace, and in a specific sequence,<br>we turn them away from education.</div>\n    <div class=\"paragraph card-text card-stanza my-5 text-center\">But it gets even worse, because we then grade them down,<br>and convince them that they are not smart.</div>\n    <div class=\"paragraph card-text card-stanza my-5 text-center\">Not as smart as the kids that are just memorizing,<br>with minimal comprehension.</div>\n  </div>\n</div>\n<div class=\"mb-5 section-spacer\">&nbsp;</div>\n<div class=\"card card-section bg-dark text-warning shadow\">\n  <div class=\"section card-body mb-0 my-2\">\n    <div class=\"paragraph card-text card-stanza my-5 text-center\">To add insult to injury,<br>the teachers may not be aware they are preventing real education.</div>\n    <div class=\"paragraph card-text card-stanza my-5 text-center\">And when cornered about it, they may just say,<br>\"How were we supposed to know.\"</div>\n  </div>\n</div>\n<div class=\"mb-5 section-spacer\">&nbsp;</div>\n<div class=\"card card-section bg-dark text-warning shadow\">\n  <div class=\"section card-body mb-0 my-2\">\n    <div class=\"paragraph card-text card-stanza my-5 text-center\">It is important to admit that schools are not working,<br>and that grades are neither correct not a judgment of intelligence.</div>\n    <div class=\"paragraph card-text card-stanza my-5 text-center\">Just look at the teachers, surely they were A grade students,<br>they have little idea that they are not only failing, but preventing real education as well.</div>\n    <div class=\"paragraph card-text card-stanza my-5 text-center\">In their misunderstanding,<br>they are convincing children that they can't learn as well as the smart kids.</div>\n    <div class=\"paragraph card-text card-stanza my-5 text-center\">A lot of students will not pick up a book after that,<br>they will not try to learn.</div>\n    <div class=\"paragraph card-text card-stanza my-5 text-center\">They will never figure out that schools were broken,<br>that they were sold out for paychecks...</div>\n    <div class=\"paragraph card-text card-stanza my-5 text-center\">But convinced they are not smart,<br>for no reason at all.</div>\n  </div>\n</div>\n<div class=\"mb-5 section-spacer\">&nbsp;</div>\n<div class=\"card card-section bg-dark text-warning shadow\">\n  <div class=\"section card-body mb-0 my-2\">\n    <div class=\"paragraph card-text card-stanza my-5 text-center\">There may not be any change on the way,<br>schools may permanently stay the way they are.</div>\n    <div class=\"paragraph card-text card-stanza my-5 text-center\"><a href=\"https://www.youtube.com/watch?v=L9zWDtDKDS8\">We used to talk about saving the Amazon, but there was no change, just talk</a>,<br><a href=\"https://www.youtube.com/watch?v=K_fXokyqeQ8\">we lost 20 percent of the Amazon in 45 years</a>.</div>\n    <div class=\"paragraph card-text card-stanza my-5 text-center\">Young people have to understand,<br>that reason is not the driving force - and we need reason to survive into the future.</div>\n    <div class=\"paragraph card-text card-stanza my-5 text-center\">Schools are a beautiful idea, in terms of reason,<br>but fake schools are a beautiful idea in terms of money.</div>\n    <div class=\"paragraph card-text card-stanza my-5 text-center\">Same as with the Rain Forest of Brazil, saving it is beautiful in terms or reason,<br>destroying it for short term money, is more fetching to people wanting to escape poverty.</div>\n  </div>\n</div>\n<div class=\"mb-5 section-spacer\">&nbsp;</div>\n<div class=\"card card-section bg-dark text-warning shadow\">\n  <div class=\"section card-body mb-0 my-2\">\n    <div class=\"paragraph card-text card-stanza my-5 text-center\">Education is very special, because proper education,<br>will protect the world and help our civilization grow.</div>\n    <div class=\"paragraph card-text card-stanza my-5 text-center\">Without real education people can't see the wrongs,<br>with real education we can correct our mistakes before it is too late.</div>\n    <div class=\"paragraph card-text card-stanza my-5 text-center\">With real education the world would probably create a Universal Income programme,<br>that would prevent farmers from clearing the land.</div>\n  </div>\n</div>\n<div class=\"mb-5 section-spacer\">&nbsp;</div>\n<div class=\"card card-section bg-dark text-warning shadow\">\n  <div class=\"section card-body mb-0 my-2\">\n    <div class=\"paragraph card-text card-stanza my-5 text-center\">There is a Kurt Vonnegut quote that I want to mention in closing,<br>\"True terror is to wake up one morning and realize that your high school class is running the country.\"</div>\n    <div class=\"paragraph card-text card-stanza my-5 text-center\">We need to understand this,<br>correctly.</div>\n    <div class=\"paragraph card-text card-stanza my-5 text-center\">First of all, forget today's politicians, they will soon retire,<br>the students of today; are future politicians.</div>\n    <div class=\"paragraph card-text card-stanza my-5 text-center\">And they need real education to repair the world,<br>broken by the uneducated, who live in a fantasy world, and don't what happens to the world after they pass.</div>\n    <div class=\"paragraph card-text card-stanza my-5 text-center\">This means that laws must be created with future generations in mind,<br>and this requires reality based lifestyles, real thinking, real education, real wisdom, and real greatness.</div>\n    <div class=\"paragraph card-text card-stanza my-5 text-center\">This means that children of today need a real education,<br>as they will be inheriting a broken world that will require greatness of mind to fix.</div>\n    <div class=\"paragraph card-text card-stanza my-5 text-center\">It means that we can't pretend to get an education,<br>we need real education instead.</div>\n    <div class=\"paragraph card-text card-stanza my-5 text-center\">We need self education,<br>because fake diploma-based education cannot be tolerated, as it means nothing.</div>\n    <div class=\"paragraph card-text card-stanza my-5 text-center\">In the absence of real teachers,<br>we must become the teachers.</div>\n    <div class=\"paragraph card-text card-stanza my-5 text-center\">Powerful, reality based, self education must come first,<br>real knowledge will beget wisdom, and wisdom will beget greatness.</div>\n  </div>\n</div>",
  "print": "<div class=\"section avoid-break-inside\" style=\"padding-bottom: 2rem;\">\n  <div class=\"paragraph\">It is not possible to learn within a preset time period,<br>nor is it possible to learn following some curriculum.</div>\n  <div class=\"paragraph\">Even in self education we can't expect to just finish a subject on time,<br>we may need to stop for several weeks, for any number of reasons.</div>\n  <div class=\"paragraph\">Though the way we dictate our own path in self education,<br>is perfect.</div>\n  <div class=\"paragraph\">Schools need to use computers to allow students to build their own path,<br>and as an extension of this self directed learning, the students will learn at the correct pace.</div>\n</div>\n<div class=\"section avoid-break-inside\" style=\"padding-bottom: 2rem;\">\n  <br>\n</div>\n<div class=\"section avoid-break-inside\" style=\"padding-bottom: 2rem;\">\n  <div class=\"paragraph\">This is just the top of the iceberg,<br>the consequences of preset time divisions and prearranged curricula are devastating.</div>\n  <div class=\"paragraph\">By forcing students to learn at a specific pace, and in a specific sequence,<br>we turn them away from education.</div>\n  <div class=\"paragraph\">But it gets even worse, because we then grade them down,<br>and convince them that they are not smart.</div>\n  <div class=\"paragraph\">Not as smart as the kids that are just memorizing,<br>with minimal comprehension.</div>\n</div>\n<div class=\"section avoid-break-inside\" style=\"padding-bottom: 2rem;\">\n  <br>\n</div>\n<div class=\"section avoid-break-inside\" style=\"padding-bottom: 2rem;\">\n  <div class=\"paragraph\">To add insult to injury,<br>the teachers may not be aware they are preventing real education.</div>\n  <div class=\"paragraph\">And when cornered about it, they may just say,<br>\"How were we supposed to know.\"</div>\n</div>\n<div class=\"section avoid-break-inside\" style=\"padding-bottom: 2rem;\">\n  <br>\n</div>\n<div class=\"section avoid-break-inside\" style=\"padding-bottom: 2rem;\">\n  <div class=\"paragraph\">It is important to admit that schools are not working,<br>and that grades are neither correct not a judgment of intelligence.</div>\n  <div class=\"paragraph\">Just look at the teachers, surely they were A grade students,<br>they have little idea that they are not only failing, but preventing real education as well.</div>\n  <div class=\"paragraph\">In their misunderstanding,<br>they are convincing children that they can't learn as well as the smart kids.</div>\n  <div class=\"paragraph\">A lot of students will not pick up a book after that,<br>they will not try to learn.</div>\n  <div class=\"paragraph\">They will never figure out that schools were broken,<br>that they were sold out for paychecks...</div>\n  <div class=\"paragraph\">But convinced they are not smart,<br>for no reason at all.</div>\n</div>\n<div class=\"section avoid-break-inside\" style=\"padding-bottom: 2rem;\">\n  <br>\n</div>\n<div class=\"section avoid-break-inside\" style=\"padding-bottom: 2rem;\">\n  <div class=\"paragraph\">There may not be any change on the way,<br>schools may permanently stay the way they are.</div>\n  <div class=\"paragraph\"><span>We used to talk about saving the Amazon, but there was no change, just talk<sup>[1]</sup></span>,<br><span>we lost 20 percent of the Amazon in 45 years<sup>[2]</sup></span>.</div>\n  <div class=\"paragraph\">Young people have to understand,<br>that reason is not the driving force - and we need reason to survive into the future.</div>\n  <div class=\"paragraph\">Schools are a beautiful idea, in terms of reason,<br>but fake schools are a beautiful idea in terms of money.</div>\n  <div class=\"paragraph\">Same as with the Rain Forest of Brazil, saving it is beautiful in terms or reason,<br>destroying it for short term money, is more fetching to people wanting to escape poverty.</div>\n</div>\n<div class=\"section avoid-break-inside\" style=\"padding-bottom: 2rem;\">\n  <br>\n</div>\n<div class=\"section avoid-break-inside\" style=\"padding-bottom: 2rem;\">\n  <div class=\"paragraph\">Education is very special, because proper education,<br>will protect the world and help our civilization grow.</div>\n  <div class=\"paragraph\">Without real education people can't see the wrongs,<br>with real education we can correct our mistakes before it is too late.</div>\n  <div class=\"paragraph\">With real education the world would probably create a Universal Income programme,<br>that would prevent farmers from clearing the land.</div>\n</div>\n<div class=\"section avoid-break-inside\" style=\"padding-bottom: 2rem;\">\n  <br>\n</div>\n<div class=\"section avoid-break-inside\" style=\"padding-bottom: 2rem;\">\n  <div class=\"paragraph\">There is a Kurt Vonnegut quote that I want to mention in closing,<br>\"True terror is to wake up one morning and realize that your high school class is running the country.\"</div>\n  <div class=\"paragraph\">We need to understand this,<br>correctly.</div>\n  <div class=\"paragraph\">First of all, forget today's politicians, they will soon retire,<br>the students of today; are future politicians.</div>\n  <div class=\"paragraph\">And they need real education to repair the world,<br>broken by the uneducated, who live in a fantasy world, and don't what happens to the world after they pass.</div>\n  <div class=\"paragraph\">This means that laws must be created with future generations in mind,<br>and this requires reality based lifestyles, real thinking, real education, real wisdom, and real greatness.</div>\n  <div class=\"paragraph\">This means that children of today need a real education,<br>as they will be inheriting a broken world that will require greatness of mind to fix.</div>\n  <div class=\"paragraph\">It means that we can't pretend to get an education,<br>we need real education instead.</div>\n  <div class=\"paragraph\">We need self education,<br>because fake diploma-based education cannot be tolerated, as it means nothing.</div>\n  <div class=\"paragraph\">In the absence of real teachers,<br>we must become the teachers.</div>\n  <div class=\"paragraph\">Powerful, reality based, self education must come first,<br>real knowledge will beget wisdom, and wisdom will beget greatness.</div>\n</div>\n<div class=\"break-after\">&nbsp;</div>\n<div>\n  <div class=\"section\" style=\"padding-bottom: 1rem;\">References</div>\n  <div>[1]: https://www.youtube.com/watch?v=L9zWDtDKDS8</div>\n  <div>[2]: https://www.youtube.com/watch?v=K_fXokyqeQ8</div>\n</div>",
  "text": "It is not possible to learn within a preset time period,\nnor is it possible to learn following some curriculum.\nEven in self education we can't expect to just finish a subject on time,\nwe may need to stop for several weeks, for any number of reasons.\nThough the way we dictate our own path in self education,\nis perfect.\nSchools need to use computers to allow students to build their own path,\nand as an extension of this self directed learning, the students will learn at the correct pace.\n\nThis is just the top of the iceberg,\nthe consequences of preset time divisions and prearranged curricula are devastating.\nBy forcing students to learn at a specific pace, and in a specific sequence,\nwe turn them away from education.\nBut it gets even worse, because we then grade them down,\nand convince them that they are not smart.\nNot as smart as the kids that are just memorizing,\nwith minimal comprehension.\n\nTo add insult to injury,\nthe teachers may not be aware they are preventing real education.\nAnd when cornered about it, they may just say,\n\"How were we supposed to know.\"\n\nIt is important to admit that schools are not working,\nand that grades are neither correct not a judgment of intelligence.\nJust look at the teachers, surely they were A grade students,\nthey have little idea that they are not only failing, but preventing real education as well.\nIn their misunderstanding,\nthey are convincing children that they can't learn as well as the smart kids.\nA lot of students will not pick up a book after that,\nthey will not try to learn.\nThey will never figure out that schools were broken,\nthat they were sold out for paychecks...\nBut convinced they are not smart,\nfor no reason at all.\n\nThere may not be any change on the way,\nschools may permanently stay the way they are.\nWe used to talk about saving the Amazon, but there was no change, just talk[1],\nwe lost 20 percent of the Amazon in 45 years[2].\nYoung people have to understand,\nthat reason is not the driving force - and we need reason to survive into the future.\nSchools are a beautiful idea, in terms of reason,\nbut fake schools are a beautiful idea in terms of money.\nSame as with the Rain Forest of Brazil, saving it is beautiful in terms or reason,\ndestroying it for short term money, is more fetching to people wanting to escape poverty.\n\nEducation is very special, because proper education,\nwill protect the world and help our civilization grow.\nWithout real education people can't see the wrongs,\nwith real education we can correct our mistakes before it is too late.\nWith real education the world would probably create a Universal Income programme,\nthat would prevent farmers from clearing the land.\n\nThere is a Kurt Vonnegut quote that I want to mention in closing,\n\"True terror is to wake up one morning and realize that your high school class is running the country.\"\nWe need to understand this,\ncorrectly.\nFirst of all, forget today's politicians, they will soon retire,\nthe students of today; are future politicians.\nAnd they need real education to repair the world,\nbroken by the uneducated, who live in a fantasy world, and don't what happens to the world after they pass.\nThis means that laws must be created with future generations in mind,\nand this requires reality based lifestyles, real thinking, real education, real wisdom, and real greatness.\nThis means that children of today need a real education,\nas they will be inheriting a broken world that will require greatness of mind to fix.\nIt means that we can't pretend to get an education,\nwe need real education instead.\nWe need self education,\nbecause fake diploma-based education cannot be tolerated, as it means nothing.\nIn the absence of real teachers,\nwe must become the teachers.\nPowerful, reality based, self education must come first,\nreal knowledge will beget wisdom, and wisdom will beget greatness.\n \nReferences\n[1]: https://www.youtube.com/watch?v=L9zWDtDKDS8\n[2]: https://www.youtube.com/watch?v=K_fXokyqeQ8",
  "images": [],
  "links": [
    {
      "title": "We used to talk about saving the Amazon, but there was no change, just talk",
      "url": "https://www.youtube.com/watch?v=L9zWDtDKDS8",
      "hostname": "www.youtube.com"
    },
    {
      "title": "we lost 20 percent of the Amazon in 45 years",
      "url": "https://www.youtube.com/watch?v=K_fXokyqeQ8",
      "hostname": "www.youtube.com"
    }
  ]
}