{
  "name": "furkies-purrkies-poetry-0796",
  "id": "furkies-purrkies-poetry-0796",
  "title": "Robot Chicken Camping: A New Kind Of European Invention",
  "date": "2022-05-06T00:22:46.260Z",
  "image": "poetry-0796-illustration.jpg",
  "artwork": "https://catpea.com",
  "audio": "poetry-0796.mp3",
  "guid": "bf8c1271-3c31-4a66-802e-1615191697aa",
  "html": "<div class=\"section\">\n  <p>When they have something interesting to 3D print.<br>a lot of former Europeans camp-out by their printer to squint.</p>\n  <p>It is a kind of lovely robot love,<br>that they don’t want to get rid of.</p>\n  <p>Monitoring the new 3D printer tech,<br>is a fun as watching a Cute Chicken peck.</p>\n</div>\n<div class=\"section\">\n  <hr>\n</div>\n<div class=\"section\">\n  <p>A 3D printer is an excellent robot friend,<br>so 3D printing becomes a ritual they want to attend.</p>\n  <p>Sometimes a print may a looong time,<br>so many take to writing rhyme.</p>\n</div>\n<div class=\"section\">\n  <hr>\n</div>\n<div class=\"section\">\n  <p>But make to mistake they love waiting,<br>watching a print is supremely captivating.</p>\n  <p>Make some tea, mix some coco,<br>and watch the printer squirt out the gizmo.</p>\n  <p>The first layer makes everyone nervous,<br>because, if, it is way-off, the “hot end” may need service.</p>\n  <p>Most often it is a bed leveling issue,<br>and hopefully they have an auto-leveling kit or they’ll need a tissue.</p>\n</div>\n<div class=\"section\">\n  <hr>\n</div>\n<div class=\"section\">\n  <p>But our lovely robot,<br>does magic quite a lot.</p>\n  <p>It is the marvelous chicken,<br>that’s always ticking.</p>\n  <p>--</p>\n  <p>Once it begins printing the honey comb foundation,<br>creating a feeling of elation.</p>\n  <p>You don't need to squint,<br>to see that it is beauUutiful inside a 3D print.</p>\n  <p>And if your mittens are nimble,<br>you can probably drop something in there as a symbol.</p>\n</div>\n<div class=\"section\">\n  <hr>\n</div>\n<div class=\"section\">\n  <p>Just to be sure,<br>many, first print a little miniature.</p>\n  <p>A midget version of their invention,<br>on a much smaller dimension.</p>\n  <p>It is just as exciting,<br>and the idea of saving time and filament can be quite inviting.</p>\n</div>\n<div class=\"section\">\n  <hr>\n</div>\n<div class=\"section\">\n  <p>Sitting down next to a printer that one can admire,<br>is very much like relaxing by a happy bonfire.</p>\n  <p>Never mind the duration,<br>that chicken is pecking out your magnificent creation.</p>\n  <p>It is the most fascinating thing in the universe,<br>even more fascinating... than this strange verse.</p>\n  <p><a href=\"/image/poetry-0796-big.jpg\">Title Image Close-up</a></p>\n</div>",
  "bootstrap": "<div class=\"card card-section bg-dark text-warning shadow\">\n  <div class=\"section card-body mb-0 my-2\">\n    <div class=\"paragraph card-text card-stanza my-5 text-center\">When they have something interesting to 3D print.<br>a lot of former Europeans camp-out by their printer to squint.</div>\n    <div class=\"paragraph card-text card-stanza my-5 text-center\">It is a kind of lovely robot love,<br>that they don’t want to get rid of.</div>\n    <div class=\"paragraph card-text card-stanza my-5 text-center\">Monitoring the new 3D printer tech,<br>is a fun as watching a Cute Chicken peck.</div>\n  </div>\n</div>\n<div class=\"mb-5 section-spacer\">&nbsp;</div>\n<div class=\"card card-section bg-dark text-warning shadow\">\n  <div class=\"section card-body mb-0 my-2\">\n    <div class=\"paragraph card-text card-stanza my-5 text-center\">A 3D printer is an excellent robot friend,<br>so 3D printing becomes a ritual they want to attend.</div>\n    <div class=\"paragraph card-text card-stanza my-5 text-center\">Sometimes a print may a looong time,<br>so many take to writing rhyme.</div>\n  </div>\n</div>\n<div class=\"mb-5 section-spacer\">&nbsp;</div>\n<div class=\"card card-section bg-dark text-warning shadow\">\n  <div class=\"section card-body mb-0 my-2\">\n    <div class=\"paragraph card-text card-stanza my-5 text-center\">But make to mistake they love waiting,<br>watching a print is supremely captivating.</div>\n    <div class=\"paragraph card-text card-stanza my-5 text-center\">Make some tea, mix some coco,<br>and watch the printer squirt out the gizmo.</div>\n    <div class=\"paragraph card-text card-stanza my-5 text-center\">The first layer makes everyone nervous,<br>because, if, it is way-off, the “hot end” may need service.</div>\n    <div class=\"paragraph card-text card-stanza my-5 text-center\">Most often it is a bed leveling issue,<br>and hopefully they have an auto-leveling kit or they’ll need a tissue.</div>\n  </div>\n</div>\n<div class=\"mb-5 section-spacer\">&nbsp;</div>\n<div class=\"card card-section bg-dark text-warning shadow\">\n  <div class=\"section card-body mb-0 my-2\">\n    <div class=\"paragraph card-text card-stanza my-5 text-center\">But our lovely robot,<br>does magic quite a lot.</div>\n    <div class=\"paragraph card-text card-stanza my-5 text-center\">It is the marvelous chicken,<br>that’s always ticking.</div>\n    <div class=\"paragraph card-text card-stanza my-5 text-center\">--</div>\n    <div class=\"paragraph card-text card-stanza my-5 text-center\">Once it begins printing the honey comb foundation,<br>creating a feeling of elation.</div>\n    <div class=\"paragraph card-text card-stanza my-5 text-center\">You don't need to squint,<br>to see that it is beauUutiful inside a 3D print.</div>\n    <div class=\"paragraph card-text card-stanza my-5 text-center\">And if your mittens are nimble,<br>you can probably drop something in there as a symbol.</div>\n  </div>\n</div>\n<div class=\"mb-5 section-spacer\">&nbsp;</div>\n<div class=\"card card-section bg-dark text-warning shadow\">\n  <div class=\"section card-body mb-0 my-2\">\n    <div class=\"paragraph card-text card-stanza my-5 text-center\">Just to be sure,<br>many, first print a little miniature.</div>\n    <div class=\"paragraph card-text card-stanza my-5 text-center\">A midget version of their invention,<br>on a much smaller dimension.</div>\n    <div class=\"paragraph card-text card-stanza my-5 text-center\">It is just as exciting,<br>and the idea of saving time and filament can be quite inviting.</div>\n  </div>\n</div>\n<div class=\"mb-5 section-spacer\">&nbsp;</div>\n<div class=\"card card-section bg-dark text-warning shadow\">\n  <div class=\"section card-body mb-0 my-2\">\n    <div class=\"paragraph card-text card-stanza my-5 text-center\">Sitting down next to a printer that one can admire,<br>is very much like relaxing by a happy bonfire.</div>\n    <div class=\"paragraph card-text card-stanza my-5 text-center\">Never mind the duration,<br>that chicken is pecking out your magnificent creation.</div>\n    <div class=\"paragraph card-text card-stanza my-5 text-center\">It is the most fascinating thing in the universe,<br>even more fascinating... than this strange verse.</div>\n    <div class=\"paragraph card-text card-stanza my-5 text-center\"><a href=\"/image/poetry-0796-big.jpg\">Title Image Close-up</a></div>\n  </div>\n</div>",
  "print": "<div class=\"section avoid-break-inside\" style=\"padding-bottom: 2rem;\">\n  <div class=\"paragraph\">When they have something interesting to 3D print.<br>a lot of former Europeans camp-out by their printer to squint.</div>\n  <div class=\"paragraph\">It is a kind of lovely robot love,<br>that they don’t want to get rid of.</div>\n  <div class=\"paragraph\">Monitoring the new 3D printer tech,<br>is a fun as watching a Cute Chicken peck.</div>\n</div>\n<div class=\"section avoid-break-inside\" style=\"padding-bottom: 2rem;\">\n  <br>\n</div>\n<div class=\"section avoid-break-inside\" style=\"padding-bottom: 2rem;\">\n  <div class=\"paragraph\">A 3D printer is an excellent robot friend,<br>so 3D printing becomes a ritual they want to attend.</div>\n  <div class=\"paragraph\">Sometimes a print may a looong time,<br>so many take to writing rhyme.</div>\n</div>\n<div class=\"section avoid-break-inside\" style=\"padding-bottom: 2rem;\">\n  <br>\n</div>\n<div class=\"section avoid-break-inside\" style=\"padding-bottom: 2rem;\">\n  <div class=\"paragraph\">But make to mistake they love waiting,<br>watching a print is supremely captivating.</div>\n  <div class=\"paragraph\">Make some tea, mix some coco,<br>and watch the printer squirt out the gizmo.</div>\n  <div class=\"paragraph\">The first layer makes everyone nervous,<br>because, if, it is way-off, the “hot end” may need service.</div>\n  <div class=\"paragraph\">Most often it is a bed leveling issue,<br>and hopefully they have an auto-leveling kit or they’ll need a tissue.</div>\n</div>\n<div class=\"section avoid-break-inside\" style=\"padding-bottom: 2rem;\">\n  <br>\n</div>\n<div class=\"section avoid-break-inside\" style=\"padding-bottom: 2rem;\">\n  <div class=\"paragraph\">But our lovely robot,<br>does magic quite a lot.</div>\n  <div class=\"paragraph\">It is the marvelous chicken,<br>that’s always ticking.</div>\n  <div class=\"paragraph\">--</div>\n  <div class=\"paragraph\">Once it begins printing the honey comb foundation,<br>creating a feeling of elation.</div>\n  <div class=\"paragraph\">You don't need to squint,<br>to see that it is beauUutiful inside a 3D print.</div>\n  <div class=\"paragraph\">And if your mittens are nimble,<br>you can probably drop something in there as a symbol.</div>\n</div>\n<div class=\"section avoid-break-inside\" style=\"padding-bottom: 2rem;\">\n  <br>\n</div>\n<div class=\"section avoid-break-inside\" style=\"padding-bottom: 2rem;\">\n  <div class=\"paragraph\">Just to be sure,<br>many, first print a little miniature.</div>\n  <div class=\"paragraph\">A midget version of their invention,<br>on a much smaller dimension.</div>\n  <div class=\"paragraph\">It is just as exciting,<br>and the idea of saving time and filament can be quite inviting.</div>\n</div>\n<div class=\"section avoid-break-inside\" style=\"padding-bottom: 2rem;\">\n  <br>\n</div>\n<div class=\"section avoid-break-inside\" style=\"padding-bottom: 2rem;\">\n  <div class=\"paragraph\">Sitting down next to a printer that one can admire,<br>is very much like relaxing by a happy bonfire.</div>\n  <div class=\"paragraph\">Never mind the duration,<br>that chicken is pecking out your magnificent creation.</div>\n  <div class=\"paragraph\">It is the most fascinating thing in the universe,<br>even more fascinating... than this strange verse.</div>\n  <div class=\"paragraph\"><span>Title Image Close-up<sup>[1]</sup></span></div>\n</div>\n<div class=\"break-after\">&nbsp;</div>\n<div>\n  <div class=\"section\" style=\"padding-bottom: 1rem;\">References</div>\n  <div>[1]: /image/poetry-0796-big.jpg</div>\n</div>",
  "text": "When they have something interesting to 3D print.\na lot of former Europeans camp-out by their printer to squint.\nIt is a kind of lovely robot love,\nthat they don’t want to get rid of.\nMonitoring the new 3D printer tech,\nis a fun as watching a Cute Chicken peck.\n\nA 3D printer is an excellent robot friend,\nso 3D printing becomes a ritual they want to attend.\nSometimes a print may a looong time,\nso many take to writing rhyme.\n\nBut make to mistake they love waiting,\nwatching a print is supremely captivating.\nMake some tea, mix some coco,\nand watch the printer squirt out the gizmo.\nThe first layer makes everyone nervous,\nbecause, if, it is way-off, the “hot end” may need service.\nMost often it is a bed leveling issue,\nand hopefully they have an auto-leveling kit or they’ll need a tissue.\n\nBut our lovely robot,\ndoes magic quite a lot.\nIt is the marvelous chicken,\nthat’s always ticking.\n--\nOnce it begins printing the honey comb foundation,\ncreating a feeling of elation.\nYou don't need to squint,\nto see that it is beauUutiful inside a 3D print.\nAnd if your mittens are nimble,\nyou can probably drop something in there as a symbol.\n\nJust to be sure,\nmany, first print a little miniature.\nA midget version of their invention,\non a much smaller dimension.\nIt is just as exciting,\nand the idea of saving time and filament can be quite inviting.\n\nSitting down next to a printer that one can admire,\nis very much like relaxing by a happy bonfire.\nNever mind the duration,\nthat chicken is pecking out your magnificent creation.\nIt is the most fascinating thing in the universe,\neven more fascinating... than this strange verse.\nTitle Image Close-up[1]\n \nReferences\n[1]: /image/poetry-0796-big.jpg",
  "images": [],
  "links": [
    {
      "title": "Title Image Close-up",
      "url": "/image/poetry-0796-big.jpg",
      "hostname": "local"
    }
  ]
}