{
  "name": "furkies-purrkies-poetry-0454",
  "title": "One By One, Book By Book",
  "date": "2021-05-29T02:37:37.839Z",
  "image": "poetry-0454-illustration.jpg",
  "audio": "poetry-0454.mp3",
  "artwork": "https://unsplash.com/photos/cN-QMLQCxBI",
  "id": "furkies-purrkies-poetry-0454",
  "attachments": {},
  "guid": "6622bdda-8d70-4585-a052-90d23d07ca94",
  "html": "<div class=\"section\">\n  <p>It matters not who the wisest or most powerful being is,</p>\n  <p>it matters not which prime minister or president calls an era his.</p>\n</div>\n\n<div class=\"section\">\n  <p>It was always a game of make believe,</p>\n  <p>the liars were always performing for the naive.</p>\n</div>\n\n<div class=\"section\">\n  <p>You and I know this is true,</p>\n  <p>because our wealth, never grew.</p>\n</div>\n\n<div class=\"section\">\n  <p>And there is no simple fix,</p>\n  <p>as the liars will always do their tricks.</p>\n</div>\n\n<div class=\"section\">\n  <p>The only way, the one that isn&apos;t just for display,</p>\n  <p>is the most challenging way.</p>\n</div>\n\n<div class=\"section\">\n  <p>Which is also the Noblest Way,</p>\n  <p>and eventually it will keep the liars at bay.</p>\n</div>\n\n<div class=\"section\">\n  <hr>\n</div>\n\n<div class=\"section\">\n  <p>Humanity as a whole does not want to stand still,</p>\n  <p>this is why it displays Collective Intelligence and a Great Force of Will,</p>\n</div>\n\n<div class=\"section\">\n  <p>But both must be correctly aligned,</p>\n  <p>otherwise we will continue becoming more and more blind.</p>\n</div>\n\n<div class=\"section\">\n  <p>Our collective Intelligence is fueled by the intelligence of all the people of Earth,</p>\n  <p>once aligned together we will witness a rebirth.</p>\n</div>\n\n<div class=\"section\">\n  <p>A true Renaissance of Wisdom, Science, and Politics,</p>\n  <p>there will be no room for tricks.</p>\n</div>\n\n<div class=\"section\">\n  <p>This collective intelligence will help Humanity to align it&apos;s Will,</p>\n  <p>we will stop going round and round around a hill...</p>\n</div>\n\n<div class=\"section\">\n  <p>And aim together for the highest of achievements and aims,</p>\n  <p>and we will put an end to liars and their games.</p>\n</div>\n\n<div class=\"section\">\n  <hr>\n</div>\n\n<div class=\"section\">\n  <p>We must now let go of our Country, Borders, and State,</p>\n  <p>as it can only become the source for more blind hate.</p>\n</div>\n\n<div class=\"section\">\n  <p>We must let go of all beliefs that tear us apart,</p>\n  <p>and start using our collective heart.</p>\n</div>\n\n<div class=\"section\">\n  <p>We have to stop pretending that schools are enough,</p>\n  <p>and take to a Fine Self Education, no matter how tough.</p>\n</div>\n\n<div class=\"section\">\n  <p>We must begin reading all the books worth our while,</p>\n  <p>and take to Trails and Adventures that are sure to bring a smile.</p>\n</div>\n\n<div class=\"section\">\n  <p>We are one family and our divisions are imaginary,</p>\n  <p>we need to all come-together by means of books at our Collective Library.</p>\n</div>\n\n<div class=\"section\">\n  <p>We must focus on our Collective Intelligence and its increase,</p>\n  <p>we are One Family and we deserve a future of Prosperity, Wisdom, and Peace.</p>\n</div>",
  "bootstrap": "<div class=\"card card-section bg-dark text-warning shadow\">\n  <div class=\"section card-body mb-0 my-2\">\n    <div class=\"paragraph card-text card-stanza my-5 text-center\">It matters not who the wisest or most powerful being is,</div>\n    <div class=\"paragraph card-text card-stanza my-5 text-center\">it matters not which prime minister or president calls an era his.</div>\n  </div>\n</div>\n<div class=\"card card-section bg-dark text-warning shadow\">\n  <div class=\"section card-body mb-0 my-2\">\n    <div class=\"paragraph card-text card-stanza my-5 text-center\">It was always a game of make believe,</div>\n    <div class=\"paragraph card-text card-stanza my-5 text-center\">the liars were always performing for the naive.</div>\n  </div>\n</div>\n<div class=\"card card-section bg-dark text-warning shadow\">\n  <div class=\"section card-body mb-0 my-2\">\n    <div class=\"paragraph card-text card-stanza my-5 text-center\">You and I know this is true,</div>\n    <div class=\"paragraph card-text card-stanza my-5 text-center\">because our wealth, never grew.</div>\n  </div>\n</div>\n<div class=\"card card-section bg-dark text-warning shadow\">\n  <div class=\"section card-body mb-0 my-2\">\n    <div class=\"paragraph card-text card-stanza my-5 text-center\">And there is no simple fix,</div>\n    <div class=\"paragraph card-text card-stanza my-5 text-center\">as the liars will always do their tricks.</div>\n  </div>\n</div>\n<div class=\"card card-section bg-dark text-warning shadow\">\n  <div class=\"section card-body mb-0 my-2\">\n    <div class=\"paragraph card-text card-stanza my-5 text-center\">The only way, the one that isn't just for display,</div>\n    <div class=\"paragraph card-text card-stanza my-5 text-center\">is the most challenging way.</div>\n  </div>\n</div>\n<div class=\"card card-section bg-dark text-warning shadow\">\n  <div class=\"section card-body mb-0 my-2\">\n    <div class=\"paragraph card-text card-stanza my-5 text-center\">Which is also the Noblest Way,</div>\n    <div class=\"paragraph card-text card-stanza my-5 text-center\">and eventually it will keep the liars at bay.</div>\n  </div>\n</div>\n<div class=\"mb-5 section-spacer\">&nbsp;</div>\n<div class=\"card card-section bg-dark text-warning shadow\">\n  <div class=\"section card-body mb-0 my-2\">\n    <div class=\"paragraph card-text card-stanza my-5 text-center\">Humanity as a whole does not want to stand still,</div>\n    <div class=\"paragraph card-text card-stanza my-5 text-center\">this is why it displays Collective Intelligence and a Great Force of Will,</div>\n  </div>\n</div>\n<div class=\"card card-section bg-dark text-warning shadow\">\n  <div class=\"section card-body mb-0 my-2\">\n    <div class=\"paragraph card-text card-stanza my-5 text-center\">But both must be correctly aligned,</div>\n    <div class=\"paragraph card-text card-stanza my-5 text-center\">otherwise we will continue becoming more and more blind.</div>\n  </div>\n</div>\n<div class=\"card card-section bg-dark text-warning shadow\">\n  <div class=\"section card-body mb-0 my-2\">\n    <div class=\"paragraph card-text card-stanza my-5 text-center\">Our collective Intelligence is fueled by the intelligence of all the people of Earth,</div>\n    <div class=\"paragraph card-text card-stanza my-5 text-center\">once aligned together we will witness a rebirth.</div>\n  </div>\n</div>\n<div class=\"card card-section bg-dark text-warning shadow\">\n  <div class=\"section card-body mb-0 my-2\">\n    <div class=\"paragraph card-text card-stanza my-5 text-center\">A true Renaissance of Wisdom, Science, and Politics,</div>\n    <div class=\"paragraph card-text card-stanza my-5 text-center\">there will be no room for tricks.</div>\n  </div>\n</div>\n<div class=\"card card-section bg-dark text-warning shadow\">\n  <div class=\"section card-body mb-0 my-2\">\n    <div class=\"paragraph card-text card-stanza my-5 text-center\">This collective intelligence will help Humanity to align it's Will,</div>\n    <div class=\"paragraph card-text card-stanza my-5 text-center\">we will stop going round and round around a hill...</div>\n  </div>\n</div>\n<div class=\"card card-section bg-dark text-warning shadow\">\n  <div class=\"section card-body mb-0 my-2\">\n    <div class=\"paragraph card-text card-stanza my-5 text-center\">And aim together for the highest of achievements and aims,</div>\n    <div class=\"paragraph card-text card-stanza my-5 text-center\">and we will put an end to liars and their games.</div>\n  </div>\n</div>\n<div class=\"mb-5 section-spacer\">&nbsp;</div>\n<div class=\"card card-section bg-dark text-warning shadow\">\n  <div class=\"section card-body mb-0 my-2\">\n    <div class=\"paragraph card-text card-stanza my-5 text-center\">We must now let go of our Country, Borders, and State,</div>\n    <div class=\"paragraph card-text card-stanza my-5 text-center\">as it can only become the source for more blind hate.</div>\n  </div>\n</div>\n<div class=\"card card-section bg-dark text-warning shadow\">\n  <div class=\"section card-body mb-0 my-2\">\n    <div class=\"paragraph card-text card-stanza my-5 text-center\">We must let go of all beliefs that tear us apart,</div>\n    <div class=\"paragraph card-text card-stanza my-5 text-center\">and start using our collective heart.</div>\n  </div>\n</div>\n<div class=\"card card-section bg-dark text-warning shadow\">\n  <div class=\"section card-body mb-0 my-2\">\n    <div class=\"paragraph card-text card-stanza my-5 text-center\">We have to stop pretending that schools are enough,</div>\n    <div class=\"paragraph card-text card-stanza my-5 text-center\">and take to a Fine Self Education, no matter how tough.</div>\n  </div>\n</div>\n<div class=\"card card-section bg-dark text-warning shadow\">\n  <div class=\"section card-body mb-0 my-2\">\n    <div class=\"paragraph card-text card-stanza my-5 text-center\">We must begin reading all the books worth our while,</div>\n    <div class=\"paragraph card-text card-stanza my-5 text-center\">and take to Trails and Adventures that are sure to bring a smile.</div>\n  </div>\n</div>\n<div class=\"card card-section bg-dark text-warning shadow\">\n  <div class=\"section card-body mb-0 my-2\">\n    <div class=\"paragraph card-text card-stanza my-5 text-center\">We are one family and our divisions are imaginary,</div>\n    <div class=\"paragraph card-text card-stanza my-5 text-center\">we need to all come-together by means of books at our Collective Library.</div>\n  </div>\n</div>\n<div class=\"card card-section bg-dark text-warning shadow\">\n  <div class=\"section card-body mb-0 my-2\">\n    <div class=\"paragraph card-text card-stanza my-5 text-center\">We must focus on our Collective Intelligence and its increase,</div>\n    <div class=\"paragraph card-text card-stanza my-5 text-center\">we are One Family and we deserve a future of Prosperity, Wisdom, and Peace.</div>\n  </div>\n</div>",
  "print": "<div class=\"section avoid-break-inside\" style=\"padding-bottom: 2rem;\">\n  <div class=\"paragraph\">It matters not who the wisest or most powerful being is,</div>\n  <div class=\"paragraph\">it matters not which prime minister or president calls an era his.</div>\n</div>\n<div class=\"section avoid-break-inside\" style=\"padding-bottom: 2rem;\">\n  <div class=\"paragraph\">It was always a game of make believe,</div>\n  <div class=\"paragraph\">the liars were always performing for the naive.</div>\n</div>\n<div class=\"section avoid-break-inside\" style=\"padding-bottom: 2rem;\">\n  <div class=\"paragraph\">You and I know this is true,</div>\n  <div class=\"paragraph\">because our wealth, never grew.</div>\n</div>\n<div class=\"section avoid-break-inside\" style=\"padding-bottom: 2rem;\">\n  <div class=\"paragraph\">And there is no simple fix,</div>\n  <div class=\"paragraph\">as the liars will always do their tricks.</div>\n</div>\n<div class=\"section avoid-break-inside\" style=\"padding-bottom: 2rem;\">\n  <div class=\"paragraph\">The only way, the one that isn't just for display,</div>\n  <div class=\"paragraph\">is the most challenging way.</div>\n</div>\n<div class=\"section avoid-break-inside\" style=\"padding-bottom: 2rem;\">\n  <div class=\"paragraph\">Which is also the Noblest Way,</div>\n  <div class=\"paragraph\">and eventually it will keep the liars at bay.</div>\n</div>\n<div class=\"section avoid-break-inside\" style=\"padding-bottom: 2rem;\">\n  <br>\n</div>\n<div class=\"section avoid-break-inside\" style=\"padding-bottom: 2rem;\">\n  <div class=\"paragraph\">Humanity as a whole does not want to stand still,</div>\n  <div class=\"paragraph\">this is why it displays Collective Intelligence and a Great Force of Will,</div>\n</div>\n<div class=\"section avoid-break-inside\" style=\"padding-bottom: 2rem;\">\n  <div class=\"paragraph\">But both must be correctly aligned,</div>\n  <div class=\"paragraph\">otherwise we will continue becoming more and more blind.</div>\n</div>\n<div class=\"section avoid-break-inside\" style=\"padding-bottom: 2rem;\">\n  <div class=\"paragraph\">Our collective Intelligence is fueled by the intelligence of all the people of Earth,</div>\n  <div class=\"paragraph\">once aligned together we will witness a rebirth.</div>\n</div>\n<div class=\"section avoid-break-inside\" style=\"padding-bottom: 2rem;\">\n  <div class=\"paragraph\">A true Renaissance of Wisdom, Science, and Politics,</div>\n  <div class=\"paragraph\">there will be no room for tricks.</div>\n</div>\n<div class=\"section avoid-break-inside\" style=\"padding-bottom: 2rem;\">\n  <div class=\"paragraph\">This collective intelligence will help Humanity to align it's Will,</div>\n  <div class=\"paragraph\">we will stop going round and round around a hill...</div>\n</div>\n<div class=\"section avoid-break-inside\" style=\"padding-bottom: 2rem;\">\n  <div class=\"paragraph\">And aim together for the highest of achievements and aims,</div>\n  <div class=\"paragraph\">and we will put an end to liars and their games.</div>\n</div>\n<div class=\"section avoid-break-inside\" style=\"padding-bottom: 2rem;\">\n  <br>\n</div>\n<div class=\"section avoid-break-inside\" style=\"padding-bottom: 2rem;\">\n  <div class=\"paragraph\">We must now let go of our Country, Borders, and State,</div>\n  <div class=\"paragraph\">as it can only become the source for more blind hate.</div>\n</div>\n<div class=\"section avoid-break-inside\" style=\"padding-bottom: 2rem;\">\n  <div class=\"paragraph\">We must let go of all beliefs that tear us apart,</div>\n  <div class=\"paragraph\">and start using our collective heart.</div>\n</div>\n<div class=\"section avoid-break-inside\" style=\"padding-bottom: 2rem;\">\n  <div class=\"paragraph\">We have to stop pretending that schools are enough,</div>\n  <div class=\"paragraph\">and take to a Fine Self Education, no matter how tough.</div>\n</div>\n<div class=\"section avoid-break-inside\" style=\"padding-bottom: 2rem;\">\n  <div class=\"paragraph\">We must begin reading all the books worth our while,</div>\n  <div class=\"paragraph\">and take to Trails and Adventures that are sure to bring a smile.</div>\n</div>\n<div class=\"section avoid-break-inside\" style=\"padding-bottom: 2rem;\">\n  <div class=\"paragraph\">We are one family and our divisions are imaginary,</div>\n  <div class=\"paragraph\">we need to all come-together by means of books at our Collective Library.</div>\n</div>\n<div class=\"section avoid-break-inside\" style=\"padding-bottom: 2rem;\">\n  <div class=\"paragraph\">We must focus on our Collective Intelligence and its increase,</div>\n  <div class=\"paragraph\">we are One Family and we deserve a future of Prosperity, Wisdom, and Peace.</div>\n</div>",
  "text": "It matters not who the wisest or most powerful being is,\nit matters not which prime minister or president calls an era his.\nIt was always a game of make believe,\nthe liars were always performing for the naive.\nYou and I know this is true,\nbecause our wealth, never grew.\nAnd there is no simple fix,\nas the liars will always do their tricks.\nThe only way, the one that isn't just for display,\nis the most challenging way.\nWhich is also the Noblest Way,\nand eventually it will keep the liars at bay.\n\nHumanity as a whole does not want to stand still,\nthis is why it displays Collective Intelligence and a Great Force of Will,\nBut both must be correctly aligned,\notherwise we will continue becoming more and more blind.\nOur collective Intelligence is fueled by the intelligence of all the people of Earth,\nonce aligned together we will witness a rebirth.\nA true Renaissance of Wisdom, Science, and Politics,\nthere will be no room for tricks.\nThis collective intelligence will help Humanity to align it's Will,\nwe will stop going round and round around a hill...\nAnd aim together for the highest of achievements and aims,\nand we will put an end to liars and their games.\n\nWe must now let go of our Country, Borders, and State,\nas it can only become the source for more blind hate.\nWe must let go of all beliefs that tear us apart,\nand start using our collective heart.\nWe have to stop pretending that schools are enough,\nand take to a Fine Self Education, no matter how tough.\nWe must begin reading all the books worth our while,\nand take to Trails and Adventures that are sure to bring a smile.\nWe are one family and our divisions are imaginary,\nwe need to all come-together by means of books at our Collective Library.\nWe must focus on our Collective Intelligence and its increase,\nwe are One Family and we deserve a future of Prosperity, Wisdom, and Peace.",
  "images": [],
  "links": []
}