{
  "name": "furkies-purrkies-poetry-0388",
  "title": "Secrets Of Faerie Tales: Gwarchae Peryglus",
  "date": "2021-03-24T00:33:35.110Z",
  "image": "poetry-0388-illustration.jpg",
  "audio": "poetry-0388.mp3",
  "artwork": "https://en.wikipedia.org/wiki/File:Siege_perilleux_galaad.jpg",
  "id": "furkies-purrkies-poetry-0388",
  "attachments": {},
  "guid": "74723a3c-b017-4dbc-bba6-f836e5cc8881",
  "html": "<div class=\"section\">\n  <p>Poetically speaking, it is a description of an anonymous voting mechanism,</p>\n  <p>the peril is to be denied a second chance.</p>\n</div>\n\n<div class=\"section\">\n  <p>And the vote is about whether or not,</p>\n  <p>the person&apos;s claim of Greatness is true.</p>\n</div>\n\n<div class=\"section\">\n  <p>To spot a liar calming to be a Great Being,</p>\n  <p>that is not very difficult.</p>\n</div>\n\n<div class=\"section\">\n  <p>But having traveled some distance,</p>\n  <p>it probably means they don&apos;t like to have fingers pointed at them.</p>\n</div>\n\n<div class=\"section\">\n  <p>It probably means,</p>\n  <p>they are not a very nice person.</p>\n</div>\n\n<div class=\"section\">\n  <hr>\n</div>\n\n<div class=\"section\">\n  <p>So imagine this noble round table that beacons to every troublemaker,</p>\n  <p>and at the table sit great many Wise and Great Beings.</p>\n</div>\n\n<div class=\"section\">\n  <p>I imagine, true peril was that the troublemakers in search of more power,</p>\n  <p>revealed themselves to the Wise and Great, who knew well, what it takes.</p>\n</div>\n\n<div class=\"section\">\n  <p>So the seat was a place that baited bad people,</p>\n  <p>and made them reveal themselves to the Great Beings of the of Arthurian Legends.</p>\n</div>\n\n<div class=\"section\">\n  <hr>\n</div>\n\n<div class=\"section\">\n  <p>Poetically asking, did truly great beings join the table by sitting in the Seat of Peril?</p>\n  <p>legends aside, probably not, not really.</p>\n</div>\n\n<div class=\"section\">\n  <p>I think they would be invited by invitation and have a proper seat ready for them</p>\n  <p>- the seat of peril was for the liars to reveal themselves.</p>\n</div>\n\n<div class=\"section\">\n  <p>And overall, the entire idea of the round table is in it self a powerful wisdom,</p>\n  <p>the Great Beings do not wish to stand in the spotlight.</p>\n</div>\n\n<div class=\"section\">\n  <p>Whatever their calling, it is made a million times more powerful,</p>\n  <p>if they are not the ones at the center of attention.</p>\n</div>\n\n<div class=\"section\">\n  <p>A Million Human march,</p>\n  <p>unlike its leader, cannot be stopped.</p>\n</div>\n\n<div class=\"section\">\n  <hr>\n</div>\n\n<div class=\"section\">\n  <p>And the lesson,</p>\n  <p>to learn from this is two fold.</p>\n</div>\n\n<div class=\"section\">\n  <p>Do not lead the change,</p>\n  <p>because than you become a weak point of that noble pursuit.</p>\n</div>\n\n<div class=\"section\">\n  <p>What you have to do,</p>\n  <p>is inspire great many leaders, and encourage them to inspire more.</p>\n</div>\n\n<div class=\"section\">\n  <hr>\n</div>\n\n<div class=\"section\">\n  <p>Do not look towards liars, but when considering corruption in politics,</p>\n  <p><a href=\"https://en.wikipedia.org/wiki/List_of_American_state_and_local_politicians_convicted_of_crimes\">majority probably never gets caught</a>.</p>\n</div>\n\n<div class=\"section\">\n  <p>The changes the world needs cannot happen by shining light on liars,</p>\n  <p>they are too cunning for that.</p>\n</div>\n\n<div class=\"section\">\n  <p><a href=\"https://www.youtube.com/watch?v=BzRR3Mo4noU\">The changes the world needs, can only happen when leaders inspire more leaders</a>,</p>\n  <p>when heroes inspire more heroes.</p>\n</div>\n\n<div class=\"section\">\n  <p><a href=\"https://www.youtube.com/watch?v=_J4QPz52Sfo\">While we can&apos;t see the liars, we can, very clearly see the Greats</a>,</p>\n  <p>they are always up to something <a href=\"https://www.youtube.com/watch?v=JFZTbD6Fno4\">profound</a>, or <a href=\"https://www.youtube.com/watch?v=_pP1xsn5ms0\">amazing</a>.</p>\n</div>\n\n<div class=\"section\">\n  <p>These Great Beings are not interested in coming together to lead the world,</p>\n  <p>and they don&apos;t need anybody to vote on their greatness.</p>\n</div>\n\n<div class=\"section\">\n  <p>But you see what they are doing,</p>\n  <p>they are inspiring people to rise rise.</p>\n</div>\n\n<div class=\"section\">\n  <p>They give answers to tough questions,</p>\n  <p><a href=\"https://www.youtube.com/watch?v=GO5FwsblpT8\">and bring much needed inspiration</a>.</p>\n</div>\n\n<div class=\"section\">\n  <hr>\n</div>\n\n<div class=\"section\">\n  <p>Know that only a solid dollop of Knowledge divides you,</p>\n  <p>from being as smart at the smartest beings to have ever existed.</p>\n</div>\n\n<div class=\"section\">\n  <p>Knowledge that these Great Beings are a constant reminder of,</p>\n  <p>school grades are not real, because they rely on tests and disconnected lessons that can only be memorized.</p>\n</div>\n\n<div class=\"section\">\n  <p>Knowledge is real,</p>\n  <p>it is your Inalienable Right, and your Kingdom, and Your Crown, and your path to Greatness.</p>\n</div>\n\n<div class=\"section\">\n  <hr>\n</div>\n\n<div class=\"section\">\n  <p>There does in deed exist a Siege Perilous, but it is a question,</p>\n  <p>a question, of the choices you make that dictate the life ahead of you.</p>\n</div>\n\n<div class=\"section\">\n  <p>Do not let the story of you be lost to history,</p>\n  <p>live your life in such a way that your Legacy maybe celebrated in wisdom.</p>\n</div>\n\n<div class=\"section\">\n  <hr>\n</div>\n\n<div class=\"section\">\n  <p>Create a Library of your most beloved Narrated Books,</p>\n  <p>and narrate some of them too.</p>\n</div>\n\n<div class=\"section\">\n  <p>Let your beautiful books bring you all the knowledge there is,</p>\n  <p>and turn around and create new knowledge.</p>\n</div>\n\n<div class=\"section\">\n  <p>And dream, and inspire,</p>\n  <p>and share, and help others dream.</p>\n</div>\n\n<div class=\"section\">\n  <p><a href=\"https://librivox.org/group/512?primary_key=512&amp;search_category=group&amp;search_page=1&amp;search_form=get_results\">Help Humanity grow, we have come such a long way already</a>,</p>\n  <p>there is much left to be done to see our Pale Blue Dot united in Wisdom, in Peace, and Foresight.</p>\n</div>",
  "bootstrap": "<div class=\"card card-section bg-dark text-warning shadow\">\n  <div class=\"section card-body mb-0 my-2\">\n    <div class=\"paragraph card-text card-stanza my-5 text-center\">Poetically speaking, it is a description of an anonymous voting mechanism,</div>\n    <div class=\"paragraph card-text card-stanza my-5 text-center\">the peril is to be denied a second chance.</div>\n  </div>\n</div>\n<div class=\"card card-section bg-dark text-warning shadow\">\n  <div class=\"section card-body mb-0 my-2\">\n    <div class=\"paragraph card-text card-stanza my-5 text-center\">And the vote is about whether or not,</div>\n    <div class=\"paragraph card-text card-stanza my-5 text-center\">the person's claim of Greatness is true.</div>\n  </div>\n</div>\n<div class=\"card card-section bg-dark text-warning shadow\">\n  <div class=\"section card-body mb-0 my-2\">\n    <div class=\"paragraph card-text card-stanza my-5 text-center\">To spot a liar calming to be a Great Being,</div>\n    <div class=\"paragraph card-text card-stanza my-5 text-center\">that is not very difficult.</div>\n  </div>\n</div>\n<div class=\"card card-section bg-dark text-warning shadow\">\n  <div class=\"section card-body mb-0 my-2\">\n    <div class=\"paragraph card-text card-stanza my-5 text-center\">But having traveled some distance,</div>\n    <div class=\"paragraph card-text card-stanza my-5 text-center\">it probably means they don't like to have fingers pointed at them.</div>\n  </div>\n</div>\n<div class=\"card card-section bg-dark text-warning shadow\">\n  <div class=\"section card-body mb-0 my-2\">\n    <div class=\"paragraph card-text card-stanza my-5 text-center\">It probably means,</div>\n    <div class=\"paragraph card-text card-stanza my-5 text-center\">they are not a very nice person.</div>\n  </div>\n</div>\n<div class=\"mb-5 section-spacer\">&nbsp;</div>\n<div class=\"card card-section bg-dark text-warning shadow\">\n  <div class=\"section card-body mb-0 my-2\">\n    <div class=\"paragraph card-text card-stanza my-5 text-center\">So imagine this noble round table that beacons to every troublemaker,</div>\n    <div class=\"paragraph card-text card-stanza my-5 text-center\">and at the table sit great many Wise and Great Beings.</div>\n  </div>\n</div>\n<div class=\"card card-section bg-dark text-warning shadow\">\n  <div class=\"section card-body mb-0 my-2\">\n    <div class=\"paragraph card-text card-stanza my-5 text-center\">I imagine, true peril was that the troublemakers in search of more power,</div>\n    <div class=\"paragraph card-text card-stanza my-5 text-center\">revealed themselves to the Wise and Great, who knew well, what it takes.</div>\n  </div>\n</div>\n<div class=\"card card-section bg-dark text-warning shadow\">\n  <div class=\"section card-body mb-0 my-2\">\n    <div class=\"paragraph card-text card-stanza my-5 text-center\">So the seat was a place that baited bad people,</div>\n    <div class=\"paragraph card-text card-stanza my-5 text-center\">and made them reveal themselves to the Great Beings of the of Arthurian Legends.</div>\n  </div>\n</div>\n<div class=\"mb-5 section-spacer\">&nbsp;</div>\n<div class=\"card card-section bg-dark text-warning shadow\">\n  <div class=\"section card-body mb-0 my-2\">\n    <div class=\"paragraph card-text card-stanza my-5 text-center\">Poetically asking, did truly great beings join the table by sitting in the Seat of Peril?</div>\n    <div class=\"paragraph card-text card-stanza my-5 text-center\">legends aside, probably not, not really.</div>\n  </div>\n</div>\n<div class=\"card card-section bg-dark text-warning shadow\">\n  <div class=\"section card-body mb-0 my-2\">\n    <div class=\"paragraph card-text card-stanza my-5 text-center\">I think they would be invited by invitation and have a proper seat ready for them</div>\n    <div class=\"paragraph card-text card-stanza my-5 text-center\">- the seat of peril was for the liars to reveal themselves.</div>\n  </div>\n</div>\n<div class=\"card card-section bg-dark text-warning shadow\">\n  <div class=\"section card-body mb-0 my-2\">\n    <div class=\"paragraph card-text card-stanza my-5 text-center\">And overall, the entire idea of the round table is in it self a powerful wisdom,</div>\n    <div class=\"paragraph card-text card-stanza my-5 text-center\">the Great Beings do not wish to stand in the spotlight.</div>\n  </div>\n</div>\n<div class=\"card card-section bg-dark text-warning shadow\">\n  <div class=\"section card-body mb-0 my-2\">\n    <div class=\"paragraph card-text card-stanza my-5 text-center\">Whatever their calling, it is made a million times more powerful,</div>\n    <div class=\"paragraph card-text card-stanza my-5 text-center\">if they are not the ones at the center of attention.</div>\n  </div>\n</div>\n<div class=\"card card-section bg-dark text-warning shadow\">\n  <div class=\"section card-body mb-0 my-2\">\n    <div class=\"paragraph card-text card-stanza my-5 text-center\">A Million Human march,</div>\n    <div class=\"paragraph card-text card-stanza my-5 text-center\">unlike its leader, cannot be stopped.</div>\n  </div>\n</div>\n<div class=\"mb-5 section-spacer\">&nbsp;</div>\n<div class=\"card card-section bg-dark text-warning shadow\">\n  <div class=\"section card-body mb-0 my-2\">\n    <div class=\"paragraph card-text card-stanza my-5 text-center\">And the lesson,</div>\n    <div class=\"paragraph card-text card-stanza my-5 text-center\">to learn from this is two fold.</div>\n  </div>\n</div>\n<div class=\"card card-section bg-dark text-warning shadow\">\n  <div class=\"section card-body mb-0 my-2\">\n    <div class=\"paragraph card-text card-stanza my-5 text-center\">Do not lead the change,</div>\n    <div class=\"paragraph card-text card-stanza my-5 text-center\">because than you become a weak point of that noble pursuit.</div>\n  </div>\n</div>\n<div class=\"card card-section bg-dark text-warning shadow\">\n  <div class=\"section card-body mb-0 my-2\">\n    <div class=\"paragraph card-text card-stanza my-5 text-center\">What you have to do,</div>\n    <div class=\"paragraph card-text card-stanza my-5 text-center\">is inspire great many leaders, and encourage them to inspire more.</div>\n  </div>\n</div>\n<div class=\"mb-5 section-spacer\">&nbsp;</div>\n<div class=\"card card-section bg-dark text-warning shadow\">\n  <div class=\"section card-body mb-0 my-2\">\n    <div class=\"paragraph card-text card-stanza my-5 text-center\">Do not look towards liars, but when considering corruption in politics,</div>\n    <div class=\"paragraph card-text card-stanza my-5 text-center\"><a href=\"https://en.wikipedia.org/wiki/List_of_American_state_and_local_politicians_convicted_of_crimes\">majority probably never gets caught</a>.</div>\n  </div>\n</div>\n<div class=\"card card-section bg-dark text-warning shadow\">\n  <div class=\"section card-body mb-0 my-2\">\n    <div class=\"paragraph card-text card-stanza my-5 text-center\">The changes the world needs cannot happen by shining light on liars,</div>\n    <div class=\"paragraph card-text card-stanza my-5 text-center\">they are too cunning for that.</div>\n  </div>\n</div>\n<div class=\"card card-section bg-dark text-warning shadow\">\n  <div class=\"section card-body mb-0 my-2\">\n    <div class=\"paragraph card-text card-stanza my-5 text-center\"><a href=\"https://www.youtube.com/watch?v=BzRR3Mo4noU\">The changes the world needs, can only happen when leaders inspire more leaders</a>,</div>\n    <div class=\"paragraph card-text card-stanza my-5 text-center\">when heroes inspire more heroes.</div>\n  </div>\n</div>\n<div class=\"card card-section bg-dark text-warning shadow\">\n  <div class=\"section card-body mb-0 my-2\">\n    <div class=\"paragraph card-text card-stanza my-5 text-center\"><a href=\"https://www.youtube.com/watch?v=_J4QPz52Sfo\">While we can't see the liars, we can, very clearly see the Greats</a>,</div>\n    <div class=\"paragraph card-text card-stanza my-5 text-center\">they are always up to something <a href=\"https://www.youtube.com/watch?v=JFZTbD6Fno4\">profound</a>, or <a href=\"https://www.youtube.com/watch?v=_pP1xsn5ms0\">amazing</a>.</div>\n  </div>\n</div>\n<div class=\"card card-section bg-dark text-warning shadow\">\n  <div class=\"section card-body mb-0 my-2\">\n    <div class=\"paragraph card-text card-stanza my-5 text-center\">These Great Beings are not interested in coming together to lead the world,</div>\n    <div class=\"paragraph card-text card-stanza my-5 text-center\">and they don't need anybody to vote on their greatness.</div>\n  </div>\n</div>\n<div class=\"card card-section bg-dark text-warning shadow\">\n  <div class=\"section card-body mb-0 my-2\">\n    <div class=\"paragraph card-text card-stanza my-5 text-center\">But you see what they are doing,</div>\n    <div class=\"paragraph card-text card-stanza my-5 text-center\">they are inspiring people to rise rise.</div>\n  </div>\n</div>\n<div class=\"card card-section bg-dark text-warning shadow\">\n  <div class=\"section card-body mb-0 my-2\">\n    <div class=\"paragraph card-text card-stanza my-5 text-center\">They give answers to tough questions,</div>\n    <div class=\"paragraph card-text card-stanza my-5 text-center\"><a href=\"https://www.youtube.com/watch?v=GO5FwsblpT8\">and bring much needed inspiration</a>.</div>\n  </div>\n</div>\n<div class=\"mb-5 section-spacer\">&nbsp;</div>\n<div class=\"card card-section bg-dark text-warning shadow\">\n  <div class=\"section card-body mb-0 my-2\">\n    <div class=\"paragraph card-text card-stanza my-5 text-center\">Know that only a solid dollop of Knowledge divides you,</div>\n    <div class=\"paragraph card-text card-stanza my-5 text-center\">from being as smart at the smartest beings to have ever existed.</div>\n  </div>\n</div>\n<div class=\"card card-section bg-dark text-warning shadow\">\n  <div class=\"section card-body mb-0 my-2\">\n    <div class=\"paragraph card-text card-stanza my-5 text-center\">Knowledge that these Great Beings are a constant reminder of,</div>\n    <div class=\"paragraph card-text card-stanza my-5 text-center\">school grades are not real, because they rely on tests and disconnected lessons that can only be memorized.</div>\n  </div>\n</div>\n<div class=\"card card-section bg-dark text-warning shadow\">\n  <div class=\"section card-body mb-0 my-2\">\n    <div class=\"paragraph card-text card-stanza my-5 text-center\">Knowledge is real,</div>\n    <div class=\"paragraph card-text card-stanza my-5 text-center\">it is your Inalienable Right, and your Kingdom, and Your Crown, and your path to Greatness.</div>\n  </div>\n</div>\n<div class=\"mb-5 section-spacer\">&nbsp;</div>\n<div class=\"card card-section bg-dark text-warning shadow\">\n  <div class=\"section card-body mb-0 my-2\">\n    <div class=\"paragraph card-text card-stanza my-5 text-center\">There does in deed exist a Siege Perilous, but it is a question,</div>\n    <div class=\"paragraph card-text card-stanza my-5 text-center\">a question, of the choices you make that dictate the life ahead of you.</div>\n  </div>\n</div>\n<div class=\"card card-section bg-dark text-warning shadow\">\n  <div class=\"section card-body mb-0 my-2\">\n    <div class=\"paragraph card-text card-stanza my-5 text-center\">Do not let the story of you be lost to history,</div>\n    <div class=\"paragraph card-text card-stanza my-5 text-center\">live your life in such a way that your Legacy maybe celebrated in wisdom.</div>\n  </div>\n</div>\n<div class=\"mb-5 section-spacer\">&nbsp;</div>\n<div class=\"card card-section bg-dark text-warning shadow\">\n  <div class=\"section card-body mb-0 my-2\">\n    <div class=\"paragraph card-text card-stanza my-5 text-center\">Create a Library of your most beloved Narrated Books,</div>\n    <div class=\"paragraph card-text card-stanza my-5 text-center\">and narrate some of them too.</div>\n  </div>\n</div>\n<div class=\"card card-section bg-dark text-warning shadow\">\n  <div class=\"section card-body mb-0 my-2\">\n    <div class=\"paragraph card-text card-stanza my-5 text-center\">Let your beautiful books bring you all the knowledge there is,</div>\n    <div class=\"paragraph card-text card-stanza my-5 text-center\">and turn around and create new knowledge.</div>\n  </div>\n</div>\n<div class=\"card card-section bg-dark text-warning shadow\">\n  <div class=\"section card-body mb-0 my-2\">\n    <div class=\"paragraph card-text card-stanza my-5 text-center\">And dream, and inspire,</div>\n    <div class=\"paragraph card-text card-stanza my-5 text-center\">and share, and help others dream.</div>\n  </div>\n</div>\n<div class=\"card card-section bg-dark text-warning shadow\">\n  <div class=\"section card-body mb-0 my-2\">\n    <div class=\"paragraph card-text card-stanza my-5 text-center\"><a href=\"https://librivox.org/group/512?primary_key=512&search_category=group&search_page=1&search_form=get_results\">Help Humanity grow, we have come such a long way already</a>,</div>\n    <div class=\"paragraph card-text card-stanza my-5 text-center\">there is much left to be done to see our Pale Blue Dot united in Wisdom, in Peace, and Foresight.</div>\n  </div>\n</div>",
  "print": "<div class=\"section avoid-break-inside\" style=\"padding-bottom: 2rem;\">\n  <div class=\"paragraph\">Poetically speaking, it is a description of an anonymous voting mechanism,</div>\n  <div class=\"paragraph\">the peril is to be denied a second chance.</div>\n</div>\n<div class=\"section avoid-break-inside\" style=\"padding-bottom: 2rem;\">\n  <div class=\"paragraph\">And the vote is about whether or not,</div>\n  <div class=\"paragraph\">the person's claim of Greatness is true.</div>\n</div>\n<div class=\"section avoid-break-inside\" style=\"padding-bottom: 2rem;\">\n  <div class=\"paragraph\">To spot a liar calming to be a Great Being,</div>\n  <div class=\"paragraph\">that is not very difficult.</div>\n</div>\n<div class=\"section avoid-break-inside\" style=\"padding-bottom: 2rem;\">\n  <div class=\"paragraph\">But having traveled some distance,</div>\n  <div class=\"paragraph\">it probably means they don't like to have fingers pointed at them.</div>\n</div>\n<div class=\"section avoid-break-inside\" style=\"padding-bottom: 2rem;\">\n  <div class=\"paragraph\">It probably means,</div>\n  <div class=\"paragraph\">they are not a very nice person.</div>\n</div>\n<div class=\"section avoid-break-inside\" style=\"padding-bottom: 2rem;\">\n  <br>\n</div>\n<div class=\"section avoid-break-inside\" style=\"padding-bottom: 2rem;\">\n  <div class=\"paragraph\">So imagine this noble round table that beacons to every troublemaker,</div>\n  <div class=\"paragraph\">and at the table sit great many Wise and Great Beings.</div>\n</div>\n<div class=\"section avoid-break-inside\" style=\"padding-bottom: 2rem;\">\n  <div class=\"paragraph\">I imagine, true peril was that the troublemakers in search of more power,</div>\n  <div class=\"paragraph\">revealed themselves to the Wise and Great, who knew well, what it takes.</div>\n</div>\n<div class=\"section avoid-break-inside\" style=\"padding-bottom: 2rem;\">\n  <div class=\"paragraph\">So the seat was a place that baited bad people,</div>\n  <div class=\"paragraph\">and made them reveal themselves to the Great Beings of the of Arthurian Legends.</div>\n</div>\n<div class=\"section avoid-break-inside\" style=\"padding-bottom: 2rem;\">\n  <br>\n</div>\n<div class=\"section avoid-break-inside\" style=\"padding-bottom: 2rem;\">\n  <div class=\"paragraph\">Poetically asking, did truly great beings join the table by sitting in the Seat of Peril?</div>\n  <div class=\"paragraph\">legends aside, probably not, not really.</div>\n</div>\n<div class=\"section avoid-break-inside\" style=\"padding-bottom: 2rem;\">\n  <div class=\"paragraph\">I think they would be invited by invitation and have a proper seat ready for them</div>\n  <div class=\"paragraph\">- the seat of peril was for the liars to reveal themselves.</div>\n</div>\n<div class=\"section avoid-break-inside\" style=\"padding-bottom: 2rem;\">\n  <div class=\"paragraph\">And overall, the entire idea of the round table is in it self a powerful wisdom,</div>\n  <div class=\"paragraph\">the Great Beings do not wish to stand in the spotlight.</div>\n</div>\n<div class=\"section avoid-break-inside\" style=\"padding-bottom: 2rem;\">\n  <div class=\"paragraph\">Whatever their calling, it is made a million times more powerful,</div>\n  <div class=\"paragraph\">if they are not the ones at the center of attention.</div>\n</div>\n<div class=\"section avoid-break-inside\" style=\"padding-bottom: 2rem;\">\n  <div class=\"paragraph\">A Million Human march,</div>\n  <div class=\"paragraph\">unlike its leader, cannot be stopped.</div>\n</div>\n<div class=\"section avoid-break-inside\" style=\"padding-bottom: 2rem;\">\n  <br>\n</div>\n<div class=\"section avoid-break-inside\" style=\"padding-bottom: 2rem;\">\n  <div class=\"paragraph\">And the lesson,</div>\n  <div class=\"paragraph\">to learn from this is two fold.</div>\n</div>\n<div class=\"section avoid-break-inside\" style=\"padding-bottom: 2rem;\">\n  <div class=\"paragraph\">Do not lead the change,</div>\n  <div class=\"paragraph\">because than you become a weak point of that noble pursuit.</div>\n</div>\n<div class=\"section avoid-break-inside\" style=\"padding-bottom: 2rem;\">\n  <div class=\"paragraph\">What you have to do,</div>\n  <div class=\"paragraph\">is inspire great many leaders, and encourage them to inspire more.</div>\n</div>\n<div class=\"section avoid-break-inside\" style=\"padding-bottom: 2rem;\">\n  <br>\n</div>\n<div class=\"section avoid-break-inside\" style=\"padding-bottom: 2rem;\">\n  <div class=\"paragraph\">Do not look towards liars, but when considering corruption in politics,</div>\n  <div class=\"paragraph\"><span>majority probably never gets caught<sup>[1]</sup></span>.</div>\n</div>\n<div class=\"section avoid-break-inside\" style=\"padding-bottom: 2rem;\">\n  <div class=\"paragraph\">The changes the world needs cannot happen by shining light on liars,</div>\n  <div class=\"paragraph\">they are too cunning for that.</div>\n</div>\n<div class=\"section avoid-break-inside\" style=\"padding-bottom: 2rem;\">\n  <div class=\"paragraph\"><span>The changes the world needs, can only happen when leaders inspire more leaders<sup>[2]</sup></span>,</div>\n  <div class=\"paragraph\">when heroes inspire more heroes.</div>\n</div>\n<div class=\"section avoid-break-inside\" style=\"padding-bottom: 2rem;\">\n  <div class=\"paragraph\"><span>While we can't see the liars, we can, very clearly see the Greats<sup>[3]</sup></span>,</div>\n  <div class=\"paragraph\">they are always up to something <span>profound<sup>[4]</sup></span>, or <span>amazing<sup>[5]</sup></span>.</div>\n</div>\n<div class=\"section avoid-break-inside\" style=\"padding-bottom: 2rem;\">\n  <div class=\"paragraph\">These Great Beings are not interested in coming together to lead the world,</div>\n  <div class=\"paragraph\">and they don't need anybody to vote on their greatness.</div>\n</div>\n<div class=\"section avoid-break-inside\" style=\"padding-bottom: 2rem;\">\n  <div class=\"paragraph\">But you see what they are doing,</div>\n  <div class=\"paragraph\">they are inspiring people to rise rise.</div>\n</div>\n<div class=\"section avoid-break-inside\" style=\"padding-bottom: 2rem;\">\n  <div class=\"paragraph\">They give answers to tough questions,</div>\n  <div class=\"paragraph\"><span>and bring much needed inspiration<sup>[6]</sup></span>.</div>\n</div>\n<div class=\"section avoid-break-inside\" style=\"padding-bottom: 2rem;\">\n  <br>\n</div>\n<div class=\"section avoid-break-inside\" style=\"padding-bottom: 2rem;\">\n  <div class=\"paragraph\">Know that only a solid dollop of Knowledge divides you,</div>\n  <div class=\"paragraph\">from being as smart at the smartest beings to have ever existed.</div>\n</div>\n<div class=\"section avoid-break-inside\" style=\"padding-bottom: 2rem;\">\n  <div class=\"paragraph\">Knowledge that these Great Beings are a constant reminder of,</div>\n  <div class=\"paragraph\">school grades are not real, because they rely on tests and disconnected lessons that can only be memorized.</div>\n</div>\n<div class=\"section avoid-break-inside\" style=\"padding-bottom: 2rem;\">\n  <div class=\"paragraph\">Knowledge is real,</div>\n  <div class=\"paragraph\">it is your Inalienable Right, and your Kingdom, and Your Crown, and your path to Greatness.</div>\n</div>\n<div class=\"section avoid-break-inside\" style=\"padding-bottom: 2rem;\">\n  <br>\n</div>\n<div class=\"section avoid-break-inside\" style=\"padding-bottom: 2rem;\">\n  <div class=\"paragraph\">There does in deed exist a Siege Perilous, but it is a question,</div>\n  <div class=\"paragraph\">a question, of the choices you make that dictate the life ahead of you.</div>\n</div>\n<div class=\"section avoid-break-inside\" style=\"padding-bottom: 2rem;\">\n  <div class=\"paragraph\">Do not let the story of you be lost to history,</div>\n  <div class=\"paragraph\">live your life in such a way that your Legacy maybe celebrated in wisdom.</div>\n</div>\n<div class=\"section avoid-break-inside\" style=\"padding-bottom: 2rem;\">\n  <br>\n</div>\n<div class=\"section avoid-break-inside\" style=\"padding-bottom: 2rem;\">\n  <div class=\"paragraph\">Create a Library of your most beloved Narrated Books,</div>\n  <div class=\"paragraph\">and narrate some of them too.</div>\n</div>\n<div class=\"section avoid-break-inside\" style=\"padding-bottom: 2rem;\">\n  <div class=\"paragraph\">Let your beautiful books bring you all the knowledge there is,</div>\n  <div class=\"paragraph\">and turn around and create new knowledge.</div>\n</div>\n<div class=\"section avoid-break-inside\" style=\"padding-bottom: 2rem;\">\n  <div class=\"paragraph\">And dream, and inspire,</div>\n  <div class=\"paragraph\">and share, and help others dream.</div>\n</div>\n<div class=\"section avoid-break-inside\" style=\"padding-bottom: 2rem;\">\n  <div class=\"paragraph\"><span>Help Humanity grow, we have come such a long way already<sup>[7]</sup></span>,</div>\n  <div class=\"paragraph\">there is much left to be done to see our Pale Blue Dot united in Wisdom, in Peace, and Foresight.</div>\n</div>\n<div class=\"break-after\">&nbsp;</div>\n<div>\n  <div class=\"section\" style=\"padding-bottom: 1rem;\">References</div>\n  <div>[1]: https://en.wikipedia.org/wiki/List_of_American_state_and_local_politicians_convicted_of_crimes</div>\n  <div>[2]: https://www.youtube.com/watch?v=BzRR3Mo4noU</div>\n  <div>[3]: https://www.youtube.com/watch?v=_J4QPz52Sfo</div>\n  <div>[4]: https://www.youtube.com/watch?v=JFZTbD6Fno4</div>\n  <div>[5]: https://www.youtube.com/watch?v=_pP1xsn5ms0</div>\n  <div>[6]: https://www.youtube.com/watch?v=GO5FwsblpT8</div>\n  <div>[7]: https://librivox.org/group/512?primary_key=512&search_category=group&search_page=1&search_form=get_results</div>\n</div>",
  "text": "Poetically speaking, it is a description of an anonymous voting mechanism,\nthe peril is to be denied a second chance.\nAnd the vote is about whether or not,\nthe person's claim of Greatness is true.\nTo spot a liar calming to be a Great Being,\nthat is not very difficult.\nBut having traveled some distance,\nit probably means they don't like to have fingers pointed at them.\nIt probably means,\nthey are not a very nice person.\n\nSo imagine this noble round table that beacons to every troublemaker,\nand at the table sit great many Wise and Great Beings.\nI imagine, true peril was that the troublemakers in search of more power,\nrevealed themselves to the Wise and Great, who knew well, what it takes.\nSo the seat was a place that baited bad people,\nand made them reveal themselves to the Great Beings of the of Arthurian Legends.\n\nPoetically asking, did truly great beings join the table by sitting in the Seat of Peril?\nlegends aside, probably not, not really.\nI think they would be invited by invitation and have a proper seat ready for them\n- the seat of peril was for the liars to reveal themselves.\nAnd overall, the entire idea of the round table is in it self a powerful wisdom,\nthe Great Beings do not wish to stand in the spotlight.\nWhatever their calling, it is made a million times more powerful,\nif they are not the ones at the center of attention.\nA Million Human march,\nunlike its leader, cannot be stopped.\n\nAnd the lesson,\nto learn from this is two fold.\nDo not lead the change,\nbecause than you become a weak point of that noble pursuit.\nWhat you have to do,\nis inspire great many leaders, and encourage them to inspire more.\n\nDo not look towards liars, but when considering corruption in politics,\nmajority probably never gets caught[1].\nThe changes the world needs cannot happen by shining light on liars,\nthey are too cunning for that.\nThe changes the world needs, can only happen when leaders inspire more leaders[2],\nwhen heroes inspire more heroes.\nWhile we can't see the liars, we can, very clearly see the Greats[3],\nthey are always up to something profound[4], or amazing[5].\nThese Great Beings are not interested in coming together to lead the world,\nand they don't need anybody to vote on their greatness.\nBut you see what they are doing,\nthey are inspiring people to rise rise.\nThey give answers to tough questions,\nand bring much needed inspiration[6].\n\nKnow that only a solid dollop of Knowledge divides you,\nfrom being as smart at the smartest beings to have ever existed.\nKnowledge that these Great Beings are a constant reminder of,\nschool grades are not real, because they rely on tests and disconnected lessons that can only be memorized.\nKnowledge is real,\nit is your Inalienable Right, and your Kingdom, and Your Crown, and your path to Greatness.\n\nThere does in deed exist a Siege Perilous, but it is a question,\na question, of the choices you make that dictate the life ahead of you.\nDo not let the story of you be lost to history,\nlive your life in such a way that your Legacy maybe celebrated in wisdom.\n\nCreate a Library of your most beloved Narrated Books,\nand narrate some of them too.\nLet your beautiful books bring you all the knowledge there is,\nand turn around and create new knowledge.\nAnd dream, and inspire,\nand share, and help others dream.\nHelp Humanity grow, we have come such a long way already[7],\nthere is much left to be done to see our Pale Blue Dot united in Wisdom, in Peace, and Foresight.\n \nReferences\n[1]: https://en.wikipedia.org/wiki/List_of_American_state_and_local_politicians_convicted_of_crimes\n[2]: https://www.youtube.com/watch?v=BzRR3Mo4noU\n[3]: https://www.youtube.com/watch?v=_J4QPz52Sfo\n[4]: https://www.youtube.com/watch?v=JFZTbD6Fno4\n[5]: https://www.youtube.com/watch?v=_pP1xsn5ms0\n[6]: https://www.youtube.com/watch?v=GO5FwsblpT8\n[7]: https://librivox.org/group/512?primary_key=512&search_category=group&search_page=1&search_form=get_results",
  "images": [],
  "links": [
    {
      "title": "majority probably never gets caught",
      "url": "https://en.wikipedia.org/wiki/List_of_American_state_and_local_politicians_convicted_of_crimes",
      "hostname": "en.wikipedia.org"
    },
    {
      "title": "The changes the world needs, can only happen when leaders inspire more leaders",
      "url": "https://www.youtube.com/watch?v=BzRR3Mo4noU",
      "hostname": "www.youtube.com"
    },
    {
      "title": "While we can't see the liars, we can, very clearly see the Greats",
      "url": "https://www.youtube.com/watch?v=_J4QPz52Sfo",
      "hostname": "www.youtube.com"
    },
    {
      "title": "profound",
      "url": "https://www.youtube.com/watch?v=JFZTbD6Fno4",
      "hostname": "www.youtube.com"
    },
    {
      "title": "amazing",
      "url": "https://www.youtube.com/watch?v=_pP1xsn5ms0",
      "hostname": "www.youtube.com"
    },
    {
      "title": "and bring much needed inspiration",
      "url": "https://www.youtube.com/watch?v=GO5FwsblpT8",
      "hostname": "www.youtube.com"
    },
    {
      "title": "Help Humanity grow, we have come such a long way already",
      "url": "https://librivox.org/group/512?primary_key=512&search_category=group&search_page=1&search_form=get_results",
      "hostname": "librivox.org"
    }
  ]
}