{
  "id": "furkies-purrkies-poetry-0749",
  "title": "State Of The Art: Spring 2022",
  "date": "2022-03-20T00:42:51.983Z",
  "image": "poetry-0749-illustration.jpg",
  "artwork": "https://catpea.com",
  "audio": "poetry-0749.mp3",
  "guid": "cd8b5818-96dd-439d-a835-1e496275dacf"
}
