{
  "title": "No Ordinary Lives",
  "date": "2021-01-16T23:24:33.800Z",
  "image": "poetry-0322-illustration.jpg",
  "audio": "poetry-0322.mp3",
  "artwork": "https://unsplash.com/photos/YSN4xhXuPig",
  "id": "furkies-purrkies-poetry-0322",
  "attachments": {},
  "guid": "f6960c33-8188-4b6f-a6b8-c0d4262d72dd"
}
