{
  "name": "furkies-purrkies-poetry-0431",
  "title": "The Queen's Tongue: Learning English",
  "date": "2021-05-06T02:53:57.257Z",
  "image": "poetry-0431-illustration.jpg",
  "audio": "poetry-0431.mp3",
  "artwork": "https://unsplash.com/photos/Ab-W3gen18Q",
  "id": "furkies-purrkies-poetry-0431",
  "attachments": {},
  "guid": "f9bdb762-8719-4ecf-a955-22aa45fa46a3",
  "html": "<div class=\"section\">\n  <p>My uncle left for Africa and later America,</p>\n  <p>and left behind an interestingly scratchy and neatly smelling 3D postcard.</p>\n</div>\n\n<div class=\"section\">\n  <p>It turned out that the city pictured there,</p>\n  <p>was New York.</p>\n</div>\n\n<div class=\"section\">\n  <p>Being a fan of the new things,</p>\n  <p>I begun getting used to the idea that I would have to live there for a couple of years.</p>\n</div>\n\n<div class=\"section\">\n  <hr>\n</div>\n\n<div class=\"section\">\n  <p>I had some problems,</p>\n  <p>that I first needed to solve.</p>\n</div>\n\n<div class=\"section\">\n  <p>The biggest problem was,</p>\n  <p>actually pretty big.</p>\n</div>\n\n<div class=\"section\">\n  <p>Because, I was very smol,</p>\n  <p>I might have been seven, maybe nine, but at nine it wouldn&apos;t seem like such a big problem.</p>\n</div>\n\n<div class=\"section\">\n  <p>In a word,</p>\n  <p>I needed to become an adult.</p>\n</div>\n\n<div class=\"section\">\n  <p>That New Yorkers spoke a different language,</p>\n  <p>would have registered if I though about it, but I had my hands full with growing up.</p>\n</div>\n\n<div class=\"section\">\n  <hr>\n</div>\n\n<div class=\"section\">\n  <p>It wasn&apos;t long before my parents bought me my Commodore 64,</p>\n  <p>since everyone was saying &quot;Computers Are The Future&quot; I figured I should learn how to use it too.</p>\n</div>\n\n<div class=\"section\">\n  <p>Right about the same time, we begun receiving the British Sky Broadcasting Network signal,</p>\n  <p>and the linguistic barrier hit pretty hard.</p>\n</div>\n\n<div class=\"section\">\n  <p>We also had Pro 7 and RTL, which was in German,</p>\n  <p>but it was showing Rosanne, which was about America.</p>\n</div>\n\n<div class=\"section\">\n  <p>On one end I was learning about America in German,</p>\n  <p>and learning English from The DJ Kat show on the British TV.</p>\n</div>\n\n<div class=\"section\">\n  <p>I once knew as much German as English,</p>\n  <p>and I actually used German in real life once.</p>\n</div>\n\n<div class=\"section\">\n  <p>On my way back from a trip to Netherlands,</p>\n  <p>as we stopped on a rest area in Germany a Harley Davidson rider came up to us and asked:</p>\n</div>\n\n<div class=\"section\">\n  <p>&quot;Was ist die uhre?&quot;,</p>\n  <p>I made my colleague show him his watch.</p>\n</div>\n\n<div class=\"section\">\n  <p>The rider might not have realized,</p>\n  <p>that we didn&apos;t speak German.</p>\n</div>\n\n<div class=\"section\">\n  <hr>\n</div>\n\n<div class=\"section\">\n  <p>It wasn&apos;t long before I ended up in New York,</p>\n  <p>in Brooklyn, the city with streets paved with gold (or Mica as I was told)</p>\n</div>\n\n<div class=\"section\">\n  <p>I had to fill out some medical paperwork,</p>\n  <p>across the city, so it was as good of a time as any to ride the freaking subway for the first freaking time.</p>\n</div>\n\n<div class=\"section\">\n  <p>I did not get lost,</p>\n  <p>but let me just reveal to you what it was like.</p>\n</div>\n\n<div class=\"section\">\n  <p>All the station names I memorized, over an over, so that I wouldn&apos;t get lost, or miss my stop,</p>\n  <p>they were all wrong, they didn&apos;t sound anything like what I memorized.</p>\n</div>\n\n<div class=\"section\">\n  <p>Only a small part of this was the speaker,</p>\n  <p>I memorized them in the language I knew, not the everyone that New Yorkers spoke.</p>\n</div>\n\n<div class=\"section\">\n  <hr>\n</div>\n\n<div class=\"section\">\n  <p>And the same thing happened, a person walked up top me and asked &quot;Do yo have the time?&quot;,</p>\n  <p>well I did, but in the heat of the moment, I only knew the numbers separately, and I wasn&apos;t sure if I should say 1-5, or 3.</p>\n</div>\n\n<div class=\"section\">\n  <p>And it was just too much,</p>\n  <p>so in my best British Tongue, I uttered: &quot;I don&apos;t speak English&quot;.</p>\n</div>\n\n<div class=\"section\">\n  <p>They asked something else,</p>\n  <p>but I already failed that test.</p>\n</div>\n\n<div class=\"section\">\n  <p>Now, I was learning English, I was doing very well,</p>\n  <p>and if I had 45 seconds, to pull my self together I would have remembered Fifteen, and to say 3PM, instead, and maybe even throw in you&apos;re welcome, to show off.</p>\n</div>\n\n<div class=\"section\">\n  <p>But,</p>\n  <p>I was 42 seconds short.</p>\n</div>\n\n<div class=\"section\">\n  <hr>\n</div>\n\n<div class=\"section\">\n  <p>This is a good thing,</p>\n  <p>because all lessons aside, this is how you begin learning a language for real.</p>\n</div>\n\n<div class=\"section\">\n  <p>I never practiced numbers, or days of the week,</p>\n  <p>I just willed myself to know them, from all the TV I watched, and Closed Captions.</p>\n</div>\n\n<div class=\"section\">\n  <hr>\n</div>\n\n<div class=\"section\">\n  <p>Once I had my medical paperwork,</p>\n  <p>and went to school.</p>\n</div>\n\n<div class=\"section\">\n  <p>The English teacher ACCUSED ME, of knowing English,</p>\n  <p>of pretending no to speak it.</p>\n</div>\n\n<div class=\"section\">\n  <p>And she failed me multiple times,</p>\n  <p>there was this hokey ceremony where everyone was getting awards for achievement, and I didn&apos;t get one.</p>\n</div>\n\n<div class=\"section\">\n  <p>The person I was sitting next to was laughing - that he got one,</p>\n  <p>but the English teacher removed me from that list, because she was convinced I didn&apos;t achieve anything, that I was pretending not to speak English.</p>\n</div>\n\n<div class=\"section\">\n  <p>I was so proud of myself,</p>\n  <p>and I wasn&apos;t scared of her at all.</p>\n</div>\n\n<div class=\"section\">\n  <p>She made a acquaintance of mine, Ewa cry,</p>\n  <p>and I went to the principal, who I am sure gave her a stern talk.</p>\n</div>\n\n<div class=\"section\">\n  <hr>\n</div>\n\n<div class=\"section\">\n  <p>English turned out to be a lot larger than I expected,</p>\n  <p>but being exposed to these situations especially stressful or insulting, makes us hungry for language.</p>\n</div>\n\n<div class=\"section\">\n  <hr>\n</div>\n\n<div class=\"section\">\n  <p>Not so long after that,</p>\n  <p>I was working in Wyandotte on web design, which is is very easy to learn, and I highly recommend it.</p>\n</div>\n\n<div class=\"section\">\n  <p>And a client complained that they couldn&apos;t understand me,</p>\n  <p>and the office started discussing how my accent was heavy, I was now able to speak but accent was heavy, something I couldn&apos;t quite hear myself.</p>\n</div>\n\n<div class=\"section\">\n  <p>Though you can still hear traces of it in the way I pronounce the word Basic,</p>\n  <p>I can&apos;t feel anything wrong with the way I pronounce it, until; I hear it on audio.</p>\n</div>\n\n<div class=\"section\">\n  <p>BASIC is the name of a programming language, and one of the first words that I learned in English,</p>\n  <p>and I was still pronounce it the Polish way.</p>\n</div>\n\n<div class=\"section\">\n  <p>But get this, later, it turned out,</p>\n  <p>my accent was fine, it was my babbling about connecting to FTP servers, and talking about HTML tags, HTML tables that caused the trouble.</p>\n</div>\n\n<div class=\"section\">\n  <p>It was still somewhat stressful to speak to strangers,</p>\n  <p>but now the stress was revealing it self in not being tactful about their vocabulary.</p>\n</div>\n\n<div class=\"section\">\n  <p>I think it is safe to say,</p>\n  <p>that it was a huge milestone in my self education.</p>\n</div>\n\n<div class=\"section\">\n  <hr>\n</div>\n\n<div class=\"section\">\n  <p>Reading wasn&apos;t much of a problem,</p>\n  <p>I think we underestimate the magic of closed captioned TV, I think that is what taught to me to read.</p>\n</div>\n\n<div class=\"section\">\n  <p>I plowed through a shelf of cheap paperbacks,</p>\n  <p>and I had zero problems with comprehension, I was reading books about UFOs and really enjoyed it.</p>\n</div>\n\n<div class=\"section\">\n  <p>By the time books on tape, or narrated books came up on my radar,</p>\n  <p>I felt perfectly comfortable with English.</p>\n</div>\n\n<div class=\"section\">\n  <p>Though Narrated Books, are a powerful tool for learning English,</p>\n  <p>and just learning in general.</p>\n</div>\n\n<div class=\"section\">\n  <p>And this is my recommendation,</p>\n  <p>whatever language you are hoping to learn, Narrated Books will get you most of the way there.</p>\n</div>\n\n<div class=\"section\">\n  <p>To finish it off, you will need to permanently move to that country,</p>\n  <p>even if you don&apos;t speak the language yet, an mingle and soak up the new culture.</p>\n</div>\n\n<div class=\"section\">\n  <p>If you are not sure which language to pick,</p>\n  <p>choose English, because part of the beauty of a language lies lies in the number of countries you can day dream about moving to.</p>\n</div>\n\n<div class=\"section\">\n  <p>And if you ever take to visit UK,</p>\n  <p>whatever you do, leave your fanny pack at home, and do not use the word &quot;fanny&quot; lightly, or at all.</p>\n</div>",
  "bootstrap": "<div class=\"card card-section bg-dark text-warning shadow\">\n  <div class=\"section card-body mb-0 my-2\">\n    <div class=\"paragraph card-text card-stanza my-5 text-center\">My uncle left for Africa and later America,</div>\n    <div class=\"paragraph card-text card-stanza my-5 text-center\">and left behind an interestingly scratchy and neatly smelling 3D postcard.</div>\n  </div>\n</div>\n<div class=\"card card-section bg-dark text-warning shadow\">\n  <div class=\"section card-body mb-0 my-2\">\n    <div class=\"paragraph card-text card-stanza my-5 text-center\">It turned out that the city pictured there,</div>\n    <div class=\"paragraph card-text card-stanza my-5 text-center\">was New York.</div>\n  </div>\n</div>\n<div class=\"card card-section bg-dark text-warning shadow\">\n  <div class=\"section card-body mb-0 my-2\">\n    <div class=\"paragraph card-text card-stanza my-5 text-center\">Being a fan of the new things,</div>\n    <div class=\"paragraph card-text card-stanza my-5 text-center\">I begun getting used to the idea that I would have to live there for a couple of years.</div>\n  </div>\n</div>\n<div class=\"mb-5 section-spacer\">&nbsp;</div>\n<div class=\"card card-section bg-dark text-warning shadow\">\n  <div class=\"section card-body mb-0 my-2\">\n    <div class=\"paragraph card-text card-stanza my-5 text-center\">I had some problems,</div>\n    <div class=\"paragraph card-text card-stanza my-5 text-center\">that I first needed to solve.</div>\n  </div>\n</div>\n<div class=\"card card-section bg-dark text-warning shadow\">\n  <div class=\"section card-body mb-0 my-2\">\n    <div class=\"paragraph card-text card-stanza my-5 text-center\">The biggest problem was,</div>\n    <div class=\"paragraph card-text card-stanza my-5 text-center\">actually pretty big.</div>\n  </div>\n</div>\n<div class=\"card card-section bg-dark text-warning shadow\">\n  <div class=\"section card-body mb-0 my-2\">\n    <div class=\"paragraph card-text card-stanza my-5 text-center\">Because, I was very smol,</div>\n    <div class=\"paragraph card-text card-stanza my-5 text-center\">I might have been seven, maybe nine, but at nine it wouldn't seem like such a big problem.</div>\n  </div>\n</div>\n<div class=\"card card-section bg-dark text-warning shadow\">\n  <div class=\"section card-body mb-0 my-2\">\n    <div class=\"paragraph card-text card-stanza my-5 text-center\">In a word,</div>\n    <div class=\"paragraph card-text card-stanza my-5 text-center\">I needed to become an adult.</div>\n  </div>\n</div>\n<div class=\"card card-section bg-dark text-warning shadow\">\n  <div class=\"section card-body mb-0 my-2\">\n    <div class=\"paragraph card-text card-stanza my-5 text-center\">That New Yorkers spoke a different language,</div>\n    <div class=\"paragraph card-text card-stanza my-5 text-center\">would have registered if I though about it, but I had my hands full with growing up.</div>\n  </div>\n</div>\n<div class=\"mb-5 section-spacer\">&nbsp;</div>\n<div class=\"card card-section bg-dark text-warning shadow\">\n  <div class=\"section card-body mb-0 my-2\">\n    <div class=\"paragraph card-text card-stanza my-5 text-center\">It wasn't long before my parents bought me my Commodore 64,</div>\n    <div class=\"paragraph card-text card-stanza my-5 text-center\">since everyone was saying \"Computers Are The Future\" I figured I should learn how to use it too.</div>\n  </div>\n</div>\n<div class=\"card card-section bg-dark text-warning shadow\">\n  <div class=\"section card-body mb-0 my-2\">\n    <div class=\"paragraph card-text card-stanza my-5 text-center\">Right about the same time, we begun receiving the British Sky Broadcasting Network signal,</div>\n    <div class=\"paragraph card-text card-stanza my-5 text-center\">and the linguistic barrier hit pretty hard.</div>\n  </div>\n</div>\n<div class=\"card card-section bg-dark text-warning shadow\">\n  <div class=\"section card-body mb-0 my-2\">\n    <div class=\"paragraph card-text card-stanza my-5 text-center\">We also had Pro 7 and RTL, which was in German,</div>\n    <div class=\"paragraph card-text card-stanza my-5 text-center\">but it was showing Rosanne, which was about America.</div>\n  </div>\n</div>\n<div class=\"card card-section bg-dark text-warning shadow\">\n  <div class=\"section card-body mb-0 my-2\">\n    <div class=\"paragraph card-text card-stanza my-5 text-center\">On one end I was learning about America in German,</div>\n    <div class=\"paragraph card-text card-stanza my-5 text-center\">and learning English from The DJ Kat show on the British TV.</div>\n  </div>\n</div>\n<div class=\"card card-section bg-dark text-warning shadow\">\n  <div class=\"section card-body mb-0 my-2\">\n    <div class=\"paragraph card-text card-stanza my-5 text-center\">I once knew as much German as English,</div>\n    <div class=\"paragraph card-text card-stanza my-5 text-center\">and I actually used German in real life once.</div>\n  </div>\n</div>\n<div class=\"card card-section bg-dark text-warning shadow\">\n  <div class=\"section card-body mb-0 my-2\">\n    <div class=\"paragraph card-text card-stanza my-5 text-center\">On my way back from a trip to Netherlands,</div>\n    <div class=\"paragraph card-text card-stanza my-5 text-center\">as we stopped on a rest area in Germany a Harley Davidson rider came up to us and asked:</div>\n  </div>\n</div>\n<div class=\"card card-section bg-dark text-warning shadow\">\n  <div class=\"section card-body mb-0 my-2\">\n    <div class=\"paragraph card-text card-stanza my-5 text-center\">\"Was ist die uhre?\",</div>\n    <div class=\"paragraph card-text card-stanza my-5 text-center\">I made my colleague show him his watch.</div>\n  </div>\n</div>\n<div class=\"card card-section bg-dark text-warning shadow\">\n  <div class=\"section card-body mb-0 my-2\">\n    <div class=\"paragraph card-text card-stanza my-5 text-center\">The rider might not have realized,</div>\n    <div class=\"paragraph card-text card-stanza my-5 text-center\">that we didn't speak German.</div>\n  </div>\n</div>\n<div class=\"mb-5 section-spacer\">&nbsp;</div>\n<div class=\"card card-section bg-dark text-warning shadow\">\n  <div class=\"section card-body mb-0 my-2\">\n    <div class=\"paragraph card-text card-stanza my-5 text-center\">It wasn't long before I ended up in New York,</div>\n    <div class=\"paragraph card-text card-stanza my-5 text-center\">in Brooklyn, the city with streets paved with gold (or Mica as I was told)</div>\n  </div>\n</div>\n<div class=\"card card-section bg-dark text-warning shadow\">\n  <div class=\"section card-body mb-0 my-2\">\n    <div class=\"paragraph card-text card-stanza my-5 text-center\">I had to fill out some medical paperwork,</div>\n    <div class=\"paragraph card-text card-stanza my-5 text-center\">across the city, so it was as good of a time as any to ride the freaking subway for the first freaking time.</div>\n  </div>\n</div>\n<div class=\"card card-section bg-dark text-warning shadow\">\n  <div class=\"section card-body mb-0 my-2\">\n    <div class=\"paragraph card-text card-stanza my-5 text-center\">I did not get lost,</div>\n    <div class=\"paragraph card-text card-stanza my-5 text-center\">but let me just reveal to you what it was like.</div>\n  </div>\n</div>\n<div class=\"card card-section bg-dark text-warning shadow\">\n  <div class=\"section card-body mb-0 my-2\">\n    <div class=\"paragraph card-text card-stanza my-5 text-center\">All the station names I memorized, over an over, so that I wouldn't get lost, or miss my stop,</div>\n    <div class=\"paragraph card-text card-stanza my-5 text-center\">they were all wrong, they didn't sound anything like what I memorized.</div>\n  </div>\n</div>\n<div class=\"card card-section bg-dark text-warning shadow\">\n  <div class=\"section card-body mb-0 my-2\">\n    <div class=\"paragraph card-text card-stanza my-5 text-center\">Only a small part of this was the speaker,</div>\n    <div class=\"paragraph card-text card-stanza my-5 text-center\">I memorized them in the language I knew, not the everyone that New Yorkers spoke.</div>\n  </div>\n</div>\n<div class=\"mb-5 section-spacer\">&nbsp;</div>\n<div class=\"card card-section bg-dark text-warning shadow\">\n  <div class=\"section card-body mb-0 my-2\">\n    <div class=\"paragraph card-text card-stanza my-5 text-center\">And the same thing happened, a person walked up top me and asked \"Do yo have the time?\",</div>\n    <div class=\"paragraph card-text card-stanza my-5 text-center\">well I did, but in the heat of the moment, I only knew the numbers separately, and I wasn't sure if I should say 1-5, or 3.</div>\n  </div>\n</div>\n<div class=\"card card-section bg-dark text-warning shadow\">\n  <div class=\"section card-body mb-0 my-2\">\n    <div class=\"paragraph card-text card-stanza my-5 text-center\">And it was just too much,</div>\n    <div class=\"paragraph card-text card-stanza my-5 text-center\">so in my best British Tongue, I uttered: \"I don't speak English\".</div>\n  </div>\n</div>\n<div class=\"card card-section bg-dark text-warning shadow\">\n  <div class=\"section card-body mb-0 my-2\">\n    <div class=\"paragraph card-text card-stanza my-5 text-center\">They asked something else,</div>\n    <div class=\"paragraph card-text card-stanza my-5 text-center\">but I already failed that test.</div>\n  </div>\n</div>\n<div class=\"card card-section bg-dark text-warning shadow\">\n  <div class=\"section card-body mb-0 my-2\">\n    <div class=\"paragraph card-text card-stanza my-5 text-center\">Now, I was learning English, I was doing very well,</div>\n    <div class=\"paragraph card-text card-stanza my-5 text-center\">and if I had 45 seconds, to pull my self together I would have remembered Fifteen, and to say 3PM, instead, and maybe even throw in you're welcome, to show off.</div>\n  </div>\n</div>\n<div class=\"card card-section bg-dark text-warning shadow\">\n  <div class=\"section card-body mb-0 my-2\">\n    <div class=\"paragraph card-text card-stanza my-5 text-center\">But,</div>\n    <div class=\"paragraph card-text card-stanza my-5 text-center\">I was 42 seconds short.</div>\n  </div>\n</div>\n<div class=\"mb-5 section-spacer\">&nbsp;</div>\n<div class=\"card card-section bg-dark text-warning shadow\">\n  <div class=\"section card-body mb-0 my-2\">\n    <div class=\"paragraph card-text card-stanza my-5 text-center\">This is a good thing,</div>\n    <div class=\"paragraph card-text card-stanza my-5 text-center\">because all lessons aside, this is how you begin learning a language for real.</div>\n  </div>\n</div>\n<div class=\"card card-section bg-dark text-warning shadow\">\n  <div class=\"section card-body mb-0 my-2\">\n    <div class=\"paragraph card-text card-stanza my-5 text-center\">I never practiced numbers, or days of the week,</div>\n    <div class=\"paragraph card-text card-stanza my-5 text-center\">I just willed myself to know them, from all the TV I watched, and Closed Captions.</div>\n  </div>\n</div>\n<div class=\"mb-5 section-spacer\">&nbsp;</div>\n<div class=\"card card-section bg-dark text-warning shadow\">\n  <div class=\"section card-body mb-0 my-2\">\n    <div class=\"paragraph card-text card-stanza my-5 text-center\">Once I had my medical paperwork,</div>\n    <div class=\"paragraph card-text card-stanza my-5 text-center\">and went to school.</div>\n  </div>\n</div>\n<div class=\"card card-section bg-dark text-warning shadow\">\n  <div class=\"section card-body mb-0 my-2\">\n    <div class=\"paragraph card-text card-stanza my-5 text-center\">The English teacher ACCUSED ME, of knowing English,</div>\n    <div class=\"paragraph card-text card-stanza my-5 text-center\">of pretending no to speak it.</div>\n  </div>\n</div>\n<div class=\"card card-section bg-dark text-warning shadow\">\n  <div class=\"section card-body mb-0 my-2\">\n    <div class=\"paragraph card-text card-stanza my-5 text-center\">And she failed me multiple times,</div>\n    <div class=\"paragraph card-text card-stanza my-5 text-center\">there was this hokey ceremony where everyone was getting awards for achievement, and I didn't get one.</div>\n  </div>\n</div>\n<div class=\"card card-section bg-dark text-warning shadow\">\n  <div class=\"section card-body mb-0 my-2\">\n    <div class=\"paragraph card-text card-stanza my-5 text-center\">The person I was sitting next to was laughing - that he got one,</div>\n    <div class=\"paragraph card-text card-stanza my-5 text-center\">but the English teacher removed me from that list, because she was convinced I didn't achieve anything, that I was pretending not to speak English.</div>\n  </div>\n</div>\n<div class=\"card card-section bg-dark text-warning shadow\">\n  <div class=\"section card-body mb-0 my-2\">\n    <div class=\"paragraph card-text card-stanza my-5 text-center\">I was so proud of myself,</div>\n    <div class=\"paragraph card-text card-stanza my-5 text-center\">and I wasn't scared of her at all.</div>\n  </div>\n</div>\n<div class=\"card card-section bg-dark text-warning shadow\">\n  <div class=\"section card-body mb-0 my-2\">\n    <div class=\"paragraph card-text card-stanza my-5 text-center\">She made a acquaintance of mine, Ewa cry,</div>\n    <div class=\"paragraph card-text card-stanza my-5 text-center\">and I went to the principal, who I am sure gave her a stern talk.</div>\n  </div>\n</div>\n<div class=\"mb-5 section-spacer\">&nbsp;</div>\n<div class=\"card card-section bg-dark text-warning shadow\">\n  <div class=\"section card-body mb-0 my-2\">\n    <div class=\"paragraph card-text card-stanza my-5 text-center\">English turned out to be a lot larger than I expected,</div>\n    <div class=\"paragraph card-text card-stanza my-5 text-center\">but being exposed to these situations especially stressful or insulting, makes us hungry for language.</div>\n  </div>\n</div>\n<div class=\"mb-5 section-spacer\">&nbsp;</div>\n<div class=\"card card-section bg-dark text-warning shadow\">\n  <div class=\"section card-body mb-0 my-2\">\n    <div class=\"paragraph card-text card-stanza my-5 text-center\">Not so long after that,</div>\n    <div class=\"paragraph card-text card-stanza my-5 text-center\">I was working in Wyandotte on web design, which is is very easy to learn, and I highly recommend it.</div>\n  </div>\n</div>\n<div class=\"card card-section bg-dark text-warning shadow\">\n  <div class=\"section card-body mb-0 my-2\">\n    <div class=\"paragraph card-text card-stanza my-5 text-center\">And a client complained that they couldn't understand me,</div>\n    <div class=\"paragraph card-text card-stanza my-5 text-center\">and the office started discussing how my accent was heavy, I was now able to speak but accent was heavy, something I couldn't quite hear myself.</div>\n  </div>\n</div>\n<div class=\"card card-section bg-dark text-warning shadow\">\n  <div class=\"section card-body mb-0 my-2\">\n    <div class=\"paragraph card-text card-stanza my-5 text-center\">Though you can still hear traces of it in the way I pronounce the word Basic,</div>\n    <div class=\"paragraph card-text card-stanza my-5 text-center\">I can't feel anything wrong with the way I pronounce it, until; I hear it on audio.</div>\n  </div>\n</div>\n<div class=\"card card-section bg-dark text-warning shadow\">\n  <div class=\"section card-body mb-0 my-2\">\n    <div class=\"paragraph card-text card-stanza my-5 text-center\">BASIC is the name of a programming language, and one of the first words that I learned in English,</div>\n    <div class=\"paragraph card-text card-stanza my-5 text-center\">and I was still pronounce it the Polish way.</div>\n  </div>\n</div>\n<div class=\"card card-section bg-dark text-warning shadow\">\n  <div class=\"section card-body mb-0 my-2\">\n    <div class=\"paragraph card-text card-stanza my-5 text-center\">But get this, later, it turned out,</div>\n    <div class=\"paragraph card-text card-stanza my-5 text-center\">my accent was fine, it was my babbling about connecting to FTP servers, and talking about HTML tags, HTML tables that caused the trouble.</div>\n  </div>\n</div>\n<div class=\"card card-section bg-dark text-warning shadow\">\n  <div class=\"section card-body mb-0 my-2\">\n    <div class=\"paragraph card-text card-stanza my-5 text-center\">It was still somewhat stressful to speak to strangers,</div>\n    <div class=\"paragraph card-text card-stanza my-5 text-center\">but now the stress was revealing it self in not being tactful about their vocabulary.</div>\n  </div>\n</div>\n<div class=\"card card-section bg-dark text-warning shadow\">\n  <div class=\"section card-body mb-0 my-2\">\n    <div class=\"paragraph card-text card-stanza my-5 text-center\">I think it is safe to say,</div>\n    <div class=\"paragraph card-text card-stanza my-5 text-center\">that it was a huge milestone in my self education.</div>\n  </div>\n</div>\n<div class=\"mb-5 section-spacer\">&nbsp;</div>\n<div class=\"card card-section bg-dark text-warning shadow\">\n  <div class=\"section card-body mb-0 my-2\">\n    <div class=\"paragraph card-text card-stanza my-5 text-center\">Reading wasn't much of a problem,</div>\n    <div class=\"paragraph card-text card-stanza my-5 text-center\">I think we underestimate the magic of closed captioned TV, I think that is what taught to me to read.</div>\n  </div>\n</div>\n<div class=\"card card-section bg-dark text-warning shadow\">\n  <div class=\"section card-body mb-0 my-2\">\n    <div class=\"paragraph card-text card-stanza my-5 text-center\">I plowed through a shelf of cheap paperbacks,</div>\n    <div class=\"paragraph card-text card-stanza my-5 text-center\">and I had zero problems with comprehension, I was reading books about UFOs and really enjoyed it.</div>\n  </div>\n</div>\n<div class=\"card card-section bg-dark text-warning shadow\">\n  <div class=\"section card-body mb-0 my-2\">\n    <div class=\"paragraph card-text card-stanza my-5 text-center\">By the time books on tape, or narrated books came up on my radar,</div>\n    <div class=\"paragraph card-text card-stanza my-5 text-center\">I felt perfectly comfortable with English.</div>\n  </div>\n</div>\n<div class=\"card card-section bg-dark text-warning shadow\">\n  <div class=\"section card-body mb-0 my-2\">\n    <div class=\"paragraph card-text card-stanza my-5 text-center\">Though Narrated Books, are a powerful tool for learning English,</div>\n    <div class=\"paragraph card-text card-stanza my-5 text-center\">and just learning in general.</div>\n  </div>\n</div>\n<div class=\"card card-section bg-dark text-warning shadow\">\n  <div class=\"section card-body mb-0 my-2\">\n    <div class=\"paragraph card-text card-stanza my-5 text-center\">And this is my recommendation,</div>\n    <div class=\"paragraph card-text card-stanza my-5 text-center\">whatever language you are hoping to learn, Narrated Books will get you most of the way there.</div>\n  </div>\n</div>\n<div class=\"card card-section bg-dark text-warning shadow\">\n  <div class=\"section card-body mb-0 my-2\">\n    <div class=\"paragraph card-text card-stanza my-5 text-center\">To finish it off, you will need to permanently move to that country,</div>\n    <div class=\"paragraph card-text card-stanza my-5 text-center\">even if you don't speak the language yet, an mingle and soak up the new culture.</div>\n  </div>\n</div>\n<div class=\"card card-section bg-dark text-warning shadow\">\n  <div class=\"section card-body mb-0 my-2\">\n    <div class=\"paragraph card-text card-stanza my-5 text-center\">If you are not sure which language to pick,</div>\n    <div class=\"paragraph card-text card-stanza my-5 text-center\">choose English, because part of the beauty of a language lies lies in the number of countries you can day dream about moving to.</div>\n  </div>\n</div>\n<div class=\"card card-section bg-dark text-warning shadow\">\n  <div class=\"section card-body mb-0 my-2\">\n    <div class=\"paragraph card-text card-stanza my-5 text-center\">And if you ever take to visit UK,</div>\n    <div class=\"paragraph card-text card-stanza my-5 text-center\">whatever you do, leave your fanny pack at home, and do not use the word \"fanny\" lightly, or at all.</div>\n  </div>\n</div>",
  "print": "<div class=\"section avoid-break-inside\" style=\"padding-bottom: 2rem;\">\n  <div class=\"paragraph\">My uncle left for Africa and later America,</div>\n  <div class=\"paragraph\">and left behind an interestingly scratchy and neatly smelling 3D postcard.</div>\n</div>\n<div class=\"section avoid-break-inside\" style=\"padding-bottom: 2rem;\">\n  <div class=\"paragraph\">It turned out that the city pictured there,</div>\n  <div class=\"paragraph\">was New York.</div>\n</div>\n<div class=\"section avoid-break-inside\" style=\"padding-bottom: 2rem;\">\n  <div class=\"paragraph\">Being a fan of the new things,</div>\n  <div class=\"paragraph\">I begun getting used to the idea that I would have to live there for a couple of years.</div>\n</div>\n<div class=\"section avoid-break-inside\" style=\"padding-bottom: 2rem;\">\n  <br>\n</div>\n<div class=\"section avoid-break-inside\" style=\"padding-bottom: 2rem;\">\n  <div class=\"paragraph\">I had some problems,</div>\n  <div class=\"paragraph\">that I first needed to solve.</div>\n</div>\n<div class=\"section avoid-break-inside\" style=\"padding-bottom: 2rem;\">\n  <div class=\"paragraph\">The biggest problem was,</div>\n  <div class=\"paragraph\">actually pretty big.</div>\n</div>\n<div class=\"section avoid-break-inside\" style=\"padding-bottom: 2rem;\">\n  <div class=\"paragraph\">Because, I was very smol,</div>\n  <div class=\"paragraph\">I might have been seven, maybe nine, but at nine it wouldn't seem like such a big problem.</div>\n</div>\n<div class=\"section avoid-break-inside\" style=\"padding-bottom: 2rem;\">\n  <div class=\"paragraph\">In a word,</div>\n  <div class=\"paragraph\">I needed to become an adult.</div>\n</div>\n<div class=\"section avoid-break-inside\" style=\"padding-bottom: 2rem;\">\n  <div class=\"paragraph\">That New Yorkers spoke a different language,</div>\n  <div class=\"paragraph\">would have registered if I though about it, but I had my hands full with growing up.</div>\n</div>\n<div class=\"section avoid-break-inside\" style=\"padding-bottom: 2rem;\">\n  <br>\n</div>\n<div class=\"section avoid-break-inside\" style=\"padding-bottom: 2rem;\">\n  <div class=\"paragraph\">It wasn't long before my parents bought me my Commodore 64,</div>\n  <div class=\"paragraph\">since everyone was saying \"Computers Are The Future\" I figured I should learn how to use it too.</div>\n</div>\n<div class=\"section avoid-break-inside\" style=\"padding-bottom: 2rem;\">\n  <div class=\"paragraph\">Right about the same time, we begun receiving the British Sky Broadcasting Network signal,</div>\n  <div class=\"paragraph\">and the linguistic barrier hit pretty hard.</div>\n</div>\n<div class=\"section avoid-break-inside\" style=\"padding-bottom: 2rem;\">\n  <div class=\"paragraph\">We also had Pro 7 and RTL, which was in German,</div>\n  <div class=\"paragraph\">but it was showing Rosanne, which was about America.</div>\n</div>\n<div class=\"section avoid-break-inside\" style=\"padding-bottom: 2rem;\">\n  <div class=\"paragraph\">On one end I was learning about America in German,</div>\n  <div class=\"paragraph\">and learning English from The DJ Kat show on the British TV.</div>\n</div>\n<div class=\"section avoid-break-inside\" style=\"padding-bottom: 2rem;\">\n  <div class=\"paragraph\">I once knew as much German as English,</div>\n  <div class=\"paragraph\">and I actually used German in real life once.</div>\n</div>\n<div class=\"section avoid-break-inside\" style=\"padding-bottom: 2rem;\">\n  <div class=\"paragraph\">On my way back from a trip to Netherlands,</div>\n  <div class=\"paragraph\">as we stopped on a rest area in Germany a Harley Davidson rider came up to us and asked:</div>\n</div>\n<div class=\"section avoid-break-inside\" style=\"padding-bottom: 2rem;\">\n  <div class=\"paragraph\">\"Was ist die uhre?\",</div>\n  <div class=\"paragraph\">I made my colleague show him his watch.</div>\n</div>\n<div class=\"section avoid-break-inside\" style=\"padding-bottom: 2rem;\">\n  <div class=\"paragraph\">The rider might not have realized,</div>\n  <div class=\"paragraph\">that we didn't speak German.</div>\n</div>\n<div class=\"section avoid-break-inside\" style=\"padding-bottom: 2rem;\">\n  <br>\n</div>\n<div class=\"section avoid-break-inside\" style=\"padding-bottom: 2rem;\">\n  <div class=\"paragraph\">It wasn't long before I ended up in New York,</div>\n  <div class=\"paragraph\">in Brooklyn, the city with streets paved with gold (or Mica as I was told)</div>\n</div>\n<div class=\"section avoid-break-inside\" style=\"padding-bottom: 2rem;\">\n  <div class=\"paragraph\">I had to fill out some medical paperwork,</div>\n  <div class=\"paragraph\">across the city, so it was as good of a time as any to ride the freaking subway for the first freaking time.</div>\n</div>\n<div class=\"section avoid-break-inside\" style=\"padding-bottom: 2rem;\">\n  <div class=\"paragraph\">I did not get lost,</div>\n  <div class=\"paragraph\">but let me just reveal to you what it was like.</div>\n</div>\n<div class=\"section avoid-break-inside\" style=\"padding-bottom: 2rem;\">\n  <div class=\"paragraph\">All the station names I memorized, over an over, so that I wouldn't get lost, or miss my stop,</div>\n  <div class=\"paragraph\">they were all wrong, they didn't sound anything like what I memorized.</div>\n</div>\n<div class=\"section avoid-break-inside\" style=\"padding-bottom: 2rem;\">\n  <div class=\"paragraph\">Only a small part of this was the speaker,</div>\n  <div class=\"paragraph\">I memorized them in the language I knew, not the everyone that New Yorkers spoke.</div>\n</div>\n<div class=\"section avoid-break-inside\" style=\"padding-bottom: 2rem;\">\n  <br>\n</div>\n<div class=\"section avoid-break-inside\" style=\"padding-bottom: 2rem;\">\n  <div class=\"paragraph\">And the same thing happened, a person walked up top me and asked \"Do yo have the time?\",</div>\n  <div class=\"paragraph\">well I did, but in the heat of the moment, I only knew the numbers separately, and I wasn't sure if I should say 1-5, or 3.</div>\n</div>\n<div class=\"section avoid-break-inside\" style=\"padding-bottom: 2rem;\">\n  <div class=\"paragraph\">And it was just too much,</div>\n  <div class=\"paragraph\">so in my best British Tongue, I uttered: \"I don't speak English\".</div>\n</div>\n<div class=\"section avoid-break-inside\" style=\"padding-bottom: 2rem;\">\n  <div class=\"paragraph\">They asked something else,</div>\n  <div class=\"paragraph\">but I already failed that test.</div>\n</div>\n<div class=\"section avoid-break-inside\" style=\"padding-bottom: 2rem;\">\n  <div class=\"paragraph\">Now, I was learning English, I was doing very well,</div>\n  <div class=\"paragraph\">and if I had 45 seconds, to pull my self together I would have remembered Fifteen, and to say 3PM, instead, and maybe even throw in you're welcome, to show off.</div>\n</div>\n<div class=\"section avoid-break-inside\" style=\"padding-bottom: 2rem;\">\n  <div class=\"paragraph\">But,</div>\n  <div class=\"paragraph\">I was 42 seconds short.</div>\n</div>\n<div class=\"section avoid-break-inside\" style=\"padding-bottom: 2rem;\">\n  <br>\n</div>\n<div class=\"section avoid-break-inside\" style=\"padding-bottom: 2rem;\">\n  <div class=\"paragraph\">This is a good thing,</div>\n  <div class=\"paragraph\">because all lessons aside, this is how you begin learning a language for real.</div>\n</div>\n<div class=\"section avoid-break-inside\" style=\"padding-bottom: 2rem;\">\n  <div class=\"paragraph\">I never practiced numbers, or days of the week,</div>\n  <div class=\"paragraph\">I just willed myself to know them, from all the TV I watched, and Closed Captions.</div>\n</div>\n<div class=\"section avoid-break-inside\" style=\"padding-bottom: 2rem;\">\n  <br>\n</div>\n<div class=\"section avoid-break-inside\" style=\"padding-bottom: 2rem;\">\n  <div class=\"paragraph\">Once I had my medical paperwork,</div>\n  <div class=\"paragraph\">and went to school.</div>\n</div>\n<div class=\"section avoid-break-inside\" style=\"padding-bottom: 2rem;\">\n  <div class=\"paragraph\">The English teacher ACCUSED ME, of knowing English,</div>\n  <div class=\"paragraph\">of pretending no to speak it.</div>\n</div>\n<div class=\"section avoid-break-inside\" style=\"padding-bottom: 2rem;\">\n  <div class=\"paragraph\">And she failed me multiple times,</div>\n  <div class=\"paragraph\">there was this hokey ceremony where everyone was getting awards for achievement, and I didn't get one.</div>\n</div>\n<div class=\"section avoid-break-inside\" style=\"padding-bottom: 2rem;\">\n  <div class=\"paragraph\">The person I was sitting next to was laughing - that he got one,</div>\n  <div class=\"paragraph\">but the English teacher removed me from that list, because she was convinced I didn't achieve anything, that I was pretending not to speak English.</div>\n</div>\n<div class=\"section avoid-break-inside\" style=\"padding-bottom: 2rem;\">\n  <div class=\"paragraph\">I was so proud of myself,</div>\n  <div class=\"paragraph\">and I wasn't scared of her at all.</div>\n</div>\n<div class=\"section avoid-break-inside\" style=\"padding-bottom: 2rem;\">\n  <div class=\"paragraph\">She made a acquaintance of mine, Ewa cry,</div>\n  <div class=\"paragraph\">and I went to the principal, who I am sure gave her a stern talk.</div>\n</div>\n<div class=\"section avoid-break-inside\" style=\"padding-bottom: 2rem;\">\n  <br>\n</div>\n<div class=\"section avoid-break-inside\" style=\"padding-bottom: 2rem;\">\n  <div class=\"paragraph\">English turned out to be a lot larger than I expected,</div>\n  <div class=\"paragraph\">but being exposed to these situations especially stressful or insulting, makes us hungry for language.</div>\n</div>\n<div class=\"section avoid-break-inside\" style=\"padding-bottom: 2rem;\">\n  <br>\n</div>\n<div class=\"section avoid-break-inside\" style=\"padding-bottom: 2rem;\">\n  <div class=\"paragraph\">Not so long after that,</div>\n  <div class=\"paragraph\">I was working in Wyandotte on web design, which is is very easy to learn, and I highly recommend it.</div>\n</div>\n<div class=\"section avoid-break-inside\" style=\"padding-bottom: 2rem;\">\n  <div class=\"paragraph\">And a client complained that they couldn't understand me,</div>\n  <div class=\"paragraph\">and the office started discussing how my accent was heavy, I was now able to speak but accent was heavy, something I couldn't quite hear myself.</div>\n</div>\n<div class=\"section avoid-break-inside\" style=\"padding-bottom: 2rem;\">\n  <div class=\"paragraph\">Though you can still hear traces of it in the way I pronounce the word Basic,</div>\n  <div class=\"paragraph\">I can't feel anything wrong with the way I pronounce it, until; I hear it on audio.</div>\n</div>\n<div class=\"section avoid-break-inside\" style=\"padding-bottom: 2rem;\">\n  <div class=\"paragraph\">BASIC is the name of a programming language, and one of the first words that I learned in English,</div>\n  <div class=\"paragraph\">and I was still pronounce it the Polish way.</div>\n</div>\n<div class=\"section avoid-break-inside\" style=\"padding-bottom: 2rem;\">\n  <div class=\"paragraph\">But get this, later, it turned out,</div>\n  <div class=\"paragraph\">my accent was fine, it was my babbling about connecting to FTP servers, and talking about HTML tags, HTML tables that caused the trouble.</div>\n</div>\n<div class=\"section avoid-break-inside\" style=\"padding-bottom: 2rem;\">\n  <div class=\"paragraph\">It was still somewhat stressful to speak to strangers,</div>\n  <div class=\"paragraph\">but now the stress was revealing it self in not being tactful about their vocabulary.</div>\n</div>\n<div class=\"section avoid-break-inside\" style=\"padding-bottom: 2rem;\">\n  <div class=\"paragraph\">I think it is safe to say,</div>\n  <div class=\"paragraph\">that it was a huge milestone in my self education.</div>\n</div>\n<div class=\"section avoid-break-inside\" style=\"padding-bottom: 2rem;\">\n  <br>\n</div>\n<div class=\"section avoid-break-inside\" style=\"padding-bottom: 2rem;\">\n  <div class=\"paragraph\">Reading wasn't much of a problem,</div>\n  <div class=\"paragraph\">I think we underestimate the magic of closed captioned TV, I think that is what taught to me to read.</div>\n</div>\n<div class=\"section avoid-break-inside\" style=\"padding-bottom: 2rem;\">\n  <div class=\"paragraph\">I plowed through a shelf of cheap paperbacks,</div>\n  <div class=\"paragraph\">and I had zero problems with comprehension, I was reading books about UFOs and really enjoyed it.</div>\n</div>\n<div class=\"section avoid-break-inside\" style=\"padding-bottom: 2rem;\">\n  <div class=\"paragraph\">By the time books on tape, or narrated books came up on my radar,</div>\n  <div class=\"paragraph\">I felt perfectly comfortable with English.</div>\n</div>\n<div class=\"section avoid-break-inside\" style=\"padding-bottom: 2rem;\">\n  <div class=\"paragraph\">Though Narrated Books, are a powerful tool for learning English,</div>\n  <div class=\"paragraph\">and just learning in general.</div>\n</div>\n<div class=\"section avoid-break-inside\" style=\"padding-bottom: 2rem;\">\n  <div class=\"paragraph\">And this is my recommendation,</div>\n  <div class=\"paragraph\">whatever language you are hoping to learn, Narrated Books will get you most of the way there.</div>\n</div>\n<div class=\"section avoid-break-inside\" style=\"padding-bottom: 2rem;\">\n  <div class=\"paragraph\">To finish it off, you will need to permanently move to that country,</div>\n  <div class=\"paragraph\">even if you don't speak the language yet, an mingle and soak up the new culture.</div>\n</div>\n<div class=\"section avoid-break-inside\" style=\"padding-bottom: 2rem;\">\n  <div class=\"paragraph\">If you are not sure which language to pick,</div>\n  <div class=\"paragraph\">choose English, because part of the beauty of a language lies lies in the number of countries you can day dream about moving to.</div>\n</div>\n<div class=\"section avoid-break-inside\" style=\"padding-bottom: 2rem;\">\n  <div class=\"paragraph\">And if you ever take to visit UK,</div>\n  <div class=\"paragraph\">whatever you do, leave your fanny pack at home, and do not use the word \"fanny\" lightly, or at all.</div>\n</div>",
  "text": "My uncle left for Africa and later America,\nand left behind an interestingly scratchy and neatly smelling 3D postcard.\nIt turned out that the city pictured there,\nwas New York.\nBeing a fan of the new things,\nI begun getting used to the idea that I would have to live there for a couple of years.\n\nI had some problems,\nthat I first needed to solve.\nThe biggest problem was,\nactually pretty big.\nBecause, I was very smol,\nI might have been seven, maybe nine, but at nine it wouldn't seem like such a big problem.\nIn a word,\nI needed to become an adult.\nThat New Yorkers spoke a different language,\nwould have registered if I though about it, but I had my hands full with growing up.\n\nIt wasn't long before my parents bought me my Commodore 64,\nsince everyone was saying \"Computers Are The Future\" I figured I should learn how to use it too.\nRight about the same time, we begun receiving the British Sky Broadcasting Network signal,\nand the linguistic barrier hit pretty hard.\nWe also had Pro 7 and RTL, which was in German,\nbut it was showing Rosanne, which was about America.\nOn one end I was learning about America in German,\nand learning English from The DJ Kat show on the British TV.\nI once knew as much German as English,\nand I actually used German in real life once.\nOn my way back from a trip to Netherlands,\nas we stopped on a rest area in Germany a Harley Davidson rider came up to us and asked:\n\"Was ist die uhre?\",\nI made my colleague show him his watch.\nThe rider might not have realized,\nthat we didn't speak German.\n\nIt wasn't long before I ended up in New York,\nin Brooklyn, the city with streets paved with gold (or Mica as I was told)\nI had to fill out some medical paperwork,\nacross the city, so it was as good of a time as any to ride the freaking subway for the first freaking time.\nI did not get lost,\nbut let me just reveal to you what it was like.\nAll the station names I memorized, over an over, so that I wouldn't get lost, or miss my stop,\nthey were all wrong, they didn't sound anything like what I memorized.\nOnly a small part of this was the speaker,\nI memorized them in the language I knew, not the everyone that New Yorkers spoke.\n\nAnd the same thing happened, a person walked up top me and asked \"Do yo have the time?\",\nwell I did, but in the heat of the moment, I only knew the numbers separately, and I wasn't sure if I should say 1-5, or 3.\nAnd it was just too much,\nso in my best British Tongue, I uttered: \"I don't speak English\".\nThey asked something else,\nbut I already failed that test.\nNow, I was learning English, I was doing very well,\nand if I had 45 seconds, to pull my self together I would have remembered Fifteen, and to say 3PM, instead, and maybe even throw in you're welcome, to show off.\nBut,\nI was 42 seconds short.\n\nThis is a good thing,\nbecause all lessons aside, this is how you begin learning a language for real.\nI never practiced numbers, or days of the week,\nI just willed myself to know them, from all the TV I watched, and Closed Captions.\n\nOnce I had my medical paperwork,\nand went to school.\nThe English teacher ACCUSED ME, of knowing English,\nof pretending no to speak it.\nAnd she failed me multiple times,\nthere was this hokey ceremony where everyone was getting awards for achievement, and I didn't get one.\nThe person I was sitting next to was laughing - that he got one,\nbut the English teacher removed me from that list, because she was convinced I didn't achieve anything, that I was pretending not to speak English.\nI was so proud of myself,\nand I wasn't scared of her at all.\nShe made a acquaintance of mine, Ewa cry,\nand I went to the principal, who I am sure gave her a stern talk.\n\nEnglish turned out to be a lot larger than I expected,\nbut being exposed to these situations especially stressful or insulting, makes us hungry for language.\n\nNot so long after that,\nI was working in Wyandotte on web design, which is is very easy to learn, and I highly recommend it.\nAnd a client complained that they couldn't understand me,\nand the office started discussing how my accent was heavy, I was now able to speak but accent was heavy, something I couldn't quite hear myself.\nThough you can still hear traces of it in the way I pronounce the word Basic,\nI can't feel anything wrong with the way I pronounce it, until; I hear it on audio.\nBASIC is the name of a programming language, and one of the first words that I learned in English,\nand I was still pronounce it the Polish way.\nBut get this, later, it turned out,\nmy accent was fine, it was my babbling about connecting to FTP servers, and talking about HTML tags, HTML tables that caused the trouble.\nIt was still somewhat stressful to speak to strangers,\nbut now the stress was revealing it self in not being tactful about their vocabulary.\nI think it is safe to say,\nthat it was a huge milestone in my self education.\n\nReading wasn't much of a problem,\nI think we underestimate the magic of closed captioned TV, I think that is what taught to me to read.\nI plowed through a shelf of cheap paperbacks,\nand I had zero problems with comprehension, I was reading books about UFOs and really enjoyed it.\nBy the time books on tape, or narrated books came up on my radar,\nI felt perfectly comfortable with English.\nThough Narrated Books, are a powerful tool for learning English,\nand just learning in general.\nAnd this is my recommendation,\nwhatever language you are hoping to learn, Narrated Books will get you most of the way there.\nTo finish it off, you will need to permanently move to that country,\neven if you don't speak the language yet, an mingle and soak up the new culture.\nIf you are not sure which language to pick,\nchoose English, because part of the beauty of a language lies lies in the number of countries you can day dream about moving to.\nAnd if you ever take to visit UK,\nwhatever you do, leave your fanny pack at home, and do not use the word \"fanny\" lightly, or at all.",
  "images": [],
  "links": []
}