{
  "name": "furkies-purrkies-poetry-0131",
  "title": "Winter Adventures",
  "date": "2020-07-09T00:57:32.108Z",
  "image": "poetry-0131-illustration.jpg",
  "audio": "poetry-0131.mp3",
  "id": "furkies-purrkies-poetry-0131",
  "attachments": {},
  "guid": "69af8b6f-a674-48dc-a05b-590ffe9b0cb0",
  "html": "<div class=\"section\">\n  <p>Summer and Winter, Spring, and Autumn are my favorite seasons,</p>\n  <p>but today, Winter came to mind; for many reasons.</p>\n</div>\n<div class=\"section\">\n  <p>For one, it is Summer, a Hot Summer, Heatwave in full swing,</p>\n  <p>and I can&apos;t believe what great relief; a little snowfall would bring.</p>\n</div>\n<div class=\"section\"><img src=\"/image/poetry-0131-walk.jpg\" alt=\"Walk\"></div>\n<div class=\"section\">\n  <p>And I found a winter photo of an expedition to a near by store,</p>\n  <p>I look thrice my size, I can&apos;t even imagine how many layers I wore.</p>\n</div>\n<div class=\"section\"><img src=\"/image/poetry-0131-icycle.jpg\" alt=\"Icycle\"></div>\n<div class=\"section\">\n  <p>Then I remembered when back in 2014 the Polar Vortex was all the talk,</p>\n  <p>I was so excited to dress up and go on a long walk!</p>\n</div>\n<div class=\"section\"><img src=\"/image/poetry-0131-icycle-smile.jpg\" alt=\"Smile\"></div>\n<div class=\"section\">\n  <p>But, my favorite memory is riding my bicycle and hitting a patch of ice,</p>\n  <p>I fell sideways upside-down, and did a little looptie-loop, twice.</p>\n</div>\n<div class=\"section\"><img src=\"/image/poetry-0131-fall.jpg\" alt=\"Fall\"></div>\n<div class=\"section\">\n  <p>I landed perfectly flat with a winter splat kicking up the downy flake,</p>\n  <p>and I lay there a bit muttering, &quot;What a story this will make&quot;.</p>\n</div>\n<div class=\"section\"><img src=\"/image/poetry-0131-the-end.jpg\" alt=\"The End\"></div>\n<div class=\"section\">\n  <p>I love Blinding Summers, and Rainy Autumns, and Spring when all the flowers grow,</p>\n  <p>but I am a huge fan of Winter and all that bright white snow.</p>\n</div>",
  "bootstrap": "<div class=\"card card-section bg-dark text-warning shadow\">\n  <div class=\"section card-body mb-0 my-2\">\n    <div class=\"paragraph card-text card-stanza my-5 text-center\">Summer and Winter, Spring, and Autumn are my favorite seasons,</div>\n    <div class=\"paragraph card-text card-stanza my-5 text-center\">but today, Winter came to mind; for many reasons.</div>\n  </div>\n</div>\n<div class=\"card card-section bg-dark text-warning shadow\">\n  <div class=\"section card-body mb-0 my-2\">\n    <div class=\"paragraph card-text card-stanza my-5 text-center\">For one, it is Summer, a Hot Summer, Heatwave in full swing,</div>\n    <div class=\"paragraph card-text card-stanza my-5 text-center\">and I can't believe what great relief; a little snowfall would bring.</div>\n  </div>\n</div>\n<div class=\"card card-section bg-dark text-warning shadow\">\n  <div class=\"section card-body mb-0 my-2\"><img src=\"/image/poetry-0131-walk.jpg\" alt=\"Walk\" class=\"w-100\"></div>\n</div>\n<div class=\"card card-section bg-dark text-warning shadow\">\n  <div class=\"section card-body mb-0 my-2\">\n    <div class=\"paragraph card-text card-stanza my-5 text-center\">And I found a winter photo of an expedition to a near by store,</div>\n    <div class=\"paragraph card-text card-stanza my-5 text-center\">I look thrice my size, I can't even imagine how many layers I wore.</div>\n  </div>\n</div>\n<div class=\"card card-section bg-dark text-warning shadow\">\n  <div class=\"section card-body mb-0 my-2\"><img src=\"/image/poetry-0131-icycle.jpg\" alt=\"Icycle\" class=\"w-100\"></div>\n</div>\n<div class=\"card card-section bg-dark text-warning shadow\">\n  <div class=\"section card-body mb-0 my-2\">\n    <div class=\"paragraph card-text card-stanza my-5 text-center\">Then I remembered when back in 2014 the Polar Vortex was all the talk,</div>\n    <div class=\"paragraph card-text card-stanza my-5 text-center\">I was so excited to dress up and go on a long walk!</div>\n  </div>\n</div>\n<div class=\"card card-section bg-dark text-warning shadow\">\n  <div class=\"section card-body mb-0 my-2\"><img src=\"/image/poetry-0131-icycle-smile.jpg\" alt=\"Smile\" class=\"w-100\"></div>\n</div>\n<div class=\"card card-section bg-dark text-warning shadow\">\n  <div class=\"section card-body mb-0 my-2\">\n    <div class=\"paragraph card-text card-stanza my-5 text-center\">But, my favorite memory is riding my bicycle and hitting a patch of ice,</div>\n    <div class=\"paragraph card-text card-stanza my-5 text-center\">I fell sideways upside-down, and did a little looptie-loop, twice.</div>\n  </div>\n</div>\n<div class=\"card card-section bg-dark text-warning shadow\">\n  <div class=\"section card-body mb-0 my-2\"><img src=\"/image/poetry-0131-fall.jpg\" alt=\"Fall\" class=\"w-100\"></div>\n</div>\n<div class=\"card card-section bg-dark text-warning shadow\">\n  <div class=\"section card-body mb-0 my-2\">\n    <div class=\"paragraph card-text card-stanza my-5 text-center\">I landed perfectly flat with a winter splat kicking up the downy flake,</div>\n    <div class=\"paragraph card-text card-stanza my-5 text-center\">and I lay there a bit muttering, \"What a story this will make\".</div>\n  </div>\n</div>\n<div class=\"card card-section bg-dark text-warning shadow\">\n  <div class=\"section card-body mb-0 my-2\"><img src=\"/image/poetry-0131-the-end.jpg\" alt=\"The End\" class=\"w-100\"></div>\n</div>\n<div class=\"card card-section bg-dark text-warning shadow\">\n  <div class=\"section card-body mb-0 my-2\">\n    <div class=\"paragraph card-text card-stanza my-5 text-center\">I love Blinding Summers, and Rainy Autumns, and Spring when all the flowers grow,</div>\n    <div class=\"paragraph card-text card-stanza my-5 text-center\">but I am a huge fan of Winter and all that bright white snow.</div>\n  </div>\n</div>",
  "print": "<div class=\"section avoid-break-inside\" style=\"padding-bottom: 2rem;\">\n  <div class=\"paragraph\">Summer and Winter, Spring, and Autumn are my favorite seasons,</div>\n  <div class=\"paragraph\">but today, Winter came to mind; for many reasons.</div>\n</div>\n<div class=\"section avoid-break-inside\" style=\"padding-bottom: 2rem;\">\n  <div class=\"paragraph\">For one, it is Summer, a Hot Summer, Heatwave in full swing,</div>\n  <div class=\"paragraph\">and I can't believe what great relief; a little snowfall would bring.</div>\n</div>\n<div class=\"section avoid-break-inside\" style=\"padding-bottom: 2rem;\"><img src=\"/image/poetry-0131-walk.jpg\" alt=\"Walk\" style=\"width: 50%;\"></div>\n<div class=\"section avoid-break-inside\" style=\"padding-bottom: 2rem;\">\n  <div class=\"paragraph\">And I found a winter photo of an expedition to a near by store,</div>\n  <div class=\"paragraph\">I look thrice my size, I can't even imagine how many layers I wore.</div>\n</div>\n<div class=\"section avoid-break-inside\" style=\"padding-bottom: 2rem;\"><img src=\"/image/poetry-0131-icycle.jpg\" alt=\"Icycle\" style=\"width: 50%;\"></div>\n<div class=\"section avoid-break-inside\" style=\"padding-bottom: 2rem;\">\n  <div class=\"paragraph\">Then I remembered when back in 2014 the Polar Vortex was all the talk,</div>\n  <div class=\"paragraph\">I was so excited to dress up and go on a long walk!</div>\n</div>\n<div class=\"section avoid-break-inside\" style=\"padding-bottom: 2rem;\"><img src=\"/image/poetry-0131-icycle-smile.jpg\" alt=\"Smile\" style=\"width: 50%;\"></div>\n<div class=\"section avoid-break-inside\" style=\"padding-bottom: 2rem;\">\n  <div class=\"paragraph\">But, my favorite memory is riding my bicycle and hitting a patch of ice,</div>\n  <div class=\"paragraph\">I fell sideways upside-down, and did a little looptie-loop, twice.</div>\n</div>\n<div class=\"section avoid-break-inside\" style=\"padding-bottom: 2rem;\"><img src=\"/image/poetry-0131-fall.jpg\" alt=\"Fall\" style=\"width: 50%;\"></div>\n<div class=\"section avoid-break-inside\" style=\"padding-bottom: 2rem;\">\n  <div class=\"paragraph\">I landed perfectly flat with a winter splat kicking up the downy flake,</div>\n  <div class=\"paragraph\">and I lay there a bit muttering, \"What a story this will make\".</div>\n</div>\n<div class=\"section avoid-break-inside\" style=\"padding-bottom: 2rem;\"><img src=\"/image/poetry-0131-the-end.jpg\" alt=\"The End\" style=\"width: 50%;\"></div>\n<div class=\"section avoid-break-inside\" style=\"padding-bottom: 2rem;\">\n  <div class=\"paragraph\">I love Blinding Summers, and Rainy Autumns, and Spring when all the flowers grow,</div>\n  <div class=\"paragraph\">but I am a huge fan of Winter and all that bright white snow.</div>\n</div>",
  "text": "Summer and Winter, Spring, and Autumn are my favorite seasons,\nbut today, Winter came to mind; for many reasons.\nFor one, it is Summer, a Hot Summer, Heatwave in full swing,\nand I can't believe what great relief; a little snowfall would bring.\n\nAnd I found a winter photo of an expedition to a near by store,\nI look thrice my size, I can't even imagine how many layers I wore.\n\nThen I remembered when back in 2014 the Polar Vortex was all the talk,\nI was so excited to dress up and go on a long walk!\n\nBut, my favorite memory is riding my bicycle and hitting a patch of ice,\nI fell sideways upside-down, and did a little looptie-loop, twice.\n\nI landed perfectly flat with a winter splat kicking up the downy flake,\nand I lay there a bit muttering, \"What a story this will make\".\n\nI love Blinding Summers, and Rainy Autumns, and Spring when all the flowers grow,\nbut I am a huge fan of Winter and all that bright white snow.",
  "images": [
    {
      "title": "Walk",
      "url": "poetry-0131-walk.jpg"
    },
    {
      "title": "Icycle",
      "url": "poetry-0131-icycle.jpg"
    },
    {
      "title": "Smile",
      "url": "poetry-0131-icycle-smile.jpg"
    },
    {
      "title": "Fall",
      "url": "poetry-0131-fall.jpg"
    },
    {
      "title": "The End",
      "url": "poetry-0131-the-end.jpg"
    }
  ],
  "links": []
}