{
  "title": "The Future Legacy",
  "date": "2021-03-13T01:08:13.743Z",
  "image": "poetry-0377-illustration.jpg",
  "audio": "poetry-0377.mp3",
  "artwork": "https://unsplash.com/photos/fwcnv0WRsTY",
  "id": "furkies-purrkies-poetry-0377",
  "attachments": {},
  "guid": "4a7ca281-ea38-4be7-a21b-6900dd1aaa9f"
}
