{
  "title": "On Listening to Audio Books",
  "date": "2020-08-10T23:16:09.853Z",
  "image": "poetry-0163-illustration.jpg",
  "audio": "poetry-0163.mp3",
  "id": "furkies-purrkies-poetry-0163",
  "attachments": {},
  "guid": "76328331-b2a6-4bb1-aa6b-c6342bf26ce4"
}
