{
  "name": "furkies-purrkies-poetry-0658",
  "id": "furkies-purrkies-poetry-0658",
  "title": "Spring Is Just 92 Days Away",
  "date": "2021-12-19T00:08:19.355Z",
  "image": "poetry-0658-illustration.jpg",
  "artwork": "https://catpea.com",
  "audio": "poetry-0658.mp3",
  "guid": "e3374521-35a0-4fc6-98da-072ce6ef8f5a",
  "html": "<div class=\"section\">\n  <p>In mere forty six days,<br>and to everyone's praise...</p>\n  <p>This year, Punxsutawney Phil,<br>will crawl out of his hole with chill.</p>\n  <p>And predict early spring,<br>...<a href=\"https://www.youtube.com/watch?v=RDAHhUHkzG4\">oh, that adorable filthy thing</a>.</p>\n</div>\n<div class=\"section\">\n  <hr>\n</div>\n<div class=\"section\">\n  <p>I wonder what this Spring,<br>will bring.</p>\n</div>\n<div class=\"section\">\n  <hr>\n</div>\n<div class=\"section\">\n  <p>Maybe it will be a Spring of art,<br>and many works will have their start.</p>\n  <p>I think art is the most complicated thing,<br>as one never know what inspiration can bring.</p>\n  <p>Sure, it <strong>can be</strong> painting and drawing,<br>but art is so vast that there is no knowing.</p>\n  <p>For one <a href=\"https://www.youtube.com/watch?v=Y9Lm0dkkVAw\">horribly illegal graffiti</a> is art,<br>art is <strong>not always</strong> smart.</p>\n</div>\n<div class=\"section\">\n  <hr>\n</div>\n<div class=\"section\">\n  <p>Or it could be a Spring! of bicycles,<br>and what a perfect way to say bye to the icicles.</p>\n  <p>And bicycles are not as easy as they sound,<br>it is not just about <code>rolling over the ground</code>.</p>\n  <p>A slow bicycle ride over ten miles,<br>is a great adventure that brings many happy smiles.</p>\n</div>\n<div class=\"section\">\n  <hr>\n</div>\n<div class=\"section\">\n  <p>Or it could be something that seems perfectly quiet,<br>where some take to <a href=\"https://librivox.org/search?primary_key=0&search_category=genre&search_page=1&search_form=get_results\">listening to books</a> and have a riot.</p>\n  <p>It is one thing to just read a book,<br>it gets better when one doesn't have to look.</p>\n  <p>Listening to books while walking around,<br>can be an awesome way to cover a lot of ground.</p>\n</div>\n<div class=\"section\">\n  <hr>\n</div>\n<div class=\"section\">\n  <p>What is more, before long,<br>our journals turn to song.</p>\n  <p>In that way we are all born to write,<br>to help the roads yet to be had, shine bright.</p>\n  <p>And the more adventure in our lives,<br>the greater our journal archives.</p>\n</div>\n<div class=\"section\">\n  <hr>\n</div>\n<div class=\"section\">\n  <p>You know - if I had to venture,<br>I'd bet that this is a spring of great adventure.</p>\n  <p>Be it learning how to paint or draw,<br>riding a bicycle or visiting nearby places of awe.</p>\n  <p>It will surely become a wonderful quest,<br>so as long as we all get plenty of rest.</p>\n</div>\n<div class=\"section\">\n  <hr>\n</div>\n<div class=\"section\">\n  <p>Adventure is how our memoirs are sweetly written,<br>and we must make sure that our readers are always smitten.</p>\n  <p>What is wonderful about this all,<br>is that <strong>wisdom</strong>, ties together the whole.</p>\n  <p>Once art and adventure is about,<br>wisdom comes to the party with a great shout.</p>\n  <p>It is kind of magical really,<br>we learn wisdom the most when we are silly.</p>\n</div>\n<div class=\"section\">\n  <hr>\n</div>\n<div class=\"section\">\n  <p>It is all about learning something new,<br>as then, we quickly expand our view.</p>\n  <p>And when our story is full of good dreams, and good writing,<br>our books become quite inviting.</p>\n  <p>Perhaps Spring should be about challenging ourselves with a brilliant new thing,<br>as no one can tell what great-wisdom it may bring.</p>\n</div>",
  "bootstrap": "<div class=\"card card-section bg-dark text-warning shadow\">\n  <div class=\"section card-body mb-0 my-2\">\n    <div class=\"paragraph card-text card-stanza my-5 text-center\">In mere forty six days,<br>and to everyone's praise...</div>\n    <div class=\"paragraph card-text card-stanza my-5 text-center\">This year, Punxsutawney Phil,<br>will crawl out of his hole with chill.</div>\n    <div class=\"paragraph card-text card-stanza my-5 text-center\">And predict early spring,<br>...<a href=\"https://www.youtube.com/watch?v=RDAHhUHkzG4\">oh, that adorable filthy thing</a>.</div>\n  </div>\n</div>\n<div class=\"mb-5 section-spacer\">&nbsp;</div>\n<div class=\"card card-section bg-dark text-warning shadow\">\n  <div class=\"section card-body mb-0 my-2\">\n    <div class=\"paragraph card-text card-stanza my-5 text-center\">I wonder what this Spring,<br>will bring.</div>\n  </div>\n</div>\n<div class=\"mb-5 section-spacer\">&nbsp;</div>\n<div class=\"card card-section bg-dark text-warning shadow\">\n  <div class=\"section card-body mb-0 my-2\">\n    <div class=\"paragraph card-text card-stanza my-5 text-center\">Maybe it will be a Spring of art,<br>and many works will have their start.</div>\n    <div class=\"paragraph card-text card-stanza my-5 text-center\">I think art is the most complicated thing,<br>as one never know what inspiration can bring.</div>\n    <div class=\"paragraph card-text card-stanza my-5 text-center\">Sure, it <strong>can be</strong> painting and drawing,<br>but art is so vast that there is no knowing.</div>\n    <div class=\"paragraph card-text card-stanza my-5 text-center\">For one <a href=\"https://www.youtube.com/watch?v=Y9Lm0dkkVAw\">horribly illegal graffiti</a> is art,<br>art is <strong>not always</strong> smart.</div>\n  </div>\n</div>\n<div class=\"mb-5 section-spacer\">&nbsp;</div>\n<div class=\"card card-section bg-dark text-warning shadow\">\n  <div class=\"section card-body mb-0 my-2\">\n    <div class=\"paragraph card-text card-stanza my-5 text-center\">Or it could be a Spring! of bicycles,<br>and what a perfect way to say bye to the icicles.</div>\n    <div class=\"paragraph card-text card-stanza my-5 text-center\">And bicycles are not as easy as they sound,<br>it is not just about <code>rolling over the ground</code>.</div>\n    <div class=\"paragraph card-text card-stanza my-5 text-center\">A slow bicycle ride over ten miles,<br>is a great adventure that brings many happy smiles.</div>\n  </div>\n</div>\n<div class=\"mb-5 section-spacer\">&nbsp;</div>\n<div class=\"card card-section bg-dark text-warning shadow\">\n  <div class=\"section card-body mb-0 my-2\">\n    <div class=\"paragraph card-text card-stanza my-5 text-center\">Or it could be something that seems perfectly quiet,<br>where some take to <a href=\"https://librivox.org/search?primary_key=0&search_category=genre&search_page=1&search_form=get_results\">listening to books</a> and have a riot.</div>\n    <div class=\"paragraph card-text card-stanza my-5 text-center\">It is one thing to just read a book,<br>it gets better when one doesn't have to look.</div>\n    <div class=\"paragraph card-text card-stanza my-5 text-center\">Listening to books while walking around,<br>can be an awesome way to cover a lot of ground.</div>\n  </div>\n</div>\n<div class=\"mb-5 section-spacer\">&nbsp;</div>\n<div class=\"card card-section bg-dark text-warning shadow\">\n  <div class=\"section card-body mb-0 my-2\">\n    <div class=\"paragraph card-text card-stanza my-5 text-center\">What is more, before long,<br>our journals turn to song.</div>\n    <div class=\"paragraph card-text card-stanza my-5 text-center\">In that way we are all born to write,<br>to help the roads yet to be had, shine bright.</div>\n    <div class=\"paragraph card-text card-stanza my-5 text-center\">And the more adventure in our lives,<br>the greater our journal archives.</div>\n  </div>\n</div>\n<div class=\"mb-5 section-spacer\">&nbsp;</div>\n<div class=\"card card-section bg-dark text-warning shadow\">\n  <div class=\"section card-body mb-0 my-2\">\n    <div class=\"paragraph card-text card-stanza my-5 text-center\">You know - if I had to venture,<br>I'd bet that this is a spring of great adventure.</div>\n    <div class=\"paragraph card-text card-stanza my-5 text-center\">Be it learning how to paint or draw,<br>riding a bicycle or visiting nearby places of awe.</div>\n    <div class=\"paragraph card-text card-stanza my-5 text-center\">It will surely become a wonderful quest,<br>so as long as we all get plenty of rest.</div>\n  </div>\n</div>\n<div class=\"mb-5 section-spacer\">&nbsp;</div>\n<div class=\"card card-section bg-dark text-warning shadow\">\n  <div class=\"section card-body mb-0 my-2\">\n    <div class=\"paragraph card-text card-stanza my-5 text-center\">Adventure is how our memoirs are sweetly written,<br>and we must make sure that our readers are always smitten.</div>\n    <div class=\"paragraph card-text card-stanza my-5 text-center\">What is wonderful about this all,<br>is that <strong>wisdom</strong>, ties together the whole.</div>\n    <div class=\"paragraph card-text card-stanza my-5 text-center\">Once art and adventure is about,<br>wisdom comes to the party with a great shout.</div>\n    <div class=\"paragraph card-text card-stanza my-5 text-center\">It is kind of magical really,<br>we learn wisdom the most when we are silly.</div>\n  </div>\n</div>\n<div class=\"mb-5 section-spacer\">&nbsp;</div>\n<div class=\"card card-section bg-dark text-warning shadow\">\n  <div class=\"section card-body mb-0 my-2\">\n    <div class=\"paragraph card-text card-stanza my-5 text-center\">It is all about learning something new,<br>as then, we quickly expand our view.</div>\n    <div class=\"paragraph card-text card-stanza my-5 text-center\">And when our story is full of good dreams, and good writing,<br>our books become quite inviting.</div>\n    <div class=\"paragraph card-text card-stanza my-5 text-center\">Perhaps Spring should be about challenging ourselves with a brilliant new thing,<br>as no one can tell what great-wisdom it may bring.</div>\n  </div>\n</div>",
  "print": "<div class=\"section avoid-break-inside\" style=\"padding-bottom: 2rem;\">\n  <div class=\"paragraph\">In mere forty six days,<br>and to everyone's praise...</div>\n  <div class=\"paragraph\">This year, Punxsutawney Phil,<br>will crawl out of his hole with chill.</div>\n  <div class=\"paragraph\">And predict early spring,<br>...<span>oh, that adorable filthy thing<sup>[1]</sup></span>.</div>\n</div>\n<div class=\"section avoid-break-inside\" style=\"padding-bottom: 2rem;\">\n  <br>\n</div>\n<div class=\"section avoid-break-inside\" style=\"padding-bottom: 2rem;\">\n  <div class=\"paragraph\">I wonder what this Spring,<br>will bring.</div>\n</div>\n<div class=\"section avoid-break-inside\" style=\"padding-bottom: 2rem;\">\n  <br>\n</div>\n<div class=\"section avoid-break-inside\" style=\"padding-bottom: 2rem;\">\n  <div class=\"paragraph\">Maybe it will be a Spring of art,<br>and many works will have their start.</div>\n  <div class=\"paragraph\">I think art is the most complicated thing,<br>as one never know what inspiration can bring.</div>\n  <div class=\"paragraph\">Sure, it <strong>can be</strong> painting and drawing,<br>but art is so vast that there is no knowing.</div>\n  <div class=\"paragraph\">For one <span>horribly illegal graffiti<sup>[2]</sup></span> is art,<br>art is <strong>not always</strong> smart.</div>\n</div>\n<div class=\"section avoid-break-inside\" style=\"padding-bottom: 2rem;\">\n  <br>\n</div>\n<div class=\"section avoid-break-inside\" style=\"padding-bottom: 2rem;\">\n  <div class=\"paragraph\">Or it could be a Spring! of bicycles,<br>and what a perfect way to say bye to the icicles.</div>\n  <div class=\"paragraph\">And bicycles are not as easy as they sound,<br>it is not just about <code>rolling over the ground</code>.</div>\n  <div class=\"paragraph\">A slow bicycle ride over ten miles,<br>is a great adventure that brings many happy smiles.</div>\n</div>\n<div class=\"section avoid-break-inside\" style=\"padding-bottom: 2rem;\">\n  <br>\n</div>\n<div class=\"section avoid-break-inside\" style=\"padding-bottom: 2rem;\">\n  <div class=\"paragraph\">Or it could be something that seems perfectly quiet,<br>where some take to <span>listening to books<sup>[3]</sup></span> and have a riot.</div>\n  <div class=\"paragraph\">It is one thing to just read a book,<br>it gets better when one doesn't have to look.</div>\n  <div class=\"paragraph\">Listening to books while walking around,<br>can be an awesome way to cover a lot of ground.</div>\n</div>\n<div class=\"section avoid-break-inside\" style=\"padding-bottom: 2rem;\">\n  <br>\n</div>\n<div class=\"section avoid-break-inside\" style=\"padding-bottom: 2rem;\">\n  <div class=\"paragraph\">What is more, before long,<br>our journals turn to song.</div>\n  <div class=\"paragraph\">In that way we are all born to write,<br>to help the roads yet to be had, shine bright.</div>\n  <div class=\"paragraph\">And the more adventure in our lives,<br>the greater our journal archives.</div>\n</div>\n<div class=\"section avoid-break-inside\" style=\"padding-bottom: 2rem;\">\n  <br>\n</div>\n<div class=\"section avoid-break-inside\" style=\"padding-bottom: 2rem;\">\n  <div class=\"paragraph\">You know - if I had to venture,<br>I'd bet that this is a spring of great adventure.</div>\n  <div class=\"paragraph\">Be it learning how to paint or draw,<br>riding a bicycle or visiting nearby places of awe.</div>\n  <div class=\"paragraph\">It will surely become a wonderful quest,<br>so as long as we all get plenty of rest.</div>\n</div>\n<div class=\"section avoid-break-inside\" style=\"padding-bottom: 2rem;\">\n  <br>\n</div>\n<div class=\"section avoid-break-inside\" style=\"padding-bottom: 2rem;\">\n  <div class=\"paragraph\">Adventure is how our memoirs are sweetly written,<br>and we must make sure that our readers are always smitten.</div>\n  <div class=\"paragraph\">What is wonderful about this all,<br>is that <strong>wisdom</strong>, ties together the whole.</div>\n  <div class=\"paragraph\">Once art and adventure is about,<br>wisdom comes to the party with a great shout.</div>\n  <div class=\"paragraph\">It is kind of magical really,<br>we learn wisdom the most when we are silly.</div>\n</div>\n<div class=\"section avoid-break-inside\" style=\"padding-bottom: 2rem;\">\n  <br>\n</div>\n<div class=\"section avoid-break-inside\" style=\"padding-bottom: 2rem;\">\n  <div class=\"paragraph\">It is all about learning something new,<br>as then, we quickly expand our view.</div>\n  <div class=\"paragraph\">And when our story is full of good dreams, and good writing,<br>our books become quite inviting.</div>\n  <div class=\"paragraph\">Perhaps Spring should be about challenging ourselves with a brilliant new thing,<br>as no one can tell what great-wisdom it may bring.</div>\n</div>\n<div class=\"break-after\">&nbsp;</div>\n<div>\n  <div class=\"section\" style=\"padding-bottom: 1rem;\">References</div>\n  <div>[1]: https://www.youtube.com/watch?v=RDAHhUHkzG4</div>\n  <div>[2]: https://www.youtube.com/watch?v=Y9Lm0dkkVAw</div>\n  <div>[3]: https://librivox.org/search?primary_key=0&search_category=genre&search_page=1&search_form=get_results</div>\n</div>",
  "text": "In mere forty six days,\nand to everyone's praise...\nThis year, Punxsutawney Phil,\nwill crawl out of his hole with chill.\nAnd predict early spring,\n...oh, that adorable filthy thing[1].\n\nI wonder what this Spring,\nwill bring.\n\nMaybe it will be a Spring of art,\nand many works will have their start.\nI think art is the most complicated thing,\nas one never know what inspiration can bring.\nSure, it can be painting and drawing,\nbut art is so vast that there is no knowing.\nFor one horribly illegal graffiti[2] is art,\nart is not always smart.\n\nOr it could be a Spring! of bicycles,\nand what a perfect way to say bye to the icicles.\nAnd bicycles are not as easy as they sound,\nit is not just about rolling over the ground.\nA slow bicycle ride over ten miles,\nis a great adventure that brings many happy smiles.\n\nOr it could be something that seems perfectly quiet,\nwhere some take to listening to books[3] and have a riot.\nIt is one thing to just read a book,\nit gets better when one doesn't have to look.\nListening to books while walking around,\ncan be an awesome way to cover a lot of ground.\n\nWhat is more, before long,\nour journals turn to song.\nIn that way we are all born to write,\nto help the roads yet to be had, shine bright.\nAnd the more adventure in our lives,\nthe greater our journal archives.\n\nYou know - if I had to venture,\nI'd bet that this is a spring of great adventure.\nBe it learning how to paint or draw,\nriding a bicycle or visiting nearby places of awe.\nIt will surely become a wonderful quest,\nso as long as we all get plenty of rest.\n\nAdventure is how our memoirs are sweetly written,\nand we must make sure that our readers are always smitten.\nWhat is wonderful about this all,\nis that wisdom, ties together the whole.\nOnce art and adventure is about,\nwisdom comes to the party with a great shout.\nIt is kind of magical really,\nwe learn wisdom the most when we are silly.\n\nIt is all about learning something new,\nas then, we quickly expand our view.\nAnd when our story is full of good dreams, and good writing,\nour books become quite inviting.\nPerhaps Spring should be about challenging ourselves with a brilliant new thing,\nas no one can tell what great-wisdom it may bring.\n \nReferences\n[1]: https://www.youtube.com/watch?v=RDAHhUHkzG4\n[2]: https://www.youtube.com/watch?v=Y9Lm0dkkVAw\n[3]: https://librivox.org/search?primary_key=0&search_category=genre&search_page=1&search_form=get_results",
  "images": [],
  "links": [
    {
      "title": "oh, that adorable filthy thing",
      "url": "https://www.youtube.com/watch?v=RDAHhUHkzG4",
      "hostname": "www.youtube.com"
    },
    {
      "title": "horribly illegal graffiti",
      "url": "https://www.youtube.com/watch?v=Y9Lm0dkkVAw",
      "hostname": "www.youtube.com"
    },
    {
      "title": "listening to books",
      "url": "https://librivox.org/search?primary_key=0&search_category=genre&search_page=1&search_form=get_results",
      "hostname": "librivox.org"
    }
  ]
}