{
  "name": "furkies-purrkies-poetry-0385",
  "title": "What In The Equinox?",
  "date": "2021-03-21T01:49:23.197Z",
  "image": "poetry-0385-illustration.jpg",
  "audio": "poetry-0385.mp3",
  "artwork": "https://unsplash.com/photos/hB_xgEXucQs",
  "id": "furkies-purrkies-poetry-0385",
  "attachments": {},
  "guid": "b15ae202-fcd1-49c4-9fbf-e11fb7e073b4",
  "html": "<div class=\"section\">\n  <p>I knew today was special somehow,</p>\n  <p>so I got out of my bed with a high brow.</p>\n</div>\n\n<div class=\"section\">\n  <p>Still a little woozy from a good night&apos;s sleep,</p>\n  <p>I skipped over to my computers in a single leap.</p>\n</div>\n\n<div class=\"section\">\n  <hr>\n</div>\n\n<div class=\"section\">\n  <p>I turned on Bach&apos;s famous <a href=\"https://www.youtube.com/watch?v=1prweT95Mo0\">Pr&#xE9;lude from the Cello Suite No. 1</a>,</p>\n  <p>with Yo-Yo Ma performing it was a lot of fun.</p>\n</div>\n\n<div class=\"section\">\n  <p>At 1:51 in the video the Pr&#xE9;lude began speaking about drums to me,</p>\n  <p>it calls to a drum and some sticks from a tree.</p>\n</div>\n\n<div class=\"section\">\n  <p>I closed my eyes and muttered &quot;How curious&quot;,</p>\n  <p>I hope this won&apos;t make Bach furious...</p>\n</div>\n\n<div class=\"section\">\n  <p>Because I can rebuild hos song,</p>\n  <p>and it won&apos;t even take very long.</p>\n</div>\n\n<div class=\"section\">\n  <hr>\n</div>\n\n<div class=\"section\">\n  <p>I left that project for another day,</p>\n  <p>but as learning goes, rebuilding songs is the way.</p>\n</div>\n\n<div class=\"section\">\n  <hr>\n</div>\n\n<div class=\"section\">\n  <p>My computer popped up an update,</p>\n  <p>one I had to install meow, it couldn&apos;t wait.</p>\n</div>\n\n<div class=\"section\">\n  <p>And then I squeaked, Holly molly batman,</p>\n  <p>the Raspberry PI has an option to control the fan.</p>\n</div>\n\n<div class=\"section\">\n  <p>I moved the wires on the GPIO header,</p>\n  <p>and the fan started working a lot better.</p>\n</div>\n\n<div class=\"section\">\n  <p>Now the fan only turns on when it hits 70C,</p>\n  <p>my Raspberry PI is now as quiet as me.</p>\n</div>\n\n<div class=\"section\">\n  <hr>\n</div>\n\n<div class=\"section\">\n  <p>Then I pondered the old computers some more,</p>\n  <p><a href=\"https://www.youtube.com/watch?v=tc4ROCJYbm0\">how simple the commands were in the days of yore</a>.</p>\n</div>\n\n<div class=\"section\">\n  <p>At 6:02 of <a href=\"https://www.youtube.com/watch?v=tc4ROCJYbm0&amp;t=362s\">AT&amp;T Archives: The UNIX Operating System</a> Brian Kernighan of the UNIX and <a href=\"https://en.wikipedia.org/wiki/The_C_Programming_Language\">K&amp;R</a> fame,</p>\n  <p>describes the original aim.</p>\n</div>\n\n<div class=\"section\">\n  <p>And I thought to myself, we all understand,</p>\n  <p>we just need to set our foot in the computer land.</p>\n</div>\n\n<div class=\"section\">\n  <p>We just need an <a href=\"https://www.raspberrypi.org/products/raspberry-pi-400/?variant=raspberry-pi-400-us-kit\">inexpensive Unix or Linux machine</a>,</p>\n  <p>with a nice and wide screen.</p>\n</div>\n\n<div class=\"section\">\n  <hr>\n</div>\n\n<div class=\"section\">\n  <p>I pondered Node.js too,</p>\n  <p><a href=\"https://github.com/substack/stream-handbook\">node streams flow just like UNIX commands do</a>.</p>\n</div>\n\n<div class=\"section\">\n  <hr>\n</div>\n\n<div class=\"section\">\n  <p>And finally I put my shoes on as not to spend the whole day here,</p>\n  <p>and bought another bag of ghost pepper chips, they burned from my nose to the ear.</p>\n</div>\n\n<div class=\"section\">\n  <p>Days like this may seem uneventful,</p>\n  <p>but this is what we end up withing for when life becomes a handful.</p>\n</div>\n\n<div class=\"section\">\n  <p>This was a magical Equinox and a spicy Equinox Eve,</p>\n  <p>this is what they mean when people say appreciate the little things - I believe.</p>\n</div>\n\n<div class=\"section\">\n  <p>And somehow all my neighborhood conspired to to fire up their fireplaces one last time,</p>\n  <p>the air smells so good it is hard to rhyme.</p>\n</div>\n\n<div class=\"section\">\n  <hr>\n</div>\n\n<div class=\"section\">\n  <p>There is no doubt that we are all genius level smart,</p>\n  <p>and lives must be lived as if they were precious works of art.</p>\n</div>\n\n<div class=\"section\">\n  <p>Do not let troublemakers, schools, or work get in your way,</p>\n  <p>we should treat each day, as if it was a special holiday.</p>\n</div>",
  "bootstrap": "<div class=\"card card-section bg-dark text-warning shadow\">\n  <div class=\"section card-body mb-0 my-2\">\n    <div class=\"paragraph card-text card-stanza my-5 text-center\">I knew today was special somehow,</div>\n    <div class=\"paragraph card-text card-stanza my-5 text-center\">so I got out of my bed with a high brow.</div>\n  </div>\n</div>\n<div class=\"card card-section bg-dark text-warning shadow\">\n  <div class=\"section card-body mb-0 my-2\">\n    <div class=\"paragraph card-text card-stanza my-5 text-center\">Still a little woozy from a good night's sleep,</div>\n    <div class=\"paragraph card-text card-stanza my-5 text-center\">I skipped over to my computers in a single leap.</div>\n  </div>\n</div>\n<div class=\"mb-5 section-spacer\">&nbsp;</div>\n<div class=\"card card-section bg-dark text-warning shadow\">\n  <div class=\"section card-body mb-0 my-2\">\n    <div class=\"paragraph card-text card-stanza my-5 text-center\">I turned on Bach's famous <a href=\"https://www.youtube.com/watch?v=1prweT95Mo0\">Prélude from the Cello Suite No. 1</a>,</div>\n    <div class=\"paragraph card-text card-stanza my-5 text-center\">with Yo-Yo Ma performing it was a lot of fun.</div>\n  </div>\n</div>\n<div class=\"card card-section bg-dark text-warning shadow\">\n  <div class=\"section card-body mb-0 my-2\">\n    <div class=\"paragraph card-text card-stanza my-5 text-center\">At 1:51 in the video the Prélude began speaking about drums to me,</div>\n    <div class=\"paragraph card-text card-stanza my-5 text-center\">it calls to a drum and some sticks from a tree.</div>\n  </div>\n</div>\n<div class=\"card card-section bg-dark text-warning shadow\">\n  <div class=\"section card-body mb-0 my-2\">\n    <div class=\"paragraph card-text card-stanza my-5 text-center\">I closed my eyes and muttered \"How curious\",</div>\n    <div class=\"paragraph card-text card-stanza my-5 text-center\">I hope this won't make Bach furious...</div>\n  </div>\n</div>\n<div class=\"card card-section bg-dark text-warning shadow\">\n  <div class=\"section card-body mb-0 my-2\">\n    <div class=\"paragraph card-text card-stanza my-5 text-center\">Because I can rebuild hos song,</div>\n    <div class=\"paragraph card-text card-stanza my-5 text-center\">and it won't even take very long.</div>\n  </div>\n</div>\n<div class=\"mb-5 section-spacer\">&nbsp;</div>\n<div class=\"card card-section bg-dark text-warning shadow\">\n  <div class=\"section card-body mb-0 my-2\">\n    <div class=\"paragraph card-text card-stanza my-5 text-center\">I left that project for another day,</div>\n    <div class=\"paragraph card-text card-stanza my-5 text-center\">but as learning goes, rebuilding songs is the way.</div>\n  </div>\n</div>\n<div class=\"mb-5 section-spacer\">&nbsp;</div>\n<div class=\"card card-section bg-dark text-warning shadow\">\n  <div class=\"section card-body mb-0 my-2\">\n    <div class=\"paragraph card-text card-stanza my-5 text-center\">My computer popped up an update,</div>\n    <div class=\"paragraph card-text card-stanza my-5 text-center\">one I had to install meow, it couldn't wait.</div>\n  </div>\n</div>\n<div class=\"card card-section bg-dark text-warning shadow\">\n  <div class=\"section card-body mb-0 my-2\">\n    <div class=\"paragraph card-text card-stanza my-5 text-center\">And then I squeaked, Holly molly batman,</div>\n    <div class=\"paragraph card-text card-stanza my-5 text-center\">the Raspberry PI has an option to control the fan.</div>\n  </div>\n</div>\n<div class=\"card card-section bg-dark text-warning shadow\">\n  <div class=\"section card-body mb-0 my-2\">\n    <div class=\"paragraph card-text card-stanza my-5 text-center\">I moved the wires on the GPIO header,</div>\n    <div class=\"paragraph card-text card-stanza my-5 text-center\">and the fan started working a lot better.</div>\n  </div>\n</div>\n<div class=\"card card-section bg-dark text-warning shadow\">\n  <div class=\"section card-body mb-0 my-2\">\n    <div class=\"paragraph card-text card-stanza my-5 text-center\">Now the fan only turns on when it hits 70C,</div>\n    <div class=\"paragraph card-text card-stanza my-5 text-center\">my Raspberry PI is now as quiet as me.</div>\n  </div>\n</div>\n<div class=\"mb-5 section-spacer\">&nbsp;</div>\n<div class=\"card card-section bg-dark text-warning shadow\">\n  <div class=\"section card-body mb-0 my-2\">\n    <div class=\"paragraph card-text card-stanza my-5 text-center\">Then I pondered the old computers some more,</div>\n    <div class=\"paragraph card-text card-stanza my-5 text-center\"><a href=\"https://www.youtube.com/watch?v=tc4ROCJYbm0\">how simple the commands were in the days of yore</a>.</div>\n  </div>\n</div>\n<div class=\"card card-section bg-dark text-warning shadow\">\n  <div class=\"section card-body mb-0 my-2\">\n    <div class=\"paragraph card-text card-stanza my-5 text-center\">At 6:02 of <a href=\"https://www.youtube.com/watch?v=tc4ROCJYbm0&t=362s\">AT&T Archives: The UNIX Operating System</a> Brian Kernighan of the UNIX and <a href=\"https://en.wikipedia.org/wiki/The_C_Programming_Language\">K&R</a> fame,</div>\n    <div class=\"paragraph card-text card-stanza my-5 text-center\">describes the original aim.</div>\n  </div>\n</div>\n<div class=\"card card-section bg-dark text-warning shadow\">\n  <div class=\"section card-body mb-0 my-2\">\n    <div class=\"paragraph card-text card-stanza my-5 text-center\">And I thought to myself, we all understand,</div>\n    <div class=\"paragraph card-text card-stanza my-5 text-center\">we just need to set our foot in the computer land.</div>\n  </div>\n</div>\n<div class=\"card card-section bg-dark text-warning shadow\">\n  <div class=\"section card-body mb-0 my-2\">\n    <div class=\"paragraph card-text card-stanza my-5 text-center\">We just need an <a href=\"https://www.raspberrypi.org/products/raspberry-pi-400/?variant=raspberry-pi-400-us-kit\">inexpensive Unix or Linux machine</a>,</div>\n    <div class=\"paragraph card-text card-stanza my-5 text-center\">with a nice and wide screen.</div>\n  </div>\n</div>\n<div class=\"mb-5 section-spacer\">&nbsp;</div>\n<div class=\"card card-section bg-dark text-warning shadow\">\n  <div class=\"section card-body mb-0 my-2\">\n    <div class=\"paragraph card-text card-stanza my-5 text-center\">I pondered Node.js too,</div>\n    <div class=\"paragraph card-text card-stanza my-5 text-center\"><a href=\"https://github.com/substack/stream-handbook\">node streams flow just like UNIX commands do</a>.</div>\n  </div>\n</div>\n<div class=\"mb-5 section-spacer\">&nbsp;</div>\n<div class=\"card card-section bg-dark text-warning shadow\">\n  <div class=\"section card-body mb-0 my-2\">\n    <div class=\"paragraph card-text card-stanza my-5 text-center\">And finally I put my shoes on as not to spend the whole day here,</div>\n    <div class=\"paragraph card-text card-stanza my-5 text-center\">and bought another bag of ghost pepper chips, they burned from my nose to the ear.</div>\n  </div>\n</div>\n<div class=\"card card-section bg-dark text-warning shadow\">\n  <div class=\"section card-body mb-0 my-2\">\n    <div class=\"paragraph card-text card-stanza my-5 text-center\">Days like this may seem uneventful,</div>\n    <div class=\"paragraph card-text card-stanza my-5 text-center\">but this is what we end up withing for when life becomes a handful.</div>\n  </div>\n</div>\n<div class=\"card card-section bg-dark text-warning shadow\">\n  <div class=\"section card-body mb-0 my-2\">\n    <div class=\"paragraph card-text card-stanza my-5 text-center\">This was a magical Equinox and a spicy Equinox Eve,</div>\n    <div class=\"paragraph card-text card-stanza my-5 text-center\">this is what they mean when people say appreciate the little things - I believe.</div>\n  </div>\n</div>\n<div class=\"card card-section bg-dark text-warning shadow\">\n  <div class=\"section card-body mb-0 my-2\">\n    <div class=\"paragraph card-text card-stanza my-5 text-center\">And somehow all my neighborhood conspired to to fire up their fireplaces one last time,</div>\n    <div class=\"paragraph card-text card-stanza my-5 text-center\">the air smells so good it is hard to rhyme.</div>\n  </div>\n</div>\n<div class=\"mb-5 section-spacer\">&nbsp;</div>\n<div class=\"card card-section bg-dark text-warning shadow\">\n  <div class=\"section card-body mb-0 my-2\">\n    <div class=\"paragraph card-text card-stanza my-5 text-center\">There is no doubt that we are all genius level smart,</div>\n    <div class=\"paragraph card-text card-stanza my-5 text-center\">and lives must be lived as if they were precious works of art.</div>\n  </div>\n</div>\n<div class=\"card card-section bg-dark text-warning shadow\">\n  <div class=\"section card-body mb-0 my-2\">\n    <div class=\"paragraph card-text card-stanza my-5 text-center\">Do not let troublemakers, schools, or work get in your way,</div>\n    <div class=\"paragraph card-text card-stanza my-5 text-center\">we should treat each day, as if it was a special holiday.</div>\n  </div>\n</div>",
  "print": "<div class=\"section avoid-break-inside\" style=\"padding-bottom: 2rem;\">\n  <div class=\"paragraph\">I knew today was special somehow,</div>\n  <div class=\"paragraph\">so I got out of my bed with a high brow.</div>\n</div>\n<div class=\"section avoid-break-inside\" style=\"padding-bottom: 2rem;\">\n  <div class=\"paragraph\">Still a little woozy from a good night's sleep,</div>\n  <div class=\"paragraph\">I skipped over to my computers in a single leap.</div>\n</div>\n<div class=\"section avoid-break-inside\" style=\"padding-bottom: 2rem;\">\n  <br>\n</div>\n<div class=\"section avoid-break-inside\" style=\"padding-bottom: 2rem;\">\n  <div class=\"paragraph\">I turned on Bach's famous <span>Prélude from the Cello Suite No. 1<sup>[1]</sup></span>,</div>\n  <div class=\"paragraph\">with Yo-Yo Ma performing it was a lot of fun.</div>\n</div>\n<div class=\"section avoid-break-inside\" style=\"padding-bottom: 2rem;\">\n  <div class=\"paragraph\">At 1:51 in the video the Prélude began speaking about drums to me,</div>\n  <div class=\"paragraph\">it calls to a drum and some sticks from a tree.</div>\n</div>\n<div class=\"section avoid-break-inside\" style=\"padding-bottom: 2rem;\">\n  <div class=\"paragraph\">I closed my eyes and muttered \"How curious\",</div>\n  <div class=\"paragraph\">I hope this won't make Bach furious...</div>\n</div>\n<div class=\"section avoid-break-inside\" style=\"padding-bottom: 2rem;\">\n  <div class=\"paragraph\">Because I can rebuild hos song,</div>\n  <div class=\"paragraph\">and it won't even take very long.</div>\n</div>\n<div class=\"section avoid-break-inside\" style=\"padding-bottom: 2rem;\">\n  <br>\n</div>\n<div class=\"section avoid-break-inside\" style=\"padding-bottom: 2rem;\">\n  <div class=\"paragraph\">I left that project for another day,</div>\n  <div class=\"paragraph\">but as learning goes, rebuilding songs is the way.</div>\n</div>\n<div class=\"section avoid-break-inside\" style=\"padding-bottom: 2rem;\">\n  <br>\n</div>\n<div class=\"section avoid-break-inside\" style=\"padding-bottom: 2rem;\">\n  <div class=\"paragraph\">My computer popped up an update,</div>\n  <div class=\"paragraph\">one I had to install meow, it couldn't wait.</div>\n</div>\n<div class=\"section avoid-break-inside\" style=\"padding-bottom: 2rem;\">\n  <div class=\"paragraph\">And then I squeaked, Holly molly batman,</div>\n  <div class=\"paragraph\">the Raspberry PI has an option to control the fan.</div>\n</div>\n<div class=\"section avoid-break-inside\" style=\"padding-bottom: 2rem;\">\n  <div class=\"paragraph\">I moved the wires on the GPIO header,</div>\n  <div class=\"paragraph\">and the fan started working a lot better.</div>\n</div>\n<div class=\"section avoid-break-inside\" style=\"padding-bottom: 2rem;\">\n  <div class=\"paragraph\">Now the fan only turns on when it hits 70C,</div>\n  <div class=\"paragraph\">my Raspberry PI is now as quiet as me.</div>\n</div>\n<div class=\"section avoid-break-inside\" style=\"padding-bottom: 2rem;\">\n  <br>\n</div>\n<div class=\"section avoid-break-inside\" style=\"padding-bottom: 2rem;\">\n  <div class=\"paragraph\">Then I pondered the old computers some more,</div>\n  <div class=\"paragraph\"><span>how simple the commands were in the days of yore<sup>[2]</sup></span>.</div>\n</div>\n<div class=\"section avoid-break-inside\" style=\"padding-bottom: 2rem;\">\n  <div class=\"paragraph\">At 6:02 of <span>AT&T Archives: The UNIX Operating System<sup>[3]</sup></span> Brian Kernighan of the UNIX and <span>K&R<sup>[4]</sup></span> fame,</div>\n  <div class=\"paragraph\">describes the original aim.</div>\n</div>\n<div class=\"section avoid-break-inside\" style=\"padding-bottom: 2rem;\">\n  <div class=\"paragraph\">And I thought to myself, we all understand,</div>\n  <div class=\"paragraph\">we just need to set our foot in the computer land.</div>\n</div>\n<div class=\"section avoid-break-inside\" style=\"padding-bottom: 2rem;\">\n  <div class=\"paragraph\">We just need an <span>inexpensive Unix or Linux machine<sup>[5]</sup></span>,</div>\n  <div class=\"paragraph\">with a nice and wide screen.</div>\n</div>\n<div class=\"section avoid-break-inside\" style=\"padding-bottom: 2rem;\">\n  <br>\n</div>\n<div class=\"section avoid-break-inside\" style=\"padding-bottom: 2rem;\">\n  <div class=\"paragraph\">I pondered Node.js too,</div>\n  <div class=\"paragraph\"><span>node streams flow just like UNIX commands do<sup>[6]</sup></span>.</div>\n</div>\n<div class=\"section avoid-break-inside\" style=\"padding-bottom: 2rem;\">\n  <br>\n</div>\n<div class=\"section avoid-break-inside\" style=\"padding-bottom: 2rem;\">\n  <div class=\"paragraph\">And finally I put my shoes on as not to spend the whole day here,</div>\n  <div class=\"paragraph\">and bought another bag of ghost pepper chips, they burned from my nose to the ear.</div>\n</div>\n<div class=\"section avoid-break-inside\" style=\"padding-bottom: 2rem;\">\n  <div class=\"paragraph\">Days like this may seem uneventful,</div>\n  <div class=\"paragraph\">but this is what we end up withing for when life becomes a handful.</div>\n</div>\n<div class=\"section avoid-break-inside\" style=\"padding-bottom: 2rem;\">\n  <div class=\"paragraph\">This was a magical Equinox and a spicy Equinox Eve,</div>\n  <div class=\"paragraph\">this is what they mean when people say appreciate the little things - I believe.</div>\n</div>\n<div class=\"section avoid-break-inside\" style=\"padding-bottom: 2rem;\">\n  <div class=\"paragraph\">And somehow all my neighborhood conspired to to fire up their fireplaces one last time,</div>\n  <div class=\"paragraph\">the air smells so good it is hard to rhyme.</div>\n</div>\n<div class=\"section avoid-break-inside\" style=\"padding-bottom: 2rem;\">\n  <br>\n</div>\n<div class=\"section avoid-break-inside\" style=\"padding-bottom: 2rem;\">\n  <div class=\"paragraph\">There is no doubt that we are all genius level smart,</div>\n  <div class=\"paragraph\">and lives must be lived as if they were precious works of art.</div>\n</div>\n<div class=\"section avoid-break-inside\" style=\"padding-bottom: 2rem;\">\n  <div class=\"paragraph\">Do not let troublemakers, schools, or work get in your way,</div>\n  <div class=\"paragraph\">we should treat each day, as if it was a special holiday.</div>\n</div>\n<div class=\"break-after\">&nbsp;</div>\n<div>\n  <div class=\"section\" style=\"padding-bottom: 1rem;\">References</div>\n  <div>[1]: https://www.youtube.com/watch?v=1prweT95Mo0</div>\n  <div>[2]: https://www.youtube.com/watch?v=tc4ROCJYbm0</div>\n  <div>[3]: https://www.youtube.com/watch?v=tc4ROCJYbm0&t=362s</div>\n  <div>[4]: https://en.wikipedia.org/wiki/The_C_Programming_Language</div>\n  <div>[5]: https://www.raspberrypi.org/products/raspberry-pi-400/?variant=raspberry-pi-400-us-kit</div>\n  <div>[6]: https://github.com/substack/stream-handbook</div>\n</div>",
  "text": "I knew today was special somehow,\nso I got out of my bed with a high brow.\nStill a little woozy from a good night's sleep,\nI skipped over to my computers in a single leap.\n\nI turned on Bach's famous Prélude from the Cello Suite No. 1[1],\nwith Yo-Yo Ma performing it was a lot of fun.\nAt 1:51 in the video the Prélude began speaking about drums to me,\nit calls to a drum and some sticks from a tree.\nI closed my eyes and muttered \"How curious\",\nI hope this won't make Bach furious...\nBecause I can rebuild hos song,\nand it won't even take very long.\n\nI left that project for another day,\nbut as learning goes, rebuilding songs is the way.\n\nMy computer popped up an update,\none I had to install meow, it couldn't wait.\nAnd then I squeaked, Holly molly batman,\nthe Raspberry PI has an option to control the fan.\nI moved the wires on the GPIO header,\nand the fan started working a lot better.\nNow the fan only turns on when it hits 70C,\nmy Raspberry PI is now as quiet as me.\n\nThen I pondered the old computers some more,\nhow simple the commands were in the days of yore[2].\nAt 6:02 of AT&T Archives: The UNIX Operating System[3] Brian Kernighan of the UNIX and K&R[4] fame,\ndescribes the original aim.\nAnd I thought to myself, we all understand,\nwe just need to set our foot in the computer land.\nWe just need an inexpensive Unix or Linux machine[5],\nwith a nice and wide screen.\n\nI pondered Node.js too,\nnode streams flow just like UNIX commands do[6].\n\nAnd finally I put my shoes on as not to spend the whole day here,\nand bought another bag of ghost pepper chips, they burned from my nose to the ear.\nDays like this may seem uneventful,\nbut this is what we end up withing for when life becomes a handful.\nThis was a magical Equinox and a spicy Equinox Eve,\nthis is what they mean when people say appreciate the little things - I believe.\nAnd somehow all my neighborhood conspired to to fire up their fireplaces one last time,\nthe air smells so good it is hard to rhyme.\n\nThere is no doubt that we are all genius level smart,\nand lives must be lived as if they were precious works of art.\nDo not let troublemakers, schools, or work get in your way,\nwe should treat each day, as if it was a special holiday.\n \nReferences\n[1]: https://www.youtube.com/watch?v=1prweT95Mo0\n[2]: https://www.youtube.com/watch?v=tc4ROCJYbm0\n[3]: https://www.youtube.com/watch?v=tc4ROCJYbm0&t=362s\n[4]: https://en.wikipedia.org/wiki/The_C_Programming_Language\n[5]: https://www.raspberrypi.org/products/raspberry-pi-400/?variant=raspberry-pi-400-us-kit\n[6]: https://github.com/substack/stream-handbook",
  "images": [],
  "links": [
    {
      "title": "Prélude from the Cello Suite No. 1",
      "url": "https://www.youtube.com/watch?v=1prweT95Mo0",
      "hostname": "www.youtube.com"
    },
    {
      "title": "how simple the commands were in the days of yore",
      "url": "https://www.youtube.com/watch?v=tc4ROCJYbm0",
      "hostname": "www.youtube.com"
    },
    {
      "title": "AT&T Archives: The UNIX Operating System",
      "url": "https://www.youtube.com/watch?v=tc4ROCJYbm0&t=362s",
      "hostname": "www.youtube.com"
    },
    {
      "title": "K&R",
      "url": "https://en.wikipedia.org/wiki/The_C_Programming_Language",
      "hostname": "en.wikipedia.org"
    },
    {
      "title": "inexpensive Unix or Linux machine",
      "url": "https://www.raspberrypi.org/products/raspberry-pi-400/?variant=raspberry-pi-400-us-kit",
      "hostname": "www.raspberrypi.org"
    },
    {
      "title": "node streams flow just like UNIX commands do",
      "url": "https://github.com/substack/stream-handbook",
      "hostname": "github.com"
    }
  ]
}