{
  "name": "furkies-purrkies-poetry-0006",
  "title": "The Man in the Arena by Theodore Roosevelt",
  "date": "2020-03-22T20:14:25.929Z",
  "image": "poetry-0006-illustration.jpg",
  "artwork": "https://unsplash.com/photos/D2jfHCj7T-o",
  "id": "furkies-purrkies-poetry-0006",
  "attachments": {},
  "guid": "e20d7b96-0325-4850-b93d-07877758e65c",
  "html": "<div class=\"section\">\n  <p>It is not the critic who counts;</p>\n  <p>not the man who points out how the strong man stumbles,</p>\n  <p>or where the doer of deeds could have done them better.</p>\n  <p>The credit belongs to the man who is actually in the arena,</p>\n  <p>whose face is marred by dust and sweat and blood;</p>\n  <p>who strives valiantly; who errs,</p>\n  <p>who comes short again and again,</p>\n  <p>because there is no effort without error and shortcoming;</p>\n  <p>but who does actually strive to do the deeds;</p>\n  <p>who knows great enthusiasms,</p>\n  <p>the great devotions;</p>\n  <p>who spends himself in a worthy cause;</p>\n  <p>who at the best knows in the end the triumph of high achievement,</p>\n  <p>and who at the worst,</p>\n  <p>if he fails,</p>\n  <p>at least fails while daring greatly,</p>\n  <p>so that his place shall never be with those cold and timid souls who neither know victory nor defeat.</p>\n</div>",
  "bootstrap": "<div class=\"card card-section bg-dark text-warning shadow\">\n  <div class=\"section card-body mb-0 my-2\">\n    <div class=\"paragraph card-text card-stanza my-5 text-center\">It is not the critic who counts;</div>\n    <div class=\"paragraph card-text card-stanza my-5 text-center\">not the man who points out how the strong man stumbles,</div>\n    <div class=\"paragraph card-text card-stanza my-5 text-center\">or where the doer of deeds could have done them better.</div>\n    <div class=\"paragraph card-text card-stanza my-5 text-center\">The credit belongs to the man who is actually in the arena,</div>\n    <div class=\"paragraph card-text card-stanza my-5 text-center\">whose face is marred by dust and sweat and blood;</div>\n    <div class=\"paragraph card-text card-stanza my-5 text-center\">who strives valiantly; who errs,</div>\n    <div class=\"paragraph card-text card-stanza my-5 text-center\">who comes short again and again,</div>\n    <div class=\"paragraph card-text card-stanza my-5 text-center\">because there is no effort without error and shortcoming;</div>\n    <div class=\"paragraph card-text card-stanza my-5 text-center\">but who does actually strive to do the deeds;</div>\n    <div class=\"paragraph card-text card-stanza my-5 text-center\">who knows great enthusiasms,</div>\n    <div class=\"paragraph card-text card-stanza my-5 text-center\">the great devotions;</div>\n    <div class=\"paragraph card-text card-stanza my-5 text-center\">who spends himself in a worthy cause;</div>\n    <div class=\"paragraph card-text card-stanza my-5 text-center\">who at the best knows in the end the triumph of high achievement,</div>\n    <div class=\"paragraph card-text card-stanza my-5 text-center\">and who at the worst,</div>\n    <div class=\"paragraph card-text card-stanza my-5 text-center\">if he fails,</div>\n    <div class=\"paragraph card-text card-stanza my-5 text-center\">at least fails while daring greatly,</div>\n    <div class=\"paragraph card-text card-stanza my-5 text-center\">so that his place shall never be with those cold and timid souls who neither know victory nor defeat.</div>\n  </div>\n</div>",
  "print": "<div class=\"section avoid-break-inside\" style=\"padding-bottom: 2rem;\">\n  <div class=\"paragraph\">It is not the critic who counts;</div>\n  <div class=\"paragraph\">not the man who points out how the strong man stumbles,</div>\n  <div class=\"paragraph\">or where the doer of deeds could have done them better.</div>\n  <div class=\"paragraph\">The credit belongs to the man who is actually in the arena,</div>\n  <div class=\"paragraph\">whose face is marred by dust and sweat and blood;</div>\n  <div class=\"paragraph\">who strives valiantly; who errs,</div>\n  <div class=\"paragraph\">who comes short again and again,</div>\n  <div class=\"paragraph\">because there is no effort without error and shortcoming;</div>\n  <div class=\"paragraph\">but who does actually strive to do the deeds;</div>\n  <div class=\"paragraph\">who knows great enthusiasms,</div>\n  <div class=\"paragraph\">the great devotions;</div>\n  <div class=\"paragraph\">who spends himself in a worthy cause;</div>\n  <div class=\"paragraph\">who at the best knows in the end the triumph of high achievement,</div>\n  <div class=\"paragraph\">and who at the worst,</div>\n  <div class=\"paragraph\">if he fails,</div>\n  <div class=\"paragraph\">at least fails while daring greatly,</div>\n  <div class=\"paragraph\">so that his place shall never be with those cold and timid souls who neither know victory nor defeat.</div>\n</div>",
  "text": "It is not the critic who counts;\nnot the man who points out how the strong man stumbles,\nor where the doer of deeds could have done them better.\nThe credit belongs to the man who is actually in the arena,\nwhose face is marred by dust and sweat and blood;\nwho strives valiantly; who errs,\nwho comes short again and again,\nbecause there is no effort without error and shortcoming;\nbut who does actually strive to do the deeds;\nwho knows great enthusiasms,\nthe great devotions;\nwho spends himself in a worthy cause;\nwho at the best knows in the end the triumph of high achievement,\nand who at the worst,\nif he fails,\nat least fails while daring greatly,\nso that his place shall never be with those cold and timid souls who neither know victory nor defeat.",
  "images": [],
  "links": []
}