{
  "name": "furkies-purrkies-poetry-0243",
  "title": "Playing With Computers",
  "date": "2020-10-29T22:04:43.376Z",
  "image": "poetry-0243-illustration.jpg",
  "audio": "poetry-0243.mp3",
  "artwork": "https://unsplash.com/photos/RNqs_Ve8qAo",
  "id": "furkies-purrkies-poetry-0243",
  "attachments": {},
  "guid": "aea1a2c7-d6a5-4dc6-b286-fc1807b69dc7",
  "html": "<div class=\"section\">\n  <p>Invent everything,</p>\n  <p>we are all extremely smart.</p>\n</div>\n<div class=\"section\">\n  <p>We can learn anything,</p>\n  <p>so as long as we don&apos;t skip any steps along the way.</p>\n</div>\n<div class=\"section\">\n  <p>And so as long,</p>\n  <p>as all steps are interesting and fun to us.</p>\n</div>\n<div class=\"section\">\n  <p>Never force yourself to learn something you don&apos;t enjoy,</p>\n  <p>just keep reading books, and keep looking for something to strike your fancy.</p>\n</div>\n<div class=\"section\">\n  <p>From Dreaming, and Inventing,</p>\n  <p>to Art, Programming and taking to the skies.</p>\n</div>\n<div class=\"section\">\n  <hr>\n</div>\n<div class=\"section\">\n  <p>An invention can be as simple,</p>\n  <p>as an LED Throwie or LED Glowie.</p>\n</div>\n<div class=\"section\">\n  <p>Just a Light Emitting Diode, a battery and magnet,</p>\n  <p>to keep it all together; and as a bonus make it stick to metal surfaces.</p>\n</div>\n<div class=\"section\">\n  <p>That is a three component invention,</p>\n  <p>LED, magnet, battery.</p>\n</div>\n<div class=\"section\">\n  <hr>\n</div>\n<div class=\"section\">\n  <p>My favorite Radio Astronomer,</p>\n  <p><a href=\"https://www.youtube.com/watch?v=_udY35m3SdE\">Seth Shostak</a>.</p>\n</div>\n<div class=\"section\">\n  <p>Quips, that the baseline for determining if a member of a species is intelligent,</p>\n  <p>is whether or not it can hold a soldering iron, and make a radio.</p>\n</div>\n<div class=\"section\">\n  <p>Allow me to get you soldering a radio,</p>\n  <p>as quickly as possible.</p>\n</div>\n<div class=\"section\">\n  <hr>\n</div>\n<div class=\"section\">\n  <p>Get a Raspberry PI Zero W (the W stands for Wireless or &quot;with WI-FI&quot;),</p>\n  <p>a soldering kit, a solder wick, some GPIO headers,</p>\n  <p>and a <a href=\"https://duckduckgo.com/?q=Waveshare+RGB+LED+HAT+True+Color+Onboard+4+%C3%97+8+RGB+LED&amp;t=ffab&amp;ia=web\">4 x 8 RGB LED HAT</a> that fits a Raspberry PI Zero neatly.</p>\n</div>\n<div class=\"section\">\n  <p>Look everything up on YouTube,</p>\n  <p>how to solder, how to solder headers, how to use a solder wick.</p>\n</div>\n<div class=\"section\">\n  <hr>\n</div>\n<div class=\"section\">\n  <p>This is serious business,</p>\n  <p>in last few years embedded Linux became extremely inexpensive.</p>\n</div>\n<div class=\"section\">\n  <p>Though <a href=\"https://duckduckgo.com/?t=ffab&amp;q=Vilros+Raspberry+Pi+Zero+W+Basic+Starter+Kit&amp;ia=web\">get a $30 kit</a></p>\n  <p>that includes a case, power adapter, heat sinks, and a header.</p>\n</div>\n<div class=\"section\">\n  <p>At first you connect it to a keyboard and a monitor,</p>\n  <p>and set it up on the network.</p>\n</div>\n<div class=\"section\">\n  <p>But later as you figure everything out,</p>\n  <p>you unplug everything leaving just the power.</p>\n</div>\n<div class=\"section\">\n  <p>To get inside it,</p>\n  <p>you use a remote terminal.</p>\n</div>\n<div class=\"section\">\n  <p>Once you login,</p>\n  <p>you get a command prompt.</p>\n</div>\n<div class=\"section\">\n  <p>It listens to words, to commands,</p>\n  <p>very similar to adventure games.</p>\n</div>\n<div class=\"section\">\n  <p>Indeed, directories on your hard-drive,</p>\n  <p>are very much like rooms in a game.</p>\n</div>\n<div class=\"section\">\n  <p>To get inside Documents,</p>\n  <p>type in &quot;cd Documents&quot;</p>\n</div>\n<div class=\"section\">\n  <p>The command &quot;cd&quot; is short for,</p>\n  <p>Change Directory, a Directory is the same as a folder on windows.</p>\n</div>\n<div class=\"section\">\n  <p>When you say &quot;cd Documents&quot;,</p>\n  <p>you are giving the cd command an argument, or an option, or a setting, or a preference.</p>\n</div>\n<div class=\"section\">\n  <p>The cd command is a perfect example of how command line interfaces should work,</p>\n  <p>just a couple of words and nothing more.</p>\n</div>\n<div class=\"section\">\n  <p>But sometimes, that is not enough,</p>\n  <p>like for example when you want to ask &quot;cd&quot; for help.</p>\n</div>\n<div class=\"section\">\n  <p>We can&apos;t say &quot;cd help&quot; becasue then the cd command would search for a directory named help,</p>\n  <p>we have to make the second word special, to do that you use hyphens.</p>\n</div>\n<div class=\"section\">\n  <p>You can type in &quot;cd --help&quot;,</p>\n  <p>it will notice the hyphens, and print out some helpful information.</p>\n</div>\n<div class=\"section\">\n  <p>To see what is in a directory, type in &quot;ls&quot;,</p>\n  <p>which is short for list, or list files.</p>\n</div>\n<div class=\"section\">\n  <p>&quot;ls&quot; also accepts special inputs,</p>\n  <p>you can ask it for help like above.</p>\n</div>\n<div class=\"section\">\n  <p>But also ask it to list files in a long format,</p>\n  <p>by saying &quot;ls -l&quot; here we use a singe hyphen, because &quot;-l&quot; is commonly used,</p>\n  <p>the -l is short for &quot;--long-listing&quot;, but nobody bothers spelling that out.</p>\n</div>\n<div class=\"section\">\n  <p>To list files with readable file sizes,</p>\n  <p>you have to add -h, here -h has long form, and some people may use spell it out as &quot;--human-readable&quot;</p>\n</div>\n<div class=\"section\">\n  <p>Usually when writing complex commands that other people will use,</p>\n  <p>the long form is preferred, bu when you are just typing on the command line and want to do something quickly,</p>\n  <p>you just use the short versions.</p>\n</div>\n<div class=\"section\">\n  <p>The command line interface is trying to be your friend,</p>\n  <p>it wants to function with just one or two words, but it also some with extras like the --human-readable flag.</p>\n</div>\n<div class=\"section\">\n  <p>There are <a href=\"https://www.youtube.com/results?search_query=raspberry+pi+terminal+command+line\">many tutorials</a> on how to use the command line,</p>\n  <p>and many books, my favorite are the pocket books, take a look at <a href=\"https://duckduckgo.com/?q=O%27Reilly+Bash+Pocket+Reference&amp;t=ffab&amp;ia=web\">O&apos;Reilly Bash Pocket Reference</a></p>\n</div>\n<div class=\"section\">\n  <p><a href=\"https://www.raspberrypi.org/documentation/usage/audio/\">Here are instructions</a> on how to play audio through HDMI,</p>\n  <p>your monitor should have an audio out somewhere.</p>\n</div>\n<div class=\"section\">\n  <hr>\n</div>\n<div class=\"section\">\n  <p>Now see if you can get that GPIO header soldered on,</p>\n  <p>and try to blink some of the RGB LED HAT lights <a href=\"https://www.waveshare.com/wiki/RGB_LED_HAT\">based on this tutorial</a>.</p>\n</div>\n<div class=\"section\">\n  <p>Alternatively you can just blink a simple LED based on <a href=\"https://www.instructables.com/Control-LED-Using-Raspberry-Pi-GPIO/\">this instructable</a>,</p>\n  <p>note that a standard Raspberry PI 4 8GB comes with the header soldered on to make things easier.</p>\n</div>\n<div class=\"section\">\n  <p>And there is also a Raspberry PI WH,</p>\n  <p>meaning Wireless with Headers pre-soldered.</p>\n</div>\n<div class=\"section\">\n  <hr>\n</div>\n<div class=\"section\">\n  <p>And now, get a $10 camera,</p>\n  <p>and use <a href=\"https://www.raspberrypi.org/documentation/usage/camera/raspicam/raspistill.md\">raspistill</a> to take a photo,</p>\n  <p>and play around with <a href=\"https://www.raspberrypi.org/documentation/raspbian/applications/camera.md\">all the other options</a>.</p>\n</div>\n<div class=\"section\">\n  <hr>\n</div>\n<div class=\"section\">\n  <p>Now you have an inexpensive platform for your inventions,</p>\n  <p>a programmable machine, that you access over the radio of your wireless network.</p>\n</div>\n<div class=\"section\">\n  <p>You can make it blink, or take time-lapse photographs of the next snow storm,</p>\n  <p>you can get an <a href=\"https://duckduckgo.com/?q=Raspberry+Pi+7-Inch+LCD&amp;t=ffab&amp;ia=web\">LCD screen</a> and <a href=\"https://duckduckgo.com/?t=ffab&amp;q=RS+Raspberry+Pi+7-Inch+LCD+Touch+Screen+Case%2C+Black+&amp;ia=web\">turn it into a tablet</a>.</p>\n</div>\n<div class=\"section\">\n  <p>Raspberry PI is not the only <a href=\"https://en.wikipedia.org/wiki/Single-board_computer\">Single-board computer</a>,</p>\n  <p><a href=\"https://duckduckgo.com/?q=PINE+Single+Board+Computer+&amp;t=ffab&amp;ia=web\">PINE</a> looks really nice as well.</p>\n</div>\n<div class=\"section\">\n  <p>If you are looking for a more complicated project,</p>\n  <p>perhaps try building a <a href=\"https://www.youtube.com/results?search_query=Raspberry+PI+Drone\">Raspberry PI Drone</a>,</p>\n  <p>bonus if you can get it to cross the Atlantic.</p>\n</div>\n<div class=\"section\">\n  <hr>\n</div>\n<div class=\"section\">\n  <p>We have no limits,</p>\n  <p>but we are also very unique.</p>\n</div>\n<div class=\"section\">\n  <p>Our inventions need not rely on commuters,</p>\n  <p>some of the greatest inventions the Human Kind has seen, were just ideas.</p>\n</div>\n<div class=\"section\">\n  <p>Don&apos;t let anybody stop you from inventing,</p>\n  <p>and don&apos;t stop dreaming.</p>\n</div>\n<div class=\"section\">\n  <p>Finally, the most impractical and outrageous inventions,</p>\n  <p>make for the most magnificent Videos, White Papers, CVs, and Resumes.</p>\n</div>\n<div class=\"section\">\n  <p>Aim,</p>\n  <p>for the Moon.</p>\n</div>",
  "bootstrap": "<div class=\"card card-section bg-dark text-warning shadow\">\n  <div class=\"section card-body mb-0 my-2\">\n    <div class=\"paragraph card-text card-stanza my-5 text-center\">Invent everything,</div>\n    <div class=\"paragraph card-text card-stanza my-5 text-center\">we are all extremely smart.</div>\n  </div>\n</div>\n<div class=\"card card-section bg-dark text-warning shadow\">\n  <div class=\"section card-body mb-0 my-2\">\n    <div class=\"paragraph card-text card-stanza my-5 text-center\">We can learn anything,</div>\n    <div class=\"paragraph card-text card-stanza my-5 text-center\">so as long as we don't skip any steps along the way.</div>\n  </div>\n</div>\n<div class=\"card card-section bg-dark text-warning shadow\">\n  <div class=\"section card-body mb-0 my-2\">\n    <div class=\"paragraph card-text card-stanza my-5 text-center\">And so as long,</div>\n    <div class=\"paragraph card-text card-stanza my-5 text-center\">as all steps are interesting and fun to us.</div>\n  </div>\n</div>\n<div class=\"card card-section bg-dark text-warning shadow\">\n  <div class=\"section card-body mb-0 my-2\">\n    <div class=\"paragraph card-text card-stanza my-5 text-center\">Never force yourself to learn something you don't enjoy,</div>\n    <div class=\"paragraph card-text card-stanza my-5 text-center\">just keep reading books, and keep looking for something to strike your fancy.</div>\n  </div>\n</div>\n<div class=\"card card-section bg-dark text-warning shadow\">\n  <div class=\"section card-body mb-0 my-2\">\n    <div class=\"paragraph card-text card-stanza my-5 text-center\">From Dreaming, and Inventing,</div>\n    <div class=\"paragraph card-text card-stanza my-5 text-center\">to Art, Programming and taking to the skies.</div>\n  </div>\n</div>\n<div class=\"mb-5 section-spacer\">&nbsp;</div>\n<div class=\"card card-section bg-dark text-warning shadow\">\n  <div class=\"section card-body mb-0 my-2\">\n    <div class=\"paragraph card-text card-stanza my-5 text-center\">An invention can be as simple,</div>\n    <div class=\"paragraph card-text card-stanza my-5 text-center\">as an LED Throwie or LED Glowie.</div>\n  </div>\n</div>\n<div class=\"card card-section bg-dark text-warning shadow\">\n  <div class=\"section card-body mb-0 my-2\">\n    <div class=\"paragraph card-text card-stanza my-5 text-center\">Just a Light Emitting Diode, a battery and magnet,</div>\n    <div class=\"paragraph card-text card-stanza my-5 text-center\">to keep it all together; and as a bonus make it stick to metal surfaces.</div>\n  </div>\n</div>\n<div class=\"card card-section bg-dark text-warning shadow\">\n  <div class=\"section card-body mb-0 my-2\">\n    <div class=\"paragraph card-text card-stanza my-5 text-center\">That is a three component invention,</div>\n    <div class=\"paragraph card-text card-stanza my-5 text-center\">LED, magnet, battery.</div>\n  </div>\n</div>\n<div class=\"mb-5 section-spacer\">&nbsp;</div>\n<div class=\"card card-section bg-dark text-warning shadow\">\n  <div class=\"section card-body mb-0 my-2\">\n    <div class=\"paragraph card-text card-stanza my-5 text-center\">My favorite Radio Astronomer,</div>\n    <div class=\"paragraph card-text card-stanza my-5 text-center\"><a href=\"https://www.youtube.com/watch?v=_udY35m3SdE\">Seth Shostak</a>.</div>\n  </div>\n</div>\n<div class=\"card card-section bg-dark text-warning shadow\">\n  <div class=\"section card-body mb-0 my-2\">\n    <div class=\"paragraph card-text card-stanza my-5 text-center\">Quips, that the baseline for determining if a member of a species is intelligent,</div>\n    <div class=\"paragraph card-text card-stanza my-5 text-center\">is whether or not it can hold a soldering iron, and make a radio.</div>\n  </div>\n</div>\n<div class=\"card card-section bg-dark text-warning shadow\">\n  <div class=\"section card-body mb-0 my-2\">\n    <div class=\"paragraph card-text card-stanza my-5 text-center\">Allow me to get you soldering a radio,</div>\n    <div class=\"paragraph card-text card-stanza my-5 text-center\">as quickly as possible.</div>\n  </div>\n</div>\n<div class=\"mb-5 section-spacer\">&nbsp;</div>\n<div class=\"card card-section bg-dark text-warning shadow\">\n  <div class=\"section card-body mb-0 my-2\">\n    <div class=\"paragraph card-text card-stanza my-5 text-center\">Get a Raspberry PI Zero W (the W stands for Wireless or \"with WI-FI\"),</div>\n    <div class=\"paragraph card-text card-stanza my-5 text-center\">a soldering kit, a solder wick, some GPIO headers,</div>\n    <div class=\"paragraph card-text card-stanza my-5 text-center\">and a <a href=\"https://duckduckgo.com/?q=Waveshare+RGB+LED+HAT+True+Color+Onboard+4+%C3%97+8+RGB+LED&t=ffab&ia=web\">4 x 8 RGB LED HAT</a> that fits a Raspberry PI Zero neatly.</div>\n  </div>\n</div>\n<div class=\"card card-section bg-dark text-warning shadow\">\n  <div class=\"section card-body mb-0 my-2\">\n    <div class=\"paragraph card-text card-stanza my-5 text-center\">Look everything up on YouTube,</div>\n    <div class=\"paragraph card-text card-stanza my-5 text-center\">how to solder, how to solder headers, how to use a solder wick.</div>\n  </div>\n</div>\n<div class=\"mb-5 section-spacer\">&nbsp;</div>\n<div class=\"card card-section bg-dark text-warning shadow\">\n  <div class=\"section card-body mb-0 my-2\">\n    <div class=\"paragraph card-text card-stanza my-5 text-center\">This is serious business,</div>\n    <div class=\"paragraph card-text card-stanza my-5 text-center\">in last few years embedded Linux became extremely inexpensive.</div>\n  </div>\n</div>\n<div class=\"card card-section bg-dark text-warning shadow\">\n  <div class=\"section card-body mb-0 my-2\">\n    <div class=\"paragraph card-text card-stanza my-5 text-center\">Though <a href=\"https://duckduckgo.com/?t=ffab&q=Vilros+Raspberry+Pi+Zero+W+Basic+Starter+Kit&ia=web\">get a $30 kit</a></div>\n    <div class=\"paragraph card-text card-stanza my-5 text-center\">that includes a case, power adapter, heat sinks, and a header.</div>\n  </div>\n</div>\n<div class=\"card card-section bg-dark text-warning shadow\">\n  <div class=\"section card-body mb-0 my-2\">\n    <div class=\"paragraph card-text card-stanza my-5 text-center\">At first you connect it to a keyboard and a monitor,</div>\n    <div class=\"paragraph card-text card-stanza my-5 text-center\">and set it up on the network.</div>\n  </div>\n</div>\n<div class=\"card card-section bg-dark text-warning shadow\">\n  <div class=\"section card-body mb-0 my-2\">\n    <div class=\"paragraph card-text card-stanza my-5 text-center\">But later as you figure everything out,</div>\n    <div class=\"paragraph card-text card-stanza my-5 text-center\">you unplug everything leaving just the power.</div>\n  </div>\n</div>\n<div class=\"card card-section bg-dark text-warning shadow\">\n  <div class=\"section card-body mb-0 my-2\">\n    <div class=\"paragraph card-text card-stanza my-5 text-center\">To get inside it,</div>\n    <div class=\"paragraph card-text card-stanza my-5 text-center\">you use a remote terminal.</div>\n  </div>\n</div>\n<div class=\"card card-section bg-dark text-warning shadow\">\n  <div class=\"section card-body mb-0 my-2\">\n    <div class=\"paragraph card-text card-stanza my-5 text-center\">Once you login,</div>\n    <div class=\"paragraph card-text card-stanza my-5 text-center\">you get a command prompt.</div>\n  </div>\n</div>\n<div class=\"card card-section bg-dark text-warning shadow\">\n  <div class=\"section card-body mb-0 my-2\">\n    <div class=\"paragraph card-text card-stanza my-5 text-center\">It listens to words, to commands,</div>\n    <div class=\"paragraph card-text card-stanza my-5 text-center\">very similar to adventure games.</div>\n  </div>\n</div>\n<div class=\"card card-section bg-dark text-warning shadow\">\n  <div class=\"section card-body mb-0 my-2\">\n    <div class=\"paragraph card-text card-stanza my-5 text-center\">Indeed, directories on your hard-drive,</div>\n    <div class=\"paragraph card-text card-stanza my-5 text-center\">are very much like rooms in a game.</div>\n  </div>\n</div>\n<div class=\"card card-section bg-dark text-warning shadow\">\n  <div class=\"section card-body mb-0 my-2\">\n    <div class=\"paragraph card-text card-stanza my-5 text-center\">To get inside Documents,</div>\n    <div class=\"paragraph card-text card-stanza my-5 text-center\">type in \"cd Documents\"</div>\n  </div>\n</div>\n<div class=\"card card-section bg-dark text-warning shadow\">\n  <div class=\"section card-body mb-0 my-2\">\n    <div class=\"paragraph card-text card-stanza my-5 text-center\">The command \"cd\" is short for,</div>\n    <div class=\"paragraph card-text card-stanza my-5 text-center\">Change Directory, a Directory is the same as a folder on windows.</div>\n  </div>\n</div>\n<div class=\"card card-section bg-dark text-warning shadow\">\n  <div class=\"section card-body mb-0 my-2\">\n    <div class=\"paragraph card-text card-stanza my-5 text-center\">When you say \"cd Documents\",</div>\n    <div class=\"paragraph card-text card-stanza my-5 text-center\">you are giving the cd command an argument, or an option, or a setting, or a preference.</div>\n  </div>\n</div>\n<div class=\"card card-section bg-dark text-warning shadow\">\n  <div class=\"section card-body mb-0 my-2\">\n    <div class=\"paragraph card-text card-stanza my-5 text-center\">The cd command is a perfect example of how command line interfaces should work,</div>\n    <div class=\"paragraph card-text card-stanza my-5 text-center\">just a couple of words and nothing more.</div>\n  </div>\n</div>\n<div class=\"card card-section bg-dark text-warning shadow\">\n  <div class=\"section card-body mb-0 my-2\">\n    <div class=\"paragraph card-text card-stanza my-5 text-center\">But sometimes, that is not enough,</div>\n    <div class=\"paragraph card-text card-stanza my-5 text-center\">like for example when you want to ask \"cd\" for help.</div>\n  </div>\n</div>\n<div class=\"card card-section bg-dark text-warning shadow\">\n  <div class=\"section card-body mb-0 my-2\">\n    <div class=\"paragraph card-text card-stanza my-5 text-center\">We can't say \"cd help\" becasue then the cd command would search for a directory named help,</div>\n    <div class=\"paragraph card-text card-stanza my-5 text-center\">we have to make the second word special, to do that you use hyphens.</div>\n  </div>\n</div>\n<div class=\"card card-section bg-dark text-warning shadow\">\n  <div class=\"section card-body mb-0 my-2\">\n    <div class=\"paragraph card-text card-stanza my-5 text-center\">You can type in \"cd --help\",</div>\n    <div class=\"paragraph card-text card-stanza my-5 text-center\">it will notice the hyphens, and print out some helpful information.</div>\n  </div>\n</div>\n<div class=\"card card-section bg-dark text-warning shadow\">\n  <div class=\"section card-body mb-0 my-2\">\n    <div class=\"paragraph card-text card-stanza my-5 text-center\">To see what is in a directory, type in \"ls\",</div>\n    <div class=\"paragraph card-text card-stanza my-5 text-center\">which is short for list, or list files.</div>\n  </div>\n</div>\n<div class=\"card card-section bg-dark text-warning shadow\">\n  <div class=\"section card-body mb-0 my-2\">\n    <div class=\"paragraph card-text card-stanza my-5 text-center\">\"ls\" also accepts special inputs,</div>\n    <div class=\"paragraph card-text card-stanza my-5 text-center\">you can ask it for help like above.</div>\n  </div>\n</div>\n<div class=\"card card-section bg-dark text-warning shadow\">\n  <div class=\"section card-body mb-0 my-2\">\n    <div class=\"paragraph card-text card-stanza my-5 text-center\">But also ask it to list files in a long format,</div>\n    <div class=\"paragraph card-text card-stanza my-5 text-center\">by saying \"ls -l\" here we use a singe hyphen, because \"-l\" is commonly used,</div>\n    <div class=\"paragraph card-text card-stanza my-5 text-center\">the -l is short for \"--long-listing\", but nobody bothers spelling that out.</div>\n  </div>\n</div>\n<div class=\"card card-section bg-dark text-warning shadow\">\n  <div class=\"section card-body mb-0 my-2\">\n    <div class=\"paragraph card-text card-stanza my-5 text-center\">To list files with readable file sizes,</div>\n    <div class=\"paragraph card-text card-stanza my-5 text-center\">you have to add -h, here -h has long form, and some people may use spell it out as \"--human-readable\"</div>\n  </div>\n</div>\n<div class=\"card card-section bg-dark text-warning shadow\">\n  <div class=\"section card-body mb-0 my-2\">\n    <div class=\"paragraph card-text card-stanza my-5 text-center\">Usually when writing complex commands that other people will use,</div>\n    <div class=\"paragraph card-text card-stanza my-5 text-center\">the long form is preferred, bu when you are just typing on the command line and want to do something quickly,</div>\n    <div class=\"paragraph card-text card-stanza my-5 text-center\">you just use the short versions.</div>\n  </div>\n</div>\n<div class=\"card card-section bg-dark text-warning shadow\">\n  <div class=\"section card-body mb-0 my-2\">\n    <div class=\"paragraph card-text card-stanza my-5 text-center\">The command line interface is trying to be your friend,</div>\n    <div class=\"paragraph card-text card-stanza my-5 text-center\">it wants to function with just one or two words, but it also some with extras like the --human-readable flag.</div>\n  </div>\n</div>\n<div class=\"card card-section bg-dark text-warning shadow\">\n  <div class=\"section card-body mb-0 my-2\">\n    <div class=\"paragraph card-text card-stanza my-5 text-center\">There are <a href=\"https://www.youtube.com/results?search_query=raspberry+pi+terminal+command+line\">many tutorials</a> on how to use the command line,</div>\n    <div class=\"paragraph card-text card-stanza my-5 text-center\">and many books, my favorite are the pocket books, take a look at <a href=\"https://duckduckgo.com/?q=O%27Reilly+Bash+Pocket+Reference&t=ffab&ia=web\">O'Reilly Bash Pocket Reference</a></div>\n  </div>\n</div>\n<div class=\"card card-section bg-dark text-warning shadow\">\n  <div class=\"section card-body mb-0 my-2\">\n    <div class=\"paragraph card-text card-stanza my-5 text-center\"><a href=\"https://www.raspberrypi.org/documentation/usage/audio/\">Here are instructions</a> on how to play audio through HDMI,</div>\n    <div class=\"paragraph card-text card-stanza my-5 text-center\">your monitor should have an audio out somewhere.</div>\n  </div>\n</div>\n<div class=\"mb-5 section-spacer\">&nbsp;</div>\n<div class=\"card card-section bg-dark text-warning shadow\">\n  <div class=\"section card-body mb-0 my-2\">\n    <div class=\"paragraph card-text card-stanza my-5 text-center\">Now see if you can get that GPIO header soldered on,</div>\n    <div class=\"paragraph card-text card-stanza my-5 text-center\">and try to blink some of the RGB LED HAT lights <a href=\"https://www.waveshare.com/wiki/RGB_LED_HAT\">based on this tutorial</a>.</div>\n  </div>\n</div>\n<div class=\"card card-section bg-dark text-warning shadow\">\n  <div class=\"section card-body mb-0 my-2\">\n    <div class=\"paragraph card-text card-stanza my-5 text-center\">Alternatively you can just blink a simple LED based on <a href=\"https://www.instructables.com/Control-LED-Using-Raspberry-Pi-GPIO/\">this instructable</a>,</div>\n    <div class=\"paragraph card-text card-stanza my-5 text-center\">note that a standard Raspberry PI 4 8GB comes with the header soldered on to make things easier.</div>\n  </div>\n</div>\n<div class=\"card card-section bg-dark text-warning shadow\">\n  <div class=\"section card-body mb-0 my-2\">\n    <div class=\"paragraph card-text card-stanza my-5 text-center\">And there is also a Raspberry PI WH,</div>\n    <div class=\"paragraph card-text card-stanza my-5 text-center\">meaning Wireless with Headers pre-soldered.</div>\n  </div>\n</div>\n<div class=\"mb-5 section-spacer\">&nbsp;</div>\n<div class=\"card card-section bg-dark text-warning shadow\">\n  <div class=\"section card-body mb-0 my-2\">\n    <div class=\"paragraph card-text card-stanza my-5 text-center\">And now, get a $10 camera,</div>\n    <div class=\"paragraph card-text card-stanza my-5 text-center\">and use <a href=\"https://www.raspberrypi.org/documentation/usage/camera/raspicam/raspistill.md\">raspistill</a> to take a photo,</div>\n    <div class=\"paragraph card-text card-stanza my-5 text-center\">and play around with <a href=\"https://www.raspberrypi.org/documentation/raspbian/applications/camera.md\">all the other options</a>.</div>\n  </div>\n</div>\n<div class=\"mb-5 section-spacer\">&nbsp;</div>\n<div class=\"card card-section bg-dark text-warning shadow\">\n  <div class=\"section card-body mb-0 my-2\">\n    <div class=\"paragraph card-text card-stanza my-5 text-center\">Now you have an inexpensive platform for your inventions,</div>\n    <div class=\"paragraph card-text card-stanza my-5 text-center\">a programmable machine, that you access over the radio of your wireless network.</div>\n  </div>\n</div>\n<div class=\"card card-section bg-dark text-warning shadow\">\n  <div class=\"section card-body mb-0 my-2\">\n    <div class=\"paragraph card-text card-stanza my-5 text-center\">You can make it blink, or take time-lapse photographs of the next snow storm,</div>\n    <div class=\"paragraph card-text card-stanza my-5 text-center\">you can get an <a href=\"https://duckduckgo.com/?q=Raspberry+Pi+7-Inch+LCD&t=ffab&ia=web\">LCD screen</a> and <a href=\"https://duckduckgo.com/?t=ffab&q=RS+Raspberry+Pi+7-Inch+LCD+Touch+Screen+Case%2C+Black+&ia=web\">turn it into a tablet</a>.</div>\n  </div>\n</div>\n<div class=\"card card-section bg-dark text-warning shadow\">\n  <div class=\"section card-body mb-0 my-2\">\n    <div class=\"paragraph card-text card-stanza my-5 text-center\">Raspberry PI is not the only <a href=\"https://en.wikipedia.org/wiki/Single-board_computer\">Single-board computer</a>,</div>\n    <div class=\"paragraph card-text card-stanza my-5 text-center\"><a href=\"https://duckduckgo.com/?q=PINE+Single+Board+Computer+&t=ffab&ia=web\">PINE</a> looks really nice as well.</div>\n  </div>\n</div>\n<div class=\"card card-section bg-dark text-warning shadow\">\n  <div class=\"section card-body mb-0 my-2\">\n    <div class=\"paragraph card-text card-stanza my-5 text-center\">If you are looking for a more complicated project,</div>\n    <div class=\"paragraph card-text card-stanza my-5 text-center\">perhaps try building a <a href=\"https://www.youtube.com/results?search_query=Raspberry+PI+Drone\">Raspberry PI Drone</a>,</div>\n    <div class=\"paragraph card-text card-stanza my-5 text-center\">bonus if you can get it to cross the Atlantic.</div>\n  </div>\n</div>\n<div class=\"mb-5 section-spacer\">&nbsp;</div>\n<div class=\"card card-section bg-dark text-warning shadow\">\n  <div class=\"section card-body mb-0 my-2\">\n    <div class=\"paragraph card-text card-stanza my-5 text-center\">We have no limits,</div>\n    <div class=\"paragraph card-text card-stanza my-5 text-center\">but we are also very unique.</div>\n  </div>\n</div>\n<div class=\"card card-section bg-dark text-warning shadow\">\n  <div class=\"section card-body mb-0 my-2\">\n    <div class=\"paragraph card-text card-stanza my-5 text-center\">Our inventions need not rely on commuters,</div>\n    <div class=\"paragraph card-text card-stanza my-5 text-center\">some of the greatest inventions the Human Kind has seen, were just ideas.</div>\n  </div>\n</div>\n<div class=\"card card-section bg-dark text-warning shadow\">\n  <div class=\"section card-body mb-0 my-2\">\n    <div class=\"paragraph card-text card-stanza my-5 text-center\">Don't let anybody stop you from inventing,</div>\n    <div class=\"paragraph card-text card-stanza my-5 text-center\">and don't stop dreaming.</div>\n  </div>\n</div>\n<div class=\"card card-section bg-dark text-warning shadow\">\n  <div class=\"section card-body mb-0 my-2\">\n    <div class=\"paragraph card-text card-stanza my-5 text-center\">Finally, the most impractical and outrageous inventions,</div>\n    <div class=\"paragraph card-text card-stanza my-5 text-center\">make for the most magnificent Videos, White Papers, CVs, and Resumes.</div>\n  </div>\n</div>\n<div class=\"card card-section bg-dark text-warning shadow\">\n  <div class=\"section card-body mb-0 my-2\">\n    <div class=\"paragraph card-text card-stanza my-5 text-center\">Aim,</div>\n    <div class=\"paragraph card-text card-stanza my-5 text-center\">for the Moon.</div>\n  </div>\n</div>",
  "print": "<div class=\"section avoid-break-inside\" style=\"padding-bottom: 2rem;\">\n  <div class=\"paragraph\">Invent everything,</div>\n  <div class=\"paragraph\">we are all extremely smart.</div>\n</div>\n<div class=\"section avoid-break-inside\" style=\"padding-bottom: 2rem;\">\n  <div class=\"paragraph\">We can learn anything,</div>\n  <div class=\"paragraph\">so as long as we don't skip any steps along the way.</div>\n</div>\n<div class=\"section avoid-break-inside\" style=\"padding-bottom: 2rem;\">\n  <div class=\"paragraph\">And so as long,</div>\n  <div class=\"paragraph\">as all steps are interesting and fun to us.</div>\n</div>\n<div class=\"section avoid-break-inside\" style=\"padding-bottom: 2rem;\">\n  <div class=\"paragraph\">Never force yourself to learn something you don't enjoy,</div>\n  <div class=\"paragraph\">just keep reading books, and keep looking for something to strike your fancy.</div>\n</div>\n<div class=\"section avoid-break-inside\" style=\"padding-bottom: 2rem;\">\n  <div class=\"paragraph\">From Dreaming, and Inventing,</div>\n  <div class=\"paragraph\">to Art, Programming and taking to the skies.</div>\n</div>\n<div class=\"section avoid-break-inside\" style=\"padding-bottom: 2rem;\">\n  <br>\n</div>\n<div class=\"section avoid-break-inside\" style=\"padding-bottom: 2rem;\">\n  <div class=\"paragraph\">An invention can be as simple,</div>\n  <div class=\"paragraph\">as an LED Throwie or LED Glowie.</div>\n</div>\n<div class=\"section avoid-break-inside\" style=\"padding-bottom: 2rem;\">\n  <div class=\"paragraph\">Just a Light Emitting Diode, a battery and magnet,</div>\n  <div class=\"paragraph\">to keep it all together; and as a bonus make it stick to metal surfaces.</div>\n</div>\n<div class=\"section avoid-break-inside\" style=\"padding-bottom: 2rem;\">\n  <div class=\"paragraph\">That is a three component invention,</div>\n  <div class=\"paragraph\">LED, magnet, battery.</div>\n</div>\n<div class=\"section avoid-break-inside\" style=\"padding-bottom: 2rem;\">\n  <br>\n</div>\n<div class=\"section avoid-break-inside\" style=\"padding-bottom: 2rem;\">\n  <div class=\"paragraph\">My favorite Radio Astronomer,</div>\n  <div class=\"paragraph\"><span>Seth Shostak<sup>[1]</sup></span>.</div>\n</div>\n<div class=\"section avoid-break-inside\" style=\"padding-bottom: 2rem;\">\n  <div class=\"paragraph\">Quips, that the baseline for determining if a member of a species is intelligent,</div>\n  <div class=\"paragraph\">is whether or not it can hold a soldering iron, and make a radio.</div>\n</div>\n<div class=\"section avoid-break-inside\" style=\"padding-bottom: 2rem;\">\n  <div class=\"paragraph\">Allow me to get you soldering a radio,</div>\n  <div class=\"paragraph\">as quickly as possible.</div>\n</div>\n<div class=\"section avoid-break-inside\" style=\"padding-bottom: 2rem;\">\n  <br>\n</div>\n<div class=\"section avoid-break-inside\" style=\"padding-bottom: 2rem;\">\n  <div class=\"paragraph\">Get a Raspberry PI Zero W (the W stands for Wireless or \"with WI-FI\"),</div>\n  <div class=\"paragraph\">a soldering kit, a solder wick, some GPIO headers,</div>\n  <div class=\"paragraph\">and a <span>4 x 8 RGB LED HAT<sup>[2]</sup></span> that fits a Raspberry PI Zero neatly.</div>\n</div>\n<div class=\"section avoid-break-inside\" style=\"padding-bottom: 2rem;\">\n  <div class=\"paragraph\">Look everything up on YouTube,</div>\n  <div class=\"paragraph\">how to solder, how to solder headers, how to use a solder wick.</div>\n</div>\n<div class=\"section avoid-break-inside\" style=\"padding-bottom: 2rem;\">\n  <br>\n</div>\n<div class=\"section avoid-break-inside\" style=\"padding-bottom: 2rem;\">\n  <div class=\"paragraph\">This is serious business,</div>\n  <div class=\"paragraph\">in last few years embedded Linux became extremely inexpensive.</div>\n</div>\n<div class=\"section avoid-break-inside\" style=\"padding-bottom: 2rem;\">\n  <div class=\"paragraph\">Though <span>get a $30 kit<sup>[3]</sup></span></div>\n  <div class=\"paragraph\">that includes a case, power adapter, heat sinks, and a header.</div>\n</div>\n<div class=\"section avoid-break-inside\" style=\"padding-bottom: 2rem;\">\n  <div class=\"paragraph\">At first you connect it to a keyboard and a monitor,</div>\n  <div class=\"paragraph\">and set it up on the network.</div>\n</div>\n<div class=\"section avoid-break-inside\" style=\"padding-bottom: 2rem;\">\n  <div class=\"paragraph\">But later as you figure everything out,</div>\n  <div class=\"paragraph\">you unplug everything leaving just the power.</div>\n</div>\n<div class=\"section avoid-break-inside\" style=\"padding-bottom: 2rem;\">\n  <div class=\"paragraph\">To get inside it,</div>\n  <div class=\"paragraph\">you use a remote terminal.</div>\n</div>\n<div class=\"section avoid-break-inside\" style=\"padding-bottom: 2rem;\">\n  <div class=\"paragraph\">Once you login,</div>\n  <div class=\"paragraph\">you get a command prompt.</div>\n</div>\n<div class=\"section avoid-break-inside\" style=\"padding-bottom: 2rem;\">\n  <div class=\"paragraph\">It listens to words, to commands,</div>\n  <div class=\"paragraph\">very similar to adventure games.</div>\n</div>\n<div class=\"section avoid-break-inside\" style=\"padding-bottom: 2rem;\">\n  <div class=\"paragraph\">Indeed, directories on your hard-drive,</div>\n  <div class=\"paragraph\">are very much like rooms in a game.</div>\n</div>\n<div class=\"section avoid-break-inside\" style=\"padding-bottom: 2rem;\">\n  <div class=\"paragraph\">To get inside Documents,</div>\n  <div class=\"paragraph\">type in \"cd Documents\"</div>\n</div>\n<div class=\"section avoid-break-inside\" style=\"padding-bottom: 2rem;\">\n  <div class=\"paragraph\">The command \"cd\" is short for,</div>\n  <div class=\"paragraph\">Change Directory, a Directory is the same as a folder on windows.</div>\n</div>\n<div class=\"section avoid-break-inside\" style=\"padding-bottom: 2rem;\">\n  <div class=\"paragraph\">When you say \"cd Documents\",</div>\n  <div class=\"paragraph\">you are giving the cd command an argument, or an option, or a setting, or a preference.</div>\n</div>\n<div class=\"section avoid-break-inside\" style=\"padding-bottom: 2rem;\">\n  <div class=\"paragraph\">The cd command is a perfect example of how command line interfaces should work,</div>\n  <div class=\"paragraph\">just a couple of words and nothing more.</div>\n</div>\n<div class=\"section avoid-break-inside\" style=\"padding-bottom: 2rem;\">\n  <div class=\"paragraph\">But sometimes, that is not enough,</div>\n  <div class=\"paragraph\">like for example when you want to ask \"cd\" for help.</div>\n</div>\n<div class=\"section avoid-break-inside\" style=\"padding-bottom: 2rem;\">\n  <div class=\"paragraph\">We can't say \"cd help\" becasue then the cd command would search for a directory named help,</div>\n  <div class=\"paragraph\">we have to make the second word special, to do that you use hyphens.</div>\n</div>\n<div class=\"section avoid-break-inside\" style=\"padding-bottom: 2rem;\">\n  <div class=\"paragraph\">You can type in \"cd --help\",</div>\n  <div class=\"paragraph\">it will notice the hyphens, and print out some helpful information.</div>\n</div>\n<div class=\"section avoid-break-inside\" style=\"padding-bottom: 2rem;\">\n  <div class=\"paragraph\">To see what is in a directory, type in \"ls\",</div>\n  <div class=\"paragraph\">which is short for list, or list files.</div>\n</div>\n<div class=\"section avoid-break-inside\" style=\"padding-bottom: 2rem;\">\n  <div class=\"paragraph\">\"ls\" also accepts special inputs,</div>\n  <div class=\"paragraph\">you can ask it for help like above.</div>\n</div>\n<div class=\"section avoid-break-inside\" style=\"padding-bottom: 2rem;\">\n  <div class=\"paragraph\">But also ask it to list files in a long format,</div>\n  <div class=\"paragraph\">by saying \"ls -l\" here we use a singe hyphen, because \"-l\" is commonly used,</div>\n  <div class=\"paragraph\">the -l is short for \"--long-listing\", but nobody bothers spelling that out.</div>\n</div>\n<div class=\"section avoid-break-inside\" style=\"padding-bottom: 2rem;\">\n  <div class=\"paragraph\">To list files with readable file sizes,</div>\n  <div class=\"paragraph\">you have to add -h, here -h has long form, and some people may use spell it out as \"--human-readable\"</div>\n</div>\n<div class=\"section avoid-break-inside\" style=\"padding-bottom: 2rem;\">\n  <div class=\"paragraph\">Usually when writing complex commands that other people will use,</div>\n  <div class=\"paragraph\">the long form is preferred, bu when you are just typing on the command line and want to do something quickly,</div>\n  <div class=\"paragraph\">you just use the short versions.</div>\n</div>\n<div class=\"section avoid-break-inside\" style=\"padding-bottom: 2rem;\">\n  <div class=\"paragraph\">The command line interface is trying to be your friend,</div>\n  <div class=\"paragraph\">it wants to function with just one or two words, but it also some with extras like the --human-readable flag.</div>\n</div>\n<div class=\"section avoid-break-inside\" style=\"padding-bottom: 2rem;\">\n  <div class=\"paragraph\">There are <span>many tutorials<sup>[4]</sup></span> on how to use the command line,</div>\n  <div class=\"paragraph\">and many books, my favorite are the pocket books, take a look at <span>O'Reilly Bash Pocket Reference<sup>[5]</sup></span></div>\n</div>\n<div class=\"section avoid-break-inside\" style=\"padding-bottom: 2rem;\">\n  <div class=\"paragraph\"><span>Here are instructions<sup>[6]</sup></span> on how to play audio through HDMI,</div>\n  <div class=\"paragraph\">your monitor should have an audio out somewhere.</div>\n</div>\n<div class=\"section avoid-break-inside\" style=\"padding-bottom: 2rem;\">\n  <br>\n</div>\n<div class=\"section avoid-break-inside\" style=\"padding-bottom: 2rem;\">\n  <div class=\"paragraph\">Now see if you can get that GPIO header soldered on,</div>\n  <div class=\"paragraph\">and try to blink some of the RGB LED HAT lights <span>based on this tutorial<sup>[7]</sup></span>.</div>\n</div>\n<div class=\"section avoid-break-inside\" style=\"padding-bottom: 2rem;\">\n  <div class=\"paragraph\">Alternatively you can just blink a simple LED based on <span>this instructable<sup>[8]</sup></span>,</div>\n  <div class=\"paragraph\">note that a standard Raspberry PI 4 8GB comes with the header soldered on to make things easier.</div>\n</div>\n<div class=\"section avoid-break-inside\" style=\"padding-bottom: 2rem;\">\n  <div class=\"paragraph\">And there is also a Raspberry PI WH,</div>\n  <div class=\"paragraph\">meaning Wireless with Headers pre-soldered.</div>\n</div>\n<div class=\"section avoid-break-inside\" style=\"padding-bottom: 2rem;\">\n  <br>\n</div>\n<div class=\"section avoid-break-inside\" style=\"padding-bottom: 2rem;\">\n  <div class=\"paragraph\">And now, get a $10 camera,</div>\n  <div class=\"paragraph\">and use <span>raspistill<sup>[9]</sup></span> to take a photo,</div>\n  <div class=\"paragraph\">and play around with <span>all the other options<sup>[10]</sup></span>.</div>\n</div>\n<div class=\"section avoid-break-inside\" style=\"padding-bottom: 2rem;\">\n  <br>\n</div>\n<div class=\"section avoid-break-inside\" style=\"padding-bottom: 2rem;\">\n  <div class=\"paragraph\">Now you have an inexpensive platform for your inventions,</div>\n  <div class=\"paragraph\">a programmable machine, that you access over the radio of your wireless network.</div>\n</div>\n<div class=\"section avoid-break-inside\" style=\"padding-bottom: 2rem;\">\n  <div class=\"paragraph\">You can make it blink, or take time-lapse photographs of the next snow storm,</div>\n  <div class=\"paragraph\">you can get an <span>LCD screen<sup>[11]</sup></span> and <span>turn it into a tablet<sup>[12]</sup></span>.</div>\n</div>\n<div class=\"section avoid-break-inside\" style=\"padding-bottom: 2rem;\">\n  <div class=\"paragraph\">Raspberry PI is not the only <span>Single-board computer<sup>[13]</sup></span>,</div>\n  <div class=\"paragraph\"><span>PINE<sup>[14]</sup></span> looks really nice as well.</div>\n</div>\n<div class=\"section avoid-break-inside\" style=\"padding-bottom: 2rem;\">\n  <div class=\"paragraph\">If you are looking for a more complicated project,</div>\n  <div class=\"paragraph\">perhaps try building a <span>Raspberry PI Drone<sup>[15]</sup></span>,</div>\n  <div class=\"paragraph\">bonus if you can get it to cross the Atlantic.</div>\n</div>\n<div class=\"section avoid-break-inside\" style=\"padding-bottom: 2rem;\">\n  <br>\n</div>\n<div class=\"section avoid-break-inside\" style=\"padding-bottom: 2rem;\">\n  <div class=\"paragraph\">We have no limits,</div>\n  <div class=\"paragraph\">but we are also very unique.</div>\n</div>\n<div class=\"section avoid-break-inside\" style=\"padding-bottom: 2rem;\">\n  <div class=\"paragraph\">Our inventions need not rely on commuters,</div>\n  <div class=\"paragraph\">some of the greatest inventions the Human Kind has seen, were just ideas.</div>\n</div>\n<div class=\"section avoid-break-inside\" style=\"padding-bottom: 2rem;\">\n  <div class=\"paragraph\">Don't let anybody stop you from inventing,</div>\n  <div class=\"paragraph\">and don't stop dreaming.</div>\n</div>\n<div class=\"section avoid-break-inside\" style=\"padding-bottom: 2rem;\">\n  <div class=\"paragraph\">Finally, the most impractical and outrageous inventions,</div>\n  <div class=\"paragraph\">make for the most magnificent Videos, White Papers, CVs, and Resumes.</div>\n</div>\n<div class=\"section avoid-break-inside\" style=\"padding-bottom: 2rem;\">\n  <div class=\"paragraph\">Aim,</div>\n  <div class=\"paragraph\">for the Moon.</div>\n</div>\n<div class=\"break-after\">&nbsp;</div>\n<div>\n  <div class=\"section\" style=\"padding-bottom: 1rem;\">References</div>\n  <div>[1]: https://www.youtube.com/watch?v=_udY35m3SdE</div>\n  <div>[2]: https://duckduckgo.com/?q=Waveshare+RGB+LED+HAT+True+Color+Onboard+4+%C3%97+8+RGB+LED&t=ffab&ia=web</div>\n  <div>[3]: https://duckduckgo.com/?t=ffab&q=Vilros+Raspberry+Pi+Zero+W+Basic+Starter+Kit&ia=web</div>\n  <div>[4]: https://www.youtube.com/results?search_query=raspberry+pi+terminal+command+line</div>\n  <div>[5]: https://duckduckgo.com/?q=O%27Reilly+Bash+Pocket+Reference&t=ffab&ia=web</div>\n  <div>[6]: https://www.raspberrypi.org/documentation/usage/audio/</div>\n  <div>[7]: https://www.waveshare.com/wiki/RGB_LED_HAT</div>\n  <div>[8]: https://www.instructables.com/Control-LED-Using-Raspberry-Pi-GPIO/</div>\n  <div>[9]: https://www.raspberrypi.org/documentation/usage/camera/raspicam/raspistill.md</div>\n  <div>[10]: https://www.raspberrypi.org/documentation/raspbian/applications/camera.md</div>\n  <div>[11]: https://duckduckgo.com/?q=Raspberry+Pi+7-Inch+LCD&t=ffab&ia=web</div>\n  <div>[12]: https://duckduckgo.com/?t=ffab&q=RS+Raspberry+Pi+7-Inch+LCD+Touch+Screen+Case%2C+Black+&ia=web</div>\n  <div>[13]: https://en.wikipedia.org/wiki/Single-board_computer</div>\n  <div>[14]: https://duckduckgo.com/?q=PINE+Single+Board+Computer+&t=ffab&ia=web</div>\n  <div>[15]: https://www.youtube.com/results?search_query=Raspberry+PI+Drone</div>\n</div>",
  "text": "Invent everything,\nwe are all extremely smart.\nWe can learn anything,\nso as long as we don't skip any steps along the way.\nAnd so as long,\nas all steps are interesting and fun to us.\nNever force yourself to learn something you don't enjoy,\njust keep reading books, and keep looking for something to strike your fancy.\nFrom Dreaming, and Inventing,\nto Art, Programming and taking to the skies.\n\nAn invention can be as simple,\nas an LED Throwie or LED Glowie.\nJust a Light Emitting Diode, a battery and magnet,\nto keep it all together; and as a bonus make it stick to metal surfaces.\nThat is a three component invention,\nLED, magnet, battery.\n\nMy favorite Radio Astronomer,\nSeth Shostak[1].\nQuips, that the baseline for determining if a member of a species is intelligent,\nis whether or not it can hold a soldering iron, and make a radio.\nAllow me to get you soldering a radio,\nas quickly as possible.\n\nGet a Raspberry PI Zero W (the W stands for Wireless or \"with WI-FI\"),\na soldering kit, a solder wick, some GPIO headers,\nand a 4 x 8 RGB LED HAT[2] that fits a Raspberry PI Zero neatly.\nLook everything up on YouTube,\nhow to solder, how to solder headers, how to use a solder wick.\n\nThis is serious business,\nin last few years embedded Linux became extremely inexpensive.\nThough get a $30 kit[3]\nthat includes a case, power adapter, heat sinks, and a header.\nAt first you connect it to a keyboard and a monitor,\nand set it up on the network.\nBut later as you figure everything out,\nyou unplug everything leaving just the power.\nTo get inside it,\nyou use a remote terminal.\nOnce you login,\nyou get a command prompt.\nIt listens to words, to commands,\nvery similar to adventure games.\nIndeed, directories on your hard-drive,\nare very much like rooms in a game.\nTo get inside Documents,\ntype in \"cd Documents\"\nThe command \"cd\" is short for,\nChange Directory, a Directory is the same as a folder on windows.\nWhen you say \"cd Documents\",\nyou are giving the cd command an argument, or an option, or a setting, or a preference.\nThe cd command is a perfect example of how command line interfaces should work,\njust a couple of words and nothing more.\nBut sometimes, that is not enough,\nlike for example when you want to ask \"cd\" for help.\nWe can't say \"cd help\" becasue then the cd command would search for a directory named help,\nwe have to make the second word special, to do that you use hyphens.\nYou can type in \"cd --help\",\nit will notice the hyphens, and print out some helpful information.\nTo see what is in a directory, type in \"ls\",\nwhich is short for list, or list files.\n\"ls\" also accepts special inputs,\nyou can ask it for help like above.\nBut also ask it to list files in a long format,\nby saying \"ls -l\" here we use a singe hyphen, because \"-l\" is commonly used,\nthe -l is short for \"--long-listing\", but nobody bothers spelling that out.\nTo list files with readable file sizes,\nyou have to add -h, here -h has long form, and some people may use spell it out as \"--human-readable\"\nUsually when writing complex commands that other people will use,\nthe long form is preferred, bu when you are just typing on the command line and want to do something quickly,\nyou just use the short versions.\nThe command line interface is trying to be your friend,\nit wants to function with just one or two words, but it also some with extras like the --human-readable flag.\nThere are many tutorials[4] on how to use the command line,\nand many books, my favorite are the pocket books, take a look at O'Reilly Bash Pocket Reference[5]\nHere are instructions[6] on how to play audio through HDMI,\nyour monitor should have an audio out somewhere.\n\nNow see if you can get that GPIO header soldered on,\nand try to blink some of the RGB LED HAT lights based on this tutorial[7].\nAlternatively you can just blink a simple LED based on this instructable[8],\nnote that a standard Raspberry PI 4 8GB comes with the header soldered on to make things easier.\nAnd there is also a Raspberry PI WH,\nmeaning Wireless with Headers pre-soldered.\n\nAnd now, get a $10 camera,\nand use raspistill[9] to take a photo,\nand play around with all the other options[10].\n\nNow you have an inexpensive platform for your inventions,\na programmable machine, that you access over the radio of your wireless network.\nYou can make it blink, or take time-lapse photographs of the next snow storm,\nyou can get an LCD screen[11] and turn it into a tablet[12].\nRaspberry PI is not the only Single-board computer[13],\nPINE[14] looks really nice as well.\nIf you are looking for a more complicated project,\nperhaps try building a Raspberry PI Drone[15],\nbonus if you can get it to cross the Atlantic.\n\nWe have no limits,\nbut we are also very unique.\nOur inventions need not rely on commuters,\nsome of the greatest inventions the Human Kind has seen, were just ideas.\nDon't let anybody stop you from inventing,\nand don't stop dreaming.\nFinally, the most impractical and outrageous inventions,\nmake for the most magnificent Videos, White Papers, CVs, and Resumes.\nAim,\nfor the Moon.\n \nReferences\n[1]: https://www.youtube.com/watch?v=_udY35m3SdE\n[2]: https://duckduckgo.com/?q=Waveshare+RGB+LED+HAT+True+Color+Onboard+4+%C3%97+8+RGB+LED&t=ffab&ia=web\n[3]: https://duckduckgo.com/?t=ffab&q=Vilros+Raspberry+Pi+Zero+W+Basic+Starter+Kit&ia=web\n[4]: https://www.youtube.com/results?search_query=raspberry+pi+terminal+command+line\n[5]: https://duckduckgo.com/?q=O%27Reilly+Bash+Pocket+Reference&t=ffab&ia=web\n[6]: https://www.raspberrypi.org/documentation/usage/audio/\n[7]: https://www.waveshare.com/wiki/RGB_LED_HAT\n[8]: https://www.instructables.com/Control-LED-Using-Raspberry-Pi-GPIO/\n[9]: https://www.raspberrypi.org/documentation/usage/camera/raspicam/raspistill.md\n[10]: https://www.raspberrypi.org/documentation/raspbian/applications/camera.md\n[11]: https://duckduckgo.com/?q=Raspberry+Pi+7-Inch+LCD&t=ffab&ia=web\n[12]: https://duckduckgo.com/?t=ffab&q=RS+Raspberry+Pi+7-Inch+LCD+Touch+Screen+Case%2C+Black+&ia=web\n[13]: https://en.wikipedia.org/wiki/Single-board_computer\n[14]: https://duckduckgo.com/?q=PINE+Single+Board+Computer+&t=ffab&ia=web\n[15]: https://www.youtube.com/results?search_query=Raspberry+PI+Drone",
  "images": [],
  "links": [
    {
      "title": "Seth Shostak",
      "url": "https://www.youtube.com/watch?v=_udY35m3SdE",
      "hostname": "www.youtube.com"
    },
    {
      "title": "4 x 8 RGB LED HAT",
      "url": "https://duckduckgo.com/?q=Waveshare+RGB+LED+HAT+True+Color+Onboard+4+%C3%97+8+RGB+LED&t=ffab&ia=web",
      "hostname": "duckduckgo.com"
    },
    {
      "title": "get a $30 kit",
      "url": "https://duckduckgo.com/?t=ffab&q=Vilros+Raspberry+Pi+Zero+W+Basic+Starter+Kit&ia=web",
      "hostname": "duckduckgo.com"
    },
    {
      "title": "many tutorials",
      "url": "https://www.youtube.com/results?search_query=raspberry+pi+terminal+command+line",
      "hostname": "www.youtube.com"
    },
    {
      "title": "O'Reilly Bash Pocket Reference",
      "url": "https://duckduckgo.com/?q=O%27Reilly+Bash+Pocket+Reference&t=ffab&ia=web",
      "hostname": "duckduckgo.com"
    },
    {
      "title": "Here are instructions",
      "url": "https://www.raspberrypi.org/documentation/usage/audio/",
      "hostname": "www.raspberrypi.org"
    },
    {
      "title": "based on this tutorial",
      "url": "https://www.waveshare.com/wiki/RGB_LED_HAT",
      "hostname": "www.waveshare.com"
    },
    {
      "title": "this instructable",
      "url": "https://www.instructables.com/Control-LED-Using-Raspberry-Pi-GPIO/",
      "hostname": "www.instructables.com"
    },
    {
      "title": "raspistill",
      "url": "https://www.raspberrypi.org/documentation/usage/camera/raspicam/raspistill.md",
      "hostname": "www.raspberrypi.org"
    },
    {
      "title": "all the other options",
      "url": "https://www.raspberrypi.org/documentation/raspbian/applications/camera.md",
      "hostname": "www.raspberrypi.org"
    },
    {
      "title": "LCD screen",
      "url": "https://duckduckgo.com/?q=Raspberry+Pi+7-Inch+LCD&t=ffab&ia=web",
      "hostname": "duckduckgo.com"
    },
    {
      "title": "turn it into a tablet",
      "url": "https://duckduckgo.com/?t=ffab&q=RS+Raspberry+Pi+7-Inch+LCD+Touch+Screen+Case%2C+Black+&ia=web",
      "hostname": "duckduckgo.com"
    },
    {
      "title": "Single-board computer",
      "url": "https://en.wikipedia.org/wiki/Single-board_computer",
      "hostname": "en.wikipedia.org"
    },
    {
      "title": "PINE",
      "url": "https://duckduckgo.com/?q=PINE+Single+Board+Computer+&t=ffab&ia=web",
      "hostname": "duckduckgo.com"
    },
    {
      "title": "Raspberry PI Drone",
      "url": "https://www.youtube.com/results?search_query=Raspberry+PI+Drone",
      "hostname": "www.youtube.com"
    }
  ]
}