{
  "id": "furkies-purrkies-poetry-0896",
  "title": "Furkies Purrkies Poetry 0896",
  "date": "2022-08-14T02:54:55.593Z",
  "image": "poetry-0896-illustration.jpg",
  "artwork": "https://example.com",
  "audio": "poetry-0896.mp3"
}