{
  "title": "Intransigent",
  "date": "2021-01-05T21:06:27.822Z",
  "image": "poetry-0311-illustration.jpg",
  "audio": "poetry-0311.mp3",
  "artwork": "https://unsplash.com/photos/9uEHFjGXnCE",
  "id": "furkies-purrkies-poetry-0311",
  "attachments": {},
  "guid": "eab7bf49-86f0-4837-a537-b263caa1d61d"
}
