{
  "name": "furkies-purrkies-poetry-0816",
  "id": "furkies-purrkies-poetry-0816",
  "title": "The More That All Are Looking For",
  "date": "2022-05-25T22:23:13.233Z",
  "image": "poetry-0816-illustration.jpg",
  "artwork": "https://unsplash.com/photos/RNjHBdVVywU",
  "audio": "poetry-0816.mp3",
  "guid": "4e4d84ce-d7c0-4a56-bccf-9f05b68eeafd",
  "html": "<div class=\"section\">\n  <p>It begins within,<br>and it leads outside of the culture you are born into.</p>\n  <p>There is an ever evolving universal culture,<br>but any question of border.</p>\n  <p>Will only ever lead the world back,<br>and the world is meant to advance.</p>\n  <p>At the very least,<br>so that it does not continue repeating its mistakes.</p>\n</div>\n<div class=\"section\">\n  <hr>\n</div>\n<div class=\"section\">\n  <p>There is no preacher out there that has the answers,<br>nor will a philosopher ever have the time to answer all your questions.</p>\n  <p>You have to answer them,<br>you have to become the great being you once wished to speak to.</p>\n  <p>It has always been you,<br>and the road has always been the same.</p>\n  <p>It has been paved with the most powerful books,<br>written by the Humans that have risen to the greatest heights they could reach. </p>\n  <p>Because we each have different constellation of curiosities,<br>our paths will be unique.</p>\n  <p>This is why standardized schools are such an insult,<br>to who we are meant to be.</p>\n  <p>This is why real schools are yet to be built,<br>and it is in part why the world needs you.</p>\n</div>\n<div class=\"section\">\n  <hr>\n</div>\n<div class=\"section\">\n  <p>Because if all you ever do,<br>is agree, so that you don’t get yelled at anymore.</p>\n  <p>Then the only ones who will advance,<br>are going to be the liars and the bullies.</p>\n  <p>And the good,<br>will lose.</p>\n  <p>There isn't a past,<br>or a great mind that held or holds a plan.</p>\n  <p>You are the best hope there has eve been,<br>by virtue of your youth, the clarity of your mind.</p>\n  <p>And because you are,<br>new to all this.</p>\n  <p>Because there is hope,<br>that you will <a href=\"https://www.youtube.com/watch?v=EknD3KRtgDk\">go around the indoctrination</a>.</p>\n  <p>That you will rise,<br>unrestrained.</p>\n</div>\n<div class=\"section\">\n  <hr>\n</div>\n<div class=\"section\">\n  <p>It has only ever been the Philosophers,<br>who held the answers.</p>\n  <p>The daughters of philosophy,<br>the sciences, can only make tools.</p>\n  <p>The daughters,<br><a href=\"https://www.youtube.com/watch?v=lb13ynu3Iac\">will not teach how to use them</a>.</p>\n</div>\n<div class=\"section\">\n  <hr>\n</div>\n<div class=\"section\">\n  <p>One of the highest questions,<br>that has been posed recently.</p>\n  <p>Is, would you relive your life,<br>infinite number of times.</p>\n  <p>If the answer is no,<br>then it is the same as choosing an end.</p>\n  <p>Which is,<br>very wrong.</p>\n  <p>What is more,<br>we cannot push others, to choose an end.</p>\n  <p>Are the choices you are making helping you,<br>or are they hurting you.</p>\n  <p>If an end is what you wish for,<br>then you have chosen your path unwisely.</p>\n  <p>Often that means that you are choosing from within the culture,<br>you have been born into,</p>\n  <p>Often cultures trap people,<br>to make them obedient, more useful, to propagate some safe fantasy.</p>\n  <p>Often for a a little bit of going,<br>from a lot of people.</p>\n</div>\n<div class=\"section\">\n  <hr>\n</div>\n<div class=\"section\">\n  <p>We have a flaw in our mind,<br>a terrible knot.</p>\n  <p>It is the thing,<br>that makes a person stay in a <a href=\"https://www.youtube.com/watch?v=bVV2Zk88beY\">cult</a>.</p>\n  <p>It is because,<br>we can’t make decisions based on things we don’t know.</p>\n</div>\n<div class=\"section\">\n  <hr>\n</div>\n<div class=\"section\">\n  <p>And that is why I speak of books,<br>from which you can inherit wisdom.</p>\n  <p>Become a philosopher,<br>who rises to no end in sight.</p>\n  <p>It is an important part of growing up,<br>growing all the way up.</p>\n  <p>More than that,<br>when all those around you start growing all the way up too.</p>\n  <p>Then the world will become a safer place,<br>a wiser place.</p>\n  <p>Then we will take to building the schools we need,<br>to making money work for us, not against us.</p>\n  <p>And finally to putting this idea of world destroying weapons,<br>and that war is somehow a thing we do... behind us.</p>\n  <p>The politicians you have heard speaking,<br>will retire soon.</p>\n  <p>Despite what they have always told you,<br>and how you have been treated, it has always been about you.</p>\n  <p>You are the hope,<br>and you are the dream.</p>\n  <p>You just need to become a Philosopher,<br>so that you will know where to go next, from within, and not by being told what to do.</p>\n  <p>Don’t let school slow you down,<br><a href=\"https://www.qwant.com/?q=Download+Giants+Of+Philosophy&client=opensearch&t=web\">start in the beginning</a>.</p>\n</div>",
  "bootstrap": "<div class=\"card card-section bg-dark text-warning shadow\">\n  <div class=\"section card-body mb-0 my-2\">\n    <div class=\"paragraph card-text card-stanza my-5 text-center\">It begins within,<br>and it leads outside of the culture you are born into.</div>\n    <div class=\"paragraph card-text card-stanza my-5 text-center\">There is an ever evolving universal culture,<br>but any question of border.</div>\n    <div class=\"paragraph card-text card-stanza my-5 text-center\">Will only ever lead the world back,<br>and the world is meant to advance.</div>\n    <div class=\"paragraph card-text card-stanza my-5 text-center\">At the very least,<br>so that it does not continue repeating its mistakes.</div>\n  </div>\n</div>\n<div class=\"mb-5 section-spacer\">&nbsp;</div>\n<div class=\"card card-section bg-dark text-warning shadow\">\n  <div class=\"section card-body mb-0 my-2\">\n    <div class=\"paragraph card-text card-stanza my-5 text-center\">There is no preacher out there that has the answers,<br>nor will a philosopher ever have the time to answer all your questions.</div>\n    <div class=\"paragraph card-text card-stanza my-5 text-center\">You have to answer them,<br>you have to become the great being you once wished to speak to.</div>\n    <div class=\"paragraph card-text card-stanza my-5 text-center\">It has always been you,<br>and the road has always been the same.</div>\n    <div class=\"paragraph card-text card-stanza my-5 text-center\">It has been paved with the most powerful books,<br>written by the Humans that have risen to the greatest heights they could reach. </div>\n    <div class=\"paragraph card-text card-stanza my-5 text-center\">Because we each have different constellation of curiosities,<br>our paths will be unique.</div>\n    <div class=\"paragraph card-text card-stanza my-5 text-center\">This is why standardized schools are such an insult,<br>to who we are meant to be.</div>\n    <div class=\"paragraph card-text card-stanza my-5 text-center\">This is why real schools are yet to be built,<br>and it is in part why the world needs you.</div>\n  </div>\n</div>\n<div class=\"mb-5 section-spacer\">&nbsp;</div>\n<div class=\"card card-section bg-dark text-warning shadow\">\n  <div class=\"section card-body mb-0 my-2\">\n    <div class=\"paragraph card-text card-stanza my-5 text-center\">Because if all you ever do,<br>is agree, so that you don’t get yelled at anymore.</div>\n    <div class=\"paragraph card-text card-stanza my-5 text-center\">Then the only ones who will advance,<br>are going to be the liars and the bullies.</div>\n    <div class=\"paragraph card-text card-stanza my-5 text-center\">And the good,<br>will lose.</div>\n    <div class=\"paragraph card-text card-stanza my-5 text-center\">There isn't a past,<br>or a great mind that held or holds a plan.</div>\n    <div class=\"paragraph card-text card-stanza my-5 text-center\">You are the best hope there has eve been,<br>by virtue of your youth, the clarity of your mind.</div>\n    <div class=\"paragraph card-text card-stanza my-5 text-center\">And because you are,<br>new to all this.</div>\n    <div class=\"paragraph card-text card-stanza my-5 text-center\">Because there is hope,<br>that you will <a href=\"https://www.youtube.com/watch?v=EknD3KRtgDk\">go around the indoctrination</a>.</div>\n    <div class=\"paragraph card-text card-stanza my-5 text-center\">That you will rise,<br>unrestrained.</div>\n  </div>\n</div>\n<div class=\"mb-5 section-spacer\">&nbsp;</div>\n<div class=\"card card-section bg-dark text-warning shadow\">\n  <div class=\"section card-body mb-0 my-2\">\n    <div class=\"paragraph card-text card-stanza my-5 text-center\">It has only ever been the Philosophers,<br>who held the answers.</div>\n    <div class=\"paragraph card-text card-stanza my-5 text-center\">The daughters of philosophy,<br>the sciences, can only make tools.</div>\n    <div class=\"paragraph card-text card-stanza my-5 text-center\">The daughters,<br><a href=\"https://www.youtube.com/watch?v=lb13ynu3Iac\">will not teach how to use them</a>.</div>\n  </div>\n</div>\n<div class=\"mb-5 section-spacer\">&nbsp;</div>\n<div class=\"card card-section bg-dark text-warning shadow\">\n  <div class=\"section card-body mb-0 my-2\">\n    <div class=\"paragraph card-text card-stanza my-5 text-center\">One of the highest questions,<br>that has been posed recently.</div>\n    <div class=\"paragraph card-text card-stanza my-5 text-center\">Is, would you relive your life,<br>infinite number of times.</div>\n    <div class=\"paragraph card-text card-stanza my-5 text-center\">If the answer is no,<br>then it is the same as choosing an end.</div>\n    <div class=\"paragraph card-text card-stanza my-5 text-center\">Which is,<br>very wrong.</div>\n    <div class=\"paragraph card-text card-stanza my-5 text-center\">What is more,<br>we cannot push others, to choose an end.</div>\n    <div class=\"paragraph card-text card-stanza my-5 text-center\">Are the choices you are making helping you,<br>or are they hurting you.</div>\n    <div class=\"paragraph card-text card-stanza my-5 text-center\">If an end is what you wish for,<br>then you have chosen your path unwisely.</div>\n    <div class=\"paragraph card-text card-stanza my-5 text-center\">Often that means that you are choosing from within the culture,<br>you have been born into,</div>\n    <div class=\"paragraph card-text card-stanza my-5 text-center\">Often cultures trap people,<br>to make them obedient, more useful, to propagate some safe fantasy.</div>\n    <div class=\"paragraph card-text card-stanza my-5 text-center\">Often for a a little bit of going,<br>from a lot of people.</div>\n  </div>\n</div>\n<div class=\"mb-5 section-spacer\">&nbsp;</div>\n<div class=\"card card-section bg-dark text-warning shadow\">\n  <div class=\"section card-body mb-0 my-2\">\n    <div class=\"paragraph card-text card-stanza my-5 text-center\">We have a flaw in our mind,<br>a terrible knot.</div>\n    <div class=\"paragraph card-text card-stanza my-5 text-center\">It is the thing,<br>that makes a person stay in a <a href=\"https://www.youtube.com/watch?v=bVV2Zk88beY\">cult</a>.</div>\n    <div class=\"paragraph card-text card-stanza my-5 text-center\">It is because,<br>we can’t make decisions based on things we don’t know.</div>\n  </div>\n</div>\n<div class=\"mb-5 section-spacer\">&nbsp;</div>\n<div class=\"card card-section bg-dark text-warning shadow\">\n  <div class=\"section card-body mb-0 my-2\">\n    <div class=\"paragraph card-text card-stanza my-5 text-center\">And that is why I speak of books,<br>from which you can inherit wisdom.</div>\n    <div class=\"paragraph card-text card-stanza my-5 text-center\">Become a philosopher,<br>who rises to no end in sight.</div>\n    <div class=\"paragraph card-text card-stanza my-5 text-center\">It is an important part of growing up,<br>growing all the way up.</div>\n    <div class=\"paragraph card-text card-stanza my-5 text-center\">More than that,<br>when all those around you start growing all the way up too.</div>\n    <div class=\"paragraph card-text card-stanza my-5 text-center\">Then the world will become a safer place,<br>a wiser place.</div>\n    <div class=\"paragraph card-text card-stanza my-5 text-center\">Then we will take to building the schools we need,<br>to making money work for us, not against us.</div>\n    <div class=\"paragraph card-text card-stanza my-5 text-center\">And finally to putting this idea of world destroying weapons,<br>and that war is somehow a thing we do... behind us.</div>\n    <div class=\"paragraph card-text card-stanza my-5 text-center\">The politicians you have heard speaking,<br>will retire soon.</div>\n    <div class=\"paragraph card-text card-stanza my-5 text-center\">Despite what they have always told you,<br>and how you have been treated, it has always been about you.</div>\n    <div class=\"paragraph card-text card-stanza my-5 text-center\">You are the hope,<br>and you are the dream.</div>\n    <div class=\"paragraph card-text card-stanza my-5 text-center\">You just need to become a Philosopher,<br>so that you will know where to go next, from within, and not by being told what to do.</div>\n    <div class=\"paragraph card-text card-stanza my-5 text-center\">Don’t let school slow you down,<br><a href=\"https://www.qwant.com/?q=Download+Giants+Of+Philosophy&client=opensearch&t=web\">start in the beginning</a>.</div>\n  </div>\n</div>",
  "print": "<div class=\"section avoid-break-inside\" style=\"padding-bottom: 2rem;\">\n  <div class=\"paragraph\">It begins within,<br>and it leads outside of the culture you are born into.</div>\n  <div class=\"paragraph\">There is an ever evolving universal culture,<br>but any question of border.</div>\n  <div class=\"paragraph\">Will only ever lead the world back,<br>and the world is meant to advance.</div>\n  <div class=\"paragraph\">At the very least,<br>so that it does not continue repeating its mistakes.</div>\n</div>\n<div class=\"section avoid-break-inside\" style=\"padding-bottom: 2rem;\">\n  <br>\n</div>\n<div class=\"section avoid-break-inside\" style=\"padding-bottom: 2rem;\">\n  <div class=\"paragraph\">There is no preacher out there that has the answers,<br>nor will a philosopher ever have the time to answer all your questions.</div>\n  <div class=\"paragraph\">You have to answer them,<br>you have to become the great being you once wished to speak to.</div>\n  <div class=\"paragraph\">It has always been you,<br>and the road has always been the same.</div>\n  <div class=\"paragraph\">It has been paved with the most powerful books,<br>written by the Humans that have risen to the greatest heights they could reach. </div>\n  <div class=\"paragraph\">Because we each have different constellation of curiosities,<br>our paths will be unique.</div>\n  <div class=\"paragraph\">This is why standardized schools are such an insult,<br>to who we are meant to be.</div>\n  <div class=\"paragraph\">This is why real schools are yet to be built,<br>and it is in part why the world needs you.</div>\n</div>\n<div class=\"section avoid-break-inside\" style=\"padding-bottom: 2rem;\">\n  <br>\n</div>\n<div class=\"section avoid-break-inside\" style=\"padding-bottom: 2rem;\">\n  <div class=\"paragraph\">Because if all you ever do,<br>is agree, so that you don’t get yelled at anymore.</div>\n  <div class=\"paragraph\">Then the only ones who will advance,<br>are going to be the liars and the bullies.</div>\n  <div class=\"paragraph\">And the good,<br>will lose.</div>\n  <div class=\"paragraph\">There isn't a past,<br>or a great mind that held or holds a plan.</div>\n  <div class=\"paragraph\">You are the best hope there has eve been,<br>by virtue of your youth, the clarity of your mind.</div>\n  <div class=\"paragraph\">And because you are,<br>new to all this.</div>\n  <div class=\"paragraph\">Because there is hope,<br>that you will <span>go around the indoctrination<sup>[1]</sup></span>.</div>\n  <div class=\"paragraph\">That you will rise,<br>unrestrained.</div>\n</div>\n<div class=\"section avoid-break-inside\" style=\"padding-bottom: 2rem;\">\n  <br>\n</div>\n<div class=\"section avoid-break-inside\" style=\"padding-bottom: 2rem;\">\n  <div class=\"paragraph\">It has only ever been the Philosophers,<br>who held the answers.</div>\n  <div class=\"paragraph\">The daughters of philosophy,<br>the sciences, can only make tools.</div>\n  <div class=\"paragraph\">The daughters,<br><span>will not teach how to use them<sup>[2]</sup></span>.</div>\n</div>\n<div class=\"section avoid-break-inside\" style=\"padding-bottom: 2rem;\">\n  <br>\n</div>\n<div class=\"section avoid-break-inside\" style=\"padding-bottom: 2rem;\">\n  <div class=\"paragraph\">One of the highest questions,<br>that has been posed recently.</div>\n  <div class=\"paragraph\">Is, would you relive your life,<br>infinite number of times.</div>\n  <div class=\"paragraph\">If the answer is no,<br>then it is the same as choosing an end.</div>\n  <div class=\"paragraph\">Which is,<br>very wrong.</div>\n  <div class=\"paragraph\">What is more,<br>we cannot push others, to choose an end.</div>\n  <div class=\"paragraph\">Are the choices you are making helping you,<br>or are they hurting you.</div>\n  <div class=\"paragraph\">If an end is what you wish for,<br>then you have chosen your path unwisely.</div>\n  <div class=\"paragraph\">Often that means that you are choosing from within the culture,<br>you have been born into,</div>\n  <div class=\"paragraph\">Often cultures trap people,<br>to make them obedient, more useful, to propagate some safe fantasy.</div>\n  <div class=\"paragraph\">Often for a a little bit of going,<br>from a lot of people.</div>\n</div>\n<div class=\"section avoid-break-inside\" style=\"padding-bottom: 2rem;\">\n  <br>\n</div>\n<div class=\"section avoid-break-inside\" style=\"padding-bottom: 2rem;\">\n  <div class=\"paragraph\">We have a flaw in our mind,<br>a terrible knot.</div>\n  <div class=\"paragraph\">It is the thing,<br>that makes a person stay in a <span>cult<sup>[3]</sup></span>.</div>\n  <div class=\"paragraph\">It is because,<br>we can’t make decisions based on things we don’t know.</div>\n</div>\n<div class=\"section avoid-break-inside\" style=\"padding-bottom: 2rem;\">\n  <br>\n</div>\n<div class=\"section avoid-break-inside\" style=\"padding-bottom: 2rem;\">\n  <div class=\"paragraph\">And that is why I speak of books,<br>from which you can inherit wisdom.</div>\n  <div class=\"paragraph\">Become a philosopher,<br>who rises to no end in sight.</div>\n  <div class=\"paragraph\">It is an important part of growing up,<br>growing all the way up.</div>\n  <div class=\"paragraph\">More than that,<br>when all those around you start growing all the way up too.</div>\n  <div class=\"paragraph\">Then the world will become a safer place,<br>a wiser place.</div>\n  <div class=\"paragraph\">Then we will take to building the schools we need,<br>to making money work for us, not against us.</div>\n  <div class=\"paragraph\">And finally to putting this idea of world destroying weapons,<br>and that war is somehow a thing we do... behind us.</div>\n  <div class=\"paragraph\">The politicians you have heard speaking,<br>will retire soon.</div>\n  <div class=\"paragraph\">Despite what they have always told you,<br>and how you have been treated, it has always been about you.</div>\n  <div class=\"paragraph\">You are the hope,<br>and you are the dream.</div>\n  <div class=\"paragraph\">You just need to become a Philosopher,<br>so that you will know where to go next, from within, and not by being told what to do.</div>\n  <div class=\"paragraph\">Don’t let school slow you down,<br><span>start in the beginning<sup>[4]</sup></span>.</div>\n</div>\n<div class=\"break-after\">&nbsp;</div>\n<div>\n  <div class=\"section\" style=\"padding-bottom: 1rem;\">References</div>\n  <div>[1]: https://www.youtube.com/watch?v=EknD3KRtgDk</div>\n  <div>[2]: https://www.youtube.com/watch?v=lb13ynu3Iac</div>\n  <div>[3]: https://www.youtube.com/watch?v=bVV2Zk88beY</div>\n  <div>[4]: https://www.qwant.com/?q=Download+Giants+Of+Philosophy&client=opensearch&t=web</div>\n</div>",
  "text": "It begins within,\nand it leads outside of the culture you are born into.\nThere is an ever evolving universal culture,\nbut any question of border.\nWill only ever lead the world back,\nand the world is meant to advance.\nAt the very least,\nso that it does not continue repeating its mistakes.\n\nThere is no preacher out there that has the answers,\nnor will a philosopher ever have the time to answer all your questions.\nYou have to answer them,\nyou have to become the great being you once wished to speak to.\nIt has always been you,\nand the road has always been the same.\nIt has been paved with the most powerful books,\nwritten by the Humans that have risen to the greatest heights they could reach.\nBecause we each have different constellation of curiosities,\nour paths will be unique.\nThis is why standardized schools are such an insult,\nto who we are meant to be.\nThis is why real schools are yet to be built,\nand it is in part why the world needs you.\n\nBecause if all you ever do,\nis agree, so that you don’t get yelled at anymore.\nThen the only ones who will advance,\nare going to be the liars and the bullies.\nAnd the good,\nwill lose.\nThere isn't a past,\nor a great mind that held or holds a plan.\nYou are the best hope there has eve been,\nby virtue of your youth, the clarity of your mind.\nAnd because you are,\nnew to all this.\nBecause there is hope,\nthat you will go around the indoctrination[1].\nThat you will rise,\nunrestrained.\n\nIt has only ever been the Philosophers,\nwho held the answers.\nThe daughters of philosophy,\nthe sciences, can only make tools.\nThe daughters,\nwill not teach how to use them[2].\n\nOne of the highest questions,\nthat has been posed recently.\nIs, would you relive your life,\ninfinite number of times.\nIf the answer is no,\nthen it is the same as choosing an end.\nWhich is,\nvery wrong.\nWhat is more,\nwe cannot push others, to choose an end.\nAre the choices you are making helping you,\nor are they hurting you.\nIf an end is what you wish for,\nthen you have chosen your path unwisely.\nOften that means that you are choosing from within the culture,\nyou have been born into,\nOften cultures trap people,\nto make them obedient, more useful, to propagate some safe fantasy.\nOften for a a little bit of going,\nfrom a lot of people.\n\nWe have a flaw in our mind,\na terrible knot.\nIt is the thing,\nthat makes a person stay in a cult[3].\nIt is because,\nwe can’t make decisions based on things we don’t know.\n\nAnd that is why I speak of books,\nfrom which you can inherit wisdom.\nBecome a philosopher,\nwho rises to no end in sight.\nIt is an important part of growing up,\ngrowing all the way up.\nMore than that,\nwhen all those around you start growing all the way up too.\nThen the world will become a safer place,\na wiser place.\nThen we will take to building the schools we need,\nto making money work for us, not against us.\nAnd finally to putting this idea of world destroying weapons,\nand that war is somehow a thing we do... behind us.\nThe politicians you have heard speaking,\nwill retire soon.\nDespite what they have always told you,\nand how you have been treated, it has always been about you.\nYou are the hope,\nand you are the dream.\nYou just need to become a Philosopher,\nso that you will know where to go next, from within, and not by being told what to do.\nDon’t let school slow you down,\nstart in the beginning[4].\n \nReferences\n[1]: https://www.youtube.com/watch?v=EknD3KRtgDk\n[2]: https://www.youtube.com/watch?v=lb13ynu3Iac\n[3]: https://www.youtube.com/watch?v=bVV2Zk88beY\n[4]: https://www.qwant.com/?q=Download+Giants+Of+Philosophy&client=opensearch&t=web",
  "images": [],
  "links": [
    {
      "title": "go around the indoctrination",
      "url": "https://www.youtube.com/watch?v=EknD3KRtgDk",
      "hostname": "www.youtube.com"
    },
    {
      "title": "will not teach how to use them",
      "url": "https://www.youtube.com/watch?v=lb13ynu3Iac",
      "hostname": "www.youtube.com"
    },
    {
      "title": "cult",
      "url": "https://www.youtube.com/watch?v=bVV2Zk88beY",
      "hostname": "www.youtube.com"
    },
    {
      "title": "start in the beginning",
      "url": "https://www.qwant.com/?q=Download+Giants+Of+Philosophy&client=opensearch&t=web",
      "hostname": "www.qwant.com"
    }
  ]
}