{
  "name": "furkies-purrkies-poetry-0631",
  "id": "furkies-purrkies-poetry-0631",
  "title": "Your Art Book",
  "date": "2021-11-22T02:26:47.575Z",
  "image": "poetry-0631-illustration.jpg",
  "artwork": "https://www.pexels.com/photo/woman-in-brown-long-sleeve-shirt-drawing-on-a-sketchpad-8715874/",
  "audio": "poetry-0631.mp3",
  "guid": "97d3b4ce-e4a8-4064-b182-9d6f40bc3933",
  "html": "<div class=\"section\">\n  <p>I have made one mistake in Art when I begun,<br>I didn't know to start writing an art book, and get it done.</p>\n  <p>This is an idea that I would like to share with you,<br>and I hope that you will share too.</p>\n</div>\n<div class=\"section\">\n  <hr>\n</div>\n<div class=\"section\">\n  <p>So, it maybe that your biggest work of art,<br>is a book that will help others start.</p>\n  <p>Guess who is going to do all the illustrations?<br>yes, <strong>you</strong>, congratulations!</p>\n</div>\n<div class=\"section\">\n  <hr>\n</div>\n<div class=\"section\">\n  <p>This is a three part project,<br>so make sure all the items are checked.</p>\n</div>\n<div class=\"section\">\n  <hr>\n</div>\n<div class=\"section\">\n  <p>One, write down the advice that comes to you while you draw,<br>even if it seems clumsy or raw.</p>\n  <p>Two, illustrate pencils, screen projectors, and computer programs you use,<br>you can draw some helpful diagrams, if you choose.</p>\n  <p>Three, your book also keeps photos of all your works,<br>that's one of the neat perks.</p>\n</div>\n<div class=\"section\">\n  <hr>\n</div>\n<div class=\"section\">\n  <p>But go slow as most new artists can't buy too much,<br>so start with a simple and small drawing kit, graphite paper, and such.</p>\n</div>\n<div class=\"section\">\n  <hr>\n</div>\n<div class=\"section\">\n  <p>And always remind your students to get the shadows right,<br>make sure the light in their source photos is very bright.</p>\n  <p>It is always good to start with hard light; and deep shadows and darks,<br>as those become the works that will get the most remarks.</p>\n  <p>Good light and some hard shadows will make a portrait come alive,<br>and your book project will thrive.</p>\n</div>\n<div class=\"section\">\n  <hr>\n</div>\n<div class=\"section\">\n  <p>Always have copies of your book to give away for free,<br>and remind the new artists not to go on a shopping spree.</p>\n  <p>Artist's pencils should be inexpensive and easy to get,<br>then all they need is some paper and blending stumps, and they are set.</p>\n  <p>Remind your students not to push the pencils into paper too much,<br>tell them not to scar their paper, and to keep a light touch.</p>\n</div>\n<div class=\"section\">\n  <hr>\n</div>\n<div class=\"section\">\n  <p>To be respectful of the person you are drawing you can't be too-careful,<br>use a projector of graphite copy paper to make your subject cheerful.</p>\n  <p>You should take the photo yourself, print it out and trace it,<br>this can only server to your benefit.</p>\n  <p>If you like computers load it up into a photo editing app,<br>lower color count and trace edges to create a tracing map.</p>\n  <p>If you don't mind electronics get a pico or mini projector,<br>or you can get a inexpensive one that uses a light bulb and a reflector.</p>\n</div>\n<div class=\"section\">\n  <hr>\n</div>\n<div class=\"section\">\n  <p>Once you trace all the proportions right,<br>that's when you really start.</p>\n  <p>And I always begun with the eyes,<br>I made them wise and full of stars and skies.</p>\n  <p>Always create multiple sketches, portraits, and works,<br>some with deep darks overwhelmed with shadows, others full of fireworks.</p>\n  <p>It is not possible to just create one work of art,<br>it will either be too much light or too dark.</p>\n  <p>It takes many tries to frame a person's character, heart, soul,<br>and that should always be the goal.</p>\n</div>\n<div class=\"section\">\n  <hr>\n</div>",
  "bootstrap": "<div class=\"card card-section bg-dark text-warning shadow\">\n  <div class=\"section card-body mb-0 my-2\">\n    <div class=\"paragraph card-text card-stanza my-5 text-center\">I have made one mistake in Art when I begun,<br>I didn't know to start writing an art book, and get it done.</div>\n    <div class=\"paragraph card-text card-stanza my-5 text-center\">This is an idea that I would like to share with you,<br>and I hope that you will share too.</div>\n  </div>\n</div>\n<div class=\"mb-5 section-spacer\">&nbsp;</div>\n<div class=\"card card-section bg-dark text-warning shadow\">\n  <div class=\"section card-body mb-0 my-2\">\n    <div class=\"paragraph card-text card-stanza my-5 text-center\">So, it maybe that your biggest work of art,<br>is a book that will help others start.</div>\n    <div class=\"paragraph card-text card-stanza my-5 text-center\">Guess who is going to do all the illustrations?<br>yes, <strong>you</strong>, congratulations!</div>\n  </div>\n</div>\n<div class=\"mb-5 section-spacer\">&nbsp;</div>\n<div class=\"card card-section bg-dark text-warning shadow\">\n  <div class=\"section card-body mb-0 my-2\">\n    <div class=\"paragraph card-text card-stanza my-5 text-center\">This is a three part project,<br>so make sure all the items are checked.</div>\n  </div>\n</div>\n<div class=\"mb-5 section-spacer\">&nbsp;</div>\n<div class=\"card card-section bg-dark text-warning shadow\">\n  <div class=\"section card-body mb-0 my-2\">\n    <div class=\"paragraph card-text card-stanza my-5 text-center\">One, write down the advice that comes to you while you draw,<br>even if it seems clumsy or raw.</div>\n    <div class=\"paragraph card-text card-stanza my-5 text-center\">Two, illustrate pencils, screen projectors, and computer programs you use,<br>you can draw some helpful diagrams, if you choose.</div>\n    <div class=\"paragraph card-text card-stanza my-5 text-center\">Three, your book also keeps photos of all your works,<br>that's one of the neat perks.</div>\n  </div>\n</div>\n<div class=\"mb-5 section-spacer\">&nbsp;</div>\n<div class=\"card card-section bg-dark text-warning shadow\">\n  <div class=\"section card-body mb-0 my-2\">\n    <div class=\"paragraph card-text card-stanza my-5 text-center\">But go slow as most new artists can't buy too much,<br>so start with a simple and small drawing kit, graphite paper, and such.</div>\n  </div>\n</div>\n<div class=\"mb-5 section-spacer\">&nbsp;</div>\n<div class=\"card card-section bg-dark text-warning shadow\">\n  <div class=\"section card-body mb-0 my-2\">\n    <div class=\"paragraph card-text card-stanza my-5 text-center\">And always remind your students to get the shadows right,<br>make sure the light in their source photos is very bright.</div>\n    <div class=\"paragraph card-text card-stanza my-5 text-center\">It is always good to start with hard light; and deep shadows and darks,<br>as those become the works that will get the most remarks.</div>\n    <div class=\"paragraph card-text card-stanza my-5 text-center\">Good light and some hard shadows will make a portrait come alive,<br>and your book project will thrive.</div>\n  </div>\n</div>\n<div class=\"mb-5 section-spacer\">&nbsp;</div>\n<div class=\"card card-section bg-dark text-warning shadow\">\n  <div class=\"section card-body mb-0 my-2\">\n    <div class=\"paragraph card-text card-stanza my-5 text-center\">Always have copies of your book to give away for free,<br>and remind the new artists not to go on a shopping spree.</div>\n    <div class=\"paragraph card-text card-stanza my-5 text-center\">Artist's pencils should be inexpensive and easy to get,<br>then all they need is some paper and blending stumps, and they are set.</div>\n    <div class=\"paragraph card-text card-stanza my-5 text-center\">Remind your students not to push the pencils into paper too much,<br>tell them not to scar their paper, and to keep a light touch.</div>\n  </div>\n</div>\n<div class=\"mb-5 section-spacer\">&nbsp;</div>\n<div class=\"card card-section bg-dark text-warning shadow\">\n  <div class=\"section card-body mb-0 my-2\">\n    <div class=\"paragraph card-text card-stanza my-5 text-center\">To be respectful of the person you are drawing you can't be too-careful,<br>use a projector of graphite copy paper to make your subject cheerful.</div>\n    <div class=\"paragraph card-text card-stanza my-5 text-center\">You should take the photo yourself, print it out and trace it,<br>this can only server to your benefit.</div>\n    <div class=\"paragraph card-text card-stanza my-5 text-center\">If you like computers load it up into a photo editing app,<br>lower color count and trace edges to create a tracing map.</div>\n    <div class=\"paragraph card-text card-stanza my-5 text-center\">If you don't mind electronics get a pico or mini projector,<br>or you can get a inexpensive one that uses a light bulb and a reflector.</div>\n  </div>\n</div>\n<div class=\"mb-5 section-spacer\">&nbsp;</div>\n<div class=\"card card-section bg-dark text-warning shadow\">\n  <div class=\"section card-body mb-0 my-2\">\n    <div class=\"paragraph card-text card-stanza my-5 text-center\">Once you trace all the proportions right,<br>that's when you really start.</div>\n    <div class=\"paragraph card-text card-stanza my-5 text-center\">And I always begun with the eyes,<br>I made them wise and full of stars and skies.</div>\n    <div class=\"paragraph card-text card-stanza my-5 text-center\">Always create multiple sketches, portraits, and works,<br>some with deep darks overwhelmed with shadows, others full of fireworks.</div>\n    <div class=\"paragraph card-text card-stanza my-5 text-center\">It is not possible to just create one work of art,<br>it will either be too much light or too dark.</div>\n    <div class=\"paragraph card-text card-stanza my-5 text-center\">It takes many tries to frame a person's character, heart, soul,<br>and that should always be the goal.</div>\n  </div>\n</div>\n<div class=\"mb-5 section-spacer\">&nbsp;</div>",
  "print": "<div class=\"section avoid-break-inside\" style=\"padding-bottom: 2rem;\">\n  <div class=\"paragraph\">I have made one mistake in Art when I begun,<br>I didn't know to start writing an art book, and get it done.</div>\n  <div class=\"paragraph\">This is an idea that I would like to share with you,<br>and I hope that you will share too.</div>\n</div>\n<div class=\"section avoid-break-inside\" style=\"padding-bottom: 2rem;\">\n  <br>\n</div>\n<div class=\"section avoid-break-inside\" style=\"padding-bottom: 2rem;\">\n  <div class=\"paragraph\">So, it maybe that your biggest work of art,<br>is a book that will help others start.</div>\n  <div class=\"paragraph\">Guess who is going to do all the illustrations?<br>yes, <strong>you</strong>, congratulations!</div>\n</div>\n<div class=\"section avoid-break-inside\" style=\"padding-bottom: 2rem;\">\n  <br>\n</div>\n<div class=\"section avoid-break-inside\" style=\"padding-bottom: 2rem;\">\n  <div class=\"paragraph\">This is a three part project,<br>so make sure all the items are checked.</div>\n</div>\n<div class=\"section avoid-break-inside\" style=\"padding-bottom: 2rem;\">\n  <br>\n</div>\n<div class=\"section avoid-break-inside\" style=\"padding-bottom: 2rem;\">\n  <div class=\"paragraph\">One, write down the advice that comes to you while you draw,<br>even if it seems clumsy or raw.</div>\n  <div class=\"paragraph\">Two, illustrate pencils, screen projectors, and computer programs you use,<br>you can draw some helpful diagrams, if you choose.</div>\n  <div class=\"paragraph\">Three, your book also keeps photos of all your works,<br>that's one of the neat perks.</div>\n</div>\n<div class=\"section avoid-break-inside\" style=\"padding-bottom: 2rem;\">\n  <br>\n</div>\n<div class=\"section avoid-break-inside\" style=\"padding-bottom: 2rem;\">\n  <div class=\"paragraph\">But go slow as most new artists can't buy too much,<br>so start with a simple and small drawing kit, graphite paper, and such.</div>\n</div>\n<div class=\"section avoid-break-inside\" style=\"padding-bottom: 2rem;\">\n  <br>\n</div>\n<div class=\"section avoid-break-inside\" style=\"padding-bottom: 2rem;\">\n  <div class=\"paragraph\">And always remind your students to get the shadows right,<br>make sure the light in their source photos is very bright.</div>\n  <div class=\"paragraph\">It is always good to start with hard light; and deep shadows and darks,<br>as those become the works that will get the most remarks.</div>\n  <div class=\"paragraph\">Good light and some hard shadows will make a portrait come alive,<br>and your book project will thrive.</div>\n</div>\n<div class=\"section avoid-break-inside\" style=\"padding-bottom: 2rem;\">\n  <br>\n</div>\n<div class=\"section avoid-break-inside\" style=\"padding-bottom: 2rem;\">\n  <div class=\"paragraph\">Always have copies of your book to give away for free,<br>and remind the new artists not to go on a shopping spree.</div>\n  <div class=\"paragraph\">Artist's pencils should be inexpensive and easy to get,<br>then all they need is some paper and blending stumps, and they are set.</div>\n  <div class=\"paragraph\">Remind your students not to push the pencils into paper too much,<br>tell them not to scar their paper, and to keep a light touch.</div>\n</div>\n<div class=\"section avoid-break-inside\" style=\"padding-bottom: 2rem;\">\n  <br>\n</div>\n<div class=\"section avoid-break-inside\" style=\"padding-bottom: 2rem;\">\n  <div class=\"paragraph\">To be respectful of the person you are drawing you can't be too-careful,<br>use a projector of graphite copy paper to make your subject cheerful.</div>\n  <div class=\"paragraph\">You should take the photo yourself, print it out and trace it,<br>this can only server to your benefit.</div>\n  <div class=\"paragraph\">If you like computers load it up into a photo editing app,<br>lower color count and trace edges to create a tracing map.</div>\n  <div class=\"paragraph\">If you don't mind electronics get a pico or mini projector,<br>or you can get a inexpensive one that uses a light bulb and a reflector.</div>\n</div>\n<div class=\"section avoid-break-inside\" style=\"padding-bottom: 2rem;\">\n  <br>\n</div>\n<div class=\"section avoid-break-inside\" style=\"padding-bottom: 2rem;\">\n  <div class=\"paragraph\">Once you trace all the proportions right,<br>that's when you really start.</div>\n  <div class=\"paragraph\">And I always begun with the eyes,<br>I made them wise and full of stars and skies.</div>\n  <div class=\"paragraph\">Always create multiple sketches, portraits, and works,<br>some with deep darks overwhelmed with shadows, others full of fireworks.</div>\n  <div class=\"paragraph\">It is not possible to just create one work of art,<br>it will either be too much light or too dark.</div>\n  <div class=\"paragraph\">It takes many tries to frame a person's character, heart, soul,<br>and that should always be the goal.</div>\n</div>\n<div class=\"section avoid-break-inside\" style=\"padding-bottom: 2rem;\">\n  <br>\n</div>",
  "text": "I have made one mistake in Art when I begun,\nI didn't know to start writing an art book, and get it done.\nThis is an idea that I would like to share with you,\nand I hope that you will share too.\n\nSo, it maybe that your biggest work of art,\nis a book that will help others start.\nGuess who is going to do all the illustrations?\nyes, you, congratulations!\n\nThis is a three part project,\nso make sure all the items are checked.\n\nOne, write down the advice that comes to you while you draw,\neven if it seems clumsy or raw.\nTwo, illustrate pencils, screen projectors, and computer programs you use,\nyou can draw some helpful diagrams, if you choose.\nThree, your book also keeps photos of all your works,\nthat's one of the neat perks.\n\nBut go slow as most new artists can't buy too much,\nso start with a simple and small drawing kit, graphite paper, and such.\n\nAnd always remind your students to get the shadows right,\nmake sure the light in their source photos is very bright.\nIt is always good to start with hard light; and deep shadows and darks,\nas those become the works that will get the most remarks.\nGood light and some hard shadows will make a portrait come alive,\nand your book project will thrive.\n\nAlways have copies of your book to give away for free,\nand remind the new artists not to go on a shopping spree.\nArtist's pencils should be inexpensive and easy to get,\nthen all they need is some paper and blending stumps, and they are set.\nRemind your students not to push the pencils into paper too much,\ntell them not to scar their paper, and to keep a light touch.\n\nTo be respectful of the person you are drawing you can't be too-careful,\nuse a projector of graphite copy paper to make your subject cheerful.\nYou should take the photo yourself, print it out and trace it,\nthis can only server to your benefit.\nIf you like computers load it up into a photo editing app,\nlower color count and trace edges to create a tracing map.\nIf you don't mind electronics get a pico or mini projector,\nor you can get a inexpensive one that uses a light bulb and a reflector.\n\nOnce you trace all the proportions right,\nthat's when you really start.\nAnd I always begun with the eyes,\nI made them wise and full of stars and skies.\nAlways create multiple sketches, portraits, and works,\nsome with deep darks overwhelmed with shadows, others full of fireworks.\nIt is not possible to just create one work of art,\nit will either be too much light or too dark.\nIt takes many tries to frame a person's character, heart, soul,\nand that should always be the goal.\n\n",
  "images": [],
  "links": []
}