{
  "id": "furkies-purrkies-poetry-0708",
  "title": "Don't Try To Paint The Whole Mona Lisa In One Go",
  "date": "2022-02-07T01:16:19.489Z",
  "image": "poetry-0708-illustration.jpg",
  "artwork": "https://catpea.com",
  "audio": "poetry-0708.mp3",
  "guid": "5b9cda05-7ac6-42e1-b508-7246bbf8fc2c"
}
