{
  "name": "furkies-purrkies-poetry-0498",
  "id": "furkies-purrkies-poetry-0498",
  "title": "There Is Only One Rule Of Adventure: You Always Stop At The Antique Stores",
  "date": "2021-07-12T04:27:07.775Z",
  "image": "poetry-0498-illustration.jpg",
  "artwork": "https://unsplash.com/photos/Top6NZVXVBo",
  "audio": "poetry-0498.mp3",
  "guid": "223f267b-7430-4f7d-ad93-475dc3240aa6",
  "html": "<div class=\"section\">\n  <p>I just spotted an antique store,<br>and I am about to show them what I stand for.</p>\n  <p>First I check for all the friendly pets,<br>especially kitty cats I can pet - no regrets.</p>\n  <p>Then I look for books that can fit my back pocket,<br>found, Edgar Rice Burroughs' Martian Tales with a drawing of a rocket.</p>\n  <p>Then I begin searching for all the cute little things,<br>I find a guitar pick, a little worn by strings.</p>\n  <p>Then I hurry to the pocket knifes section,<br>and admire each and every one with great affection.</p>\n  <p>My cheeks start hurting from all the smiles I am doing,<br>but there is so much that needs my viewing.</p>\n  <p>I find a stack of VHS takes and a VCR,<br>it's vintage made my gold star.</p>\n  <p>My cart is half full with knick knacks by now,<br>all this for $3 dollars, wow!</p>\n  <p>And then I discover a room on the left,<br>military surplus with prices so low it seems like theft.</p>\n  <p>I find a back pack so large it can carry <em>me</em>,<br>I will use it for firewood as it can fit a whole tree.</p>\n  <p>Oh my gosh, there is an ammo box,<br>it is perfect for my collection of fossils and rocks.</p>\n  <p>With a box like this,<br>storing knick knacks is pure bliss.</p>\n</div>\n<div class=\"section\">\n  <hr>\n</div>\n<div class=\"section\">\n  <p>And then on my way back to the cashier lady,<br>I find a box marked free, which seems a little shady.</p>\n  <p>But has hundreds of old seashells inside,<br>and I smile wide eyed.</p>\n  <p>Tourists are often sad,<br>that there are no seashells at the lake that I am staying at.</p>\n  <p>I can totally fix this now,<br>I look at the box again and say, oh wow.</p>\n  <p>After I finished scattering all the shells on the beach,<br>it didn't take very long before I saw someone pause and reach.</p>\n  <p>They looked pretty excited from afar,<br>I hope they didn't think that finding a seashell there the was bizarre.</p>\n  <p>I can't believe such a collection of seashells would be free,<br>that was definitely my most favorite antique shopping spree.</p>\n  <p>You will never regret finding strange little things in an antique store,<br>and each time you return there will always be more.</p>\n</div>",
  "bootstrap": "<div class=\"card card-section bg-dark text-warning shadow\">\n  <div class=\"section card-body mb-0 my-2\">\n    <div class=\"paragraph card-text card-stanza my-5 text-center\">I just spotted an antique store,<br>and I am about to show them what I stand for.</div>\n    <div class=\"paragraph card-text card-stanza my-5 text-center\">First I check for all the friendly pets,<br>especially kitty cats I can pet - no regrets.</div>\n    <div class=\"paragraph card-text card-stanza my-5 text-center\">Then I look for books that can fit my back pocket,<br>found, Edgar Rice Burroughs' Martian Tales with a drawing of a rocket.</div>\n    <div class=\"paragraph card-text card-stanza my-5 text-center\">Then I begin searching for all the cute little things,<br>I find a guitar pick, a little worn by strings.</div>\n    <div class=\"paragraph card-text card-stanza my-5 text-center\">Then I hurry to the pocket knifes section,<br>and admire each and every one with great affection.</div>\n    <div class=\"paragraph card-text card-stanza my-5 text-center\">My cheeks start hurting from all the smiles I am doing,<br>but there is so much that needs my viewing.</div>\n    <div class=\"paragraph card-text card-stanza my-5 text-center\">I find a stack of VHS takes and a VCR,<br>it's vintage made my gold star.</div>\n    <div class=\"paragraph card-text card-stanza my-5 text-center\">My cart is half full with knick knacks by now,<br>all this for $3 dollars, wow!</div>\n    <div class=\"paragraph card-text card-stanza my-5 text-center\">And then I discover a room on the left,<br>military surplus with prices so low it seems like theft.</div>\n    <div class=\"paragraph card-text card-stanza my-5 text-center\">I find a back pack so large it can carry <em>me</em>,<br>I will use it for firewood as it can fit a whole tree.</div>\n    <div class=\"paragraph card-text card-stanza my-5 text-center\">Oh my gosh, there is an ammo box,<br>it is perfect for my collection of fossils and rocks.</div>\n    <div class=\"paragraph card-text card-stanza my-5 text-center\">With a box like this,<br>storing knick knacks is pure bliss.</div>\n  </div>\n</div>\n<div class=\"mb-5 section-spacer\">&nbsp;</div>\n<div class=\"card card-section bg-dark text-warning shadow\">\n  <div class=\"section card-body mb-0 my-2\">\n    <div class=\"paragraph card-text card-stanza my-5 text-center\">And then on my way back to the cashier lady,<br>I find a box marked free, which seems a little shady.</div>\n    <div class=\"paragraph card-text card-stanza my-5 text-center\">But has hundreds of old seashells inside,<br>and I smile wide eyed.</div>\n    <div class=\"paragraph card-text card-stanza my-5 text-center\">Tourists are often sad,<br>that there are no seashells at the lake that I am staying at.</div>\n    <div class=\"paragraph card-text card-stanza my-5 text-center\">I can totally fix this now,<br>I look at the box again and say, oh wow.</div>\n    <div class=\"paragraph card-text card-stanza my-5 text-center\">After I finished scattering all the shells on the beach,<br>it didn't take very long before I saw someone pause and reach.</div>\n    <div class=\"paragraph card-text card-stanza my-5 text-center\">They looked pretty excited from afar,<br>I hope they didn't think that finding a seashell there the was bizarre.</div>\n    <div class=\"paragraph card-text card-stanza my-5 text-center\">I can't believe such a collection of seashells would be free,<br>that was definitely my most favorite antique shopping spree.</div>\n    <div class=\"paragraph card-text card-stanza my-5 text-center\">You will never regret finding strange little things in an antique store,<br>and each time you return there will always be more.</div>\n  </div>\n</div>",
  "print": "<div class=\"section avoid-break-inside\" style=\"padding-bottom: 2rem;\">\n  <div class=\"paragraph\">I just spotted an antique store,<br>and I am about to show them what I stand for.</div>\n  <div class=\"paragraph\">First I check for all the friendly pets,<br>especially kitty cats I can pet - no regrets.</div>\n  <div class=\"paragraph\">Then I look for books that can fit my back pocket,<br>found, Edgar Rice Burroughs' Martian Tales with a drawing of a rocket.</div>\n  <div class=\"paragraph\">Then I begin searching for all the cute little things,<br>I find a guitar pick, a little worn by strings.</div>\n  <div class=\"paragraph\">Then I hurry to the pocket knifes section,<br>and admire each and every one with great affection.</div>\n  <div class=\"paragraph\">My cheeks start hurting from all the smiles I am doing,<br>but there is so much that needs my viewing.</div>\n  <div class=\"paragraph\">I find a stack of VHS takes and a VCR,<br>it's vintage made my gold star.</div>\n  <div class=\"paragraph\">My cart is half full with knick knacks by now,<br>all this for $3 dollars, wow!</div>\n  <div class=\"paragraph\">And then I discover a room on the left,<br>military surplus with prices so low it seems like theft.</div>\n  <div class=\"paragraph\">I find a back pack so large it can carry <em>me</em>,<br>I will use it for firewood as it can fit a whole tree.</div>\n  <div class=\"paragraph\">Oh my gosh, there is an ammo box,<br>it is perfect for my collection of fossils and rocks.</div>\n  <div class=\"paragraph\">With a box like this,<br>storing knick knacks is pure bliss.</div>\n</div>\n<div class=\"section avoid-break-inside\" style=\"padding-bottom: 2rem;\">\n  <br>\n</div>\n<div class=\"section avoid-break-inside\" style=\"padding-bottom: 2rem;\">\n  <div class=\"paragraph\">And then on my way back to the cashier lady,<br>I find a box marked free, which seems a little shady.</div>\n  <div class=\"paragraph\">But has hundreds of old seashells inside,<br>and I smile wide eyed.</div>\n  <div class=\"paragraph\">Tourists are often sad,<br>that there are no seashells at the lake that I am staying at.</div>\n  <div class=\"paragraph\">I can totally fix this now,<br>I look at the box again and say, oh wow.</div>\n  <div class=\"paragraph\">After I finished scattering all the shells on the beach,<br>it didn't take very long before I saw someone pause and reach.</div>\n  <div class=\"paragraph\">They looked pretty excited from afar,<br>I hope they didn't think that finding a seashell there the was bizarre.</div>\n  <div class=\"paragraph\">I can't believe such a collection of seashells would be free,<br>that was definitely my most favorite antique shopping spree.</div>\n  <div class=\"paragraph\">You will never regret finding strange little things in an antique store,<br>and each time you return there will always be more.</div>\n</div>",
  "text": "I just spotted an antique store,\nand I am about to show them what I stand for.\nFirst I check for all the friendly pets,\nespecially kitty cats I can pet - no regrets.\nThen I look for books that can fit my back pocket,\nfound, Edgar Rice Burroughs' Martian Tales with a drawing of a rocket.\nThen I begin searching for all the cute little things,\nI find a guitar pick, a little worn by strings.\nThen I hurry to the pocket knifes section,\nand admire each and every one with great affection.\nMy cheeks start hurting from all the smiles I am doing,\nbut there is so much that needs my viewing.\nI find a stack of VHS takes and a VCR,\nit's vintage made my gold star.\nMy cart is half full with knick knacks by now,\nall this for $3 dollars, wow!\nAnd then I discover a room on the left,\nmilitary surplus with prices so low it seems like theft.\nI find a back pack so large it can carry me,\nI will use it for firewood as it can fit a whole tree.\nOh my gosh, there is an ammo box,\nit is perfect for my collection of fossils and rocks.\nWith a box like this,\nstoring knick knacks is pure bliss.\n\nAnd then on my way back to the cashier lady,\nI find a box marked free, which seems a little shady.\nBut has hundreds of old seashells inside,\nand I smile wide eyed.\nTourists are often sad,\nthat there are no seashells at the lake that I am staying at.\nI can totally fix this now,\nI look at the box again and say, oh wow.\nAfter I finished scattering all the shells on the beach,\nit didn't take very long before I saw someone pause and reach.\nThey looked pretty excited from afar,\nI hope they didn't think that finding a seashell there the was bizarre.\nI can't believe such a collection of seashells would be free,\nthat was definitely my most favorite antique shopping spree.\nYou will never regret finding strange little things in an antique store,\nand each time you return there will always be more.",
  "images": [],
  "links": []
}