{
  "name": "furkies-purrkies-poetry-0357",
  "title": "The Terrible Truth Behind Piano Keys, Scales, Schools and Uneducated Politicians",
  "date": "2021-02-21T01:11:53.020Z",
  "image": "poetry-0357-illustration.jpg",
  "audio": "poetry-0357.mp3",
  "artwork": "https://unsplash.com/photos/bHiugl8H-MQ",
  "id": "furkies-purrkies-poetry-0357",
  "attachments": {},
  "guid": "c519ed2d-8021-453b-80aa-0579958b17e2",
  "html": "<div class=\"section\">\n  <p>People are tricked into thinking that music theory is required for making music,</p>\n  <p>and schools deliver music theory as a single indivisible blob.</p>\n</div>\n\n<div class=\"section\">\n  <p>With modern schools focusing on standardized testing,</p>\n  <p>schools trick kids into thinking that memorization is a kind of learning.</p>\n</div>\n\n<div class=\"section\">\n  <p>But memorization is only about keeping the grade point average high enough,</p>\n  <p>for everyone who works for that school to get paid.</p>\n</div>\n\n<div class=\"section\">\n  <p>From the teacher&apos;s perspective,</p>\n  <p>they are doing their job, so that they can get paid.</p>\n</div>\n\n<div class=\"section\">\n  <p>From the student&apos;s perspective,</p>\n  <p>they are trying to get good grades to get into good college, and get a good job.</p>\n</div>\n\n<div class=\"section\">\n  <p>But, we have to stop and ask,</p>\n  <p>is the school teaching, are the children learning?</p>\n</div>\n\n<div class=\"section\">\n  <hr>\n</div>\n\n<div class=\"section\">\n  <p>Children can&apos;t tell the schools are bad for them,</p>\n  <p>because they do not know enough about life, and they tend to follow directions.</p>\n</div>\n\n<div class=\"section\">\n  <p>Adults have the same problem with politics,</p>\n  <p>politicians are actors that act just enough to get what they personally want.</p>\n</div>\n\n<div class=\"section\">\n  <p>It only takes a few liars to disable a nation,</p>\n  <p>but what we are seeing, is that here are only few honest people there.</p>\n</div>\n\n<div class=\"section\">\n  <p>From the perspective of the politician, they serve their people,</p>\n  <p>and it is their job to inspire their trust.</p>\n</div>\n\n<div class=\"section\">\n  <p>From a psychologists perspective,</p>\n  <p>that is lying.</p>\n</div>\n\n<div class=\"section\">\n  <p>I wonder where all the psychologists are,</p>\n  <p>with each passing decade their rise to their spotlight becomes more and more critical.</p>\n</div>\n\n<div class=\"section\">\n  <hr>\n</div>\n\n<div class=\"section\">\n  <p>Most of us hear &quot;C Major&quot;, or &quot;C Minor&quot;,</p>\n  <p>that is just code for saying that we will start with the note C, and then focus on a pattern of notes named Major.</p>\n</div>\n\n<div class=\"section\">\n  <p>A scale is,</p>\n  <p>a pallet of 8 colors that the musician has chosen to compose with.</p>\n</div>\n\n<div class=\"section\">\n  <p>In painting colors are super important,</p>\n  <p>you really want to get the right yellow and orange to paint a sunrise, you have to mix them just right.</p>\n</div>\n\n<div class=\"section\">\n  <p>And just imagine the importance of colors when it comes to painting a portrait,</p>\n  <p>a starting artist may wish for a pre-mixed set of colors for just painting portrait - it sounds as useful as it is.</p>\n</div>\n\n<div class=\"section\">\n  <p>That is what a scale is,</p>\n  <p>a selection of pre-mixed notes so that a person can focus on making melodies.</p>\n</div>\n\n<div class=\"section\">\n  <p>That is the very least we need to take away from music class,</p>\n  <p>that is all it takes to give us the ability to express ourselves with music.</p>\n</div>\n\n<div class=\"section\">\n  <hr>\n</div>\n\n<div class=\"section\">\n  <p>If children are forced to take tests, that obscure this gift of self-expression,</p>\n  <p>its simplicity, glory, reward, empowerment, then they are being cheated.</p>\n</div>\n\n<div class=\"section\">\n  <p>If someone was to sit you down at a piano,</p>\n  <p>that had a knob that would let you choose from <a href=\"https://en.wikipedia.org/wiki/List_of_musical_scales_and_modes\">all the scales</a> and highlight the keys of a selected scale.</p>\n</div>\n\n<div class=\"section\">\n  <p>You would immediately find a selection of notes that would match your feelings,</p>\n  <p>and begin composing.</p>\n</div>\n\n<div class=\"section\">\n  <p>Listen, this is true, you only get eight keys,</p>\n  <p>you can only go up and down, and at a pace that fits your feeling, there is nothing difficult about this.</p>\n</div>\n\n\n<div class=\"section\">\n  <p>More than that, you would be playing the soul of the song,</p>\n  <p>with sounds that connect with your feelings.</p>\n</div>\n\n<div class=\"section\">\n  <p>And then you would be called to add another layer,</p>\n  <p>a melody to bring light and wisdom to that world.</p>\n</div>\n\n<div class=\"section\">\n  <hr>\n</div>\n\n<div class=\"section\">\n  <p>And again, if we continue tolerating politicians that split their heads in two,</p>\n  <p>one being I must act to appear amazing, and two being I must take care of my own business first - the world will not grow.</p>\n</div>\n\n<div class=\"section\">\n  <p>World&apos;s politicians bifurcating is probably to a considerable degree,</p>\n  <p>influenced by the in-authenticity they are forced to participate in schools.</p>\n</div>\n\n<div class=\"section\">\n  <p>We are scaring the children that if they don&apos;t memorize,</p>\n  <p>they will be held back and called stupid.</p>\n</div>\n\n<div class=\"section\">\n  <p>We are preventing children from learning,</p>\n  <p>by sending them to memorization and meat processing plants.</p>\n</div>\n\n<div class=\"section\">\n  <p>Humanity will not progress,</p>\n  <p>if this continues.</p>\n</div>\n\n<div class=\"section\">\n  <hr>\n</div>\n\n<div class=\"section\">\n  <p>The saddest thing of all is that children think they are learning</p>\n  <p>by passing all the tests, they call it learning, they know it as learning.</p>\n</div>\n\n<div class=\"section\">\n  <p>If memorization is ever taken away from them,</p>\n  <p>they will protest that education is being stolen.</p>\n</div>\n\n<div class=\"section\">\n  <hr>\n</div>\n\n<div class=\"section\">\n  <p>Some kids do figure out they can&apos;t be creative,</p>\n  <p>and must instead perform this ritual of memorization - I think most of them still think of the ritual as learning.</p>\n</div>\n\n<div class=\"section\">\n  <p>When other kids hear of this ritual sacrifice, they see it as madness,</p>\n  <p>in their minds it sounds like you can&apos;t be creative after you get good grades from music class.</p>\n</div>\n\n<div class=\"section\">\n  <p>Children are trying to figure this out,</p>\n  <p>but they can&apos;t, they don&apos;t have enough experience.</p>\n</div>\n\n<div class=\"section\">\n  <hr>\n</div>\n\n<div class=\"section\">\n  <p>To the person who senses that they must sacrifice their unique creativity to get good grades,</p>\n  <p>we must say, &quot;If you do that, then our world will die.&quot;.</p>\n</div>\n\n<div class=\"section\">\n  <p>What makes a person unique and creative, must be protected and developed,</p>\n  <p>destroying that, with stress, threats of being held back, creates the surface for liars to thrive in.</p>\n</div>\n\n<div class=\"section\">\n  <p>A liar is after all, is a perfectly uneducated and hollow individual,</p>\n  <p>skilled in in getting everything, anyway.</p>\n</div>\n\n<div class=\"section\">\n  <hr>\n</div>\n\n<div class=\"section\">\n  <p>To the person who says that learning music or science in school,</p>\n  <p>gives us the ability to be creative.</p>\n</div>\n\n<div class=\"section\">\n  <p>We have to say, no,</p>\n  <p>we have to end this illusion.</p>\n</div>\n\n<div class=\"section\">\n  <p>The illusion of education by means of memorization and mediocrity, and cramming, and pretending,</p>\n  <p>because, again, that only creates a surface for big fat white lice to feed on the future of this world.</p>\n</div>\n\n<div class=\"section\">\n  <p>We have to to explain to this obviously intelligent individual,</p>\n  <p>that school is only holding him back.</p>\n</div>\n\n<div class=\"section\">\n  <p>It will come as shock at first, but that is not such a bad thing,</p>\n  <p>because this shock will awaken a healthy skepticism that they are likely to employ in all their decision making.</p>\n</div>\n\n<div class=\"section\">\n  <p>Kids are are protecting a system of education,</p>\n  <p>that did nothing for us.</p>\n</div>\n\n<div class=\"section\">\n  <p>Everything up to high school is working out nicely,</p>\n  <p>it is when the subject divisions and tests that force memorization are introduced that education ends, and pretending begins.</p>\n</div>\n\n<div class=\"section\">\n  <p>Children don&apos;t pretend because they want to be actors,</p>\n  <p>but because it is impossible to graduate with a good GPA and still learn for real.</p>\n</div>\n\n<div class=\"section\">\n  <hr>\n</div>\n\n<div class=\"section\">\n  <p>A teacher would make a fair point here and state that they have to rely on a separate entity to build the curriculum,</p>\n  <p>it does make sense that a teacher should receive help with structuring their lectures and semesters.</p>\n</div>\n\n<div class=\"section\">\n  <p>While they already know much of what they will teach,</p>\n  <p>they still need structure.</p>\n</div>\n\n<div class=\"section\">\n  <p>But, like with that intelligent student that we have to say no to,</p>\n  <p>we must say no to the teachers as well.</p>\n</div>\n\n<div class=\"section\">\n  <p>No one but the student is allowed to structure the material,</p>\n  <p>it must be structured in a way that keeps them going, keeps them interested and passionate about their next steps.</p>\n</div>\n\n<div class=\"section\">\n  <p>The new curriculum should be based on a body of knowledge created by all the worlds students,</p>\n  <p>but the path must honor their uniqueness and existing creativity, must match their existing knowledge, and pace of learning.</p>\n</div>\n\n<div class=\"section\">\n  <hr>\n</div>\n\n<div class=\"section\">\n  <p>Both politics and education can be greatly improved with interactive visualizations and info-graphics,</p>\n  <p>just like a student should know where their path will take them, a voter should be able to see and comprehend the results of their vote.</p>\n</div>\n\n<div class=\"section\">\n  <p>Students should not be graded, they are still learning life,</p>\n  <p>and in the new schools they will be learning the correct things at the correct pace.</p>\n</div>\n\n<div class=\"section\">\n  <p>But politicians, do need grades once they begin serving,</p>\n  <p>furthermore the voters should base a lot of their decisions on the unique history of the politician&apos;s education.</p>\n</div>\n\n<div class=\"section\">\n  <p>A decades long open and ongoing history of curiosities and achievements built by a political candidate in the new school,</p>\n  <p>will prevent liars from entering positions that are meant for the true leaders of future generations.</p>\n</div>\n\n<div class=\"section\">\n  <hr>\n</div>\n\n<div class=\"section\">\n  <p>A musical scale is just a selection of a few colors that the musician pre-selected, to paint their feelings with,</p>\n  <p>in a song they sat down to compose.</p>\n</div>\n\n<div class=\"section\">\n  <p>A real school,</p>\n  <p>would make you a musician in the course of a day.</p>\n</div>\n\n<div class=\"section\">\n  <p>We are meant to learn for real, knowledge that results in wisdom,</p>\n  <p>and wisdom, that if we choose, will take us to greatness.</p>\n</div>\n\n<div class=\"section\">\n  <p>Let us take no sides when it comes to Future of Humanity,</p>\n  <p>we are but temporary keepers of this world as it belongs to all the future generations - there is no place for in-authenticity here.</p>\n</div>\n\n<div class=\"section\">\n  <p>Let us say no, to make believe education,</p>\n  <p>and let us say no to uneducated actors in roles of self serving leadership.</p>\n</div>\n\n<div class=\"section\">\n  <hr>\n</div>\n\n<div class=\"section\">\n  <p>Let us honor all the future generations,</p>\n  <p>by creating real schools that provide meaningful and personalized education.</p>\n</div>",
  "bootstrap": "<div class=\"card card-section bg-dark text-warning shadow\">\n  <div class=\"section card-body mb-0 my-2\">\n    <div class=\"paragraph card-text card-stanza my-5 text-center\">People are tricked into thinking that music theory is required for making music,</div>\n    <div class=\"paragraph card-text card-stanza my-5 text-center\">and schools deliver music theory as a single indivisible blob.</div>\n  </div>\n</div>\n<div class=\"card card-section bg-dark text-warning shadow\">\n  <div class=\"section card-body mb-0 my-2\">\n    <div class=\"paragraph card-text card-stanza my-5 text-center\">With modern schools focusing on standardized testing,</div>\n    <div class=\"paragraph card-text card-stanza my-5 text-center\">schools trick kids into thinking that memorization is a kind of learning.</div>\n  </div>\n</div>\n<div class=\"card card-section bg-dark text-warning shadow\">\n  <div class=\"section card-body mb-0 my-2\">\n    <div class=\"paragraph card-text card-stanza my-5 text-center\">But memorization is only about keeping the grade point average high enough,</div>\n    <div class=\"paragraph card-text card-stanza my-5 text-center\">for everyone who works for that school to get paid.</div>\n  </div>\n</div>\n<div class=\"card card-section bg-dark text-warning shadow\">\n  <div class=\"section card-body mb-0 my-2\">\n    <div class=\"paragraph card-text card-stanza my-5 text-center\">From the teacher's perspective,</div>\n    <div class=\"paragraph card-text card-stanza my-5 text-center\">they are doing their job, so that they can get paid.</div>\n  </div>\n</div>\n<div class=\"card card-section bg-dark text-warning shadow\">\n  <div class=\"section card-body mb-0 my-2\">\n    <div class=\"paragraph card-text card-stanza my-5 text-center\">From the student's perspective,</div>\n    <div class=\"paragraph card-text card-stanza my-5 text-center\">they are trying to get good grades to get into good college, and get a good job.</div>\n  </div>\n</div>\n<div class=\"card card-section bg-dark text-warning shadow\">\n  <div class=\"section card-body mb-0 my-2\">\n    <div class=\"paragraph card-text card-stanza my-5 text-center\">But, we have to stop and ask,</div>\n    <div class=\"paragraph card-text card-stanza my-5 text-center\">is the school teaching, are the children learning?</div>\n  </div>\n</div>\n<div class=\"mb-5 section-spacer\">&nbsp;</div>\n<div class=\"card card-section bg-dark text-warning shadow\">\n  <div class=\"section card-body mb-0 my-2\">\n    <div class=\"paragraph card-text card-stanza my-5 text-center\">Children can't tell the schools are bad for them,</div>\n    <div class=\"paragraph card-text card-stanza my-5 text-center\">because they do not know enough about life, and they tend to follow directions.</div>\n  </div>\n</div>\n<div class=\"card card-section bg-dark text-warning shadow\">\n  <div class=\"section card-body mb-0 my-2\">\n    <div class=\"paragraph card-text card-stanza my-5 text-center\">Adults have the same problem with politics,</div>\n    <div class=\"paragraph card-text card-stanza my-5 text-center\">politicians are actors that act just enough to get what they personally want.</div>\n  </div>\n</div>\n<div class=\"card card-section bg-dark text-warning shadow\">\n  <div class=\"section card-body mb-0 my-2\">\n    <div class=\"paragraph card-text card-stanza my-5 text-center\">It only takes a few liars to disable a nation,</div>\n    <div class=\"paragraph card-text card-stanza my-5 text-center\">but what we are seeing, is that here are only few honest people there.</div>\n  </div>\n</div>\n<div class=\"card card-section bg-dark text-warning shadow\">\n  <div class=\"section card-body mb-0 my-2\">\n    <div class=\"paragraph card-text card-stanza my-5 text-center\">From the perspective of the politician, they serve their people,</div>\n    <div class=\"paragraph card-text card-stanza my-5 text-center\">and it is their job to inspire their trust.</div>\n  </div>\n</div>\n<div class=\"card card-section bg-dark text-warning shadow\">\n  <div class=\"section card-body mb-0 my-2\">\n    <div class=\"paragraph card-text card-stanza my-5 text-center\">From a psychologists perspective,</div>\n    <div class=\"paragraph card-text card-stanza my-5 text-center\">that is lying.</div>\n  </div>\n</div>\n<div class=\"card card-section bg-dark text-warning shadow\">\n  <div class=\"section card-body mb-0 my-2\">\n    <div class=\"paragraph card-text card-stanza my-5 text-center\">I wonder where all the psychologists are,</div>\n    <div class=\"paragraph card-text card-stanza my-5 text-center\">with each passing decade their rise to their spotlight becomes more and more critical.</div>\n  </div>\n</div>\n<div class=\"mb-5 section-spacer\">&nbsp;</div>\n<div class=\"card card-section bg-dark text-warning shadow\">\n  <div class=\"section card-body mb-0 my-2\">\n    <div class=\"paragraph card-text card-stanza my-5 text-center\">Most of us hear \"C Major\", or \"C Minor\",</div>\n    <div class=\"paragraph card-text card-stanza my-5 text-center\">that is just code for saying that we will start with the note C, and then focus on a pattern of notes named Major.</div>\n  </div>\n</div>\n<div class=\"card card-section bg-dark text-warning shadow\">\n  <div class=\"section card-body mb-0 my-2\">\n    <div class=\"paragraph card-text card-stanza my-5 text-center\">A scale is,</div>\n    <div class=\"paragraph card-text card-stanza my-5 text-center\">a pallet of 8 colors that the musician has chosen to compose with.</div>\n  </div>\n</div>\n<div class=\"card card-section bg-dark text-warning shadow\">\n  <div class=\"section card-body mb-0 my-2\">\n    <div class=\"paragraph card-text card-stanza my-5 text-center\">In painting colors are super important,</div>\n    <div class=\"paragraph card-text card-stanza my-5 text-center\">you really want to get the right yellow and orange to paint a sunrise, you have to mix them just right.</div>\n  </div>\n</div>\n<div class=\"card card-section bg-dark text-warning shadow\">\n  <div class=\"section card-body mb-0 my-2\">\n    <div class=\"paragraph card-text card-stanza my-5 text-center\">And just imagine the importance of colors when it comes to painting a portrait,</div>\n    <div class=\"paragraph card-text card-stanza my-5 text-center\">a starting artist may wish for a pre-mixed set of colors for just painting portrait - it sounds as useful as it is.</div>\n  </div>\n</div>\n<div class=\"card card-section bg-dark text-warning shadow\">\n  <div class=\"section card-body mb-0 my-2\">\n    <div class=\"paragraph card-text card-stanza my-5 text-center\">That is what a scale is,</div>\n    <div class=\"paragraph card-text card-stanza my-5 text-center\">a selection of pre-mixed notes so that a person can focus on making melodies.</div>\n  </div>\n</div>\n<div class=\"card card-section bg-dark text-warning shadow\">\n  <div class=\"section card-body mb-0 my-2\">\n    <div class=\"paragraph card-text card-stanza my-5 text-center\">That is the very least we need to take away from music class,</div>\n    <div class=\"paragraph card-text card-stanza my-5 text-center\">that is all it takes to give us the ability to express ourselves with music.</div>\n  </div>\n</div>\n<div class=\"mb-5 section-spacer\">&nbsp;</div>\n<div class=\"card card-section bg-dark text-warning shadow\">\n  <div class=\"section card-body mb-0 my-2\">\n    <div class=\"paragraph card-text card-stanza my-5 text-center\">If children are forced to take tests, that obscure this gift of self-expression,</div>\n    <div class=\"paragraph card-text card-stanza my-5 text-center\">its simplicity, glory, reward, empowerment, then they are being cheated.</div>\n  </div>\n</div>\n<div class=\"card card-section bg-dark text-warning shadow\">\n  <div class=\"section card-body mb-0 my-2\">\n    <div class=\"paragraph card-text card-stanza my-5 text-center\">If someone was to sit you down at a piano,</div>\n    <div class=\"paragraph card-text card-stanza my-5 text-center\">that had a knob that would let you choose from <a href=\"https://en.wikipedia.org/wiki/List_of_musical_scales_and_modes\">all the scales</a> and highlight the keys of a selected scale.</div>\n  </div>\n</div>\n<div class=\"card card-section bg-dark text-warning shadow\">\n  <div class=\"section card-body mb-0 my-2\">\n    <div class=\"paragraph card-text card-stanza my-5 text-center\">You would immediately find a selection of notes that would match your feelings,</div>\n    <div class=\"paragraph card-text card-stanza my-5 text-center\">and begin composing.</div>\n  </div>\n</div>\n<div class=\"card card-section bg-dark text-warning shadow\">\n  <div class=\"section card-body mb-0 my-2\">\n    <div class=\"paragraph card-text card-stanza my-5 text-center\">Listen, this is true, you only get eight keys,</div>\n    <div class=\"paragraph card-text card-stanza my-5 text-center\">you can only go up and down, and at a pace that fits your feeling, there is nothing difficult about this.</div>\n  </div>\n</div>\n<div class=\"card card-section bg-dark text-warning shadow\">\n  <div class=\"section card-body mb-0 my-2\">\n    <div class=\"paragraph card-text card-stanza my-5 text-center\">More than that, you would be playing the soul of the song,</div>\n    <div class=\"paragraph card-text card-stanza my-5 text-center\">with sounds that connect with your feelings.</div>\n  </div>\n</div>\n<div class=\"card card-section bg-dark text-warning shadow\">\n  <div class=\"section card-body mb-0 my-2\">\n    <div class=\"paragraph card-text card-stanza my-5 text-center\">And then you would be called to add another layer,</div>\n    <div class=\"paragraph card-text card-stanza my-5 text-center\">a melody to bring light and wisdom to that world.</div>\n  </div>\n</div>\n<div class=\"mb-5 section-spacer\">&nbsp;</div>\n<div class=\"card card-section bg-dark text-warning shadow\">\n  <div class=\"section card-body mb-0 my-2\">\n    <div class=\"paragraph card-text card-stanza my-5 text-center\">And again, if we continue tolerating politicians that split their heads in two,</div>\n    <div class=\"paragraph card-text card-stanza my-5 text-center\">one being I must act to appear amazing, and two being I must take care of my own business first - the world will not grow.</div>\n  </div>\n</div>\n<div class=\"card card-section bg-dark text-warning shadow\">\n  <div class=\"section card-body mb-0 my-2\">\n    <div class=\"paragraph card-text card-stanza my-5 text-center\">World's politicians bifurcating is probably to a considerable degree,</div>\n    <div class=\"paragraph card-text card-stanza my-5 text-center\">influenced by the in-authenticity they are forced to participate in schools.</div>\n  </div>\n</div>\n<div class=\"card card-section bg-dark text-warning shadow\">\n  <div class=\"section card-body mb-0 my-2\">\n    <div class=\"paragraph card-text card-stanza my-5 text-center\">We are scaring the children that if they don't memorize,</div>\n    <div class=\"paragraph card-text card-stanza my-5 text-center\">they will be held back and called stupid.</div>\n  </div>\n</div>\n<div class=\"card card-section bg-dark text-warning shadow\">\n  <div class=\"section card-body mb-0 my-2\">\n    <div class=\"paragraph card-text card-stanza my-5 text-center\">We are preventing children from learning,</div>\n    <div class=\"paragraph card-text card-stanza my-5 text-center\">by sending them to memorization and meat processing plants.</div>\n  </div>\n</div>\n<div class=\"card card-section bg-dark text-warning shadow\">\n  <div class=\"section card-body mb-0 my-2\">\n    <div class=\"paragraph card-text card-stanza my-5 text-center\">Humanity will not progress,</div>\n    <div class=\"paragraph card-text card-stanza my-5 text-center\">if this continues.</div>\n  </div>\n</div>\n<div class=\"mb-5 section-spacer\">&nbsp;</div>\n<div class=\"card card-section bg-dark text-warning shadow\">\n  <div class=\"section card-body mb-0 my-2\">\n    <div class=\"paragraph card-text card-stanza my-5 text-center\">The saddest thing of all is that children think they are learning</div>\n    <div class=\"paragraph card-text card-stanza my-5 text-center\">by passing all the tests, they call it learning, they know it as learning.</div>\n  </div>\n</div>\n<div class=\"card card-section bg-dark text-warning shadow\">\n  <div class=\"section card-body mb-0 my-2\">\n    <div class=\"paragraph card-text card-stanza my-5 text-center\">If memorization is ever taken away from them,</div>\n    <div class=\"paragraph card-text card-stanza my-5 text-center\">they will protest that education is being stolen.</div>\n  </div>\n</div>\n<div class=\"mb-5 section-spacer\">&nbsp;</div>\n<div class=\"card card-section bg-dark text-warning shadow\">\n  <div class=\"section card-body mb-0 my-2\">\n    <div class=\"paragraph card-text card-stanza my-5 text-center\">Some kids do figure out they can't be creative,</div>\n    <div class=\"paragraph card-text card-stanza my-5 text-center\">and must instead perform this ritual of memorization - I think most of them still think of the ritual as learning.</div>\n  </div>\n</div>\n<div class=\"card card-section bg-dark text-warning shadow\">\n  <div class=\"section card-body mb-0 my-2\">\n    <div class=\"paragraph card-text card-stanza my-5 text-center\">When other kids hear of this ritual sacrifice, they see it as madness,</div>\n    <div class=\"paragraph card-text card-stanza my-5 text-center\">in their minds it sounds like you can't be creative after you get good grades from music class.</div>\n  </div>\n</div>\n<div class=\"card card-section bg-dark text-warning shadow\">\n  <div class=\"section card-body mb-0 my-2\">\n    <div class=\"paragraph card-text card-stanza my-5 text-center\">Children are trying to figure this out,</div>\n    <div class=\"paragraph card-text card-stanza my-5 text-center\">but they can't, they don't have enough experience.</div>\n  </div>\n</div>\n<div class=\"mb-5 section-spacer\">&nbsp;</div>\n<div class=\"card card-section bg-dark text-warning shadow\">\n  <div class=\"section card-body mb-0 my-2\">\n    <div class=\"paragraph card-text card-stanza my-5 text-center\">To the person who senses that they must sacrifice their unique creativity to get good grades,</div>\n    <div class=\"paragraph card-text card-stanza my-5 text-center\">we must say, \"If you do that, then our world will die.\".</div>\n  </div>\n</div>\n<div class=\"card card-section bg-dark text-warning shadow\">\n  <div class=\"section card-body mb-0 my-2\">\n    <div class=\"paragraph card-text card-stanza my-5 text-center\">What makes a person unique and creative, must be protected and developed,</div>\n    <div class=\"paragraph card-text card-stanza my-5 text-center\">destroying that, with stress, threats of being held back, creates the surface for liars to thrive in.</div>\n  </div>\n</div>\n<div class=\"card card-section bg-dark text-warning shadow\">\n  <div class=\"section card-body mb-0 my-2\">\n    <div class=\"paragraph card-text card-stanza my-5 text-center\">A liar is after all, is a perfectly uneducated and hollow individual,</div>\n    <div class=\"paragraph card-text card-stanza my-5 text-center\">skilled in in getting everything, anyway.</div>\n  </div>\n</div>\n<div class=\"mb-5 section-spacer\">&nbsp;</div>\n<div class=\"card card-section bg-dark text-warning shadow\">\n  <div class=\"section card-body mb-0 my-2\">\n    <div class=\"paragraph card-text card-stanza my-5 text-center\">To the person who says that learning music or science in school,</div>\n    <div class=\"paragraph card-text card-stanza my-5 text-center\">gives us the ability to be creative.</div>\n  </div>\n</div>\n<div class=\"card card-section bg-dark text-warning shadow\">\n  <div class=\"section card-body mb-0 my-2\">\n    <div class=\"paragraph card-text card-stanza my-5 text-center\">We have to say, no,</div>\n    <div class=\"paragraph card-text card-stanza my-5 text-center\">we have to end this illusion.</div>\n  </div>\n</div>\n<div class=\"card card-section bg-dark text-warning shadow\">\n  <div class=\"section card-body mb-0 my-2\">\n    <div class=\"paragraph card-text card-stanza my-5 text-center\">The illusion of education by means of memorization and mediocrity, and cramming, and pretending,</div>\n    <div class=\"paragraph card-text card-stanza my-5 text-center\">because, again, that only creates a surface for big fat white lice to feed on the future of this world.</div>\n  </div>\n</div>\n<div class=\"card card-section bg-dark text-warning shadow\">\n  <div class=\"section card-body mb-0 my-2\">\n    <div class=\"paragraph card-text card-stanza my-5 text-center\">We have to to explain to this obviously intelligent individual,</div>\n    <div class=\"paragraph card-text card-stanza my-5 text-center\">that school is only holding him back.</div>\n  </div>\n</div>\n<div class=\"card card-section bg-dark text-warning shadow\">\n  <div class=\"section card-body mb-0 my-2\">\n    <div class=\"paragraph card-text card-stanza my-5 text-center\">It will come as shock at first, but that is not such a bad thing,</div>\n    <div class=\"paragraph card-text card-stanza my-5 text-center\">because this shock will awaken a healthy skepticism that they are likely to employ in all their decision making.</div>\n  </div>\n</div>\n<div class=\"card card-section bg-dark text-warning shadow\">\n  <div class=\"section card-body mb-0 my-2\">\n    <div class=\"paragraph card-text card-stanza my-5 text-center\">Kids are are protecting a system of education,</div>\n    <div class=\"paragraph card-text card-stanza my-5 text-center\">that did nothing for us.</div>\n  </div>\n</div>\n<div class=\"card card-section bg-dark text-warning shadow\">\n  <div class=\"section card-body mb-0 my-2\">\n    <div class=\"paragraph card-text card-stanza my-5 text-center\">Everything up to high school is working out nicely,</div>\n    <div class=\"paragraph card-text card-stanza my-5 text-center\">it is when the subject divisions and tests that force memorization are introduced that education ends, and pretending begins.</div>\n  </div>\n</div>\n<div class=\"card card-section bg-dark text-warning shadow\">\n  <div class=\"section card-body mb-0 my-2\">\n    <div class=\"paragraph card-text card-stanza my-5 text-center\">Children don't pretend because they want to be actors,</div>\n    <div class=\"paragraph card-text card-stanza my-5 text-center\">but because it is impossible to graduate with a good GPA and still learn for real.</div>\n  </div>\n</div>\n<div class=\"mb-5 section-spacer\">&nbsp;</div>\n<div class=\"card card-section bg-dark text-warning shadow\">\n  <div class=\"section card-body mb-0 my-2\">\n    <div class=\"paragraph card-text card-stanza my-5 text-center\">A teacher would make a fair point here and state that they have to rely on a separate entity to build the curriculum,</div>\n    <div class=\"paragraph card-text card-stanza my-5 text-center\">it does make sense that a teacher should receive help with structuring their lectures and semesters.</div>\n  </div>\n</div>\n<div class=\"card card-section bg-dark text-warning shadow\">\n  <div class=\"section card-body mb-0 my-2\">\n    <div class=\"paragraph card-text card-stanza my-5 text-center\">While they already know much of what they will teach,</div>\n    <div class=\"paragraph card-text card-stanza my-5 text-center\">they still need structure.</div>\n  </div>\n</div>\n<div class=\"card card-section bg-dark text-warning shadow\">\n  <div class=\"section card-body mb-0 my-2\">\n    <div class=\"paragraph card-text card-stanza my-5 text-center\">But, like with that intelligent student that we have to say no to,</div>\n    <div class=\"paragraph card-text card-stanza my-5 text-center\">we must say no to the teachers as well.</div>\n  </div>\n</div>\n<div class=\"card card-section bg-dark text-warning shadow\">\n  <div class=\"section card-body mb-0 my-2\">\n    <div class=\"paragraph card-text card-stanza my-5 text-center\">No one but the student is allowed to structure the material,</div>\n    <div class=\"paragraph card-text card-stanza my-5 text-center\">it must be structured in a way that keeps them going, keeps them interested and passionate about their next steps.</div>\n  </div>\n</div>\n<div class=\"card card-section bg-dark text-warning shadow\">\n  <div class=\"section card-body mb-0 my-2\">\n    <div class=\"paragraph card-text card-stanza my-5 text-center\">The new curriculum should be based on a body of knowledge created by all the worlds students,</div>\n    <div class=\"paragraph card-text card-stanza my-5 text-center\">but the path must honor their uniqueness and existing creativity, must match their existing knowledge, and pace of learning.</div>\n  </div>\n</div>\n<div class=\"mb-5 section-spacer\">&nbsp;</div>\n<div class=\"card card-section bg-dark text-warning shadow\">\n  <div class=\"section card-body mb-0 my-2\">\n    <div class=\"paragraph card-text card-stanza my-5 text-center\">Both politics and education can be greatly improved with interactive visualizations and info-graphics,</div>\n    <div class=\"paragraph card-text card-stanza my-5 text-center\">just like a student should know where their path will take them, a voter should be able to see and comprehend the results of their vote.</div>\n  </div>\n</div>\n<div class=\"card card-section bg-dark text-warning shadow\">\n  <div class=\"section card-body mb-0 my-2\">\n    <div class=\"paragraph card-text card-stanza my-5 text-center\">Students should not be graded, they are still learning life,</div>\n    <div class=\"paragraph card-text card-stanza my-5 text-center\">and in the new schools they will be learning the correct things at the correct pace.</div>\n  </div>\n</div>\n<div class=\"card card-section bg-dark text-warning shadow\">\n  <div class=\"section card-body mb-0 my-2\">\n    <div class=\"paragraph card-text card-stanza my-5 text-center\">But politicians, do need grades once they begin serving,</div>\n    <div class=\"paragraph card-text card-stanza my-5 text-center\">furthermore the voters should base a lot of their decisions on the unique history of the politician's education.</div>\n  </div>\n</div>\n<div class=\"card card-section bg-dark text-warning shadow\">\n  <div class=\"section card-body mb-0 my-2\">\n    <div class=\"paragraph card-text card-stanza my-5 text-center\">A decades long open and ongoing history of curiosities and achievements built by a political candidate in the new school,</div>\n    <div class=\"paragraph card-text card-stanza my-5 text-center\">will prevent liars from entering positions that are meant for the true leaders of future generations.</div>\n  </div>\n</div>\n<div class=\"mb-5 section-spacer\">&nbsp;</div>\n<div class=\"card card-section bg-dark text-warning shadow\">\n  <div class=\"section card-body mb-0 my-2\">\n    <div class=\"paragraph card-text card-stanza my-5 text-center\">A musical scale is just a selection of a few colors that the musician pre-selected, to paint their feelings with,</div>\n    <div class=\"paragraph card-text card-stanza my-5 text-center\">in a song they sat down to compose.</div>\n  </div>\n</div>\n<div class=\"card card-section bg-dark text-warning shadow\">\n  <div class=\"section card-body mb-0 my-2\">\n    <div class=\"paragraph card-text card-stanza my-5 text-center\">A real school,</div>\n    <div class=\"paragraph card-text card-stanza my-5 text-center\">would make you a musician in the course of a day.</div>\n  </div>\n</div>\n<div class=\"card card-section bg-dark text-warning shadow\">\n  <div class=\"section card-body mb-0 my-2\">\n    <div class=\"paragraph card-text card-stanza my-5 text-center\">We are meant to learn for real, knowledge that results in wisdom,</div>\n    <div class=\"paragraph card-text card-stanza my-5 text-center\">and wisdom, that if we choose, will take us to greatness.</div>\n  </div>\n</div>\n<div class=\"card card-section bg-dark text-warning shadow\">\n  <div class=\"section card-body mb-0 my-2\">\n    <div class=\"paragraph card-text card-stanza my-5 text-center\">Let us take no sides when it comes to Future of Humanity,</div>\n    <div class=\"paragraph card-text card-stanza my-5 text-center\">we are but temporary keepers of this world as it belongs to all the future generations - there is no place for in-authenticity here.</div>\n  </div>\n</div>\n<div class=\"card card-section bg-dark text-warning shadow\">\n  <div class=\"section card-body mb-0 my-2\">\n    <div class=\"paragraph card-text card-stanza my-5 text-center\">Let us say no, to make believe education,</div>\n    <div class=\"paragraph card-text card-stanza my-5 text-center\">and let us say no to uneducated actors in roles of self serving leadership.</div>\n  </div>\n</div>\n<div class=\"mb-5 section-spacer\">&nbsp;</div>\n<div class=\"card card-section bg-dark text-warning shadow\">\n  <div class=\"section card-body mb-0 my-2\">\n    <div class=\"paragraph card-text card-stanza my-5 text-center\">Let us honor all the future generations,</div>\n    <div class=\"paragraph card-text card-stanza my-5 text-center\">by creating real schools that provide meaningful and personalized education.</div>\n  </div>\n</div>",
  "print": "<div class=\"section avoid-break-inside\" style=\"padding-bottom: 2rem;\">\n  <div class=\"paragraph\">People are tricked into thinking that music theory is required for making music,</div>\n  <div class=\"paragraph\">and schools deliver music theory as a single indivisible blob.</div>\n</div>\n<div class=\"section avoid-break-inside\" style=\"padding-bottom: 2rem;\">\n  <div class=\"paragraph\">With modern schools focusing on standardized testing,</div>\n  <div class=\"paragraph\">schools trick kids into thinking that memorization is a kind of learning.</div>\n</div>\n<div class=\"section avoid-break-inside\" style=\"padding-bottom: 2rem;\">\n  <div class=\"paragraph\">But memorization is only about keeping the grade point average high enough,</div>\n  <div class=\"paragraph\">for everyone who works for that school to get paid.</div>\n</div>\n<div class=\"section avoid-break-inside\" style=\"padding-bottom: 2rem;\">\n  <div class=\"paragraph\">From the teacher's perspective,</div>\n  <div class=\"paragraph\">they are doing their job, so that they can get paid.</div>\n</div>\n<div class=\"section avoid-break-inside\" style=\"padding-bottom: 2rem;\">\n  <div class=\"paragraph\">From the student's perspective,</div>\n  <div class=\"paragraph\">they are trying to get good grades to get into good college, and get a good job.</div>\n</div>\n<div class=\"section avoid-break-inside\" style=\"padding-bottom: 2rem;\">\n  <div class=\"paragraph\">But, we have to stop and ask,</div>\n  <div class=\"paragraph\">is the school teaching, are the children learning?</div>\n</div>\n<div class=\"section avoid-break-inside\" style=\"padding-bottom: 2rem;\">\n  <br>\n</div>\n<div class=\"section avoid-break-inside\" style=\"padding-bottom: 2rem;\">\n  <div class=\"paragraph\">Children can't tell the schools are bad for them,</div>\n  <div class=\"paragraph\">because they do not know enough about life, and they tend to follow directions.</div>\n</div>\n<div class=\"section avoid-break-inside\" style=\"padding-bottom: 2rem;\">\n  <div class=\"paragraph\">Adults have the same problem with politics,</div>\n  <div class=\"paragraph\">politicians are actors that act just enough to get what they personally want.</div>\n</div>\n<div class=\"section avoid-break-inside\" style=\"padding-bottom: 2rem;\">\n  <div class=\"paragraph\">It only takes a few liars to disable a nation,</div>\n  <div class=\"paragraph\">but what we are seeing, is that here are only few honest people there.</div>\n</div>\n<div class=\"section avoid-break-inside\" style=\"padding-bottom: 2rem;\">\n  <div class=\"paragraph\">From the perspective of the politician, they serve their people,</div>\n  <div class=\"paragraph\">and it is their job to inspire their trust.</div>\n</div>\n<div class=\"section avoid-break-inside\" style=\"padding-bottom: 2rem;\">\n  <div class=\"paragraph\">From a psychologists perspective,</div>\n  <div class=\"paragraph\">that is lying.</div>\n</div>\n<div class=\"section avoid-break-inside\" style=\"padding-bottom: 2rem;\">\n  <div class=\"paragraph\">I wonder where all the psychologists are,</div>\n  <div class=\"paragraph\">with each passing decade their rise to their spotlight becomes more and more critical.</div>\n</div>\n<div class=\"section avoid-break-inside\" style=\"padding-bottom: 2rem;\">\n  <br>\n</div>\n<div class=\"section avoid-break-inside\" style=\"padding-bottom: 2rem;\">\n  <div class=\"paragraph\">Most of us hear \"C Major\", or \"C Minor\",</div>\n  <div class=\"paragraph\">that is just code for saying that we will start with the note C, and then focus on a pattern of notes named Major.</div>\n</div>\n<div class=\"section avoid-break-inside\" style=\"padding-bottom: 2rem;\">\n  <div class=\"paragraph\">A scale is,</div>\n  <div class=\"paragraph\">a pallet of 8 colors that the musician has chosen to compose with.</div>\n</div>\n<div class=\"section avoid-break-inside\" style=\"padding-bottom: 2rem;\">\n  <div class=\"paragraph\">In painting colors are super important,</div>\n  <div class=\"paragraph\">you really want to get the right yellow and orange to paint a sunrise, you have to mix them just right.</div>\n</div>\n<div class=\"section avoid-break-inside\" style=\"padding-bottom: 2rem;\">\n  <div class=\"paragraph\">And just imagine the importance of colors when it comes to painting a portrait,</div>\n  <div class=\"paragraph\">a starting artist may wish for a pre-mixed set of colors for just painting portrait - it sounds as useful as it is.</div>\n</div>\n<div class=\"section avoid-break-inside\" style=\"padding-bottom: 2rem;\">\n  <div class=\"paragraph\">That is what a scale is,</div>\n  <div class=\"paragraph\">a selection of pre-mixed notes so that a person can focus on making melodies.</div>\n</div>\n<div class=\"section avoid-break-inside\" style=\"padding-bottom: 2rem;\">\n  <div class=\"paragraph\">That is the very least we need to take away from music class,</div>\n  <div class=\"paragraph\">that is all it takes to give us the ability to express ourselves with music.</div>\n</div>\n<div class=\"section avoid-break-inside\" style=\"padding-bottom: 2rem;\">\n  <br>\n</div>\n<div class=\"section avoid-break-inside\" style=\"padding-bottom: 2rem;\">\n  <div class=\"paragraph\">If children are forced to take tests, that obscure this gift of self-expression,</div>\n  <div class=\"paragraph\">its simplicity, glory, reward, empowerment, then they are being cheated.</div>\n</div>\n<div class=\"section avoid-break-inside\" style=\"padding-bottom: 2rem;\">\n  <div class=\"paragraph\">If someone was to sit you down at a piano,</div>\n  <div class=\"paragraph\">that had a knob that would let you choose from <span>all the scales<sup>[1]</sup></span> and highlight the keys of a selected scale.</div>\n</div>\n<div class=\"section avoid-break-inside\" style=\"padding-bottom: 2rem;\">\n  <div class=\"paragraph\">You would immediately find a selection of notes that would match your feelings,</div>\n  <div class=\"paragraph\">and begin composing.</div>\n</div>\n<div class=\"section avoid-break-inside\" style=\"padding-bottom: 2rem;\">\n  <div class=\"paragraph\">Listen, this is true, you only get eight keys,</div>\n  <div class=\"paragraph\">you can only go up and down, and at a pace that fits your feeling, there is nothing difficult about this.</div>\n</div>\n<div class=\"section avoid-break-inside\" style=\"padding-bottom: 2rem;\">\n  <div class=\"paragraph\">More than that, you would be playing the soul of the song,</div>\n  <div class=\"paragraph\">with sounds that connect with your feelings.</div>\n</div>\n<div class=\"section avoid-break-inside\" style=\"padding-bottom: 2rem;\">\n  <div class=\"paragraph\">And then you would be called to add another layer,</div>\n  <div class=\"paragraph\">a melody to bring light and wisdom to that world.</div>\n</div>\n<div class=\"section avoid-break-inside\" style=\"padding-bottom: 2rem;\">\n  <br>\n</div>\n<div class=\"section avoid-break-inside\" style=\"padding-bottom: 2rem;\">\n  <div class=\"paragraph\">And again, if we continue tolerating politicians that split their heads in two,</div>\n  <div class=\"paragraph\">one being I must act to appear amazing, and two being I must take care of my own business first - the world will not grow.</div>\n</div>\n<div class=\"section avoid-break-inside\" style=\"padding-bottom: 2rem;\">\n  <div class=\"paragraph\">World's politicians bifurcating is probably to a considerable degree,</div>\n  <div class=\"paragraph\">influenced by the in-authenticity they are forced to participate in schools.</div>\n</div>\n<div class=\"section avoid-break-inside\" style=\"padding-bottom: 2rem;\">\n  <div class=\"paragraph\">We are scaring the children that if they don't memorize,</div>\n  <div class=\"paragraph\">they will be held back and called stupid.</div>\n</div>\n<div class=\"section avoid-break-inside\" style=\"padding-bottom: 2rem;\">\n  <div class=\"paragraph\">We are preventing children from learning,</div>\n  <div class=\"paragraph\">by sending them to memorization and meat processing plants.</div>\n</div>\n<div class=\"section avoid-break-inside\" style=\"padding-bottom: 2rem;\">\n  <div class=\"paragraph\">Humanity will not progress,</div>\n  <div class=\"paragraph\">if this continues.</div>\n</div>\n<div class=\"section avoid-break-inside\" style=\"padding-bottom: 2rem;\">\n  <br>\n</div>\n<div class=\"section avoid-break-inside\" style=\"padding-bottom: 2rem;\">\n  <div class=\"paragraph\">The saddest thing of all is that children think they are learning</div>\n  <div class=\"paragraph\">by passing all the tests, they call it learning, they know it as learning.</div>\n</div>\n<div class=\"section avoid-break-inside\" style=\"padding-bottom: 2rem;\">\n  <div class=\"paragraph\">If memorization is ever taken away from them,</div>\n  <div class=\"paragraph\">they will protest that education is being stolen.</div>\n</div>\n<div class=\"section avoid-break-inside\" style=\"padding-bottom: 2rem;\">\n  <br>\n</div>\n<div class=\"section avoid-break-inside\" style=\"padding-bottom: 2rem;\">\n  <div class=\"paragraph\">Some kids do figure out they can't be creative,</div>\n  <div class=\"paragraph\">and must instead perform this ritual of memorization - I think most of them still think of the ritual as learning.</div>\n</div>\n<div class=\"section avoid-break-inside\" style=\"padding-bottom: 2rem;\">\n  <div class=\"paragraph\">When other kids hear of this ritual sacrifice, they see it as madness,</div>\n  <div class=\"paragraph\">in their minds it sounds like you can't be creative after you get good grades from music class.</div>\n</div>\n<div class=\"section avoid-break-inside\" style=\"padding-bottom: 2rem;\">\n  <div class=\"paragraph\">Children are trying to figure this out,</div>\n  <div class=\"paragraph\">but they can't, they don't have enough experience.</div>\n</div>\n<div class=\"section avoid-break-inside\" style=\"padding-bottom: 2rem;\">\n  <br>\n</div>\n<div class=\"section avoid-break-inside\" style=\"padding-bottom: 2rem;\">\n  <div class=\"paragraph\">To the person who senses that they must sacrifice their unique creativity to get good grades,</div>\n  <div class=\"paragraph\">we must say, \"If you do that, then our world will die.\".</div>\n</div>\n<div class=\"section avoid-break-inside\" style=\"padding-bottom: 2rem;\">\n  <div class=\"paragraph\">What makes a person unique and creative, must be protected and developed,</div>\n  <div class=\"paragraph\">destroying that, with stress, threats of being held back, creates the surface for liars to thrive in.</div>\n</div>\n<div class=\"section avoid-break-inside\" style=\"padding-bottom: 2rem;\">\n  <div class=\"paragraph\">A liar is after all, is a perfectly uneducated and hollow individual,</div>\n  <div class=\"paragraph\">skilled in in getting everything, anyway.</div>\n</div>\n<div class=\"section avoid-break-inside\" style=\"padding-bottom: 2rem;\">\n  <br>\n</div>\n<div class=\"section avoid-break-inside\" style=\"padding-bottom: 2rem;\">\n  <div class=\"paragraph\">To the person who says that learning music or science in school,</div>\n  <div class=\"paragraph\">gives us the ability to be creative.</div>\n</div>\n<div class=\"section avoid-break-inside\" style=\"padding-bottom: 2rem;\">\n  <div class=\"paragraph\">We have to say, no,</div>\n  <div class=\"paragraph\">we have to end this illusion.</div>\n</div>\n<div class=\"section avoid-break-inside\" style=\"padding-bottom: 2rem;\">\n  <div class=\"paragraph\">The illusion of education by means of memorization and mediocrity, and cramming, and pretending,</div>\n  <div class=\"paragraph\">because, again, that only creates a surface for big fat white lice to feed on the future of this world.</div>\n</div>\n<div class=\"section avoid-break-inside\" style=\"padding-bottom: 2rem;\">\n  <div class=\"paragraph\">We have to to explain to this obviously intelligent individual,</div>\n  <div class=\"paragraph\">that school is only holding him back.</div>\n</div>\n<div class=\"section avoid-break-inside\" style=\"padding-bottom: 2rem;\">\n  <div class=\"paragraph\">It will come as shock at first, but that is not such a bad thing,</div>\n  <div class=\"paragraph\">because this shock will awaken a healthy skepticism that they are likely to employ in all their decision making.</div>\n</div>\n<div class=\"section avoid-break-inside\" style=\"padding-bottom: 2rem;\">\n  <div class=\"paragraph\">Kids are are protecting a system of education,</div>\n  <div class=\"paragraph\">that did nothing for us.</div>\n</div>\n<div class=\"section avoid-break-inside\" style=\"padding-bottom: 2rem;\">\n  <div class=\"paragraph\">Everything up to high school is working out nicely,</div>\n  <div class=\"paragraph\">it is when the subject divisions and tests that force memorization are introduced that education ends, and pretending begins.</div>\n</div>\n<div class=\"section avoid-break-inside\" style=\"padding-bottom: 2rem;\">\n  <div class=\"paragraph\">Children don't pretend because they want to be actors,</div>\n  <div class=\"paragraph\">but because it is impossible to graduate with a good GPA and still learn for real.</div>\n</div>\n<div class=\"section avoid-break-inside\" style=\"padding-bottom: 2rem;\">\n  <br>\n</div>\n<div class=\"section avoid-break-inside\" style=\"padding-bottom: 2rem;\">\n  <div class=\"paragraph\">A teacher would make a fair point here and state that they have to rely on a separate entity to build the curriculum,</div>\n  <div class=\"paragraph\">it does make sense that a teacher should receive help with structuring their lectures and semesters.</div>\n</div>\n<div class=\"section avoid-break-inside\" style=\"padding-bottom: 2rem;\">\n  <div class=\"paragraph\">While they already know much of what they will teach,</div>\n  <div class=\"paragraph\">they still need structure.</div>\n</div>\n<div class=\"section avoid-break-inside\" style=\"padding-bottom: 2rem;\">\n  <div class=\"paragraph\">But, like with that intelligent student that we have to say no to,</div>\n  <div class=\"paragraph\">we must say no to the teachers as well.</div>\n</div>\n<div class=\"section avoid-break-inside\" style=\"padding-bottom: 2rem;\">\n  <div class=\"paragraph\">No one but the student is allowed to structure the material,</div>\n  <div class=\"paragraph\">it must be structured in a way that keeps them going, keeps them interested and passionate about their next steps.</div>\n</div>\n<div class=\"section avoid-break-inside\" style=\"padding-bottom: 2rem;\">\n  <div class=\"paragraph\">The new curriculum should be based on a body of knowledge created by all the worlds students,</div>\n  <div class=\"paragraph\">but the path must honor their uniqueness and existing creativity, must match their existing knowledge, and pace of learning.</div>\n</div>\n<div class=\"section avoid-break-inside\" style=\"padding-bottom: 2rem;\">\n  <br>\n</div>\n<div class=\"section avoid-break-inside\" style=\"padding-bottom: 2rem;\">\n  <div class=\"paragraph\">Both politics and education can be greatly improved with interactive visualizations and info-graphics,</div>\n  <div class=\"paragraph\">just like a student should know where their path will take them, a voter should be able to see and comprehend the results of their vote.</div>\n</div>\n<div class=\"section avoid-break-inside\" style=\"padding-bottom: 2rem;\">\n  <div class=\"paragraph\">Students should not be graded, they are still learning life,</div>\n  <div class=\"paragraph\">and in the new schools they will be learning the correct things at the correct pace.</div>\n</div>\n<div class=\"section avoid-break-inside\" style=\"padding-bottom: 2rem;\">\n  <div class=\"paragraph\">But politicians, do need grades once they begin serving,</div>\n  <div class=\"paragraph\">furthermore the voters should base a lot of their decisions on the unique history of the politician's education.</div>\n</div>\n<div class=\"section avoid-break-inside\" style=\"padding-bottom: 2rem;\">\n  <div class=\"paragraph\">A decades long open and ongoing history of curiosities and achievements built by a political candidate in the new school,</div>\n  <div class=\"paragraph\">will prevent liars from entering positions that are meant for the true leaders of future generations.</div>\n</div>\n<div class=\"section avoid-break-inside\" style=\"padding-bottom: 2rem;\">\n  <br>\n</div>\n<div class=\"section avoid-break-inside\" style=\"padding-bottom: 2rem;\">\n  <div class=\"paragraph\">A musical scale is just a selection of a few colors that the musician pre-selected, to paint their feelings with,</div>\n  <div class=\"paragraph\">in a song they sat down to compose.</div>\n</div>\n<div class=\"section avoid-break-inside\" style=\"padding-bottom: 2rem;\">\n  <div class=\"paragraph\">A real school,</div>\n  <div class=\"paragraph\">would make you a musician in the course of a day.</div>\n</div>\n<div class=\"section avoid-break-inside\" style=\"padding-bottom: 2rem;\">\n  <div class=\"paragraph\">We are meant to learn for real, knowledge that results in wisdom,</div>\n  <div class=\"paragraph\">and wisdom, that if we choose, will take us to greatness.</div>\n</div>\n<div class=\"section avoid-break-inside\" style=\"padding-bottom: 2rem;\">\n  <div class=\"paragraph\">Let us take no sides when it comes to Future of Humanity,</div>\n  <div class=\"paragraph\">we are but temporary keepers of this world as it belongs to all the future generations - there is no place for in-authenticity here.</div>\n</div>\n<div class=\"section avoid-break-inside\" style=\"padding-bottom: 2rem;\">\n  <div class=\"paragraph\">Let us say no, to make believe education,</div>\n  <div class=\"paragraph\">and let us say no to uneducated actors in roles of self serving leadership.</div>\n</div>\n<div class=\"section avoid-break-inside\" style=\"padding-bottom: 2rem;\">\n  <br>\n</div>\n<div class=\"section avoid-break-inside\" style=\"padding-bottom: 2rem;\">\n  <div class=\"paragraph\">Let us honor all the future generations,</div>\n  <div class=\"paragraph\">by creating real schools that provide meaningful and personalized education.</div>\n</div>\n<div class=\"break-after\">&nbsp;</div>\n<div>\n  <div class=\"section\" style=\"padding-bottom: 1rem;\">References</div>\n  <div>[1]: https://en.wikipedia.org/wiki/List_of_musical_scales_and_modes</div>\n</div>",
  "text": "People are tricked into thinking that music theory is required for making music,\nand schools deliver music theory as a single indivisible blob.\nWith modern schools focusing on standardized testing,\nschools trick kids into thinking that memorization is a kind of learning.\nBut memorization is only about keeping the grade point average high enough,\nfor everyone who works for that school to get paid.\nFrom the teacher's perspective,\nthey are doing their job, so that they can get paid.\nFrom the student's perspective,\nthey are trying to get good grades to get into good college, and get a good job.\nBut, we have to stop and ask,\nis the school teaching, are the children learning?\n\nChildren can't tell the schools are bad for them,\nbecause they do not know enough about life, and they tend to follow directions.\nAdults have the same problem with politics,\npoliticians are actors that act just enough to get what they personally want.\nIt only takes a few liars to disable a nation,\nbut what we are seeing, is that here are only few honest people there.\nFrom the perspective of the politician, they serve their people,\nand it is their job to inspire their trust.\nFrom a psychologists perspective,\nthat is lying.\nI wonder where all the psychologists are,\nwith each passing decade their rise to their spotlight becomes more and more critical.\n\nMost of us hear \"C Major\", or \"C Minor\",\nthat is just code for saying that we will start with the note C, and then focus on a pattern of notes named Major.\nA scale is,\na pallet of 8 colors that the musician has chosen to compose with.\nIn painting colors are super important,\nyou really want to get the right yellow and orange to paint a sunrise, you have to mix them just right.\nAnd just imagine the importance of colors when it comes to painting a portrait,\na starting artist may wish for a pre-mixed set of colors for just painting portrait - it sounds as useful as it is.\nThat is what a scale is,\na selection of pre-mixed notes so that a person can focus on making melodies.\nThat is the very least we need to take away from music class,\nthat is all it takes to give us the ability to express ourselves with music.\n\nIf children are forced to take tests, that obscure this gift of self-expression,\nits simplicity, glory, reward, empowerment, then they are being cheated.\nIf someone was to sit you down at a piano,\nthat had a knob that would let you choose from all the scales[1] and highlight the keys of a selected scale.\nYou would immediately find a selection of notes that would match your feelings,\nand begin composing.\nListen, this is true, you only get eight keys,\nyou can only go up and down, and at a pace that fits your feeling, there is nothing difficult about this.\nMore than that, you would be playing the soul of the song,\nwith sounds that connect with your feelings.\nAnd then you would be called to add another layer,\na melody to bring light and wisdom to that world.\n\nAnd again, if we continue tolerating politicians that split their heads in two,\none being I must act to appear amazing, and two being I must take care of my own business first - the world will not grow.\nWorld's politicians bifurcating is probably to a considerable degree,\ninfluenced by the in-authenticity they are forced to participate in schools.\nWe are scaring the children that if they don't memorize,\nthey will be held back and called stupid.\nWe are preventing children from learning,\nby sending them to memorization and meat processing plants.\nHumanity will not progress,\nif this continues.\n\nThe saddest thing of all is that children think they are learning\nby passing all the tests, they call it learning, they know it as learning.\nIf memorization is ever taken away from them,\nthey will protest that education is being stolen.\n\nSome kids do figure out they can't be creative,\nand must instead perform this ritual of memorization - I think most of them still think of the ritual as learning.\nWhen other kids hear of this ritual sacrifice, they see it as madness,\nin their minds it sounds like you can't be creative after you get good grades from music class.\nChildren are trying to figure this out,\nbut they can't, they don't have enough experience.\n\nTo the person who senses that they must sacrifice their unique creativity to get good grades,\nwe must say, \"If you do that, then our world will die.\".\nWhat makes a person unique and creative, must be protected and developed,\ndestroying that, with stress, threats of being held back, creates the surface for liars to thrive in.\nA liar is after all, is a perfectly uneducated and hollow individual,\nskilled in in getting everything, anyway.\n\nTo the person who says that learning music or science in school,\ngives us the ability to be creative.\nWe have to say, no,\nwe have to end this illusion.\nThe illusion of education by means of memorization and mediocrity, and cramming, and pretending,\nbecause, again, that only creates a surface for big fat white lice to feed on the future of this world.\nWe have to to explain to this obviously intelligent individual,\nthat school is only holding him back.\nIt will come as shock at first, but that is not such a bad thing,\nbecause this shock will awaken a healthy skepticism that they are likely to employ in all their decision making.\nKids are are protecting a system of education,\nthat did nothing for us.\nEverything up to high school is working out nicely,\nit is when the subject divisions and tests that force memorization are introduced that education ends, and pretending begins.\nChildren don't pretend because they want to be actors,\nbut because it is impossible to graduate with a good GPA and still learn for real.\n\nA teacher would make a fair point here and state that they have to rely on a separate entity to build the curriculum,\nit does make sense that a teacher should receive help with structuring their lectures and semesters.\nWhile they already know much of what they will teach,\nthey still need structure.\nBut, like with that intelligent student that we have to say no to,\nwe must say no to the teachers as well.\nNo one but the student is allowed to structure the material,\nit must be structured in a way that keeps them going, keeps them interested and passionate about their next steps.\nThe new curriculum should be based on a body of knowledge created by all the worlds students,\nbut the path must honor their uniqueness and existing creativity, must match their existing knowledge, and pace of learning.\n\nBoth politics and education can be greatly improved with interactive visualizations and info-graphics,\njust like a student should know where their path will take them, a voter should be able to see and comprehend the results of their vote.\nStudents should not be graded, they are still learning life,\nand in the new schools they will be learning the correct things at the correct pace.\nBut politicians, do need grades once they begin serving,\nfurthermore the voters should base a lot of their decisions on the unique history of the politician's education.\nA decades long open and ongoing history of curiosities and achievements built by a political candidate in the new school,\nwill prevent liars from entering positions that are meant for the true leaders of future generations.\n\nA musical scale is just a selection of a few colors that the musician pre-selected, to paint their feelings with,\nin a song they sat down to compose.\nA real school,\nwould make you a musician in the course of a day.\nWe are meant to learn for real, knowledge that results in wisdom,\nand wisdom, that if we choose, will take us to greatness.\nLet us take no sides when it comes to Future of Humanity,\nwe are but temporary keepers of this world as it belongs to all the future generations - there is no place for in-authenticity here.\nLet us say no, to make believe education,\nand let us say no to uneducated actors in roles of self serving leadership.\n\nLet us honor all the future generations,\nby creating real schools that provide meaningful and personalized education.\n \nReferences\n[1]: https://en.wikipedia.org/wiki/List_of_musical_scales_and_modes",
  "images": [],
  "links": [
    {
      "title": "all the scales",
      "url": "https://en.wikipedia.org/wiki/List_of_musical_scales_and_modes",
      "hostname": "en.wikipedia.org"
    }
  ]
}