{
  "title": "Wisdom",
  "date": "2020-11-29T04:48:13.834Z",
  "image": "poetry-0273-illustration.jpg",
  "audio": "poetry-0273.mp3",
  "artwork": "https://unsplash.com/photos/3eC5n6gHwe8",
  "id": "furkies-purrkies-poetry-0273",
  "attachments": {},
  "guid": "f918b77b-b5f2-47ac-b50e-aaa7dfc15237"
}
