{
  "id": "furkies-purrkies-poetry-0757",
  "title": "A Wiser World And A Better View",
  "date": "2022-03-28T01:05:31.071Z",
  "image": "poetry-0757-illustration.jpg",
  "artwork": "https://unsplash.com/photos/YNestQrvx80",
  "audio": "poetry-0757.mp3",
  "guid": "ed04326b-7fb2-4989-ae01-1c3278eac55c"
}
