{
  "id": "furkies-purrkies-poetry-0711",
  "title": "You Are An Artist",
  "date": "2022-02-09T21:47:03.191Z",
  "image": "poetry-0711-illustration.jpg",
  "artwork": "https://catpea.com",
  "audio": "poetry-0711.mp3",
  "guid": "3731abf9-3867-4170-b5ac-7a04cc9f3d11"
}
