{
  "title": "The School of Meow",
  "date": "2020-07-10T03:26:34.767Z",
  "image": "poetry-0132-illustration.jpg",
  "audio": "poetry-0132.mp3",
  "id": "furkies-purrkies-poetry-0132",
  "attachments": {},
  "guid": "586642eb-2b27-4178-a1ea-4c35d948dc6b"
}
