{
  "name": "furkies-purrkies-poetry-0090",
  "title": "Youniverse Entropie",
  "date": "2020-06-02T23:00:01.894Z",
  "image": "poetry-0090-illustration.jpg",
  "audio": "poetry-0090.mp3",
  "id": "furkies-purrkies-poetry-0090",
  "attachments": {},
  "guid": "6ed6dc40-6a65-4ece-8756-53b7bfc75e31",
  "html": "<div class=\"section\">\n  <p>We have an aversion to being trapped,</p>\n  <p>because of an innate sense of distance that we must travel.</p>\n</div>\n<div class=\"section\">\n  <p>The distance begins the moment we gain self-awareness,</p>\n  <p>the end, does not matter - only the distance does.</p>\n</div>\n<div class=\"section\">\n  <hr>\n</div>\n<div class=\"section\">\n  <p>You are in charge of the direction of your journey,</p>\n  <p>if you let it lead you, it will pull you in all directions.</p>\n</div>\n<div class=\"section\">\n  <p>In letting the life dictate,</p>\n  <p>you will become divided.</p>\n</div>\n<div class=\"section\">\n  <hr>\n</div>\n<div class=\"section\">\n  <p>In doing the dictating,</p>\n  <p>you, will set the aim.</p>\n</div>\n<div class=\"section\">\n  <p>If you let yourself become a leader,</p>\n  <p>you will arrive at a singe destination.</p>\n</div>\n<div class=\"section\">\n  <hr>\n</div>\n<div class=\"section\">\n  <p>In one way, or another,</p>\n  <p>you will, without a doubt, arrive.</p>\n</div>\n<div class=\"section\">\n  <p>The Universe, cannot stop what you start,</p>\n  <p>the Universe will gently let your existence expand.</p>\n</div>\n<div class=\"section\">\n  <hr>\n</div>\n<div class=\"section\">\n  <p>It is tough to be led and expect clarity,</p>\n  <p>there will be too much noise from following.</p>\n</div>\n<div class=\"section\">\n  <p>But in leading, there is no noise,</p>\n  <p>the path is pure, as pure as your imagination.</p>\n</div>\n<div class=\"section\">\n  <hr>\n</div>\n<div class=\"section\">\n  <p>The steps along your journey,</p>\n  <p>extract a price.</p>\n</div>\n<div class=\"section\">\n  <p>The Universe smiles,</p>\n  <p>as you pay your way.</p>\n</div>\n<div class=\"section\">\n  <hr>\n</div>\n<div class=\"section\">\n  <p>You start as a child,</p>\n  <p>and the first step is very difficult.</p>\n</div>\n<div class=\"section\">\n  <p>And the second, and fourth grade,</p>\n  <p>and sixth semester, and eighth book.</p>\n</div>\n<div class=\"section\">\n  <hr>\n</div>\n<div class=\"section\">\n  <p>Your singular ripple,</p>\n  <p>unlike everything else out in the Universe;</p>\n</div>\n<div class=\"section\">\n  <p>Has a breathtaking order dictated from within,</p>\n  <p>not pushed by the chaos, but dictated by your mind.</p>\n</div>\n<div class=\"section\">\n  <hr>\n</div>\n<div class=\"section\">\n  <p>Can you imagine how boring chaos becomes,</p>\n  <p>and can you see how beautiful your perfect ripple.</p>\n</div>\n<div class=\"section\">\n  <p>The edge of chaos that surrounds your beauty,</p>\n  <p>is pushed out by a kind, of Youniverse.</p>\n</div>\n<div class=\"section\">\n  <hr>\n</div>\n<div class=\"section\">\n  <p>Let me be clear,</p>\n  <p>you are not a river, nor a snowball, or a butterfly&apos;s wing.</p>\n</div>\n<div class=\"section\">\n  <p>There is enough of those, already,</p>\n  <p>nothing worthy of you, needs you to follow.</p>\n</div>\n<div class=\"section\">\n  <hr>\n</div>\n<div class=\"section\">\n  <p>It is a Law of The Universe,</p>\n  <p>that no Human should follow.</p>\n</div>\n<div class=\"section\">\n  <p>A river should flows surely to the sea,</p>\n  <p>but a Human, is meant to Lead.</p>\n</div>\n<div class=\"section\">\n  <hr>\n</div>\n<div class=\"section\">\n  <p>It is a simple but forgotten lesson,</p>\n  <p>it is meant to sit next to; Love of Wisdom.</p>\n</div>\n<div class=\"section\">\n  <p>That no human should serve nor follow,</p>\n  <p>non should practice resignation.</p>\n</div>\n<div class=\"section\">\n  <hr>\n</div>\n<div class=\"section\">\n  <p>If you feel weak,</p>\n  <p>it is because you resigned for too long.</p>\n</div>\n<div class=\"section\">\n  <p>And you will have to start in the beginning,</p>\n  <p>and your first step will be very difficult.</p>\n</div>",
  "bootstrap": "<div class=\"card card-section bg-dark text-warning shadow\">\n  <div class=\"section card-body mb-0 my-2\">\n    <div class=\"paragraph card-text card-stanza my-5 text-center\">We have an aversion to being trapped,</div>\n    <div class=\"paragraph card-text card-stanza my-5 text-center\">because of an innate sense of distance that we must travel.</div>\n  </div>\n</div>\n<div class=\"card card-section bg-dark text-warning shadow\">\n  <div class=\"section card-body mb-0 my-2\">\n    <div class=\"paragraph card-text card-stanza my-5 text-center\">The distance begins the moment we gain self-awareness,</div>\n    <div class=\"paragraph card-text card-stanza my-5 text-center\">the end, does not matter - only the distance does.</div>\n  </div>\n</div>\n<div class=\"mb-5 section-spacer\">&nbsp;</div>\n<div class=\"card card-section bg-dark text-warning shadow\">\n  <div class=\"section card-body mb-0 my-2\">\n    <div class=\"paragraph card-text card-stanza my-5 text-center\">You are in charge of the direction of your journey,</div>\n    <div class=\"paragraph card-text card-stanza my-5 text-center\">if you let it lead you, it will pull you in all directions.</div>\n  </div>\n</div>\n<div class=\"card card-section bg-dark text-warning shadow\">\n  <div class=\"section card-body mb-0 my-2\">\n    <div class=\"paragraph card-text card-stanza my-5 text-center\">In letting the life dictate,</div>\n    <div class=\"paragraph card-text card-stanza my-5 text-center\">you will become divided.</div>\n  </div>\n</div>\n<div class=\"mb-5 section-spacer\">&nbsp;</div>\n<div class=\"card card-section bg-dark text-warning shadow\">\n  <div class=\"section card-body mb-0 my-2\">\n    <div class=\"paragraph card-text card-stanza my-5 text-center\">In doing the dictating,</div>\n    <div class=\"paragraph card-text card-stanza my-5 text-center\">you, will set the aim.</div>\n  </div>\n</div>\n<div class=\"card card-section bg-dark text-warning shadow\">\n  <div class=\"section card-body mb-0 my-2\">\n    <div class=\"paragraph card-text card-stanza my-5 text-center\">If you let yourself become a leader,</div>\n    <div class=\"paragraph card-text card-stanza my-5 text-center\">you will arrive at a singe destination.</div>\n  </div>\n</div>\n<div class=\"mb-5 section-spacer\">&nbsp;</div>\n<div class=\"card card-section bg-dark text-warning shadow\">\n  <div class=\"section card-body mb-0 my-2\">\n    <div class=\"paragraph card-text card-stanza my-5 text-center\">In one way, or another,</div>\n    <div class=\"paragraph card-text card-stanza my-5 text-center\">you will, without a doubt, arrive.</div>\n  </div>\n</div>\n<div class=\"card card-section bg-dark text-warning shadow\">\n  <div class=\"section card-body mb-0 my-2\">\n    <div class=\"paragraph card-text card-stanza my-5 text-center\">The Universe, cannot stop what you start,</div>\n    <div class=\"paragraph card-text card-stanza my-5 text-center\">the Universe will gently let your existence expand.</div>\n  </div>\n</div>\n<div class=\"mb-5 section-spacer\">&nbsp;</div>\n<div class=\"card card-section bg-dark text-warning shadow\">\n  <div class=\"section card-body mb-0 my-2\">\n    <div class=\"paragraph card-text card-stanza my-5 text-center\">It is tough to be led and expect clarity,</div>\n    <div class=\"paragraph card-text card-stanza my-5 text-center\">there will be too much noise from following.</div>\n  </div>\n</div>\n<div class=\"card card-section bg-dark text-warning shadow\">\n  <div class=\"section card-body mb-0 my-2\">\n    <div class=\"paragraph card-text card-stanza my-5 text-center\">But in leading, there is no noise,</div>\n    <div class=\"paragraph card-text card-stanza my-5 text-center\">the path is pure, as pure as your imagination.</div>\n  </div>\n</div>\n<div class=\"mb-5 section-spacer\">&nbsp;</div>\n<div class=\"card card-section bg-dark text-warning shadow\">\n  <div class=\"section card-body mb-0 my-2\">\n    <div class=\"paragraph card-text card-stanza my-5 text-center\">The steps along your journey,</div>\n    <div class=\"paragraph card-text card-stanza my-5 text-center\">extract a price.</div>\n  </div>\n</div>\n<div class=\"card card-section bg-dark text-warning shadow\">\n  <div class=\"section card-body mb-0 my-2\">\n    <div class=\"paragraph card-text card-stanza my-5 text-center\">The Universe smiles,</div>\n    <div class=\"paragraph card-text card-stanza my-5 text-center\">as you pay your way.</div>\n  </div>\n</div>\n<div class=\"mb-5 section-spacer\">&nbsp;</div>\n<div class=\"card card-section bg-dark text-warning shadow\">\n  <div class=\"section card-body mb-0 my-2\">\n    <div class=\"paragraph card-text card-stanza my-5 text-center\">You start as a child,</div>\n    <div class=\"paragraph card-text card-stanza my-5 text-center\">and the first step is very difficult.</div>\n  </div>\n</div>\n<div class=\"card card-section bg-dark text-warning shadow\">\n  <div class=\"section card-body mb-0 my-2\">\n    <div class=\"paragraph card-text card-stanza my-5 text-center\">And the second, and fourth grade,</div>\n    <div class=\"paragraph card-text card-stanza my-5 text-center\">and sixth semester, and eighth book.</div>\n  </div>\n</div>\n<div class=\"mb-5 section-spacer\">&nbsp;</div>\n<div class=\"card card-section bg-dark text-warning shadow\">\n  <div class=\"section card-body mb-0 my-2\">\n    <div class=\"paragraph card-text card-stanza my-5 text-center\">Your singular ripple,</div>\n    <div class=\"paragraph card-text card-stanza my-5 text-center\">unlike everything else out in the Universe;</div>\n  </div>\n</div>\n<div class=\"card card-section bg-dark text-warning shadow\">\n  <div class=\"section card-body mb-0 my-2\">\n    <div class=\"paragraph card-text card-stanza my-5 text-center\">Has a breathtaking order dictated from within,</div>\n    <div class=\"paragraph card-text card-stanza my-5 text-center\">not pushed by the chaos, but dictated by your mind.</div>\n  </div>\n</div>\n<div class=\"mb-5 section-spacer\">&nbsp;</div>\n<div class=\"card card-section bg-dark text-warning shadow\">\n  <div class=\"section card-body mb-0 my-2\">\n    <div class=\"paragraph card-text card-stanza my-5 text-center\">Can you imagine how boring chaos becomes,</div>\n    <div class=\"paragraph card-text card-stanza my-5 text-center\">and can you see how beautiful your perfect ripple.</div>\n  </div>\n</div>\n<div class=\"card card-section bg-dark text-warning shadow\">\n  <div class=\"section card-body mb-0 my-2\">\n    <div class=\"paragraph card-text card-stanza my-5 text-center\">The edge of chaos that surrounds your beauty,</div>\n    <div class=\"paragraph card-text card-stanza my-5 text-center\">is pushed out by a kind, of Youniverse.</div>\n  </div>\n</div>\n<div class=\"mb-5 section-spacer\">&nbsp;</div>\n<div class=\"card card-section bg-dark text-warning shadow\">\n  <div class=\"section card-body mb-0 my-2\">\n    <div class=\"paragraph card-text card-stanza my-5 text-center\">Let me be clear,</div>\n    <div class=\"paragraph card-text card-stanza my-5 text-center\">you are not a river, nor a snowball, or a butterfly's wing.</div>\n  </div>\n</div>\n<div class=\"card card-section bg-dark text-warning shadow\">\n  <div class=\"section card-body mb-0 my-2\">\n    <div class=\"paragraph card-text card-stanza my-5 text-center\">There is enough of those, already,</div>\n    <div class=\"paragraph card-text card-stanza my-5 text-center\">nothing worthy of you, needs you to follow.</div>\n  </div>\n</div>\n<div class=\"mb-5 section-spacer\">&nbsp;</div>\n<div class=\"card card-section bg-dark text-warning shadow\">\n  <div class=\"section card-body mb-0 my-2\">\n    <div class=\"paragraph card-text card-stanza my-5 text-center\">It is a Law of The Universe,</div>\n    <div class=\"paragraph card-text card-stanza my-5 text-center\">that no Human should follow.</div>\n  </div>\n</div>\n<div class=\"card card-section bg-dark text-warning shadow\">\n  <div class=\"section card-body mb-0 my-2\">\n    <div class=\"paragraph card-text card-stanza my-5 text-center\">A river should flows surely to the sea,</div>\n    <div class=\"paragraph card-text card-stanza my-5 text-center\">but a Human, is meant to Lead.</div>\n  </div>\n</div>\n<div class=\"mb-5 section-spacer\">&nbsp;</div>\n<div class=\"card card-section bg-dark text-warning shadow\">\n  <div class=\"section card-body mb-0 my-2\">\n    <div class=\"paragraph card-text card-stanza my-5 text-center\">It is a simple but forgotten lesson,</div>\n    <div class=\"paragraph card-text card-stanza my-5 text-center\">it is meant to sit next to; Love of Wisdom.</div>\n  </div>\n</div>\n<div class=\"card card-section bg-dark text-warning shadow\">\n  <div class=\"section card-body mb-0 my-2\">\n    <div class=\"paragraph card-text card-stanza my-5 text-center\">That no human should serve nor follow,</div>\n    <div class=\"paragraph card-text card-stanza my-5 text-center\">non should practice resignation.</div>\n  </div>\n</div>\n<div class=\"mb-5 section-spacer\">&nbsp;</div>\n<div class=\"card card-section bg-dark text-warning shadow\">\n  <div class=\"section card-body mb-0 my-2\">\n    <div class=\"paragraph card-text card-stanza my-5 text-center\">If you feel weak,</div>\n    <div class=\"paragraph card-text card-stanza my-5 text-center\">it is because you resigned for too long.</div>\n  </div>\n</div>\n<div class=\"card card-section bg-dark text-warning shadow\">\n  <div class=\"section card-body mb-0 my-2\">\n    <div class=\"paragraph card-text card-stanza my-5 text-center\">And you will have to start in the beginning,</div>\n    <div class=\"paragraph card-text card-stanza my-5 text-center\">and your first step will be very difficult.</div>\n  </div>\n</div>",
  "print": "<div class=\"section avoid-break-inside\" style=\"padding-bottom: 2rem;\">\n  <div class=\"paragraph\">We have an aversion to being trapped,</div>\n  <div class=\"paragraph\">because of an innate sense of distance that we must travel.</div>\n</div>\n<div class=\"section avoid-break-inside\" style=\"padding-bottom: 2rem;\">\n  <div class=\"paragraph\">The distance begins the moment we gain self-awareness,</div>\n  <div class=\"paragraph\">the end, does not matter - only the distance does.</div>\n</div>\n<div class=\"section avoid-break-inside\" style=\"padding-bottom: 2rem;\">\n  <br>\n</div>\n<div class=\"section avoid-break-inside\" style=\"padding-bottom: 2rem;\">\n  <div class=\"paragraph\">You are in charge of the direction of your journey,</div>\n  <div class=\"paragraph\">if you let it lead you, it will pull you in all directions.</div>\n</div>\n<div class=\"section avoid-break-inside\" style=\"padding-bottom: 2rem;\">\n  <div class=\"paragraph\">In letting the life dictate,</div>\n  <div class=\"paragraph\">you will become divided.</div>\n</div>\n<div class=\"section avoid-break-inside\" style=\"padding-bottom: 2rem;\">\n  <br>\n</div>\n<div class=\"section avoid-break-inside\" style=\"padding-bottom: 2rem;\">\n  <div class=\"paragraph\">In doing the dictating,</div>\n  <div class=\"paragraph\">you, will set the aim.</div>\n</div>\n<div class=\"section avoid-break-inside\" style=\"padding-bottom: 2rem;\">\n  <div class=\"paragraph\">If you let yourself become a leader,</div>\n  <div class=\"paragraph\">you will arrive at a singe destination.</div>\n</div>\n<div class=\"section avoid-break-inside\" style=\"padding-bottom: 2rem;\">\n  <br>\n</div>\n<div class=\"section avoid-break-inside\" style=\"padding-bottom: 2rem;\">\n  <div class=\"paragraph\">In one way, or another,</div>\n  <div class=\"paragraph\">you will, without a doubt, arrive.</div>\n</div>\n<div class=\"section avoid-break-inside\" style=\"padding-bottom: 2rem;\">\n  <div class=\"paragraph\">The Universe, cannot stop what you start,</div>\n  <div class=\"paragraph\">the Universe will gently let your existence expand.</div>\n</div>\n<div class=\"section avoid-break-inside\" style=\"padding-bottom: 2rem;\">\n  <br>\n</div>\n<div class=\"section avoid-break-inside\" style=\"padding-bottom: 2rem;\">\n  <div class=\"paragraph\">It is tough to be led and expect clarity,</div>\n  <div class=\"paragraph\">there will be too much noise from following.</div>\n</div>\n<div class=\"section avoid-break-inside\" style=\"padding-bottom: 2rem;\">\n  <div class=\"paragraph\">But in leading, there is no noise,</div>\n  <div class=\"paragraph\">the path is pure, as pure as your imagination.</div>\n</div>\n<div class=\"section avoid-break-inside\" style=\"padding-bottom: 2rem;\">\n  <br>\n</div>\n<div class=\"section avoid-break-inside\" style=\"padding-bottom: 2rem;\">\n  <div class=\"paragraph\">The steps along your journey,</div>\n  <div class=\"paragraph\">extract a price.</div>\n</div>\n<div class=\"section avoid-break-inside\" style=\"padding-bottom: 2rem;\">\n  <div class=\"paragraph\">The Universe smiles,</div>\n  <div class=\"paragraph\">as you pay your way.</div>\n</div>\n<div class=\"section avoid-break-inside\" style=\"padding-bottom: 2rem;\">\n  <br>\n</div>\n<div class=\"section avoid-break-inside\" style=\"padding-bottom: 2rem;\">\n  <div class=\"paragraph\">You start as a child,</div>\n  <div class=\"paragraph\">and the first step is very difficult.</div>\n</div>\n<div class=\"section avoid-break-inside\" style=\"padding-bottom: 2rem;\">\n  <div class=\"paragraph\">And the second, and fourth grade,</div>\n  <div class=\"paragraph\">and sixth semester, and eighth book.</div>\n</div>\n<div class=\"section avoid-break-inside\" style=\"padding-bottom: 2rem;\">\n  <br>\n</div>\n<div class=\"section avoid-break-inside\" style=\"padding-bottom: 2rem;\">\n  <div class=\"paragraph\">Your singular ripple,</div>\n  <div class=\"paragraph\">unlike everything else out in the Universe;</div>\n</div>\n<div class=\"section avoid-break-inside\" style=\"padding-bottom: 2rem;\">\n  <div class=\"paragraph\">Has a breathtaking order dictated from within,</div>\n  <div class=\"paragraph\">not pushed by the chaos, but dictated by your mind.</div>\n</div>\n<div class=\"section avoid-break-inside\" style=\"padding-bottom: 2rem;\">\n  <br>\n</div>\n<div class=\"section avoid-break-inside\" style=\"padding-bottom: 2rem;\">\n  <div class=\"paragraph\">Can you imagine how boring chaos becomes,</div>\n  <div class=\"paragraph\">and can you see how beautiful your perfect ripple.</div>\n</div>\n<div class=\"section avoid-break-inside\" style=\"padding-bottom: 2rem;\">\n  <div class=\"paragraph\">The edge of chaos that surrounds your beauty,</div>\n  <div class=\"paragraph\">is pushed out by a kind, of Youniverse.</div>\n</div>\n<div class=\"section avoid-break-inside\" style=\"padding-bottom: 2rem;\">\n  <br>\n</div>\n<div class=\"section avoid-break-inside\" style=\"padding-bottom: 2rem;\">\n  <div class=\"paragraph\">Let me be clear,</div>\n  <div class=\"paragraph\">you are not a river, nor a snowball, or a butterfly's wing.</div>\n</div>\n<div class=\"section avoid-break-inside\" style=\"padding-bottom: 2rem;\">\n  <div class=\"paragraph\">There is enough of those, already,</div>\n  <div class=\"paragraph\">nothing worthy of you, needs you to follow.</div>\n</div>\n<div class=\"section avoid-break-inside\" style=\"padding-bottom: 2rem;\">\n  <br>\n</div>\n<div class=\"section avoid-break-inside\" style=\"padding-bottom: 2rem;\">\n  <div class=\"paragraph\">It is a Law of The Universe,</div>\n  <div class=\"paragraph\">that no Human should follow.</div>\n</div>\n<div class=\"section avoid-break-inside\" style=\"padding-bottom: 2rem;\">\n  <div class=\"paragraph\">A river should flows surely to the sea,</div>\n  <div class=\"paragraph\">but a Human, is meant to Lead.</div>\n</div>\n<div class=\"section avoid-break-inside\" style=\"padding-bottom: 2rem;\">\n  <br>\n</div>\n<div class=\"section avoid-break-inside\" style=\"padding-bottom: 2rem;\">\n  <div class=\"paragraph\">It is a simple but forgotten lesson,</div>\n  <div class=\"paragraph\">it is meant to sit next to; Love of Wisdom.</div>\n</div>\n<div class=\"section avoid-break-inside\" style=\"padding-bottom: 2rem;\">\n  <div class=\"paragraph\">That no human should serve nor follow,</div>\n  <div class=\"paragraph\">non should practice resignation.</div>\n</div>\n<div class=\"section avoid-break-inside\" style=\"padding-bottom: 2rem;\">\n  <br>\n</div>\n<div class=\"section avoid-break-inside\" style=\"padding-bottom: 2rem;\">\n  <div class=\"paragraph\">If you feel weak,</div>\n  <div class=\"paragraph\">it is because you resigned for too long.</div>\n</div>\n<div class=\"section avoid-break-inside\" style=\"padding-bottom: 2rem;\">\n  <div class=\"paragraph\">And you will have to start in the beginning,</div>\n  <div class=\"paragraph\">and your first step will be very difficult.</div>\n</div>",
  "text": "We have an aversion to being trapped,\nbecause of an innate sense of distance that we must travel.\nThe distance begins the moment we gain self-awareness,\nthe end, does not matter - only the distance does.\n\nYou are in charge of the direction of your journey,\nif you let it lead you, it will pull you in all directions.\nIn letting the life dictate,\nyou will become divided.\n\nIn doing the dictating,\nyou, will set the aim.\nIf you let yourself become a leader,\nyou will arrive at a singe destination.\n\nIn one way, or another,\nyou will, without a doubt, arrive.\nThe Universe, cannot stop what you start,\nthe Universe will gently let your existence expand.\n\nIt is tough to be led and expect clarity,\nthere will be too much noise from following.\nBut in leading, there is no noise,\nthe path is pure, as pure as your imagination.\n\nThe steps along your journey,\nextract a price.\nThe Universe smiles,\nas you pay your way.\n\nYou start as a child,\nand the first step is very difficult.\nAnd the second, and fourth grade,\nand sixth semester, and eighth book.\n\nYour singular ripple,\nunlike everything else out in the Universe;\nHas a breathtaking order dictated from within,\nnot pushed by the chaos, but dictated by your mind.\n\nCan you imagine how boring chaos becomes,\nand can you see how beautiful your perfect ripple.\nThe edge of chaos that surrounds your beauty,\nis pushed out by a kind, of Youniverse.\n\nLet me be clear,\nyou are not a river, nor a snowball, or a butterfly's wing.\nThere is enough of those, already,\nnothing worthy of you, needs you to follow.\n\nIt is a Law of The Universe,\nthat no Human should follow.\nA river should flows surely to the sea,\nbut a Human, is meant to Lead.\n\nIt is a simple but forgotten lesson,\nit is meant to sit next to; Love of Wisdom.\nThat no human should serve nor follow,\nnon should practice resignation.\n\nIf you feel weak,\nit is because you resigned for too long.\nAnd you will have to start in the beginning,\nand your first step will be very difficult.",
  "images": [],
  "links": []
}