{
  "id": "furkies-purrkies-poetry-0477",
  "title": "For The Love Of Great Expeditions",
  "date": "2021-06-20T19:38:26.261Z",
  "image": "poetry-0477-illustration.jpg",
  "artwork": "https://unsplash.com/photos/gOHBaIl5WRc",
  "audio": "poetry-0477.mp3",
  "guid": "5406c0eb-4d75-44fc-834c-336c373930f5"
}
