{
  "id": "furkies-purrkies-poetry-0898",
  "title": "You Are Not A C Student",
  "date": "2022-08-15T21:37:37.915Z",
  "image": "poetry-0898-illustration.jpg",
  "artwork": "https://unsplash.com/photos/kQ29gDwZhoA",
  "audio": "poetry-0898.mp3",
  "guid": "91fbbaab-de22-4275-b259-6ac4e184c7ad"
}
