{
  "id": "furkies-purrkies-poetry-0914",
  "title": "Furkies Purrkies Poetry 0914",
  "date": "2022-09-01T02:07:12.362Z",
  "image": "poetry-0914-illustration.jpg",
  "artwork": "https://example.com",
  "audio": "poetry-0914.mp3"
}