{
  "name": "furkies-purrkies-poetry-0914",
  "id": "furkies-purrkies-poetry-0914",
  "title": "Cultural Divisions Are Imaginary",
  "date": "2022-09-01T02:07:12.362Z",
  "image": "poetry-0914-illustration.jpg",
  "artwork": "https://unsplash.com/photos/jA43nQL8ENE",
  "audio": "poetry-0914.mp3",
  "guid": "d6290c64-d65b-4d2d-86ad-64c77101a3f1",
  "html": "<div class=\"section\">\n  <p>No child belongs to cult or nation,<br>we are each a stellar creation.</p>\n</div>\n<div class=\"section\">\n  <hr>\n</div>\n<div class=\"section\">\n  <p>Humanity may need to invent a better culture,<br>one that aims to inspire and nurture.</p>\n</div>\n<div class=\"section\">\n  <hr>\n</div>\n<div class=\"section\">\n  <p>All human beings are extremely smart,<br>and the building of our culture is art.</p>\n  <p>Not only do we need to architect,<br>but take create care to protect.</p>\n  <p>No one should be manipulated<br>only wisdom can be advocated.</p>\n  <p>The world has now had its fill of creepy and ghoul,<br>culture is neither a tether nor a mind warping tool.</p>\n  <p>To be tricked by a view,<br>that what we are born into.</p>\n  <p>Is unfair and cruel,<br>a human being - is not a tool.</p>\n</div>\n<div class=\"section\">\n  <hr>\n</div>\n<div class=\"section\">\n  <p>An yet, somehow, we all agree,<br>not to see.</p>\n  <p>For one, war is not repair,<br>and it is always unfair.</p>\n  <p>And borders are arbitrary,<br>pretty imaginary.</p>\n  <p>And cults are an old trick,<br>that feed like a tick.</p>\n  <p>And poverty is vile,<br>a form of exile.</p>\n</div>\n<div class=\"section\">\n  <hr>\n</div>\n<div class=\"section\">\n  <p>We waste time to complain,<br>but the solution is very plain.</p>\n  <p>It may not even need a mention,<br>as it is just bad idea prevention.</p>\n  <p>We grow up knowing this,<br>it is something we can’t dismiss.</p>\n</div>\n<div class=\"section\">\n  <hr>\n</div>\n<div class=\"section\">\n  <p>A child raised poor,<br>can barely endure.</p>\n  <p>Without generational wealth,<br>they can’t even afford health.</p>\n  <p>We can’t just pretend,<br>this is something we must all amend.</p>\n  <p>See, we simply can’t invent things,<br>that clip Humanity’s wings.</p>\n  <p>And the children that can afford life,<br>will need a real education to avoid strife.</p>\n  <p>What we have today,<br>is a mix of fantasies and dismay.</p>\n  <p>Real school teaches dignity,<br>by granting all the students great ability.</p>\n  <p>Schools are not to preach,<br>we build them to teach.</p>\n</div>\n<div class=\"section\">\n  <hr>\n</div>\n<div class=\"section\">\n  <p>The future generations are not like us,<br>they wont get a pass.</p>\n  <p>They must fix climate and end war,<br>and learn Earth is a thing we must all care for.</p>\n  <p>We must stop trying to take, take, take,<br>as we have fewer and fewer mistakes that we can make.</p>\n</div>\n<div class=\"section\">\n  <hr>\n</div>\n<div class=\"section\">\n  <p>The fools hope to play tricks,<br>with indoctrination and neutered politics.</p>\n  <p>But we must never forget real education,<br>and make it better for each new generation.</p>\n  <p>Each of us should aim to become great,<br>we must abandon bad ideas, war, and hate.</p>\n</div>\n<div class=\"section\">\n  <hr>\n</div>\n<div class=\"section\">\n  <p>Human problems need repair,<br>now is the time to learn to rise and care.</p>\n</div>",
  "bootstrap": "<div class=\"card card-section bg-dark text-warning shadow\">\n  <div class=\"section card-body mb-0 my-2\">\n    <div class=\"paragraph card-text card-stanza my-5 text-center\">No child belongs to cult or nation,<br>we are each a stellar creation.</div>\n  </div>\n</div>\n<div class=\"mb-5 section-spacer\">&nbsp;</div>\n<div class=\"card card-section bg-dark text-warning shadow\">\n  <div class=\"section card-body mb-0 my-2\">\n    <div class=\"paragraph card-text card-stanza my-5 text-center\">Humanity may need to invent a better culture,<br>one that aims to inspire and nurture.</div>\n  </div>\n</div>\n<div class=\"mb-5 section-spacer\">&nbsp;</div>\n<div class=\"card card-section bg-dark text-warning shadow\">\n  <div class=\"section card-body mb-0 my-2\">\n    <div class=\"paragraph card-text card-stanza my-5 text-center\">All human beings are extremely smart,<br>and the building of our culture is art.</div>\n    <div class=\"paragraph card-text card-stanza my-5 text-center\">Not only do we need to architect,<br>but take create care to protect.</div>\n    <div class=\"paragraph card-text card-stanza my-5 text-center\">No one should be manipulated<br>only wisdom can be advocated.</div>\n    <div class=\"paragraph card-text card-stanza my-5 text-center\">The world has now had its fill of creepy and ghoul,<br>culture is neither a tether nor a mind warping tool.</div>\n    <div class=\"paragraph card-text card-stanza my-5 text-center\">To be tricked by a view,<br>that what we are born into.</div>\n    <div class=\"paragraph card-text card-stanza my-5 text-center\">Is unfair and cruel,<br>a human being - is not a tool.</div>\n  </div>\n</div>\n<div class=\"mb-5 section-spacer\">&nbsp;</div>\n<div class=\"card card-section bg-dark text-warning shadow\">\n  <div class=\"section card-body mb-0 my-2\">\n    <div class=\"paragraph card-text card-stanza my-5 text-center\">An yet, somehow, we all agree,<br>not to see.</div>\n    <div class=\"paragraph card-text card-stanza my-5 text-center\">For one, war is not repair,<br>and it is always unfair.</div>\n    <div class=\"paragraph card-text card-stanza my-5 text-center\">And borders are arbitrary,<br>pretty imaginary.</div>\n    <div class=\"paragraph card-text card-stanza my-5 text-center\">And cults are an old trick,<br>that feed like a tick.</div>\n    <div class=\"paragraph card-text card-stanza my-5 text-center\">And poverty is vile,<br>a form of exile.</div>\n  </div>\n</div>\n<div class=\"mb-5 section-spacer\">&nbsp;</div>\n<div class=\"card card-section bg-dark text-warning shadow\">\n  <div class=\"section card-body mb-0 my-2\">\n    <div class=\"paragraph card-text card-stanza my-5 text-center\">We waste time to complain,<br>but the solution is very plain.</div>\n    <div class=\"paragraph card-text card-stanza my-5 text-center\">It may not even need a mention,<br>as it is just bad idea prevention.</div>\n    <div class=\"paragraph card-text card-stanza my-5 text-center\">We grow up knowing this,<br>it is something we can’t dismiss.</div>\n  </div>\n</div>\n<div class=\"mb-5 section-spacer\">&nbsp;</div>\n<div class=\"card card-section bg-dark text-warning shadow\">\n  <div class=\"section card-body mb-0 my-2\">\n    <div class=\"paragraph card-text card-stanza my-5 text-center\">A child raised poor,<br>can barely endure.</div>\n    <div class=\"paragraph card-text card-stanza my-5 text-center\">Without generational wealth,<br>they can’t even afford health.</div>\n    <div class=\"paragraph card-text card-stanza my-5 text-center\">We can’t just pretend,<br>this is something we must all amend.</div>\n    <div class=\"paragraph card-text card-stanza my-5 text-center\">See, we simply can’t invent things,<br>that clip Humanity’s wings.</div>\n    <div class=\"paragraph card-text card-stanza my-5 text-center\">And the children that can afford life,<br>will need a real education to avoid strife.</div>\n    <div class=\"paragraph card-text card-stanza my-5 text-center\">What we have today,<br>is a mix of fantasies and dismay.</div>\n    <div class=\"paragraph card-text card-stanza my-5 text-center\">Real school teaches dignity,<br>by granting all the students great ability.</div>\n    <div class=\"paragraph card-text card-stanza my-5 text-center\">Schools are not to preach,<br>we build them to teach.</div>\n  </div>\n</div>\n<div class=\"mb-5 section-spacer\">&nbsp;</div>\n<div class=\"card card-section bg-dark text-warning shadow\">\n  <div class=\"section card-body mb-0 my-2\">\n    <div class=\"paragraph card-text card-stanza my-5 text-center\">The future generations are not like us,<br>they wont get a pass.</div>\n    <div class=\"paragraph card-text card-stanza my-5 text-center\">They must fix climate and end war,<br>and learn Earth is a thing we must all care for.</div>\n    <div class=\"paragraph card-text card-stanza my-5 text-center\">We must stop trying to take, take, take,<br>as we have fewer and fewer mistakes that we can make.</div>\n  </div>\n</div>\n<div class=\"mb-5 section-spacer\">&nbsp;</div>\n<div class=\"card card-section bg-dark text-warning shadow\">\n  <div class=\"section card-body mb-0 my-2\">\n    <div class=\"paragraph card-text card-stanza my-5 text-center\">The fools hope to play tricks,<br>with indoctrination and neutered politics.</div>\n    <div class=\"paragraph card-text card-stanza my-5 text-center\">But we must never forget real education,<br>and make it better for each new generation.</div>\n    <div class=\"paragraph card-text card-stanza my-5 text-center\">Each of us should aim to become great,<br>we must abandon bad ideas, war, and hate.</div>\n  </div>\n</div>\n<div class=\"mb-5 section-spacer\">&nbsp;</div>\n<div class=\"card card-section bg-dark text-warning shadow\">\n  <div class=\"section card-body mb-0 my-2\">\n    <div class=\"paragraph card-text card-stanza my-5 text-center\">Human problems need repair,<br>now is the time to learn to rise and care.</div>\n  </div>\n</div>",
  "print": "<div class=\"section avoid-break-inside\" style=\"padding-bottom: 2rem;\">\n  <div class=\"paragraph\">No child belongs to cult or nation,<br>we are each a stellar creation.</div>\n</div>\n<div class=\"section avoid-break-inside\" style=\"padding-bottom: 2rem;\">\n  <br>\n</div>\n<div class=\"section avoid-break-inside\" style=\"padding-bottom: 2rem;\">\n  <div class=\"paragraph\">Humanity may need to invent a better culture,<br>one that aims to inspire and nurture.</div>\n</div>\n<div class=\"section avoid-break-inside\" style=\"padding-bottom: 2rem;\">\n  <br>\n</div>\n<div class=\"section avoid-break-inside\" style=\"padding-bottom: 2rem;\">\n  <div class=\"paragraph\">All human beings are extremely smart,<br>and the building of our culture is art.</div>\n  <div class=\"paragraph\">Not only do we need to architect,<br>but take create care to protect.</div>\n  <div class=\"paragraph\">No one should be manipulated<br>only wisdom can be advocated.</div>\n  <div class=\"paragraph\">The world has now had its fill of creepy and ghoul,<br>culture is neither a tether nor a mind warping tool.</div>\n  <div class=\"paragraph\">To be tricked by a view,<br>that what we are born into.</div>\n  <div class=\"paragraph\">Is unfair and cruel,<br>a human being - is not a tool.</div>\n</div>\n<div class=\"section avoid-break-inside\" style=\"padding-bottom: 2rem;\">\n  <br>\n</div>\n<div class=\"section avoid-break-inside\" style=\"padding-bottom: 2rem;\">\n  <div class=\"paragraph\">An yet, somehow, we all agree,<br>not to see.</div>\n  <div class=\"paragraph\">For one, war is not repair,<br>and it is always unfair.</div>\n  <div class=\"paragraph\">And borders are arbitrary,<br>pretty imaginary.</div>\n  <div class=\"paragraph\">And cults are an old trick,<br>that feed like a tick.</div>\n  <div class=\"paragraph\">And poverty is vile,<br>a form of exile.</div>\n</div>\n<div class=\"section avoid-break-inside\" style=\"padding-bottom: 2rem;\">\n  <br>\n</div>\n<div class=\"section avoid-break-inside\" style=\"padding-bottom: 2rem;\">\n  <div class=\"paragraph\">We waste time to complain,<br>but the solution is very plain.</div>\n  <div class=\"paragraph\">It may not even need a mention,<br>as it is just bad idea prevention.</div>\n  <div class=\"paragraph\">We grow up knowing this,<br>it is something we can’t dismiss.</div>\n</div>\n<div class=\"section avoid-break-inside\" style=\"padding-bottom: 2rem;\">\n  <br>\n</div>\n<div class=\"section avoid-break-inside\" style=\"padding-bottom: 2rem;\">\n  <div class=\"paragraph\">A child raised poor,<br>can barely endure.</div>\n  <div class=\"paragraph\">Without generational wealth,<br>they can’t even afford health.</div>\n  <div class=\"paragraph\">We can’t just pretend,<br>this is something we must all amend.</div>\n  <div class=\"paragraph\">See, we simply can’t invent things,<br>that clip Humanity’s wings.</div>\n  <div class=\"paragraph\">And the children that can afford life,<br>will need a real education to avoid strife.</div>\n  <div class=\"paragraph\">What we have today,<br>is a mix of fantasies and dismay.</div>\n  <div class=\"paragraph\">Real school teaches dignity,<br>by granting all the students great ability.</div>\n  <div class=\"paragraph\">Schools are not to preach,<br>we build them to teach.</div>\n</div>\n<div class=\"section avoid-break-inside\" style=\"padding-bottom: 2rem;\">\n  <br>\n</div>\n<div class=\"section avoid-break-inside\" style=\"padding-bottom: 2rem;\">\n  <div class=\"paragraph\">The future generations are not like us,<br>they wont get a pass.</div>\n  <div class=\"paragraph\">They must fix climate and end war,<br>and learn Earth is a thing we must all care for.</div>\n  <div class=\"paragraph\">We must stop trying to take, take, take,<br>as we have fewer and fewer mistakes that we can make.</div>\n</div>\n<div class=\"section avoid-break-inside\" style=\"padding-bottom: 2rem;\">\n  <br>\n</div>\n<div class=\"section avoid-break-inside\" style=\"padding-bottom: 2rem;\">\n  <div class=\"paragraph\">The fools hope to play tricks,<br>with indoctrination and neutered politics.</div>\n  <div class=\"paragraph\">But we must never forget real education,<br>and make it better for each new generation.</div>\n  <div class=\"paragraph\">Each of us should aim to become great,<br>we must abandon bad ideas, war, and hate.</div>\n</div>\n<div class=\"section avoid-break-inside\" style=\"padding-bottom: 2rem;\">\n  <br>\n</div>\n<div class=\"section avoid-break-inside\" style=\"padding-bottom: 2rem;\">\n  <div class=\"paragraph\">Human problems need repair,<br>now is the time to learn to rise and care.</div>\n</div>",
  "text": "No child belongs to cult or nation,\nwe are each a stellar creation.\n\nHumanity may need to invent a better culture,\none that aims to inspire and nurture.\n\nAll human beings are extremely smart,\nand the building of our culture is art.\nNot only do we need to architect,\nbut take create care to protect.\nNo one should be manipulated\nonly wisdom can be advocated.\nThe world has now had its fill of creepy and ghoul,\nculture is neither a tether nor a mind warping tool.\nTo be tricked by a view,\nthat what we are born into.\nIs unfair and cruel,\na human being - is not a tool.\n\nAn yet, somehow, we all agree,\nnot to see.\nFor one, war is not repair,\nand it is always unfair.\nAnd borders are arbitrary,\npretty imaginary.\nAnd cults are an old trick,\nthat feed like a tick.\nAnd poverty is vile,\na form of exile.\n\nWe waste time to complain,\nbut the solution is very plain.\nIt may not even need a mention,\nas it is just bad idea prevention.\nWe grow up knowing this,\nit is something we can’t dismiss.\n\nA child raised poor,\ncan barely endure.\nWithout generational wealth,\nthey can’t even afford health.\nWe can’t just pretend,\nthis is something we must all amend.\nSee, we simply can’t invent things,\nthat clip Humanity’s wings.\nAnd the children that can afford life,\nwill need a real education to avoid strife.\nWhat we have today,\nis a mix of fantasies and dismay.\nReal school teaches dignity,\nby granting all the students great ability.\nSchools are not to preach,\nwe build them to teach.\n\nThe future generations are not like us,\nthey wont get a pass.\nThey must fix climate and end war,\nand learn Earth is a thing we must all care for.\nWe must stop trying to take, take, take,\nas we have fewer and fewer mistakes that we can make.\n\nThe fools hope to play tricks,\nwith indoctrination and neutered politics.\nBut we must never forget real education,\nand make it better for each new generation.\nEach of us should aim to become great,\nwe must abandon bad ideas, war, and hate.\n\nHuman problems need repair,\nnow is the time to learn to rise and care.",
  "images": [],
  "links": []
}