{
  "title": "Believe In Yourself",
  "date": "2021-01-02T04:16:47.356Z",
  "image": "poetry-0307-illustration.jpg",
  "audio": "poetry-0307.mp3",
  "artwork": "https://unsplash.com/photos/JOYtT8_Y7c8",
  "id": "furkies-purrkies-poetry-0307",
  "attachments": {},
  "guid": "82a937f3-7b19-4bb5-8789-c7a61094151f"
}
