{
  "name": "furkies-purrkies-poetry-0734",
  "id": "furkies-purrkies-poetry-0734",
  "title": "The Magic Of Painting",
  "date": "2022-03-04T20:54:27.638Z",
  "image": "poetry-0734-illustration.jpg",
  "artwork": "https://catpea.com",
  "audio": "poetry-0734.mp3",
  "guid": "d6839507-0918-40fa-be8e-63eff1a357bf",
  "html": "<div class=\"section\">\n  <p>Paintings have a truly unique power,<br>they can and should beautifully present things...</p>\n  <p>That do not normally occur in the real world,<br>that you can't just snap a picture of.</p>\n</div>\n<div class=\"section\">\n  <hr>\n</div>\n<div class=\"section\">\n  <p>I am currently working on a group of silly animals,<br>who are not in proportion to each other.</p>\n  <p>They have proportions,<br>that make a person smile.</p>\n  <p>More over,<br>I think I may dress them up, for adventure.</p>\n</div>\n<div class=\"section\">\n  <hr>\n</div>\n<div class=\"section\">\n  <p>In a portrait I am hoping to somewhat finish today,<br>I am creating a crown of butterflies.</p>\n  <p>Where butterflies chose,<br>to land in a fairie's hair.</p>\n</div>\n<div class=\"section\">\n  <hr>\n</div>\n<div class=\"section\">\n  <p>Photography wouldn't really work here,<br>nor would digital photo composition.</p>\n  <p>As the butterflies for example,<br>have to create a song together.</p>\n  <p>Splicing photos together can only go so far,<br>here the butterflies will need to shine bright and look cheerful.</p>\n  <p>They can't look flat, they have to cast correct shadows,<br>and somewhat surprisingly they can't just be a random selection of butterflies.</p>\n  <p>They need to create a color theme,<br>privately I can think of two themes Monarch Orange, and Dragonfly Iridescence.</p>\n  <p>I just tested random butterflies,<br>and they created confusion - it is great to confuse birds...</p>\n  <p>But not so good,<br>for a Fairie's Crown which is meant to be pretty.</p>\n</div>\n<div class=\"section\">\n  <hr>\n</div>\n<div class=\"section\">\n  <p>And while photography and photo manipulation is an art,<br>once you need to give your butterflies correct shadows...</p>\n  <p>You are painting,<br>I don't care if it is called retouching - because what it really is, is digital painting.</p>\n</div>\n<div class=\"section\">\n  <hr>\n</div>\n<div class=\"section\">\n  <p>While dressing up a cat for adventure,<br>is an amazing project, especially is your cat has a super short fuse...</p>\n  <p>It is probably better to take a photo of the kitty,<br>who will no doubt be furiously trying to figure out what the heck you are up to.</p>\n  <p>And then dress up a doll,<br>and splice the pictures together.</p>\n  <p>At which point, one will have more artistic freedom,<br>when just painting the clothes on, using photos as reference.</p>\n</div>\n<div class=\"section\">\n  <hr>\n</div>\n<div class=\"section\">\n  <p>It would be unfair to burden a clever photographer,<br>with so much custom alterations.</p>\n  <p>That is where a digital painter,<br>comes in.</p>\n</div>\n<div class=\"section\">\n  <hr>\n</div>\n<div class=\"section\">\n  <p>So, digital photography, can go far,<br>but...it gets harder and harder as you go deeper and deeper into the worlds of fantasy.</p>\n  <p>Digital painting, on the other hand, especially when using digital photography as reference,<br>makes the entry into the worlds of fantasy fun and easy.</p>\n</div>\n<div class=\"section\">\n  <hr>\n</div>\n<div class=\"section\">\n  <p>Moreover, your painting will become much better if you take a moment,<br>to remember; to paint <strong>beyond</strong> what digital photography and editing is capable of.</p>\n  <p>You want photographers to look at your painting and and say,<br>\"Well, shucks I couldn't take a photo like that in a million years.\"</p>\n  <p>Let the world of photography belong to photographers,<br>as to you - the digital painter - belongs the world... of fantasy.</p>\n</div>",
  "bootstrap": "<div class=\"card card-section bg-dark text-warning shadow\">\n  <div class=\"section card-body mb-0 my-2\">\n    <div class=\"paragraph card-text card-stanza my-5 text-center\">Paintings have a truly unique power,<br>they can and should beautifully present things...</div>\n    <div class=\"paragraph card-text card-stanza my-5 text-center\">That do not normally occur in the real world,<br>that you can't just snap a picture of.</div>\n  </div>\n</div>\n<div class=\"mb-5 section-spacer\">&nbsp;</div>\n<div class=\"card card-section bg-dark text-warning shadow\">\n  <div class=\"section card-body mb-0 my-2\">\n    <div class=\"paragraph card-text card-stanza my-5 text-center\">I am currently working on a group of silly animals,<br>who are not in proportion to each other.</div>\n    <div class=\"paragraph card-text card-stanza my-5 text-center\">They have proportions,<br>that make a person smile.</div>\n    <div class=\"paragraph card-text card-stanza my-5 text-center\">More over,<br>I think I may dress them up, for adventure.</div>\n  </div>\n</div>\n<div class=\"mb-5 section-spacer\">&nbsp;</div>\n<div class=\"card card-section bg-dark text-warning shadow\">\n  <div class=\"section card-body mb-0 my-2\">\n    <div class=\"paragraph card-text card-stanza my-5 text-center\">In a portrait I am hoping to somewhat finish today,<br>I am creating a crown of butterflies.</div>\n    <div class=\"paragraph card-text card-stanza my-5 text-center\">Where butterflies chose,<br>to land in a fairie's hair.</div>\n  </div>\n</div>\n<div class=\"mb-5 section-spacer\">&nbsp;</div>\n<div class=\"card card-section bg-dark text-warning shadow\">\n  <div class=\"section card-body mb-0 my-2\">\n    <div class=\"paragraph card-text card-stanza my-5 text-center\">Photography wouldn't really work here,<br>nor would digital photo composition.</div>\n    <div class=\"paragraph card-text card-stanza my-5 text-center\">As the butterflies for example,<br>have to create a song together.</div>\n    <div class=\"paragraph card-text card-stanza my-5 text-center\">Splicing photos together can only go so far,<br>here the butterflies will need to shine bright and look cheerful.</div>\n    <div class=\"paragraph card-text card-stanza my-5 text-center\">They can't look flat, they have to cast correct shadows,<br>and somewhat surprisingly they can't just be a random selection of butterflies.</div>\n    <div class=\"paragraph card-text card-stanza my-5 text-center\">They need to create a color theme,<br>privately I can think of two themes Monarch Orange, and Dragonfly Iridescence.</div>\n    <div class=\"paragraph card-text card-stanza my-5 text-center\">I just tested random butterflies,<br>and they created confusion - it is great to confuse birds...</div>\n    <div class=\"paragraph card-text card-stanza my-5 text-center\">But not so good,<br>for a Fairie's Crown which is meant to be pretty.</div>\n  </div>\n</div>\n<div class=\"mb-5 section-spacer\">&nbsp;</div>\n<div class=\"card card-section bg-dark text-warning shadow\">\n  <div class=\"section card-body mb-0 my-2\">\n    <div class=\"paragraph card-text card-stanza my-5 text-center\">And while photography and photo manipulation is an art,<br>once you need to give your butterflies correct shadows...</div>\n    <div class=\"paragraph card-text card-stanza my-5 text-center\">You are painting,<br>I don't care if it is called retouching - because what it really is, is digital painting.</div>\n  </div>\n</div>\n<div class=\"mb-5 section-spacer\">&nbsp;</div>\n<div class=\"card card-section bg-dark text-warning shadow\">\n  <div class=\"section card-body mb-0 my-2\">\n    <div class=\"paragraph card-text card-stanza my-5 text-center\">While dressing up a cat for adventure,<br>is an amazing project, especially is your cat has a super short fuse...</div>\n    <div class=\"paragraph card-text card-stanza my-5 text-center\">It is probably better to take a photo of the kitty,<br>who will no doubt be furiously trying to figure out what the heck you are up to.</div>\n    <div class=\"paragraph card-text card-stanza my-5 text-center\">And then dress up a doll,<br>and splice the pictures together.</div>\n    <div class=\"paragraph card-text card-stanza my-5 text-center\">At which point, one will have more artistic freedom,<br>when just painting the clothes on, using photos as reference.</div>\n  </div>\n</div>\n<div class=\"mb-5 section-spacer\">&nbsp;</div>\n<div class=\"card card-section bg-dark text-warning shadow\">\n  <div class=\"section card-body mb-0 my-2\">\n    <div class=\"paragraph card-text card-stanza my-5 text-center\">It would be unfair to burden a clever photographer,<br>with so much custom alterations.</div>\n    <div class=\"paragraph card-text card-stanza my-5 text-center\">That is where a digital painter,<br>comes in.</div>\n  </div>\n</div>\n<div class=\"mb-5 section-spacer\">&nbsp;</div>\n<div class=\"card card-section bg-dark text-warning shadow\">\n  <div class=\"section card-body mb-0 my-2\">\n    <div class=\"paragraph card-text card-stanza my-5 text-center\">So, digital photography, can go far,<br>but...it gets harder and harder as you go deeper and deeper into the worlds of fantasy.</div>\n    <div class=\"paragraph card-text card-stanza my-5 text-center\">Digital painting, on the other hand, especially when using digital photography as reference,<br>makes the entry into the worlds of fantasy fun and easy.</div>\n  </div>\n</div>\n<div class=\"mb-5 section-spacer\">&nbsp;</div>\n<div class=\"card card-section bg-dark text-warning shadow\">\n  <div class=\"section card-body mb-0 my-2\">\n    <div class=\"paragraph card-text card-stanza my-5 text-center\">Moreover, your painting will become much better if you take a moment,<br>to remember; to paint <strong>beyond</strong> what digital photography and editing is capable of.</div>\n    <div class=\"paragraph card-text card-stanza my-5 text-center\">You want photographers to look at your painting and and say,<br>\"Well, shucks I couldn't take a photo like that in a million years.\"</div>\n    <div class=\"paragraph card-text card-stanza my-5 text-center\">Let the world of photography belong to photographers,<br>as to you - the digital painter - belongs the world... of fantasy.</div>\n  </div>\n</div>",
  "print": "<div class=\"section avoid-break-inside\" style=\"padding-bottom: 2rem;\">\n  <div class=\"paragraph\">Paintings have a truly unique power,<br>they can and should beautifully present things...</div>\n  <div class=\"paragraph\">That do not normally occur in the real world,<br>that you can't just snap a picture of.</div>\n</div>\n<div class=\"section avoid-break-inside\" style=\"padding-bottom: 2rem;\">\n  <br>\n</div>\n<div class=\"section avoid-break-inside\" style=\"padding-bottom: 2rem;\">\n  <div class=\"paragraph\">I am currently working on a group of silly animals,<br>who are not in proportion to each other.</div>\n  <div class=\"paragraph\">They have proportions,<br>that make a person smile.</div>\n  <div class=\"paragraph\">More over,<br>I think I may dress them up, for adventure.</div>\n</div>\n<div class=\"section avoid-break-inside\" style=\"padding-bottom: 2rem;\">\n  <br>\n</div>\n<div class=\"section avoid-break-inside\" style=\"padding-bottom: 2rem;\">\n  <div class=\"paragraph\">In a portrait I am hoping to somewhat finish today,<br>I am creating a crown of butterflies.</div>\n  <div class=\"paragraph\">Where butterflies chose,<br>to land in a fairie's hair.</div>\n</div>\n<div class=\"section avoid-break-inside\" style=\"padding-bottom: 2rem;\">\n  <br>\n</div>\n<div class=\"section avoid-break-inside\" style=\"padding-bottom: 2rem;\">\n  <div class=\"paragraph\">Photography wouldn't really work here,<br>nor would digital photo composition.</div>\n  <div class=\"paragraph\">As the butterflies for example,<br>have to create a song together.</div>\n  <div class=\"paragraph\">Splicing photos together can only go so far,<br>here the butterflies will need to shine bright and look cheerful.</div>\n  <div class=\"paragraph\">They can't look flat, they have to cast correct shadows,<br>and somewhat surprisingly they can't just be a random selection of butterflies.</div>\n  <div class=\"paragraph\">They need to create a color theme,<br>privately I can think of two themes Monarch Orange, and Dragonfly Iridescence.</div>\n  <div class=\"paragraph\">I just tested random butterflies,<br>and they created confusion - it is great to confuse birds...</div>\n  <div class=\"paragraph\">But not so good,<br>for a Fairie's Crown which is meant to be pretty.</div>\n</div>\n<div class=\"section avoid-break-inside\" style=\"padding-bottom: 2rem;\">\n  <br>\n</div>\n<div class=\"section avoid-break-inside\" style=\"padding-bottom: 2rem;\">\n  <div class=\"paragraph\">And while photography and photo manipulation is an art,<br>once you need to give your butterflies correct shadows...</div>\n  <div class=\"paragraph\">You are painting,<br>I don't care if it is called retouching - because what it really is, is digital painting.</div>\n</div>\n<div class=\"section avoid-break-inside\" style=\"padding-bottom: 2rem;\">\n  <br>\n</div>\n<div class=\"section avoid-break-inside\" style=\"padding-bottom: 2rem;\">\n  <div class=\"paragraph\">While dressing up a cat for adventure,<br>is an amazing project, especially is your cat has a super short fuse...</div>\n  <div class=\"paragraph\">It is probably better to take a photo of the kitty,<br>who will no doubt be furiously trying to figure out what the heck you are up to.</div>\n  <div class=\"paragraph\">And then dress up a doll,<br>and splice the pictures together.</div>\n  <div class=\"paragraph\">At which point, one will have more artistic freedom,<br>when just painting the clothes on, using photos as reference.</div>\n</div>\n<div class=\"section avoid-break-inside\" style=\"padding-bottom: 2rem;\">\n  <br>\n</div>\n<div class=\"section avoid-break-inside\" style=\"padding-bottom: 2rem;\">\n  <div class=\"paragraph\">It would be unfair to burden a clever photographer,<br>with so much custom alterations.</div>\n  <div class=\"paragraph\">That is where a digital painter,<br>comes in.</div>\n</div>\n<div class=\"section avoid-break-inside\" style=\"padding-bottom: 2rem;\">\n  <br>\n</div>\n<div class=\"section avoid-break-inside\" style=\"padding-bottom: 2rem;\">\n  <div class=\"paragraph\">So, digital photography, can go far,<br>but...it gets harder and harder as you go deeper and deeper into the worlds of fantasy.</div>\n  <div class=\"paragraph\">Digital painting, on the other hand, especially when using digital photography as reference,<br>makes the entry into the worlds of fantasy fun and easy.</div>\n</div>\n<div class=\"section avoid-break-inside\" style=\"padding-bottom: 2rem;\">\n  <br>\n</div>\n<div class=\"section avoid-break-inside\" style=\"padding-bottom: 2rem;\">\n  <div class=\"paragraph\">Moreover, your painting will become much better if you take a moment,<br>to remember; to paint <strong>beyond</strong> what digital photography and editing is capable of.</div>\n  <div class=\"paragraph\">You want photographers to look at your painting and and say,<br>\"Well, shucks I couldn't take a photo like that in a million years.\"</div>\n  <div class=\"paragraph\">Let the world of photography belong to photographers,<br>as to you - the digital painter - belongs the world... of fantasy.</div>\n</div>",
  "text": "Paintings have a truly unique power,\nthey can and should beautifully present things...\nThat do not normally occur in the real world,\nthat you can't just snap a picture of.\n\nI am currently working on a group of silly animals,\nwho are not in proportion to each other.\nThey have proportions,\nthat make a person smile.\nMore over,\nI think I may dress them up, for adventure.\n\nIn a portrait I am hoping to somewhat finish today,\nI am creating a crown of butterflies.\nWhere butterflies chose,\nto land in a fairie's hair.\n\nPhotography wouldn't really work here,\nnor would digital photo composition.\nAs the butterflies for example,\nhave to create a song together.\nSplicing photos together can only go so far,\nhere the butterflies will need to shine bright and look cheerful.\nThey can't look flat, they have to cast correct shadows,\nand somewhat surprisingly they can't just be a random selection of butterflies.\nThey need to create a color theme,\nprivately I can think of two themes Monarch Orange, and Dragonfly Iridescence.\nI just tested random butterflies,\nand they created confusion - it is great to confuse birds...\nBut not so good,\nfor a Fairie's Crown which is meant to be pretty.\n\nAnd while photography and photo manipulation is an art,\nonce you need to give your butterflies correct shadows...\nYou are painting,\nI don't care if it is called retouching - because what it really is, is digital painting.\n\nWhile dressing up a cat for adventure,\nis an amazing project, especially is your cat has a super short fuse...\nIt is probably better to take a photo of the kitty,\nwho will no doubt be furiously trying to figure out what the heck you are up to.\nAnd then dress up a doll,\nand splice the pictures together.\nAt which point, one will have more artistic freedom,\nwhen just painting the clothes on, using photos as reference.\n\nIt would be unfair to burden a clever photographer,\nwith so much custom alterations.\nThat is where a digital painter,\ncomes in.\n\nSo, digital photography, can go far,\nbut...it gets harder and harder as you go deeper and deeper into the worlds of fantasy.\nDigital painting, on the other hand, especially when using digital photography as reference,\nmakes the entry into the worlds of fantasy fun and easy.\n\nMoreover, your painting will become much better if you take a moment,\nto remember; to paint beyond what digital photography and editing is capable of.\nYou want photographers to look at your painting and and say,\n\"Well, shucks I couldn't take a photo like that in a million years.\"\nLet the world of photography belong to photographers,\nas to you - the digital painter - belongs the world... of fantasy.",
  "images": [],
  "links": []
}