{
  "name": "furkies-purrkies-poetry-0683",
  "id": "furkies-purrkies-poetry-0683",
  "title": "Spring And Exercise",
  "date": "2022-01-13T02:59:47.004Z",
  "image": "poetry-0683-illustration.jpg",
  "artwork": "https://unsplash.com/photos/OwwM68FlA9o",
  "audio": "poetry-0683.mp3",
  "guid": "742210de-9daf-494d-9f9b-07a227eb25f4",
  "html": "<div class=\"section\">\n  <p>With the brand new winter air,<br>exercising is Spring is without compare.</p>\n  <p>Day by day we get to see Spring spring,<br>until the season is in full swing.</p>\n  <p>This may come as a surprise,<br>but Spring may even decide your exercise.</p>\n  <p>Bicycling, dancing, jogging, hiking,<br>a mix thereof or some other thing.</p>\n  <p>Spring, is sure to inspire you,<br>to something.</p>\n</div>\n<div class=\"section\">\n  <hr>\n</div>\n<div class=\"section\">\n  <p>I confess that I may be biased,<br>as for me Spring has always been a blast.</p>\n  <p>I count the days until first day of spring<br>as you never know what adventure it will bring.</p>\n  <p>I also count the days until Groundhog day,<br>I disagree with Punxsutawney Philip, but like him anyway.</p>\n</div>\n<div class=\"section\">\n  <hr>\n</div>\n<div class=\"section\">\n  <p>My own exercise had a slow start,<br>as it is after all a form of art.</p>\n  <p>And I begun by hiking and camping at Nordhouse,<br>and I was as scared as a mouse.</p>\n  <p>There was a thunderstorm like none other,<br>and I thought I wasn't going to make it any farther.</p>\n  <p>But I stayed over four weeks,<br>and came back with rosy cheeks.</p>\n</div>\n<div class=\"section\">\n  <hr>\n</div>\n<div class=\"section\">\n  <p>Then to keep going forward I got a bicycle,<br>and one time I got so cold I felt like an icicle.</p>\n  <p>My first and second and third bike fell apart,<br>but it was a great start.</p>\n  <p>From Lake Erie to 14 Mile, I crisscrossed the i-275 trail,<br>it was an adventure on a whole new scale.</p>\n  <p>And I resumed my jogging adventures a well,<br>that's how I found the i-275 trail.</p>\n</div>\n<div class=\"section\">\n  <hr>\n</div>\n<div class=\"section\">\n  <p>Jogging has been very hard for me,<br>until dancing set me free.</p>\n  <p>Jogging never helped me jog better,<br>but dancing made it so that I can run longer, and in any weather.</p>\n  <p>Dancing enhances endurance and strength,<br>and then you can jog any length.</p>\n  <p>In time I'll learn to jog faster too,<br>that is something that's on top of my to-do.</p>\n</div>\n<div class=\"section\">\n  <hr>\n</div>\n<div class=\"section\">\n  <p>Going full speed is not wise,<br>one should start with a slow and long exercise.</p>\n  <p>Sometimes it is hard to decide,<br>and not all can easily jog or ride.</p>\n  <p>Spring makes it so that nobody gives up,<br>they often start by hiking muttering \"I ain't no buttercup.\"</p>\n  <p>That's why I think it is best to set New Year's resolution for Spring,<br>because it helps us with everything.</p>\n</div>",
  "bootstrap": "<div class=\"card card-section bg-dark text-warning shadow\">\n  <div class=\"section card-body mb-0 my-2\">\n    <div class=\"paragraph card-text card-stanza my-5 text-center\">With the brand new winter air,<br>exercising is Spring is without compare.</div>\n    <div class=\"paragraph card-text card-stanza my-5 text-center\">Day by day we get to see Spring spring,<br>until the season is in full swing.</div>\n    <div class=\"paragraph card-text card-stanza my-5 text-center\">This may come as a surprise,<br>but Spring may even decide your exercise.</div>\n    <div class=\"paragraph card-text card-stanza my-5 text-center\">Bicycling, dancing, jogging, hiking,<br>a mix thereof or some other thing.</div>\n    <div class=\"paragraph card-text card-stanza my-5 text-center\">Spring, is sure to inspire you,<br>to something.</div>\n  </div>\n</div>\n<div class=\"mb-5 section-spacer\">&nbsp;</div>\n<div class=\"card card-section bg-dark text-warning shadow\">\n  <div class=\"section card-body mb-0 my-2\">\n    <div class=\"paragraph card-text card-stanza my-5 text-center\">I confess that I may be biased,<br>as for me Spring has always been a blast.</div>\n    <div class=\"paragraph card-text card-stanza my-5 text-center\">I count the days until first day of spring<br>as you never know what adventure it will bring.</div>\n    <div class=\"paragraph card-text card-stanza my-5 text-center\">I also count the days until Groundhog day,<br>I disagree with Punxsutawney Philip, but like him anyway.</div>\n  </div>\n</div>\n<div class=\"mb-5 section-spacer\">&nbsp;</div>\n<div class=\"card card-section bg-dark text-warning shadow\">\n  <div class=\"section card-body mb-0 my-2\">\n    <div class=\"paragraph card-text card-stanza my-5 text-center\">My own exercise had a slow start,<br>as it is after all a form of art.</div>\n    <div class=\"paragraph card-text card-stanza my-5 text-center\">And I begun by hiking and camping at Nordhouse,<br>and I was as scared as a mouse.</div>\n    <div class=\"paragraph card-text card-stanza my-5 text-center\">There was a thunderstorm like none other,<br>and I thought I wasn't going to make it any farther.</div>\n    <div class=\"paragraph card-text card-stanza my-5 text-center\">But I stayed over four weeks,<br>and came back with rosy cheeks.</div>\n  </div>\n</div>\n<div class=\"mb-5 section-spacer\">&nbsp;</div>\n<div class=\"card card-section bg-dark text-warning shadow\">\n  <div class=\"section card-body mb-0 my-2\">\n    <div class=\"paragraph card-text card-stanza my-5 text-center\">Then to keep going forward I got a bicycle,<br>and one time I got so cold I felt like an icicle.</div>\n    <div class=\"paragraph card-text card-stanza my-5 text-center\">My first and second and third bike fell apart,<br>but it was a great start.</div>\n    <div class=\"paragraph card-text card-stanza my-5 text-center\">From Lake Erie to 14 Mile, I crisscrossed the i-275 trail,<br>it was an adventure on a whole new scale.</div>\n    <div class=\"paragraph card-text card-stanza my-5 text-center\">And I resumed my jogging adventures a well,<br>that's how I found the i-275 trail.</div>\n  </div>\n</div>\n<div class=\"mb-5 section-spacer\">&nbsp;</div>\n<div class=\"card card-section bg-dark text-warning shadow\">\n  <div class=\"section card-body mb-0 my-2\">\n    <div class=\"paragraph card-text card-stanza my-5 text-center\">Jogging has been very hard for me,<br>until dancing set me free.</div>\n    <div class=\"paragraph card-text card-stanza my-5 text-center\">Jogging never helped me jog better,<br>but dancing made it so that I can run longer, and in any weather.</div>\n    <div class=\"paragraph card-text card-stanza my-5 text-center\">Dancing enhances endurance and strength,<br>and then you can jog any length.</div>\n    <div class=\"paragraph card-text card-stanza my-5 text-center\">In time I'll learn to jog faster too,<br>that is something that's on top of my to-do.</div>\n  </div>\n</div>\n<div class=\"mb-5 section-spacer\">&nbsp;</div>\n<div class=\"card card-section bg-dark text-warning shadow\">\n  <div class=\"section card-body mb-0 my-2\">\n    <div class=\"paragraph card-text card-stanza my-5 text-center\">Going full speed is not wise,<br>one should start with a slow and long exercise.</div>\n    <div class=\"paragraph card-text card-stanza my-5 text-center\">Sometimes it is hard to decide,<br>and not all can easily jog or ride.</div>\n    <div class=\"paragraph card-text card-stanza my-5 text-center\">Spring makes it so that nobody gives up,<br>they often start by hiking muttering \"I ain't no buttercup.\"</div>\n    <div class=\"paragraph card-text card-stanza my-5 text-center\">That's why I think it is best to set New Year's resolution for Spring,<br>because it helps us with everything.</div>\n  </div>\n</div>",
  "print": "<div class=\"section avoid-break-inside\" style=\"padding-bottom: 2rem;\">\n  <div class=\"paragraph\">With the brand new winter air,<br>exercising is Spring is without compare.</div>\n  <div class=\"paragraph\">Day by day we get to see Spring spring,<br>until the season is in full swing.</div>\n  <div class=\"paragraph\">This may come as a surprise,<br>but Spring may even decide your exercise.</div>\n  <div class=\"paragraph\">Bicycling, dancing, jogging, hiking,<br>a mix thereof or some other thing.</div>\n  <div class=\"paragraph\">Spring, is sure to inspire you,<br>to something.</div>\n</div>\n<div class=\"section avoid-break-inside\" style=\"padding-bottom: 2rem;\">\n  <br>\n</div>\n<div class=\"section avoid-break-inside\" style=\"padding-bottom: 2rem;\">\n  <div class=\"paragraph\">I confess that I may be biased,<br>as for me Spring has always been a blast.</div>\n  <div class=\"paragraph\">I count the days until first day of spring<br>as you never know what adventure it will bring.</div>\n  <div class=\"paragraph\">I also count the days until Groundhog day,<br>I disagree with Punxsutawney Philip, but like him anyway.</div>\n</div>\n<div class=\"section avoid-break-inside\" style=\"padding-bottom: 2rem;\">\n  <br>\n</div>\n<div class=\"section avoid-break-inside\" style=\"padding-bottom: 2rem;\">\n  <div class=\"paragraph\">My own exercise had a slow start,<br>as it is after all a form of art.</div>\n  <div class=\"paragraph\">And I begun by hiking and camping at Nordhouse,<br>and I was as scared as a mouse.</div>\n  <div class=\"paragraph\">There was a thunderstorm like none other,<br>and I thought I wasn't going to make it any farther.</div>\n  <div class=\"paragraph\">But I stayed over four weeks,<br>and came back with rosy cheeks.</div>\n</div>\n<div class=\"section avoid-break-inside\" style=\"padding-bottom: 2rem;\">\n  <br>\n</div>\n<div class=\"section avoid-break-inside\" style=\"padding-bottom: 2rem;\">\n  <div class=\"paragraph\">Then to keep going forward I got a bicycle,<br>and one time I got so cold I felt like an icicle.</div>\n  <div class=\"paragraph\">My first and second and third bike fell apart,<br>but it was a great start.</div>\n  <div class=\"paragraph\">From Lake Erie to 14 Mile, I crisscrossed the i-275 trail,<br>it was an adventure on a whole new scale.</div>\n  <div class=\"paragraph\">And I resumed my jogging adventures a well,<br>that's how I found the i-275 trail.</div>\n</div>\n<div class=\"section avoid-break-inside\" style=\"padding-bottom: 2rem;\">\n  <br>\n</div>\n<div class=\"section avoid-break-inside\" style=\"padding-bottom: 2rem;\">\n  <div class=\"paragraph\">Jogging has been very hard for me,<br>until dancing set me free.</div>\n  <div class=\"paragraph\">Jogging never helped me jog better,<br>but dancing made it so that I can run longer, and in any weather.</div>\n  <div class=\"paragraph\">Dancing enhances endurance and strength,<br>and then you can jog any length.</div>\n  <div class=\"paragraph\">In time I'll learn to jog faster too,<br>that is something that's on top of my to-do.</div>\n</div>\n<div class=\"section avoid-break-inside\" style=\"padding-bottom: 2rem;\">\n  <br>\n</div>\n<div class=\"section avoid-break-inside\" style=\"padding-bottom: 2rem;\">\n  <div class=\"paragraph\">Going full speed is not wise,<br>one should start with a slow and long exercise.</div>\n  <div class=\"paragraph\">Sometimes it is hard to decide,<br>and not all can easily jog or ride.</div>\n  <div class=\"paragraph\">Spring makes it so that nobody gives up,<br>they often start by hiking muttering \"I ain't no buttercup.\"</div>\n  <div class=\"paragraph\">That's why I think it is best to set New Year's resolution for Spring,<br>because it helps us with everything.</div>\n</div>",
  "text": "With the brand new winter air,\nexercising is Spring is without compare.\nDay by day we get to see Spring spring,\nuntil the season is in full swing.\nThis may come as a surprise,\nbut Spring may even decide your exercise.\nBicycling, dancing, jogging, hiking,\na mix thereof or some other thing.\nSpring, is sure to inspire you,\nto something.\n\nI confess that I may be biased,\nas for me Spring has always been a blast.\nI count the days until first day of spring\nas you never know what adventure it will bring.\nI also count the days until Groundhog day,\nI disagree with Punxsutawney Philip, but like him anyway.\n\nMy own exercise had a slow start,\nas it is after all a form of art.\nAnd I begun by hiking and camping at Nordhouse,\nand I was as scared as a mouse.\nThere was a thunderstorm like none other,\nand I thought I wasn't going to make it any farther.\nBut I stayed over four weeks,\nand came back with rosy cheeks.\n\nThen to keep going forward I got a bicycle,\nand one time I got so cold I felt like an icicle.\nMy first and second and third bike fell apart,\nbut it was a great start.\nFrom Lake Erie to 14 Mile, I crisscrossed the i-275 trail,\nit was an adventure on a whole new scale.\nAnd I resumed my jogging adventures a well,\nthat's how I found the i-275 trail.\n\nJogging has been very hard for me,\nuntil dancing set me free.\nJogging never helped me jog better,\nbut dancing made it so that I can run longer, and in any weather.\nDancing enhances endurance and strength,\nand then you can jog any length.\nIn time I'll learn to jog faster too,\nthat is something that's on top of my to-do.\n\nGoing full speed is not wise,\none should start with a slow and long exercise.\nSometimes it is hard to decide,\nand not all can easily jog or ride.\nSpring makes it so that nobody gives up,\nthey often start by hiking muttering \"I ain't no buttercup.\"\nThat's why I think it is best to set New Year's resolution for Spring,\nbecause it helps us with everything.",
  "images": [],
  "links": []
}