{
  "name": "furkies-purrkies-poetry-0180",
  "title": "Breach All The Tipping Points",
  "date": "2020-08-28T00:12:53.487Z",
  "image": "poetry-0180-illustration.jpg",
  "audio": "poetry-0180.mp3",
  "id": "furkies-purrkies-poetry-0180",
  "attachments": {},
  "guid": "8294c33b-4deb-4b4a-b081-6d3b9c924537",
  "html": "<div class=\"section\">\n  <p>To the question &#x201C;how far must I go&#x201D;,</p>\n  <p>there is but one answer, and it is never to be uttered quietly.</p>\n</div>\n<div class=\"section\">\n  <p>You must feel it and yell it,</p>\n  <p>yell it because every moment is a precious miracle.</p>\n</div>\n<div class=\"section\">\n  <p>So you yell: Higher!</p>\n  <p>Because higher is the answer, and it the only answer there ever was.</p>\n</div>\n<div class=\"section\">\n  <p>Higher, because we never know how far we need to go and grow,</p>\n  <p>so it is just is better, to keep going and never stop, ever, no matter how much you know.</p>\n</div>\n<div class=\"section\">\n  <p>Don&#x2019;t stop for bullies,</p>\n  <p>don&#x2019;t stop for teachers,</p>\n  <p>don&#x2019;t stop for the office,</p>\n  <p>don&#x2019;t stop for a career,</p>\n  <p>just fly right by.</p>\n</div>\n<div class=\"section\">\n  <p>Because, the first and foremost is to break out of all limits,</p>\n  <p>breach, each and every boundary, and rise right on top, over and over, and tip each tipping point.</p>\n</div>\n<div class=\"section\">\n  <p>Every book that makes Wise Beings smile,</p>\n  <p>read it, read it many times, record the good parts and play them back to sleep.</p>\n</div>\n<div class=\"section\">\n  <p>And then after your first ten or twenty books, or hundred books,</p>\n  <p>you write your own, and make it known.</p>\n</div>\n<div class=\"section\">\n  <p>And keep moving,</p>\n  <p>and don&#x2019;t stop,</p>\n  <p>because every wall must fall.</p>\n</div>\n<div class=\"section\">\n  <p>That A in class, that GPA in college, that Promotion and Office Window,</p>\n  <p>all of that has to go.</p>\n</div>\n<div class=\"section\">\n  <p>It is amazing to return to, from the great heights of your mountains,</p>\n  <p>but for now you go, because you are not a brick in that wall.</p>\n</div>\n<div class=\"section\">\n  <p>Find your limits,</p>\n  <p>and build your way out.</p>\n</div>\n<div class=\"section\">\n  <p>Our flaw is such, that we don&#x2019;t notice bad ideas that we are born around,</p>\n  <p>and if we keep growing into that life we will run aground.</p>\n</div>\n<div class=\"section\">\n  <p>All you need to do, is become a Great Being first,</p>\n  <p>then you can come back, and if you want it all, then you can have it all back.</p>\n</div>\n<div class=\"section\">\n  <p>...but first you grow, because without growing first, you&#x2019;ll never know which way to go.</p>\n</div>",
  "bootstrap": "<div class=\"card card-section bg-dark text-warning shadow\">\n  <div class=\"section card-body mb-0 my-2\">\n    <div class=\"paragraph card-text card-stanza my-5 text-center\">To the question “how far must I go”,</div>\n    <div class=\"paragraph card-text card-stanza my-5 text-center\">there is but one answer, and it is never to be uttered quietly.</div>\n  </div>\n</div>\n<div class=\"card card-section bg-dark text-warning shadow\">\n  <div class=\"section card-body mb-0 my-2\">\n    <div class=\"paragraph card-text card-stanza my-5 text-center\">You must feel it and yell it,</div>\n    <div class=\"paragraph card-text card-stanza my-5 text-center\">yell it because every moment is a precious miracle.</div>\n  </div>\n</div>\n<div class=\"card card-section bg-dark text-warning shadow\">\n  <div class=\"section card-body mb-0 my-2\">\n    <div class=\"paragraph card-text card-stanza my-5 text-center\">So you yell: Higher!</div>\n    <div class=\"paragraph card-text card-stanza my-5 text-center\">Because higher is the answer, and it the only answer there ever was.</div>\n  </div>\n</div>\n<div class=\"card card-section bg-dark text-warning shadow\">\n  <div class=\"section card-body mb-0 my-2\">\n    <div class=\"paragraph card-text card-stanza my-5 text-center\">Higher, because we never know how far we need to go and grow,</div>\n    <div class=\"paragraph card-text card-stanza my-5 text-center\">so it is just is better, to keep going and never stop, ever, no matter how much you know.</div>\n  </div>\n</div>\n<div class=\"card card-section bg-dark text-warning shadow\">\n  <div class=\"section card-body mb-0 my-2\">\n    <div class=\"paragraph card-text card-stanza my-5 text-center\">Don’t stop for bullies,</div>\n    <div class=\"paragraph card-text card-stanza my-5 text-center\">don’t stop for teachers,</div>\n    <div class=\"paragraph card-text card-stanza my-5 text-center\">don’t stop for the office,</div>\n    <div class=\"paragraph card-text card-stanza my-5 text-center\">don’t stop for a career,</div>\n    <div class=\"paragraph card-text card-stanza my-5 text-center\">just fly right by.</div>\n  </div>\n</div>\n<div class=\"card card-section bg-dark text-warning shadow\">\n  <div class=\"section card-body mb-0 my-2\">\n    <div class=\"paragraph card-text card-stanza my-5 text-center\">Because, the first and foremost is to break out of all limits,</div>\n    <div class=\"paragraph card-text card-stanza my-5 text-center\">breach, each and every boundary, and rise right on top, over and over, and tip each tipping point.</div>\n  </div>\n</div>\n<div class=\"card card-section bg-dark text-warning shadow\">\n  <div class=\"section card-body mb-0 my-2\">\n    <div class=\"paragraph card-text card-stanza my-5 text-center\">Every book that makes Wise Beings smile,</div>\n    <div class=\"paragraph card-text card-stanza my-5 text-center\">read it, read it many times, record the good parts and play them back to sleep.</div>\n  </div>\n</div>\n<div class=\"card card-section bg-dark text-warning shadow\">\n  <div class=\"section card-body mb-0 my-2\">\n    <div class=\"paragraph card-text card-stanza my-5 text-center\">And then after your first ten or twenty books, or hundred books,</div>\n    <div class=\"paragraph card-text card-stanza my-5 text-center\">you write your own, and make it known.</div>\n  </div>\n</div>\n<div class=\"card card-section bg-dark text-warning shadow\">\n  <div class=\"section card-body mb-0 my-2\">\n    <div class=\"paragraph card-text card-stanza my-5 text-center\">And keep moving,</div>\n    <div class=\"paragraph card-text card-stanza my-5 text-center\">and don’t stop,</div>\n    <div class=\"paragraph card-text card-stanza my-5 text-center\">because every wall must fall.</div>\n  </div>\n</div>\n<div class=\"card card-section bg-dark text-warning shadow\">\n  <div class=\"section card-body mb-0 my-2\">\n    <div class=\"paragraph card-text card-stanza my-5 text-center\">That A in class, that GPA in college, that Promotion and Office Window,</div>\n    <div class=\"paragraph card-text card-stanza my-5 text-center\">all of that has to go.</div>\n  </div>\n</div>\n<div class=\"card card-section bg-dark text-warning shadow\">\n  <div class=\"section card-body mb-0 my-2\">\n    <div class=\"paragraph card-text card-stanza my-5 text-center\">It is amazing to return to, from the great heights of your mountains,</div>\n    <div class=\"paragraph card-text card-stanza my-5 text-center\">but for now you go, because you are not a brick in that wall.</div>\n  </div>\n</div>\n<div class=\"card card-section bg-dark text-warning shadow\">\n  <div class=\"section card-body mb-0 my-2\">\n    <div class=\"paragraph card-text card-stanza my-5 text-center\">Find your limits,</div>\n    <div class=\"paragraph card-text card-stanza my-5 text-center\">and build your way out.</div>\n  </div>\n</div>\n<div class=\"card card-section bg-dark text-warning shadow\">\n  <div class=\"section card-body mb-0 my-2\">\n    <div class=\"paragraph card-text card-stanza my-5 text-center\">Our flaw is such, that we don’t notice bad ideas that we are born around,</div>\n    <div class=\"paragraph card-text card-stanza my-5 text-center\">and if we keep growing into that life we will run aground.</div>\n  </div>\n</div>\n<div class=\"card card-section bg-dark text-warning shadow\">\n  <div class=\"section card-body mb-0 my-2\">\n    <div class=\"paragraph card-text card-stanza my-5 text-center\">All you need to do, is become a Great Being first,</div>\n    <div class=\"paragraph card-text card-stanza my-5 text-center\">then you can come back, and if you want it all, then you can have it all back.</div>\n  </div>\n</div>\n<div class=\"card card-section bg-dark text-warning shadow\">\n  <div class=\"section card-body mb-0 my-2\">\n    <div class=\"paragraph card-text card-stanza my-5 text-center\">...but first you grow, because without growing first, you’ll never know which way to go.</div>\n  </div>\n</div>",
  "print": "<div class=\"section avoid-break-inside\" style=\"padding-bottom: 2rem;\">\n  <div class=\"paragraph\">To the question “how far must I go”,</div>\n  <div class=\"paragraph\">there is but one answer, and it is never to be uttered quietly.</div>\n</div>\n<div class=\"section avoid-break-inside\" style=\"padding-bottom: 2rem;\">\n  <div class=\"paragraph\">You must feel it and yell it,</div>\n  <div class=\"paragraph\">yell it because every moment is a precious miracle.</div>\n</div>\n<div class=\"section avoid-break-inside\" style=\"padding-bottom: 2rem;\">\n  <div class=\"paragraph\">So you yell: Higher!</div>\n  <div class=\"paragraph\">Because higher is the answer, and it the only answer there ever was.</div>\n</div>\n<div class=\"section avoid-break-inside\" style=\"padding-bottom: 2rem;\">\n  <div class=\"paragraph\">Higher, because we never know how far we need to go and grow,</div>\n  <div class=\"paragraph\">so it is just is better, to keep going and never stop, ever, no matter how much you know.</div>\n</div>\n<div class=\"section avoid-break-inside\" style=\"padding-bottom: 2rem;\">\n  <div class=\"paragraph\">Don’t stop for bullies,</div>\n  <div class=\"paragraph\">don’t stop for teachers,</div>\n  <div class=\"paragraph\">don’t stop for the office,</div>\n  <div class=\"paragraph\">don’t stop for a career,</div>\n  <div class=\"paragraph\">just fly right by.</div>\n</div>\n<div class=\"section avoid-break-inside\" style=\"padding-bottom: 2rem;\">\n  <div class=\"paragraph\">Because, the first and foremost is to break out of all limits,</div>\n  <div class=\"paragraph\">breach, each and every boundary, and rise right on top, over and over, and tip each tipping point.</div>\n</div>\n<div class=\"section avoid-break-inside\" style=\"padding-bottom: 2rem;\">\n  <div class=\"paragraph\">Every book that makes Wise Beings smile,</div>\n  <div class=\"paragraph\">read it, read it many times, record the good parts and play them back to sleep.</div>\n</div>\n<div class=\"section avoid-break-inside\" style=\"padding-bottom: 2rem;\">\n  <div class=\"paragraph\">And then after your first ten or twenty books, or hundred books,</div>\n  <div class=\"paragraph\">you write your own, and make it known.</div>\n</div>\n<div class=\"section avoid-break-inside\" style=\"padding-bottom: 2rem;\">\n  <div class=\"paragraph\">And keep moving,</div>\n  <div class=\"paragraph\">and don’t stop,</div>\n  <div class=\"paragraph\">because every wall must fall.</div>\n</div>\n<div class=\"section avoid-break-inside\" style=\"padding-bottom: 2rem;\">\n  <div class=\"paragraph\">That A in class, that GPA in college, that Promotion and Office Window,</div>\n  <div class=\"paragraph\">all of that has to go.</div>\n</div>\n<div class=\"section avoid-break-inside\" style=\"padding-bottom: 2rem;\">\n  <div class=\"paragraph\">It is amazing to return to, from the great heights of your mountains,</div>\n  <div class=\"paragraph\">but for now you go, because you are not a brick in that wall.</div>\n</div>\n<div class=\"section avoid-break-inside\" style=\"padding-bottom: 2rem;\">\n  <div class=\"paragraph\">Find your limits,</div>\n  <div class=\"paragraph\">and build your way out.</div>\n</div>\n<div class=\"section avoid-break-inside\" style=\"padding-bottom: 2rem;\">\n  <div class=\"paragraph\">Our flaw is such, that we don’t notice bad ideas that we are born around,</div>\n  <div class=\"paragraph\">and if we keep growing into that life we will run aground.</div>\n</div>\n<div class=\"section avoid-break-inside\" style=\"padding-bottom: 2rem;\">\n  <div class=\"paragraph\">All you need to do, is become a Great Being first,</div>\n  <div class=\"paragraph\">then you can come back, and if you want it all, then you can have it all back.</div>\n</div>\n<div class=\"section avoid-break-inside\" style=\"padding-bottom: 2rem;\">\n  <div class=\"paragraph\">...but first you grow, because without growing first, you’ll never know which way to go.</div>\n</div>",
  "text": "To the question “how far must I go”,\nthere is but one answer, and it is never to be uttered quietly.\nYou must feel it and yell it,\nyell it because every moment is a precious miracle.\nSo you yell: Higher!\nBecause higher is the answer, and it the only answer there ever was.\nHigher, because we never know how far we need to go and grow,\nso it is just is better, to keep going and never stop, ever, no matter how much you know.\nDon’t stop for bullies,\ndon’t stop for teachers,\ndon’t stop for the office,\ndon’t stop for a career,\njust fly right by.\nBecause, the first and foremost is to break out of all limits,\nbreach, each and every boundary, and rise right on top, over and over, and tip each tipping point.\nEvery book that makes Wise Beings smile,\nread it, read it many times, record the good parts and play them back to sleep.\nAnd then after your first ten or twenty books, or hundred books,\nyou write your own, and make it known.\nAnd keep moving,\nand don’t stop,\nbecause every wall must fall.\nThat A in class, that GPA in college, that Promotion and Office Window,\nall of that has to go.\nIt is amazing to return to, from the great heights of your mountains,\nbut for now you go, because you are not a brick in that wall.\nFind your limits,\nand build your way out.\nOur flaw is such, that we don’t notice bad ideas that we are born around,\nand if we keep growing into that life we will run aground.\nAll you need to do, is become a Great Being first,\nthen you can come back, and if you want it all, then you can have it all back.\n...but first you grow, because without growing first, you’ll never know which way to go.",
  "images": [],
  "links": []
}