{
  "id": "furkies-purrkies-poetry-0549",
  "title": "Education For All The Epochs",
  "date": "2021-08-31T19:26:03.371Z",
  "image": "poetry-0549-illustration.jpg",
  "artwork": "https://unsplash.com/photos/ASEaTdVIvBQ",
  "audio": "poetry-0549.mp3",
  "guid": "03a0c5fc-4551-45ab-b648-efbf5f49ca0f"
}
