{
  "name": "furkies-purrkies-poetry-0902",
  "id": "furkies-purrkies-poetry-0902",
  "title": "The Case Of The Cat In A Suit",
  "date": "2022-08-20T02:17:29.493Z",
  "image": "poetry-0902-illustration.jpg",
  "artwork": "https://catpea.com",
  "audio": "poetry-0902.mp3",
  "guid": "200c810f-5575-4594-8074-048d8f578bf3",
  "html": "<div class=\"section\">\n  <p>Your paintings must speak, and there is no way in heck,<br>that they should ever speak of misery.</p>\n  <p>When we talk about changing lives,<br>we always talk about changing lives for the better.</p>\n  <p>A painting,<br>can speak about just a few things.</p>\n</div>\n<div class=\"section\">\n  <hr>\n</div>\n<div class=\"section\">\n  <p>Since most of the easy things to say have already been painted,<br>that mostly leaves us with inspiration and sillies.</p>\n</div>\n<div class=\"section\">\n  <hr>\n</div>\n<div class=\"section\">\n  <p>I think that one of the most inspirational formats,<br>is a painting with text in it.</p>\n  <p>It can be an inscription above some magical place,<br>a large stone wall with a profound story.</p>\n  <p>Or a still life, with a bust, an open book,<br>and some objects that help a person reason.</p>\n</div>\n<div class=\"section\">\n  <hr>\n</div>\n<div class=\"section\">\n  <p>On the other hand, the humorous painting,<br>are not that far off from jokes.</p>\n  <p>There is a setup - suit,<br>and a punchline, perfectly aligned and fitting serious little cat head in the suit - hohoho.</p>\n  <p>Where inspirational delivery is serious.<br>getting to the punchline of a joke, is anything but.</p>\n</div>\n<div class=\"section\">\n  <hr>\n</div>\n<div class=\"section\">\n  <p>Where an inspirational portrait,<br>helps the viewer to a philosophical mood.</p>\n  <p>A Silly, Lowbrow painting,<br>is all about some reversal that makes things funny.</p>\n  <p>And thus your viewers day,<br>that much more sunny.</p>\n</div>\n<div class=\"section\">\n  <hr>\n</div>\n<div class=\"section\">\n  <p>You'll never make everyone laugh,<br>just like you can't inspire all your viewers.</p>\n  <p>As the case is with comedians,<br>some people won't be able to handle it.</p>\n  <p>Others, however, will sit down,<br>and try to balance their life out, stop the overwork, and remember joy and laughter.</p>\n</div>\n<div class=\"section\">\n  <hr>\n</div>\n<div class=\"section\">\n  <p>If you need it, then I think you will find a source of inspiration,<br>in famous quotes, some of which you can paint directly.</p>\n  <p>But to make a person smile,<br>to try to rouse those who stopped smiling long ago.</p>\n  <p>You will need to, build,<br>and you can only use those things in your soul, that make you happy.</p>\n</div>\n<div class=\"section\">\n  <hr>\n</div>\n<div class=\"section\">\n  <p><a href=\"https://www.reddit.com/r/redditgetsdrawn/comments/wqujav/comment/il0b9cn/?utm_source=reddit&utm_medium=web2x&context=3\">Title Image Contest</a><br><a href=\"https://youtu.be/Tul5Fp6uQpI\">Title Image Time-lapse</a></p>\n</div>",
  "bootstrap": "<div class=\"card card-section bg-dark text-warning shadow\">\n  <div class=\"section card-body mb-0 my-2\">\n    <div class=\"paragraph card-text card-stanza my-5 text-center\">Your paintings must speak, and there is no way in heck,<br>that they should ever speak of misery.</div>\n    <div class=\"paragraph card-text card-stanza my-5 text-center\">When we talk about changing lives,<br>we always talk about changing lives for the better.</div>\n    <div class=\"paragraph card-text card-stanza my-5 text-center\">A painting,<br>can speak about just a few things.</div>\n  </div>\n</div>\n<div class=\"mb-5 section-spacer\">&nbsp;</div>\n<div class=\"card card-section bg-dark text-warning shadow\">\n  <div class=\"section card-body mb-0 my-2\">\n    <div class=\"paragraph card-text card-stanza my-5 text-center\">Since most of the easy things to say have already been painted,<br>that mostly leaves us with inspiration and sillies.</div>\n  </div>\n</div>\n<div class=\"mb-5 section-spacer\">&nbsp;</div>\n<div class=\"card card-section bg-dark text-warning shadow\">\n  <div class=\"section card-body mb-0 my-2\">\n    <div class=\"paragraph card-text card-stanza my-5 text-center\">I think that one of the most inspirational formats,<br>is a painting with text in it.</div>\n    <div class=\"paragraph card-text card-stanza my-5 text-center\">It can be an inscription above some magical place,<br>a large stone wall with a profound story.</div>\n    <div class=\"paragraph card-text card-stanza my-5 text-center\">Or a still life, with a bust, an open book,<br>and some objects that help a person reason.</div>\n  </div>\n</div>\n<div class=\"mb-5 section-spacer\">&nbsp;</div>\n<div class=\"card card-section bg-dark text-warning shadow\">\n  <div class=\"section card-body mb-0 my-2\">\n    <div class=\"paragraph card-text card-stanza my-5 text-center\">On the other hand, the humorous painting,<br>are not that far off from jokes.</div>\n    <div class=\"paragraph card-text card-stanza my-5 text-center\">There is a setup - suit,<br>and a punchline, perfectly aligned and fitting serious little cat head in the suit - hohoho.</div>\n    <div class=\"paragraph card-text card-stanza my-5 text-center\">Where inspirational delivery is serious.<br>getting to the punchline of a joke, is anything but.</div>\n  </div>\n</div>\n<div class=\"mb-5 section-spacer\">&nbsp;</div>\n<div class=\"card card-section bg-dark text-warning shadow\">\n  <div class=\"section card-body mb-0 my-2\">\n    <div class=\"paragraph card-text card-stanza my-5 text-center\">Where an inspirational portrait,<br>helps the viewer to a philosophical mood.</div>\n    <div class=\"paragraph card-text card-stanza my-5 text-center\">A Silly, Lowbrow painting,<br>is all about some reversal that makes things funny.</div>\n    <div class=\"paragraph card-text card-stanza my-5 text-center\">And thus your viewers day,<br>that much more sunny.</div>\n  </div>\n</div>\n<div class=\"mb-5 section-spacer\">&nbsp;</div>\n<div class=\"card card-section bg-dark text-warning shadow\">\n  <div class=\"section card-body mb-0 my-2\">\n    <div class=\"paragraph card-text card-stanza my-5 text-center\">You'll never make everyone laugh,<br>just like you can't inspire all your viewers.</div>\n    <div class=\"paragraph card-text card-stanza my-5 text-center\">As the case is with comedians,<br>some people won't be able to handle it.</div>\n    <div class=\"paragraph card-text card-stanza my-5 text-center\">Others, however, will sit down,<br>and try to balance their life out, stop the overwork, and remember joy and laughter.</div>\n  </div>\n</div>\n<div class=\"mb-5 section-spacer\">&nbsp;</div>\n<div class=\"card card-section bg-dark text-warning shadow\">\n  <div class=\"section card-body mb-0 my-2\">\n    <div class=\"paragraph card-text card-stanza my-5 text-center\">If you need it, then I think you will find a source of inspiration,<br>in famous quotes, some of which you can paint directly.</div>\n    <div class=\"paragraph card-text card-stanza my-5 text-center\">But to make a person smile,<br>to try to rouse those who stopped smiling long ago.</div>\n    <div class=\"paragraph card-text card-stanza my-5 text-center\">You will need to, build,<br>and you can only use those things in your soul, that make you happy.</div>\n  </div>\n</div>\n<div class=\"mb-5 section-spacer\">&nbsp;</div>\n<div class=\"card card-section bg-dark text-warning shadow\">\n  <div class=\"section card-body mb-0 my-2\">\n    <div class=\"paragraph card-text card-stanza my-5 text-center\"><a href=\"https://www.reddit.com/r/redditgetsdrawn/comments/wqujav/comment/il0b9cn/?utm_source=reddit&utm_medium=web2x&context=3\">Title Image Contest</a><br><a href=\"https://youtu.be/Tul5Fp6uQpI\">Title Image Time-lapse</a></div>\n  </div>\n</div>",
  "print": "<div class=\"section avoid-break-inside\" style=\"padding-bottom: 2rem;\">\n  <div class=\"paragraph\">Your paintings must speak, and there is no way in heck,<br>that they should ever speak of misery.</div>\n  <div class=\"paragraph\">When we talk about changing lives,<br>we always talk about changing lives for the better.</div>\n  <div class=\"paragraph\">A painting,<br>can speak about just a few things.</div>\n</div>\n<div class=\"section avoid-break-inside\" style=\"padding-bottom: 2rem;\">\n  <br>\n</div>\n<div class=\"section avoid-break-inside\" style=\"padding-bottom: 2rem;\">\n  <div class=\"paragraph\">Since most of the easy things to say have already been painted,<br>that mostly leaves us with inspiration and sillies.</div>\n</div>\n<div class=\"section avoid-break-inside\" style=\"padding-bottom: 2rem;\">\n  <br>\n</div>\n<div class=\"section avoid-break-inside\" style=\"padding-bottom: 2rem;\">\n  <div class=\"paragraph\">I think that one of the most inspirational formats,<br>is a painting with text in it.</div>\n  <div class=\"paragraph\">It can be an inscription above some magical place,<br>a large stone wall with a profound story.</div>\n  <div class=\"paragraph\">Or a still life, with a bust, an open book,<br>and some objects that help a person reason.</div>\n</div>\n<div class=\"section avoid-break-inside\" style=\"padding-bottom: 2rem;\">\n  <br>\n</div>\n<div class=\"section avoid-break-inside\" style=\"padding-bottom: 2rem;\">\n  <div class=\"paragraph\">On the other hand, the humorous painting,<br>are not that far off from jokes.</div>\n  <div class=\"paragraph\">There is a setup - suit,<br>and a punchline, perfectly aligned and fitting serious little cat head in the suit - hohoho.</div>\n  <div class=\"paragraph\">Where inspirational delivery is serious.<br>getting to the punchline of a joke, is anything but.</div>\n</div>\n<div class=\"section avoid-break-inside\" style=\"padding-bottom: 2rem;\">\n  <br>\n</div>\n<div class=\"section avoid-break-inside\" style=\"padding-bottom: 2rem;\">\n  <div class=\"paragraph\">Where an inspirational portrait,<br>helps the viewer to a philosophical mood.</div>\n  <div class=\"paragraph\">A Silly, Lowbrow painting,<br>is all about some reversal that makes things funny.</div>\n  <div class=\"paragraph\">And thus your viewers day,<br>that much more sunny.</div>\n</div>\n<div class=\"section avoid-break-inside\" style=\"padding-bottom: 2rem;\">\n  <br>\n</div>\n<div class=\"section avoid-break-inside\" style=\"padding-bottom: 2rem;\">\n  <div class=\"paragraph\">You'll never make everyone laugh,<br>just like you can't inspire all your viewers.</div>\n  <div class=\"paragraph\">As the case is with comedians,<br>some people won't be able to handle it.</div>\n  <div class=\"paragraph\">Others, however, will sit down,<br>and try to balance their life out, stop the overwork, and remember joy and laughter.</div>\n</div>\n<div class=\"section avoid-break-inside\" style=\"padding-bottom: 2rem;\">\n  <br>\n</div>\n<div class=\"section avoid-break-inside\" style=\"padding-bottom: 2rem;\">\n  <div class=\"paragraph\">If you need it, then I think you will find a source of inspiration,<br>in famous quotes, some of which you can paint directly.</div>\n  <div class=\"paragraph\">But to make a person smile,<br>to try to rouse those who stopped smiling long ago.</div>\n  <div class=\"paragraph\">You will need to, build,<br>and you can only use those things in your soul, that make you happy.</div>\n</div>\n<div class=\"section avoid-break-inside\" style=\"padding-bottom: 2rem;\">\n  <br>\n</div>\n<div class=\"section avoid-break-inside\" style=\"padding-bottom: 2rem;\">\n  <div class=\"paragraph\"><span>Title Image Contest<sup>[1]</sup></span><br><span>Title Image Time-lapse<sup>[2]</sup></span></div>\n</div>\n<div class=\"break-after\">&nbsp;</div>\n<div>\n  <div class=\"section\" style=\"padding-bottom: 1rem;\">References</div>\n  <div>[1]: https://www.reddit.com/r/redditgetsdrawn/comments/wqujav/comment/il0b9cn/?utm_source=reddit&utm_medium=web2x&context=3</div>\n  <div>[2]: https://youtu.be/Tul5Fp6uQpI</div>\n</div>",
  "text": "Your paintings must speak, and there is no way in heck,\nthat they should ever speak of misery.\nWhen we talk about changing lives,\nwe always talk about changing lives for the better.\nA painting,\ncan speak about just a few things.\n\nSince most of the easy things to say have already been painted,\nthat mostly leaves us with inspiration and sillies.\n\nI think that one of the most inspirational formats,\nis a painting with text in it.\nIt can be an inscription above some magical place,\na large stone wall with a profound story.\nOr a still life, with a bust, an open book,\nand some objects that help a person reason.\n\nOn the other hand, the humorous painting,\nare not that far off from jokes.\nThere is a setup - suit,\nand a punchline, perfectly aligned and fitting serious little cat head in the suit - hohoho.\nWhere inspirational delivery is serious.\ngetting to the punchline of a joke, is anything but.\n\nWhere an inspirational portrait,\nhelps the viewer to a philosophical mood.\nA Silly, Lowbrow painting,\nis all about some reversal that makes things funny.\nAnd thus your viewers day,\nthat much more sunny.\n\nYou'll never make everyone laugh,\njust like you can't inspire all your viewers.\nAs the case is with comedians,\nsome people won't be able to handle it.\nOthers, however, will sit down,\nand try to balance their life out, stop the overwork, and remember joy and laughter.\n\nIf you need it, then I think you will find a source of inspiration,\nin famous quotes, some of which you can paint directly.\nBut to make a person smile,\nto try to rouse those who stopped smiling long ago.\nYou will need to, build,\nand you can only use those things in your soul, that make you happy.\n\nTitle Image Contest[1]\nTitle Image Time-lapse[2]\n \nReferences\n[1]: https://www.reddit.com/r/redditgetsdrawn/comments/wqujav/comment/il0b9cn/?utm_source=reddit&utm_medium=web2x&context=3\n[2]: https://youtu.be/Tul5Fp6uQpI",
  "images": [],
  "links": [
    {
      "title": "Title Image Contest",
      "url": "https://www.reddit.com/r/redditgetsdrawn/comments/wqujav/comment/il0b9cn/?utm_source=reddit&utm_medium=web2x&context=3",
      "hostname": "www.reddit.com"
    },
    {
      "title": "Title Image Time-lapse",
      "url": "https://youtu.be/Tul5Fp6uQpI",
      "hostname": "youtu.be"
    }
  ]
}