{
  "title": "Schools Are Not Working: Accept The Responsibility For Your Own Education",
  "date": "2021-03-25T02:57:50.557Z",
  "image": "poetry-0389-illustration.jpg",
  "audio": "poetry-0389.mp3",
  "artwork": "https://unsplash.com/photos/jEgQpfkHEWY",
  "id": "furkies-purrkies-poetry-0389",
  "attachments": {},
  "guid": "d91fb97e-7e79-4359-bf5d-490d8f0f2e18"
}
