{
  "title": "Your Superpowers",
  "date": "2020-06-02T01:51:09.800Z",
  "image": "poetry-0089-illustration.jpg",
  "audio": "poetry-0089.mp3",
  "id": "furkies-purrkies-poetry-0089",
  "attachments": {},
  "guid": "92baedf1-3fdc-4fef-8732-f7822ee93da8"
}
