{
  "id": "furkies-purrkies-poetry-0818",
  "title": "3D Cubes; Or, Programmatically Selecting Parts Of A Cube In Blender’s Geometry Nodes",
  "date": "2022-05-27T21:24:39.296Z",
  "image": "poetry-0818-illustration.jpg",
  "artwork": "https://catpea.com",
  "audio": "poetry-0818.mp3",
  "guid": "0732f031-cdf3-47f5-bb9a-e80b51167024"
}
