{
  "name": "furkies-purrkies-poetry-0055",
  "title": "Our Extended Family",
  "date": "2020-05-03T02:15:24.397Z",
  "image": "poetry-0055-illustration.jpg",
  "audio": "poetry-0055.mp3",
  "id": "furkies-purrkies-poetry-0055",
  "attachments": {},
  "guid": "f3e826ba-c65e-41bc-baab-7fcaa712c347",
  "html": "<div class=\"section\">\n  <p>There is a very special group of people, that many have forgotten,</p>\n  <p>our Intellectual Foremothers and Forefathers.</p>\n</div>\n<div class=\"section\">\n  <p>They brings us gifts wrapped in the primitive art of writing text, on paper.</p>\n  <p>It is frequently all they had, it was the only way to reach us.</p>\n</div>\n<div class=\"section\">\n  <p>They are brilliant, and healthy, and unbroken, and triumphant,</p>\n  <p>they are full of light, more than history will ever tell us.</p>\n</div>\n<div class=\"section\">\n  <p>Nobody who outlives an empire, will have their history shown for the lovely thing it was.</p>\n  <p>This served to protect them, and it failed to erase them.</p>\n</div>\n<div class=\"section\">\n  <p>We must never allow ourselves to merely listen to history,</p>\n  <p>because those are always writ by prevalent powers, it was their job to erase them.</p>\n</div>\n<div class=\"section\">\n  <p>More modern Philosophers had the same problem,</p>\n  <p>Our friend, Dear Friedrich, and what a Warrior...</p>\n</div>\n<div class=\"section\">\n  <p>Was smeared by the Nazis, he was so powerful, that everyone wanted a piece of his might.</p>\n  <p>Friedrich Nietzsche hated what Nazis stood for.</p>\n</div>\n<div class=\"section\">\n  <p>Recently, one of the Great Modern Philosophers was under attack, it deeply hurt and frightened her,</p>\n  <p>but her classrooms rose for her with noting but love and continued admiration.</p>\n</div>\n<div class=\"section\">\n  <p>We are tasked with bringing the light of our hearts, and resurrecting those who passed,</p>\n  <p>not by merely understanding their books, but by understanding what they were trying to say.</p>\n</div>\n<div class=\"section\">\n  <p>And it is OK, to understand them in our own way at first,</p>\n  <p>it takes time, to befriend someone, from a book, across time.</p>\n</div>\n<div class=\"section\">\n  <p>Yes, all we have to go on, is text on paper.</p>\n  <p>But we know they were just like us, they were All Too Human, friendly, and of good cheer.</p>\n</div>\n<div class=\"section\">\n  <p>If they made mistakes, these Great Beings were not stained for long,</p>\n  <p>they rose, and they took their miserable failures, to create gifts of prevention for us.</p>\n</div>\n<div class=\"section\">\n  <p>These gifts are complex, they are as complex and nuanced as You and I.</p>\n  <p>It takes hard work to inherit gifts this powerful.</p>\n</div>\n<div class=\"section\">\n  <p>The only way to unwrap those Gifts of Wisdom is with Admiration, Friendship and Love,</p>\n  <p>schools teach us to see Great Beings as these synthetic monoliths of concrete.</p>\n</div>\n<div class=\"section\">\n  <p>But nothing could be further from the truth, because all these Great Beings,</p>\n  <p>they were once kids, and teenagers, they had heartaches, dreams and hopes.</p>\n</div>\n<div class=\"section\">\n  <p>They were just like you and I, but they invented ideas that they cared to share,</p>\n  <p>and they rose to the challenges of leadership to preserve them.</p>\n</div>\n<div class=\"section\">\n  <p>Those ideas are our intellectual inheritance,</p>\n  <p>here is my attempt to name a few for your pleasure.</p>\n</div>\n<div class=\"section\">\n  <p><a href=\"https://www.youtube.com/results?search_query=Angela+Davis\">Angela Davis</a></p>\n  <p><a href=\"https://www.youtube.com/results?search_query=Avital+Ronell\">Avital Ronell</a></p>\n  <p><a href=\"https://www.youtube.com/results?search_query=Ayaan+Hirsi+Ali\">Ayaan Hirsi Ali</a></p>\n  <p><a href=\"https://www.youtube.com/results?search_query=Ayn+Rand\">Ayn Rand</a></p>\n  <p><a href=\"https://www.youtube.com/results?search_query=Friedrich+Nietzsche\">Friedrich Nietzsche</a></p>\n  <p><a href=\"https://www.youtube.com/results?search_query=Hypatia\">Beloved Hypatia</a></p>\n  <p><a href=\"https://www.youtube.com/results?search_query=Immanuel+Kant\">Immanuel Kant</a></p>\n  <p><a href=\"https://www.youtube.com/results?search_query=Simone+de+Beauvoir\">Simone de Beauvoir</a></p>\n  <p><a href=\"https://www.youtube.com/results?search_query=Ludwig+Wittgenstein\">Ludwig Wittgenstein</a></p>\n  <p><a href=\"https://www.youtube.com/results?search_query=Martha+Nussbaum\">Martha Nussbaum</a></p>\n  <p><a href=\"https://www.youtube.com/results?search_query=Mary+Wollstonecraft\">Mary Wollstonecraft</a></p>\n  <p><a href=\"https://www.youtube.com/results?search_query=Rene+Descartes\">Ren&#xE9; Descartes</a></p>\n  <p><a href=\"https://www.youtube.com/results?search_query=Socrates\">Socrates</a></p>\n  <p><a href=\"https://www.youtube.com/results?search_query=Silvia+Federici\">Silvia Federici</a></p>\n  <p><a href=\"https://www.youtube.com/results?search_query=S%C3%B8ren+Kierkegaard\">S&#xF8;ren Kierkegaard</a></p>\n  <p><a href=\"https://en.wikipedia.org/wiki/Lists_of_philosophers\">More</a></p>\n</div>\n",
  "bootstrap": "<div class=\"card card-section bg-dark text-warning shadow\">\n  <div class=\"section card-body mb-0 my-2\">\n    <div class=\"paragraph card-text card-stanza my-5 text-center\">There is a very special group of people, that many have forgotten,</div>\n    <div class=\"paragraph card-text card-stanza my-5 text-center\">our Intellectual Foremothers and Forefathers.</div>\n  </div>\n</div>\n<div class=\"card card-section bg-dark text-warning shadow\">\n  <div class=\"section card-body mb-0 my-2\">\n    <div class=\"paragraph card-text card-stanza my-5 text-center\">They brings us gifts wrapped in the primitive art of writing text, on paper.</div>\n    <div class=\"paragraph card-text card-stanza my-5 text-center\">It is frequently all they had, it was the only way to reach us.</div>\n  </div>\n</div>\n<div class=\"card card-section bg-dark text-warning shadow\">\n  <div class=\"section card-body mb-0 my-2\">\n    <div class=\"paragraph card-text card-stanza my-5 text-center\">They are brilliant, and healthy, and unbroken, and triumphant,</div>\n    <div class=\"paragraph card-text card-stanza my-5 text-center\">they are full of light, more than history will ever tell us.</div>\n  </div>\n</div>\n<div class=\"card card-section bg-dark text-warning shadow\">\n  <div class=\"section card-body mb-0 my-2\">\n    <div class=\"paragraph card-text card-stanza my-5 text-center\">Nobody who outlives an empire, will have their history shown for the lovely thing it was.</div>\n    <div class=\"paragraph card-text card-stanza my-5 text-center\">This served to protect them, and it failed to erase them.</div>\n  </div>\n</div>\n<div class=\"card card-section bg-dark text-warning shadow\">\n  <div class=\"section card-body mb-0 my-2\">\n    <div class=\"paragraph card-text card-stanza my-5 text-center\">We must never allow ourselves to merely listen to history,</div>\n    <div class=\"paragraph card-text card-stanza my-5 text-center\">because those are always writ by prevalent powers, it was their job to erase them.</div>\n  </div>\n</div>\n<div class=\"card card-section bg-dark text-warning shadow\">\n  <div class=\"section card-body mb-0 my-2\">\n    <div class=\"paragraph card-text card-stanza my-5 text-center\">More modern Philosophers had the same problem,</div>\n    <div class=\"paragraph card-text card-stanza my-5 text-center\">Our friend, Dear Friedrich, and what a Warrior...</div>\n  </div>\n</div>\n<div class=\"card card-section bg-dark text-warning shadow\">\n  <div class=\"section card-body mb-0 my-2\">\n    <div class=\"paragraph card-text card-stanza my-5 text-center\">Was smeared by the Nazis, he was so powerful, that everyone wanted a piece of his might.</div>\n    <div class=\"paragraph card-text card-stanza my-5 text-center\">Friedrich Nietzsche hated what Nazis stood for.</div>\n  </div>\n</div>\n<div class=\"card card-section bg-dark text-warning shadow\">\n  <div class=\"section card-body mb-0 my-2\">\n    <div class=\"paragraph card-text card-stanza my-5 text-center\">Recently, one of the Great Modern Philosophers was under attack, it deeply hurt and frightened her,</div>\n    <div class=\"paragraph card-text card-stanza my-5 text-center\">but her classrooms rose for her with noting but love and continued admiration.</div>\n  </div>\n</div>\n<div class=\"card card-section bg-dark text-warning shadow\">\n  <div class=\"section card-body mb-0 my-2\">\n    <div class=\"paragraph card-text card-stanza my-5 text-center\">We are tasked with bringing the light of our hearts, and resurrecting those who passed,</div>\n    <div class=\"paragraph card-text card-stanza my-5 text-center\">not by merely understanding their books, but by understanding what they were trying to say.</div>\n  </div>\n</div>\n<div class=\"card card-section bg-dark text-warning shadow\">\n  <div class=\"section card-body mb-0 my-2\">\n    <div class=\"paragraph card-text card-stanza my-5 text-center\">And it is OK, to understand them in our own way at first,</div>\n    <div class=\"paragraph card-text card-stanza my-5 text-center\">it takes time, to befriend someone, from a book, across time.</div>\n  </div>\n</div>\n<div class=\"card card-section bg-dark text-warning shadow\">\n  <div class=\"section card-body mb-0 my-2\">\n    <div class=\"paragraph card-text card-stanza my-5 text-center\">Yes, all we have to go on, is text on paper.</div>\n    <div class=\"paragraph card-text card-stanza my-5 text-center\">But we know they were just like us, they were All Too Human, friendly, and of good cheer.</div>\n  </div>\n</div>\n<div class=\"card card-section bg-dark text-warning shadow\">\n  <div class=\"section card-body mb-0 my-2\">\n    <div class=\"paragraph card-text card-stanza my-5 text-center\">If they made mistakes, these Great Beings were not stained for long,</div>\n    <div class=\"paragraph card-text card-stanza my-5 text-center\">they rose, and they took their miserable failures, to create gifts of prevention for us.</div>\n  </div>\n</div>\n<div class=\"card card-section bg-dark text-warning shadow\">\n  <div class=\"section card-body mb-0 my-2\">\n    <div class=\"paragraph card-text card-stanza my-5 text-center\">These gifts are complex, they are as complex and nuanced as You and I.</div>\n    <div class=\"paragraph card-text card-stanza my-5 text-center\">It takes hard work to inherit gifts this powerful.</div>\n  </div>\n</div>\n<div class=\"card card-section bg-dark text-warning shadow\">\n  <div class=\"section card-body mb-0 my-2\">\n    <div class=\"paragraph card-text card-stanza my-5 text-center\">The only way to unwrap those Gifts of Wisdom is with Admiration, Friendship and Love,</div>\n    <div class=\"paragraph card-text card-stanza my-5 text-center\">schools teach us to see Great Beings as these synthetic monoliths of concrete.</div>\n  </div>\n</div>\n<div class=\"card card-section bg-dark text-warning shadow\">\n  <div class=\"section card-body mb-0 my-2\">\n    <div class=\"paragraph card-text card-stanza my-5 text-center\">But nothing could be further from the truth, because all these Great Beings,</div>\n    <div class=\"paragraph card-text card-stanza my-5 text-center\">they were once kids, and teenagers, they had heartaches, dreams and hopes.</div>\n  </div>\n</div>\n<div class=\"card card-section bg-dark text-warning shadow\">\n  <div class=\"section card-body mb-0 my-2\">\n    <div class=\"paragraph card-text card-stanza my-5 text-center\">They were just like you and I, but they invented ideas that they cared to share,</div>\n    <div class=\"paragraph card-text card-stanza my-5 text-center\">and they rose to the challenges of leadership to preserve them.</div>\n  </div>\n</div>\n<div class=\"card card-section bg-dark text-warning shadow\">\n  <div class=\"section card-body mb-0 my-2\">\n    <div class=\"paragraph card-text card-stanza my-5 text-center\">Those ideas are our intellectual inheritance,</div>\n    <div class=\"paragraph card-text card-stanza my-5 text-center\">here is my attempt to name a few for your pleasure.</div>\n  </div>\n</div>\n<div class=\"card card-section bg-dark text-warning shadow\">\n  <div class=\"section card-body mb-0 my-2\">\n    <div class=\"paragraph card-text card-stanza my-5 text-center\"><a href=\"https://www.youtube.com/results?search_query=Angela+Davis\">Angela Davis</a></div>\n    <div class=\"paragraph card-text card-stanza my-5 text-center\"><a href=\"https://www.youtube.com/results?search_query=Avital+Ronell\">Avital Ronell</a></div>\n    <div class=\"paragraph card-text card-stanza my-5 text-center\"><a href=\"https://www.youtube.com/results?search_query=Ayaan+Hirsi+Ali\">Ayaan Hirsi Ali</a></div>\n    <div class=\"paragraph card-text card-stanza my-5 text-center\"><a href=\"https://www.youtube.com/results?search_query=Ayn+Rand\">Ayn Rand</a></div>\n    <div class=\"paragraph card-text card-stanza my-5 text-center\"><a href=\"https://www.youtube.com/results?search_query=Friedrich+Nietzsche\">Friedrich Nietzsche</a></div>\n    <div class=\"paragraph card-text card-stanza my-5 text-center\"><a href=\"https://www.youtube.com/results?search_query=Hypatia\">Beloved Hypatia</a></div>\n    <div class=\"paragraph card-text card-stanza my-5 text-center\"><a href=\"https://www.youtube.com/results?search_query=Immanuel+Kant\">Immanuel Kant</a></div>\n    <div class=\"paragraph card-text card-stanza my-5 text-center\"><a href=\"https://www.youtube.com/results?search_query=Simone+de+Beauvoir\">Simone de Beauvoir</a></div>\n    <div class=\"paragraph card-text card-stanza my-5 text-center\"><a href=\"https://www.youtube.com/results?search_query=Ludwig+Wittgenstein\">Ludwig Wittgenstein</a></div>\n    <div class=\"paragraph card-text card-stanza my-5 text-center\"><a href=\"https://www.youtube.com/results?search_query=Martha+Nussbaum\">Martha Nussbaum</a></div>\n    <div class=\"paragraph card-text card-stanza my-5 text-center\"><a href=\"https://www.youtube.com/results?search_query=Mary+Wollstonecraft\">Mary Wollstonecraft</a></div>\n    <div class=\"paragraph card-text card-stanza my-5 text-center\"><a href=\"https://www.youtube.com/results?search_query=Rene+Descartes\">René Descartes</a></div>\n    <div class=\"paragraph card-text card-stanza my-5 text-center\"><a href=\"https://www.youtube.com/results?search_query=Socrates\">Socrates</a></div>\n    <div class=\"paragraph card-text card-stanza my-5 text-center\"><a href=\"https://www.youtube.com/results?search_query=Silvia+Federici\">Silvia Federici</a></div>\n    <div class=\"paragraph card-text card-stanza my-5 text-center\"><a href=\"https://www.youtube.com/results?search_query=S%C3%B8ren+Kierkegaard\">Søren Kierkegaard</a></div>\n    <div class=\"paragraph card-text card-stanza my-5 text-center\"><a href=\"https://en.wikipedia.org/wiki/Lists_of_philosophers\">More</a></div>\n  </div>\n</div>",
  "print": "<div class=\"section avoid-break-inside\" style=\"padding-bottom: 2rem;\">\n  <div class=\"paragraph\">There is a very special group of people, that many have forgotten,</div>\n  <div class=\"paragraph\">our Intellectual Foremothers and Forefathers.</div>\n</div>\n<div class=\"section avoid-break-inside\" style=\"padding-bottom: 2rem;\">\n  <div class=\"paragraph\">They brings us gifts wrapped in the primitive art of writing text, on paper.</div>\n  <div class=\"paragraph\">It is frequently all they had, it was the only way to reach us.</div>\n</div>\n<div class=\"section avoid-break-inside\" style=\"padding-bottom: 2rem;\">\n  <div class=\"paragraph\">They are brilliant, and healthy, and unbroken, and triumphant,</div>\n  <div class=\"paragraph\">they are full of light, more than history will ever tell us.</div>\n</div>\n<div class=\"section avoid-break-inside\" style=\"padding-bottom: 2rem;\">\n  <div class=\"paragraph\">Nobody who outlives an empire, will have their history shown for the lovely thing it was.</div>\n  <div class=\"paragraph\">This served to protect them, and it failed to erase them.</div>\n</div>\n<div class=\"section avoid-break-inside\" style=\"padding-bottom: 2rem;\">\n  <div class=\"paragraph\">We must never allow ourselves to merely listen to history,</div>\n  <div class=\"paragraph\">because those are always writ by prevalent powers, it was their job to erase them.</div>\n</div>\n<div class=\"section avoid-break-inside\" style=\"padding-bottom: 2rem;\">\n  <div class=\"paragraph\">More modern Philosophers had the same problem,</div>\n  <div class=\"paragraph\">Our friend, Dear Friedrich, and what a Warrior...</div>\n</div>\n<div class=\"section avoid-break-inside\" style=\"padding-bottom: 2rem;\">\n  <div class=\"paragraph\">Was smeared by the Nazis, he was so powerful, that everyone wanted a piece of his might.</div>\n  <div class=\"paragraph\">Friedrich Nietzsche hated what Nazis stood for.</div>\n</div>\n<div class=\"section avoid-break-inside\" style=\"padding-bottom: 2rem;\">\n  <div class=\"paragraph\">Recently, one of the Great Modern Philosophers was under attack, it deeply hurt and frightened her,</div>\n  <div class=\"paragraph\">but her classrooms rose for her with noting but love and continued admiration.</div>\n</div>\n<div class=\"section avoid-break-inside\" style=\"padding-bottom: 2rem;\">\n  <div class=\"paragraph\">We are tasked with bringing the light of our hearts, and resurrecting those who passed,</div>\n  <div class=\"paragraph\">not by merely understanding their books, but by understanding what they were trying to say.</div>\n</div>\n<div class=\"section avoid-break-inside\" style=\"padding-bottom: 2rem;\">\n  <div class=\"paragraph\">And it is OK, to understand them in our own way at first,</div>\n  <div class=\"paragraph\">it takes time, to befriend someone, from a book, across time.</div>\n</div>\n<div class=\"section avoid-break-inside\" style=\"padding-bottom: 2rem;\">\n  <div class=\"paragraph\">Yes, all we have to go on, is text on paper.</div>\n  <div class=\"paragraph\">But we know they were just like us, they were All Too Human, friendly, and of good cheer.</div>\n</div>\n<div class=\"section avoid-break-inside\" style=\"padding-bottom: 2rem;\">\n  <div class=\"paragraph\">If they made mistakes, these Great Beings were not stained for long,</div>\n  <div class=\"paragraph\">they rose, and they took their miserable failures, to create gifts of prevention for us.</div>\n</div>\n<div class=\"section avoid-break-inside\" style=\"padding-bottom: 2rem;\">\n  <div class=\"paragraph\">These gifts are complex, they are as complex and nuanced as You and I.</div>\n  <div class=\"paragraph\">It takes hard work to inherit gifts this powerful.</div>\n</div>\n<div class=\"section avoid-break-inside\" style=\"padding-bottom: 2rem;\">\n  <div class=\"paragraph\">The only way to unwrap those Gifts of Wisdom is with Admiration, Friendship and Love,</div>\n  <div class=\"paragraph\">schools teach us to see Great Beings as these synthetic monoliths of concrete.</div>\n</div>\n<div class=\"section avoid-break-inside\" style=\"padding-bottom: 2rem;\">\n  <div class=\"paragraph\">But nothing could be further from the truth, because all these Great Beings,</div>\n  <div class=\"paragraph\">they were once kids, and teenagers, they had heartaches, dreams and hopes.</div>\n</div>\n<div class=\"section avoid-break-inside\" style=\"padding-bottom: 2rem;\">\n  <div class=\"paragraph\">They were just like you and I, but they invented ideas that they cared to share,</div>\n  <div class=\"paragraph\">and they rose to the challenges of leadership to preserve them.</div>\n</div>\n<div class=\"section avoid-break-inside\" style=\"padding-bottom: 2rem;\">\n  <div class=\"paragraph\">Those ideas are our intellectual inheritance,</div>\n  <div class=\"paragraph\">here is my attempt to name a few for your pleasure.</div>\n</div>\n<div class=\"section avoid-break-inside\" style=\"padding-bottom: 2rem;\">\n  <div class=\"paragraph\"><span>Angela Davis<sup>[1]</sup></span></div>\n  <div class=\"paragraph\"><span>Avital Ronell<sup>[2]</sup></span></div>\n  <div class=\"paragraph\"><span>Ayaan Hirsi Ali<sup>[3]</sup></span></div>\n  <div class=\"paragraph\"><span>Ayn Rand<sup>[4]</sup></span></div>\n  <div class=\"paragraph\"><span>Friedrich Nietzsche<sup>[5]</sup></span></div>\n  <div class=\"paragraph\"><span>Beloved Hypatia<sup>[6]</sup></span></div>\n  <div class=\"paragraph\"><span>Immanuel Kant<sup>[7]</sup></span></div>\n  <div class=\"paragraph\"><span>Simone de Beauvoir<sup>[8]</sup></span></div>\n  <div class=\"paragraph\"><span>Ludwig Wittgenstein<sup>[9]</sup></span></div>\n  <div class=\"paragraph\"><span>Martha Nussbaum<sup>[10]</sup></span></div>\n  <div class=\"paragraph\"><span>Mary Wollstonecraft<sup>[11]</sup></span></div>\n  <div class=\"paragraph\"><span>René Descartes<sup>[12]</sup></span></div>\n  <div class=\"paragraph\"><span>Socrates<sup>[13]</sup></span></div>\n  <div class=\"paragraph\"><span>Silvia Federici<sup>[14]</sup></span></div>\n  <div class=\"paragraph\"><span>Søren Kierkegaard<sup>[15]</sup></span></div>\n  <div class=\"paragraph\"><span>More<sup>[16]</sup></span></div>\n</div>\n<div class=\"break-after\">&nbsp;</div>\n<div>\n  <div class=\"section\" style=\"padding-bottom: 1rem;\">References</div>\n  <div>[1]: https://www.youtube.com/results?search_query=Angela+Davis</div>\n  <div>[2]: https://www.youtube.com/results?search_query=Avital+Ronell</div>\n  <div>[3]: https://www.youtube.com/results?search_query=Ayaan+Hirsi+Ali</div>\n  <div>[4]: https://www.youtube.com/results?search_query=Ayn+Rand</div>\n  <div>[5]: https://www.youtube.com/results?search_query=Friedrich+Nietzsche</div>\n  <div>[6]: https://www.youtube.com/results?search_query=Hypatia</div>\n  <div>[7]: https://www.youtube.com/results?search_query=Immanuel+Kant</div>\n  <div>[8]: https://www.youtube.com/results?search_query=Simone+de+Beauvoir</div>\n  <div>[9]: https://www.youtube.com/results?search_query=Ludwig+Wittgenstein</div>\n  <div>[10]: https://www.youtube.com/results?search_query=Martha+Nussbaum</div>\n  <div>[11]: https://www.youtube.com/results?search_query=Mary+Wollstonecraft</div>\n  <div>[12]: https://www.youtube.com/results?search_query=Rene+Descartes</div>\n  <div>[13]: https://www.youtube.com/results?search_query=Socrates</div>\n  <div>[14]: https://www.youtube.com/results?search_query=Silvia+Federici</div>\n  <div>[15]: https://www.youtube.com/results?search_query=S%C3%B8ren+Kierkegaard</div>\n  <div>[16]: https://en.wikipedia.org/wiki/Lists_of_philosophers</div>\n</div>",
  "text": "There is a very special group of people, that many have forgotten,\nour Intellectual Foremothers and Forefathers.\nThey brings us gifts wrapped in the primitive art of writing text, on paper.\nIt is frequently all they had, it was the only way to reach us.\nThey are brilliant, and healthy, and unbroken, and triumphant,\nthey are full of light, more than history will ever tell us.\nNobody who outlives an empire, will have their history shown for the lovely thing it was.\nThis served to protect them, and it failed to erase them.\nWe must never allow ourselves to merely listen to history,\nbecause those are always writ by prevalent powers, it was their job to erase them.\nMore modern Philosophers had the same problem,\nOur friend, Dear Friedrich, and what a Warrior...\nWas smeared by the Nazis, he was so powerful, that everyone wanted a piece of his might.\nFriedrich Nietzsche hated what Nazis stood for.\nRecently, one of the Great Modern Philosophers was under attack, it deeply hurt and frightened her,\nbut her classrooms rose for her with noting but love and continued admiration.\nWe are tasked with bringing the light of our hearts, and resurrecting those who passed,\nnot by merely understanding their books, but by understanding what they were trying to say.\nAnd it is OK, to understand them in our own way at first,\nit takes time, to befriend someone, from a book, across time.\nYes, all we have to go on, is text on paper.\nBut we know they were just like us, they were All Too Human, friendly, and of good cheer.\nIf they made mistakes, these Great Beings were not stained for long,\nthey rose, and they took their miserable failures, to create gifts of prevention for us.\nThese gifts are complex, they are as complex and nuanced as You and I.\nIt takes hard work to inherit gifts this powerful.\nThe only way to unwrap those Gifts of Wisdom is with Admiration, Friendship and Love,\nschools teach us to see Great Beings as these synthetic monoliths of concrete.\nBut nothing could be further from the truth, because all these Great Beings,\nthey were once kids, and teenagers, they had heartaches, dreams and hopes.\nThey were just like you and I, but they invented ideas that they cared to share,\nand they rose to the challenges of leadership to preserve them.\nThose ideas are our intellectual inheritance,\nhere is my attempt to name a few for your pleasure.\nAngela Davis[1]\nAvital Ronell[2]\nAyaan Hirsi Ali[3]\nAyn Rand[4]\nFriedrich Nietzsche[5]\nBeloved Hypatia[6]\nImmanuel Kant[7]\nSimone de Beauvoir[8]\nLudwig Wittgenstein[9]\nMartha Nussbaum[10]\nMary Wollstonecraft[11]\nRené Descartes[12]\nSocrates[13]\nSilvia Federici[14]\nSøren Kierkegaard[15]\nMore[16]\n \nReferences\n[1]: https://www.youtube.com/results?search_query=Angela+Davis\n[2]: https://www.youtube.com/results?search_query=Avital+Ronell\n[3]: https://www.youtube.com/results?search_query=Ayaan+Hirsi+Ali\n[4]: https://www.youtube.com/results?search_query=Ayn+Rand\n[5]: https://www.youtube.com/results?search_query=Friedrich+Nietzsche\n[6]: https://www.youtube.com/results?search_query=Hypatia\n[7]: https://www.youtube.com/results?search_query=Immanuel+Kant\n[8]: https://www.youtube.com/results?search_query=Simone+de+Beauvoir\n[9]: https://www.youtube.com/results?search_query=Ludwig+Wittgenstein\n[10]: https://www.youtube.com/results?search_query=Martha+Nussbaum\n[11]: https://www.youtube.com/results?search_query=Mary+Wollstonecraft\n[12]: https://www.youtube.com/results?search_query=Rene+Descartes\n[13]: https://www.youtube.com/results?search_query=Socrates\n[14]: https://www.youtube.com/results?search_query=Silvia+Federici\n[15]: https://www.youtube.com/results?search_query=S%C3%B8ren+Kierkegaard\n[16]: https://en.wikipedia.org/wiki/Lists_of_philosophers",
  "images": [],
  "links": [
    {
      "title": "Angela Davis",
      "url": "https://www.youtube.com/results?search_query=Angela+Davis",
      "hostname": "www.youtube.com"
    },
    {
      "title": "Avital Ronell",
      "url": "https://www.youtube.com/results?search_query=Avital+Ronell",
      "hostname": "www.youtube.com"
    },
    {
      "title": "Ayaan Hirsi Ali",
      "url": "https://www.youtube.com/results?search_query=Ayaan+Hirsi+Ali",
      "hostname": "www.youtube.com"
    },
    {
      "title": "Ayn Rand",
      "url": "https://www.youtube.com/results?search_query=Ayn+Rand",
      "hostname": "www.youtube.com"
    },
    {
      "title": "Friedrich Nietzsche",
      "url": "https://www.youtube.com/results?search_query=Friedrich+Nietzsche",
      "hostname": "www.youtube.com"
    },
    {
      "title": "Beloved Hypatia",
      "url": "https://www.youtube.com/results?search_query=Hypatia",
      "hostname": "www.youtube.com"
    },
    {
      "title": "Immanuel Kant",
      "url": "https://www.youtube.com/results?search_query=Immanuel+Kant",
      "hostname": "www.youtube.com"
    },
    {
      "title": "Simone de Beauvoir",
      "url": "https://www.youtube.com/results?search_query=Simone+de+Beauvoir",
      "hostname": "www.youtube.com"
    },
    {
      "title": "Ludwig Wittgenstein",
      "url": "https://www.youtube.com/results?search_query=Ludwig+Wittgenstein",
      "hostname": "www.youtube.com"
    },
    {
      "title": "Martha Nussbaum",
      "url": "https://www.youtube.com/results?search_query=Martha+Nussbaum",
      "hostname": "www.youtube.com"
    },
    {
      "title": "Mary Wollstonecraft",
      "url": "https://www.youtube.com/results?search_query=Mary+Wollstonecraft",
      "hostname": "www.youtube.com"
    },
    {
      "title": "René Descartes",
      "url": "https://www.youtube.com/results?search_query=Rene+Descartes",
      "hostname": "www.youtube.com"
    },
    {
      "title": "Socrates",
      "url": "https://www.youtube.com/results?search_query=Socrates",
      "hostname": "www.youtube.com"
    },
    {
      "title": "Silvia Federici",
      "url": "https://www.youtube.com/results?search_query=Silvia+Federici",
      "hostname": "www.youtube.com"
    },
    {
      "title": "Søren Kierkegaard",
      "url": "https://www.youtube.com/results?search_query=S%C3%B8ren+Kierkegaard",
      "hostname": "www.youtube.com"
    },
    {
      "title": "More",
      "url": "https://en.wikipedia.org/wiki/Lists_of_philosophers",
      "hostname": "en.wikipedia.org"
    }
  ]
}