{
  "name": "furkies-purrkies-poetry-0041",
  "title": "Everybody Counts",
  "date": "2020-04-22T01:29:53.978Z",
  "audio": "poetry-0041.mp3",
  "image": "poetry-0041-illustration.jpg",
  "artwork": "https://catpea.com/",
  "id": "furkies-purrkies-poetry-0041",
  "attachments": {},
  "guid": "77435cf7-6c11-4a87-a2e6-4d36c6478825",
  "html": "<div class=\"section\">\n  <p>Captain&apos;s Log, Quarantine, Day Thirty Six.</p>\n  <p>Today has been an interesting mix,</p>\n</div>\n<div class=\"section\">\n  <p>We have to be strong,</p>\n  <p>and go far and long.</p>\n</div>\n<div class=\"section\">\n  <p>We can&apos;t sit around,</p>\n  <p>looking at the ground,</p>\n</div>\n<div class=\"section\">\n  <p>We are each a hero,</p>\n  <p>and none are zero.</p>\n</div>\n<div class=\"section\">\n  <p>Everybody counts,</p>\n  <p>care for each other amounts,</p>\n</div>\n<div class=\"section\">\n  <p>It amounts to Happiness and Cheer,</p>\n  <p>and all the Wonders we hold Dear.</p>\n</div>",
  "bootstrap": "<div class=\"card card-section bg-dark text-warning shadow\">\n  <div class=\"section card-body mb-0 my-2\">\n    <div class=\"paragraph card-text card-stanza my-5 text-center\">Captain's Log, Quarantine, Day Thirty Six.</div>\n    <div class=\"paragraph card-text card-stanza my-5 text-center\">Today has been an interesting mix,</div>\n  </div>\n</div>\n<div class=\"card card-section bg-dark text-warning shadow\">\n  <div class=\"section card-body mb-0 my-2\">\n    <div class=\"paragraph card-text card-stanza my-5 text-center\">We have to be strong,</div>\n    <div class=\"paragraph card-text card-stanza my-5 text-center\">and go far and long.</div>\n  </div>\n</div>\n<div class=\"card card-section bg-dark text-warning shadow\">\n  <div class=\"section card-body mb-0 my-2\">\n    <div class=\"paragraph card-text card-stanza my-5 text-center\">We can't sit around,</div>\n    <div class=\"paragraph card-text card-stanza my-5 text-center\">looking at the ground,</div>\n  </div>\n</div>\n<div class=\"card card-section bg-dark text-warning shadow\">\n  <div class=\"section card-body mb-0 my-2\">\n    <div class=\"paragraph card-text card-stanza my-5 text-center\">We are each a hero,</div>\n    <div class=\"paragraph card-text card-stanza my-5 text-center\">and none are zero.</div>\n  </div>\n</div>\n<div class=\"card card-section bg-dark text-warning shadow\">\n  <div class=\"section card-body mb-0 my-2\">\n    <div class=\"paragraph card-text card-stanza my-5 text-center\">Everybody counts,</div>\n    <div class=\"paragraph card-text card-stanza my-5 text-center\">care for each other amounts,</div>\n  </div>\n</div>\n<div class=\"card card-section bg-dark text-warning shadow\">\n  <div class=\"section card-body mb-0 my-2\">\n    <div class=\"paragraph card-text card-stanza my-5 text-center\">It amounts to Happiness and Cheer,</div>\n    <div class=\"paragraph card-text card-stanza my-5 text-center\">and all the Wonders we hold Dear.</div>\n  </div>\n</div>",
  "print": "<div class=\"section avoid-break-inside\" style=\"padding-bottom: 2rem;\">\n  <div class=\"paragraph\">Captain's Log, Quarantine, Day Thirty Six.</div>\n  <div class=\"paragraph\">Today has been an interesting mix,</div>\n</div>\n<div class=\"section avoid-break-inside\" style=\"padding-bottom: 2rem;\">\n  <div class=\"paragraph\">We have to be strong,</div>\n  <div class=\"paragraph\">and go far and long.</div>\n</div>\n<div class=\"section avoid-break-inside\" style=\"padding-bottom: 2rem;\">\n  <div class=\"paragraph\">We can't sit around,</div>\n  <div class=\"paragraph\">looking at the ground,</div>\n</div>\n<div class=\"section avoid-break-inside\" style=\"padding-bottom: 2rem;\">\n  <div class=\"paragraph\">We are each a hero,</div>\n  <div class=\"paragraph\">and none are zero.</div>\n</div>\n<div class=\"section avoid-break-inside\" style=\"padding-bottom: 2rem;\">\n  <div class=\"paragraph\">Everybody counts,</div>\n  <div class=\"paragraph\">care for each other amounts,</div>\n</div>\n<div class=\"section avoid-break-inside\" style=\"padding-bottom: 2rem;\">\n  <div class=\"paragraph\">It amounts to Happiness and Cheer,</div>\n  <div class=\"paragraph\">and all the Wonders we hold Dear.</div>\n</div>",
  "text": "Captain's Log, Quarantine, Day Thirty Six.\nToday has been an interesting mix,\nWe have to be strong,\nand go far and long.\nWe can't sit around,\nlooking at the ground,\nWe are each a hero,\nand none are zero.\nEverybody counts,\ncare for each other amounts,\nIt amounts to Happiness and Cheer,\nand all the Wonders we hold Dear.",
  "images": [],
  "links": []
}