{
  "title": "Ariadne",
  "date": "2020-10-14T02:10:03.619Z",
  "image": "poetry-0227-illustration.jpg",
  "audio": "poetry-0227.mp3",
  "artwork": "https://unsplash.com/photos/czHHGuraIQQ",
  "id": "furkies-purrkies-poetry-0227",
  "attachments": {},
  "guid": "27470e9b-3d0c-4606-8d6e-51180317a664"
}
