{
  "name": "furkies-purrkies-poetry-0472",
  "title": "To A Culture Of Knowledge, Wisdom, And Greatness",
  "date": "2021-06-15T21:19:47.398Z",
  "image": "poetry-0472-illustration.jpg",
  "audio": "poetry-0472.mp3",
  "artwork": "https://unsplash.com/photos/yt5e_nZ7CZ8",
  "id": "furkies-purrkies-poetry-0472",
  "attachments": {},
  "guid": "fb35c7fd-6420-473d-aaf7-382062eb93c1",
  "html": "<div class=\"section\">\n  <p>Hey,</p>\n  <p>Teacher.</p>\n</div>\n\n<div class=\"section\">\n  <p>A lot of the students somehow know...</p>\n  <p>- and they are watching you.</p>\n</div>\n\n<div class=\"section\">\n  <p>They are learning from you,</p>\n  <p>what not to become.</p>\n</div>\n\n<div class=\"section\">\n  <hr>\n</div>\n\n<div class=\"section\">\n  <p>Most teachers will copy other teacher&apos;s grades,</p>\n  <p>even when classes are not related.</p>\n</div>\n\n<div class=\"section\">\n  <p>To them a C student,</p>\n  <p>is a C student in their class too.</p>\n</div>\n\n<div class=\"section\">\n  <p>So a C in English,</p>\n  <p>will make a C student in Spanish, maybe in Math, and probably in Art too.</p>\n</div>\n\n<div class=\"section\">\n  <p>This is called &quot;I hate my job&quot;,</p>\n  <p>this is called incompetence.</p>\n</div>\n\n<div class=\"section\">\n  <hr>\n</div>\n\n<div class=\"section\">\n  <p>Teaching is not a job, painting is a job, maintenance is a job,</p>\n  <p>teaching is about propagation of the best of culture.</p>\n</div>\n\n<div class=\"section\">\n  <p>To fail to teach,</p>\n  <p>is to fail an entire generation.</p>\n</div>\n\n<div class=\"section\">\n  <p>To fail a generation,</p>\n  <p>is to have them repeat mistakes, and force them to make new ones.</p>\n</div>\n\n<div class=\"section\">\n  <p>A failed culture is a cult,</p>\n  <p>it is a temporary thing swiftly moving towards the brick wall of reality.</p>\n</div>\n\n<div class=\"section\">\n  <p>It won&apos;t just be about torture like <a href=\"https://www.youtube.com/watch?v=4LPubUCJv58\">enhanced-interrogation</a>,</p>\n  <p>or concentration camps like <a href=\"https://www.youtube.com/watch?v=_Jq-V4qvZh8\">cramped government-detention facilities that separate children from mothers</a>,</p>\n  <p>and it won&apos;t stop at what has been called <a href=\"https://www.youtube.com/watch?v=t7RojQpJWMw\">vocational facilities</a>.</p>\n</div>\n\n<div class=\"section\">\n  <p>To fail a generation,</p>\n  <p>is to restart them at zero, and have them repeat every horrible mistake.</p>\n</div>\n\n<div class=\"section\">\n  <p>Teaching is not a job,</p>\n  <p>is all we have.</p>\n</div>\n\n<div class=\"section\">\n  <p>Teaching is all we have.</p>\n</div>\n\n<div class=\"section\">\n  <p>Teaching. is. all. we. have.</p>\n</div>\n\n<div class=\"section\">\n  <p>Teaching is all we have.</p>\n</div>\n\n<div class=\"section\">\n  <p>Teaching is all we have.</p>\n</div>\n\n<div class=\"section\">\n  <hr>\n</div>\n\n<div class=\"section\">\n  <p>Schools that use grades,</p>\n  <p>cause harm.</p>\n</div>\n\n<div class=\"section\">\n  <p>Teachers that blindly follow the broken practice,</p>\n  <p>misunderstood the meaning of education.</p>\n</div>\n\n<div class=\"section\">\n  <p>Children with bad grades,</p>\n  <p>will use them as a measure of self.</p>\n</div>\n\n<div class=\"section\">\n  <p><a href=\"https://www.youtube.com/watch?v=sxyKNMrhEvY\">Curriculum based education causes harm</a>,</p>\n  <p>teachers often scare their students into memorization, which is meaningless and temporary.</p>\n</div>\n\n<div class=\"section\">\n  <p>Maybe not completely meaningless,</p>\n  <p>because by a very long extension that the teachers themselves won&apos;t grasp in their shallow thinking and ignorance, the teachers cause great harm.</p>\n</div>\n\n<div class=\"section\">\n  <p>They set the students up,</p>\n  <p>for complete failure.</p>\n</div>\n\n\n<div class=\"section\">\n  <hr>\n</div>\n\n<div class=\"section\">\n  <p>A good programmer kid,</p>\n  <p>will not get an A in programming when they are flunking math.</p>\n</div>\n\n<div class=\"section\">\n  <p>And they will be flunking Math, because unlike Programming which is a rational chain of functions,</p>\n  <p>math teachers in their sick incompetence will frighten their students into brainless memorization.</p>\n</div>\n\n<div class=\"section\">\n  <p>Programming is a superset of math, think of programming as a thing that wraps math,</p>\n  <p><a href=\"https://github.com/catpea/math-as-code\">school math is tiny compared to software</a>.</p>\n</div>\n\n<div class=\"section\">\n  <p>Bad teachers have no grasp on fundamentals, and in some cases reality even,</p>\n  <p>they only know enough to bring a paycheck home, and sadly, that is more than enough to destroy minds.</p>\n</div>\n\n<div class=\"section\">\n  <p>There is no argument to save the face of bad teachers,</p>\n  <p>because of the harm their misunderstanding, has caused - they are the men that sold the world.</p>\n</div>\n\n<div class=\"section\">\n  <hr>\n</div>\n\n<div class=\"section\">\n  <p>Homeschooling will only make things worse,</p>\n  <p>it will cut students off from modern culture.</p>\n</div>\n\n<div class=\"section\">\n  <p>Homeschooling is likely to make students more susceptible to lies and manipulations,</p>\n  <p>and their eventual start in life will be worse for it.</p>\n</div>\n\n<div class=\"section\">\n  <hr>\n</div>\n\n<div class=\"section\">\n  <p>An education,</p>\n  <p>is not supposed to be something that starts when a student goes to school.</p>\n</div>\n\n<div class=\"section\">\n  <p>That kind of education,</p>\n  <p>is the least and the worst.</p>\n</div>\n\n<div class=\"section\">\n  <p>What a child, or student needs,</p>\n  <p>is, Culture of Knowledge.</p>\n</div>",
  "bootstrap": "<div class=\"card card-section bg-dark text-warning shadow\">\n  <div class=\"section card-body mb-0 my-2\">\n    <div class=\"paragraph card-text card-stanza my-5 text-center\">Hey,</div>\n    <div class=\"paragraph card-text card-stanza my-5 text-center\">Teacher.</div>\n  </div>\n</div>\n<div class=\"card card-section bg-dark text-warning shadow\">\n  <div class=\"section card-body mb-0 my-2\">\n    <div class=\"paragraph card-text card-stanza my-5 text-center\">A lot of the students somehow know...</div>\n    <div class=\"paragraph card-text card-stanza my-5 text-center\">- and they are watching you.</div>\n  </div>\n</div>\n<div class=\"card card-section bg-dark text-warning shadow\">\n  <div class=\"section card-body mb-0 my-2\">\n    <div class=\"paragraph card-text card-stanza my-5 text-center\">They are learning from you,</div>\n    <div class=\"paragraph card-text card-stanza my-5 text-center\">what not to become.</div>\n  </div>\n</div>\n<div class=\"mb-5 section-spacer\">&nbsp;</div>\n<div class=\"card card-section bg-dark text-warning shadow\">\n  <div class=\"section card-body mb-0 my-2\">\n    <div class=\"paragraph card-text card-stanza my-5 text-center\">Most teachers will copy other teacher's grades,</div>\n    <div class=\"paragraph card-text card-stanza my-5 text-center\">even when classes are not related.</div>\n  </div>\n</div>\n<div class=\"card card-section bg-dark text-warning shadow\">\n  <div class=\"section card-body mb-0 my-2\">\n    <div class=\"paragraph card-text card-stanza my-5 text-center\">To them a C student,</div>\n    <div class=\"paragraph card-text card-stanza my-5 text-center\">is a C student in their class too.</div>\n  </div>\n</div>\n<div class=\"card card-section bg-dark text-warning shadow\">\n  <div class=\"section card-body mb-0 my-2\">\n    <div class=\"paragraph card-text card-stanza my-5 text-center\">So a C in English,</div>\n    <div class=\"paragraph card-text card-stanza my-5 text-center\">will make a C student in Spanish, maybe in Math, and probably in Art too.</div>\n  </div>\n</div>\n<div class=\"card card-section bg-dark text-warning shadow\">\n  <div class=\"section card-body mb-0 my-2\">\n    <div class=\"paragraph card-text card-stanza my-5 text-center\">This is called \"I hate my job\",</div>\n    <div class=\"paragraph card-text card-stanza my-5 text-center\">this is called incompetence.</div>\n  </div>\n</div>\n<div class=\"mb-5 section-spacer\">&nbsp;</div>\n<div class=\"card card-section bg-dark text-warning shadow\">\n  <div class=\"section card-body mb-0 my-2\">\n    <div class=\"paragraph card-text card-stanza my-5 text-center\">Teaching is not a job, painting is a job, maintenance is a job,</div>\n    <div class=\"paragraph card-text card-stanza my-5 text-center\">teaching is about propagation of the best of culture.</div>\n  </div>\n</div>\n<div class=\"card card-section bg-dark text-warning shadow\">\n  <div class=\"section card-body mb-0 my-2\">\n    <div class=\"paragraph card-text card-stanza my-5 text-center\">To fail to teach,</div>\n    <div class=\"paragraph card-text card-stanza my-5 text-center\">is to fail an entire generation.</div>\n  </div>\n</div>\n<div class=\"card card-section bg-dark text-warning shadow\">\n  <div class=\"section card-body mb-0 my-2\">\n    <div class=\"paragraph card-text card-stanza my-5 text-center\">To fail a generation,</div>\n    <div class=\"paragraph card-text card-stanza my-5 text-center\">is to have them repeat mistakes, and force them to make new ones.</div>\n  </div>\n</div>\n<div class=\"card card-section bg-dark text-warning shadow\">\n  <div class=\"section card-body mb-0 my-2\">\n    <div class=\"paragraph card-text card-stanza my-5 text-center\">A failed culture is a cult,</div>\n    <div class=\"paragraph card-text card-stanza my-5 text-center\">it is a temporary thing swiftly moving towards the brick wall of reality.</div>\n  </div>\n</div>\n<div class=\"card card-section bg-dark text-warning shadow\">\n  <div class=\"section card-body mb-0 my-2\">\n    <div class=\"paragraph card-text card-stanza my-5 text-center\">It won't just be about torture like <a href=\"https://www.youtube.com/watch?v=4LPubUCJv58\">enhanced-interrogation</a>,</div>\n    <div class=\"paragraph card-text card-stanza my-5 text-center\">or concentration camps like <a href=\"https://www.youtube.com/watch?v=_Jq-V4qvZh8\">cramped government-detention facilities that separate children from mothers</a>,</div>\n    <div class=\"paragraph card-text card-stanza my-5 text-center\">and it won't stop at what has been called <a href=\"https://www.youtube.com/watch?v=t7RojQpJWMw\">vocational facilities</a>.</div>\n  </div>\n</div>\n<div class=\"card card-section bg-dark text-warning shadow\">\n  <div class=\"section card-body mb-0 my-2\">\n    <div class=\"paragraph card-text card-stanza my-5 text-center\">To fail a generation,</div>\n    <div class=\"paragraph card-text card-stanza my-5 text-center\">is to restart them at zero, and have them repeat every horrible mistake.</div>\n  </div>\n</div>\n<div class=\"card card-section bg-dark text-warning shadow\">\n  <div class=\"section card-body mb-0 my-2\">\n    <div class=\"paragraph card-text card-stanza my-5 text-center\">Teaching is not a job,</div>\n    <div class=\"paragraph card-text card-stanza my-5 text-center\">is all we have.</div>\n  </div>\n</div>\n<div class=\"card card-section bg-dark text-warning shadow\">\n  <div class=\"section card-body mb-0 my-2\">\n    <div class=\"paragraph card-text card-stanza my-5 text-center\">Teaching is all we have.</div>\n  </div>\n</div>\n<div class=\"card card-section bg-dark text-warning shadow\">\n  <div class=\"section card-body mb-0 my-2\">\n    <div class=\"paragraph card-text card-stanza my-5 text-center\">Teaching. is. all. we. have.</div>\n  </div>\n</div>\n<div class=\"card card-section bg-dark text-warning shadow\">\n  <div class=\"section card-body mb-0 my-2\">\n    <div class=\"paragraph card-text card-stanza my-5 text-center\">Teaching is all we have.</div>\n  </div>\n</div>\n<div class=\"card card-section bg-dark text-warning shadow\">\n  <div class=\"section card-body mb-0 my-2\">\n    <div class=\"paragraph card-text card-stanza my-5 text-center\">Teaching is all we have.</div>\n  </div>\n</div>\n<div class=\"mb-5 section-spacer\">&nbsp;</div>\n<div class=\"card card-section bg-dark text-warning shadow\">\n  <div class=\"section card-body mb-0 my-2\">\n    <div class=\"paragraph card-text card-stanza my-5 text-center\">Schools that use grades,</div>\n    <div class=\"paragraph card-text card-stanza my-5 text-center\">cause harm.</div>\n  </div>\n</div>\n<div class=\"card card-section bg-dark text-warning shadow\">\n  <div class=\"section card-body mb-0 my-2\">\n    <div class=\"paragraph card-text card-stanza my-5 text-center\">Teachers that blindly follow the broken practice,</div>\n    <div class=\"paragraph card-text card-stanza my-5 text-center\">misunderstood the meaning of education.</div>\n  </div>\n</div>\n<div class=\"card card-section bg-dark text-warning shadow\">\n  <div class=\"section card-body mb-0 my-2\">\n    <div class=\"paragraph card-text card-stanza my-5 text-center\">Children with bad grades,</div>\n    <div class=\"paragraph card-text card-stanza my-5 text-center\">will use them as a measure of self.</div>\n  </div>\n</div>\n<div class=\"card card-section bg-dark text-warning shadow\">\n  <div class=\"section card-body mb-0 my-2\">\n    <div class=\"paragraph card-text card-stanza my-5 text-center\"><a href=\"https://www.youtube.com/watch?v=sxyKNMrhEvY\">Curriculum based education causes harm</a>,</div>\n    <div class=\"paragraph card-text card-stanza my-5 text-center\">teachers often scare their students into memorization, which is meaningless and temporary.</div>\n  </div>\n</div>\n<div class=\"card card-section bg-dark text-warning shadow\">\n  <div class=\"section card-body mb-0 my-2\">\n    <div class=\"paragraph card-text card-stanza my-5 text-center\">Maybe not completely meaningless,</div>\n    <div class=\"paragraph card-text card-stanza my-5 text-center\">because by a very long extension that the teachers themselves won't grasp in their shallow thinking and ignorance, the teachers cause great harm.</div>\n  </div>\n</div>\n<div class=\"card card-section bg-dark text-warning shadow\">\n  <div class=\"section card-body mb-0 my-2\">\n    <div class=\"paragraph card-text card-stanza my-5 text-center\">They set the students up,</div>\n    <div class=\"paragraph card-text card-stanza my-5 text-center\">for complete failure.</div>\n  </div>\n</div>\n<div class=\"mb-5 section-spacer\">&nbsp;</div>\n<div class=\"card card-section bg-dark text-warning shadow\">\n  <div class=\"section card-body mb-0 my-2\">\n    <div class=\"paragraph card-text card-stanza my-5 text-center\">A good programmer kid,</div>\n    <div class=\"paragraph card-text card-stanza my-5 text-center\">will not get an A in programming when they are flunking math.</div>\n  </div>\n</div>\n<div class=\"card card-section bg-dark text-warning shadow\">\n  <div class=\"section card-body mb-0 my-2\">\n    <div class=\"paragraph card-text card-stanza my-5 text-center\">And they will be flunking Math, because unlike Programming which is a rational chain of functions,</div>\n    <div class=\"paragraph card-text card-stanza my-5 text-center\">math teachers in their sick incompetence will frighten their students into brainless memorization.</div>\n  </div>\n</div>\n<div class=\"card card-section bg-dark text-warning shadow\">\n  <div class=\"section card-body mb-0 my-2\">\n    <div class=\"paragraph card-text card-stanza my-5 text-center\">Programming is a superset of math, think of programming as a thing that wraps math,</div>\n    <div class=\"paragraph card-text card-stanza my-5 text-center\"><a href=\"https://github.com/catpea/math-as-code\">school math is tiny compared to software</a>.</div>\n  </div>\n</div>\n<div class=\"card card-section bg-dark text-warning shadow\">\n  <div class=\"section card-body mb-0 my-2\">\n    <div class=\"paragraph card-text card-stanza my-5 text-center\">Bad teachers have no grasp on fundamentals, and in some cases reality even,</div>\n    <div class=\"paragraph card-text card-stanza my-5 text-center\">they only know enough to bring a paycheck home, and sadly, that is more than enough to destroy minds.</div>\n  </div>\n</div>\n<div class=\"card card-section bg-dark text-warning shadow\">\n  <div class=\"section card-body mb-0 my-2\">\n    <div class=\"paragraph card-text card-stanza my-5 text-center\">There is no argument to save the face of bad teachers,</div>\n    <div class=\"paragraph card-text card-stanza my-5 text-center\">because of the harm their misunderstanding, has caused - they are the men that sold the world.</div>\n  </div>\n</div>\n<div class=\"mb-5 section-spacer\">&nbsp;</div>\n<div class=\"card card-section bg-dark text-warning shadow\">\n  <div class=\"section card-body mb-0 my-2\">\n    <div class=\"paragraph card-text card-stanza my-5 text-center\">Homeschooling will only make things worse,</div>\n    <div class=\"paragraph card-text card-stanza my-5 text-center\">it will cut students off from modern culture.</div>\n  </div>\n</div>\n<div class=\"card card-section bg-dark text-warning shadow\">\n  <div class=\"section card-body mb-0 my-2\">\n    <div class=\"paragraph card-text card-stanza my-5 text-center\">Homeschooling is likely to make students more susceptible to lies and manipulations,</div>\n    <div class=\"paragraph card-text card-stanza my-5 text-center\">and their eventual start in life will be worse for it.</div>\n  </div>\n</div>\n<div class=\"mb-5 section-spacer\">&nbsp;</div>\n<div class=\"card card-section bg-dark text-warning shadow\">\n  <div class=\"section card-body mb-0 my-2\">\n    <div class=\"paragraph card-text card-stanza my-5 text-center\">An education,</div>\n    <div class=\"paragraph card-text card-stanza my-5 text-center\">is not supposed to be something that starts when a student goes to school.</div>\n  </div>\n</div>\n<div class=\"card card-section bg-dark text-warning shadow\">\n  <div class=\"section card-body mb-0 my-2\">\n    <div class=\"paragraph card-text card-stanza my-5 text-center\">That kind of education,</div>\n    <div class=\"paragraph card-text card-stanza my-5 text-center\">is the least and the worst.</div>\n  </div>\n</div>\n<div class=\"card card-section bg-dark text-warning shadow\">\n  <div class=\"section card-body mb-0 my-2\">\n    <div class=\"paragraph card-text card-stanza my-5 text-center\">What a child, or student needs,</div>\n    <div class=\"paragraph card-text card-stanza my-5 text-center\">is, Culture of Knowledge.</div>\n  </div>\n</div>",
  "print": "<div class=\"section avoid-break-inside\" style=\"padding-bottom: 2rem;\">\n  <div class=\"paragraph\">Hey,</div>\n  <div class=\"paragraph\">Teacher.</div>\n</div>\n<div class=\"section avoid-break-inside\" style=\"padding-bottom: 2rem;\">\n  <div class=\"paragraph\">A lot of the students somehow know...</div>\n  <div class=\"paragraph\">- and they are watching you.</div>\n</div>\n<div class=\"section avoid-break-inside\" style=\"padding-bottom: 2rem;\">\n  <div class=\"paragraph\">They are learning from you,</div>\n  <div class=\"paragraph\">what not to become.</div>\n</div>\n<div class=\"section avoid-break-inside\" style=\"padding-bottom: 2rem;\">\n  <br>\n</div>\n<div class=\"section avoid-break-inside\" style=\"padding-bottom: 2rem;\">\n  <div class=\"paragraph\">Most teachers will copy other teacher's grades,</div>\n  <div class=\"paragraph\">even when classes are not related.</div>\n</div>\n<div class=\"section avoid-break-inside\" style=\"padding-bottom: 2rem;\">\n  <div class=\"paragraph\">To them a C student,</div>\n  <div class=\"paragraph\">is a C student in their class too.</div>\n</div>\n<div class=\"section avoid-break-inside\" style=\"padding-bottom: 2rem;\">\n  <div class=\"paragraph\">So a C in English,</div>\n  <div class=\"paragraph\">will make a C student in Spanish, maybe in Math, and probably in Art too.</div>\n</div>\n<div class=\"section avoid-break-inside\" style=\"padding-bottom: 2rem;\">\n  <div class=\"paragraph\">This is called \"I hate my job\",</div>\n  <div class=\"paragraph\">this is called incompetence.</div>\n</div>\n<div class=\"section avoid-break-inside\" style=\"padding-bottom: 2rem;\">\n  <br>\n</div>\n<div class=\"section avoid-break-inside\" style=\"padding-bottom: 2rem;\">\n  <div class=\"paragraph\">Teaching is not a job, painting is a job, maintenance is a job,</div>\n  <div class=\"paragraph\">teaching is about propagation of the best of culture.</div>\n</div>\n<div class=\"section avoid-break-inside\" style=\"padding-bottom: 2rem;\">\n  <div class=\"paragraph\">To fail to teach,</div>\n  <div class=\"paragraph\">is to fail an entire generation.</div>\n</div>\n<div class=\"section avoid-break-inside\" style=\"padding-bottom: 2rem;\">\n  <div class=\"paragraph\">To fail a generation,</div>\n  <div class=\"paragraph\">is to have them repeat mistakes, and force them to make new ones.</div>\n</div>\n<div class=\"section avoid-break-inside\" style=\"padding-bottom: 2rem;\">\n  <div class=\"paragraph\">A failed culture is a cult,</div>\n  <div class=\"paragraph\">it is a temporary thing swiftly moving towards the brick wall of reality.</div>\n</div>\n<div class=\"section avoid-break-inside\" style=\"padding-bottom: 2rem;\">\n  <div class=\"paragraph\">It won't just be about torture like <span>enhanced-interrogation<sup>[1]</sup></span>,</div>\n  <div class=\"paragraph\">or concentration camps like <span>cramped government-detention facilities that separate children from mothers<sup>[2]</sup></span>,</div>\n  <div class=\"paragraph\">and it won't stop at what has been called <span>vocational facilities<sup>[3]</sup></span>.</div>\n</div>\n<div class=\"section avoid-break-inside\" style=\"padding-bottom: 2rem;\">\n  <div class=\"paragraph\">To fail a generation,</div>\n  <div class=\"paragraph\">is to restart them at zero, and have them repeat every horrible mistake.</div>\n</div>\n<div class=\"section avoid-break-inside\" style=\"padding-bottom: 2rem;\">\n  <div class=\"paragraph\">Teaching is not a job,</div>\n  <div class=\"paragraph\">is all we have.</div>\n</div>\n<div class=\"section avoid-break-inside\" style=\"padding-bottom: 2rem;\">\n  <div class=\"paragraph\">Teaching is all we have.</div>\n</div>\n<div class=\"section avoid-break-inside\" style=\"padding-bottom: 2rem;\">\n  <div class=\"paragraph\">Teaching. is. all. we. have.</div>\n</div>\n<div class=\"section avoid-break-inside\" style=\"padding-bottom: 2rem;\">\n  <div class=\"paragraph\">Teaching is all we have.</div>\n</div>\n<div class=\"section avoid-break-inside\" style=\"padding-bottom: 2rem;\">\n  <div class=\"paragraph\">Teaching is all we have.</div>\n</div>\n<div class=\"section avoid-break-inside\" style=\"padding-bottom: 2rem;\">\n  <br>\n</div>\n<div class=\"section avoid-break-inside\" style=\"padding-bottom: 2rem;\">\n  <div class=\"paragraph\">Schools that use grades,</div>\n  <div class=\"paragraph\">cause harm.</div>\n</div>\n<div class=\"section avoid-break-inside\" style=\"padding-bottom: 2rem;\">\n  <div class=\"paragraph\">Teachers that blindly follow the broken practice,</div>\n  <div class=\"paragraph\">misunderstood the meaning of education.</div>\n</div>\n<div class=\"section avoid-break-inside\" style=\"padding-bottom: 2rem;\">\n  <div class=\"paragraph\">Children with bad grades,</div>\n  <div class=\"paragraph\">will use them as a measure of self.</div>\n</div>\n<div class=\"section avoid-break-inside\" style=\"padding-bottom: 2rem;\">\n  <div class=\"paragraph\"><span>Curriculum based education causes harm<sup>[4]</sup></span>,</div>\n  <div class=\"paragraph\">teachers often scare their students into memorization, which is meaningless and temporary.</div>\n</div>\n<div class=\"section avoid-break-inside\" style=\"padding-bottom: 2rem;\">\n  <div class=\"paragraph\">Maybe not completely meaningless,</div>\n  <div class=\"paragraph\">because by a very long extension that the teachers themselves won't grasp in their shallow thinking and ignorance, the teachers cause great harm.</div>\n</div>\n<div class=\"section avoid-break-inside\" style=\"padding-bottom: 2rem;\">\n  <div class=\"paragraph\">They set the students up,</div>\n  <div class=\"paragraph\">for complete failure.</div>\n</div>\n<div class=\"section avoid-break-inside\" style=\"padding-bottom: 2rem;\">\n  <br>\n</div>\n<div class=\"section avoid-break-inside\" style=\"padding-bottom: 2rem;\">\n  <div class=\"paragraph\">A good programmer kid,</div>\n  <div class=\"paragraph\">will not get an A in programming when they are flunking math.</div>\n</div>\n<div class=\"section avoid-break-inside\" style=\"padding-bottom: 2rem;\">\n  <div class=\"paragraph\">And they will be flunking Math, because unlike Programming which is a rational chain of functions,</div>\n  <div class=\"paragraph\">math teachers in their sick incompetence will frighten their students into brainless memorization.</div>\n</div>\n<div class=\"section avoid-break-inside\" style=\"padding-bottom: 2rem;\">\n  <div class=\"paragraph\">Programming is a superset of math, think of programming as a thing that wraps math,</div>\n  <div class=\"paragraph\"><span>school math is tiny compared to software<sup>[5]</sup></span>.</div>\n</div>\n<div class=\"section avoid-break-inside\" style=\"padding-bottom: 2rem;\">\n  <div class=\"paragraph\">Bad teachers have no grasp on fundamentals, and in some cases reality even,</div>\n  <div class=\"paragraph\">they only know enough to bring a paycheck home, and sadly, that is more than enough to destroy minds.</div>\n</div>\n<div class=\"section avoid-break-inside\" style=\"padding-bottom: 2rem;\">\n  <div class=\"paragraph\">There is no argument to save the face of bad teachers,</div>\n  <div class=\"paragraph\">because of the harm their misunderstanding, has caused - they are the men that sold the world.</div>\n</div>\n<div class=\"section avoid-break-inside\" style=\"padding-bottom: 2rem;\">\n  <br>\n</div>\n<div class=\"section avoid-break-inside\" style=\"padding-bottom: 2rem;\">\n  <div class=\"paragraph\">Homeschooling will only make things worse,</div>\n  <div class=\"paragraph\">it will cut students off from modern culture.</div>\n</div>\n<div class=\"section avoid-break-inside\" style=\"padding-bottom: 2rem;\">\n  <div class=\"paragraph\">Homeschooling is likely to make students more susceptible to lies and manipulations,</div>\n  <div class=\"paragraph\">and their eventual start in life will be worse for it.</div>\n</div>\n<div class=\"section avoid-break-inside\" style=\"padding-bottom: 2rem;\">\n  <br>\n</div>\n<div class=\"section avoid-break-inside\" style=\"padding-bottom: 2rem;\">\n  <div class=\"paragraph\">An education,</div>\n  <div class=\"paragraph\">is not supposed to be something that starts when a student goes to school.</div>\n</div>\n<div class=\"section avoid-break-inside\" style=\"padding-bottom: 2rem;\">\n  <div class=\"paragraph\">That kind of education,</div>\n  <div class=\"paragraph\">is the least and the worst.</div>\n</div>\n<div class=\"section avoid-break-inside\" style=\"padding-bottom: 2rem;\">\n  <div class=\"paragraph\">What a child, or student needs,</div>\n  <div class=\"paragraph\">is, Culture of Knowledge.</div>\n</div>\n<div class=\"break-after\">&nbsp;</div>\n<div>\n  <div class=\"section\" style=\"padding-bottom: 1rem;\">References</div>\n  <div>[1]: https://www.youtube.com/watch?v=4LPubUCJv58</div>\n  <div>[2]: https://www.youtube.com/watch?v=_Jq-V4qvZh8</div>\n  <div>[3]: https://www.youtube.com/watch?v=t7RojQpJWMw</div>\n  <div>[4]: https://www.youtube.com/watch?v=sxyKNMrhEvY</div>\n  <div>[5]: https://github.com/catpea/math-as-code</div>\n</div>",
  "text": "Hey,\nTeacher.\nA lot of the students somehow know...\n- and they are watching you.\nThey are learning from you,\nwhat not to become.\n\nMost teachers will copy other teacher's grades,\neven when classes are not related.\nTo them a C student,\nis a C student in their class too.\nSo a C in English,\nwill make a C student in Spanish, maybe in Math, and probably in Art too.\nThis is called \"I hate my job\",\nthis is called incompetence.\n\nTeaching is not a job, painting is a job, maintenance is a job,\nteaching is about propagation of the best of culture.\nTo fail to teach,\nis to fail an entire generation.\nTo fail a generation,\nis to have them repeat mistakes, and force them to make new ones.\nA failed culture is a cult,\nit is a temporary thing swiftly moving towards the brick wall of reality.\nIt won't just be about torture like enhanced-interrogation[1],\nor concentration camps like cramped government-detention facilities that separate children from mothers[2],\nand it won't stop at what has been called vocational facilities[3].\nTo fail a generation,\nis to restart them at zero, and have them repeat every horrible mistake.\nTeaching is not a job,\nis all we have.\nTeaching is all we have.\nTeaching. is. all. we. have.\nTeaching is all we have.\nTeaching is all we have.\n\nSchools that use grades,\ncause harm.\nTeachers that blindly follow the broken practice,\nmisunderstood the meaning of education.\nChildren with bad grades,\nwill use them as a measure of self.\nCurriculum based education causes harm[4],\nteachers often scare their students into memorization, which is meaningless and temporary.\nMaybe not completely meaningless,\nbecause by a very long extension that the teachers themselves won't grasp in their shallow thinking and ignorance, the teachers cause great harm.\nThey set the students up,\nfor complete failure.\n\nA good programmer kid,\nwill not get an A in programming when they are flunking math.\nAnd they will be flunking Math, because unlike Programming which is a rational chain of functions,\nmath teachers in their sick incompetence will frighten their students into brainless memorization.\nProgramming is a superset of math, think of programming as a thing that wraps math,\nschool math is tiny compared to software[5].\nBad teachers have no grasp on fundamentals, and in some cases reality even,\nthey only know enough to bring a paycheck home, and sadly, that is more than enough to destroy minds.\nThere is no argument to save the face of bad teachers,\nbecause of the harm their misunderstanding, has caused - they are the men that sold the world.\n\nHomeschooling will only make things worse,\nit will cut students off from modern culture.\nHomeschooling is likely to make students more susceptible to lies and manipulations,\nand their eventual start in life will be worse for it.\n\nAn education,\nis not supposed to be something that starts when a student goes to school.\nThat kind of education,\nis the least and the worst.\nWhat a child, or student needs,\nis, Culture of Knowledge.\n \nReferences\n[1]: https://www.youtube.com/watch?v=4LPubUCJv58\n[2]: https://www.youtube.com/watch?v=_Jq-V4qvZh8\n[3]: https://www.youtube.com/watch?v=t7RojQpJWMw\n[4]: https://www.youtube.com/watch?v=sxyKNMrhEvY\n[5]: https://github.com/catpea/math-as-code",
  "images": [],
  "links": [
    {
      "title": "enhanced-interrogation",
      "url": "https://www.youtube.com/watch?v=4LPubUCJv58",
      "hostname": "www.youtube.com"
    },
    {
      "title": "cramped government-detention facilities that separate children from mothers",
      "url": "https://www.youtube.com/watch?v=_Jq-V4qvZh8",
      "hostname": "www.youtube.com"
    },
    {
      "title": "vocational facilities",
      "url": "https://www.youtube.com/watch?v=t7RojQpJWMw",
      "hostname": "www.youtube.com"
    },
    {
      "title": "Curriculum based education causes harm",
      "url": "https://www.youtube.com/watch?v=sxyKNMrhEvY",
      "hostname": "www.youtube.com"
    },
    {
      "title": "school math is tiny compared to software",
      "url": "https://github.com/catpea/math-as-code",
      "hostname": "github.com"
    }
  ]
}