{
  "title": "Nordhouse Dunes",
  "date": "2020-09-02T23:50:44.359Z",
  "image": "poetry-0186-illustration.jpg",
  "audio": "poetry-0186.mp3",
  "id": "furkies-purrkies-poetry-0186",
  "attachments": {},
  "guid": "2dd583c6-7293-4b56-8155-e5f22c7534bc"
}
