{
  "title": "Heroic Courage: A Human Being Is To Grow All The Way Up",
  "date": "2021-03-29T01:12:45.745Z",
  "image": "poetry-0393-illustration.jpg",
  "audio": "poetry-0393.mp3",
  "artwork": "https://unsplash.com/photos/wVgL7MZrxCk",
  "id": "furkies-purrkies-poetry-0393",
  "attachments": {},
  "guid": "3f6f70b6-f814-4428-a00d-145914293615"
}
