{
  "name": "furkies-purrkies-poetry-0782",
  "id": "furkies-purrkies-poetry-0782",
  "title": "A Tiny Little Introduction To Digital Paining (Recap And Lecture Practice)",
  "date": "2022-04-21T22:37:16.386Z",
  "image": "poetry-0782-illustration.jpg",
  "artwork": "https://catpea.com",
  "audio": "poetry-0782.mp3",
  "guid": "595edd76-64bb-4f5f-9a34-db5836111fa2",
  "html": "<div class=\"section\">\n  <p>Digital Painting is such a wonderful thing,<br>that it will let you start with Hyperrealism.</p>\n  <p>What an amazing gift,<br>learning by painting perfect portraits on day one.</p>\n</div>\n<div class=\"section\">\n  <hr>\n</div>\n<div class=\"section\">\n  <p>Use Open Source Krita,<br>and <a href=\"https://www.youtube.com/results?search_query=Krita+Tutorial\">watch a few beginner tutorials</a>.</p>\n  <p>Get a $40-$70 pen and tablet,<br>preferably with the pen tilt feature.</p>\n  <p>Tilt, means that when using a virtual chisel tip marker,<br>the tip will actually rotate as you fidget with the pen.</p>\n  <p>(Please read the pen and tablet product description carefully, make sure that it ships with all features,<br>and does not require a questionable hardware upgrade.)</p>\n</div>\n<div class=\"section\">\n  <hr>\n</div>\n<div class=\"section\">\n  <p>When you do your drawings,<br>you deal with a concept of image layers.</p>\n  <p>I go crazy with it,<br>I put each eye on separate layer for example.</p>\n  <p>Seasoned Artists, may not do that,<br>which lets them create one layer for shadows another for highlights, simple and easy.</p>\n</div>\n<div class=\"section\">\n  <hr>\n</div>\n<div class=\"section\">\n  <p>On top of that, Krita has a useful and simple to use Image Reference Tool,<br>which lives in its own world, above your standard layers.</p>\n</div>\n<div class=\"section\">\n  <hr>\n</div>\n<div class=\"section\">\n  <p>If you are like me, with all this art talk,<br>you may think to yourself “but I can’t even draw a stick figure”.</p>\n  <p>I absolutely feel the same way,<br>in school when we started stick figures in first grade.</p>\n  <p>I did my stick figure without arms,<br>because I got to excited about the smiley face, and just forgot the freaking arms.</p>\n  <p>The teacher looked at me in shame,<br>and from that point on I knew teachers were <em>&%</em> useless.</p>\n</div>\n<div class=\"section\">\n  <hr>\n</div>\n<div class=\"section\">\n  <p>Krita’s Image Reference Layer,<br>will project a reference image on your canvas.</p>\n  <p>So, take a selfie,<br>use the Image Reference Tool to load it, and stretch it across the <strong>entire</strong> canvas.</p>\n  <p>Be sure to set the opacity to 20% or 50%,<br>now use a Air Brush to paint through the Image Reference Layer onto your canvas or layer stack.</p>\n  <p>See it is like using an office projector on a wall,<br>it tells you where everything goes, and there is no way you will forget the arms.</p>\n</div>\n<div class=\"section\">\n  <hr>\n</div>\n<div class=\"section\">\n  <p>Now, the color picker,<br>will not pick colors through the image Reference Layer.</p>\n  <p>It will only ever sample the colors,<br>from the reference image you stretched over you canvas.</p>\n  <p>So not only do you have perfect shape reference,<br>you also have access to the exact color you need...</p>\n  <p>In the spot that you need it,<br>and the color it is not impacted by the transparent of the reference layer.</p>\n</div>\n<div class=\"section\">\n  <hr>\n</div>\n<div class=\"section\">\n  <p>There is no simpler, faster and more pleasant way to study color and shape,<br>than intimately working with reference photos.</p>\n  <p>And finally, make sure your reference photos,<br>have good resolution.</p>\n  <p>A quick way to verify resolution,<br>is to check if you can see separate eyelashes in your reference photo.</p>\n  <p>If you can see them,<br>then you can learn how to paint them right.</p>\n</div>",
  "bootstrap": "<div class=\"card card-section bg-dark text-warning shadow\">\n  <div class=\"section card-body mb-0 my-2\">\n    <div class=\"paragraph card-text card-stanza my-5 text-center\">Digital Painting is such a wonderful thing,<br>that it will let you start with Hyperrealism.</div>\n    <div class=\"paragraph card-text card-stanza my-5 text-center\">What an amazing gift,<br>learning by painting perfect portraits on day one.</div>\n  </div>\n</div>\n<div class=\"mb-5 section-spacer\">&nbsp;</div>\n<div class=\"card card-section bg-dark text-warning shadow\">\n  <div class=\"section card-body mb-0 my-2\">\n    <div class=\"paragraph card-text card-stanza my-5 text-center\">Use Open Source Krita,<br>and <a href=\"https://www.youtube.com/results?search_query=Krita+Tutorial\">watch a few beginner tutorials</a>.</div>\n    <div class=\"paragraph card-text card-stanza my-5 text-center\">Get a $40-$70 pen and tablet,<br>preferably with the pen tilt feature.</div>\n    <div class=\"paragraph card-text card-stanza my-5 text-center\">Tilt, means that when using a virtual chisel tip marker,<br>the tip will actually rotate as you fidget with the pen.</div>\n    <div class=\"paragraph card-text card-stanza my-5 text-center\">(Please read the pen and tablet product description carefully, make sure that it ships with all features,<br>and does not require a questionable hardware upgrade.)</div>\n  </div>\n</div>\n<div class=\"mb-5 section-spacer\">&nbsp;</div>\n<div class=\"card card-section bg-dark text-warning shadow\">\n  <div class=\"section card-body mb-0 my-2\">\n    <div class=\"paragraph card-text card-stanza my-5 text-center\">When you do your drawings,<br>you deal with a concept of image layers.</div>\n    <div class=\"paragraph card-text card-stanza my-5 text-center\">I go crazy with it,<br>I put each eye on separate layer for example.</div>\n    <div class=\"paragraph card-text card-stanza my-5 text-center\">Seasoned Artists, may not do that,<br>which lets them create one layer for shadows another for highlights, simple and easy.</div>\n  </div>\n</div>\n<div class=\"mb-5 section-spacer\">&nbsp;</div>\n<div class=\"card card-section bg-dark text-warning shadow\">\n  <div class=\"section card-body mb-0 my-2\">\n    <div class=\"paragraph card-text card-stanza my-5 text-center\">On top of that, Krita has a useful and simple to use Image Reference Tool,<br>which lives in its own world, above your standard layers.</div>\n  </div>\n</div>\n<div class=\"mb-5 section-spacer\">&nbsp;</div>\n<div class=\"card card-section bg-dark text-warning shadow\">\n  <div class=\"section card-body mb-0 my-2\">\n    <div class=\"paragraph card-text card-stanza my-5 text-center\">If you are like me, with all this art talk,<br>you may think to yourself “but I can’t even draw a stick figure”.</div>\n    <div class=\"paragraph card-text card-stanza my-5 text-center\">I absolutely feel the same way,<br>in school when we started stick figures in first grade.</div>\n    <div class=\"paragraph card-text card-stanza my-5 text-center\">I did my stick figure without arms,<br>because I got to excited about the smiley face, and just forgot the freaking arms.</div>\n    <div class=\"paragraph card-text card-stanza my-5 text-center\">The teacher looked at me in shame,<br>and from that point on I knew teachers were <em>&%</em> useless.</div>\n  </div>\n</div>\n<div class=\"mb-5 section-spacer\">&nbsp;</div>\n<div class=\"card card-section bg-dark text-warning shadow\">\n  <div class=\"section card-body mb-0 my-2\">\n    <div class=\"paragraph card-text card-stanza my-5 text-center\">Krita’s Image Reference Layer,<br>will project a reference image on your canvas.</div>\n    <div class=\"paragraph card-text card-stanza my-5 text-center\">So, take a selfie,<br>use the Image Reference Tool to load it, and stretch it across the <strong>entire</strong> canvas.</div>\n    <div class=\"paragraph card-text card-stanza my-5 text-center\">Be sure to set the opacity to 20% or 50%,<br>now use a Air Brush to paint through the Image Reference Layer onto your canvas or layer stack.</div>\n    <div class=\"paragraph card-text card-stanza my-5 text-center\">See it is like using an office projector on a wall,<br>it tells you where everything goes, and there is no way you will forget the arms.</div>\n  </div>\n</div>\n<div class=\"mb-5 section-spacer\">&nbsp;</div>\n<div class=\"card card-section bg-dark text-warning shadow\">\n  <div class=\"section card-body mb-0 my-2\">\n    <div class=\"paragraph card-text card-stanza my-5 text-center\">Now, the color picker,<br>will not pick colors through the image Reference Layer.</div>\n    <div class=\"paragraph card-text card-stanza my-5 text-center\">It will only ever sample the colors,<br>from the reference image you stretched over you canvas.</div>\n    <div class=\"paragraph card-text card-stanza my-5 text-center\">So not only do you have perfect shape reference,<br>you also have access to the exact color you need...</div>\n    <div class=\"paragraph card-text card-stanza my-5 text-center\">In the spot that you need it,<br>and the color it is not impacted by the transparent of the reference layer.</div>\n  </div>\n</div>\n<div class=\"mb-5 section-spacer\">&nbsp;</div>\n<div class=\"card card-section bg-dark text-warning shadow\">\n  <div class=\"section card-body mb-0 my-2\">\n    <div class=\"paragraph card-text card-stanza my-5 text-center\">There is no simpler, faster and more pleasant way to study color and shape,<br>than intimately working with reference photos.</div>\n    <div class=\"paragraph card-text card-stanza my-5 text-center\">And finally, make sure your reference photos,<br>have good resolution.</div>\n    <div class=\"paragraph card-text card-stanza my-5 text-center\">A quick way to verify resolution,<br>is to check if you can see separate eyelashes in your reference photo.</div>\n    <div class=\"paragraph card-text card-stanza my-5 text-center\">If you can see them,<br>then you can learn how to paint them right.</div>\n  </div>\n</div>",
  "print": "<div class=\"section avoid-break-inside\" style=\"padding-bottom: 2rem;\">\n  <div class=\"paragraph\">Digital Painting is such a wonderful thing,<br>that it will let you start with Hyperrealism.</div>\n  <div class=\"paragraph\">What an amazing gift,<br>learning by painting perfect portraits on day one.</div>\n</div>\n<div class=\"section avoid-break-inside\" style=\"padding-bottom: 2rem;\">\n  <br>\n</div>\n<div class=\"section avoid-break-inside\" style=\"padding-bottom: 2rem;\">\n  <div class=\"paragraph\">Use Open Source Krita,<br>and <span>watch a few beginner tutorials<sup>[1]</sup></span>.</div>\n  <div class=\"paragraph\">Get a $40-$70 pen and tablet,<br>preferably with the pen tilt feature.</div>\n  <div class=\"paragraph\">Tilt, means that when using a virtual chisel tip marker,<br>the tip will actually rotate as you fidget with the pen.</div>\n  <div class=\"paragraph\">(Please read the pen and tablet product description carefully, make sure that it ships with all features,<br>and does not require a questionable hardware upgrade.)</div>\n</div>\n<div class=\"section avoid-break-inside\" style=\"padding-bottom: 2rem;\">\n  <br>\n</div>\n<div class=\"section avoid-break-inside\" style=\"padding-bottom: 2rem;\">\n  <div class=\"paragraph\">When you do your drawings,<br>you deal with a concept of image layers.</div>\n  <div class=\"paragraph\">I go crazy with it,<br>I put each eye on separate layer for example.</div>\n  <div class=\"paragraph\">Seasoned Artists, may not do that,<br>which lets them create one layer for shadows another for highlights, simple and easy.</div>\n</div>\n<div class=\"section avoid-break-inside\" style=\"padding-bottom: 2rem;\">\n  <br>\n</div>\n<div class=\"section avoid-break-inside\" style=\"padding-bottom: 2rem;\">\n  <div class=\"paragraph\">On top of that, Krita has a useful and simple to use Image Reference Tool,<br>which lives in its own world, above your standard layers.</div>\n</div>\n<div class=\"section avoid-break-inside\" style=\"padding-bottom: 2rem;\">\n  <br>\n</div>\n<div class=\"section avoid-break-inside\" style=\"padding-bottom: 2rem;\">\n  <div class=\"paragraph\">If you are like me, with all this art talk,<br>you may think to yourself “but I can’t even draw a stick figure”.</div>\n  <div class=\"paragraph\">I absolutely feel the same way,<br>in school when we started stick figures in first grade.</div>\n  <div class=\"paragraph\">I did my stick figure without arms,<br>because I got to excited about the smiley face, and just forgot the freaking arms.</div>\n  <div class=\"paragraph\">The teacher looked at me in shame,<br>and from that point on I knew teachers were <em>&%</em> useless.</div>\n</div>\n<div class=\"section avoid-break-inside\" style=\"padding-bottom: 2rem;\">\n  <br>\n</div>\n<div class=\"section avoid-break-inside\" style=\"padding-bottom: 2rem;\">\n  <div class=\"paragraph\">Krita’s Image Reference Layer,<br>will project a reference image on your canvas.</div>\n  <div class=\"paragraph\">So, take a selfie,<br>use the Image Reference Tool to load it, and stretch it across the <strong>entire</strong> canvas.</div>\n  <div class=\"paragraph\">Be sure to set the opacity to 20% or 50%,<br>now use a Air Brush to paint through the Image Reference Layer onto your canvas or layer stack.</div>\n  <div class=\"paragraph\">See it is like using an office projector on a wall,<br>it tells you where everything goes, and there is no way you will forget the arms.</div>\n</div>\n<div class=\"section avoid-break-inside\" style=\"padding-bottom: 2rem;\">\n  <br>\n</div>\n<div class=\"section avoid-break-inside\" style=\"padding-bottom: 2rem;\">\n  <div class=\"paragraph\">Now, the color picker,<br>will not pick colors through the image Reference Layer.</div>\n  <div class=\"paragraph\">It will only ever sample the colors,<br>from the reference image you stretched over you canvas.</div>\n  <div class=\"paragraph\">So not only do you have perfect shape reference,<br>you also have access to the exact color you need...</div>\n  <div class=\"paragraph\">In the spot that you need it,<br>and the color it is not impacted by the transparent of the reference layer.</div>\n</div>\n<div class=\"section avoid-break-inside\" style=\"padding-bottom: 2rem;\">\n  <br>\n</div>\n<div class=\"section avoid-break-inside\" style=\"padding-bottom: 2rem;\">\n  <div class=\"paragraph\">There is no simpler, faster and more pleasant way to study color and shape,<br>than intimately working with reference photos.</div>\n  <div class=\"paragraph\">And finally, make sure your reference photos,<br>have good resolution.</div>\n  <div class=\"paragraph\">A quick way to verify resolution,<br>is to check if you can see separate eyelashes in your reference photo.</div>\n  <div class=\"paragraph\">If you can see them,<br>then you can learn how to paint them right.</div>\n</div>\n<div class=\"break-after\">&nbsp;</div>\n<div>\n  <div class=\"section\" style=\"padding-bottom: 1rem;\">References</div>\n  <div>[1]: https://www.youtube.com/results?search_query=Krita+Tutorial</div>\n</div>",
  "text": "Digital Painting is such a wonderful thing,\nthat it will let you start with Hyperrealism.\nWhat an amazing gift,\nlearning by painting perfect portraits on day one.\n\nUse Open Source Krita,\nand watch a few beginner tutorials[1].\nGet a $40-$70 pen and tablet,\npreferably with the pen tilt feature.\nTilt, means that when using a virtual chisel tip marker,\nthe tip will actually rotate as you fidget with the pen.\n(Please read the pen and tablet product description carefully, make sure that it ships with all features,\nand does not require a questionable hardware upgrade.)\n\nWhen you do your drawings,\nyou deal with a concept of image layers.\nI go crazy with it,\nI put each eye on separate layer for example.\nSeasoned Artists, may not do that,\nwhich lets them create one layer for shadows another for highlights, simple and easy.\n\nOn top of that, Krita has a useful and simple to use Image Reference Tool,\nwhich lives in its own world, above your standard layers.\n\nIf you are like me, with all this art talk,\nyou may think to yourself “but I can’t even draw a stick figure”.\nI absolutely feel the same way,\nin school when we started stick figures in first grade.\nI did my stick figure without arms,\nbecause I got to excited about the smiley face, and just forgot the freaking arms.\nThe teacher looked at me in shame,\nand from that point on I knew teachers were &% useless.\n\nKrita’s Image Reference Layer,\nwill project a reference image on your canvas.\nSo, take a selfie,\nuse the Image Reference Tool to load it, and stretch it across the entire canvas.\nBe sure to set the opacity to 20% or 50%,\nnow use a Air Brush to paint through the Image Reference Layer onto your canvas or layer stack.\nSee it is like using an office projector on a wall,\nit tells you where everything goes, and there is no way you will forget the arms.\n\nNow, the color picker,\nwill not pick colors through the image Reference Layer.\nIt will only ever sample the colors,\nfrom the reference image you stretched over you canvas.\nSo not only do you have perfect shape reference,\nyou also have access to the exact color you need...\nIn the spot that you need it,\nand the color it is not impacted by the transparent of the reference layer.\n\nThere is no simpler, faster and more pleasant way to study color and shape,\nthan intimately working with reference photos.\nAnd finally, make sure your reference photos,\nhave good resolution.\nA quick way to verify resolution,\nis to check if you can see separate eyelashes in your reference photo.\nIf you can see them,\nthen you can learn how to paint them right.\n \nReferences\n[1]: https://www.youtube.com/results?search_query=Krita+Tutorial",
  "images": [],
  "links": [
    {
      "title": "watch a few beginner tutorials",
      "url": "https://www.youtube.com/results?search_query=Krita+Tutorial",
      "hostname": "www.youtube.com"
    }
  ]
}