{
  "name": "furkies-purrkies-poetry-0718",
  "id": "furkies-purrkies-poetry-0718",
  "title": "How To Become An Artist And Enjoy Every Step",
  "date": "2022-02-17T03:10:35.768Z",
  "image": "poetry-0718-illustration.jpg",
  "artwork": "https://catpea.com",
  "audio": "poetry-0718.mp3",
  "guid": "ed6bbee4-c53b-4c12-b039-0b7a1daaacc1",
  "html": "<div class=\"section\">\n  <p>Art has finally forced me to rest a little while,<br>I still did a quarter of a realistic painting today.</p>\n  <p>A realistic continuation of the Lady and Her Dog,<br>but at a much slower pace.</p>\n  <p>Using Reference Images Tool,<br>as a tracing and color guide.</p>\n  <p>By stretching it over the entire Krita canvas,<br>aka Cat Pea Technique, is an incredible teacher.</p>\n  <p>Remember, over it, not next to it,<br>when you set the reference to 1% opacity, your color picker will still grab the correct colors from the reference photo.</p>\n</div>\n<div class=\"section\">\n  <hr>\n</div>\n<div class=\"section\">\n  <p>I use a 15 inch by 15 inch 300 dpi canvas,<br>I work zoomed in so far, that I can see pixels.</p>\n  <p>It never really feels like tracing,<br>because you are always working with layers.</p>\n  <p>In no time, you will break down the nose,<br>into bottom shadows on one layer, and the nose-dome on the top layer.</p>\n  <p>You are building up knowledge of the face,<br>without any concern - at all - that you will somehow get stuck.</p>\n  <p>Your reference image, will teach and protect you,<br>it will inspire you to create works that would make the younger you pause in disbelief.</p>\n</div>\n<div class=\"section\">\n  <hr>\n</div>\n<div class=\"section\">\n  <p>When you are working with a wall projector in a physical world,<br>you are always adjusting things, and shimmy shammying...</p>\n  <p>and trying not to get paint on you,<br>in the twilight of your studio, which is to say room or basement.</p>\n  <p>On the computer, you get to focus on learning a bit more,<br>and everything you do here, translates perfectly to the real canvas.</p>\n</div>\n<div class=\"section\">\n  <hr>\n</div>\n<div class=\"section\">\n  <p>For one, you need your reference images in the physical world too,<br>and you need a huge pane of glass over them.</p>\n  <p>That glass surface is where you will need to mix,<br>or at least test your colors.</p>\n</div>\n<div class=\"section\">\n  <hr>\n</div>\n<div class=\"section\">\n  <p>Fantasy art, where you paint faces by just following a system you memorized, is great,<br>but realism demands far more, especially when you paint on a real canvas in the physical world.</p>\n  <p>You need the colors on a glass pane,<br>and you need shape reference in the form of a projector.</p>\n  <p>And you need to keep your image in a Photo Editing program like GIMP,<br>where you can have multiple layers, some for outlines, others for highlights.</p>\n  <p>For example, projecting shadows, on a canvas that you already painted to some degree,<br>isn't going to be very useful, as the projected image is dark in-that area.</p>\n  <p>You will need to invert the colors,<br>so that the wall projector is emitting light in the area where the shadows go.</p>\n</div>\n<div class=\"section\">\n  <hr>\n</div>\n<div class=\"section\">\n  <p>All of this reduced to a much simpler environment,<br>here in the Open Source Krita.</p>\n  <p>And,<br>thee simpler your setup...</p>\n  <p>the faster,<br>you master.</p>\n</div>\n<div class=\"section\">\n  <hr>\n</div>\n<div class=\"section\">\n  <p>But asking which canvas is superior, the real physical one or the virtual computer one,<br>is a silly question - there are no reasonable answers here.</p>\n  <p>You learn faster on the computer, and the canvas won't cost you $50.<br>is about all you can say.</p>\n  <p>And please remember to purchase an inexpensive $40 dollar Pen and Tablet for your computer,<br>the tip of the pen is a pressure sensor that will allow you to gently paint in semitransparent layers.</p>\n</div>\n<div class=\"section\">\n  <hr>\n</div>\n<div class=\"section\">\n  <p>One extremely important lesson, a source of regret for many artists,<br>is not making a time-lapse video of the creation.</p>\n  <p>Just get a cheap camera with a time-lapse feature,<br>and put it in the corner somewhere.</p>\n  <p>In Krita enable the Reorder Docker,<br>play around with the settings, and hit record, maybe enable automatic recording too.</p>\n  <p>I am working to create new more realistic portraits on top of,<br>a lowbrow version that I already published, this will make an interesting five minute move about the transition from surrealism to realism.</p>\n</div>\n<div class=\"section\">\n  <hr>\n</div>\n<div class=\"section\">\n  <p>Finally, the hard pursuit of Artistic Realism under Krita,<br>will give you a solid art education in less than three weeks.</p>\n  <p>You may end up with as many as ten fine portfolio pieces,<br>merely as part of your self education.</p>\n  <p>By tracing under Krita,<br>you instantly become an artist.</p>\n  <p>Once you get to the point where you are building scenes from the photographs yo took,<br>and arranging them in GIMP before setting them up as reference under Krita.</p>\n  <p>You will discover, and I promise you this,<br>that it is not tracing...</p>\n  <p>You will find that what you thought of as tracing,<br>was True Art, all along.</p>\n</div>",
  "bootstrap": "<div class=\"card card-section bg-dark text-warning shadow\">\n  <div class=\"section card-body mb-0 my-2\">\n    <div class=\"paragraph card-text card-stanza my-5 text-center\">Art has finally forced me to rest a little while,<br>I still did a quarter of a realistic painting today.</div>\n    <div class=\"paragraph card-text card-stanza my-5 text-center\">A realistic continuation of the Lady and Her Dog,<br>but at a much slower pace.</div>\n    <div class=\"paragraph card-text card-stanza my-5 text-center\">Using Reference Images Tool,<br>as a tracing and color guide.</div>\n    <div class=\"paragraph card-text card-stanza my-5 text-center\">By stretching it over the entire Krita canvas,<br>aka Cat Pea Technique, is an incredible teacher.</div>\n    <div class=\"paragraph card-text card-stanza my-5 text-center\">Remember, over it, not next to it,<br>when you set the reference to 1% opacity, your color picker will still grab the correct colors from the reference photo.</div>\n  </div>\n</div>\n<div class=\"mb-5 section-spacer\">&nbsp;</div>\n<div class=\"card card-section bg-dark text-warning shadow\">\n  <div class=\"section card-body mb-0 my-2\">\n    <div class=\"paragraph card-text card-stanza my-5 text-center\">I use a 15 inch by 15 inch 300 dpi canvas,<br>I work zoomed in so far, that I can see pixels.</div>\n    <div class=\"paragraph card-text card-stanza my-5 text-center\">It never really feels like tracing,<br>because you are always working with layers.</div>\n    <div class=\"paragraph card-text card-stanza my-5 text-center\">In no time, you will break down the nose,<br>into bottom shadows on one layer, and the nose-dome on the top layer.</div>\n    <div class=\"paragraph card-text card-stanza my-5 text-center\">You are building up knowledge of the face,<br>without any concern - at all - that you will somehow get stuck.</div>\n    <div class=\"paragraph card-text card-stanza my-5 text-center\">Your reference image, will teach and protect you,<br>it will inspire you to create works that would make the younger you pause in disbelief.</div>\n  </div>\n</div>\n<div class=\"mb-5 section-spacer\">&nbsp;</div>\n<div class=\"card card-section bg-dark text-warning shadow\">\n  <div class=\"section card-body mb-0 my-2\">\n    <div class=\"paragraph card-text card-stanza my-5 text-center\">When you are working with a wall projector in a physical world,<br>you are always adjusting things, and shimmy shammying...</div>\n    <div class=\"paragraph card-text card-stanza my-5 text-center\">and trying not to get paint on you,<br>in the twilight of your studio, which is to say room or basement.</div>\n    <div class=\"paragraph card-text card-stanza my-5 text-center\">On the computer, you get to focus on learning a bit more,<br>and everything you do here, translates perfectly to the real canvas.</div>\n  </div>\n</div>\n<div class=\"mb-5 section-spacer\">&nbsp;</div>\n<div class=\"card card-section bg-dark text-warning shadow\">\n  <div class=\"section card-body mb-0 my-2\">\n    <div class=\"paragraph card-text card-stanza my-5 text-center\">For one, you need your reference images in the physical world too,<br>and you need a huge pane of glass over them.</div>\n    <div class=\"paragraph card-text card-stanza my-5 text-center\">That glass surface is where you will need to mix,<br>or at least test your colors.</div>\n  </div>\n</div>\n<div class=\"mb-5 section-spacer\">&nbsp;</div>\n<div class=\"card card-section bg-dark text-warning shadow\">\n  <div class=\"section card-body mb-0 my-2\">\n    <div class=\"paragraph card-text card-stanza my-5 text-center\">Fantasy art, where you paint faces by just following a system you memorized, is great,<br>but realism demands far more, especially when you paint on a real canvas in the physical world.</div>\n    <div class=\"paragraph card-text card-stanza my-5 text-center\">You need the colors on a glass pane,<br>and you need shape reference in the form of a projector.</div>\n    <div class=\"paragraph card-text card-stanza my-5 text-center\">And you need to keep your image in a Photo Editing program like GIMP,<br>where you can have multiple layers, some for outlines, others for highlights.</div>\n    <div class=\"paragraph card-text card-stanza my-5 text-center\">For example, projecting shadows, on a canvas that you already painted to some degree,<br>isn't going to be very useful, as the projected image is dark in-that area.</div>\n    <div class=\"paragraph card-text card-stanza my-5 text-center\">You will need to invert the colors,<br>so that the wall projector is emitting light in the area where the shadows go.</div>\n  </div>\n</div>\n<div class=\"mb-5 section-spacer\">&nbsp;</div>\n<div class=\"card card-section bg-dark text-warning shadow\">\n  <div class=\"section card-body mb-0 my-2\">\n    <div class=\"paragraph card-text card-stanza my-5 text-center\">All of this reduced to a much simpler environment,<br>here in the Open Source Krita.</div>\n    <div class=\"paragraph card-text card-stanza my-5 text-center\">And,<br>thee simpler your setup...</div>\n    <div class=\"paragraph card-text card-stanza my-5 text-center\">the faster,<br>you master.</div>\n  </div>\n</div>\n<div class=\"mb-5 section-spacer\">&nbsp;</div>\n<div class=\"card card-section bg-dark text-warning shadow\">\n  <div class=\"section card-body mb-0 my-2\">\n    <div class=\"paragraph card-text card-stanza my-5 text-center\">But asking which canvas is superior, the real physical one or the virtual computer one,<br>is a silly question - there are no reasonable answers here.</div>\n    <div class=\"paragraph card-text card-stanza my-5 text-center\">You learn faster on the computer, and the canvas won't cost you $50.<br>is about all you can say.</div>\n    <div class=\"paragraph card-text card-stanza my-5 text-center\">And please remember to purchase an inexpensive $40 dollar Pen and Tablet for your computer,<br>the tip of the pen is a pressure sensor that will allow you to gently paint in semitransparent layers.</div>\n  </div>\n</div>\n<div class=\"mb-5 section-spacer\">&nbsp;</div>\n<div class=\"card card-section bg-dark text-warning shadow\">\n  <div class=\"section card-body mb-0 my-2\">\n    <div class=\"paragraph card-text card-stanza my-5 text-center\">One extremely important lesson, a source of regret for many artists,<br>is not making a time-lapse video of the creation.</div>\n    <div class=\"paragraph card-text card-stanza my-5 text-center\">Just get a cheap camera with a time-lapse feature,<br>and put it in the corner somewhere.</div>\n    <div class=\"paragraph card-text card-stanza my-5 text-center\">In Krita enable the Reorder Docker,<br>play around with the settings, and hit record, maybe enable automatic recording too.</div>\n    <div class=\"paragraph card-text card-stanza my-5 text-center\">I am working to create new more realistic portraits on top of,<br>a lowbrow version that I already published, this will make an interesting five minute move about the transition from surrealism to realism.</div>\n  </div>\n</div>\n<div class=\"mb-5 section-spacer\">&nbsp;</div>\n<div class=\"card card-section bg-dark text-warning shadow\">\n  <div class=\"section card-body mb-0 my-2\">\n    <div class=\"paragraph card-text card-stanza my-5 text-center\">Finally, the hard pursuit of Artistic Realism under Krita,<br>will give you a solid art education in less than three weeks.</div>\n    <div class=\"paragraph card-text card-stanza my-5 text-center\">You may end up with as many as ten fine portfolio pieces,<br>merely as part of your self education.</div>\n    <div class=\"paragraph card-text card-stanza my-5 text-center\">By tracing under Krita,<br>you instantly become an artist.</div>\n    <div class=\"paragraph card-text card-stanza my-5 text-center\">Once you get to the point where you are building scenes from the photographs yo took,<br>and arranging them in GIMP before setting them up as reference under Krita.</div>\n    <div class=\"paragraph card-text card-stanza my-5 text-center\">You will discover, and I promise you this,<br>that it is not tracing...</div>\n    <div class=\"paragraph card-text card-stanza my-5 text-center\">You will find that what you thought of as tracing,<br>was True Art, all along.</div>\n  </div>\n</div>",
  "print": "<div class=\"section avoid-break-inside\" style=\"padding-bottom: 2rem;\">\n  <div class=\"paragraph\">Art has finally forced me to rest a little while,<br>I still did a quarter of a realistic painting today.</div>\n  <div class=\"paragraph\">A realistic continuation of the Lady and Her Dog,<br>but at a much slower pace.</div>\n  <div class=\"paragraph\">Using Reference Images Tool,<br>as a tracing and color guide.</div>\n  <div class=\"paragraph\">By stretching it over the entire Krita canvas,<br>aka Cat Pea Technique, is an incredible teacher.</div>\n  <div class=\"paragraph\">Remember, over it, not next to it,<br>when you set the reference to 1% opacity, your color picker will still grab the correct colors from the reference photo.</div>\n</div>\n<div class=\"section avoid-break-inside\" style=\"padding-bottom: 2rem;\">\n  <br>\n</div>\n<div class=\"section avoid-break-inside\" style=\"padding-bottom: 2rem;\">\n  <div class=\"paragraph\">I use a 15 inch by 15 inch 300 dpi canvas,<br>I work zoomed in so far, that I can see pixels.</div>\n  <div class=\"paragraph\">It never really feels like tracing,<br>because you are always working with layers.</div>\n  <div class=\"paragraph\">In no time, you will break down the nose,<br>into bottom shadows on one layer, and the nose-dome on the top layer.</div>\n  <div class=\"paragraph\">You are building up knowledge of the face,<br>without any concern - at all - that you will somehow get stuck.</div>\n  <div class=\"paragraph\">Your reference image, will teach and protect you,<br>it will inspire you to create works that would make the younger you pause in disbelief.</div>\n</div>\n<div class=\"section avoid-break-inside\" style=\"padding-bottom: 2rem;\">\n  <br>\n</div>\n<div class=\"section avoid-break-inside\" style=\"padding-bottom: 2rem;\">\n  <div class=\"paragraph\">When you are working with a wall projector in a physical world,<br>you are always adjusting things, and shimmy shammying...</div>\n  <div class=\"paragraph\">and trying not to get paint on you,<br>in the twilight of your studio, which is to say room or basement.</div>\n  <div class=\"paragraph\">On the computer, you get to focus on learning a bit more,<br>and everything you do here, translates perfectly to the real canvas.</div>\n</div>\n<div class=\"section avoid-break-inside\" style=\"padding-bottom: 2rem;\">\n  <br>\n</div>\n<div class=\"section avoid-break-inside\" style=\"padding-bottom: 2rem;\">\n  <div class=\"paragraph\">For one, you need your reference images in the physical world too,<br>and you need a huge pane of glass over them.</div>\n  <div class=\"paragraph\">That glass surface is where you will need to mix,<br>or at least test your colors.</div>\n</div>\n<div class=\"section avoid-break-inside\" style=\"padding-bottom: 2rem;\">\n  <br>\n</div>\n<div class=\"section avoid-break-inside\" style=\"padding-bottom: 2rem;\">\n  <div class=\"paragraph\">Fantasy art, where you paint faces by just following a system you memorized, is great,<br>but realism demands far more, especially when you paint on a real canvas in the physical world.</div>\n  <div class=\"paragraph\">You need the colors on a glass pane,<br>and you need shape reference in the form of a projector.</div>\n  <div class=\"paragraph\">And you need to keep your image in a Photo Editing program like GIMP,<br>where you can have multiple layers, some for outlines, others for highlights.</div>\n  <div class=\"paragraph\">For example, projecting shadows, on a canvas that you already painted to some degree,<br>isn't going to be very useful, as the projected image is dark in-that area.</div>\n  <div class=\"paragraph\">You will need to invert the colors,<br>so that the wall projector is emitting light in the area where the shadows go.</div>\n</div>\n<div class=\"section avoid-break-inside\" style=\"padding-bottom: 2rem;\">\n  <br>\n</div>\n<div class=\"section avoid-break-inside\" style=\"padding-bottom: 2rem;\">\n  <div class=\"paragraph\">All of this reduced to a much simpler environment,<br>here in the Open Source Krita.</div>\n  <div class=\"paragraph\">And,<br>thee simpler your setup...</div>\n  <div class=\"paragraph\">the faster,<br>you master.</div>\n</div>\n<div class=\"section avoid-break-inside\" style=\"padding-bottom: 2rem;\">\n  <br>\n</div>\n<div class=\"section avoid-break-inside\" style=\"padding-bottom: 2rem;\">\n  <div class=\"paragraph\">But asking which canvas is superior, the real physical one or the virtual computer one,<br>is a silly question - there are no reasonable answers here.</div>\n  <div class=\"paragraph\">You learn faster on the computer, and the canvas won't cost you $50.<br>is about all you can say.</div>\n  <div class=\"paragraph\">And please remember to purchase an inexpensive $40 dollar Pen and Tablet for your computer,<br>the tip of the pen is a pressure sensor that will allow you to gently paint in semitransparent layers.</div>\n</div>\n<div class=\"section avoid-break-inside\" style=\"padding-bottom: 2rem;\">\n  <br>\n</div>\n<div class=\"section avoid-break-inside\" style=\"padding-bottom: 2rem;\">\n  <div class=\"paragraph\">One extremely important lesson, a source of regret for many artists,<br>is not making a time-lapse video of the creation.</div>\n  <div class=\"paragraph\">Just get a cheap camera with a time-lapse feature,<br>and put it in the corner somewhere.</div>\n  <div class=\"paragraph\">In Krita enable the Reorder Docker,<br>play around with the settings, and hit record, maybe enable automatic recording too.</div>\n  <div class=\"paragraph\">I am working to create new more realistic portraits on top of,<br>a lowbrow version that I already published, this will make an interesting five minute move about the transition from surrealism to realism.</div>\n</div>\n<div class=\"section avoid-break-inside\" style=\"padding-bottom: 2rem;\">\n  <br>\n</div>\n<div class=\"section avoid-break-inside\" style=\"padding-bottom: 2rem;\">\n  <div class=\"paragraph\">Finally, the hard pursuit of Artistic Realism under Krita,<br>will give you a solid art education in less than three weeks.</div>\n  <div class=\"paragraph\">You may end up with as many as ten fine portfolio pieces,<br>merely as part of your self education.</div>\n  <div class=\"paragraph\">By tracing under Krita,<br>you instantly become an artist.</div>\n  <div class=\"paragraph\">Once you get to the point where you are building scenes from the photographs yo took,<br>and arranging them in GIMP before setting them up as reference under Krita.</div>\n  <div class=\"paragraph\">You will discover, and I promise you this,<br>that it is not tracing...</div>\n  <div class=\"paragraph\">You will find that what you thought of as tracing,<br>was True Art, all along.</div>\n</div>",
  "text": "Art has finally forced me to rest a little while,\nI still did a quarter of a realistic painting today.\nA realistic continuation of the Lady and Her Dog,\nbut at a much slower pace.\nUsing Reference Images Tool,\nas a tracing and color guide.\nBy stretching it over the entire Krita canvas,\naka Cat Pea Technique, is an incredible teacher.\nRemember, over it, not next to it,\nwhen you set the reference to 1% opacity, your color picker will still grab the correct colors from the reference photo.\n\nI use a 15 inch by 15 inch 300 dpi canvas,\nI work zoomed in so far, that I can see pixels.\nIt never really feels like tracing,\nbecause you are always working with layers.\nIn no time, you will break down the nose,\ninto bottom shadows on one layer, and the nose-dome on the top layer.\nYou are building up knowledge of the face,\nwithout any concern - at all - that you will somehow get stuck.\nYour reference image, will teach and protect you,\nit will inspire you to create works that would make the younger you pause in disbelief.\n\nWhen you are working with a wall projector in a physical world,\nyou are always adjusting things, and shimmy shammying...\nand trying not to get paint on you,\nin the twilight of your studio, which is to say room or basement.\nOn the computer, you get to focus on learning a bit more,\nand everything you do here, translates perfectly to the real canvas.\n\nFor one, you need your reference images in the physical world too,\nand you need a huge pane of glass over them.\nThat glass surface is where you will need to mix,\nor at least test your colors.\n\nFantasy art, where you paint faces by just following a system you memorized, is great,\nbut realism demands far more, especially when you paint on a real canvas in the physical world.\nYou need the colors on a glass pane,\nand you need shape reference in the form of a projector.\nAnd you need to keep your image in a Photo Editing program like GIMP,\nwhere you can have multiple layers, some for outlines, others for highlights.\nFor example, projecting shadows, on a canvas that you already painted to some degree,\nisn't going to be very useful, as the projected image is dark in-that area.\nYou will need to invert the colors,\nso that the wall projector is emitting light in the area where the shadows go.\n\nAll of this reduced to a much simpler environment,\nhere in the Open Source Krita.\nAnd,\nthee simpler your setup...\nthe faster,\nyou master.\n\nBut asking which canvas is superior, the real physical one or the virtual computer one,\nis a silly question - there are no reasonable answers here.\nYou learn faster on the computer, and the canvas won't cost you $50.\nis about all you can say.\nAnd please remember to purchase an inexpensive $40 dollar Pen and Tablet for your computer,\nthe tip of the pen is a pressure sensor that will allow you to gently paint in semitransparent layers.\n\nOne extremely important lesson, a source of regret for many artists,\nis not making a time-lapse video of the creation.\nJust get a cheap camera with a time-lapse feature,\nand put it in the corner somewhere.\nIn Krita enable the Reorder Docker,\nplay around with the settings, and hit record, maybe enable automatic recording too.\nI am working to create new more realistic portraits on top of,\na lowbrow version that I already published, this will make an interesting five minute move about the transition from surrealism to realism.\n\nFinally, the hard pursuit of Artistic Realism under Krita,\nwill give you a solid art education in less than three weeks.\nYou may end up with as many as ten fine portfolio pieces,\nmerely as part of your self education.\nBy tracing under Krita,\nyou instantly become an artist.\nOnce you get to the point where you are building scenes from the photographs yo took,\nand arranging them in GIMP before setting them up as reference under Krita.\nYou will discover, and I promise you this,\nthat it is not tracing...\nYou will find that what you thought of as tracing,\nwas True Art, all along.",
  "images": [],
  "links": []
}