{
  "id": "furkies-purrkies-poetry-0772",
  "title": "Don't Let Art-Liars Trick You: You Are Already An Artist",
  "date": "2022-04-11T20:05:12.766Z",
  "image": "poetry-0772-illustration.jpg",
  "artwork": "https://catpea.com",
  "audio": "poetry-0772.mp3",
  "guid": "fb02a4a9-1399-46e1-828f-bcd4fd471dff"
}
