{
  "title": "Help Them Believe In Their Genius",
  "date": "2020-09-27T22:33:34.497Z",
  "image": "poetry-0211-illustration.jpg",
  "audio": "poetry-0211.mp3",
  "artwork": "https://unsplash.com/photos/bnuFRiQDYIM",
  "id": "furkies-purrkies-poetry-0211",
  "attachments": {},
  "guid": "9cbbb65f-5dca-4edc-967b-56d3cdf36fd2"
}
