{
  "title": "The League of Extraordinary Ladies",
  "date": "2020-10-03T02:48:07.933Z",
  "image": "poetry-0216-illustration.jpg",
  "audio": "poetry-0216.mp3",
  "artwork": "https://unsplash.com/",
  "id": "furkies-purrkies-poetry-0216",
  "attachments": {},
  "guid": "6ae84ea8-6f7d-4835-b269-293ba435e8b3"
}
