{
  "name": "furkies-purrkies-poetry-0741",
  "id": "furkies-purrkies-poetry-0741",
  "title": "From Strange Little Beginnings To Great Books And Ideas",
  "date": "2022-03-12T02:59:42.185Z",
  "image": "poetry-0741-illustration.jpg",
  "artwork": "https://unsplash.com/photos/-Hjjz9NptKE",
  "audio": "poetry-0741.mp3",
  "guid": "312f75a0-6313-4fc0-8759-974736867c71",
  "html": "<div class=\"section\">\n  <p>As my bullies were getting worse and worse,<br>there was some kind of religious ceremony I had to go through.</p>\n  <p>I have no idea what it was,<br>but it was really important.</p>\n  <p>We were forced into confessionals,<br>and confess sins.</p>\n  <p>I had to lie, because I didn't have any;<br>so I told the priest that I use bad words.</p>\n  <p>He told me that it was not enough,<br>that I should go back and pray and think about my sins again.</p>\n  <p>And stand in the line of 200 kids,<br>and try my confession again.</p>\n</div>\n<div class=\"section\">\n  <hr>\n</div>\n<div class=\"section\">\n  <p>I felt a sense of relief,<br>knowing that I was not going to do that.</p>\n  <p>I sat on that bench a little while,<br>and went home, and probably lied to my parents.</p>\n</div>\n<div class=\"section\">\n  <hr>\n</div>\n<div class=\"section\">\n  <p>This helped me when the bullies came,<br>when school became dangerous for me...</p>\n  <p>I took the bus that went in the opposite direction,<br>and I spent months admiring Pixel Art at the Game Arcade.</p>\n</div>\n<div class=\"section\">\n  <hr>\n</div>\n<div class=\"section\">\n  <p>I had a Funky Koval comic entitled I Stand Alone, or One Against All,<br>and I'd murmur those words to myself from time to time.</p>\n</div>\n<div class=\"section\">\n  <hr>\n</div>\n<div class=\"section\">\n  <p>Years passed,<br>and I continued standing alone, learning and practicing, adventuring.</p>\n  <p>I always tried to help people in need,<br>but I learned that the force to rise comes from within.</p>\n  <p>There is nothing we can do to kindle that in a stranger,<br>the flame will light when they become more aware.</p>\n</div>\n<div class=\"section\">\n  <hr>\n</div>\n<div class=\"section\">\n  <p>As years passed I found comfort,<br>in lonesome adventures.</p>\n  <p>Being alone, is far better than being around cults, bullies, fake teachers,<br>and friends who think highly of beer and such and take to making a mess out of their early life.</p>\n  <p>I had a long list of books I was yet to read,<br>Hitches had a scary one, but before looking into them at any length.</p>\n  <p>I found the <a href=\"https://www.youtube.com/watch?v=UgkAHehlzzo\">Four Horsemen discussion on the internet</a>,<br>and you know what I'd listen to it on my way to the wilderness.</p>\n  <p>I appreciate everything they say, of course,<br>but this video is special to me because it shows the culture of great beings.</p>\n  <p>They are in fact just chatting, and they are friends,<br>and this video more than any other, always pushed my loneliness away.</p>\n  <p>I kind of don't know how to explain,<br>what I got from this video...</p>\n  <p>It maybe silly to say,<br>but I think what I got from this video is a bit of culture that is very precious to me.</p>\n</div>\n<div class=\"section\">\n  <hr>\n</div>\n<div class=\"section\">\n  <p>The next video that moved me was,<br><a href=\"https://www.youtube.com/watch?v=SQ6H-Mz6hgw\">Michelle Alexander's talk about mass incarceration</a>.</p>\n  <p>Between those two videos I understood the<br>power of preventing great mistakes, lack of education, bullies, criminals, wars.</p>\n</div>\n<div class=\"section\">\n  <hr>\n</div>\n<div class=\"section\">\n  <p>You will never regret becoming an independent thinker,<br>you will never regret self education.</p>\n  <p>You will never regret reading and re-reading books that you love,<br>books or videos that move you - in a very real way are often written by friends you wish you had.</p>\n  <p>And even though they are only book friends,<br>they will keep you real company - they will take your lonesomeness away for real.</p>\n</div>\n<div class=\"section\">\n  <hr>\n</div>\n<div class=\"section\">\n  <p>I think the idea or preventing terrible things such as wars,<br>will come to each of us.</p>\n  <p>And each person will see a different way,<br>personally I believe in Global Universal Income and that borders should be open to all.</p>\n  <p>This way broken countries will have nothing,<br>all the people will sneak away to lead cheerful lives in better places.</p>\n  <p>We have to eliminate world poverty,<br>that is what makes the people in poor countries, cross the border.</p>\n  <p>I firmly believe that fear of poverty,<br>also prevents us from taking to books, from waning to take education into our own hands.</p>\n  <p>Once a person feels safe and cozy,<br>they naturally wish for books and videos that help them grow.</p>\n</div>\n<div class=\"section\">\n  <hr>\n</div>\n<div class=\"section\">\n  <p>But that is just my option,<br>each independent thinker will have their own idea of how to prevent bad things, and points in history where only desperate choices remain.</p>\n</div>\n<div class=\"section\">\n  <hr>\n</div>\n<div class=\"section\">\n  <p>For all the worries in the word,<br>there are many amazing people in books and videos that will truly inspire you.</p>\n  <p>All you have to do to start,<br>is to set sadness aside, push the bullies away,</p>\n  <p>Search for a path that is right for you,<br>a path that the older you, will be happy that you begun walking.</p>\n  <p>And search for hundreds, or even thousands, of books,<br>that bring you ideas that make you stronger, that make you grow beyond what you thought your limits were.</p>\n</div>",
  "bootstrap": "<div class=\"card card-section bg-dark text-warning shadow\">\n  <div class=\"section card-body mb-0 my-2\">\n    <div class=\"paragraph card-text card-stanza my-5 text-center\">As my bullies were getting worse and worse,<br>there was some kind of religious ceremony I had to go through.</div>\n    <div class=\"paragraph card-text card-stanza my-5 text-center\">I have no idea what it was,<br>but it was really important.</div>\n    <div class=\"paragraph card-text card-stanza my-5 text-center\">We were forced into confessionals,<br>and confess sins.</div>\n    <div class=\"paragraph card-text card-stanza my-5 text-center\">I had to lie, because I didn't have any;<br>so I told the priest that I use bad words.</div>\n    <div class=\"paragraph card-text card-stanza my-5 text-center\">He told me that it was not enough,<br>that I should go back and pray and think about my sins again.</div>\n    <div class=\"paragraph card-text card-stanza my-5 text-center\">And stand in the line of 200 kids,<br>and try my confession again.</div>\n  </div>\n</div>\n<div class=\"mb-5 section-spacer\">&nbsp;</div>\n<div class=\"card card-section bg-dark text-warning shadow\">\n  <div class=\"section card-body mb-0 my-2\">\n    <div class=\"paragraph card-text card-stanza my-5 text-center\">I felt a sense of relief,<br>knowing that I was not going to do that.</div>\n    <div class=\"paragraph card-text card-stanza my-5 text-center\">I sat on that bench a little while,<br>and went home, and probably lied to my parents.</div>\n  </div>\n</div>\n<div class=\"mb-5 section-spacer\">&nbsp;</div>\n<div class=\"card card-section bg-dark text-warning shadow\">\n  <div class=\"section card-body mb-0 my-2\">\n    <div class=\"paragraph card-text card-stanza my-5 text-center\">This helped me when the bullies came,<br>when school became dangerous for me...</div>\n    <div class=\"paragraph card-text card-stanza my-5 text-center\">I took the bus that went in the opposite direction,<br>and I spent months admiring Pixel Art at the Game Arcade.</div>\n  </div>\n</div>\n<div class=\"mb-5 section-spacer\">&nbsp;</div>\n<div class=\"card card-section bg-dark text-warning shadow\">\n  <div class=\"section card-body mb-0 my-2\">\n    <div class=\"paragraph card-text card-stanza my-5 text-center\">I had a Funky Koval comic entitled I Stand Alone, or One Against All,<br>and I'd murmur those words to myself from time to time.</div>\n  </div>\n</div>\n<div class=\"mb-5 section-spacer\">&nbsp;</div>\n<div class=\"card card-section bg-dark text-warning shadow\">\n  <div class=\"section card-body mb-0 my-2\">\n    <div class=\"paragraph card-text card-stanza my-5 text-center\">Years passed,<br>and I continued standing alone, learning and practicing, adventuring.</div>\n    <div class=\"paragraph card-text card-stanza my-5 text-center\">I always tried to help people in need,<br>but I learned that the force to rise comes from within.</div>\n    <div class=\"paragraph card-text card-stanza my-5 text-center\">There is nothing we can do to kindle that in a stranger,<br>the flame will light when they become more aware.</div>\n  </div>\n</div>\n<div class=\"mb-5 section-spacer\">&nbsp;</div>\n<div class=\"card card-section bg-dark text-warning shadow\">\n  <div class=\"section card-body mb-0 my-2\">\n    <div class=\"paragraph card-text card-stanza my-5 text-center\">As years passed I found comfort,<br>in lonesome adventures.</div>\n    <div class=\"paragraph card-text card-stanza my-5 text-center\">Being alone, is far better than being around cults, bullies, fake teachers,<br>and friends who think highly of beer and such and take to making a mess out of their early life.</div>\n    <div class=\"paragraph card-text card-stanza my-5 text-center\">I had a long list of books I was yet to read,<br>Hitches had a scary one, but before looking into them at any length.</div>\n    <div class=\"paragraph card-text card-stanza my-5 text-center\">I found the <a href=\"https://www.youtube.com/watch?v=UgkAHehlzzo\">Four Horsemen discussion on the internet</a>,<br>and you know what I'd listen to it on my way to the wilderness.</div>\n    <div class=\"paragraph card-text card-stanza my-5 text-center\">I appreciate everything they say, of course,<br>but this video is special to me because it shows the culture of great beings.</div>\n    <div class=\"paragraph card-text card-stanza my-5 text-center\">They are in fact just chatting, and they are friends,<br>and this video more than any other, always pushed my loneliness away.</div>\n    <div class=\"paragraph card-text card-stanza my-5 text-center\">I kind of don't know how to explain,<br>what I got from this video...</div>\n    <div class=\"paragraph card-text card-stanza my-5 text-center\">It maybe silly to say,<br>but I think what I got from this video is a bit of culture that is very precious to me.</div>\n  </div>\n</div>\n<div class=\"mb-5 section-spacer\">&nbsp;</div>\n<div class=\"card card-section bg-dark text-warning shadow\">\n  <div class=\"section card-body mb-0 my-2\">\n    <div class=\"paragraph card-text card-stanza my-5 text-center\">The next video that moved me was,<br><a href=\"https://www.youtube.com/watch?v=SQ6H-Mz6hgw\">Michelle Alexander's talk about mass incarceration</a>.</div>\n    <div class=\"paragraph card-text card-stanza my-5 text-center\">Between those two videos I understood the<br>power of preventing great mistakes, lack of education, bullies, criminals, wars.</div>\n  </div>\n</div>\n<div class=\"mb-5 section-spacer\">&nbsp;</div>\n<div class=\"card card-section bg-dark text-warning shadow\">\n  <div class=\"section card-body mb-0 my-2\">\n    <div class=\"paragraph card-text card-stanza my-5 text-center\">You will never regret becoming an independent thinker,<br>you will never regret self education.</div>\n    <div class=\"paragraph card-text card-stanza my-5 text-center\">You will never regret reading and re-reading books that you love,<br>books or videos that move you - in a very real way are often written by friends you wish you had.</div>\n    <div class=\"paragraph card-text card-stanza my-5 text-center\">And even though they are only book friends,<br>they will keep you real company - they will take your lonesomeness away for real.</div>\n  </div>\n</div>\n<div class=\"mb-5 section-spacer\">&nbsp;</div>\n<div class=\"card card-section bg-dark text-warning shadow\">\n  <div class=\"section card-body mb-0 my-2\">\n    <div class=\"paragraph card-text card-stanza my-5 text-center\">I think the idea or preventing terrible things such as wars,<br>will come to each of us.</div>\n    <div class=\"paragraph card-text card-stanza my-5 text-center\">And each person will see a different way,<br>personally I believe in Global Universal Income and that borders should be open to all.</div>\n    <div class=\"paragraph card-text card-stanza my-5 text-center\">This way broken countries will have nothing,<br>all the people will sneak away to lead cheerful lives in better places.</div>\n    <div class=\"paragraph card-text card-stanza my-5 text-center\">We have to eliminate world poverty,<br>that is what makes the people in poor countries, cross the border.</div>\n    <div class=\"paragraph card-text card-stanza my-5 text-center\">I firmly believe that fear of poverty,<br>also prevents us from taking to books, from waning to take education into our own hands.</div>\n    <div class=\"paragraph card-text card-stanza my-5 text-center\">Once a person feels safe and cozy,<br>they naturally wish for books and videos that help them grow.</div>\n  </div>\n</div>\n<div class=\"mb-5 section-spacer\">&nbsp;</div>\n<div class=\"card card-section bg-dark text-warning shadow\">\n  <div class=\"section card-body mb-0 my-2\">\n    <div class=\"paragraph card-text card-stanza my-5 text-center\">But that is just my option,<br>each independent thinker will have their own idea of how to prevent bad things, and points in history where only desperate choices remain.</div>\n  </div>\n</div>\n<div class=\"mb-5 section-spacer\">&nbsp;</div>\n<div class=\"card card-section bg-dark text-warning shadow\">\n  <div class=\"section card-body mb-0 my-2\">\n    <div class=\"paragraph card-text card-stanza my-5 text-center\">For all the worries in the word,<br>there are many amazing people in books and videos that will truly inspire you.</div>\n    <div class=\"paragraph card-text card-stanza my-5 text-center\">All you have to do to start,<br>is to set sadness aside, push the bullies away,</div>\n    <div class=\"paragraph card-text card-stanza my-5 text-center\">Search for a path that is right for you,<br>a path that the older you, will be happy that you begun walking.</div>\n    <div class=\"paragraph card-text card-stanza my-5 text-center\">And search for hundreds, or even thousands, of books,<br>that bring you ideas that make you stronger, that make you grow beyond what you thought your limits were.</div>\n  </div>\n</div>",
  "print": "<div class=\"section avoid-break-inside\" style=\"padding-bottom: 2rem;\">\n  <div class=\"paragraph\">As my bullies were getting worse and worse,<br>there was some kind of religious ceremony I had to go through.</div>\n  <div class=\"paragraph\">I have no idea what it was,<br>but it was really important.</div>\n  <div class=\"paragraph\">We were forced into confessionals,<br>and confess sins.</div>\n  <div class=\"paragraph\">I had to lie, because I didn't have any;<br>so I told the priest that I use bad words.</div>\n  <div class=\"paragraph\">He told me that it was not enough,<br>that I should go back and pray and think about my sins again.</div>\n  <div class=\"paragraph\">And stand in the line of 200 kids,<br>and try my confession again.</div>\n</div>\n<div class=\"section avoid-break-inside\" style=\"padding-bottom: 2rem;\">\n  <br>\n</div>\n<div class=\"section avoid-break-inside\" style=\"padding-bottom: 2rem;\">\n  <div class=\"paragraph\">I felt a sense of relief,<br>knowing that I was not going to do that.</div>\n  <div class=\"paragraph\">I sat on that bench a little while,<br>and went home, and probably lied to my parents.</div>\n</div>\n<div class=\"section avoid-break-inside\" style=\"padding-bottom: 2rem;\">\n  <br>\n</div>\n<div class=\"section avoid-break-inside\" style=\"padding-bottom: 2rem;\">\n  <div class=\"paragraph\">This helped me when the bullies came,<br>when school became dangerous for me...</div>\n  <div class=\"paragraph\">I took the bus that went in the opposite direction,<br>and I spent months admiring Pixel Art at the Game Arcade.</div>\n</div>\n<div class=\"section avoid-break-inside\" style=\"padding-bottom: 2rem;\">\n  <br>\n</div>\n<div class=\"section avoid-break-inside\" style=\"padding-bottom: 2rem;\">\n  <div class=\"paragraph\">I had a Funky Koval comic entitled I Stand Alone, or One Against All,<br>and I'd murmur those words to myself from time to time.</div>\n</div>\n<div class=\"section avoid-break-inside\" style=\"padding-bottom: 2rem;\">\n  <br>\n</div>\n<div class=\"section avoid-break-inside\" style=\"padding-bottom: 2rem;\">\n  <div class=\"paragraph\">Years passed,<br>and I continued standing alone, learning and practicing, adventuring.</div>\n  <div class=\"paragraph\">I always tried to help people in need,<br>but I learned that the force to rise comes from within.</div>\n  <div class=\"paragraph\">There is nothing we can do to kindle that in a stranger,<br>the flame will light when they become more aware.</div>\n</div>\n<div class=\"section avoid-break-inside\" style=\"padding-bottom: 2rem;\">\n  <br>\n</div>\n<div class=\"section avoid-break-inside\" style=\"padding-bottom: 2rem;\">\n  <div class=\"paragraph\">As years passed I found comfort,<br>in lonesome adventures.</div>\n  <div class=\"paragraph\">Being alone, is far better than being around cults, bullies, fake teachers,<br>and friends who think highly of beer and such and take to making a mess out of their early life.</div>\n  <div class=\"paragraph\">I had a long list of books I was yet to read,<br>Hitches had a scary one, but before looking into them at any length.</div>\n  <div class=\"paragraph\">I found the <span>Four Horsemen discussion on the internet<sup>[1]</sup></span>,<br>and you know what I'd listen to it on my way to the wilderness.</div>\n  <div class=\"paragraph\">I appreciate everything they say, of course,<br>but this video is special to me because it shows the culture of great beings.</div>\n  <div class=\"paragraph\">They are in fact just chatting, and they are friends,<br>and this video more than any other, always pushed my loneliness away.</div>\n  <div class=\"paragraph\">I kind of don't know how to explain,<br>what I got from this video...</div>\n  <div class=\"paragraph\">It maybe silly to say,<br>but I think what I got from this video is a bit of culture that is very precious to me.</div>\n</div>\n<div class=\"section avoid-break-inside\" style=\"padding-bottom: 2rem;\">\n  <br>\n</div>\n<div class=\"section avoid-break-inside\" style=\"padding-bottom: 2rem;\">\n  <div class=\"paragraph\">The next video that moved me was,<br><span>Michelle Alexander's talk about mass incarceration<sup>[2]</sup></span>.</div>\n  <div class=\"paragraph\">Between those two videos I understood the<br>power of preventing great mistakes, lack of education, bullies, criminals, wars.</div>\n</div>\n<div class=\"section avoid-break-inside\" style=\"padding-bottom: 2rem;\">\n  <br>\n</div>\n<div class=\"section avoid-break-inside\" style=\"padding-bottom: 2rem;\">\n  <div class=\"paragraph\">You will never regret becoming an independent thinker,<br>you will never regret self education.</div>\n  <div class=\"paragraph\">You will never regret reading and re-reading books that you love,<br>books or videos that move you - in a very real way are often written by friends you wish you had.</div>\n  <div class=\"paragraph\">And even though they are only book friends,<br>they will keep you real company - they will take your lonesomeness away for real.</div>\n</div>\n<div class=\"section avoid-break-inside\" style=\"padding-bottom: 2rem;\">\n  <br>\n</div>\n<div class=\"section avoid-break-inside\" style=\"padding-bottom: 2rem;\">\n  <div class=\"paragraph\">I think the idea or preventing terrible things such as wars,<br>will come to each of us.</div>\n  <div class=\"paragraph\">And each person will see a different way,<br>personally I believe in Global Universal Income and that borders should be open to all.</div>\n  <div class=\"paragraph\">This way broken countries will have nothing,<br>all the people will sneak away to lead cheerful lives in better places.</div>\n  <div class=\"paragraph\">We have to eliminate world poverty,<br>that is what makes the people in poor countries, cross the border.</div>\n  <div class=\"paragraph\">I firmly believe that fear of poverty,<br>also prevents us from taking to books, from waning to take education into our own hands.</div>\n  <div class=\"paragraph\">Once a person feels safe and cozy,<br>they naturally wish for books and videos that help them grow.</div>\n</div>\n<div class=\"section avoid-break-inside\" style=\"padding-bottom: 2rem;\">\n  <br>\n</div>\n<div class=\"section avoid-break-inside\" style=\"padding-bottom: 2rem;\">\n  <div class=\"paragraph\">But that is just my option,<br>each independent thinker will have their own idea of how to prevent bad things, and points in history where only desperate choices remain.</div>\n</div>\n<div class=\"section avoid-break-inside\" style=\"padding-bottom: 2rem;\">\n  <br>\n</div>\n<div class=\"section avoid-break-inside\" style=\"padding-bottom: 2rem;\">\n  <div class=\"paragraph\">For all the worries in the word,<br>there are many amazing people in books and videos that will truly inspire you.</div>\n  <div class=\"paragraph\">All you have to do to start,<br>is to set sadness aside, push the bullies away,</div>\n  <div class=\"paragraph\">Search for a path that is right for you,<br>a path that the older you, will be happy that you begun walking.</div>\n  <div class=\"paragraph\">And search for hundreds, or even thousands, of books,<br>that bring you ideas that make you stronger, that make you grow beyond what you thought your limits were.</div>\n</div>\n<div class=\"break-after\">&nbsp;</div>\n<div>\n  <div class=\"section\" style=\"padding-bottom: 1rem;\">References</div>\n  <div>[1]: https://www.youtube.com/watch?v=UgkAHehlzzo</div>\n  <div>[2]: https://www.youtube.com/watch?v=SQ6H-Mz6hgw</div>\n</div>",
  "text": "As my bullies were getting worse and worse,\nthere was some kind of religious ceremony I had to go through.\nI have no idea what it was,\nbut it was really important.\nWe were forced into confessionals,\nand confess sins.\nI had to lie, because I didn't have any;\nso I told the priest that I use bad words.\nHe told me that it was not enough,\nthat I should go back and pray and think about my sins again.\nAnd stand in the line of 200 kids,\nand try my confession again.\n\nI felt a sense of relief,\nknowing that I was not going to do that.\nI sat on that bench a little while,\nand went home, and probably lied to my parents.\n\nThis helped me when the bullies came,\nwhen school became dangerous for me...\nI took the bus that went in the opposite direction,\nand I spent months admiring Pixel Art at the Game Arcade.\n\nI had a Funky Koval comic entitled I Stand Alone, or One Against All,\nand I'd murmur those words to myself from time to time.\n\nYears passed,\nand I continued standing alone, learning and practicing, adventuring.\nI always tried to help people in need,\nbut I learned that the force to rise comes from within.\nThere is nothing we can do to kindle that in a stranger,\nthe flame will light when they become more aware.\n\nAs years passed I found comfort,\nin lonesome adventures.\nBeing alone, is far better than being around cults, bullies, fake teachers,\nand friends who think highly of beer and such and take to making a mess out of their early life.\nI had a long list of books I was yet to read,\nHitches had a scary one, but before looking into them at any length.\nI found the Four Horsemen discussion on the internet[1],\nand you know what I'd listen to it on my way to the wilderness.\nI appreciate everything they say, of course,\nbut this video is special to me because it shows the culture of great beings.\nThey are in fact just chatting, and they are friends,\nand this video more than any other, always pushed my loneliness away.\nI kind of don't know how to explain,\nwhat I got from this video...\nIt maybe silly to say,\nbut I think what I got from this video is a bit of culture that is very precious to me.\n\nThe next video that moved me was,\nMichelle Alexander's talk about mass incarceration[2].\nBetween those two videos I understood the\npower of preventing great mistakes, lack of education, bullies, criminals, wars.\n\nYou will never regret becoming an independent thinker,\nyou will never regret self education.\nYou will never regret reading and re-reading books that you love,\nbooks or videos that move you - in a very real way are often written by friends you wish you had.\nAnd even though they are only book friends,\nthey will keep you real company - they will take your lonesomeness away for real.\n\nI think the idea or preventing terrible things such as wars,\nwill come to each of us.\nAnd each person will see a different way,\npersonally I believe in Global Universal Income and that borders should be open to all.\nThis way broken countries will have nothing,\nall the people will sneak away to lead cheerful lives in better places.\nWe have to eliminate world poverty,\nthat is what makes the people in poor countries, cross the border.\nI firmly believe that fear of poverty,\nalso prevents us from taking to books, from waning to take education into our own hands.\nOnce a person feels safe and cozy,\nthey naturally wish for books and videos that help them grow.\n\nBut that is just my option,\neach independent thinker will have their own idea of how to prevent bad things, and points in history where only desperate choices remain.\n\nFor all the worries in the word,\nthere are many amazing people in books and videos that will truly inspire you.\nAll you have to do to start,\nis to set sadness aside, push the bullies away,\nSearch for a path that is right for you,\na path that the older you, will be happy that you begun walking.\nAnd search for hundreds, or even thousands, of books,\nthat bring you ideas that make you stronger, that make you grow beyond what you thought your limits were.\n \nReferences\n[1]: https://www.youtube.com/watch?v=UgkAHehlzzo\n[2]: https://www.youtube.com/watch?v=SQ6H-Mz6hgw",
  "images": [],
  "links": [
    {
      "title": "Four Horsemen discussion on the internet",
      "url": "https://www.youtube.com/watch?v=UgkAHehlzzo",
      "hostname": "www.youtube.com"
    },
    {
      "title": "Michelle Alexander's talk about mass incarceration",
      "url": "https://www.youtube.com/watch?v=SQ6H-Mz6hgw",
      "hostname": "www.youtube.com"
    }
  ]
}