{
  "id": "furkies-purrkies-poetry-0894",
  "title": "Furkies Purrkies Poetry 0894",
  "date": "2022-08-12T03:13:42.590Z",
  "image": "poetry-0894-illustration.jpg",
  "artwork": "https://example.com",
  "audio": "poetry-0894.mp3"
}