{
  "title": "What Does The Adventurer Seek?",
  "date": "2021-03-06T02:21:34.740Z",
  "image": "poetry-0370-illustration.jpg",
  "audio": "poetry-0370.mp3",
  "artwork": "https://unsplash.com/photos/kGSapVfg8Kw",
  "id": "furkies-purrkies-poetry-0370",
  "attachments": {},
  "guid": "f2a507ef-00c3-487a-81d7-93701184a62b"
}
