{
  "title": "Real Talk With MC Meow: Music Theory",
  "date": "2021-01-19T21:28:35.914Z",
  "image": "poetry-0325-illustration.jpg",
  "audio": "poetry-0325.mp3",
  "artwork": "https://unsplash.com/photos/MXe5tFMQonY",
  "id": "furkies-purrkies-poetry-0325",
  "attachments": {},
  "guid": "ba149681-1f22-4a95-a7c2-dd9f85b33b6a"
}
