[
  {
    "title": "if you are too good you will be graded down",
    "url": "https://www.youtube.com/watch?v=DzSnvxejenY",
    "hostname": "www.youtube.com"
  },
  {
    "title": "we pretend that which ever one we happened to be born into, is real",
    "url": "https://www.youtube.com/watch?v=6mmskXXetcg",
    "hostname": "www.youtube.com"
  },
  {
    "title": "build a series of small companies or startups",
    "url": "https://www.youtube.com/results?search_query=What+Is+A+Startup&page=&utm_source=opensearch",
    "hostname": "www.youtube.com"
  }
]