{
  "title": "The Simple Architecture Of Real Schools",
  "date": "2021-04-24T01:32:46.872Z",
  "image": "poetry-0419-illustration.jpg",
  "audio": "poetry-0419.mp3",
  "artwork": "https://unsplash.com/",
  "id": "furkies-purrkies-poetry-0419",
  "attachments": {},
  "guid": "5fd39f97-8991-4791-8f8e-525f91477b89"
}
