{
  "name": "furkies-purrkies-poetry-0429",
  "title": "The Noble Quest Against Falsehoods",
  "date": "2021-05-04T00:07:51.153Z",
  "image": "poetry-0429-illustration.jpg",
  "audio": "poetry-0429.mp3",
  "artwork": "https://unsplash.com/photos/KYTT8L5JLDs",
  "id": "furkies-purrkies-poetry-0429",
  "attachments": {},
  "guid": "67c6fb60-d0fe-43ca-bd2d-d4c7798ecefc",
  "html": "<div class=\"section\">\n  <p>Falsehoods,</p>\n  <p>are mind killers.</p>\n</div>\n\n<div class=\"section\">\n  <p>Falsehoods limit us, they divide us,</p>\n  <p>they poison Humanity.</p>\n</div>\n\n<div class=\"section\">\n  <p>People who believe in falsehoods,</p>\n  <p>are prevented from growing up.</p>\n</div>\n\n<div class=\"section\">\n  <hr>\n</div>\n\n<div class=\"section\">\n  <p>As scary as that is,</p>\n  <p>we also have everything it takes to remove them from our minds.</p>\n</div>\n\n<div class=\"section\">\n  <p>In deed, there is scarcely a place out there that will preach truth,</p>\n  <p>even a proper University will rely on the scholar to find the reproducible result.</p>\n</div>\n\n<div class=\"section\">\n  <p>Removing falsehoods,</p>\n  <p>is a healthy, and mighty, part of growing up.</p>\n</div>\n\n<div class=\"section\">\n  <hr>\n</div>\n\n<div class=\"section\">\n  <p>Books that are held in high esteem by the wise and intellectual,</p>\n  <p>will hasten and balance the process discovering truths.</p>\n</div>\n\n<div class=\"section\">\n  <p>A book, or a narrated book, that shares true wisdom,</p>\n  <p>is a briefcase of good ideas, and treasures for our minds (or upgrades if you are technologically inclined).</p>\n</div>\n\n<div class=\"section\">\n  <p>Without books, we would be struck by the urge to visit Universities, and lecture halls,</p>\n  <p>and to write to those who have things to say, which is what would cause them to share wisdom or letters in books.</p>\n</div>\n\n<div class=\"section\">\n  <p>Many people need to hear a book,</p>\n  <p>and it truly a beautiful experience to hear a book read by its author.</p>\n</div>\n\n<div class=\"section\">\n  <p>Equipped with a couple of hundred narrated books,</p>\n  <p>you can easily inherit lifetimes of knowledge and experience.</p>\n</div>\n\n<div class=\"section\">\n  <hr>\n</div>\n\n<div class=\"section\">\n  <p>Falsehoods are harder, and take longer to get rid of than you think,</p>\n  <p>as they often embedded in, and obscured by, our lifestyles, family culture, neighborhood culture, and even national culture.</p>\n</div>\n\n<div class=\"section\">\n  <p>But there is a sure cure for that,</p>\n  <p>a very noble tradition, practiced by humans probably for tens of thousands of years.</p>\n</div>\n\n<div class=\"section\">\n  <p>In Modern Day, that is the act of buying a backpack, and bug spray, and strangely overpriced pants and shoes,</p>\n  <p>and a tent, or a hammock tent, and reconnecting with nature on long and winding trails.</p>\n</div>\n\n<div class=\"section\">\n  <p>Quests, that require a lot of walking,</p>\n  <p>that pull you out of your environment, and give you a healthy substitute for a prolonged period of time.</p>\n</div>\n\n<div class=\"section\">\n  <hr>\n</div>\n\n<div class=\"section\">\n  <p>Think about how your mind changes when you go on a vacation,</p>\n  <p>how you become more contemplative, relaxed, and become more of yourself.</p>\n</div>\n\n<div class=\"section\">\n  <p>Know, that,</p>\n  <p>that is the real you.</p>\n</div>\n\n<div class=\"section\">\n  <p>When your mind is rested and unstressed</p>\n  <p>it is most receptive to growth, to growing up, to being Human.</p>\n</div>\n\n<div class=\"section\">\n  <p>Many people start reading books on their vacations,</p>\n  <p>that is because reaching out for knowledge about or wisdom from other lives, is a very natural thing for us.</p>\n</div>\n\n<div class=\"section\">\n  <hr>\n</div>\n\n<div class=\"section\">\n  <p>The power of falsehoods,</p>\n  <p>is too often impossibly overwhelming.</p>\n</div>\n\n<div class=\"section\">\n  <p>Talking about it and thinking about it is not enough,</p>\n  <p>when falsehoods grab a hold of us, we too often point ourselves away from the right way, and make things worse.</p>\n</div>\n\n<div class=\"section\">\n  <p>Falsehoods can stress us to self medicate with overeating,</p>\n  <p>they have the power to make ourselves ill.</p>\n</div>\n\n<div class=\"section\">\n  <p>Falsehoods like the belief that out poverty is our fault,</p>\n  <p>can press us into a job where we never read a book, and never take to wisdom.</p>\n</div>\n\n<div class=\"section\">\n  <hr>\n</div>\n\n\n<div class=\"section\">\n  <p>In conclusion of this text,</p>\n  <p>I must ask you to make a powerful change.</p>\n</div>\n\n<div class=\"section\">\n  <p>I have to ask you,</p>\n  <p>to go on a marvelous shopping expedition for camping gear, and go on a long and deeply relaxing vacation.</p>\n</div>\n\n<div class=\"section\">\n  <p>And never return to the mindset that you left behind when you set off for that quest,</p>\n  <p>you must use your power to live your life in the state of mind brought on by a vacation.</p>\n</div>\n\n<div class=\"section\">\n  <p>Know that whatever troubles you left behind as you went on your vacation,</p>\n  <p>have always been holding you back and are preventing you from growing up.</p>\n</div>\n\n<div class=\"section\">\n  <hr>\n</div>\n\n<div class=\"section\">\n  <p>You are a Noble and Beautiful Human Being,</p>\n  <p>you are mean to grow, to reach for Knowledge, Wisdom and Greatness.</p>\n</div>\n\n<div class=\"section\">\n  <p>Nothing must stand in the way of your growing up,</p>\n  <p><a href=\"https://www.youtube.com/watch?v=hPSvdKTEZug\">without growing up you will never become yourself</a>.</p>\n</div>\n\n<div class=\"section\">\n  <p>When you grow,</p>\n  <p>the world grows along with you.</p>\n</div>\n\n<div class=\"section\">\n  <p>Please go on a vacation,</p>\n  <p>and don&apos;t comeback.</p>\n</div>\n\n<div class=\"section\">\n  <p>Become,</p>\n  <p>a Great Being.</p>\n</div>\n\n<div class=\"section\">\n  <p>Grow,</p>\n  <p>Free.</p>\n</div>",
  "bootstrap": "<div class=\"card card-section bg-dark text-warning shadow\">\n  <div class=\"section card-body mb-0 my-2\">\n    <div class=\"paragraph card-text card-stanza my-5 text-center\">Falsehoods,</div>\n    <div class=\"paragraph card-text card-stanza my-5 text-center\">are mind killers.</div>\n  </div>\n</div>\n<div class=\"card card-section bg-dark text-warning shadow\">\n  <div class=\"section card-body mb-0 my-2\">\n    <div class=\"paragraph card-text card-stanza my-5 text-center\">Falsehoods limit us, they divide us,</div>\n    <div class=\"paragraph card-text card-stanza my-5 text-center\">they poison Humanity.</div>\n  </div>\n</div>\n<div class=\"card card-section bg-dark text-warning shadow\">\n  <div class=\"section card-body mb-0 my-2\">\n    <div class=\"paragraph card-text card-stanza my-5 text-center\">People who believe in falsehoods,</div>\n    <div class=\"paragraph card-text card-stanza my-5 text-center\">are prevented from growing up.</div>\n  </div>\n</div>\n<div class=\"mb-5 section-spacer\">&nbsp;</div>\n<div class=\"card card-section bg-dark text-warning shadow\">\n  <div class=\"section card-body mb-0 my-2\">\n    <div class=\"paragraph card-text card-stanza my-5 text-center\">As scary as that is,</div>\n    <div class=\"paragraph card-text card-stanza my-5 text-center\">we also have everything it takes to remove them from our minds.</div>\n  </div>\n</div>\n<div class=\"card card-section bg-dark text-warning shadow\">\n  <div class=\"section card-body mb-0 my-2\">\n    <div class=\"paragraph card-text card-stanza my-5 text-center\">In deed, there is scarcely a place out there that will preach truth,</div>\n    <div class=\"paragraph card-text card-stanza my-5 text-center\">even a proper University will rely on the scholar to find the reproducible result.</div>\n  </div>\n</div>\n<div class=\"card card-section bg-dark text-warning shadow\">\n  <div class=\"section card-body mb-0 my-2\">\n    <div class=\"paragraph card-text card-stanza my-5 text-center\">Removing falsehoods,</div>\n    <div class=\"paragraph card-text card-stanza my-5 text-center\">is a healthy, and mighty, part of growing up.</div>\n  </div>\n</div>\n<div class=\"mb-5 section-spacer\">&nbsp;</div>\n<div class=\"card card-section bg-dark text-warning shadow\">\n  <div class=\"section card-body mb-0 my-2\">\n    <div class=\"paragraph card-text card-stanza my-5 text-center\">Books that are held in high esteem by the wise and intellectual,</div>\n    <div class=\"paragraph card-text card-stanza my-5 text-center\">will hasten and balance the process discovering truths.</div>\n  </div>\n</div>\n<div class=\"card card-section bg-dark text-warning shadow\">\n  <div class=\"section card-body mb-0 my-2\">\n    <div class=\"paragraph card-text card-stanza my-5 text-center\">A book, or a narrated book, that shares true wisdom,</div>\n    <div class=\"paragraph card-text card-stanza my-5 text-center\">is a briefcase of good ideas, and treasures for our minds (or upgrades if you are technologically inclined).</div>\n  </div>\n</div>\n<div class=\"card card-section bg-dark text-warning shadow\">\n  <div class=\"section card-body mb-0 my-2\">\n    <div class=\"paragraph card-text card-stanza my-5 text-center\">Without books, we would be struck by the urge to visit Universities, and lecture halls,</div>\n    <div class=\"paragraph card-text card-stanza my-5 text-center\">and to write to those who have things to say, which is what would cause them to share wisdom or letters in books.</div>\n  </div>\n</div>\n<div class=\"card card-section bg-dark text-warning shadow\">\n  <div class=\"section card-body mb-0 my-2\">\n    <div class=\"paragraph card-text card-stanza my-5 text-center\">Many people need to hear a book,</div>\n    <div class=\"paragraph card-text card-stanza my-5 text-center\">and it truly a beautiful experience to hear a book read by its author.</div>\n  </div>\n</div>\n<div class=\"card card-section bg-dark text-warning shadow\">\n  <div class=\"section card-body mb-0 my-2\">\n    <div class=\"paragraph card-text card-stanza my-5 text-center\">Equipped with a couple of hundred narrated books,</div>\n    <div class=\"paragraph card-text card-stanza my-5 text-center\">you can easily inherit lifetimes of knowledge and experience.</div>\n  </div>\n</div>\n<div class=\"mb-5 section-spacer\">&nbsp;</div>\n<div class=\"card card-section bg-dark text-warning shadow\">\n  <div class=\"section card-body mb-0 my-2\">\n    <div class=\"paragraph card-text card-stanza my-5 text-center\">Falsehoods are harder, and take longer to get rid of than you think,</div>\n    <div class=\"paragraph card-text card-stanza my-5 text-center\">as they often embedded in, and obscured by, our lifestyles, family culture, neighborhood culture, and even national culture.</div>\n  </div>\n</div>\n<div class=\"card card-section bg-dark text-warning shadow\">\n  <div class=\"section card-body mb-0 my-2\">\n    <div class=\"paragraph card-text card-stanza my-5 text-center\">But there is a sure cure for that,</div>\n    <div class=\"paragraph card-text card-stanza my-5 text-center\">a very noble tradition, practiced by humans probably for tens of thousands of years.</div>\n  </div>\n</div>\n<div class=\"card card-section bg-dark text-warning shadow\">\n  <div class=\"section card-body mb-0 my-2\">\n    <div class=\"paragraph card-text card-stanza my-5 text-center\">In Modern Day, that is the act of buying a backpack, and bug spray, and strangely overpriced pants and shoes,</div>\n    <div class=\"paragraph card-text card-stanza my-5 text-center\">and a tent, or a hammock tent, and reconnecting with nature on long and winding trails.</div>\n  </div>\n</div>\n<div class=\"card card-section bg-dark text-warning shadow\">\n  <div class=\"section card-body mb-0 my-2\">\n    <div class=\"paragraph card-text card-stanza my-5 text-center\">Quests, that require a lot of walking,</div>\n    <div class=\"paragraph card-text card-stanza my-5 text-center\">that pull you out of your environment, and give you a healthy substitute for a prolonged period of time.</div>\n  </div>\n</div>\n<div class=\"mb-5 section-spacer\">&nbsp;</div>\n<div class=\"card card-section bg-dark text-warning shadow\">\n  <div class=\"section card-body mb-0 my-2\">\n    <div class=\"paragraph card-text card-stanza my-5 text-center\">Think about how your mind changes when you go on a vacation,</div>\n    <div class=\"paragraph card-text card-stanza my-5 text-center\">how you become more contemplative, relaxed, and become more of yourself.</div>\n  </div>\n</div>\n<div class=\"card card-section bg-dark text-warning shadow\">\n  <div class=\"section card-body mb-0 my-2\">\n    <div class=\"paragraph card-text card-stanza my-5 text-center\">Know, that,</div>\n    <div class=\"paragraph card-text card-stanza my-5 text-center\">that is the real you.</div>\n  </div>\n</div>\n<div class=\"card card-section bg-dark text-warning shadow\">\n  <div class=\"section card-body mb-0 my-2\">\n    <div class=\"paragraph card-text card-stanza my-5 text-center\">When your mind is rested and unstressed</div>\n    <div class=\"paragraph card-text card-stanza my-5 text-center\">it is most receptive to growth, to growing up, to being Human.</div>\n  </div>\n</div>\n<div class=\"card card-section bg-dark text-warning shadow\">\n  <div class=\"section card-body mb-0 my-2\">\n    <div class=\"paragraph card-text card-stanza my-5 text-center\">Many people start reading books on their vacations,</div>\n    <div class=\"paragraph card-text card-stanza my-5 text-center\">that is because reaching out for knowledge about or wisdom from other lives, is a very natural thing for us.</div>\n  </div>\n</div>\n<div class=\"mb-5 section-spacer\">&nbsp;</div>\n<div class=\"card card-section bg-dark text-warning shadow\">\n  <div class=\"section card-body mb-0 my-2\">\n    <div class=\"paragraph card-text card-stanza my-5 text-center\">The power of falsehoods,</div>\n    <div class=\"paragraph card-text card-stanza my-5 text-center\">is too often impossibly overwhelming.</div>\n  </div>\n</div>\n<div class=\"card card-section bg-dark text-warning shadow\">\n  <div class=\"section card-body mb-0 my-2\">\n    <div class=\"paragraph card-text card-stanza my-5 text-center\">Talking about it and thinking about it is not enough,</div>\n    <div class=\"paragraph card-text card-stanza my-5 text-center\">when falsehoods grab a hold of us, we too often point ourselves away from the right way, and make things worse.</div>\n  </div>\n</div>\n<div class=\"card card-section bg-dark text-warning shadow\">\n  <div class=\"section card-body mb-0 my-2\">\n    <div class=\"paragraph card-text card-stanza my-5 text-center\">Falsehoods can stress us to self medicate with overeating,</div>\n    <div class=\"paragraph card-text card-stanza my-5 text-center\">they have the power to make ourselves ill.</div>\n  </div>\n</div>\n<div class=\"card card-section bg-dark text-warning shadow\">\n  <div class=\"section card-body mb-0 my-2\">\n    <div class=\"paragraph card-text card-stanza my-5 text-center\">Falsehoods like the belief that out poverty is our fault,</div>\n    <div class=\"paragraph card-text card-stanza my-5 text-center\">can press us into a job where we never read a book, and never take to wisdom.</div>\n  </div>\n</div>\n<div class=\"mb-5 section-spacer\">&nbsp;</div>\n<div class=\"card card-section bg-dark text-warning shadow\">\n  <div class=\"section card-body mb-0 my-2\">\n    <div class=\"paragraph card-text card-stanza my-5 text-center\">In conclusion of this text,</div>\n    <div class=\"paragraph card-text card-stanza my-5 text-center\">I must ask you to make a powerful change.</div>\n  </div>\n</div>\n<div class=\"card card-section bg-dark text-warning shadow\">\n  <div class=\"section card-body mb-0 my-2\">\n    <div class=\"paragraph card-text card-stanza my-5 text-center\">I have to ask you,</div>\n    <div class=\"paragraph card-text card-stanza my-5 text-center\">to go on a marvelous shopping expedition for camping gear, and go on a long and deeply relaxing vacation.</div>\n  </div>\n</div>\n<div class=\"card card-section bg-dark text-warning shadow\">\n  <div class=\"section card-body mb-0 my-2\">\n    <div class=\"paragraph card-text card-stanza my-5 text-center\">And never return to the mindset that you left behind when you set off for that quest,</div>\n    <div class=\"paragraph card-text card-stanza my-5 text-center\">you must use your power to live your life in the state of mind brought on by a vacation.</div>\n  </div>\n</div>\n<div class=\"card card-section bg-dark text-warning shadow\">\n  <div class=\"section card-body mb-0 my-2\">\n    <div class=\"paragraph card-text card-stanza my-5 text-center\">Know that whatever troubles you left behind as you went on your vacation,</div>\n    <div class=\"paragraph card-text card-stanza my-5 text-center\">have always been holding you back and are preventing you from growing up.</div>\n  </div>\n</div>\n<div class=\"mb-5 section-spacer\">&nbsp;</div>\n<div class=\"card card-section bg-dark text-warning shadow\">\n  <div class=\"section card-body mb-0 my-2\">\n    <div class=\"paragraph card-text card-stanza my-5 text-center\">You are a Noble and Beautiful Human Being,</div>\n    <div class=\"paragraph card-text card-stanza my-5 text-center\">you are mean to grow, to reach for Knowledge, Wisdom and Greatness.</div>\n  </div>\n</div>\n<div class=\"card card-section bg-dark text-warning shadow\">\n  <div class=\"section card-body mb-0 my-2\">\n    <div class=\"paragraph card-text card-stanza my-5 text-center\">Nothing must stand in the way of your growing up,</div>\n    <div class=\"paragraph card-text card-stanza my-5 text-center\"><a href=\"https://www.youtube.com/watch?v=hPSvdKTEZug\">without growing up you will never become yourself</a>.</div>\n  </div>\n</div>\n<div class=\"card card-section bg-dark text-warning shadow\">\n  <div class=\"section card-body mb-0 my-2\">\n    <div class=\"paragraph card-text card-stanza my-5 text-center\">When you grow,</div>\n    <div class=\"paragraph card-text card-stanza my-5 text-center\">the world grows along with you.</div>\n  </div>\n</div>\n<div class=\"card card-section bg-dark text-warning shadow\">\n  <div class=\"section card-body mb-0 my-2\">\n    <div class=\"paragraph card-text card-stanza my-5 text-center\">Please go on a vacation,</div>\n    <div class=\"paragraph card-text card-stanza my-5 text-center\">and don't comeback.</div>\n  </div>\n</div>\n<div class=\"card card-section bg-dark text-warning shadow\">\n  <div class=\"section card-body mb-0 my-2\">\n    <div class=\"paragraph card-text card-stanza my-5 text-center\">Become,</div>\n    <div class=\"paragraph card-text card-stanza my-5 text-center\">a Great Being.</div>\n  </div>\n</div>\n<div class=\"card card-section bg-dark text-warning shadow\">\n  <div class=\"section card-body mb-0 my-2\">\n    <div class=\"paragraph card-text card-stanza my-5 text-center\">Grow,</div>\n    <div class=\"paragraph card-text card-stanza my-5 text-center\">Free.</div>\n  </div>\n</div>",
  "print": "<div class=\"section avoid-break-inside\" style=\"padding-bottom: 2rem;\">\n  <div class=\"paragraph\">Falsehoods,</div>\n  <div class=\"paragraph\">are mind killers.</div>\n</div>\n<div class=\"section avoid-break-inside\" style=\"padding-bottom: 2rem;\">\n  <div class=\"paragraph\">Falsehoods limit us, they divide us,</div>\n  <div class=\"paragraph\">they poison Humanity.</div>\n</div>\n<div class=\"section avoid-break-inside\" style=\"padding-bottom: 2rem;\">\n  <div class=\"paragraph\">People who believe in falsehoods,</div>\n  <div class=\"paragraph\">are prevented from growing up.</div>\n</div>\n<div class=\"section avoid-break-inside\" style=\"padding-bottom: 2rem;\">\n  <br>\n</div>\n<div class=\"section avoid-break-inside\" style=\"padding-bottom: 2rem;\">\n  <div class=\"paragraph\">As scary as that is,</div>\n  <div class=\"paragraph\">we also have everything it takes to remove them from our minds.</div>\n</div>\n<div class=\"section avoid-break-inside\" style=\"padding-bottom: 2rem;\">\n  <div class=\"paragraph\">In deed, there is scarcely a place out there that will preach truth,</div>\n  <div class=\"paragraph\">even a proper University will rely on the scholar to find the reproducible result.</div>\n</div>\n<div class=\"section avoid-break-inside\" style=\"padding-bottom: 2rem;\">\n  <div class=\"paragraph\">Removing falsehoods,</div>\n  <div class=\"paragraph\">is a healthy, and mighty, part of growing up.</div>\n</div>\n<div class=\"section avoid-break-inside\" style=\"padding-bottom: 2rem;\">\n  <br>\n</div>\n<div class=\"section avoid-break-inside\" style=\"padding-bottom: 2rem;\">\n  <div class=\"paragraph\">Books that are held in high esteem by the wise and intellectual,</div>\n  <div class=\"paragraph\">will hasten and balance the process discovering truths.</div>\n</div>\n<div class=\"section avoid-break-inside\" style=\"padding-bottom: 2rem;\">\n  <div class=\"paragraph\">A book, or a narrated book, that shares true wisdom,</div>\n  <div class=\"paragraph\">is a briefcase of good ideas, and treasures for our minds (or upgrades if you are technologically inclined).</div>\n</div>\n<div class=\"section avoid-break-inside\" style=\"padding-bottom: 2rem;\">\n  <div class=\"paragraph\">Without books, we would be struck by the urge to visit Universities, and lecture halls,</div>\n  <div class=\"paragraph\">and to write to those who have things to say, which is what would cause them to share wisdom or letters in books.</div>\n</div>\n<div class=\"section avoid-break-inside\" style=\"padding-bottom: 2rem;\">\n  <div class=\"paragraph\">Many people need to hear a book,</div>\n  <div class=\"paragraph\">and it truly a beautiful experience to hear a book read by its author.</div>\n</div>\n<div class=\"section avoid-break-inside\" style=\"padding-bottom: 2rem;\">\n  <div class=\"paragraph\">Equipped with a couple of hundred narrated books,</div>\n  <div class=\"paragraph\">you can easily inherit lifetimes of knowledge and experience.</div>\n</div>\n<div class=\"section avoid-break-inside\" style=\"padding-bottom: 2rem;\">\n  <br>\n</div>\n<div class=\"section avoid-break-inside\" style=\"padding-bottom: 2rem;\">\n  <div class=\"paragraph\">Falsehoods are harder, and take longer to get rid of than you think,</div>\n  <div class=\"paragraph\">as they often embedded in, and obscured by, our lifestyles, family culture, neighborhood culture, and even national culture.</div>\n</div>\n<div class=\"section avoid-break-inside\" style=\"padding-bottom: 2rem;\">\n  <div class=\"paragraph\">But there is a sure cure for that,</div>\n  <div class=\"paragraph\">a very noble tradition, practiced by humans probably for tens of thousands of years.</div>\n</div>\n<div class=\"section avoid-break-inside\" style=\"padding-bottom: 2rem;\">\n  <div class=\"paragraph\">In Modern Day, that is the act of buying a backpack, and bug spray, and strangely overpriced pants and shoes,</div>\n  <div class=\"paragraph\">and a tent, or a hammock tent, and reconnecting with nature on long and winding trails.</div>\n</div>\n<div class=\"section avoid-break-inside\" style=\"padding-bottom: 2rem;\">\n  <div class=\"paragraph\">Quests, that require a lot of walking,</div>\n  <div class=\"paragraph\">that pull you out of your environment, and give you a healthy substitute for a prolonged period of time.</div>\n</div>\n<div class=\"section avoid-break-inside\" style=\"padding-bottom: 2rem;\">\n  <br>\n</div>\n<div class=\"section avoid-break-inside\" style=\"padding-bottom: 2rem;\">\n  <div class=\"paragraph\">Think about how your mind changes when you go on a vacation,</div>\n  <div class=\"paragraph\">how you become more contemplative, relaxed, and become more of yourself.</div>\n</div>\n<div class=\"section avoid-break-inside\" style=\"padding-bottom: 2rem;\">\n  <div class=\"paragraph\">Know, that,</div>\n  <div class=\"paragraph\">that is the real you.</div>\n</div>\n<div class=\"section avoid-break-inside\" style=\"padding-bottom: 2rem;\">\n  <div class=\"paragraph\">When your mind is rested and unstressed</div>\n  <div class=\"paragraph\">it is most receptive to growth, to growing up, to being Human.</div>\n</div>\n<div class=\"section avoid-break-inside\" style=\"padding-bottom: 2rem;\">\n  <div class=\"paragraph\">Many people start reading books on their vacations,</div>\n  <div class=\"paragraph\">that is because reaching out for knowledge about or wisdom from other lives, is a very natural thing for us.</div>\n</div>\n<div class=\"section avoid-break-inside\" style=\"padding-bottom: 2rem;\">\n  <br>\n</div>\n<div class=\"section avoid-break-inside\" style=\"padding-bottom: 2rem;\">\n  <div class=\"paragraph\">The power of falsehoods,</div>\n  <div class=\"paragraph\">is too often impossibly overwhelming.</div>\n</div>\n<div class=\"section avoid-break-inside\" style=\"padding-bottom: 2rem;\">\n  <div class=\"paragraph\">Talking about it and thinking about it is not enough,</div>\n  <div class=\"paragraph\">when falsehoods grab a hold of us, we too often point ourselves away from the right way, and make things worse.</div>\n</div>\n<div class=\"section avoid-break-inside\" style=\"padding-bottom: 2rem;\">\n  <div class=\"paragraph\">Falsehoods can stress us to self medicate with overeating,</div>\n  <div class=\"paragraph\">they have the power to make ourselves ill.</div>\n</div>\n<div class=\"section avoid-break-inside\" style=\"padding-bottom: 2rem;\">\n  <div class=\"paragraph\">Falsehoods like the belief that out poverty is our fault,</div>\n  <div class=\"paragraph\">can press us into a job where we never read a book, and never take to wisdom.</div>\n</div>\n<div class=\"section avoid-break-inside\" style=\"padding-bottom: 2rem;\">\n  <br>\n</div>\n<div class=\"section avoid-break-inside\" style=\"padding-bottom: 2rem;\">\n  <div class=\"paragraph\">In conclusion of this text,</div>\n  <div class=\"paragraph\">I must ask you to make a powerful change.</div>\n</div>\n<div class=\"section avoid-break-inside\" style=\"padding-bottom: 2rem;\">\n  <div class=\"paragraph\">I have to ask you,</div>\n  <div class=\"paragraph\">to go on a marvelous shopping expedition for camping gear, and go on a long and deeply relaxing vacation.</div>\n</div>\n<div class=\"section avoid-break-inside\" style=\"padding-bottom: 2rem;\">\n  <div class=\"paragraph\">And never return to the mindset that you left behind when you set off for that quest,</div>\n  <div class=\"paragraph\">you must use your power to live your life in the state of mind brought on by a vacation.</div>\n</div>\n<div class=\"section avoid-break-inside\" style=\"padding-bottom: 2rem;\">\n  <div class=\"paragraph\">Know that whatever troubles you left behind as you went on your vacation,</div>\n  <div class=\"paragraph\">have always been holding you back and are preventing you from growing up.</div>\n</div>\n<div class=\"section avoid-break-inside\" style=\"padding-bottom: 2rem;\">\n  <br>\n</div>\n<div class=\"section avoid-break-inside\" style=\"padding-bottom: 2rem;\">\n  <div class=\"paragraph\">You are a Noble and Beautiful Human Being,</div>\n  <div class=\"paragraph\">you are mean to grow, to reach for Knowledge, Wisdom and Greatness.</div>\n</div>\n<div class=\"section avoid-break-inside\" style=\"padding-bottom: 2rem;\">\n  <div class=\"paragraph\">Nothing must stand in the way of your growing up,</div>\n  <div class=\"paragraph\"><span>without growing up you will never become yourself<sup>[1]</sup></span>.</div>\n</div>\n<div class=\"section avoid-break-inside\" style=\"padding-bottom: 2rem;\">\n  <div class=\"paragraph\">When you grow,</div>\n  <div class=\"paragraph\">the world grows along with you.</div>\n</div>\n<div class=\"section avoid-break-inside\" style=\"padding-bottom: 2rem;\">\n  <div class=\"paragraph\">Please go on a vacation,</div>\n  <div class=\"paragraph\">and don't comeback.</div>\n</div>\n<div class=\"section avoid-break-inside\" style=\"padding-bottom: 2rem;\">\n  <div class=\"paragraph\">Become,</div>\n  <div class=\"paragraph\">a Great Being.</div>\n</div>\n<div class=\"section avoid-break-inside\" style=\"padding-bottom: 2rem;\">\n  <div class=\"paragraph\">Grow,</div>\n  <div class=\"paragraph\">Free.</div>\n</div>\n<div class=\"break-after\">&nbsp;</div>\n<div>\n  <div class=\"section\" style=\"padding-bottom: 1rem;\">References</div>\n  <div>[1]: https://www.youtube.com/watch?v=hPSvdKTEZug</div>\n</div>",
  "text": "Falsehoods,\nare mind killers.\nFalsehoods limit us, they divide us,\nthey poison Humanity.\nPeople who believe in falsehoods,\nare prevented from growing up.\n\nAs scary as that is,\nwe also have everything it takes to remove them from our minds.\nIn deed, there is scarcely a place out there that will preach truth,\neven a proper University will rely on the scholar to find the reproducible result.\nRemoving falsehoods,\nis a healthy, and mighty, part of growing up.\n\nBooks that are held in high esteem by the wise and intellectual,\nwill hasten and balance the process discovering truths.\nA book, or a narrated book, that shares true wisdom,\nis a briefcase of good ideas, and treasures for our minds (or upgrades if you are technologically inclined).\nWithout books, we would be struck by the urge to visit Universities, and lecture halls,\nand to write to those who have things to say, which is what would cause them to share wisdom or letters in books.\nMany people need to hear a book,\nand it truly a beautiful experience to hear a book read by its author.\nEquipped with a couple of hundred narrated books,\nyou can easily inherit lifetimes of knowledge and experience.\n\nFalsehoods are harder, and take longer to get rid of than you think,\nas they often embedded in, and obscured by, our lifestyles, family culture, neighborhood culture, and even national culture.\nBut there is a sure cure for that,\na very noble tradition, practiced by humans probably for tens of thousands of years.\nIn Modern Day, that is the act of buying a backpack, and bug spray, and strangely overpriced pants and shoes,\nand a tent, or a hammock tent, and reconnecting with nature on long and winding trails.\nQuests, that require a lot of walking,\nthat pull you out of your environment, and give you a healthy substitute for a prolonged period of time.\n\nThink about how your mind changes when you go on a vacation,\nhow you become more contemplative, relaxed, and become more of yourself.\nKnow, that,\nthat is the real you.\nWhen your mind is rested and unstressed\nit is most receptive to growth, to growing up, to being Human.\nMany people start reading books on their vacations,\nthat is because reaching out for knowledge about or wisdom from other lives, is a very natural thing for us.\n\nThe power of falsehoods,\nis too often impossibly overwhelming.\nTalking about it and thinking about it is not enough,\nwhen falsehoods grab a hold of us, we too often point ourselves away from the right way, and make things worse.\nFalsehoods can stress us to self medicate with overeating,\nthey have the power to make ourselves ill.\nFalsehoods like the belief that out poverty is our fault,\ncan press us into a job where we never read a book, and never take to wisdom.\n\nIn conclusion of this text,\nI must ask you to make a powerful change.\nI have to ask you,\nto go on a marvelous shopping expedition for camping gear, and go on a long and deeply relaxing vacation.\nAnd never return to the mindset that you left behind when you set off for that quest,\nyou must use your power to live your life in the state of mind brought on by a vacation.\nKnow that whatever troubles you left behind as you went on your vacation,\nhave always been holding you back and are preventing you from growing up.\n\nYou are a Noble and Beautiful Human Being,\nyou are mean to grow, to reach for Knowledge, Wisdom and Greatness.\nNothing must stand in the way of your growing up,\nwithout growing up you will never become yourself[1].\nWhen you grow,\nthe world grows along with you.\nPlease go on a vacation,\nand don't comeback.\nBecome,\na Great Being.\nGrow,\nFree.\n \nReferences\n[1]: https://www.youtube.com/watch?v=hPSvdKTEZug",
  "images": [],
  "links": [
    {
      "title": "without growing up you will never become yourself",
      "url": "https://www.youtube.com/watch?v=hPSvdKTEZug",
      "hostname": "www.youtube.com"
    }
  ]
}