{
  "title": "Memorizing Is Not Learning",
  "date": "2020-10-06T01:21:31.700Z",
  "image": "poetry-0219-illustration.jpg",
  "audio": "poetry-0219.mp3",
  "artwork": "https://unsplash.com/",
  "id": "furkies-purrkies-poetry-0219",
  "attachments": {},
  "guid": "d0398467-f7a5-47e1-af40-aa5369916daa"
}
