{
  "id": "furkies-purrkies-poetry-0529",
  "title": "Into The World Of Design",
  "date": "2021-08-12T01:00:23.127Z",
  "image": "poetry-0529-illustration.jpg",
  "artwork": "https://unsplash.com/photos/97tEm_VSHBs",
  "audio": "poetry-0529.mp3",
  "guid": "ff2d0c75-0b90-431e-9950-6b71b6c47562"
}
