{
  "name": "furkies-purrkies-poetry-0143",
  "title": "Cheerfully Becoming Mighty And Wise",
  "date": "2020-07-22T01:31:46.872Z",
  "image": "poetry-0143-illustration.jpg",
  "audio": "poetry-0143.mp3",
  "id": "furkies-purrkies-poetry-0143",
  "attachments": {},
  "guid": "f283a438-09d2-4939-89e0-db4c3e922bbb",
  "html": "<div class=\"section\">\n  <p>Growing up, getting up, moving up, rising up,</p>\n  <p>we each have this abstract sense of a special direction.</p>\n</div>\n<div class=\"section\">\n  <p>It calls to us when we are down,</p>\n  <p>and it calls when we <strong>can</strong> go higher.</p>\n</div>\n<div class=\"section\">\n  <p>You don&apos;t even need to speak a language,</p>\n  <p>just lift you finger and point to the sky.</p>\n</div>\n<div class=\"section\">\n  <p>It works for everything and every time,</p>\n  <p>it encourages us to continue to rise.</p>\n</div>\n<div class=\"section\">\n  <p>There is always an up,</p>\n  <p>and never an end in sight.</p>\n</div>\n<div class=\"section\">\n  <hr>\n</div>\n<div class=\"section\">\n  <p>Growing up demands that we open our eyes and rise,</p>\n  <p>stand our ground and look to the skies.</p>\n</div>\n<div class=\"section\">\n  <p>So as long as we aim for the tallest of mountains and rise,</p>\n  <p>our knowledge will quickly catch up in size.</p>\n</div>\n<div class=\"section\">\n  <p>Wherever we begin, we <strong>can</strong> rise,</p>\n  <p>to grow in wisdom to no end, <strong>is</strong> the ultimate prize.</p>\n</div>\n<div class=\"section\">\n  <p>May we each discover our path to wisdom and rise,</p>\n  <p>cheerfully becoming mighty and wise.</p>\n</div>",
  "bootstrap": "<div class=\"card card-section bg-dark text-warning shadow\">\n  <div class=\"section card-body mb-0 my-2\">\n    <div class=\"paragraph card-text card-stanza my-5 text-center\">Growing up, getting up, moving up, rising up,</div>\n    <div class=\"paragraph card-text card-stanza my-5 text-center\">we each have this abstract sense of a special direction.</div>\n  </div>\n</div>\n<div class=\"card card-section bg-dark text-warning shadow\">\n  <div class=\"section card-body mb-0 my-2\">\n    <div class=\"paragraph card-text card-stanza my-5 text-center\">It calls to us when we are down,</div>\n    <div class=\"paragraph card-text card-stanza my-5 text-center\">and it calls when we <strong>can</strong> go higher.</div>\n  </div>\n</div>\n<div class=\"card card-section bg-dark text-warning shadow\">\n  <div class=\"section card-body mb-0 my-2\">\n    <div class=\"paragraph card-text card-stanza my-5 text-center\">You don't even need to speak a language,</div>\n    <div class=\"paragraph card-text card-stanza my-5 text-center\">just lift you finger and point to the sky.</div>\n  </div>\n</div>\n<div class=\"card card-section bg-dark text-warning shadow\">\n  <div class=\"section card-body mb-0 my-2\">\n    <div class=\"paragraph card-text card-stanza my-5 text-center\">It works for everything and every time,</div>\n    <div class=\"paragraph card-text card-stanza my-5 text-center\">it encourages us to continue to rise.</div>\n  </div>\n</div>\n<div class=\"card card-section bg-dark text-warning shadow\">\n  <div class=\"section card-body mb-0 my-2\">\n    <div class=\"paragraph card-text card-stanza my-5 text-center\">There is always an up,</div>\n    <div class=\"paragraph card-text card-stanza my-5 text-center\">and never an end in sight.</div>\n  </div>\n</div>\n<div class=\"mb-5 section-spacer\">&nbsp;</div>\n<div class=\"card card-section bg-dark text-warning shadow\">\n  <div class=\"section card-body mb-0 my-2\">\n    <div class=\"paragraph card-text card-stanza my-5 text-center\">Growing up demands that we open our eyes and rise,</div>\n    <div class=\"paragraph card-text card-stanza my-5 text-center\">stand our ground and look to the skies.</div>\n  </div>\n</div>\n<div class=\"card card-section bg-dark text-warning shadow\">\n  <div class=\"section card-body mb-0 my-2\">\n    <div class=\"paragraph card-text card-stanza my-5 text-center\">So as long as we aim for the tallest of mountains and rise,</div>\n    <div class=\"paragraph card-text card-stanza my-5 text-center\">our knowledge will quickly catch up in size.</div>\n  </div>\n</div>\n<div class=\"card card-section bg-dark text-warning shadow\">\n  <div class=\"section card-body mb-0 my-2\">\n    <div class=\"paragraph card-text card-stanza my-5 text-center\">Wherever we begin, we <strong>can</strong> rise,</div>\n    <div class=\"paragraph card-text card-stanza my-5 text-center\">to grow in wisdom to no end, <strong>is</strong> the ultimate prize.</div>\n  </div>\n</div>\n<div class=\"card card-section bg-dark text-warning shadow\">\n  <div class=\"section card-body mb-0 my-2\">\n    <div class=\"paragraph card-text card-stanza my-5 text-center\">May we each discover our path to wisdom and rise,</div>\n    <div class=\"paragraph card-text card-stanza my-5 text-center\">cheerfully becoming mighty and wise.</div>\n  </div>\n</div>",
  "print": "<div class=\"section avoid-break-inside\" style=\"padding-bottom: 2rem;\">\n  <div class=\"paragraph\">Growing up, getting up, moving up, rising up,</div>\n  <div class=\"paragraph\">we each have this abstract sense of a special direction.</div>\n</div>\n<div class=\"section avoid-break-inside\" style=\"padding-bottom: 2rem;\">\n  <div class=\"paragraph\">It calls to us when we are down,</div>\n  <div class=\"paragraph\">and it calls when we <strong>can</strong> go higher.</div>\n</div>\n<div class=\"section avoid-break-inside\" style=\"padding-bottom: 2rem;\">\n  <div class=\"paragraph\">You don't even need to speak a language,</div>\n  <div class=\"paragraph\">just lift you finger and point to the sky.</div>\n</div>\n<div class=\"section avoid-break-inside\" style=\"padding-bottom: 2rem;\">\n  <div class=\"paragraph\">It works for everything and every time,</div>\n  <div class=\"paragraph\">it encourages us to continue to rise.</div>\n</div>\n<div class=\"section avoid-break-inside\" style=\"padding-bottom: 2rem;\">\n  <div class=\"paragraph\">There is always an up,</div>\n  <div class=\"paragraph\">and never an end in sight.</div>\n</div>\n<div class=\"section avoid-break-inside\" style=\"padding-bottom: 2rem;\">\n  <br>\n</div>\n<div class=\"section avoid-break-inside\" style=\"padding-bottom: 2rem;\">\n  <div class=\"paragraph\">Growing up demands that we open our eyes and rise,</div>\n  <div class=\"paragraph\">stand our ground and look to the skies.</div>\n</div>\n<div class=\"section avoid-break-inside\" style=\"padding-bottom: 2rem;\">\n  <div class=\"paragraph\">So as long as we aim for the tallest of mountains and rise,</div>\n  <div class=\"paragraph\">our knowledge will quickly catch up in size.</div>\n</div>\n<div class=\"section avoid-break-inside\" style=\"padding-bottom: 2rem;\">\n  <div class=\"paragraph\">Wherever we begin, we <strong>can</strong> rise,</div>\n  <div class=\"paragraph\">to grow in wisdom to no end, <strong>is</strong> the ultimate prize.</div>\n</div>\n<div class=\"section avoid-break-inside\" style=\"padding-bottom: 2rem;\">\n  <div class=\"paragraph\">May we each discover our path to wisdom and rise,</div>\n  <div class=\"paragraph\">cheerfully becoming mighty and wise.</div>\n</div>",
  "text": "Growing up, getting up, moving up, rising up,\nwe each have this abstract sense of a special direction.\nIt calls to us when we are down,\nand it calls when we can go higher.\nYou don't even need to speak a language,\njust lift you finger and point to the sky.\nIt works for everything and every time,\nit encourages us to continue to rise.\nThere is always an up,\nand never an end in sight.\n\nGrowing up demands that we open our eyes and rise,\nstand our ground and look to the skies.\nSo as long as we aim for the tallest of mountains and rise,\nour knowledge will quickly catch up in size.\nWherever we begin, we can rise,\nto grow in wisdom to no end, is the ultimate prize.\nMay we each discover our path to wisdom and rise,\ncheerfully becoming mighty and wise.",
  "images": [],
  "links": []
}