{
  "name": "furkies-purrkies-poetry-0215",
  "title": "They Walk Among Us",
  "date": "2020-10-02T01:16:29.907Z",
  "image": "poetry-0215-illustration.jpg",
  "audio": "poetry-0215.mp3",
  "artwork": "https://unsplash.com/",
  "id": "furkies-purrkies-poetry-0215",
  "attachments": {},
  "guid": "a32ac8cb-fa71-4434-9747-ad2401399466",
  "html": "<div class=\"section\">\n  <p>I have searched for great beings,</p>\n  <p>because I wanted to learn about life.</p>\n</div>\n<div class=\"section\">\n  <p>And I found them,</p>\n  <p>they are not even rare.</p>\n</div>\n<div class=\"section\">\n  <p>Many are outspoken,</p>\n  <p>and all over the internet.</p>\n</div>\n<div class=\"section\">\n  <hr>\n</div>\n<div class=\"section\">\n  <p>Though, far greater in person,</p>\n  <p>than they show to the public.</p>\n</div>\n<div class=\"section\">\n  <p>They walk among us,</p>\n  <p>quiet and collected, wise and inspired.</p>\n</div>\n<div class=\"section\">\n  <hr>\n</div>\n<div class=\"section\">\n  <p>And I wish they could live forever,</p>\n  <p>because that&apos;s what our world needs.</p>\n</div>\n<div class=\"section\">\n  <p>But they are not going to be around forever,</p>\n  <p>and they don&apos;t want anything that we can give them.</p>\n</div>\n<div class=\"section\">\n  <hr>\n</div>\n<div class=\"section\">\n  <p>Except for one thing,</p>\n  <p>us becoming great beings too.</p>\n</div>\n<div class=\"section\">\n  <hr>\n</div>\n<div class=\"section\">\n  <p>My Friends, as wonderful and powerful as Wisdom is,</p>\n  <p>Greatness, Greatness, is what the world needs.</p>\n</div>\n<div class=\"section\">\n  <hr>\n</div>\n<div class=\"section\">\n  <p>We have to stop accepting things,</p>\n  <p>just because we were born into them.</p>\n</div>\n<div class=\"section\">\n  <p>We have to stop being lead,</p>\n  <p>and become leaders.</p>\n</div>\n<div class=\"section\">\n  <hr>\n</div>\n<div class=\"section\">\n  <p>You wan to know what The Meaning of Life Is,</p>\n  <p>well let me tell you.</p>\n</div>\n<div class=\"section\">\n  <hr>\n</div>\n<div class=\"section\">\n  <p>The meaning of your life,</p>\n  <p>is to become a Great Being.</p>\n</div>\n<div class=\"section\">\n  <hr>\n</div>\n<div class=\"section\">\n  <p>Everyone of us,</p>\n  <p>a Great Being.</p>\n</div>\n<div class=\"section\">\n  <p>That is the mistake we made,</p>\n  <p>we thought that greatness is rare.</p>\n</div>\n<div class=\"section\">\n  <p>But greatness,</p>\n  <p>is what the world needs of us to grow.</p>\n</div>\n<div class=\"section\">\n  <hr>\n</div>\n<div class=\"section\">\n  <p>Take to the Books,</p>\n  <p>take to the audio books (they can&apos;t be easier, and adventure books are breathtaking),</p>\n  <p>maybe, narrate the classics, and share with the Little Ones.</p>\n</div>\n<div class=\"section\">\n  <p>Avoid everything that is trying to teach you outside-in,</p>\n  <p>and reach out to learn, to really, really learn, inside-out.</p>\n</div>\n<div class=\"section\">\n  <p>Don&apos;t memorize, don&apos;t seek grades,</p>\n  <p>just inherit wisdom from a hundred audio books,</p>\n  <p>and then listen to nine-hundred more, just to be sure.</p>\n</div>\n<div class=\"section\">\n  <hr>\n</div>\n<div class=\"section\">\n  <p>Let us inherit wisdom from Humanity&apos;s most loved modern audio books,</p>\n  <p>and let us fill ourselves with knowledge from a thousand lives,</p>\n  <p>knowledge will grant us wisdom,</p>\n  <p>and then let us rise and become leaders.</p>\n</div>\n<div class=\"section\">\n  <p>Leadership and Wisdom,</p>\n  <p>will drive us forward,</p>\n  <p>to become Great Beings.</p>\n</div>\n<div class=\"section\">\n  <p>Let us do this,</p>\n  <p>not for Heroes but for Humanity and the future,</p>\n  <p>for each other.</p>\n</div>\n<div class=\"section\">\n  <p>The world will only become better,</p>\n  <p>when each of us, accepts the responsibility for becoming a Great Being.</p>\n</div>",
  "bootstrap": "<div class=\"card card-section bg-dark text-warning shadow\">\n  <div class=\"section card-body mb-0 my-2\">\n    <div class=\"paragraph card-text card-stanza my-5 text-center\">I have searched for great beings,</div>\n    <div class=\"paragraph card-text card-stanza my-5 text-center\">because I wanted to learn about life.</div>\n  </div>\n</div>\n<div class=\"card card-section bg-dark text-warning shadow\">\n  <div class=\"section card-body mb-0 my-2\">\n    <div class=\"paragraph card-text card-stanza my-5 text-center\">And I found them,</div>\n    <div class=\"paragraph card-text card-stanza my-5 text-center\">they are not even rare.</div>\n  </div>\n</div>\n<div class=\"card card-section bg-dark text-warning shadow\">\n  <div class=\"section card-body mb-0 my-2\">\n    <div class=\"paragraph card-text card-stanza my-5 text-center\">Many are outspoken,</div>\n    <div class=\"paragraph card-text card-stanza my-5 text-center\">and all over the internet.</div>\n  </div>\n</div>\n<div class=\"mb-5 section-spacer\">&nbsp;</div>\n<div class=\"card card-section bg-dark text-warning shadow\">\n  <div class=\"section card-body mb-0 my-2\">\n    <div class=\"paragraph card-text card-stanza my-5 text-center\">Though, far greater in person,</div>\n    <div class=\"paragraph card-text card-stanza my-5 text-center\">than they show to the public.</div>\n  </div>\n</div>\n<div class=\"card card-section bg-dark text-warning shadow\">\n  <div class=\"section card-body mb-0 my-2\">\n    <div class=\"paragraph card-text card-stanza my-5 text-center\">They walk among us,</div>\n    <div class=\"paragraph card-text card-stanza my-5 text-center\">quiet and collected, wise and inspired.</div>\n  </div>\n</div>\n<div class=\"mb-5 section-spacer\">&nbsp;</div>\n<div class=\"card card-section bg-dark text-warning shadow\">\n  <div class=\"section card-body mb-0 my-2\">\n    <div class=\"paragraph card-text card-stanza my-5 text-center\">And I wish they could live forever,</div>\n    <div class=\"paragraph card-text card-stanza my-5 text-center\">because that's what our world needs.</div>\n  </div>\n</div>\n<div class=\"card card-section bg-dark text-warning shadow\">\n  <div class=\"section card-body mb-0 my-2\">\n    <div class=\"paragraph card-text card-stanza my-5 text-center\">But they are not going to be around forever,</div>\n    <div class=\"paragraph card-text card-stanza my-5 text-center\">and they don't want anything that we can give them.</div>\n  </div>\n</div>\n<div class=\"mb-5 section-spacer\">&nbsp;</div>\n<div class=\"card card-section bg-dark text-warning shadow\">\n  <div class=\"section card-body mb-0 my-2\">\n    <div class=\"paragraph card-text card-stanza my-5 text-center\">Except for one thing,</div>\n    <div class=\"paragraph card-text card-stanza my-5 text-center\">us becoming great beings too.</div>\n  </div>\n</div>\n<div class=\"mb-5 section-spacer\">&nbsp;</div>\n<div class=\"card card-section bg-dark text-warning shadow\">\n  <div class=\"section card-body mb-0 my-2\">\n    <div class=\"paragraph card-text card-stanza my-5 text-center\">My Friends, as wonderful and powerful as Wisdom is,</div>\n    <div class=\"paragraph card-text card-stanza my-5 text-center\">Greatness, Greatness, is what the world needs.</div>\n  </div>\n</div>\n<div class=\"mb-5 section-spacer\">&nbsp;</div>\n<div class=\"card card-section bg-dark text-warning shadow\">\n  <div class=\"section card-body mb-0 my-2\">\n    <div class=\"paragraph card-text card-stanza my-5 text-center\">We have to stop accepting things,</div>\n    <div class=\"paragraph card-text card-stanza my-5 text-center\">just because we were born into them.</div>\n  </div>\n</div>\n<div class=\"card card-section bg-dark text-warning shadow\">\n  <div class=\"section card-body mb-0 my-2\">\n    <div class=\"paragraph card-text card-stanza my-5 text-center\">We have to stop being lead,</div>\n    <div class=\"paragraph card-text card-stanza my-5 text-center\">and become leaders.</div>\n  </div>\n</div>\n<div class=\"mb-5 section-spacer\">&nbsp;</div>\n<div class=\"card card-section bg-dark text-warning shadow\">\n  <div class=\"section card-body mb-0 my-2\">\n    <div class=\"paragraph card-text card-stanza my-5 text-center\">You wan to know what The Meaning of Life Is,</div>\n    <div class=\"paragraph card-text card-stanza my-5 text-center\">well let me tell you.</div>\n  </div>\n</div>\n<div class=\"mb-5 section-spacer\">&nbsp;</div>\n<div class=\"card card-section bg-dark text-warning shadow\">\n  <div class=\"section card-body mb-0 my-2\">\n    <div class=\"paragraph card-text card-stanza my-5 text-center\">The meaning of your life,</div>\n    <div class=\"paragraph card-text card-stanza my-5 text-center\">is to become a Great Being.</div>\n  </div>\n</div>\n<div class=\"mb-5 section-spacer\">&nbsp;</div>\n<div class=\"card card-section bg-dark text-warning shadow\">\n  <div class=\"section card-body mb-0 my-2\">\n    <div class=\"paragraph card-text card-stanza my-5 text-center\">Everyone of us,</div>\n    <div class=\"paragraph card-text card-stanza my-5 text-center\">a Great Being.</div>\n  </div>\n</div>\n<div class=\"card card-section bg-dark text-warning shadow\">\n  <div class=\"section card-body mb-0 my-2\">\n    <div class=\"paragraph card-text card-stanza my-5 text-center\">That is the mistake we made,</div>\n    <div class=\"paragraph card-text card-stanza my-5 text-center\">we thought that greatness is rare.</div>\n  </div>\n</div>\n<div class=\"card card-section bg-dark text-warning shadow\">\n  <div class=\"section card-body mb-0 my-2\">\n    <div class=\"paragraph card-text card-stanza my-5 text-center\">But greatness,</div>\n    <div class=\"paragraph card-text card-stanza my-5 text-center\">is what the world needs of us to grow.</div>\n  </div>\n</div>\n<div class=\"mb-5 section-spacer\">&nbsp;</div>\n<div class=\"card card-section bg-dark text-warning shadow\">\n  <div class=\"section card-body mb-0 my-2\">\n    <div class=\"paragraph card-text card-stanza my-5 text-center\">Take to the Books,</div>\n    <div class=\"paragraph card-text card-stanza my-5 text-center\">take to the audio books (they can't be easier, and adventure books are breathtaking),</div>\n    <div class=\"paragraph card-text card-stanza my-5 text-center\">maybe, narrate the classics, and share with the Little Ones.</div>\n  </div>\n</div>\n<div class=\"card card-section bg-dark text-warning shadow\">\n  <div class=\"section card-body mb-0 my-2\">\n    <div class=\"paragraph card-text card-stanza my-5 text-center\">Avoid everything that is trying to teach you outside-in,</div>\n    <div class=\"paragraph card-text card-stanza my-5 text-center\">and reach out to learn, to really, really learn, inside-out.</div>\n  </div>\n</div>\n<div class=\"card card-section bg-dark text-warning shadow\">\n  <div class=\"section card-body mb-0 my-2\">\n    <div class=\"paragraph card-text card-stanza my-5 text-center\">Don't memorize, don't seek grades,</div>\n    <div class=\"paragraph card-text card-stanza my-5 text-center\">just inherit wisdom from a hundred audio books,</div>\n    <div class=\"paragraph card-text card-stanza my-5 text-center\">and then listen to nine-hundred more, just to be sure.</div>\n  </div>\n</div>\n<div class=\"mb-5 section-spacer\">&nbsp;</div>\n<div class=\"card card-section bg-dark text-warning shadow\">\n  <div class=\"section card-body mb-0 my-2\">\n    <div class=\"paragraph card-text card-stanza my-5 text-center\">Let us inherit wisdom from Humanity's most loved modern audio books,</div>\n    <div class=\"paragraph card-text card-stanza my-5 text-center\">and let us fill ourselves with knowledge from a thousand lives,</div>\n    <div class=\"paragraph card-text card-stanza my-5 text-center\">knowledge will grant us wisdom,</div>\n    <div class=\"paragraph card-text card-stanza my-5 text-center\">and then let us rise and become leaders.</div>\n  </div>\n</div>\n<div class=\"card card-section bg-dark text-warning shadow\">\n  <div class=\"section card-body mb-0 my-2\">\n    <div class=\"paragraph card-text card-stanza my-5 text-center\">Leadership and Wisdom,</div>\n    <div class=\"paragraph card-text card-stanza my-5 text-center\">will drive us forward,</div>\n    <div class=\"paragraph card-text card-stanza my-5 text-center\">to become Great Beings.</div>\n  </div>\n</div>\n<div class=\"card card-section bg-dark text-warning shadow\">\n  <div class=\"section card-body mb-0 my-2\">\n    <div class=\"paragraph card-text card-stanza my-5 text-center\">Let us do this,</div>\n    <div class=\"paragraph card-text card-stanza my-5 text-center\">not for Heroes but for Humanity and the future,</div>\n    <div class=\"paragraph card-text card-stanza my-5 text-center\">for each other.</div>\n  </div>\n</div>\n<div class=\"card card-section bg-dark text-warning shadow\">\n  <div class=\"section card-body mb-0 my-2\">\n    <div class=\"paragraph card-text card-stanza my-5 text-center\">The world will only become better,</div>\n    <div class=\"paragraph card-text card-stanza my-5 text-center\">when each of us, accepts the responsibility for becoming a Great Being.</div>\n  </div>\n</div>",
  "print": "<div class=\"section avoid-break-inside\" style=\"padding-bottom: 2rem;\">\n  <div class=\"paragraph\">I have searched for great beings,</div>\n  <div class=\"paragraph\">because I wanted to learn about life.</div>\n</div>\n<div class=\"section avoid-break-inside\" style=\"padding-bottom: 2rem;\">\n  <div class=\"paragraph\">And I found them,</div>\n  <div class=\"paragraph\">they are not even rare.</div>\n</div>\n<div class=\"section avoid-break-inside\" style=\"padding-bottom: 2rem;\">\n  <div class=\"paragraph\">Many are outspoken,</div>\n  <div class=\"paragraph\">and all over the internet.</div>\n</div>\n<div class=\"section avoid-break-inside\" style=\"padding-bottom: 2rem;\">\n  <br>\n</div>\n<div class=\"section avoid-break-inside\" style=\"padding-bottom: 2rem;\">\n  <div class=\"paragraph\">Though, far greater in person,</div>\n  <div class=\"paragraph\">than they show to the public.</div>\n</div>\n<div class=\"section avoid-break-inside\" style=\"padding-bottom: 2rem;\">\n  <div class=\"paragraph\">They walk among us,</div>\n  <div class=\"paragraph\">quiet and collected, wise and inspired.</div>\n</div>\n<div class=\"section avoid-break-inside\" style=\"padding-bottom: 2rem;\">\n  <br>\n</div>\n<div class=\"section avoid-break-inside\" style=\"padding-bottom: 2rem;\">\n  <div class=\"paragraph\">And I wish they could live forever,</div>\n  <div class=\"paragraph\">because that's what our world needs.</div>\n</div>\n<div class=\"section avoid-break-inside\" style=\"padding-bottom: 2rem;\">\n  <div class=\"paragraph\">But they are not going to be around forever,</div>\n  <div class=\"paragraph\">and they don't want anything that we can give them.</div>\n</div>\n<div class=\"section avoid-break-inside\" style=\"padding-bottom: 2rem;\">\n  <br>\n</div>\n<div class=\"section avoid-break-inside\" style=\"padding-bottom: 2rem;\">\n  <div class=\"paragraph\">Except for one thing,</div>\n  <div class=\"paragraph\">us becoming great beings too.</div>\n</div>\n<div class=\"section avoid-break-inside\" style=\"padding-bottom: 2rem;\">\n  <br>\n</div>\n<div class=\"section avoid-break-inside\" style=\"padding-bottom: 2rem;\">\n  <div class=\"paragraph\">My Friends, as wonderful and powerful as Wisdom is,</div>\n  <div class=\"paragraph\">Greatness, Greatness, is what the world needs.</div>\n</div>\n<div class=\"section avoid-break-inside\" style=\"padding-bottom: 2rem;\">\n  <br>\n</div>\n<div class=\"section avoid-break-inside\" style=\"padding-bottom: 2rem;\">\n  <div class=\"paragraph\">We have to stop accepting things,</div>\n  <div class=\"paragraph\">just because we were born into them.</div>\n</div>\n<div class=\"section avoid-break-inside\" style=\"padding-bottom: 2rem;\">\n  <div class=\"paragraph\">We have to stop being lead,</div>\n  <div class=\"paragraph\">and become leaders.</div>\n</div>\n<div class=\"section avoid-break-inside\" style=\"padding-bottom: 2rem;\">\n  <br>\n</div>\n<div class=\"section avoid-break-inside\" style=\"padding-bottom: 2rem;\">\n  <div class=\"paragraph\">You wan to know what The Meaning of Life Is,</div>\n  <div class=\"paragraph\">well let me tell you.</div>\n</div>\n<div class=\"section avoid-break-inside\" style=\"padding-bottom: 2rem;\">\n  <br>\n</div>\n<div class=\"section avoid-break-inside\" style=\"padding-bottom: 2rem;\">\n  <div class=\"paragraph\">The meaning of your life,</div>\n  <div class=\"paragraph\">is to become a Great Being.</div>\n</div>\n<div class=\"section avoid-break-inside\" style=\"padding-bottom: 2rem;\">\n  <br>\n</div>\n<div class=\"section avoid-break-inside\" style=\"padding-bottom: 2rem;\">\n  <div class=\"paragraph\">Everyone of us,</div>\n  <div class=\"paragraph\">a Great Being.</div>\n</div>\n<div class=\"section avoid-break-inside\" style=\"padding-bottom: 2rem;\">\n  <div class=\"paragraph\">That is the mistake we made,</div>\n  <div class=\"paragraph\">we thought that greatness is rare.</div>\n</div>\n<div class=\"section avoid-break-inside\" style=\"padding-bottom: 2rem;\">\n  <div class=\"paragraph\">But greatness,</div>\n  <div class=\"paragraph\">is what the world needs of us to grow.</div>\n</div>\n<div class=\"section avoid-break-inside\" style=\"padding-bottom: 2rem;\">\n  <br>\n</div>\n<div class=\"section avoid-break-inside\" style=\"padding-bottom: 2rem;\">\n  <div class=\"paragraph\">Take to the Books,</div>\n  <div class=\"paragraph\">take to the audio books (they can't be easier, and adventure books are breathtaking),</div>\n  <div class=\"paragraph\">maybe, narrate the classics, and share with the Little Ones.</div>\n</div>\n<div class=\"section avoid-break-inside\" style=\"padding-bottom: 2rem;\">\n  <div class=\"paragraph\">Avoid everything that is trying to teach you outside-in,</div>\n  <div class=\"paragraph\">and reach out to learn, to really, really learn, inside-out.</div>\n</div>\n<div class=\"section avoid-break-inside\" style=\"padding-bottom: 2rem;\">\n  <div class=\"paragraph\">Don't memorize, don't seek grades,</div>\n  <div class=\"paragraph\">just inherit wisdom from a hundred audio books,</div>\n  <div class=\"paragraph\">and then listen to nine-hundred more, just to be sure.</div>\n</div>\n<div class=\"section avoid-break-inside\" style=\"padding-bottom: 2rem;\">\n  <br>\n</div>\n<div class=\"section avoid-break-inside\" style=\"padding-bottom: 2rem;\">\n  <div class=\"paragraph\">Let us inherit wisdom from Humanity's most loved modern audio books,</div>\n  <div class=\"paragraph\">and let us fill ourselves with knowledge from a thousand lives,</div>\n  <div class=\"paragraph\">knowledge will grant us wisdom,</div>\n  <div class=\"paragraph\">and then let us rise and become leaders.</div>\n</div>\n<div class=\"section avoid-break-inside\" style=\"padding-bottom: 2rem;\">\n  <div class=\"paragraph\">Leadership and Wisdom,</div>\n  <div class=\"paragraph\">will drive us forward,</div>\n  <div class=\"paragraph\">to become Great Beings.</div>\n</div>\n<div class=\"section avoid-break-inside\" style=\"padding-bottom: 2rem;\">\n  <div class=\"paragraph\">Let us do this,</div>\n  <div class=\"paragraph\">not for Heroes but for Humanity and the future,</div>\n  <div class=\"paragraph\">for each other.</div>\n</div>\n<div class=\"section avoid-break-inside\" style=\"padding-bottom: 2rem;\">\n  <div class=\"paragraph\">The world will only become better,</div>\n  <div class=\"paragraph\">when each of us, accepts the responsibility for becoming a Great Being.</div>\n</div>",
  "text": "I have searched for great beings,\nbecause I wanted to learn about life.\nAnd I found them,\nthey are not even rare.\nMany are outspoken,\nand all over the internet.\n\nThough, far greater in person,\nthan they show to the public.\nThey walk among us,\nquiet and collected, wise and inspired.\n\nAnd I wish they could live forever,\nbecause that's what our world needs.\nBut they are not going to be around forever,\nand they don't want anything that we can give them.\n\nExcept for one thing,\nus becoming great beings too.\n\nMy Friends, as wonderful and powerful as Wisdom is,\nGreatness, Greatness, is what the world needs.\n\nWe have to stop accepting things,\njust because we were born into them.\nWe have to stop being lead,\nand become leaders.\n\nYou wan to know what The Meaning of Life Is,\nwell let me tell you.\n\nThe meaning of your life,\nis to become a Great Being.\n\nEveryone of us,\na Great Being.\nThat is the mistake we made,\nwe thought that greatness is rare.\nBut greatness,\nis what the world needs of us to grow.\n\nTake to the Books,\ntake to the audio books (they can't be easier, and adventure books are breathtaking),\nmaybe, narrate the classics, and share with the Little Ones.\nAvoid everything that is trying to teach you outside-in,\nand reach out to learn, to really, really learn, inside-out.\nDon't memorize, don't seek grades,\njust inherit wisdom from a hundred audio books,\nand then listen to nine-hundred more, just to be sure.\n\nLet us inherit wisdom from Humanity's most loved modern audio books,\nand let us fill ourselves with knowledge from a thousand lives,\nknowledge will grant us wisdom,\nand then let us rise and become leaders.\nLeadership and Wisdom,\nwill drive us forward,\nto become Great Beings.\nLet us do this,\nnot for Heroes but for Humanity and the future,\nfor each other.\nThe world will only become better,\nwhen each of us, accepts the responsibility for becoming a Great Being.",
  "images": [],
  "links": []
}