{
  "name": "furkies-purrkies-poetry-0471",
  "title": "Learning Is Great",
  "date": "2021-06-15T00:18:21.142Z",
  "image": "poetry-0471-illustration.jpg",
  "audio": "poetry-0471.mp3",
  "artwork": "https://unsplash.com/photos/Z-YYs4npa5c",
  "id": "furkies-purrkies-poetry-0471",
  "attachments": {},
  "guid": "dc03dd87-b3fa-4f14-98f2-6fe5a686c6f0",
  "html": "<div class=\"section\">\n  <p>We were taught to use plain old math,</p>\n  <p>or the teachers would show us their wrath.</p>\n</div>\n\n<div class=\"section\">\n  <p>They taught us to calculate,</p>\n  <p>but <a href=\"http://www.falstad.com/circuit/circuitjs.html?ctz=CQAgjCAMB0l3BWcMBMcUHYMGZIA4UA2ATmIxAUgoqoQFMBaMMAKADcQU89xiVPuIACw8qVIVWzRsUWTAQsA7gJ4iQ2PEOE9sLAE7rN2w1ub8qYOCzCF+G02DtGwfTiAAmdAGYBDAK4ANgAuDAF07nLgULC6ylw8Lk6mrqzKDITJdvyJ4Prq-GrY2a4WVmkZxkWV7CDpmbUVamLCktKR8iwAHrWWEChaOJzkpvwAKgAWAJYAzgA60zPzAFZ+00HzQeN085aQgJXA83p0C2sA9nrQXZz4nEhCCMQCwuD8AIIAdu7zW0fzi2tbQ7HGZBc7zAAOAVW8wAtgBPeYAIyh22mABkAKIAEUu3QYGEItRQECEaB6qk4WgmqLRPkR5x8oL0COmAHkvPMsRd5gAFU5BRmnAKTADGk1O0OmAFk6KdFCwgA\">we need to simulate</a>.</p>\n</div>\n\n<div class=\"section\">\n  <hr>\n</div>\n\n<div class=\"section\">\n  <p>I am so excited about my LED light,</p>\n  <p>it is glowing strong and bright.</p>\n</div>\n\n<div class=\"section\">\n  <p>But I am deeply saddened about school,</p>\n  <p>because what they did to us was really uncool.</p>\n</div>\n\n<div class=\"section\">\n  <p>Bad teachers fail to teach,</p>\n  <p>and suck paychecks like a leech.</p>\n</div>\n\n<div class=\"section\">\n  <p>They didn&apos;t care about the projects,</p>\n  <p>they wanted paychecks.</p>\n</div>\n\n<div class=\"section\">\n  <p>And we got too scared,</p>\n  <p>never noticed, they never cared.</p>\n</div>\n\n<div class=\"section\">\n  <hr>\n</div>\n\n<div class=\"section\">\n  <p>Here lies a lesson we must not forget,</p>\n  <p>nothing can be taught by means of threat.</p>\n</div>\n\n<div class=\"section\">\n  <p>Everything we learned was taught wrong,</p>\n  <p>and we sat there memorizing all day long.</p>\n</div>\n\n<div class=\"section\">\n  <p>Forget about regular school,</p>\n  <p>it is just a broken tool.</p>\n</div>\n\n<div class=\"section\">\n  <hr>\n</div>\n\n<div class=\"section\">\n  <p>We need to re-start in a real school,</p>\n  <p>we can&apos;t let them rob us into a fool.</p>\n</div>\n\n<div class=\"section\">\n  <p>We can still take all they stole,</p>\n  <p>by taking back the control.</p>\n</div>\n\n<div class=\"section\">\n  <p>We need to make things right,</p>\n  <p>and rekindle our own light.</p>\n</div>\n\n<div class=\"section\">\n  <hr>\n</div>\n\n<div class=\"section\">\n  <p>Am I wrong,</p>\n  <p>to think we were ^adventurers^ all along?</p>\n</div>\n\n<div class=\"section\">\n  <p>I don&apos;t think so,</p>\n  <p>and I think that&apos;s where we need to go.</p>\n</div>\n\n<div class=\"section\">\n  <hr>\n</div>\n\n<div class=\"section\">\n  <p>Except this is no usual quest,</p>\n  <p>nor will it end with a test.</p>\n</div>\n\n<div class=\"section\">\n  <p>We can start with what we love best,</p>\n  <p>and in a place where we can rest.</p>\n</div>\n\n<div class=\"section\">\n  <p>And then without anybody telling us what to learn,</p>\n  <p>to our favorite curiosities we can turn.</p>\n</div>\n\n<div class=\"section\">\n  <p>Plus, the older we grow,</p>\n  <p>the more we ^already^ know.</p>\n</div>\n\n<div class=\"section\">\n  <p>Learning is great,</p>\n  <p>and it is never too late.</p>\n</div>",
  "bootstrap": "<div class=\"card card-section bg-dark text-warning shadow\">\n  <div class=\"section card-body mb-0 my-2\">\n    <div class=\"paragraph card-text card-stanza my-5 text-center\">We were taught to use plain old math,</div>\n    <div class=\"paragraph card-text card-stanza my-5 text-center\">or the teachers would show us their wrath.</div>\n  </div>\n</div>\n<div class=\"card card-section bg-dark text-warning shadow\">\n  <div class=\"section card-body mb-0 my-2\">\n    <div class=\"paragraph card-text card-stanza my-5 text-center\">They taught us to calculate,</div>\n    <div class=\"paragraph card-text card-stanza my-5 text-center\">but <a href=\"http://www.falstad.com/circuit/circuitjs.html?ctz=CQAgjCAMB0l3BWcMBMcUHYMGZIA4UA2ATmIxAUgoqoQFMBaMMAKADcQU89xiVPuIACw8qVIVWzRsUWTAQsA7gJ4iQ2PEOE9sLAE7rN2w1ub8qYOCzCF+G02DtGwfTiAAmdAGYBDAK4ANgAuDAF07nLgULC6ylw8Lk6mrqzKDITJdvyJ4Prq-GrY2a4WVmkZxkWV7CDpmbUVamLCktKR8iwAHrWWEChaOJzkpvwAKgAWAJYAzgA60zPzAFZ+00HzQeN085aQgJXA83p0C2sA9nrQXZz4nEhCCMQCwuD8AIIAdu7zW0fzi2tbQ7HGZBc7zAAOAVW8wAtgBPeYAIyh22mABkAKIAEUu3QYGEItRQECEaB6qk4WgmqLRPkR5x8oL0COmAHkvPMsRd5gAFU5BRmnAKTADGk1O0OmAFk6KdFCwgA\">we need to simulate</a>.</div>\n  </div>\n</div>\n<div class=\"mb-5 section-spacer\">&nbsp;</div>\n<div class=\"card card-section bg-dark text-warning shadow\">\n  <div class=\"section card-body mb-0 my-2\">\n    <div class=\"paragraph card-text card-stanza my-5 text-center\">I am so excited about my LED light,</div>\n    <div class=\"paragraph card-text card-stanza my-5 text-center\">it is glowing strong and bright.</div>\n  </div>\n</div>\n<div class=\"card card-section bg-dark text-warning shadow\">\n  <div class=\"section card-body mb-0 my-2\">\n    <div class=\"paragraph card-text card-stanza my-5 text-center\">But I am deeply saddened about school,</div>\n    <div class=\"paragraph card-text card-stanza my-5 text-center\">because what they did to us was really uncool.</div>\n  </div>\n</div>\n<div class=\"card card-section bg-dark text-warning shadow\">\n  <div class=\"section card-body mb-0 my-2\">\n    <div class=\"paragraph card-text card-stanza my-5 text-center\">Bad teachers fail to teach,</div>\n    <div class=\"paragraph card-text card-stanza my-5 text-center\">and suck paychecks like a leech.</div>\n  </div>\n</div>\n<div class=\"card card-section bg-dark text-warning shadow\">\n  <div class=\"section card-body mb-0 my-2\">\n    <div class=\"paragraph card-text card-stanza my-5 text-center\">They didn't care about the projects,</div>\n    <div class=\"paragraph card-text card-stanza my-5 text-center\">they wanted paychecks.</div>\n  </div>\n</div>\n<div class=\"card card-section bg-dark text-warning shadow\">\n  <div class=\"section card-body mb-0 my-2\">\n    <div class=\"paragraph card-text card-stanza my-5 text-center\">And we got too scared,</div>\n    <div class=\"paragraph card-text card-stanza my-5 text-center\">never noticed, they never cared.</div>\n  </div>\n</div>\n<div class=\"mb-5 section-spacer\">&nbsp;</div>\n<div class=\"card card-section bg-dark text-warning shadow\">\n  <div class=\"section card-body mb-0 my-2\">\n    <div class=\"paragraph card-text card-stanza my-5 text-center\">Here lies a lesson we must not forget,</div>\n    <div class=\"paragraph card-text card-stanza my-5 text-center\">nothing can be taught by means of threat.</div>\n  </div>\n</div>\n<div class=\"card card-section bg-dark text-warning shadow\">\n  <div class=\"section card-body mb-0 my-2\">\n    <div class=\"paragraph card-text card-stanza my-5 text-center\">Everything we learned was taught wrong,</div>\n    <div class=\"paragraph card-text card-stanza my-5 text-center\">and we sat there memorizing all day long.</div>\n  </div>\n</div>\n<div class=\"card card-section bg-dark text-warning shadow\">\n  <div class=\"section card-body mb-0 my-2\">\n    <div class=\"paragraph card-text card-stanza my-5 text-center\">Forget about regular school,</div>\n    <div class=\"paragraph card-text card-stanza my-5 text-center\">it is just a broken tool.</div>\n  </div>\n</div>\n<div class=\"mb-5 section-spacer\">&nbsp;</div>\n<div class=\"card card-section bg-dark text-warning shadow\">\n  <div class=\"section card-body mb-0 my-2\">\n    <div class=\"paragraph card-text card-stanza my-5 text-center\">We need to re-start in a real school,</div>\n    <div class=\"paragraph card-text card-stanza my-5 text-center\">we can't let them rob us into a fool.</div>\n  </div>\n</div>\n<div class=\"card card-section bg-dark text-warning shadow\">\n  <div class=\"section card-body mb-0 my-2\">\n    <div class=\"paragraph card-text card-stanza my-5 text-center\">We can still take all they stole,</div>\n    <div class=\"paragraph card-text card-stanza my-5 text-center\">by taking back the control.</div>\n  </div>\n</div>\n<div class=\"card card-section bg-dark text-warning shadow\">\n  <div class=\"section card-body mb-0 my-2\">\n    <div class=\"paragraph card-text card-stanza my-5 text-center\">We need to make things right,</div>\n    <div class=\"paragraph card-text card-stanza my-5 text-center\">and rekindle our own light.</div>\n  </div>\n</div>\n<div class=\"mb-5 section-spacer\">&nbsp;</div>\n<div class=\"card card-section bg-dark text-warning shadow\">\n  <div class=\"section card-body mb-0 my-2\">\n    <div class=\"paragraph card-text card-stanza my-5 text-center\">Am I wrong,</div>\n    <div class=\"paragraph card-text card-stanza my-5 text-center\">to think we were ^adventurers^ all along?</div>\n  </div>\n</div>\n<div class=\"card card-section bg-dark text-warning shadow\">\n  <div class=\"section card-body mb-0 my-2\">\n    <div class=\"paragraph card-text card-stanza my-5 text-center\">I don't think so,</div>\n    <div class=\"paragraph card-text card-stanza my-5 text-center\">and I think that's where we need to go.</div>\n  </div>\n</div>\n<div class=\"mb-5 section-spacer\">&nbsp;</div>\n<div class=\"card card-section bg-dark text-warning shadow\">\n  <div class=\"section card-body mb-0 my-2\">\n    <div class=\"paragraph card-text card-stanza my-5 text-center\">Except this is no usual quest,</div>\n    <div class=\"paragraph card-text card-stanza my-5 text-center\">nor will it end with a test.</div>\n  </div>\n</div>\n<div class=\"card card-section bg-dark text-warning shadow\">\n  <div class=\"section card-body mb-0 my-2\">\n    <div class=\"paragraph card-text card-stanza my-5 text-center\">We can start with what we love best,</div>\n    <div class=\"paragraph card-text card-stanza my-5 text-center\">and in a place where we can rest.</div>\n  </div>\n</div>\n<div class=\"card card-section bg-dark text-warning shadow\">\n  <div class=\"section card-body mb-0 my-2\">\n    <div class=\"paragraph card-text card-stanza my-5 text-center\">And then without anybody telling us what to learn,</div>\n    <div class=\"paragraph card-text card-stanza my-5 text-center\">to our favorite curiosities we can turn.</div>\n  </div>\n</div>\n<div class=\"card card-section bg-dark text-warning shadow\">\n  <div class=\"section card-body mb-0 my-2\">\n    <div class=\"paragraph card-text card-stanza my-5 text-center\">Plus, the older we grow,</div>\n    <div class=\"paragraph card-text card-stanza my-5 text-center\">the more we ^already^ know.</div>\n  </div>\n</div>\n<div class=\"card card-section bg-dark text-warning shadow\">\n  <div class=\"section card-body mb-0 my-2\">\n    <div class=\"paragraph card-text card-stanza my-5 text-center\">Learning is great,</div>\n    <div class=\"paragraph card-text card-stanza my-5 text-center\">and it is never too late.</div>\n  </div>\n</div>",
  "print": "<div class=\"section avoid-break-inside\" style=\"padding-bottom: 2rem;\">\n  <div class=\"paragraph\">We were taught to use plain old math,</div>\n  <div class=\"paragraph\">or the teachers would show us their wrath.</div>\n</div>\n<div class=\"section avoid-break-inside\" style=\"padding-bottom: 2rem;\">\n  <div class=\"paragraph\">They taught us to calculate,</div>\n  <div class=\"paragraph\">but <span>we need to simulate<sup>[1]</sup></span>.</div>\n</div>\n<div class=\"section avoid-break-inside\" style=\"padding-bottom: 2rem;\">\n  <br>\n</div>\n<div class=\"section avoid-break-inside\" style=\"padding-bottom: 2rem;\">\n  <div class=\"paragraph\">I am so excited about my LED light,</div>\n  <div class=\"paragraph\">it is glowing strong and bright.</div>\n</div>\n<div class=\"section avoid-break-inside\" style=\"padding-bottom: 2rem;\">\n  <div class=\"paragraph\">But I am deeply saddened about school,</div>\n  <div class=\"paragraph\">because what they did to us was really uncool.</div>\n</div>\n<div class=\"section avoid-break-inside\" style=\"padding-bottom: 2rem;\">\n  <div class=\"paragraph\">Bad teachers fail to teach,</div>\n  <div class=\"paragraph\">and suck paychecks like a leech.</div>\n</div>\n<div class=\"section avoid-break-inside\" style=\"padding-bottom: 2rem;\">\n  <div class=\"paragraph\">They didn't care about the projects,</div>\n  <div class=\"paragraph\">they wanted paychecks.</div>\n</div>\n<div class=\"section avoid-break-inside\" style=\"padding-bottom: 2rem;\">\n  <div class=\"paragraph\">And we got too scared,</div>\n  <div class=\"paragraph\">never noticed, they never cared.</div>\n</div>\n<div class=\"section avoid-break-inside\" style=\"padding-bottom: 2rem;\">\n  <br>\n</div>\n<div class=\"section avoid-break-inside\" style=\"padding-bottom: 2rem;\">\n  <div class=\"paragraph\">Here lies a lesson we must not forget,</div>\n  <div class=\"paragraph\">nothing can be taught by means of threat.</div>\n</div>\n<div class=\"section avoid-break-inside\" style=\"padding-bottom: 2rem;\">\n  <div class=\"paragraph\">Everything we learned was taught wrong,</div>\n  <div class=\"paragraph\">and we sat there memorizing all day long.</div>\n</div>\n<div class=\"section avoid-break-inside\" style=\"padding-bottom: 2rem;\">\n  <div class=\"paragraph\">Forget about regular school,</div>\n  <div class=\"paragraph\">it is just a broken tool.</div>\n</div>\n<div class=\"section avoid-break-inside\" style=\"padding-bottom: 2rem;\">\n  <br>\n</div>\n<div class=\"section avoid-break-inside\" style=\"padding-bottom: 2rem;\">\n  <div class=\"paragraph\">We need to re-start in a real school,</div>\n  <div class=\"paragraph\">we can't let them rob us into a fool.</div>\n</div>\n<div class=\"section avoid-break-inside\" style=\"padding-bottom: 2rem;\">\n  <div class=\"paragraph\">We can still take all they stole,</div>\n  <div class=\"paragraph\">by taking back the control.</div>\n</div>\n<div class=\"section avoid-break-inside\" style=\"padding-bottom: 2rem;\">\n  <div class=\"paragraph\">We need to make things right,</div>\n  <div class=\"paragraph\">and rekindle our own light.</div>\n</div>\n<div class=\"section avoid-break-inside\" style=\"padding-bottom: 2rem;\">\n  <br>\n</div>\n<div class=\"section avoid-break-inside\" style=\"padding-bottom: 2rem;\">\n  <div class=\"paragraph\">Am I wrong,</div>\n  <div class=\"paragraph\">to think we were ^adventurers^ all along?</div>\n</div>\n<div class=\"section avoid-break-inside\" style=\"padding-bottom: 2rem;\">\n  <div class=\"paragraph\">I don't think so,</div>\n  <div class=\"paragraph\">and I think that's where we need to go.</div>\n</div>\n<div class=\"section avoid-break-inside\" style=\"padding-bottom: 2rem;\">\n  <br>\n</div>\n<div class=\"section avoid-break-inside\" style=\"padding-bottom: 2rem;\">\n  <div class=\"paragraph\">Except this is no usual quest,</div>\n  <div class=\"paragraph\">nor will it end with a test.</div>\n</div>\n<div class=\"section avoid-break-inside\" style=\"padding-bottom: 2rem;\">\n  <div class=\"paragraph\">We can start with what we love best,</div>\n  <div class=\"paragraph\">and in a place where we can rest.</div>\n</div>\n<div class=\"section avoid-break-inside\" style=\"padding-bottom: 2rem;\">\n  <div class=\"paragraph\">And then without anybody telling us what to learn,</div>\n  <div class=\"paragraph\">to our favorite curiosities we can turn.</div>\n</div>\n<div class=\"section avoid-break-inside\" style=\"padding-bottom: 2rem;\">\n  <div class=\"paragraph\">Plus, the older we grow,</div>\n  <div class=\"paragraph\">the more we ^already^ know.</div>\n</div>\n<div class=\"section avoid-break-inside\" style=\"padding-bottom: 2rem;\">\n  <div class=\"paragraph\">Learning is great,</div>\n  <div class=\"paragraph\">and it is never too late.</div>\n</div>\n<div class=\"break-after\">&nbsp;</div>\n<div>\n  <div class=\"section\" style=\"padding-bottom: 1rem;\">References</div>\n  <div>[1]: http://www.falstad.com/circuit/circuitjs.html?ctz=CQAgjCAMB0l3BWcMBMcUHYMGZIA4UA2ATmIxAUgoqoQFMBaMMAKADcQU89xiVPuIACw8qVIVWzRsUWTAQsA7gJ4iQ2PEOE9sLAE7rN2w1ub8qYOCzCF+G02DtGwfTiAAmdAGYBDAK4ANgAuDAF07nLgULC6ylw8Lk6mrqzKDITJdvyJ4Prq-GrY2a4WVmkZxkWV7CDpmbUVamLCktKR8iwAHrWWEChaOJzkpvwAKgAWAJYAzgA60zPzAFZ+00HzQeN085aQgJXA83p0C2sA9nrQXZz4nEhCCMQCwuD8AIIAdu7zW0fzi2tbQ7HGZBc7zAAOAVW8wAtgBPeYAIyh22mABkAKIAEUu3QYGEItRQECEaB6qk4WgmqLRPkR5x8oL0COmAHkvPMsRd5gAFU5BRmnAKTADGk1O0OmAFk6KdFCwgA</div>\n</div>",
  "text": "We were taught to use plain old math,\nor the teachers would show us their wrath.\nThey taught us to calculate,\nbut we need to simulate[1].\n\nI am so excited about my LED light,\nit is glowing strong and bright.\nBut I am deeply saddened about school,\nbecause what they did to us was really uncool.\nBad teachers fail to teach,\nand suck paychecks like a leech.\nThey didn't care about the projects,\nthey wanted paychecks.\nAnd we got too scared,\nnever noticed, they never cared.\n\nHere lies a lesson we must not forget,\nnothing can be taught by means of threat.\nEverything we learned was taught wrong,\nand we sat there memorizing all day long.\nForget about regular school,\nit is just a broken tool.\n\nWe need to re-start in a real school,\nwe can't let them rob us into a fool.\nWe can still take all they stole,\nby taking back the control.\nWe need to make things right,\nand rekindle our own light.\n\nAm I wrong,\nto think we were ^adventurers^ all along?\nI don't think so,\nand I think that's where we need to go.\n\nExcept this is no usual quest,\nnor will it end with a test.\nWe can start with what we love best,\nand in a place where we can rest.\nAnd then without anybody telling us what to learn,\nto our favorite curiosities we can turn.\nPlus, the older we grow,\nthe more we ^already^ know.\nLearning is great,\nand it is never too late.\n \nReferences\n[1]: http://www.falstad.com/circuit/circuitjs.html?ctz=CQAgjCAMB0l3BWcMBMcUHYMGZIA4UA2ATmIxAUgoqoQFMBaMMAKADcQU89xiVPuIACw8qVIVWzRsUWTAQsA7gJ4iQ2PEOE9sLAE7rN2w1ub8qYOCzCF+G02DtGwfTiAAmdAGYBDAK4ANgAuDAF07nLgULC6ylw8Lk6mrqzKDITJdvyJ4Prq-GrY2a4WVmkZxkWV7CDpmbUVamLCktKR8iwAHrWWEChaOJzkpvwAKgAWAJYAzgA60zPzAFZ+00HzQeN085aQgJXA83p0C2sA9nrQXZz4nEhCCMQCwuD8AIIAdu7zW0fzi2tbQ7HGZBc7zAAOAVW8wAtgBPeYAIyh22mABkAKIAEUu3QYGEItRQECEaB6qk4WgmqLRPkR5x8oL0COmAHkvPMsRd5gAFU5BRmnAKTADGk1O0OmAFk6KdFCwgA",
  "images": [],
  "links": [
    {
      "title": "we need to simulate",
      "url": "http://www.falstad.com/circuit/circuitjs.html?ctz=CQAgjCAMB0l3BWcMBMcUHYMGZIA4UA2ATmIxAUgoqoQFMBaMMAKADcQU89xiVPuIACw8qVIVWzRsUWTAQsA7gJ4iQ2PEOE9sLAE7rN2w1ub8qYOCzCF+G02DtGwfTiAAmdAGYBDAK4ANgAuDAF07nLgULC6ylw8Lk6mrqzKDITJdvyJ4Prq-GrY2a4WVmkZxkWV7CDpmbUVamLCktKR8iwAHrWWEChaOJzkpvwAKgAWAJYAzgA60zPzAFZ+00HzQeN085aQgJXA83p0C2sA9nrQXZz4nEhCCMQCwuD8AIIAdu7zW0fzi2tbQ7HGZBc7zAAOAVW8wAtgBPeYAIyh22mABkAKIAEUu3QYGEItRQECEaB6qk4WgmqLRPkR5x8oL0COmAHkvPMsRd5gAFU5BRmnAKTADGk1O0OmAFk6KdFCwgA",
      "hostname": "www.falstad.com"
    }
  ]
}