{
  "title": "Do Not Follow, My Friends",
  "date": "2020-06-01T02:31:13.652Z",
  "image": "poetry-0088-illustration.jpg",
  "audio": "poetry-0088.mp3",
  "id": "furkies-purrkies-poetry-0088",
  "attachments": {},
  "guid": "5e0b7607-ed63-48a3-bb14-d3e30b35c3d3"
}
