{
  "id": "furkies-purrkies-poetry-0700",
  "title": "A Letter To Brand New Artists: Mona Lisa Calls To You",
  "date": "2022-01-30T00:05:12.135Z",
  "image": "poetry-0700-illustration.jpg",
  "artwork": "https://catpea.com",
  "audio": "poetry-0700.mp3",
  "guid": "c0220077-f3ea-440b-bb5d-5f1ab5866291"
}
