{
  "title": "The Road To Greatness Welcomes All",
  "date": "2021-05-19T02:53:32.853Z",
  "image": "poetry-0444-illustration.jpg",
  "audio": "poetry-0444.mp3",
  "artwork": "https://unsplash.com/photos/HQzVpPwTj6I",
  "id": "furkies-purrkies-poetry-0444",
  "attachments": {},
  "guid": "c184475b-d76d-46b8-80eb-f4820e008ed9"
}
