{
  "name": "furkies-purrkies-poetry-0781",
  "id": "furkies-purrkies-poetry-0781",
  "title": "Hyperrealism vs. Super Realism",
  "date": "2022-04-21T02:40:59.632Z",
  "image": "poetry-0781-illustration.jpg",
  "artwork": "https://catpea.com",
  "audio": "poetry-0781.mp3",
  "guid": "7c247651-c914-4e80-95c7-b67f2078ca67",
  "html": "<div class=\"section\">\n  <p>You must use photo reference, at least at first, or you will get stuck,<br>our brains use some extra processing for faces.</p>\n  <p>You can’t just copy a face on a canvas,<br>because you are not seeing the person correctly.</p>\n  <p>Similar thing happens with the moon when it grows large,<br>the moon never comes closer to earth, it is always the same size...</p>\n  <p>Our brain is just doing extra processing,<br>or not processing things at the horizon correctly, if you like.</p>\n</div>\n<div class=\"section\">\n  <hr>\n</div>\n<div class=\"section\">\n  <p>The difference between looking into distance,<br>and looking afraid.</p>\n  <p>Can be as little,<br>as showing a thin white line beneath the iris.</p>\n  <p>You won’t be able to see that,<br>not very easily.</p>\n  <p>You do not want to play,<br>find all the differences in the two images during your painting.</p>\n  <p>You may not even be able to find,<br>that it is that bit of white beneath the iris that’s changing he entire expression.</p>\n  <p>Or that the lower eyelid must be rosier,<br>and area beneath the eye needs blue...</p>\n  <p>Or, you are going to hit the uncanny valley hard,<br>you do not want the brain to say \"This human is not real\" - or worse, yikes.</p>\n</div>\n<div class=\"section\">\n  <hr>\n</div>\n<div class=\"section\">\n  <p>There are people out there who draw freehand,<br>some dare try to paint live subjects.</p>\n  <p>And that is a kind of a trick,<br>they relay on the fact that nobody will tell the artist: “This does not look like me.”</p>\n  <p>So it is like being hypnotized in front of an audience,<br>during a live show.</p>\n  <p>Everybody, ends up pretending they got hypnotized,<br>if hypnosis was actually real...</p>\n  <p>All the cops in the world,<br>would be trying to hypnotize their perps to get them to talk.</p>\n  <p>“Sir, I need you to put your hands behind your back,<br>and look deeply into my purdy eyes.”</p>\n</div>\n<div class=\"section\">\n  <hr>\n</div>\n<div class=\"section\">\n  <p>The folks who draw fantasy art,<br>just letting faces come together as they practice their skills with reference in hand...</p>\n  <p>Are not painting real people,<br>all that often.</p>\n  <p>Some do it, and holly molly it is extraordinary,<br>when it works.</p>\n  <p>Today they are the little known leaders of modern art,<br>history will certainly remember them.</p>\n  <p>So you can’t just look at a breathtaking stylized painting,<br>and feel discouraged that it would take you four days to do it.</p>\n  <p>The artist might have been training on a pretty image for days,<br>but it is unlikely that you could pick the person in the painting from a lineup of similar looking people.</p>\n</div>\n<div class=\"section\">\n  <hr>\n</div>\n<div class=\"section\">\n  <p>Realism done right, is the kind of art,<br>that once seen by the person in the painting...</p>\n  <p>It induces the urge,<br>to put palms of their hands on their temples...</p>\n  <p>And hold their head like that while smiling in fascination,<br>for a goodie-long while.</p>\n  <p>Afterword; and this is my private opinion,<br>but I suspect that here is a naming problem - a subtle distinction that has been missed.</p>\n  <p>Photorealism is closely connected to painting photographs,<br><a href=\"https://www.hyperrealism.eu/painters/?subject=portrait\">Hyperrealism is a bit more artistic, more hyper</a>, but there is more.</p>\n  <p>And I call it Super Realism,<br>unfortunately the world maybe calling it semi-realism, and that is just ridiculous.</p>\n  <p>Super Realism is is not just artistic,<br>but it beautifies and enhances human features.</p>\n  <p>Semi-realism will just enlarge eyes and perhaps make them fantasy based,<br>but <a href=\"https://www.artstation.com/nadar\">Super Realism will enhance human features without unnecessary distortion</a>.</p>\n</div>",
  "bootstrap": "<div class=\"card card-section bg-dark text-warning shadow\">\n  <div class=\"section card-body mb-0 my-2\">\n    <div class=\"paragraph card-text card-stanza my-5 text-center\">You must use photo reference, at least at first, or you will get stuck,<br>our brains use some extra processing for faces.</div>\n    <div class=\"paragraph card-text card-stanza my-5 text-center\">You can’t just copy a face on a canvas,<br>because you are not seeing the person correctly.</div>\n    <div class=\"paragraph card-text card-stanza my-5 text-center\">Similar thing happens with the moon when it grows large,<br>the moon never comes closer to earth, it is always the same size...</div>\n    <div class=\"paragraph card-text card-stanza my-5 text-center\">Our brain is just doing extra processing,<br>or not processing things at the horizon correctly, if you like.</div>\n  </div>\n</div>\n<div class=\"mb-5 section-spacer\">&nbsp;</div>\n<div class=\"card card-section bg-dark text-warning shadow\">\n  <div class=\"section card-body mb-0 my-2\">\n    <div class=\"paragraph card-text card-stanza my-5 text-center\">The difference between looking into distance,<br>and looking afraid.</div>\n    <div class=\"paragraph card-text card-stanza my-5 text-center\">Can be as little,<br>as showing a thin white line beneath the iris.</div>\n    <div class=\"paragraph card-text card-stanza my-5 text-center\">You won’t be able to see that,<br>not very easily.</div>\n    <div class=\"paragraph card-text card-stanza my-5 text-center\">You do not want to play,<br>find all the differences in the two images during your painting.</div>\n    <div class=\"paragraph card-text card-stanza my-5 text-center\">You may not even be able to find,<br>that it is that bit of white beneath the iris that’s changing he entire expression.</div>\n    <div class=\"paragraph card-text card-stanza my-5 text-center\">Or that the lower eyelid must be rosier,<br>and area beneath the eye needs blue...</div>\n    <div class=\"paragraph card-text card-stanza my-5 text-center\">Or, you are going to hit the uncanny valley hard,<br>you do not want the brain to say \"This human is not real\" - or worse, yikes.</div>\n  </div>\n</div>\n<div class=\"mb-5 section-spacer\">&nbsp;</div>\n<div class=\"card card-section bg-dark text-warning shadow\">\n  <div class=\"section card-body mb-0 my-2\">\n    <div class=\"paragraph card-text card-stanza my-5 text-center\">There are people out there who draw freehand,<br>some dare try to paint live subjects.</div>\n    <div class=\"paragraph card-text card-stanza my-5 text-center\">And that is a kind of a trick,<br>they relay on the fact that nobody will tell the artist: “This does not look like me.”</div>\n    <div class=\"paragraph card-text card-stanza my-5 text-center\">So it is like being hypnotized in front of an audience,<br>during a live show.</div>\n    <div class=\"paragraph card-text card-stanza my-5 text-center\">Everybody, ends up pretending they got hypnotized,<br>if hypnosis was actually real...</div>\n    <div class=\"paragraph card-text card-stanza my-5 text-center\">All the cops in the world,<br>would be trying to hypnotize their perps to get them to talk.</div>\n    <div class=\"paragraph card-text card-stanza my-5 text-center\">“Sir, I need you to put your hands behind your back,<br>and look deeply into my purdy eyes.”</div>\n  </div>\n</div>\n<div class=\"mb-5 section-spacer\">&nbsp;</div>\n<div class=\"card card-section bg-dark text-warning shadow\">\n  <div class=\"section card-body mb-0 my-2\">\n    <div class=\"paragraph card-text card-stanza my-5 text-center\">The folks who draw fantasy art,<br>just letting faces come together as they practice their skills with reference in hand...</div>\n    <div class=\"paragraph card-text card-stanza my-5 text-center\">Are not painting real people,<br>all that often.</div>\n    <div class=\"paragraph card-text card-stanza my-5 text-center\">Some do it, and holly molly it is extraordinary,<br>when it works.</div>\n    <div class=\"paragraph card-text card-stanza my-5 text-center\">Today they are the little known leaders of modern art,<br>history will certainly remember them.</div>\n    <div class=\"paragraph card-text card-stanza my-5 text-center\">So you can’t just look at a breathtaking stylized painting,<br>and feel discouraged that it would take you four days to do it.</div>\n    <div class=\"paragraph card-text card-stanza my-5 text-center\">The artist might have been training on a pretty image for days,<br>but it is unlikely that you could pick the person in the painting from a lineup of similar looking people.</div>\n  </div>\n</div>\n<div class=\"mb-5 section-spacer\">&nbsp;</div>\n<div class=\"card card-section bg-dark text-warning shadow\">\n  <div class=\"section card-body mb-0 my-2\">\n    <div class=\"paragraph card-text card-stanza my-5 text-center\">Realism done right, is the kind of art,<br>that once seen by the person in the painting...</div>\n    <div class=\"paragraph card-text card-stanza my-5 text-center\">It induces the urge,<br>to put palms of their hands on their temples...</div>\n    <div class=\"paragraph card-text card-stanza my-5 text-center\">And hold their head like that while smiling in fascination,<br>for a goodie-long while.</div>\n    <div class=\"paragraph card-text card-stanza my-5 text-center\">Afterword; and this is my private opinion,<br>but I suspect that here is a naming problem - a subtle distinction that has been missed.</div>\n    <div class=\"paragraph card-text card-stanza my-5 text-center\">Photorealism is closely connected to painting photographs,<br><a href=\"https://www.hyperrealism.eu/painters/?subject=portrait\">Hyperrealism is a bit more artistic, more hyper</a>, but there is more.</div>\n    <div class=\"paragraph card-text card-stanza my-5 text-center\">And I call it Super Realism,<br>unfortunately the world maybe calling it semi-realism, and that is just ridiculous.</div>\n    <div class=\"paragraph card-text card-stanza my-5 text-center\">Super Realism is is not just artistic,<br>but it beautifies and enhances human features.</div>\n    <div class=\"paragraph card-text card-stanza my-5 text-center\">Semi-realism will just enlarge eyes and perhaps make them fantasy based,<br>but <a href=\"https://www.artstation.com/nadar\">Super Realism will enhance human features without unnecessary distortion</a>.</div>\n  </div>\n</div>",
  "print": "<div class=\"section avoid-break-inside\" style=\"padding-bottom: 2rem;\">\n  <div class=\"paragraph\">You must use photo reference, at least at first, or you will get stuck,<br>our brains use some extra processing for faces.</div>\n  <div class=\"paragraph\">You can’t just copy a face on a canvas,<br>because you are not seeing the person correctly.</div>\n  <div class=\"paragraph\">Similar thing happens with the moon when it grows large,<br>the moon never comes closer to earth, it is always the same size...</div>\n  <div class=\"paragraph\">Our brain is just doing extra processing,<br>or not processing things at the horizon correctly, if you like.</div>\n</div>\n<div class=\"section avoid-break-inside\" style=\"padding-bottom: 2rem;\">\n  <br>\n</div>\n<div class=\"section avoid-break-inside\" style=\"padding-bottom: 2rem;\">\n  <div class=\"paragraph\">The difference between looking into distance,<br>and looking afraid.</div>\n  <div class=\"paragraph\">Can be as little,<br>as showing a thin white line beneath the iris.</div>\n  <div class=\"paragraph\">You won’t be able to see that,<br>not very easily.</div>\n  <div class=\"paragraph\">You do not want to play,<br>find all the differences in the two images during your painting.</div>\n  <div class=\"paragraph\">You may not even be able to find,<br>that it is that bit of white beneath the iris that’s changing he entire expression.</div>\n  <div class=\"paragraph\">Or that the lower eyelid must be rosier,<br>and area beneath the eye needs blue...</div>\n  <div class=\"paragraph\">Or, you are going to hit the uncanny valley hard,<br>you do not want the brain to say \"This human is not real\" - or worse, yikes.</div>\n</div>\n<div class=\"section avoid-break-inside\" style=\"padding-bottom: 2rem;\">\n  <br>\n</div>\n<div class=\"section avoid-break-inside\" style=\"padding-bottom: 2rem;\">\n  <div class=\"paragraph\">There are people out there who draw freehand,<br>some dare try to paint live subjects.</div>\n  <div class=\"paragraph\">And that is a kind of a trick,<br>they relay on the fact that nobody will tell the artist: “This does not look like me.”</div>\n  <div class=\"paragraph\">So it is like being hypnotized in front of an audience,<br>during a live show.</div>\n  <div class=\"paragraph\">Everybody, ends up pretending they got hypnotized,<br>if hypnosis was actually real...</div>\n  <div class=\"paragraph\">All the cops in the world,<br>would be trying to hypnotize their perps to get them to talk.</div>\n  <div class=\"paragraph\">“Sir, I need you to put your hands behind your back,<br>and look deeply into my purdy eyes.”</div>\n</div>\n<div class=\"section avoid-break-inside\" style=\"padding-bottom: 2rem;\">\n  <br>\n</div>\n<div class=\"section avoid-break-inside\" style=\"padding-bottom: 2rem;\">\n  <div class=\"paragraph\">The folks who draw fantasy art,<br>just letting faces come together as they practice their skills with reference in hand...</div>\n  <div class=\"paragraph\">Are not painting real people,<br>all that often.</div>\n  <div class=\"paragraph\">Some do it, and holly molly it is extraordinary,<br>when it works.</div>\n  <div class=\"paragraph\">Today they are the little known leaders of modern art,<br>history will certainly remember them.</div>\n  <div class=\"paragraph\">So you can’t just look at a breathtaking stylized painting,<br>and feel discouraged that it would take you four days to do it.</div>\n  <div class=\"paragraph\">The artist might have been training on a pretty image for days,<br>but it is unlikely that you could pick the person in the painting from a lineup of similar looking people.</div>\n</div>\n<div class=\"section avoid-break-inside\" style=\"padding-bottom: 2rem;\">\n  <br>\n</div>\n<div class=\"section avoid-break-inside\" style=\"padding-bottom: 2rem;\">\n  <div class=\"paragraph\">Realism done right, is the kind of art,<br>that once seen by the person in the painting...</div>\n  <div class=\"paragraph\">It induces the urge,<br>to put palms of their hands on their temples...</div>\n  <div class=\"paragraph\">And hold their head like that while smiling in fascination,<br>for a goodie-long while.</div>\n  <div class=\"paragraph\">Afterword; and this is my private opinion,<br>but I suspect that here is a naming problem - a subtle distinction that has been missed.</div>\n  <div class=\"paragraph\">Photorealism is closely connected to painting photographs,<br><span>Hyperrealism is a bit more artistic, more hyper<sup>[1]</sup></span>, but there is more.</div>\n  <div class=\"paragraph\">And I call it Super Realism,<br>unfortunately the world maybe calling it semi-realism, and that is just ridiculous.</div>\n  <div class=\"paragraph\">Super Realism is is not just artistic,<br>but it beautifies and enhances human features.</div>\n  <div class=\"paragraph\">Semi-realism will just enlarge eyes and perhaps make them fantasy based,<br>but <span>Super Realism will enhance human features without unnecessary distortion<sup>[2]</sup></span>.</div>\n</div>\n<div class=\"break-after\">&nbsp;</div>\n<div>\n  <div class=\"section\" style=\"padding-bottom: 1rem;\">References</div>\n  <div>[1]: https://www.hyperrealism.eu/painters/?subject=portrait</div>\n  <div>[2]: https://www.artstation.com/nadar</div>\n</div>",
  "text": "You must use photo reference, at least at first, or you will get stuck,\nour brains use some extra processing for faces.\nYou can’t just copy a face on a canvas,\nbecause you are not seeing the person correctly.\nSimilar thing happens with the moon when it grows large,\nthe moon never comes closer to earth, it is always the same size...\nOur brain is just doing extra processing,\nor not processing things at the horizon correctly, if you like.\n\nThe difference between looking into distance,\nand looking afraid.\nCan be as little,\nas showing a thin white line beneath the iris.\nYou won’t be able to see that,\nnot very easily.\nYou do not want to play,\nfind all the differences in the two images during your painting.\nYou may not even be able to find,\nthat it is that bit of white beneath the iris that’s changing he entire expression.\nOr that the lower eyelid must be rosier,\nand area beneath the eye needs blue...\nOr, you are going to hit the uncanny valley hard,\nyou do not want the brain to say \"This human is not real\" - or worse, yikes.\n\nThere are people out there who draw freehand,\nsome dare try to paint live subjects.\nAnd that is a kind of a trick,\nthey relay on the fact that nobody will tell the artist: “This does not look like me.”\nSo it is like being hypnotized in front of an audience,\nduring a live show.\nEverybody, ends up pretending they got hypnotized,\nif hypnosis was actually real...\nAll the cops in the world,\nwould be trying to hypnotize their perps to get them to talk.\n“Sir, I need you to put your hands behind your back,\nand look deeply into my purdy eyes.”\n\nThe folks who draw fantasy art,\njust letting faces come together as they practice their skills with reference in hand...\nAre not painting real people,\nall that often.\nSome do it, and holly molly it is extraordinary,\nwhen it works.\nToday they are the little known leaders of modern art,\nhistory will certainly remember them.\nSo you can’t just look at a breathtaking stylized painting,\nand feel discouraged that it would take you four days to do it.\nThe artist might have been training on a pretty image for days,\nbut it is unlikely that you could pick the person in the painting from a lineup of similar looking people.\n\nRealism done right, is the kind of art,\nthat once seen by the person in the painting...\nIt induces the urge,\nto put palms of their hands on their temples...\nAnd hold their head like that while smiling in fascination,\nfor a goodie-long while.\nAfterword; and this is my private opinion,\nbut I suspect that here is a naming problem - a subtle distinction that has been missed.\nPhotorealism is closely connected to painting photographs,\nHyperrealism is a bit more artistic, more hyper[1], but there is more.\nAnd I call it Super Realism,\nunfortunately the world maybe calling it semi-realism, and that is just ridiculous.\nSuper Realism is is not just artistic,\nbut it beautifies and enhances human features.\nSemi-realism will just enlarge eyes and perhaps make them fantasy based,\nbut Super Realism will enhance human features without unnecessary distortion[2].\n \nReferences\n[1]: https://www.hyperrealism.eu/painters/?subject=portrait\n[2]: https://www.artstation.com/nadar",
  "images": [],
  "links": [
    {
      "title": "Hyperrealism is a bit more artistic, more hyper",
      "url": "https://www.hyperrealism.eu/painters/?subject=portrait",
      "hostname": "www.hyperrealism.eu"
    },
    {
      "title": "Super Realism will enhance human features without unnecessary distortion",
      "url": "https://www.artstation.com/nadar",
      "hostname": "www.artstation.com"
    }
  ]
}