{
  "name": "furkies-purrkies-poetry-0123",
  "title": "To No End",
  "date": "2020-07-01T03:38:48.751Z",
  "image": "poetry-0123-illustration.jpg",
  "audio": "poetry-0123.mp3",
  "id": "furkies-purrkies-poetry-0123",
  "attachments": {},
  "guid": "208002ee-5a8f-443a-9834-cda96fca92b8",
  "html": "<div class=\"section\">\n  <p>When we are still learning what the world is,</p>\n  <p>we find comfort in recognizing where something starts, and where it ends.</p>\n</div>\n<div class=\"section\">\n  <p>Knowing the beginning and seeing the ending helps us feel in control,</p>\n  <p>it helps us see the journey&apos;s end, or the height of a challenge.</p>\n</div>\n<div class=\"section\">\n  <p>But all of that goes away when we begin rising,</p>\n  <p>eventually we only consider the forward motion it self.</p>\n</div>\n<div class=\"section\">\n  <p>We ignore the beginning, we abandon the ends, we ignore the steps,</p>\n  <p>and we stop measuring the distance and paying attention to the effort.</p>\n</div>\n<div class=\"section\">\n  <p>In advancing forward we learn to recognize that all things must connect,</p>\n  <p>we can only find peace in a mesh-work of common concerns and dreams upheld by all.</p>\n</div>\n<div class=\"section\">\n  <p>The roads we must travel have no limits, and it never takes long to catch up,</p>\n  <p>nobody falls behind for too long unless they practice resignation.</p>\n</div>\n<div class=\"section\">\n  <p>We need not travel far to begin seeing that the word is still very young,</p>\n  <p>that passage of wisdom between generations is a very fragile process.</p>\n</div>\n<div class=\"section\">\n  <p>Many, who are not yet mature enough for the position they have gained, may feign authority,</p>\n  <p>we have to be careful who we listen to and be mindful of the paths they have traveled.</p>\n</div>\n<div class=\"section\">\n  <p>We are the sum of all our rising, all our triumph, effort, and intent across all our ages,</p>\n  <p>how we rose, and the choices we made, and the wisdom we grew with, all adds to the sum.</p>\n</div>\n<div class=\"section\">\n  <p>That sum doesn&apos;t just outline our personality and who we are in the now,</p>\n  <p>it is the structure of our wisdom and the body of our knowledge, directed towards who we will become in the future.</p>\n</div>\n<div class=\"section\">\n  <p>A choice we make in the now, will paint a moment in our past, but also influence what is yet to come,</p>\n  <p>and all the choices added together create who we are in the future that we will eventually enter.</p>\n</div>\n<div class=\"section\">\n  <p>We must take great care of our choices, we must take care to love ourselves,</p>\n  <p>to find the calm and peace from which we can make healthy decisions that will help us grow.</p>\n</div>\n<div class=\"section\">\n  <p>Not everyone will start in a colorful city with good schools and amazing friends,</p>\n  <p>some will struggle to rise out of extremes that will never make sense.</p>\n</div>\n<div class=\"section\">\n  <p>But we must still set ourselves on that unlimited path,</p>\n  <p>and get used to the idea of no beginnings, and no ends, just that all too human forward motion.</p>\n</div>\n<div class=\"section\">\n  <p>The direction is always the same, move towards wisdom,</p>\n  <p>that is the meeting point of all human beings no matter their circumstance or culture.</p>\n</div>\n<div class=\"section\">\n  <p>We begin as children, we mature into adults, and then we must go on to become Great Beings,</p>\n  <p>all Greatness is rooted in Love of Wisdom, and the root of wisdom is found in boldly facing the challenges of life.</p>\n</div>",
  "bootstrap": "<div class=\"card card-section bg-dark text-warning shadow\">\n  <div class=\"section card-body mb-0 my-2\">\n    <div class=\"paragraph card-text card-stanza my-5 text-center\">When we are still learning what the world is,</div>\n    <div class=\"paragraph card-text card-stanza my-5 text-center\">we find comfort in recognizing where something starts, and where it ends.</div>\n  </div>\n</div>\n<div class=\"card card-section bg-dark text-warning shadow\">\n  <div class=\"section card-body mb-0 my-2\">\n    <div class=\"paragraph card-text card-stanza my-5 text-center\">Knowing the beginning and seeing the ending helps us feel in control,</div>\n    <div class=\"paragraph card-text card-stanza my-5 text-center\">it helps us see the journey's end, or the height of a challenge.</div>\n  </div>\n</div>\n<div class=\"card card-section bg-dark text-warning shadow\">\n  <div class=\"section card-body mb-0 my-2\">\n    <div class=\"paragraph card-text card-stanza my-5 text-center\">But all of that goes away when we begin rising,</div>\n    <div class=\"paragraph card-text card-stanza my-5 text-center\">eventually we only consider the forward motion it self.</div>\n  </div>\n</div>\n<div class=\"card card-section bg-dark text-warning shadow\">\n  <div class=\"section card-body mb-0 my-2\">\n    <div class=\"paragraph card-text card-stanza my-5 text-center\">We ignore the beginning, we abandon the ends, we ignore the steps,</div>\n    <div class=\"paragraph card-text card-stanza my-5 text-center\">and we stop measuring the distance and paying attention to the effort.</div>\n  </div>\n</div>\n<div class=\"card card-section bg-dark text-warning shadow\">\n  <div class=\"section card-body mb-0 my-2\">\n    <div class=\"paragraph card-text card-stanza my-5 text-center\">In advancing forward we learn to recognize that all things must connect,</div>\n    <div class=\"paragraph card-text card-stanza my-5 text-center\">we can only find peace in a mesh-work of common concerns and dreams upheld by all.</div>\n  </div>\n</div>\n<div class=\"card card-section bg-dark text-warning shadow\">\n  <div class=\"section card-body mb-0 my-2\">\n    <div class=\"paragraph card-text card-stanza my-5 text-center\">The roads we must travel have no limits, and it never takes long to catch up,</div>\n    <div class=\"paragraph card-text card-stanza my-5 text-center\">nobody falls behind for too long unless they practice resignation.</div>\n  </div>\n</div>\n<div class=\"card card-section bg-dark text-warning shadow\">\n  <div class=\"section card-body mb-0 my-2\">\n    <div class=\"paragraph card-text card-stanza my-5 text-center\">We need not travel far to begin seeing that the word is still very young,</div>\n    <div class=\"paragraph card-text card-stanza my-5 text-center\">that passage of wisdom between generations is a very fragile process.</div>\n  </div>\n</div>\n<div class=\"card card-section bg-dark text-warning shadow\">\n  <div class=\"section card-body mb-0 my-2\">\n    <div class=\"paragraph card-text card-stanza my-5 text-center\">Many, who are not yet mature enough for the position they have gained, may feign authority,</div>\n    <div class=\"paragraph card-text card-stanza my-5 text-center\">we have to be careful who we listen to and be mindful of the paths they have traveled.</div>\n  </div>\n</div>\n<div class=\"card card-section bg-dark text-warning shadow\">\n  <div class=\"section card-body mb-0 my-2\">\n    <div class=\"paragraph card-text card-stanza my-5 text-center\">We are the sum of all our rising, all our triumph, effort, and intent across all our ages,</div>\n    <div class=\"paragraph card-text card-stanza my-5 text-center\">how we rose, and the choices we made, and the wisdom we grew with, all adds to the sum.</div>\n  </div>\n</div>\n<div class=\"card card-section bg-dark text-warning shadow\">\n  <div class=\"section card-body mb-0 my-2\">\n    <div class=\"paragraph card-text card-stanza my-5 text-center\">That sum doesn't just outline our personality and who we are in the now,</div>\n    <div class=\"paragraph card-text card-stanza my-5 text-center\">it is the structure of our wisdom and the body of our knowledge, directed towards who we will become in the future.</div>\n  </div>\n</div>\n<div class=\"card card-section bg-dark text-warning shadow\">\n  <div class=\"section card-body mb-0 my-2\">\n    <div class=\"paragraph card-text card-stanza my-5 text-center\">A choice we make in the now, will paint a moment in our past, but also influence what is yet to come,</div>\n    <div class=\"paragraph card-text card-stanza my-5 text-center\">and all the choices added together create who we are in the future that we will eventually enter.</div>\n  </div>\n</div>\n<div class=\"card card-section bg-dark text-warning shadow\">\n  <div class=\"section card-body mb-0 my-2\">\n    <div class=\"paragraph card-text card-stanza my-5 text-center\">We must take great care of our choices, we must take care to love ourselves,</div>\n    <div class=\"paragraph card-text card-stanza my-5 text-center\">to find the calm and peace from which we can make healthy decisions that will help us grow.</div>\n  </div>\n</div>\n<div class=\"card card-section bg-dark text-warning shadow\">\n  <div class=\"section card-body mb-0 my-2\">\n    <div class=\"paragraph card-text card-stanza my-5 text-center\">Not everyone will start in a colorful city with good schools and amazing friends,</div>\n    <div class=\"paragraph card-text card-stanza my-5 text-center\">some will struggle to rise out of extremes that will never make sense.</div>\n  </div>\n</div>\n<div class=\"card card-section bg-dark text-warning shadow\">\n  <div class=\"section card-body mb-0 my-2\">\n    <div class=\"paragraph card-text card-stanza my-5 text-center\">But we must still set ourselves on that unlimited path,</div>\n    <div class=\"paragraph card-text card-stanza my-5 text-center\">and get used to the idea of no beginnings, and no ends, just that all too human forward motion.</div>\n  </div>\n</div>\n<div class=\"card card-section bg-dark text-warning shadow\">\n  <div class=\"section card-body mb-0 my-2\">\n    <div class=\"paragraph card-text card-stanza my-5 text-center\">The direction is always the same, move towards wisdom,</div>\n    <div class=\"paragraph card-text card-stanza my-5 text-center\">that is the meeting point of all human beings no matter their circumstance or culture.</div>\n  </div>\n</div>\n<div class=\"card card-section bg-dark text-warning shadow\">\n  <div class=\"section card-body mb-0 my-2\">\n    <div class=\"paragraph card-text card-stanza my-5 text-center\">We begin as children, we mature into adults, and then we must go on to become Great Beings,</div>\n    <div class=\"paragraph card-text card-stanza my-5 text-center\">all Greatness is rooted in Love of Wisdom, and the root of wisdom is found in boldly facing the challenges of life.</div>\n  </div>\n</div>",
  "print": "<div class=\"section avoid-break-inside\" style=\"padding-bottom: 2rem;\">\n  <div class=\"paragraph\">When we are still learning what the world is,</div>\n  <div class=\"paragraph\">we find comfort in recognizing where something starts, and where it ends.</div>\n</div>\n<div class=\"section avoid-break-inside\" style=\"padding-bottom: 2rem;\">\n  <div class=\"paragraph\">Knowing the beginning and seeing the ending helps us feel in control,</div>\n  <div class=\"paragraph\">it helps us see the journey's end, or the height of a challenge.</div>\n</div>\n<div class=\"section avoid-break-inside\" style=\"padding-bottom: 2rem;\">\n  <div class=\"paragraph\">But all of that goes away when we begin rising,</div>\n  <div class=\"paragraph\">eventually we only consider the forward motion it self.</div>\n</div>\n<div class=\"section avoid-break-inside\" style=\"padding-bottom: 2rem;\">\n  <div class=\"paragraph\">We ignore the beginning, we abandon the ends, we ignore the steps,</div>\n  <div class=\"paragraph\">and we stop measuring the distance and paying attention to the effort.</div>\n</div>\n<div class=\"section avoid-break-inside\" style=\"padding-bottom: 2rem;\">\n  <div class=\"paragraph\">In advancing forward we learn to recognize that all things must connect,</div>\n  <div class=\"paragraph\">we can only find peace in a mesh-work of common concerns and dreams upheld by all.</div>\n</div>\n<div class=\"section avoid-break-inside\" style=\"padding-bottom: 2rem;\">\n  <div class=\"paragraph\">The roads we must travel have no limits, and it never takes long to catch up,</div>\n  <div class=\"paragraph\">nobody falls behind for too long unless they practice resignation.</div>\n</div>\n<div class=\"section avoid-break-inside\" style=\"padding-bottom: 2rem;\">\n  <div class=\"paragraph\">We need not travel far to begin seeing that the word is still very young,</div>\n  <div class=\"paragraph\">that passage of wisdom between generations is a very fragile process.</div>\n</div>\n<div class=\"section avoid-break-inside\" style=\"padding-bottom: 2rem;\">\n  <div class=\"paragraph\">Many, who are not yet mature enough for the position they have gained, may feign authority,</div>\n  <div class=\"paragraph\">we have to be careful who we listen to and be mindful of the paths they have traveled.</div>\n</div>\n<div class=\"section avoid-break-inside\" style=\"padding-bottom: 2rem;\">\n  <div class=\"paragraph\">We are the sum of all our rising, all our triumph, effort, and intent across all our ages,</div>\n  <div class=\"paragraph\">how we rose, and the choices we made, and the wisdom we grew with, all adds to the sum.</div>\n</div>\n<div class=\"section avoid-break-inside\" style=\"padding-bottom: 2rem;\">\n  <div class=\"paragraph\">That sum doesn't just outline our personality and who we are in the now,</div>\n  <div class=\"paragraph\">it is the structure of our wisdom and the body of our knowledge, directed towards who we will become in the future.</div>\n</div>\n<div class=\"section avoid-break-inside\" style=\"padding-bottom: 2rem;\">\n  <div class=\"paragraph\">A choice we make in the now, will paint a moment in our past, but also influence what is yet to come,</div>\n  <div class=\"paragraph\">and all the choices added together create who we are in the future that we will eventually enter.</div>\n</div>\n<div class=\"section avoid-break-inside\" style=\"padding-bottom: 2rem;\">\n  <div class=\"paragraph\">We must take great care of our choices, we must take care to love ourselves,</div>\n  <div class=\"paragraph\">to find the calm and peace from which we can make healthy decisions that will help us grow.</div>\n</div>\n<div class=\"section avoid-break-inside\" style=\"padding-bottom: 2rem;\">\n  <div class=\"paragraph\">Not everyone will start in a colorful city with good schools and amazing friends,</div>\n  <div class=\"paragraph\">some will struggle to rise out of extremes that will never make sense.</div>\n</div>\n<div class=\"section avoid-break-inside\" style=\"padding-bottom: 2rem;\">\n  <div class=\"paragraph\">But we must still set ourselves on that unlimited path,</div>\n  <div class=\"paragraph\">and get used to the idea of no beginnings, and no ends, just that all too human forward motion.</div>\n</div>\n<div class=\"section avoid-break-inside\" style=\"padding-bottom: 2rem;\">\n  <div class=\"paragraph\">The direction is always the same, move towards wisdom,</div>\n  <div class=\"paragraph\">that is the meeting point of all human beings no matter their circumstance or culture.</div>\n</div>\n<div class=\"section avoid-break-inside\" style=\"padding-bottom: 2rem;\">\n  <div class=\"paragraph\">We begin as children, we mature into adults, and then we must go on to become Great Beings,</div>\n  <div class=\"paragraph\">all Greatness is rooted in Love of Wisdom, and the root of wisdom is found in boldly facing the challenges of life.</div>\n</div>",
  "text": "When we are still learning what the world is,\nwe find comfort in recognizing where something starts, and where it ends.\nKnowing the beginning and seeing the ending helps us feel in control,\nit helps us see the journey's end, or the height of a challenge.\nBut all of that goes away when we begin rising,\neventually we only consider the forward motion it self.\nWe ignore the beginning, we abandon the ends, we ignore the steps,\nand we stop measuring the distance and paying attention to the effort.\nIn advancing forward we learn to recognize that all things must connect,\nwe can only find peace in a mesh-work of common concerns and dreams upheld by all.\nThe roads we must travel have no limits, and it never takes long to catch up,\nnobody falls behind for too long unless they practice resignation.\nWe need not travel far to begin seeing that the word is still very young,\nthat passage of wisdom between generations is a very fragile process.\nMany, who are not yet mature enough for the position they have gained, may feign authority,\nwe have to be careful who we listen to and be mindful of the paths they have traveled.\nWe are the sum of all our rising, all our triumph, effort, and intent across all our ages,\nhow we rose, and the choices we made, and the wisdom we grew with, all adds to the sum.\nThat sum doesn't just outline our personality and who we are in the now,\nit is the structure of our wisdom and the body of our knowledge, directed towards who we will become in the future.\nA choice we make in the now, will paint a moment in our past, but also influence what is yet to come,\nand all the choices added together create who we are in the future that we will eventually enter.\nWe must take great care of our choices, we must take care to love ourselves,\nto find the calm and peace from which we can make healthy decisions that will help us grow.\nNot everyone will start in a colorful city with good schools and amazing friends,\nsome will struggle to rise out of extremes that will never make sense.\nBut we must still set ourselves on that unlimited path,\nand get used to the idea of no beginnings, and no ends, just that all too human forward motion.\nThe direction is always the same, move towards wisdom,\nthat is the meeting point of all human beings no matter their circumstance or culture.\nWe begin as children, we mature into adults, and then we must go on to become Great Beings,\nall Greatness is rooted in Love of Wisdom, and the root of wisdom is found in boldly facing the challenges of life.",
  "images": [],
  "links": []
}