{
  "title": "Breaking Out Of Indoctrination",
  "date": "2021-05-31T23:52:29.418Z",
  "image": "poetry-0457-illustration.jpg",
  "audio": "poetry-0457.mp3",
  "artwork": "https://unsplash.com/photos/e1TqPm5G5-M",
  "id": "furkies-purrkies-poetry-0457",
  "attachments": {},
  "guid": "2c8a4286-3c61-4547-89ed-94b6fef714aa"
}
