{
  "name": "furkies-purrkies-poetry-0810",
  "id": "furkies-purrkies-poetry-0810",
  "title": "Snarkedy Snarks: A Caaaall To Literary Greatness",
  "date": "2022-05-19T17:24:28.048Z",
  "image": "poetry-0810-illustration.jpg",
  "artwork": "https://unsplash.com/photos/-DnKOro7GaQ",
  "audio": "poetry-0810.mp3",
  "guid": "02e3bd44-57a0-4970-a5a9-02eb3a50392a",
  "html": "<div class=\"section\">\n  <p>People talk about Mr. Sagan,<br><a href=\"https://www.youtube.com/watch?v=xG-XUbXg_TU\">predicting future</a>.</p>\n  <p>Others like me; want Mr. Vonnegut to return,<br>and I want Mr. Hitchens, and Sir Robinson, Mr. Bukowski, and Miss Rand to return too... somehow.</p>\n</div>\n<div class=\"section\">\n  <hr>\n</div>\n<div class=\"section\">\n  <p>Life is too short,<br>to be this unfair.</p>\n  <p>But that is not,<br>the right way to think.</p>\n  <p>Mr. Sagan reminds us,<br>that we too have responsibilities.</p>\n</div>\n<div class=\"section\">\n  <hr>\n</div>\n<div class=\"section\">\n  <p>In the same way that Gaia exits,<br>where all organisms on earth can be poetically viewed as one.</p>\n  <p>There also exists a voice, poetically speaking,<br>it has been called the spirit of our age, the Zeitgeist.</p>\n  <p>I dare say Mr. Vonnegut would remind us that this is our age now,<br>not fake teachers, moron charlatans, dipsomaniacs, or childlike dictators.</p>\n  <p>Gaia and the Zeitgeist are helping us to great poetry,<br>they are delivering to us what they have once granted to the Greats.</p>\n</div>\n<div class=\"section\">\n  <hr>\n</div>\n<div class=\"section\">\n  <p>Gaia’s call,<br>was heard loud and clear by our generations.</p>\n  <p>But the Zeitgeist is not as serious, I think it has always been in great part,<br>a treasure chest of very sophisticated humor waiting to be aired.</p>\n  <p>It is time for a new generation of writers,<br>to hear the Zeitgeist, to open this magnificent chest of yet unspeakable treasure.</p>\n</div>\n<div class=\"section\">\n  <hr>\n</div>\n<div class=\"section\">\n  <p>It seems on the day the Congress of United States,<br>begun researching the fancy UFO/s.</p>\n  <p>Though not before they tried to save face,<br>and in the last desperate second invented a new acronym UAP.</p>\n  <p>UAP which secretly means:<br>Uneducated Asinine Politicians.</p>\n</div>\n<div class=\"section\">\n  <hr>\n</div>\n<div class=\"section\">\n  <p>DARPA begun studying the reason why fringe beliefs,<br>float to the top, so to speak.</p>\n  <p>Similarly how <strong>they</strong> floated to the top of class,<br>by cramming, and tolerating fake education, never asking about the real deal.</p>\n  <p>And also the reason,<br>why they will study Twitter, and possibly Electolytes that plants crave.</p>\n  <p>And never detect, that their doctorates, and paychecks,<br>are fake, as fake as the education they received in the overpriced schools that made them into no less than a sausage.</p>\n</div>\n<div class=\"section\">\n  <hr>\n</div>\n<div class=\"section\">\n  <p>This is a gold mine,<br>this is not a mere event but a phenomenon of some kind.</p>\n  <p>A wellspring of the snarkiest of snarky snarks,<br>countless books, and even more countless articles.</p>\n  <p>And my gosh, I swear to goodness, your works will get published,<br>so fast that, faster than a UFO can soil a a politician’s legacy.</p>\n  <p>You know, Vonnegut and Bukowski,<br>can’t handle this, it would be too beautiful for them.</p>\n  <p>They would want us to pick up where they left off,<br>they would want to read your works.</p>\n  <p>Raw and radiant,<br>not yet made classy with age, but snarked snarkedy out of your very youth.</p>\n</div>\n<div class=\"section\">\n  <hr>\n</div>\n<div class=\"section\">\n  <p>The Greatest Minds, would want you, you!<br>to pen the new snarky adventures of heroines and anti-heroes...</p>\n  <p>Who today, sadly, to us tragically,<br>are only known to your heart or soul...</p>\n  <p>Locked in the Brilliance of your mind,<br>yet to be writ, in your wit.</p>\n</div>",
  "bootstrap": "<div class=\"card card-section bg-dark text-warning shadow\">\n  <div class=\"section card-body mb-0 my-2\">\n    <div class=\"paragraph card-text card-stanza my-5 text-center\">People talk about Mr. Sagan,<br><a href=\"https://www.youtube.com/watch?v=xG-XUbXg_TU\">predicting future</a>.</div>\n    <div class=\"paragraph card-text card-stanza my-5 text-center\">Others like me; want Mr. Vonnegut to return,<br>and I want Mr. Hitchens, and Sir Robinson, Mr. Bukowski, and Miss Rand to return too... somehow.</div>\n  </div>\n</div>\n<div class=\"mb-5 section-spacer\">&nbsp;</div>\n<div class=\"card card-section bg-dark text-warning shadow\">\n  <div class=\"section card-body mb-0 my-2\">\n    <div class=\"paragraph card-text card-stanza my-5 text-center\">Life is too short,<br>to be this unfair.</div>\n    <div class=\"paragraph card-text card-stanza my-5 text-center\">But that is not,<br>the right way to think.</div>\n    <div class=\"paragraph card-text card-stanza my-5 text-center\">Mr. Sagan reminds us,<br>that we too have responsibilities.</div>\n  </div>\n</div>\n<div class=\"mb-5 section-spacer\">&nbsp;</div>\n<div class=\"card card-section bg-dark text-warning shadow\">\n  <div class=\"section card-body mb-0 my-2\">\n    <div class=\"paragraph card-text card-stanza my-5 text-center\">In the same way that Gaia exits,<br>where all organisms on earth can be poetically viewed as one.</div>\n    <div class=\"paragraph card-text card-stanza my-5 text-center\">There also exists a voice, poetically speaking,<br>it has been called the spirit of our age, the Zeitgeist.</div>\n    <div class=\"paragraph card-text card-stanza my-5 text-center\">I dare say Mr. Vonnegut would remind us that this is our age now,<br>not fake teachers, moron charlatans, dipsomaniacs, or childlike dictators.</div>\n    <div class=\"paragraph card-text card-stanza my-5 text-center\">Gaia and the Zeitgeist are helping us to great poetry,<br>they are delivering to us what they have once granted to the Greats.</div>\n  </div>\n</div>\n<div class=\"mb-5 section-spacer\">&nbsp;</div>\n<div class=\"card card-section bg-dark text-warning shadow\">\n  <div class=\"section card-body mb-0 my-2\">\n    <div class=\"paragraph card-text card-stanza my-5 text-center\">Gaia’s call,<br>was heard loud and clear by our generations.</div>\n    <div class=\"paragraph card-text card-stanza my-5 text-center\">But the Zeitgeist is not as serious, I think it has always been in great part,<br>a treasure chest of very sophisticated humor waiting to be aired.</div>\n    <div class=\"paragraph card-text card-stanza my-5 text-center\">It is time for a new generation of writers,<br>to hear the Zeitgeist, to open this magnificent chest of yet unspeakable treasure.</div>\n  </div>\n</div>\n<div class=\"mb-5 section-spacer\">&nbsp;</div>\n<div class=\"card card-section bg-dark text-warning shadow\">\n  <div class=\"section card-body mb-0 my-2\">\n    <div class=\"paragraph card-text card-stanza my-5 text-center\">It seems on the day the Congress of United States,<br>begun researching the fancy UFO/s.</div>\n    <div class=\"paragraph card-text card-stanza my-5 text-center\">Though not before they tried to save face,<br>and in the last desperate second invented a new acronym UAP.</div>\n    <div class=\"paragraph card-text card-stanza my-5 text-center\">UAP which secretly means:<br>Uneducated Asinine Politicians.</div>\n  </div>\n</div>\n<div class=\"mb-5 section-spacer\">&nbsp;</div>\n<div class=\"card card-section bg-dark text-warning shadow\">\n  <div class=\"section card-body mb-0 my-2\">\n    <div class=\"paragraph card-text card-stanza my-5 text-center\">DARPA begun studying the reason why fringe beliefs,<br>float to the top, so to speak.</div>\n    <div class=\"paragraph card-text card-stanza my-5 text-center\">Similarly how <strong>they</strong> floated to the top of class,<br>by cramming, and tolerating fake education, never asking about the real deal.</div>\n    <div class=\"paragraph card-text card-stanza my-5 text-center\">And also the reason,<br>why they will study Twitter, and possibly Electolytes that plants crave.</div>\n    <div class=\"paragraph card-text card-stanza my-5 text-center\">And never detect, that their doctorates, and paychecks,<br>are fake, as fake as the education they received in the overpriced schools that made them into no less than a sausage.</div>\n  </div>\n</div>\n<div class=\"mb-5 section-spacer\">&nbsp;</div>\n<div class=\"card card-section bg-dark text-warning shadow\">\n  <div class=\"section card-body mb-0 my-2\">\n    <div class=\"paragraph card-text card-stanza my-5 text-center\">This is a gold mine,<br>this is not a mere event but a phenomenon of some kind.</div>\n    <div class=\"paragraph card-text card-stanza my-5 text-center\">A wellspring of the snarkiest of snarky snarks,<br>countless books, and even more countless articles.</div>\n    <div class=\"paragraph card-text card-stanza my-5 text-center\">And my gosh, I swear to goodness, your works will get published,<br>so fast that, faster than a UFO can soil a a politician’s legacy.</div>\n    <div class=\"paragraph card-text card-stanza my-5 text-center\">You know, Vonnegut and Bukowski,<br>can’t handle this, it would be too beautiful for them.</div>\n    <div class=\"paragraph card-text card-stanza my-5 text-center\">They would want us to pick up where they left off,<br>they would want to read your works.</div>\n    <div class=\"paragraph card-text card-stanza my-5 text-center\">Raw and radiant,<br>not yet made classy with age, but snarked snarkedy out of your very youth.</div>\n  </div>\n</div>\n<div class=\"mb-5 section-spacer\">&nbsp;</div>\n<div class=\"card card-section bg-dark text-warning shadow\">\n  <div class=\"section card-body mb-0 my-2\">\n    <div class=\"paragraph card-text card-stanza my-5 text-center\">The Greatest Minds, would want you, you!<br>to pen the new snarky adventures of heroines and anti-heroes...</div>\n    <div class=\"paragraph card-text card-stanza my-5 text-center\">Who today, sadly, to us tragically,<br>are only known to your heart or soul...</div>\n    <div class=\"paragraph card-text card-stanza my-5 text-center\">Locked in the Brilliance of your mind,<br>yet to be writ, in your wit.</div>\n  </div>\n</div>",
  "print": "<div class=\"section avoid-break-inside\" style=\"padding-bottom: 2rem;\">\n  <div class=\"paragraph\">People talk about Mr. Sagan,<br><span>predicting future<sup>[1]</sup></span>.</div>\n  <div class=\"paragraph\">Others like me; want Mr. Vonnegut to return,<br>and I want Mr. Hitchens, and Sir Robinson, Mr. Bukowski, and Miss Rand to return too... somehow.</div>\n</div>\n<div class=\"section avoid-break-inside\" style=\"padding-bottom: 2rem;\">\n  <br>\n</div>\n<div class=\"section avoid-break-inside\" style=\"padding-bottom: 2rem;\">\n  <div class=\"paragraph\">Life is too short,<br>to be this unfair.</div>\n  <div class=\"paragraph\">But that is not,<br>the right way to think.</div>\n  <div class=\"paragraph\">Mr. Sagan reminds us,<br>that we too have responsibilities.</div>\n</div>\n<div class=\"section avoid-break-inside\" style=\"padding-bottom: 2rem;\">\n  <br>\n</div>\n<div class=\"section avoid-break-inside\" style=\"padding-bottom: 2rem;\">\n  <div class=\"paragraph\">In the same way that Gaia exits,<br>where all organisms on earth can be poetically viewed as one.</div>\n  <div class=\"paragraph\">There also exists a voice, poetically speaking,<br>it has been called the spirit of our age, the Zeitgeist.</div>\n  <div class=\"paragraph\">I dare say Mr. Vonnegut would remind us that this is our age now,<br>not fake teachers, moron charlatans, dipsomaniacs, or childlike dictators.</div>\n  <div class=\"paragraph\">Gaia and the Zeitgeist are helping us to great poetry,<br>they are delivering to us what they have once granted to the Greats.</div>\n</div>\n<div class=\"section avoid-break-inside\" style=\"padding-bottom: 2rem;\">\n  <br>\n</div>\n<div class=\"section avoid-break-inside\" style=\"padding-bottom: 2rem;\">\n  <div class=\"paragraph\">Gaia’s call,<br>was heard loud and clear by our generations.</div>\n  <div class=\"paragraph\">But the Zeitgeist is not as serious, I think it has always been in great part,<br>a treasure chest of very sophisticated humor waiting to be aired.</div>\n  <div class=\"paragraph\">It is time for a new generation of writers,<br>to hear the Zeitgeist, to open this magnificent chest of yet unspeakable treasure.</div>\n</div>\n<div class=\"section avoid-break-inside\" style=\"padding-bottom: 2rem;\">\n  <br>\n</div>\n<div class=\"section avoid-break-inside\" style=\"padding-bottom: 2rem;\">\n  <div class=\"paragraph\">It seems on the day the Congress of United States,<br>begun researching the fancy UFO/s.</div>\n  <div class=\"paragraph\">Though not before they tried to save face,<br>and in the last desperate second invented a new acronym UAP.</div>\n  <div class=\"paragraph\">UAP which secretly means:<br>Uneducated Asinine Politicians.</div>\n</div>\n<div class=\"section avoid-break-inside\" style=\"padding-bottom: 2rem;\">\n  <br>\n</div>\n<div class=\"section avoid-break-inside\" style=\"padding-bottom: 2rem;\">\n  <div class=\"paragraph\">DARPA begun studying the reason why fringe beliefs,<br>float to the top, so to speak.</div>\n  <div class=\"paragraph\">Similarly how <strong>they</strong> floated to the top of class,<br>by cramming, and tolerating fake education, never asking about the real deal.</div>\n  <div class=\"paragraph\">And also the reason,<br>why they will study Twitter, and possibly Electolytes that plants crave.</div>\n  <div class=\"paragraph\">And never detect, that their doctorates, and paychecks,<br>are fake, as fake as the education they received in the overpriced schools that made them into no less than a sausage.</div>\n</div>\n<div class=\"section avoid-break-inside\" style=\"padding-bottom: 2rem;\">\n  <br>\n</div>\n<div class=\"section avoid-break-inside\" style=\"padding-bottom: 2rem;\">\n  <div class=\"paragraph\">This is a gold mine,<br>this is not a mere event but a phenomenon of some kind.</div>\n  <div class=\"paragraph\">A wellspring of the snarkiest of snarky snarks,<br>countless books, and even more countless articles.</div>\n  <div class=\"paragraph\">And my gosh, I swear to goodness, your works will get published,<br>so fast that, faster than a UFO can soil a a politician’s legacy.</div>\n  <div class=\"paragraph\">You know, Vonnegut and Bukowski,<br>can’t handle this, it would be too beautiful for them.</div>\n  <div class=\"paragraph\">They would want us to pick up where they left off,<br>they would want to read your works.</div>\n  <div class=\"paragraph\">Raw and radiant,<br>not yet made classy with age, but snarked snarkedy out of your very youth.</div>\n</div>\n<div class=\"section avoid-break-inside\" style=\"padding-bottom: 2rem;\">\n  <br>\n</div>\n<div class=\"section avoid-break-inside\" style=\"padding-bottom: 2rem;\">\n  <div class=\"paragraph\">The Greatest Minds, would want you, you!<br>to pen the new snarky adventures of heroines and anti-heroes...</div>\n  <div class=\"paragraph\">Who today, sadly, to us tragically,<br>are only known to your heart or soul...</div>\n  <div class=\"paragraph\">Locked in the Brilliance of your mind,<br>yet to be writ, in your wit.</div>\n</div>\n<div class=\"break-after\">&nbsp;</div>\n<div>\n  <div class=\"section\" style=\"padding-bottom: 1rem;\">References</div>\n  <div>[1]: https://www.youtube.com/watch?v=xG-XUbXg_TU</div>\n</div>",
  "text": "People talk about Mr. Sagan,\npredicting future[1].\nOthers like me; want Mr. Vonnegut to return,\nand I want Mr. Hitchens, and Sir Robinson, Mr. Bukowski, and Miss Rand to return too... somehow.\n\nLife is too short,\nto be this unfair.\nBut that is not,\nthe right way to think.\nMr. Sagan reminds us,\nthat we too have responsibilities.\n\nIn the same way that Gaia exits,\nwhere all organisms on earth can be poetically viewed as one.\nThere also exists a voice, poetically speaking,\nit has been called the spirit of our age, the Zeitgeist.\nI dare say Mr. Vonnegut would remind us that this is our age now,\nnot fake teachers, moron charlatans, dipsomaniacs, or childlike dictators.\nGaia and the Zeitgeist are helping us to great poetry,\nthey are delivering to us what they have once granted to the Greats.\n\nGaia’s call,\nwas heard loud and clear by our generations.\nBut the Zeitgeist is not as serious, I think it has always been in great part,\na treasure chest of very sophisticated humor waiting to be aired.\nIt is time for a new generation of writers,\nto hear the Zeitgeist, to open this magnificent chest of yet unspeakable treasure.\n\nIt seems on the day the Congress of United States,\nbegun researching the fancy UFO/s.\nThough not before they tried to save face,\nand in the last desperate second invented a new acronym UAP.\nUAP which secretly means:\nUneducated Asinine Politicians.\n\nDARPA begun studying the reason why fringe beliefs,\nfloat to the top, so to speak.\nSimilarly how they floated to the top of class,\nby cramming, and tolerating fake education, never asking about the real deal.\nAnd also the reason,\nwhy they will study Twitter, and possibly Electolytes that plants crave.\nAnd never detect, that their doctorates, and paychecks,\nare fake, as fake as the education they received in the overpriced schools that made them into no less than a sausage.\n\nThis is a gold mine,\nthis is not a mere event but a phenomenon of some kind.\nA wellspring of the snarkiest of snarky snarks,\ncountless books, and even more countless articles.\nAnd my gosh, I swear to goodness, your works will get published,\nso fast that, faster than a UFO can soil a a politician’s legacy.\nYou know, Vonnegut and Bukowski,\ncan’t handle this, it would be too beautiful for them.\nThey would want us to pick up where they left off,\nthey would want to read your works.\nRaw and radiant,\nnot yet made classy with age, but snarked snarkedy out of your very youth.\n\nThe Greatest Minds, would want you, you!\nto pen the new snarky adventures of heroines and anti-heroes...\nWho today, sadly, to us tragically,\nare only known to your heart or soul...\nLocked in the Brilliance of your mind,\nyet to be writ, in your wit.\n \nReferences\n[1]: https://www.youtube.com/watch?v=xG-XUbXg_TU",
  "images": [],
  "links": [
    {
      "title": "predicting future",
      "url": "https://www.youtube.com/watch?v=xG-XUbXg_TU",
      "hostname": "www.youtube.com"
    }
  ]
}