{
  "title": "A More Capable World",
  "date": "2020-12-10T02:15:45.858Z",
  "image": "poetry-0284-illustration.jpg",
  "audio": "poetry-0284.mp3",
  "artwork": "https://unsplash.com/",
  "id": "furkies-purrkies-poetry-0284",
  "attachments": {},
  "guid": "6af88845-8ab6-40ab-ae29-d3a5a62f9222"
}
