{
  "title": "You Do Not Need Theory",
  "date": "2021-02-14T18:32:32.843Z",
  "image": "poetry-0351-illustration.jpg",
  "audio": "poetry-0351.mp3",
  "artwork": "https://unsplash.com/photos/_wa-7a6cvfQ",
  "id": "furkies-purrkies-poetry-0351",
  "attachments": {},
  "guid": "fe07000e-f512-4a66-824b-18d288e2ebd7"
}
