{
  "id": "furkies-purrkies-poetry-0710",
  "title": "Get Mad And Turn Everyone Into A Bobblehead",
  "date": "2022-02-08T23:11:39.727Z",
  "image": "poetry-0710-illustration.jpg",
  "artwork": "https://catpea.com",
  "audio": "poetry-0710.mp3",
  "guid": "f55ad29f-29d0-4cec-877d-085006ed6f5c"
}
