{
  "title": "We Are Not Robots",
  "date": "2020-05-11T01:57:32.195Z",
  "image": "poetry-0066-illustration.jpg",
  "audio": "poetry-0066.mp3",
  "id": "furkies-purrkies-poetry-0066",
  "attachments": {},
  "guid": "0bde9c3c-8387-4568-8a05-2cb1fbd934df"
}
