{
  "title": "A Couple Of Sandwiches Shy Of A Picnic",
  "date": "2020-06-19T03:11:39.159Z",
  "image": "poetry-0111-illustration.jpg",
  "audio": "poetry-0111.mp3",
  "id": "furkies-purrkies-poetry-0111",
  "attachments": {},
  "guid": "e5ef7f8d-8ab0-4fc9-9567-857038eb3ce6"
}
