{
  "id": "furkies-purrkies-poetry-0537",
  "title": "Transforming Fake Education Into Real Education",
  "date": "2021-08-19T21:38:18.625Z",
  "image": "poetry-0537-illustration.jpg",
  "artwork": "https://unsplash.com/photos/IXTvnOOSTyU",
  "audio": "poetry-0537.mp3",
  "guid": "b5c6fbfb-dd7e-481e-8c6a-def25e364067"
}
