{
  "title": "Fight For Your Greatness",
  "date": "2020-12-20T00:17:27.576Z",
  "image": "poetry-0294-illustration.jpg",
  "audio": "poetry-0294.mp3",
  "artwork": "https://unsplash.com/photos/ylE5CGMfUJk",
  "id": "furkies-purrkies-poetry-0294",
  "attachments": {},
  "guid": "8ca6b2f7-fb03-441d-88af-817c6aeb3244"
}
