{
  "name": "furkies-purrkies-poetry-0264",
  "title": "Science and Wisdom: From Led to Gold, Let The Universe Unfold",
  "date": "2020-11-20T01:36:53.270Z",
  "image": "poetry-0264-illustration.jpg",
  "audio": "poetry-0264.mp3",
  "artwork": "https://unsplash.com/photos/e_hQZ2EM-Qg",
  "id": "furkies-purrkies-poetry-0264",
  "attachments": {},
  "guid": "396094c4-23a7-4640-a43a-41dc9677bfd6",
  "html": "<div class=\"section\">\n  <p>A hole in the window curtain,</p>\n  <p>lets a stray ray of light in.</p>\n</div>\n<div class=\"section\">\n  <p>The light displays a blurry image,</p>\n  <p>of what is outside, a pin hole camera.</p>\n</div>\n<div class=\"section\">\n  <p>As the beam travels along the wall,</p>\n  <p>he can imagine the entire solar system.</p>\n</div>\n<div class=\"section\">\n  <p>He knows the planet spins and rotates,</p>\n  <p>by inference from Jupiter Io, Europa, Ganymede, and Callisto.</p>\n</div>\n<div class=\"section\">\n  <p>And now slowly the light,</p>\n  <p>reaches an old crystal vase.</p>\n</div>\n<div class=\"section\">\n  <p>There is a rainbow,</p>\n  <p>the beam of light is unfurled.</p>\n</div>\n<div class=\"section\">\n  <p>He&apos;s counting the colors,</p>\n  <p>and a violin plays.</p>\n</div>\n<div class=\"section\">\n  <p>And A becomes Blue,</p>\n  <p>B is Indigo,</p>\n  <p>C turns Violet,</p>\n  <p>D is Red,</p>\n  <p>E becomes Orange,</p>\n  <p>F is Yellow,</p>\n  <p>and G glows Green.</p>\n</div>\n<div class=\"section\">\n  <p>He watched the whole thing,</p>\n  <p>in bed, in silence.</p>\n</div>\n<div class=\"section\">\n  <p>He knows now he will turn led to gold,</p>\n  <p>let the Clockwork Universe, Unfold.</p>\n</div>\n<div class=\"section\">\n  <hr>\n</div>\n<div class=\"section\">\n  <p>You are so lucky that you live in an age where you can pull up,</p>\n  <p>Newton&apos;s book on <a href=\"https://www.gutenberg.org/files/33504/33504-h/33504-h.htm\">opticks</a> with the click of a link.</p>\n</div>\n<div class=\"section\">\n  <p>In most cases you can&apos;t be stopped by by research you have not yet conducted,</p>\n  <p>and you don&apos;t have to invent much from scratch, you just need a science book.</p>\n</div>\n<div class=\"section\">\n  <p>You have the same mental powers as Newton and all the others,</p>\n  <p>but you DO, have to slow down, and think about things just like they did.</p>\n</div>\n<div class=\"section\">\n  <hr>\n</div>\n<div class=\"section\">\n  <p>Learning or catching up,</p>\n  <p>is an Art.</p>\n</div>\n<div class=\"section\">\n  <p>Even though you have all the answers before you,</p>\n  <p>you can&apos;t read it all at once.</p>\n</div>\n<div class=\"section\">\n  <p>You have to follow one thread at a time,</p>\n  <p>our minds need time to comprehend and rearrange.</p>\n</div>\n<div class=\"section\">\n  <p>Like the body of a dancer needs time to adapt,</p>\n  <p>we have to learn at a precise pace, and sequence.</p>\n</div>\n<div class=\"section\">\n  <p>It is very similar to learning the roads of a new city,</p>\n  <p>you never say to your self I am not smart enough to navigate.</p>\n</div>\n<div class=\"section\">\n  <p>Because you never listen to confusing directions,</p>\n  <p>you just follow a single road at your own pace and eventually master it.</p>\n</div>\n<div class=\"section\">\n  <hr>\n</div>\n<div class=\"section\">\n  <p>See, Newton learned from works of Galileo,</p>\n  <p>who passed away the year Newton was born.</p>\n</div>\n<div class=\"section\">\n  <p>And although Newton never did convert led to gold,</p>\n  <p>the led of his pencil, became even more precious.</p>\n</div>\n<div class=\"section\">\n  <p>Many of Newton&apos;s works,</p>\n  <p>must have fascinated Henry Cavendish.</p>\n</div>\n<div class=\"section\">\n  <p>And Einstein no doubt appreciated the modes of thinking these men revealed,</p>\n  <p>even though he never figured out his <a href=\"https://www.youtube.com/watch?v=JFozGfxmi8A\">Spooky Action at a Distance</a>.</p>\n</div>\n<div class=\"section\">\n  <p>They all learned much along the way,</p>\n  <p>and each became wise for trying.</p>\n</div>\n<div class=\"section\">\n  <p>(Soundtrack <a href=\"https://musopen.org/music/11140-the-fairy-queen-z629/\">Purcell The Fairy Queen, Z.629</a>)</p>\n</div>",
  "bootstrap": "<div class=\"card card-section bg-dark text-warning shadow\">\n  <div class=\"section card-body mb-0 my-2\">\n    <div class=\"paragraph card-text card-stanza my-5 text-center\">A hole in the window curtain,</div>\n    <div class=\"paragraph card-text card-stanza my-5 text-center\">lets a stray ray of light in.</div>\n  </div>\n</div>\n<div class=\"card card-section bg-dark text-warning shadow\">\n  <div class=\"section card-body mb-0 my-2\">\n    <div class=\"paragraph card-text card-stanza my-5 text-center\">The light displays a blurry image,</div>\n    <div class=\"paragraph card-text card-stanza my-5 text-center\">of what is outside, a pin hole camera.</div>\n  </div>\n</div>\n<div class=\"card card-section bg-dark text-warning shadow\">\n  <div class=\"section card-body mb-0 my-2\">\n    <div class=\"paragraph card-text card-stanza my-5 text-center\">As the beam travels along the wall,</div>\n    <div class=\"paragraph card-text card-stanza my-5 text-center\">he can imagine the entire solar system.</div>\n  </div>\n</div>\n<div class=\"card card-section bg-dark text-warning shadow\">\n  <div class=\"section card-body mb-0 my-2\">\n    <div class=\"paragraph card-text card-stanza my-5 text-center\">He knows the planet spins and rotates,</div>\n    <div class=\"paragraph card-text card-stanza my-5 text-center\">by inference from Jupiter Io, Europa, Ganymede, and Callisto.</div>\n  </div>\n</div>\n<div class=\"card card-section bg-dark text-warning shadow\">\n  <div class=\"section card-body mb-0 my-2\">\n    <div class=\"paragraph card-text card-stanza my-5 text-center\">And now slowly the light,</div>\n    <div class=\"paragraph card-text card-stanza my-5 text-center\">reaches an old crystal vase.</div>\n  </div>\n</div>\n<div class=\"card card-section bg-dark text-warning shadow\">\n  <div class=\"section card-body mb-0 my-2\">\n    <div class=\"paragraph card-text card-stanza my-5 text-center\">There is a rainbow,</div>\n    <div class=\"paragraph card-text card-stanza my-5 text-center\">the beam of light is unfurled.</div>\n  </div>\n</div>\n<div class=\"card card-section bg-dark text-warning shadow\">\n  <div class=\"section card-body mb-0 my-2\">\n    <div class=\"paragraph card-text card-stanza my-5 text-center\">He's counting the colors,</div>\n    <div class=\"paragraph card-text card-stanza my-5 text-center\">and a violin plays.</div>\n  </div>\n</div>\n<div class=\"card card-section bg-dark text-warning shadow\">\n  <div class=\"section card-body mb-0 my-2\">\n    <div class=\"paragraph card-text card-stanza my-5 text-center\">And A becomes Blue,</div>\n    <div class=\"paragraph card-text card-stanza my-5 text-center\">B is Indigo,</div>\n    <div class=\"paragraph card-text card-stanza my-5 text-center\">C turns Violet,</div>\n    <div class=\"paragraph card-text card-stanza my-5 text-center\">D is Red,</div>\n    <div class=\"paragraph card-text card-stanza my-5 text-center\">E becomes Orange,</div>\n    <div class=\"paragraph card-text card-stanza my-5 text-center\">F is Yellow,</div>\n    <div class=\"paragraph card-text card-stanza my-5 text-center\">and G glows Green.</div>\n  </div>\n</div>\n<div class=\"card card-section bg-dark text-warning shadow\">\n  <div class=\"section card-body mb-0 my-2\">\n    <div class=\"paragraph card-text card-stanza my-5 text-center\">He watched the whole thing,</div>\n    <div class=\"paragraph card-text card-stanza my-5 text-center\">in bed, in silence.</div>\n  </div>\n</div>\n<div class=\"card card-section bg-dark text-warning shadow\">\n  <div class=\"section card-body mb-0 my-2\">\n    <div class=\"paragraph card-text card-stanza my-5 text-center\">He knows now he will turn led to gold,</div>\n    <div class=\"paragraph card-text card-stanza my-5 text-center\">let the Clockwork Universe, Unfold.</div>\n  </div>\n</div>\n<div class=\"mb-5 section-spacer\">&nbsp;</div>\n<div class=\"card card-section bg-dark text-warning shadow\">\n  <div class=\"section card-body mb-0 my-2\">\n    <div class=\"paragraph card-text card-stanza my-5 text-center\">You are so lucky that you live in an age where you can pull up,</div>\n    <div class=\"paragraph card-text card-stanza my-5 text-center\">Newton's book on <a href=\"https://www.gutenberg.org/files/33504/33504-h/33504-h.htm\">opticks</a> with the click of a link.</div>\n  </div>\n</div>\n<div class=\"card card-section bg-dark text-warning shadow\">\n  <div class=\"section card-body mb-0 my-2\">\n    <div class=\"paragraph card-text card-stanza my-5 text-center\">In most cases you can't be stopped by by research you have not yet conducted,</div>\n    <div class=\"paragraph card-text card-stanza my-5 text-center\">and you don't have to invent much from scratch, you just need a science book.</div>\n  </div>\n</div>\n<div class=\"card card-section bg-dark text-warning shadow\">\n  <div class=\"section card-body mb-0 my-2\">\n    <div class=\"paragraph card-text card-stanza my-5 text-center\">You have the same mental powers as Newton and all the others,</div>\n    <div class=\"paragraph card-text card-stanza my-5 text-center\">but you DO, have to slow down, and think about things just like they did.</div>\n  </div>\n</div>\n<div class=\"mb-5 section-spacer\">&nbsp;</div>\n<div class=\"card card-section bg-dark text-warning shadow\">\n  <div class=\"section card-body mb-0 my-2\">\n    <div class=\"paragraph card-text card-stanza my-5 text-center\">Learning or catching up,</div>\n    <div class=\"paragraph card-text card-stanza my-5 text-center\">is an Art.</div>\n  </div>\n</div>\n<div class=\"card card-section bg-dark text-warning shadow\">\n  <div class=\"section card-body mb-0 my-2\">\n    <div class=\"paragraph card-text card-stanza my-5 text-center\">Even though you have all the answers before you,</div>\n    <div class=\"paragraph card-text card-stanza my-5 text-center\">you can't read it all at once.</div>\n  </div>\n</div>\n<div class=\"card card-section bg-dark text-warning shadow\">\n  <div class=\"section card-body mb-0 my-2\">\n    <div class=\"paragraph card-text card-stanza my-5 text-center\">You have to follow one thread at a time,</div>\n    <div class=\"paragraph card-text card-stanza my-5 text-center\">our minds need time to comprehend and rearrange.</div>\n  </div>\n</div>\n<div class=\"card card-section bg-dark text-warning shadow\">\n  <div class=\"section card-body mb-0 my-2\">\n    <div class=\"paragraph card-text card-stanza my-5 text-center\">Like the body of a dancer needs time to adapt,</div>\n    <div class=\"paragraph card-text card-stanza my-5 text-center\">we have to learn at a precise pace, and sequence.</div>\n  </div>\n</div>\n<div class=\"card card-section bg-dark text-warning shadow\">\n  <div class=\"section card-body mb-0 my-2\">\n    <div class=\"paragraph card-text card-stanza my-5 text-center\">It is very similar to learning the roads of a new city,</div>\n    <div class=\"paragraph card-text card-stanza my-5 text-center\">you never say to your self I am not smart enough to navigate.</div>\n  </div>\n</div>\n<div class=\"card card-section bg-dark text-warning shadow\">\n  <div class=\"section card-body mb-0 my-2\">\n    <div class=\"paragraph card-text card-stanza my-5 text-center\">Because you never listen to confusing directions,</div>\n    <div class=\"paragraph card-text card-stanza my-5 text-center\">you just follow a single road at your own pace and eventually master it.</div>\n  </div>\n</div>\n<div class=\"mb-5 section-spacer\">&nbsp;</div>\n<div class=\"card card-section bg-dark text-warning shadow\">\n  <div class=\"section card-body mb-0 my-2\">\n    <div class=\"paragraph card-text card-stanza my-5 text-center\">See, Newton learned from works of Galileo,</div>\n    <div class=\"paragraph card-text card-stanza my-5 text-center\">who passed away the year Newton was born.</div>\n  </div>\n</div>\n<div class=\"card card-section bg-dark text-warning shadow\">\n  <div class=\"section card-body mb-0 my-2\">\n    <div class=\"paragraph card-text card-stanza my-5 text-center\">And although Newton never did convert led to gold,</div>\n    <div class=\"paragraph card-text card-stanza my-5 text-center\">the led of his pencil, became even more precious.</div>\n  </div>\n</div>\n<div class=\"card card-section bg-dark text-warning shadow\">\n  <div class=\"section card-body mb-0 my-2\">\n    <div class=\"paragraph card-text card-stanza my-5 text-center\">Many of Newton's works,</div>\n    <div class=\"paragraph card-text card-stanza my-5 text-center\">must have fascinated Henry Cavendish.</div>\n  </div>\n</div>\n<div class=\"card card-section bg-dark text-warning shadow\">\n  <div class=\"section card-body mb-0 my-2\">\n    <div class=\"paragraph card-text card-stanza my-5 text-center\">And Einstein no doubt appreciated the modes of thinking these men revealed,</div>\n    <div class=\"paragraph card-text card-stanza my-5 text-center\">even though he never figured out his <a href=\"https://www.youtube.com/watch?v=JFozGfxmi8A\">Spooky Action at a Distance</a>.</div>\n  </div>\n</div>\n<div class=\"card card-section bg-dark text-warning shadow\">\n  <div class=\"section card-body mb-0 my-2\">\n    <div class=\"paragraph card-text card-stanza my-5 text-center\">They all learned much along the way,</div>\n    <div class=\"paragraph card-text card-stanza my-5 text-center\">and each became wise for trying.</div>\n  </div>\n</div>\n<div class=\"card card-section bg-dark text-warning shadow\">\n  <div class=\"section card-body mb-0 my-2\">\n    <div class=\"paragraph card-text card-stanza my-5 text-center\">(Soundtrack <a href=\"https://musopen.org/music/11140-the-fairy-queen-z629/\">Purcell The Fairy Queen, Z.629</a>)</div>\n  </div>\n</div>",
  "print": "<div class=\"section avoid-break-inside\" style=\"padding-bottom: 2rem;\">\n  <div class=\"paragraph\">A hole in the window curtain,</div>\n  <div class=\"paragraph\">lets a stray ray of light in.</div>\n</div>\n<div class=\"section avoid-break-inside\" style=\"padding-bottom: 2rem;\">\n  <div class=\"paragraph\">The light displays a blurry image,</div>\n  <div class=\"paragraph\">of what is outside, a pin hole camera.</div>\n</div>\n<div class=\"section avoid-break-inside\" style=\"padding-bottom: 2rem;\">\n  <div class=\"paragraph\">As the beam travels along the wall,</div>\n  <div class=\"paragraph\">he can imagine the entire solar system.</div>\n</div>\n<div class=\"section avoid-break-inside\" style=\"padding-bottom: 2rem;\">\n  <div class=\"paragraph\">He knows the planet spins and rotates,</div>\n  <div class=\"paragraph\">by inference from Jupiter Io, Europa, Ganymede, and Callisto.</div>\n</div>\n<div class=\"section avoid-break-inside\" style=\"padding-bottom: 2rem;\">\n  <div class=\"paragraph\">And now slowly the light,</div>\n  <div class=\"paragraph\">reaches an old crystal vase.</div>\n</div>\n<div class=\"section avoid-break-inside\" style=\"padding-bottom: 2rem;\">\n  <div class=\"paragraph\">There is a rainbow,</div>\n  <div class=\"paragraph\">the beam of light is unfurled.</div>\n</div>\n<div class=\"section avoid-break-inside\" style=\"padding-bottom: 2rem;\">\n  <div class=\"paragraph\">He's counting the colors,</div>\n  <div class=\"paragraph\">and a violin plays.</div>\n</div>\n<div class=\"section avoid-break-inside\" style=\"padding-bottom: 2rem;\">\n  <div class=\"paragraph\">And A becomes Blue,</div>\n  <div class=\"paragraph\">B is Indigo,</div>\n  <div class=\"paragraph\">C turns Violet,</div>\n  <div class=\"paragraph\">D is Red,</div>\n  <div class=\"paragraph\">E becomes Orange,</div>\n  <div class=\"paragraph\">F is Yellow,</div>\n  <div class=\"paragraph\">and G glows Green.</div>\n</div>\n<div class=\"section avoid-break-inside\" style=\"padding-bottom: 2rem;\">\n  <div class=\"paragraph\">He watched the whole thing,</div>\n  <div class=\"paragraph\">in bed, in silence.</div>\n</div>\n<div class=\"section avoid-break-inside\" style=\"padding-bottom: 2rem;\">\n  <div class=\"paragraph\">He knows now he will turn led to gold,</div>\n  <div class=\"paragraph\">let the Clockwork Universe, Unfold.</div>\n</div>\n<div class=\"section avoid-break-inside\" style=\"padding-bottom: 2rem;\">\n  <br>\n</div>\n<div class=\"section avoid-break-inside\" style=\"padding-bottom: 2rem;\">\n  <div class=\"paragraph\">You are so lucky that you live in an age where you can pull up,</div>\n  <div class=\"paragraph\">Newton's book on <span>opticks<sup>[1]</sup></span> with the click of a link.</div>\n</div>\n<div class=\"section avoid-break-inside\" style=\"padding-bottom: 2rem;\">\n  <div class=\"paragraph\">In most cases you can't be stopped by by research you have not yet conducted,</div>\n  <div class=\"paragraph\">and you don't have to invent much from scratch, you just need a science book.</div>\n</div>\n<div class=\"section avoid-break-inside\" style=\"padding-bottom: 2rem;\">\n  <div class=\"paragraph\">You have the same mental powers as Newton and all the others,</div>\n  <div class=\"paragraph\">but you DO, have to slow down, and think about things just like they did.</div>\n</div>\n<div class=\"section avoid-break-inside\" style=\"padding-bottom: 2rem;\">\n  <br>\n</div>\n<div class=\"section avoid-break-inside\" style=\"padding-bottom: 2rem;\">\n  <div class=\"paragraph\">Learning or catching up,</div>\n  <div class=\"paragraph\">is an Art.</div>\n</div>\n<div class=\"section avoid-break-inside\" style=\"padding-bottom: 2rem;\">\n  <div class=\"paragraph\">Even though you have all the answers before you,</div>\n  <div class=\"paragraph\">you can't read it all at once.</div>\n</div>\n<div class=\"section avoid-break-inside\" style=\"padding-bottom: 2rem;\">\n  <div class=\"paragraph\">You have to follow one thread at a time,</div>\n  <div class=\"paragraph\">our minds need time to comprehend and rearrange.</div>\n</div>\n<div class=\"section avoid-break-inside\" style=\"padding-bottom: 2rem;\">\n  <div class=\"paragraph\">Like the body of a dancer needs time to adapt,</div>\n  <div class=\"paragraph\">we have to learn at a precise pace, and sequence.</div>\n</div>\n<div class=\"section avoid-break-inside\" style=\"padding-bottom: 2rem;\">\n  <div class=\"paragraph\">It is very similar to learning the roads of a new city,</div>\n  <div class=\"paragraph\">you never say to your self I am not smart enough to navigate.</div>\n</div>\n<div class=\"section avoid-break-inside\" style=\"padding-bottom: 2rem;\">\n  <div class=\"paragraph\">Because you never listen to confusing directions,</div>\n  <div class=\"paragraph\">you just follow a single road at your own pace and eventually master it.</div>\n</div>\n<div class=\"section avoid-break-inside\" style=\"padding-bottom: 2rem;\">\n  <br>\n</div>\n<div class=\"section avoid-break-inside\" style=\"padding-bottom: 2rem;\">\n  <div class=\"paragraph\">See, Newton learned from works of Galileo,</div>\n  <div class=\"paragraph\">who passed away the year Newton was born.</div>\n</div>\n<div class=\"section avoid-break-inside\" style=\"padding-bottom: 2rem;\">\n  <div class=\"paragraph\">And although Newton never did convert led to gold,</div>\n  <div class=\"paragraph\">the led of his pencil, became even more precious.</div>\n</div>\n<div class=\"section avoid-break-inside\" style=\"padding-bottom: 2rem;\">\n  <div class=\"paragraph\">Many of Newton's works,</div>\n  <div class=\"paragraph\">must have fascinated Henry Cavendish.</div>\n</div>\n<div class=\"section avoid-break-inside\" style=\"padding-bottom: 2rem;\">\n  <div class=\"paragraph\">And Einstein no doubt appreciated the modes of thinking these men revealed,</div>\n  <div class=\"paragraph\">even though he never figured out his <span>Spooky Action at a Distance<sup>[2]</sup></span>.</div>\n</div>\n<div class=\"section avoid-break-inside\" style=\"padding-bottom: 2rem;\">\n  <div class=\"paragraph\">They all learned much along the way,</div>\n  <div class=\"paragraph\">and each became wise for trying.</div>\n</div>\n<div class=\"section avoid-break-inside\" style=\"padding-bottom: 2rem;\">\n  <div class=\"paragraph\">(Soundtrack <span>Purcell The Fairy Queen, Z.629<sup>[3]</sup></span>)</div>\n</div>\n<div class=\"break-after\">&nbsp;</div>\n<div>\n  <div class=\"section\" style=\"padding-bottom: 1rem;\">References</div>\n  <div>[1]: https://www.gutenberg.org/files/33504/33504-h/33504-h.htm</div>\n  <div>[2]: https://www.youtube.com/watch?v=JFozGfxmi8A</div>\n  <div>[3]: https://musopen.org/music/11140-the-fairy-queen-z629/</div>\n</div>",
  "text": "A hole in the window curtain,\nlets a stray ray of light in.\nThe light displays a blurry image,\nof what is outside, a pin hole camera.\nAs the beam travels along the wall,\nhe can imagine the entire solar system.\nHe knows the planet spins and rotates,\nby inference from Jupiter Io, Europa, Ganymede, and Callisto.\nAnd now slowly the light,\nreaches an old crystal vase.\nThere is a rainbow,\nthe beam of light is unfurled.\nHe's counting the colors,\nand a violin plays.\nAnd A becomes Blue,\nB is Indigo,\nC turns Violet,\nD is Red,\nE becomes Orange,\nF is Yellow,\nand G glows Green.\nHe watched the whole thing,\nin bed, in silence.\nHe knows now he will turn led to gold,\nlet the Clockwork Universe, Unfold.\n\nYou are so lucky that you live in an age where you can pull up,\nNewton's book on opticks[1] with the click of a link.\nIn most cases you can't be stopped by by research you have not yet conducted,\nand you don't have to invent much from scratch, you just need a science book.\nYou have the same mental powers as Newton and all the others,\nbut you DO, have to slow down, and think about things just like they did.\n\nLearning or catching up,\nis an Art.\nEven though you have all the answers before you,\nyou can't read it all at once.\nYou have to follow one thread at a time,\nour minds need time to comprehend and rearrange.\nLike the body of a dancer needs time to adapt,\nwe have to learn at a precise pace, and sequence.\nIt is very similar to learning the roads of a new city,\nyou never say to your self I am not smart enough to navigate.\nBecause you never listen to confusing directions,\nyou just follow a single road at your own pace and eventually master it.\n\nSee, Newton learned from works of Galileo,\nwho passed away the year Newton was born.\nAnd although Newton never did convert led to gold,\nthe led of his pencil, became even more precious.\nMany of Newton's works,\nmust have fascinated Henry Cavendish.\nAnd Einstein no doubt appreciated the modes of thinking these men revealed,\neven though he never figured out his Spooky Action at a Distance[2].\nThey all learned much along the way,\nand each became wise for trying.\n(Soundtrack Purcell The Fairy Queen, Z.629[3])\n \nReferences\n[1]: https://www.gutenberg.org/files/33504/33504-h/33504-h.htm\n[2]: https://www.youtube.com/watch?v=JFozGfxmi8A\n[3]: https://musopen.org/music/11140-the-fairy-queen-z629/",
  "images": [],
  "links": [
    {
      "title": "opticks",
      "url": "https://www.gutenberg.org/files/33504/33504-h/33504-h.htm",
      "hostname": "www.gutenberg.org"
    },
    {
      "title": "Spooky Action at a Distance",
      "url": "https://www.youtube.com/watch?v=JFozGfxmi8A",
      "hostname": "www.youtube.com"
    },
    {
      "title": "Purcell The Fairy Queen, Z.629",
      "url": "https://musopen.org/music/11140-the-fairy-queen-z629/",
      "hostname": "musopen.org"
    }
  ]
}