{
  "name": "furkies-purrkies-poetry-0023",
  "title": "Teacher",
  "date": "2020-04-03T23:59:02.881Z",
  "image": "poetry-0023-illustration.jpg",
  "artwork": "https://catpea.com/",
  "id": "furkies-purrkies-poetry-0023",
  "attachments": {},
  "guid": "88e512b4-2b4f-4128-903c-8acd5cc4ca71",
  "html": "<div class=\"section\">\n  <p>Captain&apos;s Log: Day Eighteen of Quarantine.</p>\n</div>\n<div class=\"section\">\n  <p>Researching, learning, computers being mean.</p>\n</div>\n<div class=\"section\">\n  <p>It must be Friday, the eve of Eighteen,</p>\n</div>\n<div class=\"section\">\n  <p>I peeked outside and I think the trees are turning green.</p>\n</div>\n<div class=\"section\">\n  <p>But the squirrels, again, they act so weird,</p>\n</div>\n<div class=\"section\">\n  <p>smart little kitties worried that everyone disappeared.</p>\n</div>\n<div class=\"section\">\n  <p>Speaking of weird, programming is such a fun game,</p>\n</div>\n<div class=\"section\">\n  <p>I am convinced it is unhealthy, but I think that&apos;s a shame.</p>\n</div>\n<div class=\"section\">\n  <p>My computer programs kept me company since I was nine,</p>\n</div>\n<div class=\"section\">\n  <p>I was so little, and already learning the command line.</p>\n</div>\n<div class=\"section\">\n  <p>Alas, the time doth fly,</p>\n</div>\n<div class=\"section\">\n  <p>as we grow older we must take to the sky.</p>\n</div>\n<div class=\"section\">\n  <p>We have to learn beyond what is at our fingertips,</p>\n</div>\n<div class=\"section\">\n  <p>and set aims for all those leaderships.</p>\n</div>\n<div class=\"section\">\n  <p>We should pamper our talents, can&apos;t leave them behind,</p>\n</div>\n<div class=\"section\">\n  <p>as we grow older they&apos;ll play a very important role in our peace of mind.</p>\n</div>\n<div class=\"section\">\n  <p>My readers, we are each charged with becoming Teachers,</p>\n</div>\n<div class=\"section\">\n  <p>share our knowledge, become Reason&apos;s own preachers.</p>\n</div>\n<div class=\"section\">\n  <p>The Future is only as bright as Her Humanity,</p>\n</div>\n<div class=\"section\">\n  <p>we are Her dignity, Her keepers of sanity.</p>\n</div>\n<div class=\"section\">\n  <p>So, search for <a href=\"http://catpea.com/\">video tutorials</a>,</p>\n</div>\n<div class=\"section\">\n  <p>maybe open a book,</p>\n</div>\n<div class=\"section\">\n  <p>and take a look.</p>\n</div>",
  "bootstrap": "<div class=\"card card-section bg-dark text-warning shadow\">\n  <div class=\"section card-body mb-0 my-2\">\n    <div class=\"paragraph card-text card-stanza my-5 text-center\">Captain's Log: Day Eighteen of Quarantine.</div>\n  </div>\n</div>\n<div class=\"card card-section bg-dark text-warning shadow\">\n  <div class=\"section card-body mb-0 my-2\">\n    <div class=\"paragraph card-text card-stanza my-5 text-center\">Researching, learning, computers being mean.</div>\n  </div>\n</div>\n<div class=\"card card-section bg-dark text-warning shadow\">\n  <div class=\"section card-body mb-0 my-2\">\n    <div class=\"paragraph card-text card-stanza my-5 text-center\">It must be Friday, the eve of Eighteen,</div>\n  </div>\n</div>\n<div class=\"card card-section bg-dark text-warning shadow\">\n  <div class=\"section card-body mb-0 my-2\">\n    <div class=\"paragraph card-text card-stanza my-5 text-center\">I peeked outside and I think the trees are turning green.</div>\n  </div>\n</div>\n<div class=\"card card-section bg-dark text-warning shadow\">\n  <div class=\"section card-body mb-0 my-2\">\n    <div class=\"paragraph card-text card-stanza my-5 text-center\">But the squirrels, again, they act so weird,</div>\n  </div>\n</div>\n<div class=\"card card-section bg-dark text-warning shadow\">\n  <div class=\"section card-body mb-0 my-2\">\n    <div class=\"paragraph card-text card-stanza my-5 text-center\">smart little kitties worried that everyone disappeared.</div>\n  </div>\n</div>\n<div class=\"card card-section bg-dark text-warning shadow\">\n  <div class=\"section card-body mb-0 my-2\">\n    <div class=\"paragraph card-text card-stanza my-5 text-center\">Speaking of weird, programming is such a fun game,</div>\n  </div>\n</div>\n<div class=\"card card-section bg-dark text-warning shadow\">\n  <div class=\"section card-body mb-0 my-2\">\n    <div class=\"paragraph card-text card-stanza my-5 text-center\">I am convinced it is unhealthy, but I think that's a shame.</div>\n  </div>\n</div>\n<div class=\"card card-section bg-dark text-warning shadow\">\n  <div class=\"section card-body mb-0 my-2\">\n    <div class=\"paragraph card-text card-stanza my-5 text-center\">My computer programs kept me company since I was nine,</div>\n  </div>\n</div>\n<div class=\"card card-section bg-dark text-warning shadow\">\n  <div class=\"section card-body mb-0 my-2\">\n    <div class=\"paragraph card-text card-stanza my-5 text-center\">I was so little, and already learning the command line.</div>\n  </div>\n</div>\n<div class=\"card card-section bg-dark text-warning shadow\">\n  <div class=\"section card-body mb-0 my-2\">\n    <div class=\"paragraph card-text card-stanza my-5 text-center\">Alas, the time doth fly,</div>\n  </div>\n</div>\n<div class=\"card card-section bg-dark text-warning shadow\">\n  <div class=\"section card-body mb-0 my-2\">\n    <div class=\"paragraph card-text card-stanza my-5 text-center\">as we grow older we must take to the sky.</div>\n  </div>\n</div>\n<div class=\"card card-section bg-dark text-warning shadow\">\n  <div class=\"section card-body mb-0 my-2\">\n    <div class=\"paragraph card-text card-stanza my-5 text-center\">We have to learn beyond what is at our fingertips,</div>\n  </div>\n</div>\n<div class=\"card card-section bg-dark text-warning shadow\">\n  <div class=\"section card-body mb-0 my-2\">\n    <div class=\"paragraph card-text card-stanza my-5 text-center\">and set aims for all those leaderships.</div>\n  </div>\n</div>\n<div class=\"card card-section bg-dark text-warning shadow\">\n  <div class=\"section card-body mb-0 my-2\">\n    <div class=\"paragraph card-text card-stanza my-5 text-center\">We should pamper our talents, can't leave them behind,</div>\n  </div>\n</div>\n<div class=\"card card-section bg-dark text-warning shadow\">\n  <div class=\"section card-body mb-0 my-2\">\n    <div class=\"paragraph card-text card-stanza my-5 text-center\">as we grow older they'll play a very important role in our peace of mind.</div>\n  </div>\n</div>\n<div class=\"card card-section bg-dark text-warning shadow\">\n  <div class=\"section card-body mb-0 my-2\">\n    <div class=\"paragraph card-text card-stanza my-5 text-center\">My readers, we are each charged with becoming Teachers,</div>\n  </div>\n</div>\n<div class=\"card card-section bg-dark text-warning shadow\">\n  <div class=\"section card-body mb-0 my-2\">\n    <div class=\"paragraph card-text card-stanza my-5 text-center\">share our knowledge, become Reason's own preachers.</div>\n  </div>\n</div>\n<div class=\"card card-section bg-dark text-warning shadow\">\n  <div class=\"section card-body mb-0 my-2\">\n    <div class=\"paragraph card-text card-stanza my-5 text-center\">The Future is only as bright as Her Humanity,</div>\n  </div>\n</div>\n<div class=\"card card-section bg-dark text-warning shadow\">\n  <div class=\"section card-body mb-0 my-2\">\n    <div class=\"paragraph card-text card-stanza my-5 text-center\">we are Her dignity, Her keepers of sanity.</div>\n  </div>\n</div>\n<div class=\"card card-section bg-dark text-warning shadow\">\n  <div class=\"section card-body mb-0 my-2\">\n    <div class=\"paragraph card-text card-stanza my-5 text-center\">So, search for <a href=\"http://catpea.com/\">video tutorials</a>,</div>\n  </div>\n</div>\n<div class=\"card card-section bg-dark text-warning shadow\">\n  <div class=\"section card-body mb-0 my-2\">\n    <div class=\"paragraph card-text card-stanza my-5 text-center\">maybe open a book,</div>\n  </div>\n</div>\n<div class=\"card card-section bg-dark text-warning shadow\">\n  <div class=\"section card-body mb-0 my-2\">\n    <div class=\"paragraph card-text card-stanza my-5 text-center\">and take a look.</div>\n  </div>\n</div>",
  "print": "<div class=\"section avoid-break-inside\" style=\"padding-bottom: 2rem;\">\n  <div class=\"paragraph\">Captain's Log: Day Eighteen of Quarantine.</div>\n</div>\n<div class=\"section avoid-break-inside\" style=\"padding-bottom: 2rem;\">\n  <div class=\"paragraph\">Researching, learning, computers being mean.</div>\n</div>\n<div class=\"section avoid-break-inside\" style=\"padding-bottom: 2rem;\">\n  <div class=\"paragraph\">It must be Friday, the eve of Eighteen,</div>\n</div>\n<div class=\"section avoid-break-inside\" style=\"padding-bottom: 2rem;\">\n  <div class=\"paragraph\">I peeked outside and I think the trees are turning green.</div>\n</div>\n<div class=\"section avoid-break-inside\" style=\"padding-bottom: 2rem;\">\n  <div class=\"paragraph\">But the squirrels, again, they act so weird,</div>\n</div>\n<div class=\"section avoid-break-inside\" style=\"padding-bottom: 2rem;\">\n  <div class=\"paragraph\">smart little kitties worried that everyone disappeared.</div>\n</div>\n<div class=\"section avoid-break-inside\" style=\"padding-bottom: 2rem;\">\n  <div class=\"paragraph\">Speaking of weird, programming is such a fun game,</div>\n</div>\n<div class=\"section avoid-break-inside\" style=\"padding-bottom: 2rem;\">\n  <div class=\"paragraph\">I am convinced it is unhealthy, but I think that's a shame.</div>\n</div>\n<div class=\"section avoid-break-inside\" style=\"padding-bottom: 2rem;\">\n  <div class=\"paragraph\">My computer programs kept me company since I was nine,</div>\n</div>\n<div class=\"section avoid-break-inside\" style=\"padding-bottom: 2rem;\">\n  <div class=\"paragraph\">I was so little, and already learning the command line.</div>\n</div>\n<div class=\"section avoid-break-inside\" style=\"padding-bottom: 2rem;\">\n  <div class=\"paragraph\">Alas, the time doth fly,</div>\n</div>\n<div class=\"section avoid-break-inside\" style=\"padding-bottom: 2rem;\">\n  <div class=\"paragraph\">as we grow older we must take to the sky.</div>\n</div>\n<div class=\"section avoid-break-inside\" style=\"padding-bottom: 2rem;\">\n  <div class=\"paragraph\">We have to learn beyond what is at our fingertips,</div>\n</div>\n<div class=\"section avoid-break-inside\" style=\"padding-bottom: 2rem;\">\n  <div class=\"paragraph\">and set aims for all those leaderships.</div>\n</div>\n<div class=\"section avoid-break-inside\" style=\"padding-bottom: 2rem;\">\n  <div class=\"paragraph\">We should pamper our talents, can't leave them behind,</div>\n</div>\n<div class=\"section avoid-break-inside\" style=\"padding-bottom: 2rem;\">\n  <div class=\"paragraph\">as we grow older they'll play a very important role in our peace of mind.</div>\n</div>\n<div class=\"section avoid-break-inside\" style=\"padding-bottom: 2rem;\">\n  <div class=\"paragraph\">My readers, we are each charged with becoming Teachers,</div>\n</div>\n<div class=\"section avoid-break-inside\" style=\"padding-bottom: 2rem;\">\n  <div class=\"paragraph\">share our knowledge, become Reason's own preachers.</div>\n</div>\n<div class=\"section avoid-break-inside\" style=\"padding-bottom: 2rem;\">\n  <div class=\"paragraph\">The Future is only as bright as Her Humanity,</div>\n</div>\n<div class=\"section avoid-break-inside\" style=\"padding-bottom: 2rem;\">\n  <div class=\"paragraph\">we are Her dignity, Her keepers of sanity.</div>\n</div>\n<div class=\"section avoid-break-inside\" style=\"padding-bottom: 2rem;\">\n  <div class=\"paragraph\">So, search for <span>video tutorials<sup>[1]</sup></span>,</div>\n</div>\n<div class=\"section avoid-break-inside\" style=\"padding-bottom: 2rem;\">\n  <div class=\"paragraph\">maybe open a book,</div>\n</div>\n<div class=\"section avoid-break-inside\" style=\"padding-bottom: 2rem;\">\n  <div class=\"paragraph\">and take a look.</div>\n</div>\n<div class=\"break-after\">&nbsp;</div>\n<div>\n  <div class=\"section\" style=\"padding-bottom: 1rem;\">References</div>\n  <div>[1]: http://catpea.com/</div>\n</div>",
  "text": "Captain's Log: Day Eighteen of Quarantine.\nResearching, learning, computers being mean.\nIt must be Friday, the eve of Eighteen,\nI peeked outside and I think the trees are turning green.\nBut the squirrels, again, they act so weird,\nsmart little kitties worried that everyone disappeared.\nSpeaking of weird, programming is such a fun game,\nI am convinced it is unhealthy, but I think that's a shame.\nMy computer programs kept me company since I was nine,\nI was so little, and already learning the command line.\nAlas, the time doth fly,\nas we grow older we must take to the sky.\nWe have to learn beyond what is at our fingertips,\nand set aims for all those leaderships.\nWe should pamper our talents, can't leave them behind,\nas we grow older they'll play a very important role in our peace of mind.\nMy readers, we are each charged with becoming Teachers,\nshare our knowledge, become Reason's own preachers.\nThe Future is only as bright as Her Humanity,\nwe are Her dignity, Her keepers of sanity.\nSo, search for video tutorials[1],\nmaybe open a book,\nand take a look.\n \nReferences\n[1]: http://catpea.com/",
  "images": [],
  "links": [
    {
      "title": "video tutorials",
      "url": "http://catpea.com/",
      "hostname": "catpea.com"
    }
  ]
}