{
  "id": "furkies-purrkies-poetry-0616",
  "title": "Wisdom Everywhere",
  "date": "2021-11-07T01:45:14.505Z",
  "image": "poetry-0616-illustration.jpg",
  "artwork": "https://unsplash.com/photos/-kpz7pVyQY4",
  "audio": "poetry-0616.mp3",
  "guid": "a401ad32-0d24-41c4-8ffe-584f4dcefa4b"
}
