{
  "id": "furkies-purrkies-poetry-0598",
  "title": "A Small Glance At Borders Of Philosophy and Her Daughters, The Sciences",
  "date": "2021-10-20T00:53:14.848Z",
  "image": "poetry-0598-illustration.jpg",
  "artwork": "https://unsplash.com/photos/G4kriXRXg8U",
  "audio": "poetry-0598.mp3",
  "guid": "b223a3f8-2412-45b2-8014-ec368057a05d"
}
