{
  "id": "furkies-purrkies-poetry-0877",
  "title": "Do Not Give Up Your Creativity At Any Cost",
  "date": "2022-07-25T18:06:52.571Z",
  "image": "poetry-0877-illustration.jpg",
  "artwork": "https://catpea.com",
  "audio": "poetry-0877.mp3",
  "guid": "69c6d979-fd05-4794-9e82-8be987052ef2"
}
