{
  "name": "furkies-purrkies-poetry-0107",
  "title": "You Are The Best But You Also Need Some Rest",
  "date": "2020-06-15T03:55:32.780Z",
  "image": "poetry-0107-illustration.jpg",
  "audio": "poetry-0107.mp3",
  "id": "furkies-purrkies-poetry-0107",
  "attachments": {},
  "guid": "842b26bd-d18d-42d8-ba02-c91bba832f14",
  "html": "<div class=\"section\">\n  <p>Life shouldn&apos;t be about beating your best,</p>\n  <p>just as important as rising, is your day of rest.</p>\n</div>\n<div class=\"section\">\n  <p>No matter how important your athletic quest,</p>\n  <p>or how upon your arrival you are going to be blessed.</p>\n</div>\n<div class=\"section\">\n  <p>Everyone, needs to get some rest,</p>\n  <p>days will only get longer when you are stressed.</p>\n</div>\n<div class=\"section\">\n  <hr>\n</div>\n<div class=\"section\">\n  <p>If you must,</p>\n  <p>imagine you are a Bird of Fantastic Plumage, and your bed is a nest.</p>\n</div>\n<div class=\"section\">\n  <p>Come morning, fling up your messy crest,</p>\n  <p>and puff up your chest.</p>\n</div>\n<div class=\"section\">\n  <p>And tweet, about how you are not getting dressed,</p>\n  <p>because you are too stressed, and you are having your rest.</p>\n</div>\n<div class=\"section\">\n  <p>And explain to those confused, that you are not speaking in jest,</p>\n  <p>make it clear that this is not, a test.</p>\n</div>\n<div class=\"section\">\n  <hr>\n</div>\n<div class=\"section\">\n  <p>Today is <em>your</em> day of rest,</p>\n  <p>at best, you will be having a nice cup of tea, should you feel pressed.</p>\n</div>\n<div class=\"section\">\n  <hr>\n</div>\n<div class=\"section\">\n  <p>Allow strength to return to you, so that you are at your best,</p>\n  <p>tomorrow, or in few days, you&apos;ll resume your quest.</p>\n</div>\n<div class=\"section\">\n  <p>Once you are not feeling so stressed,</p>\n  <p>you&apos;ll show the world that You are the Best.</p>\n</div>",
  "bootstrap": "<div class=\"card card-section bg-dark text-warning shadow\">\n  <div class=\"section card-body mb-0 my-2\">\n    <div class=\"paragraph card-text card-stanza my-5 text-center\">Life shouldn't be about beating your best,</div>\n    <div class=\"paragraph card-text card-stanza my-5 text-center\">just as important as rising, is your day of rest.</div>\n  </div>\n</div>\n<div class=\"card card-section bg-dark text-warning shadow\">\n  <div class=\"section card-body mb-0 my-2\">\n    <div class=\"paragraph card-text card-stanza my-5 text-center\">No matter how important your athletic quest,</div>\n    <div class=\"paragraph card-text card-stanza my-5 text-center\">or how upon your arrival you are going to be blessed.</div>\n  </div>\n</div>\n<div class=\"card card-section bg-dark text-warning shadow\">\n  <div class=\"section card-body mb-0 my-2\">\n    <div class=\"paragraph card-text card-stanza my-5 text-center\">Everyone, needs to get some rest,</div>\n    <div class=\"paragraph card-text card-stanza my-5 text-center\">days will only get longer when you are stressed.</div>\n  </div>\n</div>\n<div class=\"mb-5 section-spacer\">&nbsp;</div>\n<div class=\"card card-section bg-dark text-warning shadow\">\n  <div class=\"section card-body mb-0 my-2\">\n    <div class=\"paragraph card-text card-stanza my-5 text-center\">If you must,</div>\n    <div class=\"paragraph card-text card-stanza my-5 text-center\">imagine you are a Bird of Fantastic Plumage, and your bed is a nest.</div>\n  </div>\n</div>\n<div class=\"card card-section bg-dark text-warning shadow\">\n  <div class=\"section card-body mb-0 my-2\">\n    <div class=\"paragraph card-text card-stanza my-5 text-center\">Come morning, fling up your messy crest,</div>\n    <div class=\"paragraph card-text card-stanza my-5 text-center\">and puff up your chest.</div>\n  </div>\n</div>\n<div class=\"card card-section bg-dark text-warning shadow\">\n  <div class=\"section card-body mb-0 my-2\">\n    <div class=\"paragraph card-text card-stanza my-5 text-center\">And tweet, about how you are not getting dressed,</div>\n    <div class=\"paragraph card-text card-stanza my-5 text-center\">because you are too stressed, and you are having your rest.</div>\n  </div>\n</div>\n<div class=\"card card-section bg-dark text-warning shadow\">\n  <div class=\"section card-body mb-0 my-2\">\n    <div class=\"paragraph card-text card-stanza my-5 text-center\">And explain to those confused, that you are not speaking in jest,</div>\n    <div class=\"paragraph card-text card-stanza my-5 text-center\">make it clear that this is not, a test.</div>\n  </div>\n</div>\n<div class=\"mb-5 section-spacer\">&nbsp;</div>\n<div class=\"card card-section bg-dark text-warning shadow\">\n  <div class=\"section card-body mb-0 my-2\">\n    <div class=\"paragraph card-text card-stanza my-5 text-center\">Today is <em>your</em> day of rest,</div>\n    <div class=\"paragraph card-text card-stanza my-5 text-center\">at best, you will be having a nice cup of tea, should you feel pressed.</div>\n  </div>\n</div>\n<div class=\"mb-5 section-spacer\">&nbsp;</div>\n<div class=\"card card-section bg-dark text-warning shadow\">\n  <div class=\"section card-body mb-0 my-2\">\n    <div class=\"paragraph card-text card-stanza my-5 text-center\">Allow strength to return to you, so that you are at your best,</div>\n    <div class=\"paragraph card-text card-stanza my-5 text-center\">tomorrow, or in few days, you'll resume your quest.</div>\n  </div>\n</div>\n<div class=\"card card-section bg-dark text-warning shadow\">\n  <div class=\"section card-body mb-0 my-2\">\n    <div class=\"paragraph card-text card-stanza my-5 text-center\">Once you are not feeling so stressed,</div>\n    <div class=\"paragraph card-text card-stanza my-5 text-center\">you'll show the world that You are the Best.</div>\n  </div>\n</div>",
  "print": "<div class=\"section avoid-break-inside\" style=\"padding-bottom: 2rem;\">\n  <div class=\"paragraph\">Life shouldn't be about beating your best,</div>\n  <div class=\"paragraph\">just as important as rising, is your day of rest.</div>\n</div>\n<div class=\"section avoid-break-inside\" style=\"padding-bottom: 2rem;\">\n  <div class=\"paragraph\">No matter how important your athletic quest,</div>\n  <div class=\"paragraph\">or how upon your arrival you are going to be blessed.</div>\n</div>\n<div class=\"section avoid-break-inside\" style=\"padding-bottom: 2rem;\">\n  <div class=\"paragraph\">Everyone, needs to get some rest,</div>\n  <div class=\"paragraph\">days will only get longer when you are stressed.</div>\n</div>\n<div class=\"section avoid-break-inside\" style=\"padding-bottom: 2rem;\">\n  <br>\n</div>\n<div class=\"section avoid-break-inside\" style=\"padding-bottom: 2rem;\">\n  <div class=\"paragraph\">If you must,</div>\n  <div class=\"paragraph\">imagine you are a Bird of Fantastic Plumage, and your bed is a nest.</div>\n</div>\n<div class=\"section avoid-break-inside\" style=\"padding-bottom: 2rem;\">\n  <div class=\"paragraph\">Come morning, fling up your messy crest,</div>\n  <div class=\"paragraph\">and puff up your chest.</div>\n</div>\n<div class=\"section avoid-break-inside\" style=\"padding-bottom: 2rem;\">\n  <div class=\"paragraph\">And tweet, about how you are not getting dressed,</div>\n  <div class=\"paragraph\">because you are too stressed, and you are having your rest.</div>\n</div>\n<div class=\"section avoid-break-inside\" style=\"padding-bottom: 2rem;\">\n  <div class=\"paragraph\">And explain to those confused, that you are not speaking in jest,</div>\n  <div class=\"paragraph\">make it clear that this is not, a test.</div>\n</div>\n<div class=\"section avoid-break-inside\" style=\"padding-bottom: 2rem;\">\n  <br>\n</div>\n<div class=\"section avoid-break-inside\" style=\"padding-bottom: 2rem;\">\n  <div class=\"paragraph\">Today is <em>your</em> day of rest,</div>\n  <div class=\"paragraph\">at best, you will be having a nice cup of tea, should you feel pressed.</div>\n</div>\n<div class=\"section avoid-break-inside\" style=\"padding-bottom: 2rem;\">\n  <br>\n</div>\n<div class=\"section avoid-break-inside\" style=\"padding-bottom: 2rem;\">\n  <div class=\"paragraph\">Allow strength to return to you, so that you are at your best,</div>\n  <div class=\"paragraph\">tomorrow, or in few days, you'll resume your quest.</div>\n</div>\n<div class=\"section avoid-break-inside\" style=\"padding-bottom: 2rem;\">\n  <div class=\"paragraph\">Once you are not feeling so stressed,</div>\n  <div class=\"paragraph\">you'll show the world that You are the Best.</div>\n</div>",
  "text": "Life shouldn't be about beating your best,\njust as important as rising, is your day of rest.\nNo matter how important your athletic quest,\nor how upon your arrival you are going to be blessed.\nEveryone, needs to get some rest,\ndays will only get longer when you are stressed.\n\nIf you must,\nimagine you are a Bird of Fantastic Plumage, and your bed is a nest.\nCome morning, fling up your messy crest,\nand puff up your chest.\nAnd tweet, about how you are not getting dressed,\nbecause you are too stressed, and you are having your rest.\nAnd explain to those confused, that you are not speaking in jest,\nmake it clear that this is not, a test.\n\nToday is your day of rest,\nat best, you will be having a nice cup of tea, should you feel pressed.\n\nAllow strength to return to you, so that you are at your best,\ntomorrow, or in few days, you'll resume your quest.\nOnce you are not feeling so stressed,\nyou'll show the world that You are the Best.",
  "images": [],
  "links": []
}