{
  "title": "The Nearly Impossible Journey Towards World Unity And Peace",
  "date": "2021-06-07T19:44:57.799Z",
  "image": "poetry-0464-illustration.jpg",
  "audio": "poetry-0464.mp3",
  "artwork": "https://unsplash.com/photos/C9k1LfbM23M",
  "id": "furkies-purrkies-poetry-0464",
  "attachments": {},
  "guid": "d41db432-f8bd-411f-9516-31407113ba4c"
}
