{
  "title": "Life Of Wisdom",
  "date": "2020-06-15T02:21:56.471Z",
  "image": "poetry-0106-illustration.jpg",
  "audio": "poetry-0106.mp3",
  "id": "furkies-purrkies-poetry-0106",
  "attachments": {},
  "guid": "87e51da4-de89-41bc-8897-65ba08239c6c"
}
