{
  "title": "Rising",
  "date": "2021-01-07T03:43:22.854Z",
  "image": "poetry-0312-illustration.jpg",
  "audio": "poetry-0312.mp3",
  "artwork": "https://unsplash.com/photos/7hzzLgTo53w",
  "id": "furkies-purrkies-poetry-0312",
  "attachments": {},
  "guid": "2f8f6cec-c8f4-4da4-b371-d3f1fa616b89"
}
