{
  "name": "furkies-purrkies-poetry-0387",
  "title": "Twisty Little Passages",
  "date": "2021-03-23T01:16:17.628Z",
  "image": "poetry-0387-illustration.jpg",
  "audio": "poetry-0387.mp3",
  "artwork": "https://unsplash.com/photos/zK049OFP4uI",
  "id": "furkies-purrkies-poetry-0387",
  "attachments": {},
  "guid": "b308687c-7eb2-4565-bd3e-33e2104c4942",
  "html": "<div class=\"section\">\n  <p>School presents access to knowledge with something so synthetic and abstract,</p>\n  <p>that <a href=\"https://www.youtube.com/watch?v=Ws6qmXDJgwU\">we can&apos;t learn, because it is too incomprehensible and can only be temporary memorized</a>.</p>\n</div>\n\n<div class=\"section\">\n  <p>We each have a unique pathway with which we access knowledge,</p>\n  <p>it is a cheerful Spring time maze of curiosities and discoveries.</p>\n</div>\n\n<div class=\"section\">\n  <hr>\n</div>\n\n<div class=\"section\">\n  <p>A school does conspire to convince us that we are not smart enough to learn,</p>\n  <p>it was never meant to be this way.</p>\n</div>\n\n<div class=\"section\">\n  <p>Schools were meant to set the world free and put an end to wars,</p>\n  <p>put an end to sending children to wars.</p>\n</div>\n\n<div class=\"section\">\n  <hr>\n</div>\n\n<div class=\"section\">\n  <p>A formula is not something you memorize,</p>\n  <p>it is tool you look up to make some beautiful graphics for a screen-saver or an art show.</p>\n</div>\n\n<div class=\"section\">\n  <p>There is only one reason why a student would be abused to memorize formulas,</p>\n  <p>testing.</p>\n</div>\n\n<div class=\"section\">\n  <p>It is a test of the teacher,</p>\n  <p>if the classroom grade point average is above a certain point, then the teacher is working.</p>\n</div>\n\n<div class=\"section\">\n  <p>From another perspective,</p>\n  <p>if a teacher can show a good class GPA, then they can demand to get paid and keep their job.</p>\n</div>\n\n<div class=\"section\">\n  <p>Forcing students into memorizing formulas has nothing to do with teaching them,</p>\n  <p>it is just a test of the teacher.</p>\n</div>\n\n<div class=\"section\">\n  <p>Pop quizzes, Quizzes, Tests, take out a piece of paper,</p>\n  <p>is the teacher making sure they will get to keep their job.</p>\n</div>\n\n<div class=\"section\">\n  <p>State and national level tests are even worse,</p>\n  <p>they are little more than crossword puzzles that rely on insider knowledge.</p>\n</div>\n\n<div class=\"section\">\n  <p>Insider knowledge,</p>\n  <p>is the network of those miserable facts that fade as soon as we graduate.</p>\n</div>\n\n<div class=\"section\">\n  <p>The whole is a self serving machine that distributes tax payer money to teachers and higher ups,</p>\n  <p>there is no real education to be found here.</p>\n</div>\n\n<div class=\"section\">\n  <p>The test difficulty merely convinces everyone who participates in the charade,</p>\n  <p>that a lot of work was involved, hard work, that required hard working, oh so hard.</p>\n</div>\n\n<div class=\"section\">\n  <p>A hard test on a difficult subject, is not that different,</p>\n  <p>from a Drill Sargent sending a boy to mop up a parking lot in the rain.</p>\n</div>\n\n<div class=\"section\">\n  <p>Lessons and Tests,</p>\n  <p>are not an education.</p>\n</div>\n\n<div class=\"section\">\n  <p>It is an insult,</p>\n  <p><a href=\"https://www.youtube.com/watch?v=fmoor8DwqW4\">especially to the younger students that don&apos;t yet have enough experience to figure out it is about the teachers and not students</a>.</p>\n</div>\n\n<div class=\"section\">\n  <hr>\n</div>\n\n<div class=\"section\">\n  <p>The worst thing about this is that people become truly convinced they are not smart enough,</p>\n  <p>the broken school not only insult, but in their haste for paychecks defraud people of knowledge.</p>\n</div>\n\n<div class=\"section\">\n  <p>If pressed by a competent congress, the principals would state,</p>\n  <p>that everyone should know that knowledge is free.</p>\n</div>\n\n<div class=\"section\">\n  <p>If pressed, they will say,</p>\n  <p>we are not required to teach your children, and present an entire bouquet of reason and evidence.</p>\n</div>\n\n<div class=\"section\">\n  <p>They will state,</p>\n  <p>that they are required to pass standardized tests, and that is exactly what they do.</p>\n</div>\n\n<div class=\"section\">\n  <p>There is no need for teaching real, functional, inspirational knowledge,</p>\n  <p>the point of a school is tho get the students to past the tests.</p>\n</div>\n\n<div class=\"section\">\n  <p>Because that is how everyone gets paid,</p>\n  <p>and that is how parents get a free babysitter.</p>\n</div>\n\n<div class=\"section\">\n  <hr>\n</div>\n\n<div class=\"section\">\n  <p>Pretending to educate,</p>\n  <p>cannot lead to anything good.</p>\n</div>\n\n<div class=\"section\">\n  <p>Strange elections, vaccine hesitancy, science denial, nationalism, racism, mind crushing poverty,</p>\n  <p>are just the more visible symptoms.</p>\n</div>\n\n<div class=\"section\">\n  <p>Real schools hold such a beautiful promise,</p>\n  <p>a real curriculum that provides real positive results would spread around the world&apos;s nations like wildfire.</p>\n</div>\n\n<div class=\"section\">\n  <p>It would quickly change how people and their representatives see the world,</p>\n  <p>issues like pollution, climate, insider trading, and <a href=\"https://en.wikipedia.org/wiki/List_of_American_state_and_local_politicians_convicted_of_crimes\">corrupt politics</a>, would fade away.</p>\n</div>\n\n<div class=\"section\">\n  <p>We have the room for Real Schools, but it is filled with something else,</p>\n  <p>it is hard to describe until you <a href=\"https://www.youtube.com/watch?v=sxyKNMrhEvY\">contrast real schools with the fake ones</a>.</p>\n</div>\n\n<div class=\"section\">\n  <hr>\n</div>\n\n<div class=\"section\">\n  <p>Do not let schools trick you into thinking that you are not smart enough to learn,</p>\n  <p>build you own unique twisty little passage into the world of knowledge.</p>\n</div>\n\n<div class=\"section\">\n  <p>Choose Self Education and Entrepreneurship first,</p>\n  <p>choose the things that you can tell are real.</p>\n</div>\n\n<div class=\"section\">\n  <p>Protect your curiosities and dreams,</p>\n  <p>as they are the precious starting points into Arts and Sciences.</p>\n</div>\n\n<div class=\"section\">\n  <p>Do not sacrifice what is unique about you,</p>\n  <p>for grades that will rob you of real knowledge and mark you with a score that relies on temporary memorization.</p>\n</div>\n\n<div class=\"section\">\n  <p>Real education is about passion, creativity, art, vision,</p>\n  <p>it has nothing to do with text books, tests, grades, and GPA.</p>\n</div>\n\n<div class=\"section\">\n  <hr>\n</div>\n\n<div class=\"section\">\n  <p>Ignore your grades,</p>\n  <p>they don&apos;t mean anything.</p>\n</div>\n\n<div class=\"section\">\n  <p>Find a happy place,</p>\n  <p>and begin gathering up <a href=\"https://www.youtube.com/watch?v=ZSxv5XhReL8\">happy science books</a>.</p>\n</div>\n\n<div class=\"section\">\n  <p>Take to all top selling non-fiction audio books,</p>\n  <p>and go on adventures.</p>\n</div>\n\n<div class=\"section\">\n  <p>When you are ready,</p>\n  <p>begin learning business by building many little companies until you figure all out.</p>\n</div>\n\n<div class=\"section\">\n  <p>Do not let schools trick you into thinking,</p>\n  <p>that tests are about knowledge, or that that grades mark your level of intelligence.</p>\n</div>\n\n<div class=\"section\">\n  <p>You are infinitely creative,</p>\n  <p>and infinitely intelligent.</p>\n</div>",
  "bootstrap": "<div class=\"card card-section bg-dark text-warning shadow\">\n  <div class=\"section card-body mb-0 my-2\">\n    <div class=\"paragraph card-text card-stanza my-5 text-center\">School presents access to knowledge with something so synthetic and abstract,</div>\n    <div class=\"paragraph card-text card-stanza my-5 text-center\">that <a href=\"https://www.youtube.com/watch?v=Ws6qmXDJgwU\">we can't learn, because it is too incomprehensible and can only be temporary memorized</a>.</div>\n  </div>\n</div>\n<div class=\"card card-section bg-dark text-warning shadow\">\n  <div class=\"section card-body mb-0 my-2\">\n    <div class=\"paragraph card-text card-stanza my-5 text-center\">We each have a unique pathway with which we access knowledge,</div>\n    <div class=\"paragraph card-text card-stanza my-5 text-center\">it is a cheerful Spring time maze of curiosities and discoveries.</div>\n  </div>\n</div>\n<div class=\"mb-5 section-spacer\">&nbsp;</div>\n<div class=\"card card-section bg-dark text-warning shadow\">\n  <div class=\"section card-body mb-0 my-2\">\n    <div class=\"paragraph card-text card-stanza my-5 text-center\">A school does conspire to convince us that we are not smart enough to learn,</div>\n    <div class=\"paragraph card-text card-stanza my-5 text-center\">it was never meant to be this way.</div>\n  </div>\n</div>\n<div class=\"card card-section bg-dark text-warning shadow\">\n  <div class=\"section card-body mb-0 my-2\">\n    <div class=\"paragraph card-text card-stanza my-5 text-center\">Schools were meant to set the world free and put an end to wars,</div>\n    <div class=\"paragraph card-text card-stanza my-5 text-center\">put an end to sending children to wars.</div>\n  </div>\n</div>\n<div class=\"mb-5 section-spacer\">&nbsp;</div>\n<div class=\"card card-section bg-dark text-warning shadow\">\n  <div class=\"section card-body mb-0 my-2\">\n    <div class=\"paragraph card-text card-stanza my-5 text-center\">A formula is not something you memorize,</div>\n    <div class=\"paragraph card-text card-stanza my-5 text-center\">it is tool you look up to make some beautiful graphics for a screen-saver or an art show.</div>\n  </div>\n</div>\n<div class=\"card card-section bg-dark text-warning shadow\">\n  <div class=\"section card-body mb-0 my-2\">\n    <div class=\"paragraph card-text card-stanza my-5 text-center\">There is only one reason why a student would be abused to memorize formulas,</div>\n    <div class=\"paragraph card-text card-stanza my-5 text-center\">testing.</div>\n  </div>\n</div>\n<div class=\"card card-section bg-dark text-warning shadow\">\n  <div class=\"section card-body mb-0 my-2\">\n    <div class=\"paragraph card-text card-stanza my-5 text-center\">It is a test of the teacher,</div>\n    <div class=\"paragraph card-text card-stanza my-5 text-center\">if the classroom grade point average is above a certain point, then the teacher is working.</div>\n  </div>\n</div>\n<div class=\"card card-section bg-dark text-warning shadow\">\n  <div class=\"section card-body mb-0 my-2\">\n    <div class=\"paragraph card-text card-stanza my-5 text-center\">From another perspective,</div>\n    <div class=\"paragraph card-text card-stanza my-5 text-center\">if a teacher can show a good class GPA, then they can demand to get paid and keep their job.</div>\n  </div>\n</div>\n<div class=\"card card-section bg-dark text-warning shadow\">\n  <div class=\"section card-body mb-0 my-2\">\n    <div class=\"paragraph card-text card-stanza my-5 text-center\">Forcing students into memorizing formulas has nothing to do with teaching them,</div>\n    <div class=\"paragraph card-text card-stanza my-5 text-center\">it is just a test of the teacher.</div>\n  </div>\n</div>\n<div class=\"card card-section bg-dark text-warning shadow\">\n  <div class=\"section card-body mb-0 my-2\">\n    <div class=\"paragraph card-text card-stanza my-5 text-center\">Pop quizzes, Quizzes, Tests, take out a piece of paper,</div>\n    <div class=\"paragraph card-text card-stanza my-5 text-center\">is the teacher making sure they will get to keep their job.</div>\n  </div>\n</div>\n<div class=\"card card-section bg-dark text-warning shadow\">\n  <div class=\"section card-body mb-0 my-2\">\n    <div class=\"paragraph card-text card-stanza my-5 text-center\">State and national level tests are even worse,</div>\n    <div class=\"paragraph card-text card-stanza my-5 text-center\">they are little more than crossword puzzles that rely on insider knowledge.</div>\n  </div>\n</div>\n<div class=\"card card-section bg-dark text-warning shadow\">\n  <div class=\"section card-body mb-0 my-2\">\n    <div class=\"paragraph card-text card-stanza my-5 text-center\">Insider knowledge,</div>\n    <div class=\"paragraph card-text card-stanza my-5 text-center\">is the network of those miserable facts that fade as soon as we graduate.</div>\n  </div>\n</div>\n<div class=\"card card-section bg-dark text-warning shadow\">\n  <div class=\"section card-body mb-0 my-2\">\n    <div class=\"paragraph card-text card-stanza my-5 text-center\">The whole is a self serving machine that distributes tax payer money to teachers and higher ups,</div>\n    <div class=\"paragraph card-text card-stanza my-5 text-center\">there is no real education to be found here.</div>\n  </div>\n</div>\n<div class=\"card card-section bg-dark text-warning shadow\">\n  <div class=\"section card-body mb-0 my-2\">\n    <div class=\"paragraph card-text card-stanza my-5 text-center\">The test difficulty merely convinces everyone who participates in the charade,</div>\n    <div class=\"paragraph card-text card-stanza my-5 text-center\">that a lot of work was involved, hard work, that required hard working, oh so hard.</div>\n  </div>\n</div>\n<div class=\"card card-section bg-dark text-warning shadow\">\n  <div class=\"section card-body mb-0 my-2\">\n    <div class=\"paragraph card-text card-stanza my-5 text-center\">A hard test on a difficult subject, is not that different,</div>\n    <div class=\"paragraph card-text card-stanza my-5 text-center\">from a Drill Sargent sending a boy to mop up a parking lot in the rain.</div>\n  </div>\n</div>\n<div class=\"card card-section bg-dark text-warning shadow\">\n  <div class=\"section card-body mb-0 my-2\">\n    <div class=\"paragraph card-text card-stanza my-5 text-center\">Lessons and Tests,</div>\n    <div class=\"paragraph card-text card-stanza my-5 text-center\">are not an education.</div>\n  </div>\n</div>\n<div class=\"card card-section bg-dark text-warning shadow\">\n  <div class=\"section card-body mb-0 my-2\">\n    <div class=\"paragraph card-text card-stanza my-5 text-center\">It is an insult,</div>\n    <div class=\"paragraph card-text card-stanza my-5 text-center\"><a href=\"https://www.youtube.com/watch?v=fmoor8DwqW4\">especially to the younger students that don't yet have enough experience to figure out it is about the teachers and not students</a>.</div>\n  </div>\n</div>\n<div class=\"mb-5 section-spacer\">&nbsp;</div>\n<div class=\"card card-section bg-dark text-warning shadow\">\n  <div class=\"section card-body mb-0 my-2\">\n    <div class=\"paragraph card-text card-stanza my-5 text-center\">The worst thing about this is that people become truly convinced they are not smart enough,</div>\n    <div class=\"paragraph card-text card-stanza my-5 text-center\">the broken school not only insult, but in their haste for paychecks defraud people of knowledge.</div>\n  </div>\n</div>\n<div class=\"card card-section bg-dark text-warning shadow\">\n  <div class=\"section card-body mb-0 my-2\">\n    <div class=\"paragraph card-text card-stanza my-5 text-center\">If pressed by a competent congress, the principals would state,</div>\n    <div class=\"paragraph card-text card-stanza my-5 text-center\">that everyone should know that knowledge is free.</div>\n  </div>\n</div>\n<div class=\"card card-section bg-dark text-warning shadow\">\n  <div class=\"section card-body mb-0 my-2\">\n    <div class=\"paragraph card-text card-stanza my-5 text-center\">If pressed, they will say,</div>\n    <div class=\"paragraph card-text card-stanza my-5 text-center\">we are not required to teach your children, and present an entire bouquet of reason and evidence.</div>\n  </div>\n</div>\n<div class=\"card card-section bg-dark text-warning shadow\">\n  <div class=\"section card-body mb-0 my-2\">\n    <div class=\"paragraph card-text card-stanza my-5 text-center\">They will state,</div>\n    <div class=\"paragraph card-text card-stanza my-5 text-center\">that they are required to pass standardized tests, and that is exactly what they do.</div>\n  </div>\n</div>\n<div class=\"card card-section bg-dark text-warning shadow\">\n  <div class=\"section card-body mb-0 my-2\">\n    <div class=\"paragraph card-text card-stanza my-5 text-center\">There is no need for teaching real, functional, inspirational knowledge,</div>\n    <div class=\"paragraph card-text card-stanza my-5 text-center\">the point of a school is tho get the students to past the tests.</div>\n  </div>\n</div>\n<div class=\"card card-section bg-dark text-warning shadow\">\n  <div class=\"section card-body mb-0 my-2\">\n    <div class=\"paragraph card-text card-stanza my-5 text-center\">Because that is how everyone gets paid,</div>\n    <div class=\"paragraph card-text card-stanza my-5 text-center\">and that is how parents get a free babysitter.</div>\n  </div>\n</div>\n<div class=\"mb-5 section-spacer\">&nbsp;</div>\n<div class=\"card card-section bg-dark text-warning shadow\">\n  <div class=\"section card-body mb-0 my-2\">\n    <div class=\"paragraph card-text card-stanza my-5 text-center\">Pretending to educate,</div>\n    <div class=\"paragraph card-text card-stanza my-5 text-center\">cannot lead to anything good.</div>\n  </div>\n</div>\n<div class=\"card card-section bg-dark text-warning shadow\">\n  <div class=\"section card-body mb-0 my-2\">\n    <div class=\"paragraph card-text card-stanza my-5 text-center\">Strange elections, vaccine hesitancy, science denial, nationalism, racism, mind crushing poverty,</div>\n    <div class=\"paragraph card-text card-stanza my-5 text-center\">are just the more visible symptoms.</div>\n  </div>\n</div>\n<div class=\"card card-section bg-dark text-warning shadow\">\n  <div class=\"section card-body mb-0 my-2\">\n    <div class=\"paragraph card-text card-stanza my-5 text-center\">Real schools hold such a beautiful promise,</div>\n    <div class=\"paragraph card-text card-stanza my-5 text-center\">a real curriculum that provides real positive results would spread around the world's nations like wildfire.</div>\n  </div>\n</div>\n<div class=\"card card-section bg-dark text-warning shadow\">\n  <div class=\"section card-body mb-0 my-2\">\n    <div class=\"paragraph card-text card-stanza my-5 text-center\">It would quickly change how people and their representatives see the world,</div>\n    <div class=\"paragraph card-text card-stanza my-5 text-center\">issues like pollution, climate, insider trading, and <a href=\"https://en.wikipedia.org/wiki/List_of_American_state_and_local_politicians_convicted_of_crimes\">corrupt politics</a>, would fade away.</div>\n  </div>\n</div>\n<div class=\"card card-section bg-dark text-warning shadow\">\n  <div class=\"section card-body mb-0 my-2\">\n    <div class=\"paragraph card-text card-stanza my-5 text-center\">We have the room for Real Schools, but it is filled with something else,</div>\n    <div class=\"paragraph card-text card-stanza my-5 text-center\">it is hard to describe until you <a href=\"https://www.youtube.com/watch?v=sxyKNMrhEvY\">contrast real schools with the fake ones</a>.</div>\n  </div>\n</div>\n<div class=\"mb-5 section-spacer\">&nbsp;</div>\n<div class=\"card card-section bg-dark text-warning shadow\">\n  <div class=\"section card-body mb-0 my-2\">\n    <div class=\"paragraph card-text card-stanza my-5 text-center\">Do not let schools trick you into thinking that you are not smart enough to learn,</div>\n    <div class=\"paragraph card-text card-stanza my-5 text-center\">build you own unique twisty little passage into the world of knowledge.</div>\n  </div>\n</div>\n<div class=\"card card-section bg-dark text-warning shadow\">\n  <div class=\"section card-body mb-0 my-2\">\n    <div class=\"paragraph card-text card-stanza my-5 text-center\">Choose Self Education and Entrepreneurship first,</div>\n    <div class=\"paragraph card-text card-stanza my-5 text-center\">choose the things that you can tell are real.</div>\n  </div>\n</div>\n<div class=\"card card-section bg-dark text-warning shadow\">\n  <div class=\"section card-body mb-0 my-2\">\n    <div class=\"paragraph card-text card-stanza my-5 text-center\">Protect your curiosities and dreams,</div>\n    <div class=\"paragraph card-text card-stanza my-5 text-center\">as they are the precious starting points into Arts and Sciences.</div>\n  </div>\n</div>\n<div class=\"card card-section bg-dark text-warning shadow\">\n  <div class=\"section card-body mb-0 my-2\">\n    <div class=\"paragraph card-text card-stanza my-5 text-center\">Do not sacrifice what is unique about you,</div>\n    <div class=\"paragraph card-text card-stanza my-5 text-center\">for grades that will rob you of real knowledge and mark you with a score that relies on temporary memorization.</div>\n  </div>\n</div>\n<div class=\"card card-section bg-dark text-warning shadow\">\n  <div class=\"section card-body mb-0 my-2\">\n    <div class=\"paragraph card-text card-stanza my-5 text-center\">Real education is about passion, creativity, art, vision,</div>\n    <div class=\"paragraph card-text card-stanza my-5 text-center\">it has nothing to do with text books, tests, grades, and GPA.</div>\n  </div>\n</div>\n<div class=\"mb-5 section-spacer\">&nbsp;</div>\n<div class=\"card card-section bg-dark text-warning shadow\">\n  <div class=\"section card-body mb-0 my-2\">\n    <div class=\"paragraph card-text card-stanza my-5 text-center\">Ignore your grades,</div>\n    <div class=\"paragraph card-text card-stanza my-5 text-center\">they don't mean anything.</div>\n  </div>\n</div>\n<div class=\"card card-section bg-dark text-warning shadow\">\n  <div class=\"section card-body mb-0 my-2\">\n    <div class=\"paragraph card-text card-stanza my-5 text-center\">Find a happy place,</div>\n    <div class=\"paragraph card-text card-stanza my-5 text-center\">and begin gathering up <a href=\"https://www.youtube.com/watch?v=ZSxv5XhReL8\">happy science books</a>.</div>\n  </div>\n</div>\n<div class=\"card card-section bg-dark text-warning shadow\">\n  <div class=\"section card-body mb-0 my-2\">\n    <div class=\"paragraph card-text card-stanza my-5 text-center\">Take to all top selling non-fiction audio books,</div>\n    <div class=\"paragraph card-text card-stanza my-5 text-center\">and go on adventures.</div>\n  </div>\n</div>\n<div class=\"card card-section bg-dark text-warning shadow\">\n  <div class=\"section card-body mb-0 my-2\">\n    <div class=\"paragraph card-text card-stanza my-5 text-center\">When you are ready,</div>\n    <div class=\"paragraph card-text card-stanza my-5 text-center\">begin learning business by building many little companies until you figure all out.</div>\n  </div>\n</div>\n<div class=\"card card-section bg-dark text-warning shadow\">\n  <div class=\"section card-body mb-0 my-2\">\n    <div class=\"paragraph card-text card-stanza my-5 text-center\">Do not let schools trick you into thinking,</div>\n    <div class=\"paragraph card-text card-stanza my-5 text-center\">that tests are about knowledge, or that that grades mark your level of intelligence.</div>\n  </div>\n</div>\n<div class=\"card card-section bg-dark text-warning shadow\">\n  <div class=\"section card-body mb-0 my-2\">\n    <div class=\"paragraph card-text card-stanza my-5 text-center\">You are infinitely creative,</div>\n    <div class=\"paragraph card-text card-stanza my-5 text-center\">and infinitely intelligent.</div>\n  </div>\n</div>",
  "print": "<div class=\"section avoid-break-inside\" style=\"padding-bottom: 2rem;\">\n  <div class=\"paragraph\">School presents access to knowledge with something so synthetic and abstract,</div>\n  <div class=\"paragraph\">that <span>we can't learn, because it is too incomprehensible and can only be temporary memorized<sup>[1]</sup></span>.</div>\n</div>\n<div class=\"section avoid-break-inside\" style=\"padding-bottom: 2rem;\">\n  <div class=\"paragraph\">We each have a unique pathway with which we access knowledge,</div>\n  <div class=\"paragraph\">it is a cheerful Spring time maze of curiosities and discoveries.</div>\n</div>\n<div class=\"section avoid-break-inside\" style=\"padding-bottom: 2rem;\">\n  <br>\n</div>\n<div class=\"section avoid-break-inside\" style=\"padding-bottom: 2rem;\">\n  <div class=\"paragraph\">A school does conspire to convince us that we are not smart enough to learn,</div>\n  <div class=\"paragraph\">it was never meant to be this way.</div>\n</div>\n<div class=\"section avoid-break-inside\" style=\"padding-bottom: 2rem;\">\n  <div class=\"paragraph\">Schools were meant to set the world free and put an end to wars,</div>\n  <div class=\"paragraph\">put an end to sending children to wars.</div>\n</div>\n<div class=\"section avoid-break-inside\" style=\"padding-bottom: 2rem;\">\n  <br>\n</div>\n<div class=\"section avoid-break-inside\" style=\"padding-bottom: 2rem;\">\n  <div class=\"paragraph\">A formula is not something you memorize,</div>\n  <div class=\"paragraph\">it is tool you look up to make some beautiful graphics for a screen-saver or an art show.</div>\n</div>\n<div class=\"section avoid-break-inside\" style=\"padding-bottom: 2rem;\">\n  <div class=\"paragraph\">There is only one reason why a student would be abused to memorize formulas,</div>\n  <div class=\"paragraph\">testing.</div>\n</div>\n<div class=\"section avoid-break-inside\" style=\"padding-bottom: 2rem;\">\n  <div class=\"paragraph\">It is a test of the teacher,</div>\n  <div class=\"paragraph\">if the classroom grade point average is above a certain point, then the teacher is working.</div>\n</div>\n<div class=\"section avoid-break-inside\" style=\"padding-bottom: 2rem;\">\n  <div class=\"paragraph\">From another perspective,</div>\n  <div class=\"paragraph\">if a teacher can show a good class GPA, then they can demand to get paid and keep their job.</div>\n</div>\n<div class=\"section avoid-break-inside\" style=\"padding-bottom: 2rem;\">\n  <div class=\"paragraph\">Forcing students into memorizing formulas has nothing to do with teaching them,</div>\n  <div class=\"paragraph\">it is just a test of the teacher.</div>\n</div>\n<div class=\"section avoid-break-inside\" style=\"padding-bottom: 2rem;\">\n  <div class=\"paragraph\">Pop quizzes, Quizzes, Tests, take out a piece of paper,</div>\n  <div class=\"paragraph\">is the teacher making sure they will get to keep their job.</div>\n</div>\n<div class=\"section avoid-break-inside\" style=\"padding-bottom: 2rem;\">\n  <div class=\"paragraph\">State and national level tests are even worse,</div>\n  <div class=\"paragraph\">they are little more than crossword puzzles that rely on insider knowledge.</div>\n</div>\n<div class=\"section avoid-break-inside\" style=\"padding-bottom: 2rem;\">\n  <div class=\"paragraph\">Insider knowledge,</div>\n  <div class=\"paragraph\">is the network of those miserable facts that fade as soon as we graduate.</div>\n</div>\n<div class=\"section avoid-break-inside\" style=\"padding-bottom: 2rem;\">\n  <div class=\"paragraph\">The whole is a self serving machine that distributes tax payer money to teachers and higher ups,</div>\n  <div class=\"paragraph\">there is no real education to be found here.</div>\n</div>\n<div class=\"section avoid-break-inside\" style=\"padding-bottom: 2rem;\">\n  <div class=\"paragraph\">The test difficulty merely convinces everyone who participates in the charade,</div>\n  <div class=\"paragraph\">that a lot of work was involved, hard work, that required hard working, oh so hard.</div>\n</div>\n<div class=\"section avoid-break-inside\" style=\"padding-bottom: 2rem;\">\n  <div class=\"paragraph\">A hard test on a difficult subject, is not that different,</div>\n  <div class=\"paragraph\">from a Drill Sargent sending a boy to mop up a parking lot in the rain.</div>\n</div>\n<div class=\"section avoid-break-inside\" style=\"padding-bottom: 2rem;\">\n  <div class=\"paragraph\">Lessons and Tests,</div>\n  <div class=\"paragraph\">are not an education.</div>\n</div>\n<div class=\"section avoid-break-inside\" style=\"padding-bottom: 2rem;\">\n  <div class=\"paragraph\">It is an insult,</div>\n  <div class=\"paragraph\"><span>especially to the younger students that don't yet have enough experience to figure out it is about the teachers and not students<sup>[2]</sup></span>.</div>\n</div>\n<div class=\"section avoid-break-inside\" style=\"padding-bottom: 2rem;\">\n  <br>\n</div>\n<div class=\"section avoid-break-inside\" style=\"padding-bottom: 2rem;\">\n  <div class=\"paragraph\">The worst thing about this is that people become truly convinced they are not smart enough,</div>\n  <div class=\"paragraph\">the broken school not only insult, but in their haste for paychecks defraud people of knowledge.</div>\n</div>\n<div class=\"section avoid-break-inside\" style=\"padding-bottom: 2rem;\">\n  <div class=\"paragraph\">If pressed by a competent congress, the principals would state,</div>\n  <div class=\"paragraph\">that everyone should know that knowledge is free.</div>\n</div>\n<div class=\"section avoid-break-inside\" style=\"padding-bottom: 2rem;\">\n  <div class=\"paragraph\">If pressed, they will say,</div>\n  <div class=\"paragraph\">we are not required to teach your children, and present an entire bouquet of reason and evidence.</div>\n</div>\n<div class=\"section avoid-break-inside\" style=\"padding-bottom: 2rem;\">\n  <div class=\"paragraph\">They will state,</div>\n  <div class=\"paragraph\">that they are required to pass standardized tests, and that is exactly what they do.</div>\n</div>\n<div class=\"section avoid-break-inside\" style=\"padding-bottom: 2rem;\">\n  <div class=\"paragraph\">There is no need for teaching real, functional, inspirational knowledge,</div>\n  <div class=\"paragraph\">the point of a school is tho get the students to past the tests.</div>\n</div>\n<div class=\"section avoid-break-inside\" style=\"padding-bottom: 2rem;\">\n  <div class=\"paragraph\">Because that is how everyone gets paid,</div>\n  <div class=\"paragraph\">and that is how parents get a free babysitter.</div>\n</div>\n<div class=\"section avoid-break-inside\" style=\"padding-bottom: 2rem;\">\n  <br>\n</div>\n<div class=\"section avoid-break-inside\" style=\"padding-bottom: 2rem;\">\n  <div class=\"paragraph\">Pretending to educate,</div>\n  <div class=\"paragraph\">cannot lead to anything good.</div>\n</div>\n<div class=\"section avoid-break-inside\" style=\"padding-bottom: 2rem;\">\n  <div class=\"paragraph\">Strange elections, vaccine hesitancy, science denial, nationalism, racism, mind crushing poverty,</div>\n  <div class=\"paragraph\">are just the more visible symptoms.</div>\n</div>\n<div class=\"section avoid-break-inside\" style=\"padding-bottom: 2rem;\">\n  <div class=\"paragraph\">Real schools hold such a beautiful promise,</div>\n  <div class=\"paragraph\">a real curriculum that provides real positive results would spread around the world's nations like wildfire.</div>\n</div>\n<div class=\"section avoid-break-inside\" style=\"padding-bottom: 2rem;\">\n  <div class=\"paragraph\">It would quickly change how people and their representatives see the world,</div>\n  <div class=\"paragraph\">issues like pollution, climate, insider trading, and <span>corrupt politics<sup>[3]</sup></span>, would fade away.</div>\n</div>\n<div class=\"section avoid-break-inside\" style=\"padding-bottom: 2rem;\">\n  <div class=\"paragraph\">We have the room for Real Schools, but it is filled with something else,</div>\n  <div class=\"paragraph\">it is hard to describe until you <span>contrast real schools with the fake ones<sup>[4]</sup></span>.</div>\n</div>\n<div class=\"section avoid-break-inside\" style=\"padding-bottom: 2rem;\">\n  <br>\n</div>\n<div class=\"section avoid-break-inside\" style=\"padding-bottom: 2rem;\">\n  <div class=\"paragraph\">Do not let schools trick you into thinking that you are not smart enough to learn,</div>\n  <div class=\"paragraph\">build you own unique twisty little passage into the world of knowledge.</div>\n</div>\n<div class=\"section avoid-break-inside\" style=\"padding-bottom: 2rem;\">\n  <div class=\"paragraph\">Choose Self Education and Entrepreneurship first,</div>\n  <div class=\"paragraph\">choose the things that you can tell are real.</div>\n</div>\n<div class=\"section avoid-break-inside\" style=\"padding-bottom: 2rem;\">\n  <div class=\"paragraph\">Protect your curiosities and dreams,</div>\n  <div class=\"paragraph\">as they are the precious starting points into Arts and Sciences.</div>\n</div>\n<div class=\"section avoid-break-inside\" style=\"padding-bottom: 2rem;\">\n  <div class=\"paragraph\">Do not sacrifice what is unique about you,</div>\n  <div class=\"paragraph\">for grades that will rob you of real knowledge and mark you with a score that relies on temporary memorization.</div>\n</div>\n<div class=\"section avoid-break-inside\" style=\"padding-bottom: 2rem;\">\n  <div class=\"paragraph\">Real education is about passion, creativity, art, vision,</div>\n  <div class=\"paragraph\">it has nothing to do with text books, tests, grades, and GPA.</div>\n</div>\n<div class=\"section avoid-break-inside\" style=\"padding-bottom: 2rem;\">\n  <br>\n</div>\n<div class=\"section avoid-break-inside\" style=\"padding-bottom: 2rem;\">\n  <div class=\"paragraph\">Ignore your grades,</div>\n  <div class=\"paragraph\">they don't mean anything.</div>\n</div>\n<div class=\"section avoid-break-inside\" style=\"padding-bottom: 2rem;\">\n  <div class=\"paragraph\">Find a happy place,</div>\n  <div class=\"paragraph\">and begin gathering up <span>happy science books<sup>[5]</sup></span>.</div>\n</div>\n<div class=\"section avoid-break-inside\" style=\"padding-bottom: 2rem;\">\n  <div class=\"paragraph\">Take to all top selling non-fiction audio books,</div>\n  <div class=\"paragraph\">and go on adventures.</div>\n</div>\n<div class=\"section avoid-break-inside\" style=\"padding-bottom: 2rem;\">\n  <div class=\"paragraph\">When you are ready,</div>\n  <div class=\"paragraph\">begin learning business by building many little companies until you figure all out.</div>\n</div>\n<div class=\"section avoid-break-inside\" style=\"padding-bottom: 2rem;\">\n  <div class=\"paragraph\">Do not let schools trick you into thinking,</div>\n  <div class=\"paragraph\">that tests are about knowledge, or that that grades mark your level of intelligence.</div>\n</div>\n<div class=\"section avoid-break-inside\" style=\"padding-bottom: 2rem;\">\n  <div class=\"paragraph\">You are infinitely creative,</div>\n  <div class=\"paragraph\">and infinitely intelligent.</div>\n</div>\n<div class=\"break-after\">&nbsp;</div>\n<div>\n  <div class=\"section\" style=\"padding-bottom: 1rem;\">References</div>\n  <div>[1]: https://www.youtube.com/watch?v=Ws6qmXDJgwU</div>\n  <div>[2]: https://www.youtube.com/watch?v=fmoor8DwqW4</div>\n  <div>[3]: https://en.wikipedia.org/wiki/List_of_American_state_and_local_politicians_convicted_of_crimes</div>\n  <div>[4]: https://www.youtube.com/watch?v=sxyKNMrhEvY</div>\n  <div>[5]: https://www.youtube.com/watch?v=ZSxv5XhReL8</div>\n</div>",
  "text": "School presents access to knowledge with something so synthetic and abstract,\nthat we can't learn, because it is too incomprehensible and can only be temporary memorized[1].\nWe each have a unique pathway with which we access knowledge,\nit is a cheerful Spring time maze of curiosities and discoveries.\n\nA school does conspire to convince us that we are not smart enough to learn,\nit was never meant to be this way.\nSchools were meant to set the world free and put an end to wars,\nput an end to sending children to wars.\n\nA formula is not something you memorize,\nit is tool you look up to make some beautiful graphics for a screen-saver or an art show.\nThere is only one reason why a student would be abused to memorize formulas,\ntesting.\nIt is a test of the teacher,\nif the classroom grade point average is above a certain point, then the teacher is working.\nFrom another perspective,\nif a teacher can show a good class GPA, then they can demand to get paid and keep their job.\nForcing students into memorizing formulas has nothing to do with teaching them,\nit is just a test of the teacher.\nPop quizzes, Quizzes, Tests, take out a piece of paper,\nis the teacher making sure they will get to keep their job.\nState and national level tests are even worse,\nthey are little more than crossword puzzles that rely on insider knowledge.\nInsider knowledge,\nis the network of those miserable facts that fade as soon as we graduate.\nThe whole is a self serving machine that distributes tax payer money to teachers and higher ups,\nthere is no real education to be found here.\nThe test difficulty merely convinces everyone who participates in the charade,\nthat a lot of work was involved, hard work, that required hard working, oh so hard.\nA hard test on a difficult subject, is not that different,\nfrom a Drill Sargent sending a boy to mop up a parking lot in the rain.\nLessons and Tests,\nare not an education.\nIt is an insult,\nespecially to the younger students that don't yet have enough experience to figure out it is about the teachers and not students[2].\n\nThe worst thing about this is that people become truly convinced they are not smart enough,\nthe broken school not only insult, but in their haste for paychecks defraud people of knowledge.\nIf pressed by a competent congress, the principals would state,\nthat everyone should know that knowledge is free.\nIf pressed, they will say,\nwe are not required to teach your children, and present an entire bouquet of reason and evidence.\nThey will state,\nthat they are required to pass standardized tests, and that is exactly what they do.\nThere is no need for teaching real, functional, inspirational knowledge,\nthe point of a school is tho get the students to past the tests.\nBecause that is how everyone gets paid,\nand that is how parents get a free babysitter.\n\nPretending to educate,\ncannot lead to anything good.\nStrange elections, vaccine hesitancy, science denial, nationalism, racism, mind crushing poverty,\nare just the more visible symptoms.\nReal schools hold such a beautiful promise,\na real curriculum that provides real positive results would spread around the world's nations like wildfire.\nIt would quickly change how people and their representatives see the world,\nissues like pollution, climate, insider trading, and corrupt politics[3], would fade away.\nWe have the room for Real Schools, but it is filled with something else,\nit is hard to describe until you contrast real schools with the fake ones[4].\n\nDo not let schools trick you into thinking that you are not smart enough to learn,\nbuild you own unique twisty little passage into the world of knowledge.\nChoose Self Education and Entrepreneurship first,\nchoose the things that you can tell are real.\nProtect your curiosities and dreams,\nas they are the precious starting points into Arts and Sciences.\nDo not sacrifice what is unique about you,\nfor grades that will rob you of real knowledge and mark you with a score that relies on temporary memorization.\nReal education is about passion, creativity, art, vision,\nit has nothing to do with text books, tests, grades, and GPA.\n\nIgnore your grades,\nthey don't mean anything.\nFind a happy place,\nand begin gathering up happy science books[5].\nTake to all top selling non-fiction audio books,\nand go on adventures.\nWhen you are ready,\nbegin learning business by building many little companies until you figure all out.\nDo not let schools trick you into thinking,\nthat tests are about knowledge, or that that grades mark your level of intelligence.\nYou are infinitely creative,\nand infinitely intelligent.\n \nReferences\n[1]: https://www.youtube.com/watch?v=Ws6qmXDJgwU\n[2]: https://www.youtube.com/watch?v=fmoor8DwqW4\n[3]: https://en.wikipedia.org/wiki/List_of_American_state_and_local_politicians_convicted_of_crimes\n[4]: https://www.youtube.com/watch?v=sxyKNMrhEvY\n[5]: https://www.youtube.com/watch?v=ZSxv5XhReL8",
  "images": [],
  "links": [
    {
      "title": "we can't learn, because it is too incomprehensible and can only be temporary memorized",
      "url": "https://www.youtube.com/watch?v=Ws6qmXDJgwU",
      "hostname": "www.youtube.com"
    },
    {
      "title": "especially to the younger students that don't yet have enough experience to figure out it is about the teachers and not students",
      "url": "https://www.youtube.com/watch?v=fmoor8DwqW4",
      "hostname": "www.youtube.com"
    },
    {
      "title": "corrupt politics",
      "url": "https://en.wikipedia.org/wiki/List_of_American_state_and_local_politicians_convicted_of_crimes",
      "hostname": "en.wikipedia.org"
    },
    {
      "title": "contrast real schools with the fake ones",
      "url": "https://www.youtube.com/watch?v=sxyKNMrhEvY",
      "hostname": "www.youtube.com"
    },
    {
      "title": "happy science books",
      "url": "https://www.youtube.com/watch?v=ZSxv5XhReL8",
      "hostname": "www.youtube.com"
    }
  ]
}