{
  "name": "furkies-purrkies-poetry-0772",
  "id": "furkies-purrkies-poetry-0772",
  "title": "Don't Let Art-Liars Trick You: You Are Already An Artist",
  "date": "2022-04-11T20:05:12.766Z",
  "image": "poetry-0772-illustration.jpg",
  "artwork": "https://catpea.com",
  "audio": "poetry-0772.mp3",
  "guid": "fb02a4a9-1399-46e1-828f-bcd4fd471dff",
  "html": "<div class=\"section\">\n  <p>The school taught,<br>artists...</p>\n  <p>Are forced to think<br>that using original colors is wrong.</p>\n  <p>And they call this beautiful invention,<br>color picking.</p>\n  <p>They don't see the beauty,<br>of the process.</p>\n  <p>The light coming through the lens,<br>the microchip and being captured in a file, and framed in a theory.</p>\n  <p>This color is precious,<br>it is a gem, a true ray of light.</p>\n</div>\n<div class=\"section\">\n  <hr>\n</div>\n<div class=\"section\">\n  <p>They also call,<br>the direct use of reference images: paint-overs.</p>\n  <p>Again,<br>they were tricked by teachers.</p>\n  <p>Teachers who took credit for their talent,<br>as we all have the talent for art...</p>\n  <p>Teachers just want to put food on their table, and look good,<br>so they'll put on a show that delays real education.</p>\n  <p>To truly capture the shape,<br>one has to use either Photogrammetry or a 3D modeling program.</p>\n  <p>It is not possible to capture shape with a grid,<br>because we have a great responsibility to the people in our paintings.</p>\n  <p>They are not to imagine themselves in them,<br>but to recognize themselves.</p>\n</div>\n<div class=\"section\">\n  <hr>\n</div>\n<div class=\"section\">\n  <p>The names \"color-picking\", and \"paint-overs\",<br>are crafted to belittle you, to enhance elitism.</p>\n  <p>I want to underline here,<br>that use of real colors, and reference images - IS A TEACHER.</p>\n  <p>It is a teacher 10,000 more powerful than any human,<br>it is also a gateway into very powerful art.</p>\n  <p>Teachers and basically students that were made mad,<br>by the fraudulent teacher, have fraudulently shut that gateway for many people.</p>\n  <p>They shamed them out of claiming their artist abilities,<br>abilities that they already had, that they only needed some basic help to access.</p>\n</div>\n<div class=\"section\">\n  <hr>\n</div>\n<div class=\"section\">\n  <p>In this way the story of art,<br>is a great tragedy.</p>\n  <p>It is a story stained by hate,<br>elitism, theft, and lies.</p>\n  <p>You were born an artist,<br>you have always been an artist.</p>\n  <p>This is a great and precious power,<br>this is why people will try to lie, cheat, and manipulate you away.</p>\n</div>\n<div class=\"section\">\n  <hr>\n</div>\n<div class=\"section\">\n  <p>You must not allow people to shame you away from art,<br>use the original color use reference images - directly.</p>\n  <p>YOU WILL NEVER FIND A BETTER TEACHER,<br>NEVER, NEVER, NEVER, EVER.</p>\n  <p>I'll let you figure out on your own,<br>what kind of people shame others out of beauty.</p>\n  <p>But be ready,<br>be ready to push back the shame.</p>\n  <p>There was a couple of morons that once thought they could corner Richard Dawkins,<br>while the words they used went together, their logic was complete sh*t...</p>\n  <p>And Richard's response was as fine and classy as always,<br>and you should use that on the elitist art bullies and fake teachers that are sure to stand in your way.</p>\n  <p>Just respond to their arguments of doing it their way with,<br>\"<a href=\"https://www.youtube.com/watch?v=zPsmYWbY-VA&t=3010s\">If you're convinced by that kind of thing... you're welcome</a>\"</p>\n  <p>And turn around, and continue learning<br>by means of real colors and correct shapes.</p>\n  <p>It will take them 10 years what you,<br>what you can easily accomplish in two months.</p>\n  <p>They are just doing what you are doing,<br>though, with extra and steps.</p>\n  <p>But know that the price they pay,<br>is enormous, as fake education is the worst thing.</p>\n  <p>By not trully tasting real colors,<br>they will never invent color studies from within themselves.</p>\n  <p>They will never touch perfect shaped undivided by grids,<br>and their studies will be corrupted from beginning.</p>\n  <p>What can one teach the eye,<br>by training it with slightly misshapen portraits?</p>\n  <p>By contrast when you work with real shapes,<br>you are navigating the perfect map of a city.</p>\n  <p>You learn how to get around,<br>from the mirror image.</p>\n  <p>In order for your eye to eventually know when the shape is wrong,<br>you have to study the correct one.</p>\n</div>\n<div class=\"section\">\n  <hr>\n</div>\n<div class=\"section\">\n  <p>We are all artists,<br>we were artists all along.</p>\n  <p>We have to fix schools,<br>become a Great Being.</p>\n  <p><a href=\"https://www.reddit.com/r/redditgetsdrawn/comments/tjpzny/this_is_me/\">Title-image Contest</a></p>\n</div>",
  "bootstrap": "<div class=\"card card-section bg-dark text-warning shadow\">\n  <div class=\"section card-body mb-0 my-2\">\n    <div class=\"paragraph card-text card-stanza my-5 text-center\">The school taught,<br>artists...</div>\n    <div class=\"paragraph card-text card-stanza my-5 text-center\">Are forced to think<br>that using original colors is wrong.</div>\n    <div class=\"paragraph card-text card-stanza my-5 text-center\">And they call this beautiful invention,<br>color picking.</div>\n    <div class=\"paragraph card-text card-stanza my-5 text-center\">They don't see the beauty,<br>of the process.</div>\n    <div class=\"paragraph card-text card-stanza my-5 text-center\">The light coming through the lens,<br>the microchip and being captured in a file, and framed in a theory.</div>\n    <div class=\"paragraph card-text card-stanza my-5 text-center\">This color is precious,<br>it is a gem, a true ray of light.</div>\n  </div>\n</div>\n<div class=\"mb-5 section-spacer\">&nbsp;</div>\n<div class=\"card card-section bg-dark text-warning shadow\">\n  <div class=\"section card-body mb-0 my-2\">\n    <div class=\"paragraph card-text card-stanza my-5 text-center\">They also call,<br>the direct use of reference images: paint-overs.</div>\n    <div class=\"paragraph card-text card-stanza my-5 text-center\">Again,<br>they were tricked by teachers.</div>\n    <div class=\"paragraph card-text card-stanza my-5 text-center\">Teachers who took credit for their talent,<br>as we all have the talent for art...</div>\n    <div class=\"paragraph card-text card-stanza my-5 text-center\">Teachers just want to put food on their table, and look good,<br>so they'll put on a show that delays real education.</div>\n    <div class=\"paragraph card-text card-stanza my-5 text-center\">To truly capture the shape,<br>one has to use either Photogrammetry or a 3D modeling program.</div>\n    <div class=\"paragraph card-text card-stanza my-5 text-center\">It is not possible to capture shape with a grid,<br>because we have a great responsibility to the people in our paintings.</div>\n    <div class=\"paragraph card-text card-stanza my-5 text-center\">They are not to imagine themselves in them,<br>but to recognize themselves.</div>\n  </div>\n</div>\n<div class=\"mb-5 section-spacer\">&nbsp;</div>\n<div class=\"card card-section bg-dark text-warning shadow\">\n  <div class=\"section card-body mb-0 my-2\">\n    <div class=\"paragraph card-text card-stanza my-5 text-center\">The names \"color-picking\", and \"paint-overs\",<br>are crafted to belittle you, to enhance elitism.</div>\n    <div class=\"paragraph card-text card-stanza my-5 text-center\">I want to underline here,<br>that use of real colors, and reference images - IS A TEACHER.</div>\n    <div class=\"paragraph card-text card-stanza my-5 text-center\">It is a teacher 10,000 more powerful than any human,<br>it is also a gateway into very powerful art.</div>\n    <div class=\"paragraph card-text card-stanza my-5 text-center\">Teachers and basically students that were made mad,<br>by the fraudulent teacher, have fraudulently shut that gateway for many people.</div>\n    <div class=\"paragraph card-text card-stanza my-5 text-center\">They shamed them out of claiming their artist abilities,<br>abilities that they already had, that they only needed some basic help to access.</div>\n  </div>\n</div>\n<div class=\"mb-5 section-spacer\">&nbsp;</div>\n<div class=\"card card-section bg-dark text-warning shadow\">\n  <div class=\"section card-body mb-0 my-2\">\n    <div class=\"paragraph card-text card-stanza my-5 text-center\">In this way the story of art,<br>is a great tragedy.</div>\n    <div class=\"paragraph card-text card-stanza my-5 text-center\">It is a story stained by hate,<br>elitism, theft, and lies.</div>\n    <div class=\"paragraph card-text card-stanza my-5 text-center\">You were born an artist,<br>you have always been an artist.</div>\n    <div class=\"paragraph card-text card-stanza my-5 text-center\">This is a great and precious power,<br>this is why people will try to lie, cheat, and manipulate you away.</div>\n  </div>\n</div>\n<div class=\"mb-5 section-spacer\">&nbsp;</div>\n<div class=\"card card-section bg-dark text-warning shadow\">\n  <div class=\"section card-body mb-0 my-2\">\n    <div class=\"paragraph card-text card-stanza my-5 text-center\">You must not allow people to shame you away from art,<br>use the original color use reference images - directly.</div>\n    <div class=\"paragraph card-text card-stanza my-5 text-center\">YOU WILL NEVER FIND A BETTER TEACHER,<br>NEVER, NEVER, NEVER, EVER.</div>\n    <div class=\"paragraph card-text card-stanza my-5 text-center\">I'll let you figure out on your own,<br>what kind of people shame others out of beauty.</div>\n    <div class=\"paragraph card-text card-stanza my-5 text-center\">But be ready,<br>be ready to push back the shame.</div>\n    <div class=\"paragraph card-text card-stanza my-5 text-center\">There was a couple of morons that once thought they could corner Richard Dawkins,<br>while the words they used went together, their logic was complete sh*t...</div>\n    <div class=\"paragraph card-text card-stanza my-5 text-center\">And Richard's response was as fine and classy as always,<br>and you should use that on the elitist art bullies and fake teachers that are sure to stand in your way.</div>\n    <div class=\"paragraph card-text card-stanza my-5 text-center\">Just respond to their arguments of doing it their way with,<br>\"<a href=\"https://www.youtube.com/watch?v=zPsmYWbY-VA&t=3010s\">If you're convinced by that kind of thing... you're welcome</a>\"</div>\n    <div class=\"paragraph card-text card-stanza my-5 text-center\">And turn around, and continue learning<br>by means of real colors and correct shapes.</div>\n    <div class=\"paragraph card-text card-stanza my-5 text-center\">It will take them 10 years what you,<br>what you can easily accomplish in two months.</div>\n    <div class=\"paragraph card-text card-stanza my-5 text-center\">They are just doing what you are doing,<br>though, with extra and steps.</div>\n    <div class=\"paragraph card-text card-stanza my-5 text-center\">But know that the price they pay,<br>is enormous, as fake education is the worst thing.</div>\n    <div class=\"paragraph card-text card-stanza my-5 text-center\">By not trully tasting real colors,<br>they will never invent color studies from within themselves.</div>\n    <div class=\"paragraph card-text card-stanza my-5 text-center\">They will never touch perfect shaped undivided by grids,<br>and their studies will be corrupted from beginning.</div>\n    <div class=\"paragraph card-text card-stanza my-5 text-center\">What can one teach the eye,<br>by training it with slightly misshapen portraits?</div>\n    <div class=\"paragraph card-text card-stanza my-5 text-center\">By contrast when you work with real shapes,<br>you are navigating the perfect map of a city.</div>\n    <div class=\"paragraph card-text card-stanza my-5 text-center\">You learn how to get around,<br>from the mirror image.</div>\n    <div class=\"paragraph card-text card-stanza my-5 text-center\">In order for your eye to eventually know when the shape is wrong,<br>you have to study the correct one.</div>\n  </div>\n</div>\n<div class=\"mb-5 section-spacer\">&nbsp;</div>\n<div class=\"card card-section bg-dark text-warning shadow\">\n  <div class=\"section card-body mb-0 my-2\">\n    <div class=\"paragraph card-text card-stanza my-5 text-center\">We are all artists,<br>we were artists all along.</div>\n    <div class=\"paragraph card-text card-stanza my-5 text-center\">We have to fix schools,<br>become a Great Being.</div>\n    <div class=\"paragraph card-text card-stanza my-5 text-center\"><a href=\"https://www.reddit.com/r/redditgetsdrawn/comments/tjpzny/this_is_me/\">Title-image Contest</a></div>\n  </div>\n</div>",
  "print": "<div class=\"section avoid-break-inside\" style=\"padding-bottom: 2rem;\">\n  <div class=\"paragraph\">The school taught,<br>artists...</div>\n  <div class=\"paragraph\">Are forced to think<br>that using original colors is wrong.</div>\n  <div class=\"paragraph\">And they call this beautiful invention,<br>color picking.</div>\n  <div class=\"paragraph\">They don't see the beauty,<br>of the process.</div>\n  <div class=\"paragraph\">The light coming through the lens,<br>the microchip and being captured in a file, and framed in a theory.</div>\n  <div class=\"paragraph\">This color is precious,<br>it is a gem, a true ray of light.</div>\n</div>\n<div class=\"section avoid-break-inside\" style=\"padding-bottom: 2rem;\">\n  <br>\n</div>\n<div class=\"section avoid-break-inside\" style=\"padding-bottom: 2rem;\">\n  <div class=\"paragraph\">They also call,<br>the direct use of reference images: paint-overs.</div>\n  <div class=\"paragraph\">Again,<br>they were tricked by teachers.</div>\n  <div class=\"paragraph\">Teachers who took credit for their talent,<br>as we all have the talent for art...</div>\n  <div class=\"paragraph\">Teachers just want to put food on their table, and look good,<br>so they'll put on a show that delays real education.</div>\n  <div class=\"paragraph\">To truly capture the shape,<br>one has to use either Photogrammetry or a 3D modeling program.</div>\n  <div class=\"paragraph\">It is not possible to capture shape with a grid,<br>because we have a great responsibility to the people in our paintings.</div>\n  <div class=\"paragraph\">They are not to imagine themselves in them,<br>but to recognize themselves.</div>\n</div>\n<div class=\"section avoid-break-inside\" style=\"padding-bottom: 2rem;\">\n  <br>\n</div>\n<div class=\"section avoid-break-inside\" style=\"padding-bottom: 2rem;\">\n  <div class=\"paragraph\">The names \"color-picking\", and \"paint-overs\",<br>are crafted to belittle you, to enhance elitism.</div>\n  <div class=\"paragraph\">I want to underline here,<br>that use of real colors, and reference images - IS A TEACHER.</div>\n  <div class=\"paragraph\">It is a teacher 10,000 more powerful than any human,<br>it is also a gateway into very powerful art.</div>\n  <div class=\"paragraph\">Teachers and basically students that were made mad,<br>by the fraudulent teacher, have fraudulently shut that gateway for many people.</div>\n  <div class=\"paragraph\">They shamed them out of claiming their artist abilities,<br>abilities that they already had, that they only needed some basic help to access.</div>\n</div>\n<div class=\"section avoid-break-inside\" style=\"padding-bottom: 2rem;\">\n  <br>\n</div>\n<div class=\"section avoid-break-inside\" style=\"padding-bottom: 2rem;\">\n  <div class=\"paragraph\">In this way the story of art,<br>is a great tragedy.</div>\n  <div class=\"paragraph\">It is a story stained by hate,<br>elitism, theft, and lies.</div>\n  <div class=\"paragraph\">You were born an artist,<br>you have always been an artist.</div>\n  <div class=\"paragraph\">This is a great and precious power,<br>this is why people will try to lie, cheat, and manipulate you away.</div>\n</div>\n<div class=\"section avoid-break-inside\" style=\"padding-bottom: 2rem;\">\n  <br>\n</div>\n<div class=\"section avoid-break-inside\" style=\"padding-bottom: 2rem;\">\n  <div class=\"paragraph\">You must not allow people to shame you away from art,<br>use the original color use reference images - directly.</div>\n  <div class=\"paragraph\">YOU WILL NEVER FIND A BETTER TEACHER,<br>NEVER, NEVER, NEVER, EVER.</div>\n  <div class=\"paragraph\">I'll let you figure out on your own,<br>what kind of people shame others out of beauty.</div>\n  <div class=\"paragraph\">But be ready,<br>be ready to push back the shame.</div>\n  <div class=\"paragraph\">There was a couple of morons that once thought they could corner Richard Dawkins,<br>while the words they used went together, their logic was complete sh*t...</div>\n  <div class=\"paragraph\">And Richard's response was as fine and classy as always,<br>and you should use that on the elitist art bullies and fake teachers that are sure to stand in your way.</div>\n  <div class=\"paragraph\">Just respond to their arguments of doing it their way with,<br>\"<span>If you're convinced by that kind of thing... you're welcome<sup>[1]</sup></span>\"</div>\n  <div class=\"paragraph\">And turn around, and continue learning<br>by means of real colors and correct shapes.</div>\n  <div class=\"paragraph\">It will take them 10 years what you,<br>what you can easily accomplish in two months.</div>\n  <div class=\"paragraph\">They are just doing what you are doing,<br>though, with extra and steps.</div>\n  <div class=\"paragraph\">But know that the price they pay,<br>is enormous, as fake education is the worst thing.</div>\n  <div class=\"paragraph\">By not trully tasting real colors,<br>they will never invent color studies from within themselves.</div>\n  <div class=\"paragraph\">They will never touch perfect shaped undivided by grids,<br>and their studies will be corrupted from beginning.</div>\n  <div class=\"paragraph\">What can one teach the eye,<br>by training it with slightly misshapen portraits?</div>\n  <div class=\"paragraph\">By contrast when you work with real shapes,<br>you are navigating the perfect map of a city.</div>\n  <div class=\"paragraph\">You learn how to get around,<br>from the mirror image.</div>\n  <div class=\"paragraph\">In order for your eye to eventually know when the shape is wrong,<br>you have to study the correct one.</div>\n</div>\n<div class=\"section avoid-break-inside\" style=\"padding-bottom: 2rem;\">\n  <br>\n</div>\n<div class=\"section avoid-break-inside\" style=\"padding-bottom: 2rem;\">\n  <div class=\"paragraph\">We are all artists,<br>we were artists all along.</div>\n  <div class=\"paragraph\">We have to fix schools,<br>become a Great Being.</div>\n  <div class=\"paragraph\"><span>Title-image Contest<sup>[2]</sup></span></div>\n</div>\n<div class=\"break-after\">&nbsp;</div>\n<div>\n  <div class=\"section\" style=\"padding-bottom: 1rem;\">References</div>\n  <div>[1]: https://www.youtube.com/watch?v=zPsmYWbY-VA&t=3010s</div>\n  <div>[2]: https://www.reddit.com/r/redditgetsdrawn/comments/tjpzny/this_is_me/</div>\n</div>",
  "text": "The school taught,\nartists...\nAre forced to think\nthat using original colors is wrong.\nAnd they call this beautiful invention,\ncolor picking.\nThey don't see the beauty,\nof the process.\nThe light coming through the lens,\nthe microchip and being captured in a file, and framed in a theory.\nThis color is precious,\nit is a gem, a true ray of light.\n\nThey also call,\nthe direct use of reference images: paint-overs.\nAgain,\nthey were tricked by teachers.\nTeachers who took credit for their talent,\nas we all have the talent for art...\nTeachers just want to put food on their table, and look good,\nso they'll put on a show that delays real education.\nTo truly capture the shape,\none has to use either Photogrammetry or a 3D modeling program.\nIt is not possible to capture shape with a grid,\nbecause we have a great responsibility to the people in our paintings.\nThey are not to imagine themselves in them,\nbut to recognize themselves.\n\nThe names \"color-picking\", and \"paint-overs\",\nare crafted to belittle you, to enhance elitism.\nI want to underline here,\nthat use of real colors, and reference images - IS A TEACHER.\nIt is a teacher 10,000 more powerful than any human,\nit is also a gateway into very powerful art.\nTeachers and basically students that were made mad,\nby the fraudulent teacher, have fraudulently shut that gateway for many people.\nThey shamed them out of claiming their artist abilities,\nabilities that they already had, that they only needed some basic help to access.\n\nIn this way the story of art,\nis a great tragedy.\nIt is a story stained by hate,\nelitism, theft, and lies.\nYou were born an artist,\nyou have always been an artist.\nThis is a great and precious power,\nthis is why people will try to lie, cheat, and manipulate you away.\n\nYou must not allow people to shame you away from art,\nuse the original color use reference images - directly.\nYOU WILL NEVER FIND A BETTER TEACHER,\nNEVER, NEVER, NEVER, EVER.\nI'll let you figure out on your own,\nwhat kind of people shame others out of beauty.\nBut be ready,\nbe ready to push back the shame.\nThere was a couple of morons that once thought they could corner Richard Dawkins,\nwhile the words they used went together, their logic was complete sh*t...\nAnd Richard's response was as fine and classy as always,\nand you should use that on the elitist art bullies and fake teachers that are sure to stand in your way.\nJust respond to their arguments of doing it their way with,\n\"If you're convinced by that kind of thing... you're welcome[1]\"\nAnd turn around, and continue learning\nby means of real colors and correct shapes.\nIt will take them 10 years what you,\nwhat you can easily accomplish in two months.\nThey are just doing what you are doing,\nthough, with extra and steps.\nBut know that the price they pay,\nis enormous, as fake education is the worst thing.\nBy not trully tasting real colors,\nthey will never invent color studies from within themselves.\nThey will never touch perfect shaped undivided by grids,\nand their studies will be corrupted from beginning.\nWhat can one teach the eye,\nby training it with slightly misshapen portraits?\nBy contrast when you work with real shapes,\nyou are navigating the perfect map of a city.\nYou learn how to get around,\nfrom the mirror image.\nIn order for your eye to eventually know when the shape is wrong,\nyou have to study the correct one.\n\nWe are all artists,\nwe were artists all along.\nWe have to fix schools,\nbecome a Great Being.\nTitle-image Contest[2]\n \nReferences\n[1]: https://www.youtube.com/watch?v=zPsmYWbY-VA&t=3010s\n[2]: https://www.reddit.com/r/redditgetsdrawn/comments/tjpzny/this_is_me/",
  "images": [],
  "links": [
    {
      "title": "If you're convinced by that kind of thing... you're welcome",
      "url": "https://www.youtube.com/watch?v=zPsmYWbY-VA&t=3010s",
      "hostname": "www.youtube.com"
    },
    {
      "title": "Title-image Contest",
      "url": "https://www.reddit.com/r/redditgetsdrawn/comments/tjpzny/this_is_me/",
      "hostname": "www.reddit.com"
    }
  ]
}