{
  "title": "Enlarging Your World",
  "date": "2020-05-16T23:23:17.993Z",
  "image": "poetry-0072-illustration.jpg",
  "audio": "poetry-0072.mp3",
  "id": "furkies-purrkies-poetry-0072",
  "attachments": {},
  "guid": "ddaf74f8-90ea-44af-bc68-69919ed5f205"
}
