{
  "id": "furkies-purrkies-poetry-0544",
  "title": "My Little Adventure In 3D Modeling",
  "date": "2021-08-27T02:09:50.220Z",
  "image": "poetry-0544-illustration.jpg",
  "artwork": "https://example.com",
  "audio": "poetry-0544.mp3",
  "guid": "c8f60ce8-96d7-4fcd-8c24-41a517b80020"
}
