{
  "name": "furkies-purrkies-poetry-0577",
  "id": "furkies-purrkies-poetry-0577",
  "title": "The Genius Within Us All",
  "date": "2021-09-28T23:32:54.886Z",
  "image": "poetry-0577-illustration.jpg",
  "artwork": "https://unsplash.com/photos/FqdfVIdgR98",
  "audio": "poetry-0577.mp3",
  "guid": "5c253c65-1aef-4903-ac3b-2f06ac93c849",
  "html": "<div class=\"section\">\n  <p>Genius is not meant to stop you or make you feel bad,<br>it is what we become when our pursuits add.</p>\n  <p>When you protect your curiosities from dumb grades and broken school,<br>when you take care to be nobody’s fool...</p>\n  <p>And take to adventures and narrated books,<br>making sure to avoid all the knaves and crooks.</p>\n  <p>Sooner than later your curiosities will combine and become one,<br>this will be a genius invention, your joy and your fun.</p>\n</div>\n<div class=\"section\">\n  <hr>\n</div>\n<div class=\"section\">\n  <p>So you see genius emerges out of doing what you enjoy,<br>not out of a blind pursuit or some mad ploy.</p>\n  <p>It certainly does not come from following somebody else orders,<br>I think that can only be a source of disorders.</p>\n  <p>And it is not about going the extra mile,<br>but living that life because it is your style.</p>\n</div>\n<div class=\"section\">\n  <hr>\n</div>\n<div class=\"section\">\n  <p>You see what a terrible problem the troublemakers face,<br>they have to force their way forward and keep up the pace.</p>\n  <p>People who are just dancing around their curiosities whilst having fun,<br>will have them easily outdone.</p>\n</div>\n<div class=\"section\">\n  <hr>\n</div>\n<div class=\"section\">\n  <p>If art calls to you, get a wall projector and paint the biggest canvas you can find,<br>it will be pure joy as you and art are intertwined.</p>\n  <p>It math calls to you, turn every little lesson to intricate generative art,<br>it is not just about math-smart, the biggest breakthroughs come from the heart.</p>\n  <p>And if you are a travel writer and need material for your tails,<br>then you have to walk the Pacific Crest, the Continental Divide, and the Appalachian Trails.</p>\n</div>\n<div class=\"section\">\n  <hr>\n</div>\n<div class=\"section\">\n  <p>You can only find genius in the things you like,<br>be it art, science, music, computers, or a long hike.</p>\n  <p>When you are on an adventure that fits you,<br>your beautiful mind grows greater to expand your knowledge and view.</p>\n</div>\n<div class=\"section\">\n  <hr>\n</div>\n<div class=\"section\">\n  <p>You should not be surprised to hear that genius is part of us all,<br>the surprise is that so many people think of themselves as small.</p>\n</div>\n<div class=\"section\">\n  <hr>\n</div>\n<div class=\"section\">\n  <p>Just like we want everyone to be able to read,<br>we have to remember that curiosities and adventures is something we all need.</p>\n  <p>We can’t just go to school and let it rob us of our treasures,<br>the theft of brilliance - is a crime beyond all measures.</p>\n  <p>Grades are not real, because we aren’t learning as the subjects are disconnected,<br>in real life it matters not how many useless facts we’ve collected.</p>\n</div>\n<div class=\"section\">\n  <hr>\n</div>\n<div class=\"section\">\n  <p>Just look at the <a href=\"https://www.youtube.com/watch?v=SzjZxIaZEd4\">overhead projector in your art class</a>,<br>the students are so close to perfect portraits, but are forced pass.</p>\n  <p>We must not allow anybody to trade our brilliance for anything,<br>no matter how tightly to that promise of a diploma we cling.</p>\n  <p>Every other art class should end,<br>with a perfect portrait of a friend.</p>\n  <p><a href=\"https://www.youtube.com/watch?v=0sRvkaxh8EU\">Music composition is easy too</a>,<br>you just need to practice with lmms for a day or two.</p>\n</div>\n<div class=\"section\">\n  <hr>\n</div>\n<div class=\"section\">\n  <p>Genius is within us all,<br>in a way, it is what makes us whole.</p>\n  <p>We have to take a step forward and create some space,<br>because we can only learn independently and at our own pace.</p>\n</div>",
  "bootstrap": "<div class=\"card card-section bg-dark text-warning shadow\">\n  <div class=\"section card-body mb-0 my-2\">\n    <div class=\"paragraph card-text card-stanza my-5 text-center\">Genius is not meant to stop you or make you feel bad,<br>it is what we become when our pursuits add.</div>\n    <div class=\"paragraph card-text card-stanza my-5 text-center\">When you protect your curiosities from dumb grades and broken school,<br>when you take care to be nobody’s fool...</div>\n    <div class=\"paragraph card-text card-stanza my-5 text-center\">And take to adventures and narrated books,<br>making sure to avoid all the knaves and crooks.</div>\n    <div class=\"paragraph card-text card-stanza my-5 text-center\">Sooner than later your curiosities will combine and become one,<br>this will be a genius invention, your joy and your fun.</div>\n  </div>\n</div>\n<div class=\"mb-5 section-spacer\">&nbsp;</div>\n<div class=\"card card-section bg-dark text-warning shadow\">\n  <div class=\"section card-body mb-0 my-2\">\n    <div class=\"paragraph card-text card-stanza my-5 text-center\">So you see genius emerges out of doing what you enjoy,<br>not out of a blind pursuit or some mad ploy.</div>\n    <div class=\"paragraph card-text card-stanza my-5 text-center\">It certainly does not come from following somebody else orders,<br>I think that can only be a source of disorders.</div>\n    <div class=\"paragraph card-text card-stanza my-5 text-center\">And it is not about going the extra mile,<br>but living that life because it is your style.</div>\n  </div>\n</div>\n<div class=\"mb-5 section-spacer\">&nbsp;</div>\n<div class=\"card card-section bg-dark text-warning shadow\">\n  <div class=\"section card-body mb-0 my-2\">\n    <div class=\"paragraph card-text card-stanza my-5 text-center\">You see what a terrible problem the troublemakers face,<br>they have to force their way forward and keep up the pace.</div>\n    <div class=\"paragraph card-text card-stanza my-5 text-center\">People who are just dancing around their curiosities whilst having fun,<br>will have them easily outdone.</div>\n  </div>\n</div>\n<div class=\"mb-5 section-spacer\">&nbsp;</div>\n<div class=\"card card-section bg-dark text-warning shadow\">\n  <div class=\"section card-body mb-0 my-2\">\n    <div class=\"paragraph card-text card-stanza my-5 text-center\">If art calls to you, get a wall projector and paint the biggest canvas you can find,<br>it will be pure joy as you and art are intertwined.</div>\n    <div class=\"paragraph card-text card-stanza my-5 text-center\">It math calls to you, turn every little lesson to intricate generative art,<br>it is not just about math-smart, the biggest breakthroughs come from the heart.</div>\n    <div class=\"paragraph card-text card-stanza my-5 text-center\">And if you are a travel writer and need material for your tails,<br>then you have to walk the Pacific Crest, the Continental Divide, and the Appalachian Trails.</div>\n  </div>\n</div>\n<div class=\"mb-5 section-spacer\">&nbsp;</div>\n<div class=\"card card-section bg-dark text-warning shadow\">\n  <div class=\"section card-body mb-0 my-2\">\n    <div class=\"paragraph card-text card-stanza my-5 text-center\">You can only find genius in the things you like,<br>be it art, science, music, computers, or a long hike.</div>\n    <div class=\"paragraph card-text card-stanza my-5 text-center\">When you are on an adventure that fits you,<br>your beautiful mind grows greater to expand your knowledge and view.</div>\n  </div>\n</div>\n<div class=\"mb-5 section-spacer\">&nbsp;</div>\n<div class=\"card card-section bg-dark text-warning shadow\">\n  <div class=\"section card-body mb-0 my-2\">\n    <div class=\"paragraph card-text card-stanza my-5 text-center\">You should not be surprised to hear that genius is part of us all,<br>the surprise is that so many people think of themselves as small.</div>\n  </div>\n</div>\n<div class=\"mb-5 section-spacer\">&nbsp;</div>\n<div class=\"card card-section bg-dark text-warning shadow\">\n  <div class=\"section card-body mb-0 my-2\">\n    <div class=\"paragraph card-text card-stanza my-5 text-center\">Just like we want everyone to be able to read,<br>we have to remember that curiosities and adventures is something we all need.</div>\n    <div class=\"paragraph card-text card-stanza my-5 text-center\">We can’t just go to school and let it rob us of our treasures,<br>the theft of brilliance - is a crime beyond all measures.</div>\n    <div class=\"paragraph card-text card-stanza my-5 text-center\">Grades are not real, because we aren’t learning as the subjects are disconnected,<br>in real life it matters not how many useless facts we’ve collected.</div>\n  </div>\n</div>\n<div class=\"mb-5 section-spacer\">&nbsp;</div>\n<div class=\"card card-section bg-dark text-warning shadow\">\n  <div class=\"section card-body mb-0 my-2\">\n    <div class=\"paragraph card-text card-stanza my-5 text-center\">Just look at the <a href=\"https://www.youtube.com/watch?v=SzjZxIaZEd4\">overhead projector in your art class</a>,<br>the students are so close to perfect portraits, but are forced pass.</div>\n    <div class=\"paragraph card-text card-stanza my-5 text-center\">We must not allow anybody to trade our brilliance for anything,<br>no matter how tightly to that promise of a diploma we cling.</div>\n    <div class=\"paragraph card-text card-stanza my-5 text-center\">Every other art class should end,<br>with a perfect portrait of a friend.</div>\n    <div class=\"paragraph card-text card-stanza my-5 text-center\"><a href=\"https://www.youtube.com/watch?v=0sRvkaxh8EU\">Music composition is easy too</a>,<br>you just need to practice with lmms for a day or two.</div>\n  </div>\n</div>\n<div class=\"mb-5 section-spacer\">&nbsp;</div>\n<div class=\"card card-section bg-dark text-warning shadow\">\n  <div class=\"section card-body mb-0 my-2\">\n    <div class=\"paragraph card-text card-stanza my-5 text-center\">Genius is within us all,<br>in a way, it is what makes us whole.</div>\n    <div class=\"paragraph card-text card-stanza my-5 text-center\">We have to take a step forward and create some space,<br>because we can only learn independently and at our own pace.</div>\n  </div>\n</div>",
  "print": "<div class=\"section avoid-break-inside\" style=\"padding-bottom: 2rem;\">\n  <div class=\"paragraph\">Genius is not meant to stop you or make you feel bad,<br>it is what we become when our pursuits add.</div>\n  <div class=\"paragraph\">When you protect your curiosities from dumb grades and broken school,<br>when you take care to be nobody’s fool...</div>\n  <div class=\"paragraph\">And take to adventures and narrated books,<br>making sure to avoid all the knaves and crooks.</div>\n  <div class=\"paragraph\">Sooner than later your curiosities will combine and become one,<br>this will be a genius invention, your joy and your fun.</div>\n</div>\n<div class=\"section avoid-break-inside\" style=\"padding-bottom: 2rem;\">\n  <br>\n</div>\n<div class=\"section avoid-break-inside\" style=\"padding-bottom: 2rem;\">\n  <div class=\"paragraph\">So you see genius emerges out of doing what you enjoy,<br>not out of a blind pursuit or some mad ploy.</div>\n  <div class=\"paragraph\">It certainly does not come from following somebody else orders,<br>I think that can only be a source of disorders.</div>\n  <div class=\"paragraph\">And it is not about going the extra mile,<br>but living that life because it is your style.</div>\n</div>\n<div class=\"section avoid-break-inside\" style=\"padding-bottom: 2rem;\">\n  <br>\n</div>\n<div class=\"section avoid-break-inside\" style=\"padding-bottom: 2rem;\">\n  <div class=\"paragraph\">You see what a terrible problem the troublemakers face,<br>they have to force their way forward and keep up the pace.</div>\n  <div class=\"paragraph\">People who are just dancing around their curiosities whilst having fun,<br>will have them easily outdone.</div>\n</div>\n<div class=\"section avoid-break-inside\" style=\"padding-bottom: 2rem;\">\n  <br>\n</div>\n<div class=\"section avoid-break-inside\" style=\"padding-bottom: 2rem;\">\n  <div class=\"paragraph\">If art calls to you, get a wall projector and paint the biggest canvas you can find,<br>it will be pure joy as you and art are intertwined.</div>\n  <div class=\"paragraph\">It math calls to you, turn every little lesson to intricate generative art,<br>it is not just about math-smart, the biggest breakthroughs come from the heart.</div>\n  <div class=\"paragraph\">And if you are a travel writer and need material for your tails,<br>then you have to walk the Pacific Crest, the Continental Divide, and the Appalachian Trails.</div>\n</div>\n<div class=\"section avoid-break-inside\" style=\"padding-bottom: 2rem;\">\n  <br>\n</div>\n<div class=\"section avoid-break-inside\" style=\"padding-bottom: 2rem;\">\n  <div class=\"paragraph\">You can only find genius in the things you like,<br>be it art, science, music, computers, or a long hike.</div>\n  <div class=\"paragraph\">When you are on an adventure that fits you,<br>your beautiful mind grows greater to expand your knowledge and view.</div>\n</div>\n<div class=\"section avoid-break-inside\" style=\"padding-bottom: 2rem;\">\n  <br>\n</div>\n<div class=\"section avoid-break-inside\" style=\"padding-bottom: 2rem;\">\n  <div class=\"paragraph\">You should not be surprised to hear that genius is part of us all,<br>the surprise is that so many people think of themselves as small.</div>\n</div>\n<div class=\"section avoid-break-inside\" style=\"padding-bottom: 2rem;\">\n  <br>\n</div>\n<div class=\"section avoid-break-inside\" style=\"padding-bottom: 2rem;\">\n  <div class=\"paragraph\">Just like we want everyone to be able to read,<br>we have to remember that curiosities and adventures is something we all need.</div>\n  <div class=\"paragraph\">We can’t just go to school and let it rob us of our treasures,<br>the theft of brilliance - is a crime beyond all measures.</div>\n  <div class=\"paragraph\">Grades are not real, because we aren’t learning as the subjects are disconnected,<br>in real life it matters not how many useless facts we’ve collected.</div>\n</div>\n<div class=\"section avoid-break-inside\" style=\"padding-bottom: 2rem;\">\n  <br>\n</div>\n<div class=\"section avoid-break-inside\" style=\"padding-bottom: 2rem;\">\n  <div class=\"paragraph\">Just look at the <span>overhead projector in your art class<sup>[1]</sup></span>,<br>the students are so close to perfect portraits, but are forced pass.</div>\n  <div class=\"paragraph\">We must not allow anybody to trade our brilliance for anything,<br>no matter how tightly to that promise of a diploma we cling.</div>\n  <div class=\"paragraph\">Every other art class should end,<br>with a perfect portrait of a friend.</div>\n  <div class=\"paragraph\"><span>Music composition is easy too<sup>[2]</sup></span>,<br>you just need to practice with lmms for a day or two.</div>\n</div>\n<div class=\"section avoid-break-inside\" style=\"padding-bottom: 2rem;\">\n  <br>\n</div>\n<div class=\"section avoid-break-inside\" style=\"padding-bottom: 2rem;\">\n  <div class=\"paragraph\">Genius is within us all,<br>in a way, it is what makes us whole.</div>\n  <div class=\"paragraph\">We have to take a step forward and create some space,<br>because we can only learn independently and at our own pace.</div>\n</div>\n<div class=\"break-after\">&nbsp;</div>\n<div>\n  <div class=\"section\" style=\"padding-bottom: 1rem;\">References</div>\n  <div>[1]: https://www.youtube.com/watch?v=SzjZxIaZEd4</div>\n  <div>[2]: https://www.youtube.com/watch?v=0sRvkaxh8EU</div>\n</div>",
  "text": "Genius is not meant to stop you or make you feel bad,\nit is what we become when our pursuits add.\nWhen you protect your curiosities from dumb grades and broken school,\nwhen you take care to be nobody’s fool...\nAnd take to adventures and narrated books,\nmaking sure to avoid all the knaves and crooks.\nSooner than later your curiosities will combine and become one,\nthis will be a genius invention, your joy and your fun.\n\nSo you see genius emerges out of doing what you enjoy,\nnot out of a blind pursuit or some mad ploy.\nIt certainly does not come from following somebody else orders,\nI think that can only be a source of disorders.\nAnd it is not about going the extra mile,\nbut living that life because it is your style.\n\nYou see what a terrible problem the troublemakers face,\nthey have to force their way forward and keep up the pace.\nPeople who are just dancing around their curiosities whilst having fun,\nwill have them easily outdone.\n\nIf art calls to you, get a wall projector and paint the biggest canvas you can find,\nit will be pure joy as you and art are intertwined.\nIt math calls to you, turn every little lesson to intricate generative art,\nit is not just about math-smart, the biggest breakthroughs come from the heart.\nAnd if you are a travel writer and need material for your tails,\nthen you have to walk the Pacific Crest, the Continental Divide, and the Appalachian Trails.\n\nYou can only find genius in the things you like,\nbe it art, science, music, computers, or a long hike.\nWhen you are on an adventure that fits you,\nyour beautiful mind grows greater to expand your knowledge and view.\n\nYou should not be surprised to hear that genius is part of us all,\nthe surprise is that so many people think of themselves as small.\n\nJust like we want everyone to be able to read,\nwe have to remember that curiosities and adventures is something we all need.\nWe can’t just go to school and let it rob us of our treasures,\nthe theft of brilliance - is a crime beyond all measures.\nGrades are not real, because we aren’t learning as the subjects are disconnected,\nin real life it matters not how many useless facts we’ve collected.\n\nJust look at the overhead projector in your art class[1],\nthe students are so close to perfect portraits, but are forced pass.\nWe must not allow anybody to trade our brilliance for anything,\nno matter how tightly to that promise of a diploma we cling.\nEvery other art class should end,\nwith a perfect portrait of a friend.\nMusic composition is easy too[2],\nyou just need to practice with lmms for a day or two.\n\nGenius is within us all,\nin a way, it is what makes us whole.\nWe have to take a step forward and create some space,\nbecause we can only learn independently and at our own pace.\n \nReferences\n[1]: https://www.youtube.com/watch?v=SzjZxIaZEd4\n[2]: https://www.youtube.com/watch?v=0sRvkaxh8EU",
  "images": [],
  "links": [
    {
      "title": "overhead projector in your art class",
      "url": "https://www.youtube.com/watch?v=SzjZxIaZEd4",
      "hostname": "www.youtube.com"
    },
    {
      "title": "Music composition is easy too",
      "url": "https://www.youtube.com/watch?v=0sRvkaxh8EU",
      "hostname": "www.youtube.com"
    }
  ]
}