{
  "title": "Call To Greatness",
  "date": "2021-01-18T02:58:28.528Z",
  "image": "poetry-0323-illustration.jpg",
  "audio": "poetry-0323.mp3",
  "artwork": "https://unsplash.com/photos/OE6--uV5fCc",
  "id": "furkies-purrkies-poetry-0323",
  "attachments": {},
  "guid": "b04080fe-e20b-453a-bd1b-5709fb9a154d"
}
