{
  "name": "furkies-purrkies-poetry-0490",
  "id": "furkies-purrkies-poetry-0490",
  "title": "Slow 10K vs. Shuffle Dancing: And The Winner Is Shuffle Dancing",
  "date": "2021-07-04T02:47:08.554Z",
  "image": "poetry-0490-illustration.jpg",
  "artwork": "https://unsplash.com/photos/LOyaOZu6g4Q",
  "audio": "poetry-0490.mp3",
  "guid": "295efb16-a705-4b43-a64f-e285041c5ec9",
  "html": "<div class=\"section\">\n  <p>I was always pretty much convinced that Shuffle Dancing for an hour almost every day,<br>is just as good as running a 10K.</p>\n  <p>Initially I suspected that dancing was actually more powerful,<br>but I wanted to wait for the middle of summer to test it, with what I call a Cold Turkey 10K.</p>\n  <p>Cold Turkey means you don't practice jogging beforehand,<br>just grab some light dumbbells and start jogging, until you reach 10K.</p>\n</div>\n<div class=\"section\">\n  <hr>\n</div>\n<div class=\"section\">\n  <p>Things I wished I had with me were my bandannas, or bracers as I call them,<br>I wrap them around my wrists to wipe the sweat from my forehead, so that it does not get into my eyes.</p>\n  <p>Please note, that if sweat does get into your eyes and does not sting a little,<br>that could be a sign of an electrolyte imbalance.</p>\n  <p>Some people emphasize that the body <em>very unwisely</em> gets rid of salt during exercise,<br>and my doctor recently mentioned that an electrolyte imbalance can kill.</p>\n  <p>And I mean imbalance,<br>that means too much salt is just as bad, as too little.</p>\n</div>\n<div class=\"section\">\n  <hr>\n</div>\n<div class=\"section\">\n  <p>I grabbed my dumbbells and stormed out the door forgetting my woolen socks,<br>I am not 100% sure that woolen socks prevent blisters.</p>\n  <p>But they certainly create that perfect shoe,<br>where the foot is isolated from the shoe by a thick layer of wool.</p>\n</div>\n<div class=\"section\">\n  <hr>\n</div>\n<div class=\"section\">\n  <p>I didn't check how long I ran, because I was already late to start,<br>but about 5K, half way through, the sun started going down.</p>\n  <p>So I finished in the dark, it is probably wise to bring a head lamp,<br>because socks or no socks the one thing you don't want to do is step into something squishy by the side of the road.</p>\n  <p>Plus, your visibility and safety greatly improves,<br>when you start looking like a bouncy bicycle from afar.</p>\n</div>\n<div class=\"section\">\n  <hr>\n</div>\n<div class=\"section\">\n  <p>I forgot my phone, like this was 1999,<br>also, I forgot my phone number, though in my defense I never tried to memorize it in the first place.</p>\n  <p>I forgot to squirt myself with bug replant,<br>even though nothing bit me, I really regret it, because I love that smell.</p>\n  <p>And my dumbbells are too clunky, the jog is over two hours long,<br>so the hands get tired, and it is awesome! to lift the dumbbells over the head, or just move them around in general.</p>\n  <p>The smaller and more rubbery, and easier to grasp in the palm of your hand,<br>the better, I just had 7.5 or 10lb in each hand (I have a modular kit, and I am uncertain how much the connecting rod weighs).</p>\n</div>\n<div class=\"section\">\n  <hr>\n</div>\n<div class=\"section\">\n  <p><a href=\"https://www.youtube.com/watch?v=j5HW8zop8yM\">I converted my 10K backpack to a Halloween costume last year</a>,<br>so I didn't bring water - I didn't get thirsty - but not bringing water along was not a good idea..</p>\n  <p>I also don't recommend plain water, but something sugary,<br>you don't need expensive gels, you need a caffeine-free soft drink.</p>\n  <p>My doctor says and I quote \"Coffee is good for you\",<br>but I don't like the threat of headaches looming over my head.</p>\n  <p>While I don't discourage people from drinking coffee,<br>I think it makes endurance exercise more difficult, and I avoid it.</p>\n  <p>I recently found out that Ginger Soda is caffeine free,<br>and that is what I wish I had with me.</p>\n  <p>And I know that everyone always says that,<br>\"You can't outrun a donuts\", but that means nothing to me.</p>\n  <p>Outrunning donuts, or to be more precise Vernors and a Hershey's Cookies and Creme White Chocolate bar,<br>is why I exercise, I am also trying to outrun all the ones I had before, I started exercising, and it is going great.</p>\n</div>\n<div class=\"section\">\n  <hr>\n</div>\n<div class=\"section\">\n  <p>I mention all those things to let you know what to keep an out on,<br>but overall, jogging is meant to be easy, you just need shoes, running shorts, and music on your phone.</p>\n</div>\n<div class=\"section\">\n  <hr>\n</div>\n<div class=\"section\">\n  <p>It has been about an hour since I arrived,<br>and I feel nothing but standard tiredness of a workout.</p>\n  <p>In closing, my finding is that and hour of Shuffle Dancing is equal, if not better than slow 2 hour 10K,<br>and I base this on my breathing, utter lack of aches or concerns during the jog, and not really feeling challenged by a slow 10K at all (this is a new feeling for me)</p>\n  <p>I would like to add that I had a bug... um, that swallowed it self, or had it self swallowed,<br>because I certainly wasn't trying to gulp it with the air; and that is never a concern during my <a href=\"https://www.youtube.com/results?search_query=Shuffle+Dancing+Tutorial\">Shuffle Dancing</a>.</p>\n</div>",
  "bootstrap": "<div class=\"card card-section bg-dark text-warning shadow\">\n  <div class=\"section card-body mb-0 my-2\">\n    <div class=\"paragraph card-text card-stanza my-5 text-center\">I was always pretty much convinced that Shuffle Dancing for an hour almost every day,<br>is just as good as running a 10K.</div>\n    <div class=\"paragraph card-text card-stanza my-5 text-center\">Initially I suspected that dancing was actually more powerful,<br>but I wanted to wait for the middle of summer to test it, with what I call a Cold Turkey 10K.</div>\n    <div class=\"paragraph card-text card-stanza my-5 text-center\">Cold Turkey means you don't practice jogging beforehand,<br>just grab some light dumbbells and start jogging, until you reach 10K.</div>\n  </div>\n</div>\n<div class=\"mb-5 section-spacer\">&nbsp;</div>\n<div class=\"card card-section bg-dark text-warning shadow\">\n  <div class=\"section card-body mb-0 my-2\">\n    <div class=\"paragraph card-text card-stanza my-5 text-center\">Things I wished I had with me were my bandannas, or bracers as I call them,<br>I wrap them around my wrists to wipe the sweat from my forehead, so that it does not get into my eyes.</div>\n    <div class=\"paragraph card-text card-stanza my-5 text-center\">Please note, that if sweat does get into your eyes and does not sting a little,<br>that could be a sign of an electrolyte imbalance.</div>\n    <div class=\"paragraph card-text card-stanza my-5 text-center\">Some people emphasize that the body <em>very unwisely</em> gets rid of salt during exercise,<br>and my doctor recently mentioned that an electrolyte imbalance can kill.</div>\n    <div class=\"paragraph card-text card-stanza my-5 text-center\">And I mean imbalance,<br>that means too much salt is just as bad, as too little.</div>\n  </div>\n</div>\n<div class=\"mb-5 section-spacer\">&nbsp;</div>\n<div class=\"card card-section bg-dark text-warning shadow\">\n  <div class=\"section card-body mb-0 my-2\">\n    <div class=\"paragraph card-text card-stanza my-5 text-center\">I grabbed my dumbbells and stormed out the door forgetting my woolen socks,<br>I am not 100% sure that woolen socks prevent blisters.</div>\n    <div class=\"paragraph card-text card-stanza my-5 text-center\">But they certainly create that perfect shoe,<br>where the foot is isolated from the shoe by a thick layer of wool.</div>\n  </div>\n</div>\n<div class=\"mb-5 section-spacer\">&nbsp;</div>\n<div class=\"card card-section bg-dark text-warning shadow\">\n  <div class=\"section card-body mb-0 my-2\">\n    <div class=\"paragraph card-text card-stanza my-5 text-center\">I didn't check how long I ran, because I was already late to start,<br>but about 5K, half way through, the sun started going down.</div>\n    <div class=\"paragraph card-text card-stanza my-5 text-center\">So I finished in the dark, it is probably wise to bring a head lamp,<br>because socks or no socks the one thing you don't want to do is step into something squishy by the side of the road.</div>\n    <div class=\"paragraph card-text card-stanza my-5 text-center\">Plus, your visibility and safety greatly improves,<br>when you start looking like a bouncy bicycle from afar.</div>\n  </div>\n</div>\n<div class=\"mb-5 section-spacer\">&nbsp;</div>\n<div class=\"card card-section bg-dark text-warning shadow\">\n  <div class=\"section card-body mb-0 my-2\">\n    <div class=\"paragraph card-text card-stanza my-5 text-center\">I forgot my phone, like this was 1999,<br>also, I forgot my phone number, though in my defense I never tried to memorize it in the first place.</div>\n    <div class=\"paragraph card-text card-stanza my-5 text-center\">I forgot to squirt myself with bug replant,<br>even though nothing bit me, I really regret it, because I love that smell.</div>\n    <div class=\"paragraph card-text card-stanza my-5 text-center\">And my dumbbells are too clunky, the jog is over two hours long,<br>so the hands get tired, and it is awesome! to lift the dumbbells over the head, or just move them around in general.</div>\n    <div class=\"paragraph card-text card-stanza my-5 text-center\">The smaller and more rubbery, and easier to grasp in the palm of your hand,<br>the better, I just had 7.5 or 10lb in each hand (I have a modular kit, and I am uncertain how much the connecting rod weighs).</div>\n  </div>\n</div>\n<div class=\"mb-5 section-spacer\">&nbsp;</div>\n<div class=\"card card-section bg-dark text-warning shadow\">\n  <div class=\"section card-body mb-0 my-2\">\n    <div class=\"paragraph card-text card-stanza my-5 text-center\"><a href=\"https://www.youtube.com/watch?v=j5HW8zop8yM\">I converted my 10K backpack to a Halloween costume last year</a>,<br>so I didn't bring water - I didn't get thirsty - but not bringing water along was not a good idea..</div>\n    <div class=\"paragraph card-text card-stanza my-5 text-center\">I also don't recommend plain water, but something sugary,<br>you don't need expensive gels, you need a caffeine-free soft drink.</div>\n    <div class=\"paragraph card-text card-stanza my-5 text-center\">My doctor says and I quote \"Coffee is good for you\",<br>but I don't like the threat of headaches looming over my head.</div>\n    <div class=\"paragraph card-text card-stanza my-5 text-center\">While I don't discourage people from drinking coffee,<br>I think it makes endurance exercise more difficult, and I avoid it.</div>\n    <div class=\"paragraph card-text card-stanza my-5 text-center\">I recently found out that Ginger Soda is caffeine free,<br>and that is what I wish I had with me.</div>\n    <div class=\"paragraph card-text card-stanza my-5 text-center\">And I know that everyone always says that,<br>\"You can't outrun a donuts\", but that means nothing to me.</div>\n    <div class=\"paragraph card-text card-stanza my-5 text-center\">Outrunning donuts, or to be more precise Vernors and a Hershey's Cookies and Creme White Chocolate bar,<br>is why I exercise, I am also trying to outrun all the ones I had before, I started exercising, and it is going great.</div>\n  </div>\n</div>\n<div class=\"mb-5 section-spacer\">&nbsp;</div>\n<div class=\"card card-section bg-dark text-warning shadow\">\n  <div class=\"section card-body mb-0 my-2\">\n    <div class=\"paragraph card-text card-stanza my-5 text-center\">I mention all those things to let you know what to keep an out on,<br>but overall, jogging is meant to be easy, you just need shoes, running shorts, and music on your phone.</div>\n  </div>\n</div>\n<div class=\"mb-5 section-spacer\">&nbsp;</div>\n<div class=\"card card-section bg-dark text-warning shadow\">\n  <div class=\"section card-body mb-0 my-2\">\n    <div class=\"paragraph card-text card-stanza my-5 text-center\">It has been about an hour since I arrived,<br>and I feel nothing but standard tiredness of a workout.</div>\n    <div class=\"paragraph card-text card-stanza my-5 text-center\">In closing, my finding is that and hour of Shuffle Dancing is equal, if not better than slow 2 hour 10K,<br>and I base this on my breathing, utter lack of aches or concerns during the jog, and not really feeling challenged by a slow 10K at all (this is a new feeling for me)</div>\n    <div class=\"paragraph card-text card-stanza my-5 text-center\">I would like to add that I had a bug... um, that swallowed it self, or had it self swallowed,<br>because I certainly wasn't trying to gulp it with the air; and that is never a concern during my <a href=\"https://www.youtube.com/results?search_query=Shuffle+Dancing+Tutorial\">Shuffle Dancing</a>.</div>\n  </div>\n</div>",
  "print": "<div class=\"section avoid-break-inside\" style=\"padding-bottom: 2rem;\">\n  <div class=\"paragraph\">I was always pretty much convinced that Shuffle Dancing for an hour almost every day,<br>is just as good as running a 10K.</div>\n  <div class=\"paragraph\">Initially I suspected that dancing was actually more powerful,<br>but I wanted to wait for the middle of summer to test it, with what I call a Cold Turkey 10K.</div>\n  <div class=\"paragraph\">Cold Turkey means you don't practice jogging beforehand,<br>just grab some light dumbbells and start jogging, until you reach 10K.</div>\n</div>\n<div class=\"section avoid-break-inside\" style=\"padding-bottom: 2rem;\">\n  <br>\n</div>\n<div class=\"section avoid-break-inside\" style=\"padding-bottom: 2rem;\">\n  <div class=\"paragraph\">Things I wished I had with me were my bandannas, or bracers as I call them,<br>I wrap them around my wrists to wipe the sweat from my forehead, so that it does not get into my eyes.</div>\n  <div class=\"paragraph\">Please note, that if sweat does get into your eyes and does not sting a little,<br>that could be a sign of an electrolyte imbalance.</div>\n  <div class=\"paragraph\">Some people emphasize that the body <em>very unwisely</em> gets rid of salt during exercise,<br>and my doctor recently mentioned that an electrolyte imbalance can kill.</div>\n  <div class=\"paragraph\">And I mean imbalance,<br>that means too much salt is just as bad, as too little.</div>\n</div>\n<div class=\"section avoid-break-inside\" style=\"padding-bottom: 2rem;\">\n  <br>\n</div>\n<div class=\"section avoid-break-inside\" style=\"padding-bottom: 2rem;\">\n  <div class=\"paragraph\">I grabbed my dumbbells and stormed out the door forgetting my woolen socks,<br>I am not 100% sure that woolen socks prevent blisters.</div>\n  <div class=\"paragraph\">But they certainly create that perfect shoe,<br>where the foot is isolated from the shoe by a thick layer of wool.</div>\n</div>\n<div class=\"section avoid-break-inside\" style=\"padding-bottom: 2rem;\">\n  <br>\n</div>\n<div class=\"section avoid-break-inside\" style=\"padding-bottom: 2rem;\">\n  <div class=\"paragraph\">I didn't check how long I ran, because I was already late to start,<br>but about 5K, half way through, the sun started going down.</div>\n  <div class=\"paragraph\">So I finished in the dark, it is probably wise to bring a head lamp,<br>because socks or no socks the one thing you don't want to do is step into something squishy by the side of the road.</div>\n  <div class=\"paragraph\">Plus, your visibility and safety greatly improves,<br>when you start looking like a bouncy bicycle from afar.</div>\n</div>\n<div class=\"section avoid-break-inside\" style=\"padding-bottom: 2rem;\">\n  <br>\n</div>\n<div class=\"section avoid-break-inside\" style=\"padding-bottom: 2rem;\">\n  <div class=\"paragraph\">I forgot my phone, like this was 1999,<br>also, I forgot my phone number, though in my defense I never tried to memorize it in the first place.</div>\n  <div class=\"paragraph\">I forgot to squirt myself with bug replant,<br>even though nothing bit me, I really regret it, because I love that smell.</div>\n  <div class=\"paragraph\">And my dumbbells are too clunky, the jog is over two hours long,<br>so the hands get tired, and it is awesome! to lift the dumbbells over the head, or just move them around in general.</div>\n  <div class=\"paragraph\">The smaller and more rubbery, and easier to grasp in the palm of your hand,<br>the better, I just had 7.5 or 10lb in each hand (I have a modular kit, and I am uncertain how much the connecting rod weighs).</div>\n</div>\n<div class=\"section avoid-break-inside\" style=\"padding-bottom: 2rem;\">\n  <br>\n</div>\n<div class=\"section avoid-break-inside\" style=\"padding-bottom: 2rem;\">\n  <div class=\"paragraph\"><span>I converted my 10K backpack to a Halloween costume last year<sup>[1]</sup></span>,<br>so I didn't bring water - I didn't get thirsty - but not bringing water along was not a good idea..</div>\n  <div class=\"paragraph\">I also don't recommend plain water, but something sugary,<br>you don't need expensive gels, you need a caffeine-free soft drink.</div>\n  <div class=\"paragraph\">My doctor says and I quote \"Coffee is good for you\",<br>but I don't like the threat of headaches looming over my head.</div>\n  <div class=\"paragraph\">While I don't discourage people from drinking coffee,<br>I think it makes endurance exercise more difficult, and I avoid it.</div>\n  <div class=\"paragraph\">I recently found out that Ginger Soda is caffeine free,<br>and that is what I wish I had with me.</div>\n  <div class=\"paragraph\">And I know that everyone always says that,<br>\"You can't outrun a donuts\", but that means nothing to me.</div>\n  <div class=\"paragraph\">Outrunning donuts, or to be more precise Vernors and a Hershey's Cookies and Creme White Chocolate bar,<br>is why I exercise, I am also trying to outrun all the ones I had before, I started exercising, and it is going great.</div>\n</div>\n<div class=\"section avoid-break-inside\" style=\"padding-bottom: 2rem;\">\n  <br>\n</div>\n<div class=\"section avoid-break-inside\" style=\"padding-bottom: 2rem;\">\n  <div class=\"paragraph\">I mention all those things to let you know what to keep an out on,<br>but overall, jogging is meant to be easy, you just need shoes, running shorts, and music on your phone.</div>\n</div>\n<div class=\"section avoid-break-inside\" style=\"padding-bottom: 2rem;\">\n  <br>\n</div>\n<div class=\"section avoid-break-inside\" style=\"padding-bottom: 2rem;\">\n  <div class=\"paragraph\">It has been about an hour since I arrived,<br>and I feel nothing but standard tiredness of a workout.</div>\n  <div class=\"paragraph\">In closing, my finding is that and hour of Shuffle Dancing is equal, if not better than slow 2 hour 10K,<br>and I base this on my breathing, utter lack of aches or concerns during the jog, and not really feeling challenged by a slow 10K at all (this is a new feeling for me)</div>\n  <div class=\"paragraph\">I would like to add that I had a bug... um, that swallowed it self, or had it self swallowed,<br>because I certainly wasn't trying to gulp it with the air; and that is never a concern during my <span>Shuffle Dancing<sup>[2]</sup></span>.</div>\n</div>\n<div class=\"break-after\">&nbsp;</div>\n<div>\n  <div class=\"section\" style=\"padding-bottom: 1rem;\">References</div>\n  <div>[1]: https://www.youtube.com/watch?v=j5HW8zop8yM</div>\n  <div>[2]: https://www.youtube.com/results?search_query=Shuffle+Dancing+Tutorial</div>\n</div>",
  "text": "I was always pretty much convinced that Shuffle Dancing for an hour almost every day,\nis just as good as running a 10K.\nInitially I suspected that dancing was actually more powerful,\nbut I wanted to wait for the middle of summer to test it, with what I call a Cold Turkey 10K.\nCold Turkey means you don't practice jogging beforehand,\njust grab some light dumbbells and start jogging, until you reach 10K.\n\nThings I wished I had with me were my bandannas, or bracers as I call them,\nI wrap them around my wrists to wipe the sweat from my forehead, so that it does not get into my eyes.\nPlease note, that if sweat does get into your eyes and does not sting a little,\nthat could be a sign of an electrolyte imbalance.\nSome people emphasize that the body very unwisely gets rid of salt during exercise,\nand my doctor recently mentioned that an electrolyte imbalance can kill.\nAnd I mean imbalance,\nthat means too much salt is just as bad, as too little.\n\nI grabbed my dumbbells and stormed out the door forgetting my woolen socks,\nI am not 100% sure that woolen socks prevent blisters.\nBut they certainly create that perfect shoe,\nwhere the foot is isolated from the shoe by a thick layer of wool.\n\nI didn't check how long I ran, because I was already late to start,\nbut about 5K, half way through, the sun started going down.\nSo I finished in the dark, it is probably wise to bring a head lamp,\nbecause socks or no socks the one thing you don't want to do is step into something squishy by the side of the road.\nPlus, your visibility and safety greatly improves,\nwhen you start looking like a bouncy bicycle from afar.\n\nI forgot my phone, like this was 1999,\nalso, I forgot my phone number, though in my defense I never tried to memorize it in the first place.\nI forgot to squirt myself with bug replant,\neven though nothing bit me, I really regret it, because I love that smell.\nAnd my dumbbells are too clunky, the jog is over two hours long,\nso the hands get tired, and it is awesome! to lift the dumbbells over the head, or just move them around in general.\nThe smaller and more rubbery, and easier to grasp in the palm of your hand,\nthe better, I just had 7.5 or 10lb in each hand (I have a modular kit, and I am uncertain how much the connecting rod weighs).\n\nI converted my 10K backpack to a Halloween costume last year[1],\nso I didn't bring water - I didn't get thirsty - but not bringing water along was not a good idea..\nI also don't recommend plain water, but something sugary,\nyou don't need expensive gels, you need a caffeine-free soft drink.\nMy doctor says and I quote \"Coffee is good for you\",\nbut I don't like the threat of headaches looming over my head.\nWhile I don't discourage people from drinking coffee,\nI think it makes endurance exercise more difficult, and I avoid it.\nI recently found out that Ginger Soda is caffeine free,\nand that is what I wish I had with me.\nAnd I know that everyone always says that,\n\"You can't outrun a donuts\", but that means nothing to me.\nOutrunning donuts, or to be more precise Vernors and a Hershey's Cookies and Creme White Chocolate bar,\nis why I exercise, I am also trying to outrun all the ones I had before, I started exercising, and it is going great.\n\nI mention all those things to let you know what to keep an out on,\nbut overall, jogging is meant to be easy, you just need shoes, running shorts, and music on your phone.\n\nIt has been about an hour since I arrived,\nand I feel nothing but standard tiredness of a workout.\nIn closing, my finding is that and hour of Shuffle Dancing is equal, if not better than slow 2 hour 10K,\nand I base this on my breathing, utter lack of aches or concerns during the jog, and not really feeling challenged by a slow 10K at all (this is a new feeling for me)\nI would like to add that I had a bug... um, that swallowed it self, or had it self swallowed,\nbecause I certainly wasn't trying to gulp it with the air; and that is never a concern during my Shuffle Dancing[2].\n \nReferences\n[1]: https://www.youtube.com/watch?v=j5HW8zop8yM\n[2]: https://www.youtube.com/results?search_query=Shuffle+Dancing+Tutorial",
  "images": [],
  "links": [
    {
      "title": "I converted my 10K backpack to a Halloween costume last year",
      "url": "https://www.youtube.com/watch?v=j5HW8zop8yM",
      "hostname": "www.youtube.com"
    },
    {
      "title": "Shuffle Dancing",
      "url": "https://www.youtube.com/results?search_query=Shuffle+Dancing+Tutorial",
      "hostname": "www.youtube.com"
    }
  ]
}