{
  "title": "Mastering Programming",
  "date": "2021-03-27T21:37:27.481Z",
  "image": "poetry-0392-illustration.jpg",
  "audio": "poetry-0392.mp3",
  "artwork": "https://en.wikipedia.org/wiki/File:Ronin,_or_masterless_Samurai,_lunging_forward.jpg",
  "id": "furkies-purrkies-poetry-0392",
  "attachments": {},
  "guid": "dd883f9b-c850-46f3-9dba-4e3d817952ed"
}
