{
  "id": "furkies-purrkies-poetry-0602",
  "title": "Each A Universe",
  "date": "2021-10-23T23:15:34.887Z",
  "image": "poetry-0602-illustration.jpg",
  "artwork": "https://unsplash.com/photos/Oze6U2m1oYU",
  "audio": "poetry-0602.mp3",
  "guid": "3f618aeb-4c95-47c6-afb7-297ec0451443"
}
