{
  "id": "furkies-purrkies-poetry-0516",
  "title": "We Have To Choose To Succeed: 2,154 Tigers, and 14,000 Scientists",
  "date": "2021-07-30T02:13:00.299Z",
  "image": "poetry-0516-illustration.jpg",
  "artwork": "https://unsplash.com/photos/zQsCISvBY2E",
  "audio": "poetry-0516.mp3",
  "guid": "bae9e46d-5c61-4ec1-8419-3dfb0832f548"
}
