{
  "title": "Programming Is A Superpower",
  "date": "2021-04-15T02:50:16.255Z",
  "image": "poetry-0410-illustration.jpg",
  "audio": "poetry-0410.mp3",
  "artwork": "https://unsplash.com/photos/Fo-HQUlRGkU",
  "id": "furkies-purrkies-poetry-0410",
  "attachments": {},
  "guid": "eafd07b0-9cf9-45fd-84a6-89cdb339837b"
}
