{
  "name": "furkies-purrkies-poetry-0515",
  "id": "furkies-purrkies-poetry-0515",
  "title": "Programming A Remote Controlled Portable Raspberry Pi Audio Player",
  "date": "2021-07-29T02:21:03.215Z",
  "image": "poetry-0515-illustration.jpg",
  "artwork": "https://unsplash.com/photos/NN15NFflk90",
  "audio": "poetry-0515.mp3",
  "guid": "5b9fb4f8-228d-42f2-b0c7-89e0752963e3",
  "html": "<div class=\"section\">\n  <p>I finally connected the little Bluetooth remote shutter,<br>to my heavy little mp3 player invention.</p>\n  <p>My 1998 design was a small mp3 decoder equpped Printed Circuit Board (PCB),<br>strapped onto a huge CD-ROM drive filled with a lot of MOD files converted to mp3.</p>\n  <p>It was meant for a car,<br>but also for learning.</p>\n  <p>Inventions are important things,<br>they help us dream and learn.</p>\n</div>\n<div class=\"section\">\n  <hr>\n</div>\n<div class=\"section\">\n  <p>I took a computer hardware class,<br>but it was so simple that it was painful to see my time being wasted.</p>\n  <p>It was all good people, weird but OK,<br>it is that kind of simplified education that holds everyone back.</p>\n  <p>An you know it, everyone was just laid back,<br>the semester passed everyone got an A, and nobody learned a thing.</p>\n  <p>And there was no education to be had,<br>I had to hurry with my English.</p>\n  <p>I still had bunch of words to learn,<br>it was a high priority item for me, so I spent my teenage years reading paperbacks at Plymouth's Denny's.</p>\n  <p>Our education has to progress the way water moves through a piece of paper,<br>observe, how it starts as a dot, and then it spreads as far as it can see.</p>\n  <p>The more it knows the more it grows,<br>we must reject fake education, we mustn't tolerate it.</p>\n</div>\n<div class=\"section\">\n  <hr>\n</div>\n<div class=\"section\">\n  <p>I had my little invention,<br>but I didn't have so much as an LED to make a <a href=\"https://www.youtube.com/watch?v=hme5ladDQ_0\">throwie</a>.</p>\n</div>\n<div class=\"section\">\n  <hr>\n</div>\n<div class=\"section\">\n  <p>The player I made today, has a battery where the old CD-ROM was supposed to go,<br>and the PCB is now replaced with an actual GNU/Linux powered Computer.</p>\n  <p>I finished programming the shutter <a href=\"https://www.amazon.com/Cellphone-Shutter-Multifunction-Playback-Smartphones/dp/B08SWC2DQW\">thingie</a>,<br>but I didn't even try to figure out the buttons.</p>\n  <p>The thought hardly occurred to me,<br>the shutter has six buttons that trigger a lot of data.</p>\n  <p>I can see that a single button press triggers multiple <a href=\"https://www.youtube.com/watch?v=EBfkiprmoi0\">light pen actions</a>,<br>that is probably what the kernel calls a finger.</p>\n  <p>Left and right buttons tiger what maybe to be a swipe,<br>up and down, actually trigger many rows of data, as if counting from 0 to 100.</p>\n  <p>Holding down the Y-axis key, does something slightly different,<br>it slides values between 0 and possibly 1,000.</p>\n  <p>The values are always the same,<br>there is no continuation from where the button last left off.</p>\n  <p>So if I am always getting the same events,<br>I can just glue (concatenate) all the data and call it a single button.</p>\n  <p>The long press is a bit off, because the stream of data that long-press sends,<br>ends when a person lets go, it ends at an arbitrary location within that 1,000 virtual key presses.</p>\n  <p>It is really good for changing audio volume,<br>but I'll have to think about it some more.</p>\n  <p><a href=\"https://github.com/catpea/isir/blob/01ef4b7e55058fde70e5098aad8402345d7e113c/command/learn.js#L51\">So the program I wrote, has a learn function that concatenates all button data into a single recognizable ID</a>,<br>and then when the program is in normal operation mode, it <a href=\"https://github.com/catpea/isir/blob/01ef4b7e55058fde70e5098aad8402345d7e113c/command/listen.js#L41\">monitors for the presence of the same flurry of key presses</a>.</p>\n  <p>When the stored and detected sequence matches,<br>it then <a href=\"https://github.com/catpea/isir/blob/01ef4b7e55058fde70e5098aad8402345d7e113c/command/listen.js#L49\">triggers a command that is manually associated with the ID</a>.</p>\n  <p>And the GNU/Linux commands it triggers are extremely simple,<br>the play button simply <a href=\"https://github.com/catpea/isir/blob/01ef4b7e55058fde70e5098aad8402345d7e113c/bin/p.sh#L2\">stops</a> music if it is already playing and then <a href=\"https://github.com/catpea/isir/blob/01ef4b7e55058fde70e5098aad8402345d7e113c/bin/p.sh#L3\">plays</a> songs from the Music folder, shuffling them first.</p>\n  <p>Pressing play, multiple times,<br>stops playing current song, and it picks a new one at random, it is surprisingly simple.</p>\n</div>\n<div class=\"section\">\n  <hr>\n</div>\n<div class=\"section\">\n  <p>I had a fun time this Sunday learning how to manually connect a Bluetooth device,<br>it took me four hours because that little shutter button pad, demands that pairing the device and connecting the device, happens instantly.</p>\n  <p>I couldn't issue the commands manually, I only had hundreds of milliseconds to go from pair to connect,<br>so it needed to be scripted, the computer had to issue connect right after pairing.</p>\n</div>\n<div class=\"section\">\n  <hr>\n</div>\n<div class=\"section\">\n  <p>This little $50 of $75 invention is extremely interesting,<br>even for people that like having closed source phones around.</p>\n  <p>Not only can you control everything from your phone,<br>but also proxy your phone traffic through <a href=\"https://pi-hole.net/\">Pi-hole</a> a which greatly reduces spam and ads.</p>\n  <p>The openness of the Raspberry Pi and the underlying GNU/Linux,<br><a href=\"https://www.youtube.com/watch?v=WDa_odxAGUU\">allows for things that aren't possible with closed source phones</a>.</p>\n  <p>It is this kind of tinkering that makes learning GNU/Linux fun and painless,<br>it takes many years, but there is no hurry, in the end being able to reprogram things without investing too much time into custom PCBs is a fun talent to have.</p>\n  <p>I think my next project is going to be,<br>a Linux driven Boom Box.</p>\n</div>",
  "bootstrap": "<div class=\"card card-section bg-dark text-warning shadow\">\n  <div class=\"section card-body mb-0 my-2\">\n    <div class=\"paragraph card-text card-stanza my-5 text-center\">I finally connected the little Bluetooth remote shutter,<br>to my heavy little mp3 player invention.</div>\n    <div class=\"paragraph card-text card-stanza my-5 text-center\">My 1998 design was a small mp3 decoder equpped Printed Circuit Board (PCB),<br>strapped onto a huge CD-ROM drive filled with a lot of MOD files converted to mp3.</div>\n    <div class=\"paragraph card-text card-stanza my-5 text-center\">It was meant for a car,<br>but also for learning.</div>\n    <div class=\"paragraph card-text card-stanza my-5 text-center\">Inventions are important things,<br>they help us dream and learn.</div>\n  </div>\n</div>\n<div class=\"mb-5 section-spacer\">&nbsp;</div>\n<div class=\"card card-section bg-dark text-warning shadow\">\n  <div class=\"section card-body mb-0 my-2\">\n    <div class=\"paragraph card-text card-stanza my-5 text-center\">I took a computer hardware class,<br>but it was so simple that it was painful to see my time being wasted.</div>\n    <div class=\"paragraph card-text card-stanza my-5 text-center\">It was all good people, weird but OK,<br>it is that kind of simplified education that holds everyone back.</div>\n    <div class=\"paragraph card-text card-stanza my-5 text-center\">An you know it, everyone was just laid back,<br>the semester passed everyone got an A, and nobody learned a thing.</div>\n    <div class=\"paragraph card-text card-stanza my-5 text-center\">And there was no education to be had,<br>I had to hurry with my English.</div>\n    <div class=\"paragraph card-text card-stanza my-5 text-center\">I still had bunch of words to learn,<br>it was a high priority item for me, so I spent my teenage years reading paperbacks at Plymouth's Denny's.</div>\n    <div class=\"paragraph card-text card-stanza my-5 text-center\">Our education has to progress the way water moves through a piece of paper,<br>observe, how it starts as a dot, and then it spreads as far as it can see.</div>\n    <div class=\"paragraph card-text card-stanza my-5 text-center\">The more it knows the more it grows,<br>we must reject fake education, we mustn't tolerate it.</div>\n  </div>\n</div>\n<div class=\"mb-5 section-spacer\">&nbsp;</div>\n<div class=\"card card-section bg-dark text-warning shadow\">\n  <div class=\"section card-body mb-0 my-2\">\n    <div class=\"paragraph card-text card-stanza my-5 text-center\">I had my little invention,<br>but I didn't have so much as an LED to make a <a href=\"https://www.youtube.com/watch?v=hme5ladDQ_0\">throwie</a>.</div>\n  </div>\n</div>\n<div class=\"mb-5 section-spacer\">&nbsp;</div>\n<div class=\"card card-section bg-dark text-warning shadow\">\n  <div class=\"section card-body mb-0 my-2\">\n    <div class=\"paragraph card-text card-stanza my-5 text-center\">The player I made today, has a battery where the old CD-ROM was supposed to go,<br>and the PCB is now replaced with an actual GNU/Linux powered Computer.</div>\n    <div class=\"paragraph card-text card-stanza my-5 text-center\">I finished programming the shutter <a href=\"https://www.amazon.com/Cellphone-Shutter-Multifunction-Playback-Smartphones/dp/B08SWC2DQW\">thingie</a>,<br>but I didn't even try to figure out the buttons.</div>\n    <div class=\"paragraph card-text card-stanza my-5 text-center\">The thought hardly occurred to me,<br>the shutter has six buttons that trigger a lot of data.</div>\n    <div class=\"paragraph card-text card-stanza my-5 text-center\">I can see that a single button press triggers multiple <a href=\"https://www.youtube.com/watch?v=EBfkiprmoi0\">light pen actions</a>,<br>that is probably what the kernel calls a finger.</div>\n    <div class=\"paragraph card-text card-stanza my-5 text-center\">Left and right buttons tiger what maybe to be a swipe,<br>up and down, actually trigger many rows of data, as if counting from 0 to 100.</div>\n    <div class=\"paragraph card-text card-stanza my-5 text-center\">Holding down the Y-axis key, does something slightly different,<br>it slides values between 0 and possibly 1,000.</div>\n    <div class=\"paragraph card-text card-stanza my-5 text-center\">The values are always the same,<br>there is no continuation from where the button last left off.</div>\n    <div class=\"paragraph card-text card-stanza my-5 text-center\">So if I am always getting the same events,<br>I can just glue (concatenate) all the data and call it a single button.</div>\n    <div class=\"paragraph card-text card-stanza my-5 text-center\">The long press is a bit off, because the stream of data that long-press sends,<br>ends when a person lets go, it ends at an arbitrary location within that 1,000 virtual key presses.</div>\n    <div class=\"paragraph card-text card-stanza my-5 text-center\">It is really good for changing audio volume,<br>but I'll have to think about it some more.</div>\n    <div class=\"paragraph card-text card-stanza my-5 text-center\"><a href=\"https://github.com/catpea/isir/blob/01ef4b7e55058fde70e5098aad8402345d7e113c/command/learn.js#L51\">So the program I wrote, has a learn function that concatenates all button data into a single recognizable ID</a>,<br>and then when the program is in normal operation mode, it <a href=\"https://github.com/catpea/isir/blob/01ef4b7e55058fde70e5098aad8402345d7e113c/command/listen.js#L41\">monitors for the presence of the same flurry of key presses</a>.</div>\n    <div class=\"paragraph card-text card-stanza my-5 text-center\">When the stored and detected sequence matches,<br>it then <a href=\"https://github.com/catpea/isir/blob/01ef4b7e55058fde70e5098aad8402345d7e113c/command/listen.js#L49\">triggers a command that is manually associated with the ID</a>.</div>\n    <div class=\"paragraph card-text card-stanza my-5 text-center\">And the GNU/Linux commands it triggers are extremely simple,<br>the play button simply <a href=\"https://github.com/catpea/isir/blob/01ef4b7e55058fde70e5098aad8402345d7e113c/bin/p.sh#L2\">stops</a> music if it is already playing and then <a href=\"https://github.com/catpea/isir/blob/01ef4b7e55058fde70e5098aad8402345d7e113c/bin/p.sh#L3\">plays</a> songs from the Music folder, shuffling them first.</div>\n    <div class=\"paragraph card-text card-stanza my-5 text-center\">Pressing play, multiple times,<br>stops playing current song, and it picks a new one at random, it is surprisingly simple.</div>\n  </div>\n</div>\n<div class=\"mb-5 section-spacer\">&nbsp;</div>\n<div class=\"card card-section bg-dark text-warning shadow\">\n  <div class=\"section card-body mb-0 my-2\">\n    <div class=\"paragraph card-text card-stanza my-5 text-center\">I had a fun time this Sunday learning how to manually connect a Bluetooth device,<br>it took me four hours because that little shutter button pad, demands that pairing the device and connecting the device, happens instantly.</div>\n    <div class=\"paragraph card-text card-stanza my-5 text-center\">I couldn't issue the commands manually, I only had hundreds of milliseconds to go from pair to connect,<br>so it needed to be scripted, the computer had to issue connect right after pairing.</div>\n  </div>\n</div>\n<div class=\"mb-5 section-spacer\">&nbsp;</div>\n<div class=\"card card-section bg-dark text-warning shadow\">\n  <div class=\"section card-body mb-0 my-2\">\n    <div class=\"paragraph card-text card-stanza my-5 text-center\">This little $50 of $75 invention is extremely interesting,<br>even for people that like having closed source phones around.</div>\n    <div class=\"paragraph card-text card-stanza my-5 text-center\">Not only can you control everything from your phone,<br>but also proxy your phone traffic through <a href=\"https://pi-hole.net/\">Pi-hole</a> a which greatly reduces spam and ads.</div>\n    <div class=\"paragraph card-text card-stanza my-5 text-center\">The openness of the Raspberry Pi and the underlying GNU/Linux,<br><a href=\"https://www.youtube.com/watch?v=WDa_odxAGUU\">allows for things that aren't possible with closed source phones</a>.</div>\n    <div class=\"paragraph card-text card-stanza my-5 text-center\">It is this kind of tinkering that makes learning GNU/Linux fun and painless,<br>it takes many years, but there is no hurry, in the end being able to reprogram things without investing too much time into custom PCBs is a fun talent to have.</div>\n    <div class=\"paragraph card-text card-stanza my-5 text-center\">I think my next project is going to be,<br>a Linux driven Boom Box.</div>\n  </div>\n</div>",
  "print": "<div class=\"section avoid-break-inside\" style=\"padding-bottom: 2rem;\">\n  <div class=\"paragraph\">I finally connected the little Bluetooth remote shutter,<br>to my heavy little mp3 player invention.</div>\n  <div class=\"paragraph\">My 1998 design was a small mp3 decoder equpped Printed Circuit Board (PCB),<br>strapped onto a huge CD-ROM drive filled with a lot of MOD files converted to mp3.</div>\n  <div class=\"paragraph\">It was meant for a car,<br>but also for learning.</div>\n  <div class=\"paragraph\">Inventions are important things,<br>they help us dream and learn.</div>\n</div>\n<div class=\"section avoid-break-inside\" style=\"padding-bottom: 2rem;\">\n  <br>\n</div>\n<div class=\"section avoid-break-inside\" style=\"padding-bottom: 2rem;\">\n  <div class=\"paragraph\">I took a computer hardware class,<br>but it was so simple that it was painful to see my time being wasted.</div>\n  <div class=\"paragraph\">It was all good people, weird but OK,<br>it is that kind of simplified education that holds everyone back.</div>\n  <div class=\"paragraph\">An you know it, everyone was just laid back,<br>the semester passed everyone got an A, and nobody learned a thing.</div>\n  <div class=\"paragraph\">And there was no education to be had,<br>I had to hurry with my English.</div>\n  <div class=\"paragraph\">I still had bunch of words to learn,<br>it was a high priority item for me, so I spent my teenage years reading paperbacks at Plymouth's Denny's.</div>\n  <div class=\"paragraph\">Our education has to progress the way water moves through a piece of paper,<br>observe, how it starts as a dot, and then it spreads as far as it can see.</div>\n  <div class=\"paragraph\">The more it knows the more it grows,<br>we must reject fake education, we mustn't tolerate it.</div>\n</div>\n<div class=\"section avoid-break-inside\" style=\"padding-bottom: 2rem;\">\n  <br>\n</div>\n<div class=\"section avoid-break-inside\" style=\"padding-bottom: 2rem;\">\n  <div class=\"paragraph\">I had my little invention,<br>but I didn't have so much as an LED to make a <span>throwie<sup>[1]</sup></span>.</div>\n</div>\n<div class=\"section avoid-break-inside\" style=\"padding-bottom: 2rem;\">\n  <br>\n</div>\n<div class=\"section avoid-break-inside\" style=\"padding-bottom: 2rem;\">\n  <div class=\"paragraph\">The player I made today, has a battery where the old CD-ROM was supposed to go,<br>and the PCB is now replaced with an actual GNU/Linux powered Computer.</div>\n  <div class=\"paragraph\">I finished programming the shutter <span>thingie<sup>[2]</sup></span>,<br>but I didn't even try to figure out the buttons.</div>\n  <div class=\"paragraph\">The thought hardly occurred to me,<br>the shutter has six buttons that trigger a lot of data.</div>\n  <div class=\"paragraph\">I can see that a single button press triggers multiple <span>light pen actions<sup>[3]</sup></span>,<br>that is probably what the kernel calls a finger.</div>\n  <div class=\"paragraph\">Left and right buttons tiger what maybe to be a swipe,<br>up and down, actually trigger many rows of data, as if counting from 0 to 100.</div>\n  <div class=\"paragraph\">Holding down the Y-axis key, does something slightly different,<br>it slides values between 0 and possibly 1,000.</div>\n  <div class=\"paragraph\">The values are always the same,<br>there is no continuation from where the button last left off.</div>\n  <div class=\"paragraph\">So if I am always getting the same events,<br>I can just glue (concatenate) all the data and call it a single button.</div>\n  <div class=\"paragraph\">The long press is a bit off, because the stream of data that long-press sends,<br>ends when a person lets go, it ends at an arbitrary location within that 1,000 virtual key presses.</div>\n  <div class=\"paragraph\">It is really good for changing audio volume,<br>but I'll have to think about it some more.</div>\n  <div class=\"paragraph\"><span>So the program I wrote, has a learn function that concatenates all button data into a single recognizable ID<sup>[4]</sup></span>,<br>and then when the program is in normal operation mode, it <span>monitors for the presence of the same flurry of key presses<sup>[5]</sup></span>.</div>\n  <div class=\"paragraph\">When the stored and detected sequence matches,<br>it then <span>triggers a command that is manually associated with the ID<sup>[6]</sup></span>.</div>\n  <div class=\"paragraph\">And the GNU/Linux commands it triggers are extremely simple,<br>the play button simply <span>stops<sup>[7]</sup></span> music if it is already playing and then <span>plays<sup>[8]</sup></span> songs from the Music folder, shuffling them first.</div>\n  <div class=\"paragraph\">Pressing play, multiple times,<br>stops playing current song, and it picks a new one at random, it is surprisingly simple.</div>\n</div>\n<div class=\"section avoid-break-inside\" style=\"padding-bottom: 2rem;\">\n  <br>\n</div>\n<div class=\"section avoid-break-inside\" style=\"padding-bottom: 2rem;\">\n  <div class=\"paragraph\">I had a fun time this Sunday learning how to manually connect a Bluetooth device,<br>it took me four hours because that little shutter button pad, demands that pairing the device and connecting the device, happens instantly.</div>\n  <div class=\"paragraph\">I couldn't issue the commands manually, I only had hundreds of milliseconds to go from pair to connect,<br>so it needed to be scripted, the computer had to issue connect right after pairing.</div>\n</div>\n<div class=\"section avoid-break-inside\" style=\"padding-bottom: 2rem;\">\n  <br>\n</div>\n<div class=\"section avoid-break-inside\" style=\"padding-bottom: 2rem;\">\n  <div class=\"paragraph\">This little $50 of $75 invention is extremely interesting,<br>even for people that like having closed source phones around.</div>\n  <div class=\"paragraph\">Not only can you control everything from your phone,<br>but also proxy your phone traffic through <span>Pi-hole<sup>[9]</sup></span> a which greatly reduces spam and ads.</div>\n  <div class=\"paragraph\">The openness of the Raspberry Pi and the underlying GNU/Linux,<br><span>allows for things that aren't possible with closed source phones<sup>[10]</sup></span>.</div>\n  <div class=\"paragraph\">It is this kind of tinkering that makes learning GNU/Linux fun and painless,<br>it takes many years, but there is no hurry, in the end being able to reprogram things without investing too much time into custom PCBs is a fun talent to have.</div>\n  <div class=\"paragraph\">I think my next project is going to be,<br>a Linux driven Boom Box.</div>\n</div>\n<div class=\"break-after\">&nbsp;</div>\n<div>\n  <div class=\"section\" style=\"padding-bottom: 1rem;\">References</div>\n  <div>[1]: https://www.youtube.com/watch?v=hme5ladDQ_0</div>\n  <div>[2]: https://www.amazon.com/Cellphone-Shutter-Multifunction-Playback-Smartphones/dp/B08SWC2DQW</div>\n  <div>[3]: https://www.youtube.com/watch?v=EBfkiprmoi0</div>\n  <div>[4]: https://github.com/catpea/isir/blob/01ef4b7e55058fde70e5098aad8402345d7e113c/command/learn.js#L51</div>\n  <div>[5]: https://github.com/catpea/isir/blob/01ef4b7e55058fde70e5098aad8402345d7e113c/command/listen.js#L41</div>\n  <div>[6]: https://github.com/catpea/isir/blob/01ef4b7e55058fde70e5098aad8402345d7e113c/command/listen.js#L49</div>\n  <div>[7]: https://github.com/catpea/isir/blob/01ef4b7e55058fde70e5098aad8402345d7e113c/bin/p.sh#L2</div>\n  <div>[8]: https://github.com/catpea/isir/blob/01ef4b7e55058fde70e5098aad8402345d7e113c/bin/p.sh#L3</div>\n  <div>[9]: https://pi-hole.net/</div>\n  <div>[10]: https://www.youtube.com/watch?v=WDa_odxAGUU</div>\n</div>",
  "text": "I finally connected the little Bluetooth remote shutter,\nto my heavy little mp3 player invention.\nMy 1998 design was a small mp3 decoder equpped Printed Circuit Board (PCB),\nstrapped onto a huge CD-ROM drive filled with a lot of MOD files converted to mp3.\nIt was meant for a car,\nbut also for learning.\nInventions are important things,\nthey help us dream and learn.\n\nI took a computer hardware class,\nbut it was so simple that it was painful to see my time being wasted.\nIt was all good people, weird but OK,\nit is that kind of simplified education that holds everyone back.\nAn you know it, everyone was just laid back,\nthe semester passed everyone got an A, and nobody learned a thing.\nAnd there was no education to be had,\nI had to hurry with my English.\nI still had bunch of words to learn,\nit was a high priority item for me, so I spent my teenage years reading paperbacks at Plymouth's Denny's.\nOur education has to progress the way water moves through a piece of paper,\nobserve, how it starts as a dot, and then it spreads as far as it can see.\nThe more it knows the more it grows,\nwe must reject fake education, we mustn't tolerate it.\n\nI had my little invention,\nbut I didn't have so much as an LED to make a throwie[1].\n\nThe player I made today, has a battery where the old CD-ROM was supposed to go,\nand the PCB is now replaced with an actual GNU/Linux powered Computer.\nI finished programming the shutter thingie[2],\nbut I didn't even try to figure out the buttons.\nThe thought hardly occurred to me,\nthe shutter has six buttons that trigger a lot of data.\nI can see that a single button press triggers multiple light pen actions[3],\nthat is probably what the kernel calls a finger.\nLeft and right buttons tiger what maybe to be a swipe,\nup and down, actually trigger many rows of data, as if counting from 0 to 100.\nHolding down the Y-axis key, does something slightly different,\nit slides values between 0 and possibly 1,000.\nThe values are always the same,\nthere is no continuation from where the button last left off.\nSo if I am always getting the same events,\nI can just glue (concatenate) all the data and call it a single button.\nThe long press is a bit off, because the stream of data that long-press sends,\nends when a person lets go, it ends at an arbitrary location within that 1,000 virtual key presses.\nIt is really good for changing audio volume,\nbut I'll have to think about it some more.\nSo the program I wrote, has a learn function that concatenates all button data into a single recognizable ID[4],\nand then when the program is in normal operation mode, it monitors for the presence of the same flurry of key presses[5].\nWhen the stored and detected sequence matches,\nit then triggers a command that is manually associated with the ID[6].\nAnd the GNU/Linux commands it triggers are extremely simple,\nthe play button simply stops[7] music if it is already playing and then plays[8] songs from the Music folder, shuffling them first.\nPressing play, multiple times,\nstops playing current song, and it picks a new one at random, it is surprisingly simple.\n\nI had a fun time this Sunday learning how to manually connect a Bluetooth device,\nit took me four hours because that little shutter button pad, demands that pairing the device and connecting the device, happens instantly.\nI couldn't issue the commands manually, I only had hundreds of milliseconds to go from pair to connect,\nso it needed to be scripted, the computer had to issue connect right after pairing.\n\nThis little $50 of $75 invention is extremely interesting,\neven for people that like having closed source phones around.\nNot only can you control everything from your phone,\nbut also proxy your phone traffic through Pi-hole[9] a which greatly reduces spam and ads.\nThe openness of the Raspberry Pi and the underlying GNU/Linux,\nallows for things that aren't possible with closed source phones[10].\nIt is this kind of tinkering that makes learning GNU/Linux fun and painless,\nit takes many years, but there is no hurry, in the end being able to reprogram things without investing too much time into custom PCBs is a fun talent to have.\nI think my next project is going to be,\na Linux driven Boom Box.\n \nReferences\n[1]: https://www.youtube.com/watch?v=hme5ladDQ_0\n[2]: https://www.amazon.com/Cellphone-Shutter-Multifunction-Playback-Smartphones/dp/B08SWC2DQW\n[3]: https://www.youtube.com/watch?v=EBfkiprmoi0\n[4]: https://github.com/catpea/isir/blob/01ef4b7e55058fde70e5098aad8402345d7e113c/command/learn.js#L51\n[5]: https://github.com/catpea/isir/blob/01ef4b7e55058fde70e5098aad8402345d7e113c/command/listen.js#L41\n[6]: https://github.com/catpea/isir/blob/01ef4b7e55058fde70e5098aad8402345d7e113c/command/listen.js#L49\n[7]: https://github.com/catpea/isir/blob/01ef4b7e55058fde70e5098aad8402345d7e113c/bin/p.sh#L2\n[8]: https://github.com/catpea/isir/blob/01ef4b7e55058fde70e5098aad8402345d7e113c/bin/p.sh#L3\n[9]: https://pi-hole.net/\n[10]: https://www.youtube.com/watch?v=WDa_odxAGUU",
  "images": [],
  "links": [
    {
      "title": "throwie",
      "url": "https://www.youtube.com/watch?v=hme5ladDQ_0",
      "hostname": "www.youtube.com"
    },
    {
      "title": "thingie",
      "url": "https://www.amazon.com/Cellphone-Shutter-Multifunction-Playback-Smartphones/dp/B08SWC2DQW",
      "hostname": "www.amazon.com"
    },
    {
      "title": "light pen actions",
      "url": "https://www.youtube.com/watch?v=EBfkiprmoi0",
      "hostname": "www.youtube.com"
    },
    {
      "title": "So the program I wrote, has a learn function that concatenates all button data into a single recognizable ID",
      "url": "https://github.com/catpea/isir/blob/01ef4b7e55058fde70e5098aad8402345d7e113c/command/learn.js#L51",
      "hostname": "github.com"
    },
    {
      "title": "monitors for the presence of the same flurry of key presses",
      "url": "https://github.com/catpea/isir/blob/01ef4b7e55058fde70e5098aad8402345d7e113c/command/listen.js#L41",
      "hostname": "github.com"
    },
    {
      "title": "triggers a command that is manually associated with the ID",
      "url": "https://github.com/catpea/isir/blob/01ef4b7e55058fde70e5098aad8402345d7e113c/command/listen.js#L49",
      "hostname": "github.com"
    },
    {
      "title": "stops",
      "url": "https://github.com/catpea/isir/blob/01ef4b7e55058fde70e5098aad8402345d7e113c/bin/p.sh#L2",
      "hostname": "github.com"
    },
    {
      "title": "plays",
      "url": "https://github.com/catpea/isir/blob/01ef4b7e55058fde70e5098aad8402345d7e113c/bin/p.sh#L3",
      "hostname": "github.com"
    },
    {
      "title": "Pi-hole",
      "url": "https://pi-hole.net/",
      "hostname": "pi-hole.net"
    },
    {
      "title": "allows for things that aren't possible with closed source phones",
      "url": "https://www.youtube.com/watch?v=WDa_odxAGUU",
      "hostname": "www.youtube.com"
    }
  ]
}