{
  "name": "furkies-purrkies-poetry-0526",
  "id": "furkies-purrkies-poetry-0526",
  "title": "Real Education, Real World",
  "date": "2021-08-09T00:24:48.699Z",
  "image": "poetry-0526-illustration.jpg",
  "artwork": "https://unsplash.com/photos/4ws_xLKQMWI",
  "audio": "poetry-0526.mp3",
  "guid": "85c29e2d-cb40-4cff-b81f-c9f42b63636f",
  "html": "<div class=\"section\">\n  <p>I think, that we have to stop participating it passing on errors,<br>Poverty, Nuclear Weapons, Mass Incarceration, Police Brutality, War - are all errors.</p>\n  <p>None of this should make it into the next generation,<br>it is cruel to act as if Mass Incarceration is mistake that we just have to get used to - it isn't.</p>\n  <p>It is very strange to witness politicians doing as little as possible,<br>and for us to just simply accept it as Bureaucracy or Politics.</p>\n</div>\n<div class=\"section\">\n  <hr>\n</div>\n<div class=\"section\">\n  <p>Perhaps it would be too much to ask of ourselves to fix all this,<br>after all we have inherited most of this mess ourselves.</p>\n  <p>But being vocal and intolerant of these errors,<br>should be our duty, to the younger generations.</p>\n  <p>In order to establish a way to communicate these complex ideas,<br>we must immediately cease to tolerate fake education.</p>\n  <p>Fake education is the root,<br>of all this evil.</p>\n</div>\n<div class=\"section\">\n  <hr>\n</div>\n<div class=\"section\">\n  <p>Almost all of us have experienced fake education first hand,<br>the grades didn't matter, the lessons plans were incoherent.</p>\n  <p>And we were made to celebrate graduation,<br>with our heads full of disconnected facts.</p>\n  <p>A lot of people still don't know,<br>their education was fake.</p>\n</div>\n<div class=\"section\">\n  <hr>\n</div>\n<div class=\"section\">\n  <p>One of the sickest things that comes out of that dog and pony show,<br>is students being tricked into thinking they are \"just not that smart\".</p>\n  <p>And some people take it a step further,<br>and never even try to read a book – they just assume they are not into that.</p>\n</div>\n<div class=\"section\">\n  <hr>\n</div>\n<div class=\"section\">\n  <p>For those of you who are right at the tipping point,<br>the book you are looking for is Short History Of Nearly Everything by Bill Bryson.</p>\n  <p>And you want the Audio Book, the Narrated Version,<br>and don't stop.</p>\n  <p>The first one-hundred books are extremely important,<br>they will help you catch up.</p>\n  <p>You need to plow through a total of 10,000 books,<br>but the big milestones are at 100, 500, and 1,000.</p>\n</div>\n<div class=\"section\">\n  <hr>\n</div>\n<div class=\"section\">\n  <p>Real Education is an education that leaves you with abilities that you frequently use,<br>either directly, or to build on, or by subtle analogy to something else.</p>\n  <p>Fake education teachers you to need common denominators,<br>real education shows you that it is a misunderstanding to just try to add fractions from different denominator worlds.</p>\n  <p>The teachers are doing such a terrible job,<br>they aren't explaining things in ways that are compatible with what we already know.</p>\n  <p>And math class is for killing math,<br>the best class to learn real mathematics from is Programming and Generative Art.</p>\n</div>\n<div class=\"section\">\n  <hr>\n</div>\n<div class=\"section\">\n  <p>School is for learning thousands of useful things,<br>and loving it every day, there are no grades in real school.</p>\n  <p>In real schools you create,<br>and the ability to make that creation, and keep it, and use it, is the reward.</p>\n  <p>We all got tricked,<br>and then sent to college to start paying for this nonsense.</p>\n</div>\n<div class=\"section\">\n  <hr>\n</div>\n<div class=\"section\">\n  <p>Seth Shostak says that the way we can tell a Species is intelligent,<br>is whether or not they can make a radio.</p>\n  <p>We need to know how to compose music, fix electronics,<br>how to program computers, how to use 3D printers, how to model 3D objects and characters - and how to make a radio.</p>\n  <p>We weren't even taught how to draw,<br>all it takes is a photo and a projector, and then some pencils and blending stumps.</p>\n  <p>It sounds silly to mention such simple things,<br>but this mode of thinking shows, that we have been robbed.</p>\n  <p>And we need to know of this robbery,<br><a href=\"https://www.youtube.com/watch?v=fmoor8DwqW4\">to finally put an end to it</a>.</p>\n</div>\n<div class=\"section\">\n  <hr>\n</div>\n<div class=\"section\">\n  <p>Preventing the emergence of Wisdom and Greatness,<br>in the minds of Human Beings has been tried before, and by the most evil of men.</p>\n  <p>It doesn't matter if we are doing this by accident, or by inheritance,<br>once we know we are propagating errors we must stop.</p>\n  <p>Fake education must end right now,<br>that is the only thing that the younger generations need help with.</p>\n  <p>They will learn on their own,<br>they will fight tooth an nail on their own.</p>\n  <p>They just need to know,<br>that they are being tricked, that they are being robbed.</p>\n  <p>That their minds are traded,<br>for years and years of paychecks.</p>\n  <p>That they are seen as a source of income,<br>by everyone involved in the education industry.</p>\n</div>\n<div class=\"section\">\n  <hr>\n</div>\n<div class=\"section\">\n  <p>Education is not about just learning random disconnected facts,<br>that is just a circus trick.</p>\n  <p>Real education it is about a quest for knowledge,<br>a quest that that empowers us with great wisdom.</p>\n  <p>Real education is about growing all the way up<br>until we become great beings who gift the future generations with meaningful and lasting contributions.</p>\n</div>",
  "bootstrap": "<div class=\"card card-section bg-dark text-warning shadow\">\n  <div class=\"section card-body mb-0 my-2\">\n    <div class=\"paragraph card-text card-stanza my-5 text-center\">I think, that we have to stop participating it passing on errors,<br>Poverty, Nuclear Weapons, Mass Incarceration, Police Brutality, War - are all errors.</div>\n    <div class=\"paragraph card-text card-stanza my-5 text-center\">None of this should make it into the next generation,<br>it is cruel to act as if Mass Incarceration is mistake that we just have to get used to - it isn't.</div>\n    <div class=\"paragraph card-text card-stanza my-5 text-center\">It is very strange to witness politicians doing as little as possible,<br>and for us to just simply accept it as Bureaucracy or Politics.</div>\n  </div>\n</div>\n<div class=\"mb-5 section-spacer\">&nbsp;</div>\n<div class=\"card card-section bg-dark text-warning shadow\">\n  <div class=\"section card-body mb-0 my-2\">\n    <div class=\"paragraph card-text card-stanza my-5 text-center\">Perhaps it would be too much to ask of ourselves to fix all this,<br>after all we have inherited most of this mess ourselves.</div>\n    <div class=\"paragraph card-text card-stanza my-5 text-center\">But being vocal and intolerant of these errors,<br>should be our duty, to the younger generations.</div>\n    <div class=\"paragraph card-text card-stanza my-5 text-center\">In order to establish a way to communicate these complex ideas,<br>we must immediately cease to tolerate fake education.</div>\n    <div class=\"paragraph card-text card-stanza my-5 text-center\">Fake education is the root,<br>of all this evil.</div>\n  </div>\n</div>\n<div class=\"mb-5 section-spacer\">&nbsp;</div>\n<div class=\"card card-section bg-dark text-warning shadow\">\n  <div class=\"section card-body mb-0 my-2\">\n    <div class=\"paragraph card-text card-stanza my-5 text-center\">Almost all of us have experienced fake education first hand,<br>the grades didn't matter, the lessons plans were incoherent.</div>\n    <div class=\"paragraph card-text card-stanza my-5 text-center\">And we were made to celebrate graduation,<br>with our heads full of disconnected facts.</div>\n    <div class=\"paragraph card-text card-stanza my-5 text-center\">A lot of people still don't know,<br>their education was fake.</div>\n  </div>\n</div>\n<div class=\"mb-5 section-spacer\">&nbsp;</div>\n<div class=\"card card-section bg-dark text-warning shadow\">\n  <div class=\"section card-body mb-0 my-2\">\n    <div class=\"paragraph card-text card-stanza my-5 text-center\">One of the sickest things that comes out of that dog and pony show,<br>is students being tricked into thinking they are \"just not that smart\".</div>\n    <div class=\"paragraph card-text card-stanza my-5 text-center\">And some people take it a step further,<br>and never even try to read a book – they just assume they are not into that.</div>\n  </div>\n</div>\n<div class=\"mb-5 section-spacer\">&nbsp;</div>\n<div class=\"card card-section bg-dark text-warning shadow\">\n  <div class=\"section card-body mb-0 my-2\">\n    <div class=\"paragraph card-text card-stanza my-5 text-center\">For those of you who are right at the tipping point,<br>the book you are looking for is Short History Of Nearly Everything by Bill Bryson.</div>\n    <div class=\"paragraph card-text card-stanza my-5 text-center\">And you want the Audio Book, the Narrated Version,<br>and don't stop.</div>\n    <div class=\"paragraph card-text card-stanza my-5 text-center\">The first one-hundred books are extremely important,<br>they will help you catch up.</div>\n    <div class=\"paragraph card-text card-stanza my-5 text-center\">You need to plow through a total of 10,000 books,<br>but the big milestones are at 100, 500, and 1,000.</div>\n  </div>\n</div>\n<div class=\"mb-5 section-spacer\">&nbsp;</div>\n<div class=\"card card-section bg-dark text-warning shadow\">\n  <div class=\"section card-body mb-0 my-2\">\n    <div class=\"paragraph card-text card-stanza my-5 text-center\">Real Education is an education that leaves you with abilities that you frequently use,<br>either directly, or to build on, or by subtle analogy to something else.</div>\n    <div class=\"paragraph card-text card-stanza my-5 text-center\">Fake education teachers you to need common denominators,<br>real education shows you that it is a misunderstanding to just try to add fractions from different denominator worlds.</div>\n    <div class=\"paragraph card-text card-stanza my-5 text-center\">The teachers are doing such a terrible job,<br>they aren't explaining things in ways that are compatible with what we already know.</div>\n    <div class=\"paragraph card-text card-stanza my-5 text-center\">And math class is for killing math,<br>the best class to learn real mathematics from is Programming and Generative Art.</div>\n  </div>\n</div>\n<div class=\"mb-5 section-spacer\">&nbsp;</div>\n<div class=\"card card-section bg-dark text-warning shadow\">\n  <div class=\"section card-body mb-0 my-2\">\n    <div class=\"paragraph card-text card-stanza my-5 text-center\">School is for learning thousands of useful things,<br>and loving it every day, there are no grades in real school.</div>\n    <div class=\"paragraph card-text card-stanza my-5 text-center\">In real schools you create,<br>and the ability to make that creation, and keep it, and use it, is the reward.</div>\n    <div class=\"paragraph card-text card-stanza my-5 text-center\">We all got tricked,<br>and then sent to college to start paying for this nonsense.</div>\n  </div>\n</div>\n<div class=\"mb-5 section-spacer\">&nbsp;</div>\n<div class=\"card card-section bg-dark text-warning shadow\">\n  <div class=\"section card-body mb-0 my-2\">\n    <div class=\"paragraph card-text card-stanza my-5 text-center\">Seth Shostak says that the way we can tell a Species is intelligent,<br>is whether or not they can make a radio.</div>\n    <div class=\"paragraph card-text card-stanza my-5 text-center\">We need to know how to compose music, fix electronics,<br>how to program computers, how to use 3D printers, how to model 3D objects and characters - and how to make a radio.</div>\n    <div class=\"paragraph card-text card-stanza my-5 text-center\">We weren't even taught how to draw,<br>all it takes is a photo and a projector, and then some pencils and blending stumps.</div>\n    <div class=\"paragraph card-text card-stanza my-5 text-center\">It sounds silly to mention such simple things,<br>but this mode of thinking shows, that we have been robbed.</div>\n    <div class=\"paragraph card-text card-stanza my-5 text-center\">And we need to know of this robbery,<br><a href=\"https://www.youtube.com/watch?v=fmoor8DwqW4\">to finally put an end to it</a>.</div>\n  </div>\n</div>\n<div class=\"mb-5 section-spacer\">&nbsp;</div>\n<div class=\"card card-section bg-dark text-warning shadow\">\n  <div class=\"section card-body mb-0 my-2\">\n    <div class=\"paragraph card-text card-stanza my-5 text-center\">Preventing the emergence of Wisdom and Greatness,<br>in the minds of Human Beings has been tried before, and by the most evil of men.</div>\n    <div class=\"paragraph card-text card-stanza my-5 text-center\">It doesn't matter if we are doing this by accident, or by inheritance,<br>once we know we are propagating errors we must stop.</div>\n    <div class=\"paragraph card-text card-stanza my-5 text-center\">Fake education must end right now,<br>that is the only thing that the younger generations need help with.</div>\n    <div class=\"paragraph card-text card-stanza my-5 text-center\">They will learn on their own,<br>they will fight tooth an nail on their own.</div>\n    <div class=\"paragraph card-text card-stanza my-5 text-center\">They just need to know,<br>that they are being tricked, that they are being robbed.</div>\n    <div class=\"paragraph card-text card-stanza my-5 text-center\">That their minds are traded,<br>for years and years of paychecks.</div>\n    <div class=\"paragraph card-text card-stanza my-5 text-center\">That they are seen as a source of income,<br>by everyone involved in the education industry.</div>\n  </div>\n</div>\n<div class=\"mb-5 section-spacer\">&nbsp;</div>\n<div class=\"card card-section bg-dark text-warning shadow\">\n  <div class=\"section card-body mb-0 my-2\">\n    <div class=\"paragraph card-text card-stanza my-5 text-center\">Education is not about just learning random disconnected facts,<br>that is just a circus trick.</div>\n    <div class=\"paragraph card-text card-stanza my-5 text-center\">Real education it is about a quest for knowledge,<br>a quest that that empowers us with great wisdom.</div>\n    <div class=\"paragraph card-text card-stanza my-5 text-center\">Real education is about growing all the way up<br>until we become great beings who gift the future generations with meaningful and lasting contributions.</div>\n  </div>\n</div>",
  "print": "<div class=\"section avoid-break-inside\" style=\"padding-bottom: 2rem;\">\n  <div class=\"paragraph\">I think, that we have to stop participating it passing on errors,<br>Poverty, Nuclear Weapons, Mass Incarceration, Police Brutality, War - are all errors.</div>\n  <div class=\"paragraph\">None of this should make it into the next generation,<br>it is cruel to act as if Mass Incarceration is mistake that we just have to get used to - it isn't.</div>\n  <div class=\"paragraph\">It is very strange to witness politicians doing as little as possible,<br>and for us to just simply accept it as Bureaucracy or Politics.</div>\n</div>\n<div class=\"section avoid-break-inside\" style=\"padding-bottom: 2rem;\">\n  <br>\n</div>\n<div class=\"section avoid-break-inside\" style=\"padding-bottom: 2rem;\">\n  <div class=\"paragraph\">Perhaps it would be too much to ask of ourselves to fix all this,<br>after all we have inherited most of this mess ourselves.</div>\n  <div class=\"paragraph\">But being vocal and intolerant of these errors,<br>should be our duty, to the younger generations.</div>\n  <div class=\"paragraph\">In order to establish a way to communicate these complex ideas,<br>we must immediately cease to tolerate fake education.</div>\n  <div class=\"paragraph\">Fake education is the root,<br>of all this evil.</div>\n</div>\n<div class=\"section avoid-break-inside\" style=\"padding-bottom: 2rem;\">\n  <br>\n</div>\n<div class=\"section avoid-break-inside\" style=\"padding-bottom: 2rem;\">\n  <div class=\"paragraph\">Almost all of us have experienced fake education first hand,<br>the grades didn't matter, the lessons plans were incoherent.</div>\n  <div class=\"paragraph\">And we were made to celebrate graduation,<br>with our heads full of disconnected facts.</div>\n  <div class=\"paragraph\">A lot of people still don't know,<br>their education was fake.</div>\n</div>\n<div class=\"section avoid-break-inside\" style=\"padding-bottom: 2rem;\">\n  <br>\n</div>\n<div class=\"section avoid-break-inside\" style=\"padding-bottom: 2rem;\">\n  <div class=\"paragraph\">One of the sickest things that comes out of that dog and pony show,<br>is students being tricked into thinking they are \"just not that smart\".</div>\n  <div class=\"paragraph\">And some people take it a step further,<br>and never even try to read a book – they just assume they are not into that.</div>\n</div>\n<div class=\"section avoid-break-inside\" style=\"padding-bottom: 2rem;\">\n  <br>\n</div>\n<div class=\"section avoid-break-inside\" style=\"padding-bottom: 2rem;\">\n  <div class=\"paragraph\">For those of you who are right at the tipping point,<br>the book you are looking for is Short History Of Nearly Everything by Bill Bryson.</div>\n  <div class=\"paragraph\">And you want the Audio Book, the Narrated Version,<br>and don't stop.</div>\n  <div class=\"paragraph\">The first one-hundred books are extremely important,<br>they will help you catch up.</div>\n  <div class=\"paragraph\">You need to plow through a total of 10,000 books,<br>but the big milestones are at 100, 500, and 1,000.</div>\n</div>\n<div class=\"section avoid-break-inside\" style=\"padding-bottom: 2rem;\">\n  <br>\n</div>\n<div class=\"section avoid-break-inside\" style=\"padding-bottom: 2rem;\">\n  <div class=\"paragraph\">Real Education is an education that leaves you with abilities that you frequently use,<br>either directly, or to build on, or by subtle analogy to something else.</div>\n  <div class=\"paragraph\">Fake education teachers you to need common denominators,<br>real education shows you that it is a misunderstanding to just try to add fractions from different denominator worlds.</div>\n  <div class=\"paragraph\">The teachers are doing such a terrible job,<br>they aren't explaining things in ways that are compatible with what we already know.</div>\n  <div class=\"paragraph\">And math class is for killing math,<br>the best class to learn real mathematics from is Programming and Generative Art.</div>\n</div>\n<div class=\"section avoid-break-inside\" style=\"padding-bottom: 2rem;\">\n  <br>\n</div>\n<div class=\"section avoid-break-inside\" style=\"padding-bottom: 2rem;\">\n  <div class=\"paragraph\">School is for learning thousands of useful things,<br>and loving it every day, there are no grades in real school.</div>\n  <div class=\"paragraph\">In real schools you create,<br>and the ability to make that creation, and keep it, and use it, is the reward.</div>\n  <div class=\"paragraph\">We all got tricked,<br>and then sent to college to start paying for this nonsense.</div>\n</div>\n<div class=\"section avoid-break-inside\" style=\"padding-bottom: 2rem;\">\n  <br>\n</div>\n<div class=\"section avoid-break-inside\" style=\"padding-bottom: 2rem;\">\n  <div class=\"paragraph\">Seth Shostak says that the way we can tell a Species is intelligent,<br>is whether or not they can make a radio.</div>\n  <div class=\"paragraph\">We need to know how to compose music, fix electronics,<br>how to program computers, how to use 3D printers, how to model 3D objects and characters - and how to make a radio.</div>\n  <div class=\"paragraph\">We weren't even taught how to draw,<br>all it takes is a photo and a projector, and then some pencils and blending stumps.</div>\n  <div class=\"paragraph\">It sounds silly to mention such simple things,<br>but this mode of thinking shows, that we have been robbed.</div>\n  <div class=\"paragraph\">And we need to know of this robbery,<br><span>to finally put an end to it<sup>[1]</sup></span>.</div>\n</div>\n<div class=\"section avoid-break-inside\" style=\"padding-bottom: 2rem;\">\n  <br>\n</div>\n<div class=\"section avoid-break-inside\" style=\"padding-bottom: 2rem;\">\n  <div class=\"paragraph\">Preventing the emergence of Wisdom and Greatness,<br>in the minds of Human Beings has been tried before, and by the most evil of men.</div>\n  <div class=\"paragraph\">It doesn't matter if we are doing this by accident, or by inheritance,<br>once we know we are propagating errors we must stop.</div>\n  <div class=\"paragraph\">Fake education must end right now,<br>that is the only thing that the younger generations need help with.</div>\n  <div class=\"paragraph\">They will learn on their own,<br>they will fight tooth an nail on their own.</div>\n  <div class=\"paragraph\">They just need to know,<br>that they are being tricked, that they are being robbed.</div>\n  <div class=\"paragraph\">That their minds are traded,<br>for years and years of paychecks.</div>\n  <div class=\"paragraph\">That they are seen as a source of income,<br>by everyone involved in the education industry.</div>\n</div>\n<div class=\"section avoid-break-inside\" style=\"padding-bottom: 2rem;\">\n  <br>\n</div>\n<div class=\"section avoid-break-inside\" style=\"padding-bottom: 2rem;\">\n  <div class=\"paragraph\">Education is not about just learning random disconnected facts,<br>that is just a circus trick.</div>\n  <div class=\"paragraph\">Real education it is about a quest for knowledge,<br>a quest that that empowers us with great wisdom.</div>\n  <div class=\"paragraph\">Real education is about growing all the way up<br>until we become great beings who gift the future generations with meaningful and lasting contributions.</div>\n</div>\n<div class=\"break-after\">&nbsp;</div>\n<div>\n  <div class=\"section\" style=\"padding-bottom: 1rem;\">References</div>\n  <div>[1]: https://www.youtube.com/watch?v=fmoor8DwqW4</div>\n</div>",
  "text": "I think, that we have to stop participating it passing on errors,\nPoverty, Nuclear Weapons, Mass Incarceration, Police Brutality, War - are all errors.\nNone of this should make it into the next generation,\nit is cruel to act as if Mass Incarceration is mistake that we just have to get used to - it isn't.\nIt is very strange to witness politicians doing as little as possible,\nand for us to just simply accept it as Bureaucracy or Politics.\n\nPerhaps it would be too much to ask of ourselves to fix all this,\nafter all we have inherited most of this mess ourselves.\nBut being vocal and intolerant of these errors,\nshould be our duty, to the younger generations.\nIn order to establish a way to communicate these complex ideas,\nwe must immediately cease to tolerate fake education.\nFake education is the root,\nof all this evil.\n\nAlmost all of us have experienced fake education first hand,\nthe grades didn't matter, the lessons plans were incoherent.\nAnd we were made to celebrate graduation,\nwith our heads full of disconnected facts.\nA lot of people still don't know,\ntheir education was fake.\n\nOne of the sickest things that comes out of that dog and pony show,\nis students being tricked into thinking they are \"just not that smart\".\nAnd some people take it a step further,\nand never even try to read a book – they just assume they are not into that.\n\nFor those of you who are right at the tipping point,\nthe book you are looking for is Short History Of Nearly Everything by Bill Bryson.\nAnd you want the Audio Book, the Narrated Version,\nand don't stop.\nThe first one-hundred books are extremely important,\nthey will help you catch up.\nYou need to plow through a total of 10,000 books,\nbut the big milestones are at 100, 500, and 1,000.\n\nReal Education is an education that leaves you with abilities that you frequently use,\neither directly, or to build on, or by subtle analogy to something else.\nFake education teachers you to need common denominators,\nreal education shows you that it is a misunderstanding to just try to add fractions from different denominator worlds.\nThe teachers are doing such a terrible job,\nthey aren't explaining things in ways that are compatible with what we already know.\nAnd math class is for killing math,\nthe best class to learn real mathematics from is Programming and Generative Art.\n\nSchool is for learning thousands of useful things,\nand loving it every day, there are no grades in real school.\nIn real schools you create,\nand the ability to make that creation, and keep it, and use it, is the reward.\nWe all got tricked,\nand then sent to college to start paying for this nonsense.\n\nSeth Shostak says that the way we can tell a Species is intelligent,\nis whether or not they can make a radio.\nWe need to know how to compose music, fix electronics,\nhow to program computers, how to use 3D printers, how to model 3D objects and characters - and how to make a radio.\nWe weren't even taught how to draw,\nall it takes is a photo and a projector, and then some pencils and blending stumps.\nIt sounds silly to mention such simple things,\nbut this mode of thinking shows, that we have been robbed.\nAnd we need to know of this robbery,\nto finally put an end to it[1].\n\nPreventing the emergence of Wisdom and Greatness,\nin the minds of Human Beings has been tried before, and by the most evil of men.\nIt doesn't matter if we are doing this by accident, or by inheritance,\nonce we know we are propagating errors we must stop.\nFake education must end right now,\nthat is the only thing that the younger generations need help with.\nThey will learn on their own,\nthey will fight tooth an nail on their own.\nThey just need to know,\nthat they are being tricked, that they are being robbed.\nThat their minds are traded,\nfor years and years of paychecks.\nThat they are seen as a source of income,\nby everyone involved in the education industry.\n\nEducation is not about just learning random disconnected facts,\nthat is just a circus trick.\nReal education it is about a quest for knowledge,\na quest that that empowers us with great wisdom.\nReal education is about growing all the way up\nuntil we become great beings who gift the future generations with meaningful and lasting contributions.\n \nReferences\n[1]: https://www.youtube.com/watch?v=fmoor8DwqW4",
  "images": [],
  "links": [
    {
      "title": "to finally put an end to it",
      "url": "https://www.youtube.com/watch?v=fmoor8DwqW4",
      "hostname": "www.youtube.com"
    }
  ]
}