{
  "id": "furkies-purrkies-poetry-0935",
  "guid": "1ef2b2c9-3622-4227-9041-5764abf3b247",
  "title": "Furkies Purrkies Poetry 0935",
  "date": "2022-09-22T03:08:16.423Z",
  "image": "poetry-0935-illustration.jpg",
  "artwork": "https://example.com",
  "audio": "poetry-0935.mp3"
}