{
  "name": "furkies-purrkies-poetry-0344",
  "title": "Live Beautifully",
  "date": "2021-02-07T22:45:05.409Z",
  "image": "poetry-0344-illustration.jpg",
  "audio": "poetry-0344.mp3",
  "artwork": "https://unsplash.com/photos/KfeSoQy3txI",
  "id": "furkies-purrkies-poetry-0344",
  "attachments": {},
  "guid": "16f1dd24-e35e-4cd3-b68a-e0e0ab63bc04",
  "html": "<div class=\"section\">\n  <p>Live Beautifully,</p>\n  <p>Stay Strong.</p>\n</div>\n\n<div class=\"section\">\n  <p>Take to Knowledge and Wisdom,</p>\n  <p>and if you so choose, Greatness.</p>\n</div>\n\n<div class=\"section\">\n  <p>Make use of our greatest powers;</p>\n  <p>Authenticity, Foresight, Insight, Unbreakability...</p>\n</div>\n\n<div class=\"section\">\n  <p>And be mindful of our greatest flaw,</p>\n  <p>our tendency to believe in things that we are born into.</p>\n</div>\n\n<div class=\"section\">\n  <p>As it sends ripples throughout our lives,</p>\n  <p>even so, we must never stop rising.</p>\n</div>\n\n<div class=\"section\">\n  <hr>\n</div>\n\n<div class=\"section\">\n  <p>Memorization is not education, school must not cause debt,</p>\n  <p>there must be no schools that are above all others, all must be equal.</p>\n</div>\n\n<div class=\"section\">\n  <p>Recognize that bullies are ill,</p>\n  <p>and compassionately add, to the eventual end to their cycle of emergence.</p>\n</div>\n\n<div class=\"section\">\n  <p>In the future, there must be no prisons as we know them today,</p>\n  <p>and the world, is not to be divided by borders.</p>\n</div>\n\n<div class=\"section\">\n  <p>And any and all wars,</p>\n  <p>must be prevented decades before they occur.</p>\n</div>\n\n<div class=\"section\">\n  <p>We aught to be taught,</p>\n  <p>to simply grow out of indoctrination and borders.</p>\n</div>\n\n<div class=\"section\">\n  <hr>\n</div>\n\n\n<div class=\"section\">\n  <p>Humanity is better than its flaws,</p>\n  <p>Humanity is one family.</p>\n</div>\n\n<div class=\"section\">\n  <p>We are all equal, we are brothers and sisters,</p>\n  <p>one family under all the stars.</p>\n</div>\n\n<div class=\"section\">\n  <p>Self education, its bounty and fruits of knowledge,</p>\n  <p>and the capacity and eventual willingness to help others is the aim.</p>\n</div>\n\n\n<div class=\"section\">\n  <hr>\n</div>\n\n<div class=\"section\">\n  <p>Before we, as One Humanity, agree to support things from our long past,</p>\n  <p>we must learn to ask: &quot;Is this hurting or helping us, is this dividing, or bringing us together?&quot;.</p>\n</div>\n\n<div class=\"section\">\n  <p>May we all live beautifully.</p>\n  <p>in knowledge, wisdom, and in greatness.</p>\n</div>",
  "bootstrap": "<div class=\"card card-section bg-dark text-warning shadow\">\n  <div class=\"section card-body mb-0 my-2\">\n    <div class=\"paragraph card-text card-stanza my-5 text-center\">Live Beautifully,</div>\n    <div class=\"paragraph card-text card-stanza my-5 text-center\">Stay Strong.</div>\n  </div>\n</div>\n<div class=\"card card-section bg-dark text-warning shadow\">\n  <div class=\"section card-body mb-0 my-2\">\n    <div class=\"paragraph card-text card-stanza my-5 text-center\">Take to Knowledge and Wisdom,</div>\n    <div class=\"paragraph card-text card-stanza my-5 text-center\">and if you so choose, Greatness.</div>\n  </div>\n</div>\n<div class=\"card card-section bg-dark text-warning shadow\">\n  <div class=\"section card-body mb-0 my-2\">\n    <div class=\"paragraph card-text card-stanza my-5 text-center\">Make use of our greatest powers;</div>\n    <div class=\"paragraph card-text card-stanza my-5 text-center\">Authenticity, Foresight, Insight, Unbreakability...</div>\n  </div>\n</div>\n<div class=\"card card-section bg-dark text-warning shadow\">\n  <div class=\"section card-body mb-0 my-2\">\n    <div class=\"paragraph card-text card-stanza my-5 text-center\">And be mindful of our greatest flaw,</div>\n    <div class=\"paragraph card-text card-stanza my-5 text-center\">our tendency to believe in things that we are born into.</div>\n  </div>\n</div>\n<div class=\"card card-section bg-dark text-warning shadow\">\n  <div class=\"section card-body mb-0 my-2\">\n    <div class=\"paragraph card-text card-stanza my-5 text-center\">As it sends ripples throughout our lives,</div>\n    <div class=\"paragraph card-text card-stanza my-5 text-center\">even so, we must never stop rising.</div>\n  </div>\n</div>\n<div class=\"mb-5 section-spacer\">&nbsp;</div>\n<div class=\"card card-section bg-dark text-warning shadow\">\n  <div class=\"section card-body mb-0 my-2\">\n    <div class=\"paragraph card-text card-stanza my-5 text-center\">Memorization is not education, school must not cause debt,</div>\n    <div class=\"paragraph card-text card-stanza my-5 text-center\">there must be no schools that are above all others, all must be equal.</div>\n  </div>\n</div>\n<div class=\"card card-section bg-dark text-warning shadow\">\n  <div class=\"section card-body mb-0 my-2\">\n    <div class=\"paragraph card-text card-stanza my-5 text-center\">Recognize that bullies are ill,</div>\n    <div class=\"paragraph card-text card-stanza my-5 text-center\">and compassionately add, to the eventual end to their cycle of emergence.</div>\n  </div>\n</div>\n<div class=\"card card-section bg-dark text-warning shadow\">\n  <div class=\"section card-body mb-0 my-2\">\n    <div class=\"paragraph card-text card-stanza my-5 text-center\">In the future, there must be no prisons as we know them today,</div>\n    <div class=\"paragraph card-text card-stanza my-5 text-center\">and the world, is not to be divided by borders.</div>\n  </div>\n</div>\n<div class=\"card card-section bg-dark text-warning shadow\">\n  <div class=\"section card-body mb-0 my-2\">\n    <div class=\"paragraph card-text card-stanza my-5 text-center\">And any and all wars,</div>\n    <div class=\"paragraph card-text card-stanza my-5 text-center\">must be prevented decades before they occur.</div>\n  </div>\n</div>\n<div class=\"card card-section bg-dark text-warning shadow\">\n  <div class=\"section card-body mb-0 my-2\">\n    <div class=\"paragraph card-text card-stanza my-5 text-center\">We aught to be taught,</div>\n    <div class=\"paragraph card-text card-stanza my-5 text-center\">to simply grow out of indoctrination and borders.</div>\n  </div>\n</div>\n<div class=\"mb-5 section-spacer\">&nbsp;</div>\n<div class=\"card card-section bg-dark text-warning shadow\">\n  <div class=\"section card-body mb-0 my-2\">\n    <div class=\"paragraph card-text card-stanza my-5 text-center\">Humanity is better than its flaws,</div>\n    <div class=\"paragraph card-text card-stanza my-5 text-center\">Humanity is one family.</div>\n  </div>\n</div>\n<div class=\"card card-section bg-dark text-warning shadow\">\n  <div class=\"section card-body mb-0 my-2\">\n    <div class=\"paragraph card-text card-stanza my-5 text-center\">We are all equal, we are brothers and sisters,</div>\n    <div class=\"paragraph card-text card-stanza my-5 text-center\">one family under all the stars.</div>\n  </div>\n</div>\n<div class=\"card card-section bg-dark text-warning shadow\">\n  <div class=\"section card-body mb-0 my-2\">\n    <div class=\"paragraph card-text card-stanza my-5 text-center\">Self education, its bounty and fruits of knowledge,</div>\n    <div class=\"paragraph card-text card-stanza my-5 text-center\">and the capacity and eventual willingness to help others is the aim.</div>\n  </div>\n</div>\n<div class=\"mb-5 section-spacer\">&nbsp;</div>\n<div class=\"card card-section bg-dark text-warning shadow\">\n  <div class=\"section card-body mb-0 my-2\">\n    <div class=\"paragraph card-text card-stanza my-5 text-center\">Before we, as One Humanity, agree to support things from our long past,</div>\n    <div class=\"paragraph card-text card-stanza my-5 text-center\">we must learn to ask: \"Is this hurting or helping us, is this dividing, or bringing us together?\".</div>\n  </div>\n</div>\n<div class=\"card card-section bg-dark text-warning shadow\">\n  <div class=\"section card-body mb-0 my-2\">\n    <div class=\"paragraph card-text card-stanza my-5 text-center\">May we all live beautifully.</div>\n    <div class=\"paragraph card-text card-stanza my-5 text-center\">in knowledge, wisdom, and in greatness.</div>\n  </div>\n</div>",
  "print": "<div class=\"section avoid-break-inside\" style=\"padding-bottom: 2rem;\">\n  <div class=\"paragraph\">Live Beautifully,</div>\n  <div class=\"paragraph\">Stay Strong.</div>\n</div>\n<div class=\"section avoid-break-inside\" style=\"padding-bottom: 2rem;\">\n  <div class=\"paragraph\">Take to Knowledge and Wisdom,</div>\n  <div class=\"paragraph\">and if you so choose, Greatness.</div>\n</div>\n<div class=\"section avoid-break-inside\" style=\"padding-bottom: 2rem;\">\n  <div class=\"paragraph\">Make use of our greatest powers;</div>\n  <div class=\"paragraph\">Authenticity, Foresight, Insight, Unbreakability...</div>\n</div>\n<div class=\"section avoid-break-inside\" style=\"padding-bottom: 2rem;\">\n  <div class=\"paragraph\">And be mindful of our greatest flaw,</div>\n  <div class=\"paragraph\">our tendency to believe in things that we are born into.</div>\n</div>\n<div class=\"section avoid-break-inside\" style=\"padding-bottom: 2rem;\">\n  <div class=\"paragraph\">As it sends ripples throughout our lives,</div>\n  <div class=\"paragraph\">even so, we must never stop rising.</div>\n</div>\n<div class=\"section avoid-break-inside\" style=\"padding-bottom: 2rem;\">\n  <br>\n</div>\n<div class=\"section avoid-break-inside\" style=\"padding-bottom: 2rem;\">\n  <div class=\"paragraph\">Memorization is not education, school must not cause debt,</div>\n  <div class=\"paragraph\">there must be no schools that are above all others, all must be equal.</div>\n</div>\n<div class=\"section avoid-break-inside\" style=\"padding-bottom: 2rem;\">\n  <div class=\"paragraph\">Recognize that bullies are ill,</div>\n  <div class=\"paragraph\">and compassionately add, to the eventual end to their cycle of emergence.</div>\n</div>\n<div class=\"section avoid-break-inside\" style=\"padding-bottom: 2rem;\">\n  <div class=\"paragraph\">In the future, there must be no prisons as we know them today,</div>\n  <div class=\"paragraph\">and the world, is not to be divided by borders.</div>\n</div>\n<div class=\"section avoid-break-inside\" style=\"padding-bottom: 2rem;\">\n  <div class=\"paragraph\">And any and all wars,</div>\n  <div class=\"paragraph\">must be prevented decades before they occur.</div>\n</div>\n<div class=\"section avoid-break-inside\" style=\"padding-bottom: 2rem;\">\n  <div class=\"paragraph\">We aught to be taught,</div>\n  <div class=\"paragraph\">to simply grow out of indoctrination and borders.</div>\n</div>\n<div class=\"section avoid-break-inside\" style=\"padding-bottom: 2rem;\">\n  <br>\n</div>\n<div class=\"section avoid-break-inside\" style=\"padding-bottom: 2rem;\">\n  <div class=\"paragraph\">Humanity is better than its flaws,</div>\n  <div class=\"paragraph\">Humanity is one family.</div>\n</div>\n<div class=\"section avoid-break-inside\" style=\"padding-bottom: 2rem;\">\n  <div class=\"paragraph\">We are all equal, we are brothers and sisters,</div>\n  <div class=\"paragraph\">one family under all the stars.</div>\n</div>\n<div class=\"section avoid-break-inside\" style=\"padding-bottom: 2rem;\">\n  <div class=\"paragraph\">Self education, its bounty and fruits of knowledge,</div>\n  <div class=\"paragraph\">and the capacity and eventual willingness to help others is the aim.</div>\n</div>\n<div class=\"section avoid-break-inside\" style=\"padding-bottom: 2rem;\">\n  <br>\n</div>\n<div class=\"section avoid-break-inside\" style=\"padding-bottom: 2rem;\">\n  <div class=\"paragraph\">Before we, as One Humanity, agree to support things from our long past,</div>\n  <div class=\"paragraph\">we must learn to ask: \"Is this hurting or helping us, is this dividing, or bringing us together?\".</div>\n</div>\n<div class=\"section avoid-break-inside\" style=\"padding-bottom: 2rem;\">\n  <div class=\"paragraph\">May we all live beautifully.</div>\n  <div class=\"paragraph\">in knowledge, wisdom, and in greatness.</div>\n</div>",
  "text": "Live Beautifully,\nStay Strong.\nTake to Knowledge and Wisdom,\nand if you so choose, Greatness.\nMake use of our greatest powers;\nAuthenticity, Foresight, Insight, Unbreakability...\nAnd be mindful of our greatest flaw,\nour tendency to believe in things that we are born into.\nAs it sends ripples throughout our lives,\neven so, we must never stop rising.\n\nMemorization is not education, school must not cause debt,\nthere must be no schools that are above all others, all must be equal.\nRecognize that bullies are ill,\nand compassionately add, to the eventual end to their cycle of emergence.\nIn the future, there must be no prisons as we know them today,\nand the world, is not to be divided by borders.\nAnd any and all wars,\nmust be prevented decades before they occur.\nWe aught to be taught,\nto simply grow out of indoctrination and borders.\n\nHumanity is better than its flaws,\nHumanity is one family.\nWe are all equal, we are brothers and sisters,\none family under all the stars.\nSelf education, its bounty and fruits of knowledge,\nand the capacity and eventual willingness to help others is the aim.\n\nBefore we, as One Humanity, agree to support things from our long past,\nwe must learn to ask: \"Is this hurting or helping us, is this dividing, or bringing us together?\".\nMay we all live beautifully.\nin knowledge, wisdom, and in greatness.",
  "images": [],
  "links": []
}