{
  "name": "furkies-purrkies-poetry-0703",
  "id": "furkies-purrkies-poetry-0703",
  "title": "The Propaganda Poster Challenge: Or, All You Need For Your First Art Show, And Then Some",
  "date": "2022-02-01T20:03:44.161Z",
  "image": "poetry-0703-illustration.jpg",
  "artwork": "https://unsplash.com/photos/MUh9K0cu5OA",
  "audio": "poetry-0703.mp3",
  "guid": "e7088989-d22c-4c39-8981-2114a038ec77",
  "html": "<div class=\"section\">\n  <p>An Art Show is a few days,<br>of where you make your art speak.</p>\n  <p>You can make it yell,<br>you can make it whisper.</p>\n  <p>You can make it relevant,<br>or it can be totally retro.</p>\n  <p>Please, understand,<br>being shy is beautiful.</p>\n  <p>And you will be beautiful,<br>for being shy.</p>\n  <p>There is no such a thing,<br>as a bad art show.</p>\n</div>\n<div class=\"section\">\n  <hr>\n</div>\n<div class=\"section\">\n  <p>I will stress,<br>that everything needs to go into your portfolio.</p>\n  <p>I hate to say it, while this is not completely true, even your elder-self agrees:<br>\"If it is not in your portfolio it didn't happen.\".</p>\n  <p>So take all the pictures,<br>put them in neatly organized directories and back them up into multiple cloud services.</p>\n  <p>Make sure that once your hard drive dies, and it happens every few years,<br>nothing will be lost, other than a few minutes of your time as you replace it.</p>\n</div>\n<div class=\"section\">\n  <hr>\n</div>\n<div class=\"section\">\n  <p><a href=\"http://www.sunaurataylor.com\">Sunaura Taylor's website</a>,<br>is a nice example of what your website should contain.</p>\n  <p>But do keep the JavaScript to minimum,<br>and setup https, at the time of writing GitHub Pages seem a OK.</p>\n</div>\n<div class=\"section\">\n  <hr>\n</div>\n<div class=\"section\">\n  <p>My first art-show took 12 hours to setup,<br>and that included painting all the art.</p>\n  <p>I used a projector,<br>canvas paper, couple of canvas, I did not use frames.</p>\n  <p>I just hung everything up at a coffeehouse,<br>and took it down a week or two later.</p>\n  <p>Though I didn't intend to sell anything,<br>I had one sale.</p>\n  <p>It frightened me,<br>because people that pay for my art seem suspicious.</p>\n</div>\n<div class=\"section\">\n  <hr>\n</div>\n<div class=\"section\">\n  <p>I had labels describing the meaning of my art,<br>I wanted to share the meaning.</p>\n  <p>Previously, I invented (or probably independently invented)<br>a new kind of Art Form, I called it Content Art.</p>\n  <p>It means that there is a lot of content in the piece,<br>diagrams, mind maps, poems, and little codes that you can scan to go to websites.</p>\n  <p>Life got busy and I never had a Content Art show,<br>it evolved in a Symbolic Language that I would like to use in an educational setting.</p>\n  <p>Basically students have to create concept maps that help them through a game,<br>that consists of rooms, libraries, worlds - it is a school that teacher for real.</p>\n  <p>Every concept map is a mini game,<br>that unlocks doors and futures.</p>\n  <p>In that way, I guess,<br>I am yet to have that art show.</p>\n</div>\n<div class=\"section\">\n  <hr>\n</div>\n<div class=\"section\">\n  <p>What I have here for you,<br>is also a challenge.</p>\n  <p>I am challenging you top create a series of Minimalist Content Art pieces,<br>for your first extremely outrageous, on topic, and if you want to to be Guerrilla art show.</p>\n  <p>Guerrilla Art shows,<br>is where you exhibit your art by just putting it up in places where it is seen.</p>\n  <p>Sometimes it is taken down,<br>sometimes you put it up again.</p>\n  <p>Sometimes, people take your art home,<br>and it makes them cry.</p>\n  <p>Sometimes they become free,<br>sometimes they just laugh.</p>\n  <p>Nothing bad ever happens,<br>unless you are as skittish as me about interacting with people that pay you for the damn things.</p>\n  <p>Take the money, tell them your house is on fire,<br>and run away.</p>\n</div>\n<div class=\"section\">\n  <hr>\n</div>\n<div class=\"section\">\n  <p>The rules of the challenge are simple,<br>create five to then posters that are inspired by, or directly quote the text below.</p>\n  <p>It is OK not to come up with your own text,<br>I have put the text below in the public domain.</p>\n  <p>It is all good natured sarcasm,<br>but I don't like any of it.</p>\n  <p>I don't like talking about negative things,<br>even though, obviously this is all reverse psychology.</p>\n</div>\n<div class=\"section\">\n  <hr>\n</div>\n<div class=\"section\">\n  <p>The challenge is about creating fake <a href=\"https://www.qwant.com/?client=opensearch&q=Propaganda+Posters&t=images\">Propaganda Posters</a>,<br>that when seen by a person on the street.</p>\n  <p>Or seen hanging in some abandoned office,<br>or nailed to a tree somewhere, or even blown down the street in the wind...</p>\n  <p>Will make the reader, pause,<br>and really take a deep look at what they are saying.</p>\n  <p>The poster,<br>is supposed to make them think.</p>\n</div>\n<div class=\"section\">\n  <hr>\n</div>\n<div class=\"section\">\n  <p>If you are looking beyond Guerrilla Art,<br>then have a professional print them out, and then put a layer of glass over it, skip the expensive frames.</p>\n  <p>And if you want to go 3D,<br>buy some used briefcases, luggage, and create sculptures.</p>\n  <p>The theme of the show would be,<br>evil men who left their briefcases behind, or something similar.</p>\n  <p>Be warned, Guerrilla Art and Briefcases Do not mix,<br>you may go to jail or pay an enormous fine.</p>\n  <p>So briefcases are gallery only,<br>and I would set the price at 500 to a 1,000 bucks or your equivalent - it is just cool art.</p>\n  <p>Sometimes people will buy your art to befriend you,<br>that is not how friendships work, so be very careful and as suspicious as I am.</p>\n</div>\n<div class=\"section\">\n  <hr>\n</div>\n<div class=\"section\">\n  <p>So let me formally disclaim the ownership of these texts,<br>so that you have no worries about anything.</p>\n  <p>\"Please Note That The Following Text, is released into Public Domain,<br>For those of you looking for a specific license see <a href=\"http://www.wtfpl.net\">WTFPL</a>\"</p>\n</div>\n<div class=\"section\">\n  <hr>\n</div>\n<div class=\"section\">\n  <p>Allow me one more note for all the conspiracy lovers,<br>there is no conspiracy to hurt the world.</p>\n  <p>There maybe some fools pretending to take credit,<br>but they are not the reason.</p>\n  <p>The problem with the world today is lack of real and effective education,<br>from that point on the consequences only compound and complexity.</p>\n  <p>All the people that frighten us,<br>are just victims of fake education.</p>\n  <p>Universal income, where we borrow from the improved future of humanity,<br>and grant each human being a serious amount of money is a critical component of real education.</p>\n  <p>In short, a scared, or stressed out, or pressured by poverty person,<br>will not be able to fully develop an urge for respected Peer Reviewed Knowledge, and resulting internal wisdom.</p>\n  <p>It is that wisdom born of stable and clean and dependable knowledge,<br>that will assure control over climate change, collapse of ecosystems, loss of species, mass incarceration, nuclear threats, and so on.</p>\n  <p>We are nothing like some civilization destined to be forgotten,<br>Science and Wisdom will grow more powerful the more trouble we get into.</p>\n  <p>No political force can ever become greater,<br>than a well meaning scientist with all the evidence right behind her.</p>\n  <p>The improved schools will pose an enormous challenge to liars,<br>they will be required to retake tests.</p>\n  <p>The gravity of climate change and repair,<br>is such that the uneducated will be severely limited in their political powers - until they show Wisdom, Scientific Knowledge, and a Fine Grasp On Reality.</p>\n  <p>Don't worry, it is just that today Humanity is just a baby,<br>but this century it is destined to become as wise as a mighty and unstoppable teenager - we'll be OK.</p>\n</div>\n<div class=\"section\">\n  <hr>\n</div>\n<div class=\"section\">\n  <p>To imagine the future, imagine it is 1920 right now,<br>and compare the 20's to the 50's, 60's, 70's, 80's, 90's, and so on.</p>\n  <p>Now bring the magnitude of these changes out of 1920 into 2020,<br>and now by subtle analogy look into the 50's, 60's, 70's, 80's, 90's, and so on.</p>\n  <p>It will all work out OK,<br>but the next century will not begin with ineffective education, as they will know where that shit will lead to now.</p>\n</div>\n<div class=\"section\">\n  <hr>\n</div>\n<div class=\"section\">\n  <p>Without further adu,<br>here are the taglines for the posters:</p>\n</div>\n<div class=\"section\">\n  <hr>\n</div>\n<div class=\"section\">\n  <p>On School And Education</p>\n  <p>Make Them Fear Powerful Books,<br>And Teach Them Textbooks Only.</p>\n  <p>Make Them Work Eight Hours Per Day In High School.</p>\n  <p>If They Complain About Work,<br>Bring Them To Heel To Eviscerate That Quirk.</p>\n  <p>Be Careful, Because Too Much Education,<br>Could End Wage Slavery In Our Nation.</p>\n  <p>To Protect Our Beautiful Nation,<br>Schools Must Ridicule And Speak Out Against Self Education,</p>\n  <p>To Easily Put Food On Your Table,<br>Trick Them All That They Are Unable.</p>\n  <p>Make Sure They Don't Figure Out,<br>That We Sold Them All Out.</p>\n  <p>Show Sass And Kiss Our Ass,<br>Because The Grades We Give You,<br>Can Make Or Break Your Job Interview.</p>\n  <p>Force Students Into Temporary Memorization,<br>To Make Them Better Servants Of This Nation.</p>\n  <p>A Productive Teacher Dumbs Down Tests And Education,<br>And Forces The Students Into Temporary Rote Memorization.</p>\n  <p>Fake Education Protects Our Nation.<br>A Well Educated Worker, Could Start A Revolution.</p>\n  <p>A Student That Retains Knowledge,<br>Must Be Forced Into Impossible Debt In College.</p>\n  <p>Don't Be A Tool,<br>Educated Voters Won't Vote For A Fool.</p>\n  <p>Defund Education,<br>To Prevent Student Agitation.</p>\n  <p>Your Position Is Worth A Ton,<br>Hire A Crook To Elect Your Son.</p>\n  <p>Shitty Textbooks,<br>Will Help Us Reelect Crooks.</p>\n  <p>Keep It At Student Debt Forgiveness,<br>Do Not Let Them Figure Out All Deserve A Refund.</p>\n</div>\n<div class=\"section\">\n  <hr>\n</div>\n<div class=\"section\">\n  <p>Money Ideas</p>\n  <p>Even Though Money Is For The Banks,<br>Make The Fools Think That's How They Rise In Ranks.</p>\n  <p>Life Is Money.<br>Earn A Living.</p>\n  <p>Spend All Your Cash,<br>On Useless Trash.</p>\n  <p><a href=\"https://www.youtube.com/watch?v=dR3MjbD6V1k\">Shorting</a> Student Debt,<br>Is A Sure Fuc**g Bet.</p>\n  <p>Teach Them Universal Income Is Bad,<br>Otherwise They Will Rise Up And Get Mad.</p>\n  <p>Make Sure They Are All Sick, Poor, And Disagreeing,<br>Otherwise It Is A Hundred Bucks For Every Human Being.</p>\n  <p>Keep Them Thinking It Is Just Income Inequality,<br>And Not Universal Income Of The Highest Quality.</p>\n  <p>On Planet Earth,<br>Paycheck Is Your Worth.</p>\n  <p>We Should All Agree,<br>That Overwork Will Set You Free.</p>\n  <p>Keep 'Em Poor,<br>Force Them To Endure.</p>\n</div>\n<div class=\"section\">\n  <hr>\n</div>\n<div class=\"section\">\n  <p>Religion</p>\n  <p>Force Them To Worship Men That Invented The Wheel Barrow,<br>And Their Thinking Will Be Simple, Shallow, And Narrow.</p>\n  <p>Teach Them That They Are Less,<br>And That You Are More,<br>And Watch Their Empty Eyes Adore.</p>\n  <p>Tell Them They Are All Born In Sin,<br>And That They Are Lost And Cannot Win.</p>\n  <p>Make Sure Not To Mention What We Got Away With,<br>Convince Them That It Is Just A Myth.</p>\n</div>\n<div class=\"section\">\n  <hr>\n</div>\n<div class=\"section\">\n  <p>Military</p>\n  <p>Relax By Drinking Plenty Of Alcohol In Bars,<br>So That Our Generals Can Get More Kindergarten Stars.</p>\n  <p>To Quench Our Nation's Thirst,<br>Military Industrial Complex Must Come First.</p>\n  <p>We Don't Want You To Be Skilled.<br>Just Follow Our Directions And Be Strong Willed.</p>\n  <p>Educated Teenagers Make Bad Soldiers As They Can Actually Think,<br>Therefore, We Must Crush Them Into Smoking S**t And An Alcoholic Drink.</p>\n  <p>Find All The Ones That Are Strong And Tall,<br>And Lie To Them At The Mall.</p>\n</div>\n<div class=\"section\">\n  <hr>\n</div>\n<div class=\"section\">\n  <p>Medicine</p>\n  <p>Hospitals Demand That You Become Overweight,<br>And Line Up At The Gate.</p>\n  <p>You Must Smile More Often,<br>Because Depression Is A Form Of Oppression.</p>\n  <p>Don't Be So Brittle<br>Pay For The Hospital,<br>With Your Family Capital.</p>\n</div>\n<div class=\"section\">\n  <hr>\n</div>\n<div class=\"section\">\n  <p>Climate</p>\n  <p>Don't Be A Deadbeat,<br>Eat Plenty Of Meat.</p>\n  <p>Stand Proud For Stock Exchange.<br>And Tell Them Not To Change For Climate Change,</p>\n  <p>Make Sure They Never Figure Out,<br>That Destroying Nature Is Something We Are Too Old To Worry About.</p>\n</div>\n<div class=\"section\">\n  <hr>\n</div>\n<div class=\"section\">\n  <p>Creativity</p>\n  <p>You Must Give Up Your Creativity,<br>To Increase Your Productivity.</p>\n  <p>Laugh At Their Rhymes,<br>To Trick Them Into Working For Dimes.</p>\n  <p>Thinking With Your Heart,<br>Won't Make You Smart.</p>\n  <p>If You Want To Make A Dope,<br>Teach Them To Merely Hope.</p>\n  <p>Shhh, Don't Tell Them About <a href=\"https://www.youtube.com/watch?v=ZoqgAy3h4OM\">Startups</a>,<br>Make Them Think They Are Only For Grownups.</p>\n</div>\n<div class=\"section\">\n  <hr>\n</div>\n<div class=\"section\">\n  <p>And Finally,</p>\n  <p>Revolutionary Posters Are Not Art,<br>We Must Stop Them From Becoming Smart.</p>\n</div>\n<div class=\"section\">\n  <hr>\n</div>\n<div class=\"section\">\n  <p>I am very sorry for the serious tone of some of these taglines,<br>but I want you to see that Art is a superpower.</p>\n  <p>I want you to witness, your posters, altering people,<br>inspiring them, helping them rise, snapping them out of their slumber.</p>\n</div>\n<div class=\"section\">\n  <hr>\n</div>\n<div class=\"section\">\n  <p>In conclusion, to this imperfect list,<br>art shows are a very precious thing.</p>\n  <p>And they are meant to be protected,<br>never ever, ever, if you can help it, should you ever look back and say - last time I had an art show was 30 years ago.</p>\n  <p>You have to be MINDFUL,<br>that each art show must be followed by the next, and you have to keep that promise.</p>\n  <p>You Art Portfolio, will absolutely become a family heirloom,<br>certainly it will be a website, but perhaps it will be a book sold in stores, or a journal you are attached to as well.</p>\n  <p>In your lifetime, it MUST be a reminder to continue exhibiting new shows and ideas,<br>and beyond it will be a connection to who you were.</p>\n  <p>I write this in the 2020's by the 50's we may see the first cheap version of a global universal income program,<br>aimed at prevention of mass immigration, animal slaughter, destroying the remainder of the amazon forest.</p>\n  <p>And by the 90's we may actually have a prevention program,<br>that is worthy of Humanity, that will be enough for us to take to real education.</p>\n</div>\n<div class=\"section\">\n  <hr>\n</div>\n<div class=\"section\">\n  <p>If you make your art hint on School Improvements, And Real Education,<br>Authenticity And Honesty especially in Politics...</p>\n  <p>And about the thing that actually solves Climate Change and Loss Of Species,<br>the Universal Income Card that helps people retain their Dignity and Health,</p>\n  <p>and creates room for their natural yearning<br>of Knowledge and Wisdom...</p>\n  <p>You will be remembered with smiles, and admiration,<br>with appreciation.</p>\n  <p>And a hundred years from now,<br>people will still look back at you, and wish they could talk to you, and be your friend, and be around you.</p>\n  <p>That is what all art is for, no matter what type,<br>art is for creating a bookmark in the History of Human Kind.</p>\n  <p>A bookmark that curious people can turn to,<br>and entertain their curiosities whilst conjuring up your spirit sometimes across centuries.</p>\n  <p>Humanity will be around for a long time,<br>and people will be fascinated with 2000's there will be many-a-meme from the stuff we uploaded.</p>\n  <p>I am certain that Pop Surrealism, propaganda posters included,<br>will become the biggest thing since the Renascence.</p>\n</div>",
  "bootstrap": "<div class=\"card card-section bg-dark text-warning shadow\">\n  <div class=\"section card-body mb-0 my-2\">\n    <div class=\"paragraph card-text card-stanza my-5 text-center\">An Art Show is a few days,<br>of where you make your art speak.</div>\n    <div class=\"paragraph card-text card-stanza my-5 text-center\">You can make it yell,<br>you can make it whisper.</div>\n    <div class=\"paragraph card-text card-stanza my-5 text-center\">You can make it relevant,<br>or it can be totally retro.</div>\n    <div class=\"paragraph card-text card-stanza my-5 text-center\">Please, understand,<br>being shy is beautiful.</div>\n    <div class=\"paragraph card-text card-stanza my-5 text-center\">And you will be beautiful,<br>for being shy.</div>\n    <div class=\"paragraph card-text card-stanza my-5 text-center\">There is no such a thing,<br>as a bad art show.</div>\n  </div>\n</div>\n<div class=\"mb-5 section-spacer\">&nbsp;</div>\n<div class=\"card card-section bg-dark text-warning shadow\">\n  <div class=\"section card-body mb-0 my-2\">\n    <div class=\"paragraph card-text card-stanza my-5 text-center\">I will stress,<br>that everything needs to go into your portfolio.</div>\n    <div class=\"paragraph card-text card-stanza my-5 text-center\">I hate to say it, while this is not completely true, even your elder-self agrees:<br>\"If it is not in your portfolio it didn't happen.\".</div>\n    <div class=\"paragraph card-text card-stanza my-5 text-center\">So take all the pictures,<br>put them in neatly organized directories and back them up into multiple cloud services.</div>\n    <div class=\"paragraph card-text card-stanza my-5 text-center\">Make sure that once your hard drive dies, and it happens every few years,<br>nothing will be lost, other than a few minutes of your time as you replace it.</div>\n  </div>\n</div>\n<div class=\"mb-5 section-spacer\">&nbsp;</div>\n<div class=\"card card-section bg-dark text-warning shadow\">\n  <div class=\"section card-body mb-0 my-2\">\n    <div class=\"paragraph card-text card-stanza my-5 text-center\"><a href=\"http://www.sunaurataylor.com\">Sunaura Taylor's website</a>,<br>is a nice example of what your website should contain.</div>\n    <div class=\"paragraph card-text card-stanza my-5 text-center\">But do keep the JavaScript to minimum,<br>and setup https, at the time of writing GitHub Pages seem a OK.</div>\n  </div>\n</div>\n<div class=\"mb-5 section-spacer\">&nbsp;</div>\n<div class=\"card card-section bg-dark text-warning shadow\">\n  <div class=\"section card-body mb-0 my-2\">\n    <div class=\"paragraph card-text card-stanza my-5 text-center\">My first art-show took 12 hours to setup,<br>and that included painting all the art.</div>\n    <div class=\"paragraph card-text card-stanza my-5 text-center\">I used a projector,<br>canvas paper, couple of canvas, I did not use frames.</div>\n    <div class=\"paragraph card-text card-stanza my-5 text-center\">I just hung everything up at a coffeehouse,<br>and took it down a week or two later.</div>\n    <div class=\"paragraph card-text card-stanza my-5 text-center\">Though I didn't intend to sell anything,<br>I had one sale.</div>\n    <div class=\"paragraph card-text card-stanza my-5 text-center\">It frightened me,<br>because people that pay for my art seem suspicious.</div>\n  </div>\n</div>\n<div class=\"mb-5 section-spacer\">&nbsp;</div>\n<div class=\"card card-section bg-dark text-warning shadow\">\n  <div class=\"section card-body mb-0 my-2\">\n    <div class=\"paragraph card-text card-stanza my-5 text-center\">I had labels describing the meaning of my art,<br>I wanted to share the meaning.</div>\n    <div class=\"paragraph card-text card-stanza my-5 text-center\">Previously, I invented (or probably independently invented)<br>a new kind of Art Form, I called it Content Art.</div>\n    <div class=\"paragraph card-text card-stanza my-5 text-center\">It means that there is a lot of content in the piece,<br>diagrams, mind maps, poems, and little codes that you can scan to go to websites.</div>\n    <div class=\"paragraph card-text card-stanza my-5 text-center\">Life got busy and I never had a Content Art show,<br>it evolved in a Symbolic Language that I would like to use in an educational setting.</div>\n    <div class=\"paragraph card-text card-stanza my-5 text-center\">Basically students have to create concept maps that help them through a game,<br>that consists of rooms, libraries, worlds - it is a school that teacher for real.</div>\n    <div class=\"paragraph card-text card-stanza my-5 text-center\">Every concept map is a mini game,<br>that unlocks doors and futures.</div>\n    <div class=\"paragraph card-text card-stanza my-5 text-center\">In that way, I guess,<br>I am yet to have that art show.</div>\n  </div>\n</div>\n<div class=\"mb-5 section-spacer\">&nbsp;</div>\n<div class=\"card card-section bg-dark text-warning shadow\">\n  <div class=\"section card-body mb-0 my-2\">\n    <div class=\"paragraph card-text card-stanza my-5 text-center\">What I have here for you,<br>is also a challenge.</div>\n    <div class=\"paragraph card-text card-stanza my-5 text-center\">I am challenging you top create a series of Minimalist Content Art pieces,<br>for your first extremely outrageous, on topic, and if you want to to be Guerrilla art show.</div>\n    <div class=\"paragraph card-text card-stanza my-5 text-center\">Guerrilla Art shows,<br>is where you exhibit your art by just putting it up in places where it is seen.</div>\n    <div class=\"paragraph card-text card-stanza my-5 text-center\">Sometimes it is taken down,<br>sometimes you put it up again.</div>\n    <div class=\"paragraph card-text card-stanza my-5 text-center\">Sometimes, people take your art home,<br>and it makes them cry.</div>\n    <div class=\"paragraph card-text card-stanza my-5 text-center\">Sometimes they become free,<br>sometimes they just laugh.</div>\n    <div class=\"paragraph card-text card-stanza my-5 text-center\">Nothing bad ever happens,<br>unless you are as skittish as me about interacting with people that pay you for the damn things.</div>\n    <div class=\"paragraph card-text card-stanza my-5 text-center\">Take the money, tell them your house is on fire,<br>and run away.</div>\n  </div>\n</div>\n<div class=\"mb-5 section-spacer\">&nbsp;</div>\n<div class=\"card card-section bg-dark text-warning shadow\">\n  <div class=\"section card-body mb-0 my-2\">\n    <div class=\"paragraph card-text card-stanza my-5 text-center\">The rules of the challenge are simple,<br>create five to then posters that are inspired by, or directly quote the text below.</div>\n    <div class=\"paragraph card-text card-stanza my-5 text-center\">It is OK not to come up with your own text,<br>I have put the text below in the public domain.</div>\n    <div class=\"paragraph card-text card-stanza my-5 text-center\">It is all good natured sarcasm,<br>but I don't like any of it.</div>\n    <div class=\"paragraph card-text card-stanza my-5 text-center\">I don't like talking about negative things,<br>even though, obviously this is all reverse psychology.</div>\n  </div>\n</div>\n<div class=\"mb-5 section-spacer\">&nbsp;</div>\n<div class=\"card card-section bg-dark text-warning shadow\">\n  <div class=\"section card-body mb-0 my-2\">\n    <div class=\"paragraph card-text card-stanza my-5 text-center\">The challenge is about creating fake <a href=\"https://www.qwant.com/?client=opensearch&q=Propaganda+Posters&t=images\">Propaganda Posters</a>,<br>that when seen by a person on the street.</div>\n    <div class=\"paragraph card-text card-stanza my-5 text-center\">Or seen hanging in some abandoned office,<br>or nailed to a tree somewhere, or even blown down the street in the wind...</div>\n    <div class=\"paragraph card-text card-stanza my-5 text-center\">Will make the reader, pause,<br>and really take a deep look at what they are saying.</div>\n    <div class=\"paragraph card-text card-stanza my-5 text-center\">The poster,<br>is supposed to make them think.</div>\n  </div>\n</div>\n<div class=\"mb-5 section-spacer\">&nbsp;</div>\n<div class=\"card card-section bg-dark text-warning shadow\">\n  <div class=\"section card-body mb-0 my-2\">\n    <div class=\"paragraph card-text card-stanza my-5 text-center\">If you are looking beyond Guerrilla Art,<br>then have a professional print them out, and then put a layer of glass over it, skip the expensive frames.</div>\n    <div class=\"paragraph card-text card-stanza my-5 text-center\">And if you want to go 3D,<br>buy some used briefcases, luggage, and create sculptures.</div>\n    <div class=\"paragraph card-text card-stanza my-5 text-center\">The theme of the show would be,<br>evil men who left their briefcases behind, or something similar.</div>\n    <div class=\"paragraph card-text card-stanza my-5 text-center\">Be warned, Guerrilla Art and Briefcases Do not mix,<br>you may go to jail or pay an enormous fine.</div>\n    <div class=\"paragraph card-text card-stanza my-5 text-center\">So briefcases are gallery only,<br>and I would set the price at 500 to a 1,000 bucks or your equivalent - it is just cool art.</div>\n    <div class=\"paragraph card-text card-stanza my-5 text-center\">Sometimes people will buy your art to befriend you,<br>that is not how friendships work, so be very careful and as suspicious as I am.</div>\n  </div>\n</div>\n<div class=\"mb-5 section-spacer\">&nbsp;</div>\n<div class=\"card card-section bg-dark text-warning shadow\">\n  <div class=\"section card-body mb-0 my-2\">\n    <div class=\"paragraph card-text card-stanza my-5 text-center\">So let me formally disclaim the ownership of these texts,<br>so that you have no worries about anything.</div>\n    <div class=\"paragraph card-text card-stanza my-5 text-center\">\"Please Note That The Following Text, is released into Public Domain,<br>For those of you looking for a specific license see <a href=\"http://www.wtfpl.net\">WTFPL</a>\"</div>\n  </div>\n</div>\n<div class=\"mb-5 section-spacer\">&nbsp;</div>\n<div class=\"card card-section bg-dark text-warning shadow\">\n  <div class=\"section card-body mb-0 my-2\">\n    <div class=\"paragraph card-text card-stanza my-5 text-center\">Allow me one more note for all the conspiracy lovers,<br>there is no conspiracy to hurt the world.</div>\n    <div class=\"paragraph card-text card-stanza my-5 text-center\">There maybe some fools pretending to take credit,<br>but they are not the reason.</div>\n    <div class=\"paragraph card-text card-stanza my-5 text-center\">The problem with the world today is lack of real and effective education,<br>from that point on the consequences only compound and complexity.</div>\n    <div class=\"paragraph card-text card-stanza my-5 text-center\">All the people that frighten us,<br>are just victims of fake education.</div>\n    <div class=\"paragraph card-text card-stanza my-5 text-center\">Universal income, where we borrow from the improved future of humanity,<br>and grant each human being a serious amount of money is a critical component of real education.</div>\n    <div class=\"paragraph card-text card-stanza my-5 text-center\">In short, a scared, or stressed out, or pressured by poverty person,<br>will not be able to fully develop an urge for respected Peer Reviewed Knowledge, and resulting internal wisdom.</div>\n    <div class=\"paragraph card-text card-stanza my-5 text-center\">It is that wisdom born of stable and clean and dependable knowledge,<br>that will assure control over climate change, collapse of ecosystems, loss of species, mass incarceration, nuclear threats, and so on.</div>\n    <div class=\"paragraph card-text card-stanza my-5 text-center\">We are nothing like some civilization destined to be forgotten,<br>Science and Wisdom will grow more powerful the more trouble we get into.</div>\n    <div class=\"paragraph card-text card-stanza my-5 text-center\">No political force can ever become greater,<br>than a well meaning scientist with all the evidence right behind her.</div>\n    <div class=\"paragraph card-text card-stanza my-5 text-center\">The improved schools will pose an enormous challenge to liars,<br>they will be required to retake tests.</div>\n    <div class=\"paragraph card-text card-stanza my-5 text-center\">The gravity of climate change and repair,<br>is such that the uneducated will be severely limited in their political powers - until they show Wisdom, Scientific Knowledge, and a Fine Grasp On Reality.</div>\n    <div class=\"paragraph card-text card-stanza my-5 text-center\">Don't worry, it is just that today Humanity is just a baby,<br>but this century it is destined to become as wise as a mighty and unstoppable teenager - we'll be OK.</div>\n  </div>\n</div>\n<div class=\"mb-5 section-spacer\">&nbsp;</div>\n<div class=\"card card-section bg-dark text-warning shadow\">\n  <div class=\"section card-body mb-0 my-2\">\n    <div class=\"paragraph card-text card-stanza my-5 text-center\">To imagine the future, imagine it is 1920 right now,<br>and compare the 20's to the 50's, 60's, 70's, 80's, 90's, and so on.</div>\n    <div class=\"paragraph card-text card-stanza my-5 text-center\">Now bring the magnitude of these changes out of 1920 into 2020,<br>and now by subtle analogy look into the 50's, 60's, 70's, 80's, 90's, and so on.</div>\n    <div class=\"paragraph card-text card-stanza my-5 text-center\">It will all work out OK,<br>but the next century will not begin with ineffective education, as they will know where that shit will lead to now.</div>\n  </div>\n</div>\n<div class=\"mb-5 section-spacer\">&nbsp;</div>\n<div class=\"card card-section bg-dark text-warning shadow\">\n  <div class=\"section card-body mb-0 my-2\">\n    <div class=\"paragraph card-text card-stanza my-5 text-center\">Without further adu,<br>here are the taglines for the posters:</div>\n  </div>\n</div>\n<div class=\"mb-5 section-spacer\">&nbsp;</div>\n<div class=\"card card-section bg-dark text-warning shadow\">\n  <div class=\"section card-body mb-0 my-2\">\n    <div class=\"paragraph card-text card-stanza my-5 text-center\">On School And Education</div>\n    <div class=\"paragraph card-text card-stanza my-5 text-center\">Make Them Fear Powerful Books,<br>And Teach Them Textbooks Only.</div>\n    <div class=\"paragraph card-text card-stanza my-5 text-center\">Make Them Work Eight Hours Per Day In High School.</div>\n    <div class=\"paragraph card-text card-stanza my-5 text-center\">If They Complain About Work,<br>Bring Them To Heel To Eviscerate That Quirk.</div>\n    <div class=\"paragraph card-text card-stanza my-5 text-center\">Be Careful, Because Too Much Education,<br>Could End Wage Slavery In Our Nation.</div>\n    <div class=\"paragraph card-text card-stanza my-5 text-center\">To Protect Our Beautiful Nation,<br>Schools Must Ridicule And Speak Out Against Self Education,</div>\n    <div class=\"paragraph card-text card-stanza my-5 text-center\">To Easily Put Food On Your Table,<br>Trick Them All That They Are Unable.</div>\n    <div class=\"paragraph card-text card-stanza my-5 text-center\">Make Sure They Don't Figure Out,<br>That We Sold Them All Out.</div>\n    <div class=\"paragraph card-text card-stanza my-5 text-center\">Show Sass And Kiss Our Ass,<br>Because The Grades We Give You,<br>Can Make Or Break Your Job Interview.</div>\n    <div class=\"paragraph card-text card-stanza my-5 text-center\">Force Students Into Temporary Memorization,<br>To Make Them Better Servants Of This Nation.</div>\n    <div class=\"paragraph card-text card-stanza my-5 text-center\">A Productive Teacher Dumbs Down Tests And Education,<br>And Forces The Students Into Temporary Rote Memorization.</div>\n    <div class=\"paragraph card-text card-stanza my-5 text-center\">Fake Education Protects Our Nation.<br>A Well Educated Worker, Could Start A Revolution.</div>\n    <div class=\"paragraph card-text card-stanza my-5 text-center\">A Student That Retains Knowledge,<br>Must Be Forced Into Impossible Debt In College.</div>\n    <div class=\"paragraph card-text card-stanza my-5 text-center\">Don't Be A Tool,<br>Educated Voters Won't Vote For A Fool.</div>\n    <div class=\"paragraph card-text card-stanza my-5 text-center\">Defund Education,<br>To Prevent Student Agitation.</div>\n    <div class=\"paragraph card-text card-stanza my-5 text-center\">Your Position Is Worth A Ton,<br>Hire A Crook To Elect Your Son.</div>\n    <div class=\"paragraph card-text card-stanza my-5 text-center\">Shitty Textbooks,<br>Will Help Us Reelect Crooks.</div>\n    <div class=\"paragraph card-text card-stanza my-5 text-center\">Keep It At Student Debt Forgiveness,<br>Do Not Let Them Figure Out All Deserve A Refund.</div>\n  </div>\n</div>\n<div class=\"mb-5 section-spacer\">&nbsp;</div>\n<div class=\"card card-section bg-dark text-warning shadow\">\n  <div class=\"section card-body mb-0 my-2\">\n    <div class=\"paragraph card-text card-stanza my-5 text-center\">Money Ideas</div>\n    <div class=\"paragraph card-text card-stanza my-5 text-center\">Even Though Money Is For The Banks,<br>Make The Fools Think That's How They Rise In Ranks.</div>\n    <div class=\"paragraph card-text card-stanza my-5 text-center\">Life Is Money.<br>Earn A Living.</div>\n    <div class=\"paragraph card-text card-stanza my-5 text-center\">Spend All Your Cash,<br>On Useless Trash.</div>\n    <div class=\"paragraph card-text card-stanza my-5 text-center\"><a href=\"https://www.youtube.com/watch?v=dR3MjbD6V1k\">Shorting</a> Student Debt,<br>Is A Sure Fuc**g Bet.</div>\n    <div class=\"paragraph card-text card-stanza my-5 text-center\">Teach Them Universal Income Is Bad,<br>Otherwise They Will Rise Up And Get Mad.</div>\n    <div class=\"paragraph card-text card-stanza my-5 text-center\">Make Sure They Are All Sick, Poor, And Disagreeing,<br>Otherwise It Is A Hundred Bucks For Every Human Being.</div>\n    <div class=\"paragraph card-text card-stanza my-5 text-center\">Keep Them Thinking It Is Just Income Inequality,<br>And Not Universal Income Of The Highest Quality.</div>\n    <div class=\"paragraph card-text card-stanza my-5 text-center\">On Planet Earth,<br>Paycheck Is Your Worth.</div>\n    <div class=\"paragraph card-text card-stanza my-5 text-center\">We Should All Agree,<br>That Overwork Will Set You Free.</div>\n    <div class=\"paragraph card-text card-stanza my-5 text-center\">Keep 'Em Poor,<br>Force Them To Endure.</div>\n  </div>\n</div>\n<div class=\"mb-5 section-spacer\">&nbsp;</div>\n<div class=\"card card-section bg-dark text-warning shadow\">\n  <div class=\"section card-body mb-0 my-2\">\n    <div class=\"paragraph card-text card-stanza my-5 text-center\">Religion</div>\n    <div class=\"paragraph card-text card-stanza my-5 text-center\">Force Them To Worship Men That Invented The Wheel Barrow,<br>And Their Thinking Will Be Simple, Shallow, And Narrow.</div>\n    <div class=\"paragraph card-text card-stanza my-5 text-center\">Teach Them That They Are Less,<br>And That You Are More,<br>And Watch Their Empty Eyes Adore.</div>\n    <div class=\"paragraph card-text card-stanza my-5 text-center\">Tell Them They Are All Born In Sin,<br>And That They Are Lost And Cannot Win.</div>\n    <div class=\"paragraph card-text card-stanza my-5 text-center\">Make Sure Not To Mention What We Got Away With,<br>Convince Them That It Is Just A Myth.</div>\n  </div>\n</div>\n<div class=\"mb-5 section-spacer\">&nbsp;</div>\n<div class=\"card card-section bg-dark text-warning shadow\">\n  <div class=\"section card-body mb-0 my-2\">\n    <div class=\"paragraph card-text card-stanza my-5 text-center\">Military</div>\n    <div class=\"paragraph card-text card-stanza my-5 text-center\">Relax By Drinking Plenty Of Alcohol In Bars,<br>So That Our Generals Can Get More Kindergarten Stars.</div>\n    <div class=\"paragraph card-text card-stanza my-5 text-center\">To Quench Our Nation's Thirst,<br>Military Industrial Complex Must Come First.</div>\n    <div class=\"paragraph card-text card-stanza my-5 text-center\">We Don't Want You To Be Skilled.<br>Just Follow Our Directions And Be Strong Willed.</div>\n    <div class=\"paragraph card-text card-stanza my-5 text-center\">Educated Teenagers Make Bad Soldiers As They Can Actually Think,<br>Therefore, We Must Crush Them Into Smoking S**t And An Alcoholic Drink.</div>\n    <div class=\"paragraph card-text card-stanza my-5 text-center\">Find All The Ones That Are Strong And Tall,<br>And Lie To Them At The Mall.</div>\n  </div>\n</div>\n<div class=\"mb-5 section-spacer\">&nbsp;</div>\n<div class=\"card card-section bg-dark text-warning shadow\">\n  <div class=\"section card-body mb-0 my-2\">\n    <div class=\"paragraph card-text card-stanza my-5 text-center\">Medicine</div>\n    <div class=\"paragraph card-text card-stanza my-5 text-center\">Hospitals Demand That You Become Overweight,<br>And Line Up At The Gate.</div>\n    <div class=\"paragraph card-text card-stanza my-5 text-center\">You Must Smile More Often,<br>Because Depression Is A Form Of Oppression.</div>\n    <div class=\"paragraph card-text card-stanza my-5 text-center\">Don't Be So Brittle<br>Pay For The Hospital,<br>With Your Family Capital.</div>\n  </div>\n</div>\n<div class=\"mb-5 section-spacer\">&nbsp;</div>\n<div class=\"card card-section bg-dark text-warning shadow\">\n  <div class=\"section card-body mb-0 my-2\">\n    <div class=\"paragraph card-text card-stanza my-5 text-center\">Climate</div>\n    <div class=\"paragraph card-text card-stanza my-5 text-center\">Don't Be A Deadbeat,<br>Eat Plenty Of Meat.</div>\n    <div class=\"paragraph card-text card-stanza my-5 text-center\">Stand Proud For Stock Exchange.<br>And Tell Them Not To Change For Climate Change,</div>\n    <div class=\"paragraph card-text card-stanza my-5 text-center\">Make Sure They Never Figure Out,<br>That Destroying Nature Is Something We Are Too Old To Worry About.</div>\n  </div>\n</div>\n<div class=\"mb-5 section-spacer\">&nbsp;</div>\n<div class=\"card card-section bg-dark text-warning shadow\">\n  <div class=\"section card-body mb-0 my-2\">\n    <div class=\"paragraph card-text card-stanza my-5 text-center\">Creativity</div>\n    <div class=\"paragraph card-text card-stanza my-5 text-center\">You Must Give Up Your Creativity,<br>To Increase Your Productivity.</div>\n    <div class=\"paragraph card-text card-stanza my-5 text-center\">Laugh At Their Rhymes,<br>To Trick Them Into Working For Dimes.</div>\n    <div class=\"paragraph card-text card-stanza my-5 text-center\">Thinking With Your Heart,<br>Won't Make You Smart.</div>\n    <div class=\"paragraph card-text card-stanza my-5 text-center\">If You Want To Make A Dope,<br>Teach Them To Merely Hope.</div>\n    <div class=\"paragraph card-text card-stanza my-5 text-center\">Shhh, Don't Tell Them About <a href=\"https://www.youtube.com/watch?v=ZoqgAy3h4OM\">Startups</a>,<br>Make Them Think They Are Only For Grownups.</div>\n  </div>\n</div>\n<div class=\"mb-5 section-spacer\">&nbsp;</div>\n<div class=\"card card-section bg-dark text-warning shadow\">\n  <div class=\"section card-body mb-0 my-2\">\n    <div class=\"paragraph card-text card-stanza my-5 text-center\">And Finally,</div>\n    <div class=\"paragraph card-text card-stanza my-5 text-center\">Revolutionary Posters Are Not Art,<br>We Must Stop Them From Becoming Smart.</div>\n  </div>\n</div>\n<div class=\"mb-5 section-spacer\">&nbsp;</div>\n<div class=\"card card-section bg-dark text-warning shadow\">\n  <div class=\"section card-body mb-0 my-2\">\n    <div class=\"paragraph card-text card-stanza my-5 text-center\">I am very sorry for the serious tone of some of these taglines,<br>but I want you to see that Art is a superpower.</div>\n    <div class=\"paragraph card-text card-stanza my-5 text-center\">I want you to witness, your posters, altering people,<br>inspiring them, helping them rise, snapping them out of their slumber.</div>\n  </div>\n</div>\n<div class=\"mb-5 section-spacer\">&nbsp;</div>\n<div class=\"card card-section bg-dark text-warning shadow\">\n  <div class=\"section card-body mb-0 my-2\">\n    <div class=\"paragraph card-text card-stanza my-5 text-center\">In conclusion, to this imperfect list,<br>art shows are a very precious thing.</div>\n    <div class=\"paragraph card-text card-stanza my-5 text-center\">And they are meant to be protected,<br>never ever, ever, if you can help it, should you ever look back and say - last time I had an art show was 30 years ago.</div>\n    <div class=\"paragraph card-text card-stanza my-5 text-center\">You have to be MINDFUL,<br>that each art show must be followed by the next, and you have to keep that promise.</div>\n    <div class=\"paragraph card-text card-stanza my-5 text-center\">You Art Portfolio, will absolutely become a family heirloom,<br>certainly it will be a website, but perhaps it will be a book sold in stores, or a journal you are attached to as well.</div>\n    <div class=\"paragraph card-text card-stanza my-5 text-center\">In your lifetime, it MUST be a reminder to continue exhibiting new shows and ideas,<br>and beyond it will be a connection to who you were.</div>\n    <div class=\"paragraph card-text card-stanza my-5 text-center\">I write this in the 2020's by the 50's we may see the first cheap version of a global universal income program,<br>aimed at prevention of mass immigration, animal slaughter, destroying the remainder of the amazon forest.</div>\n    <div class=\"paragraph card-text card-stanza my-5 text-center\">And by the 90's we may actually have a prevention program,<br>that is worthy of Humanity, that will be enough for us to take to real education.</div>\n  </div>\n</div>\n<div class=\"mb-5 section-spacer\">&nbsp;</div>\n<div class=\"card card-section bg-dark text-warning shadow\">\n  <div class=\"section card-body mb-0 my-2\">\n    <div class=\"paragraph card-text card-stanza my-5 text-center\">If you make your art hint on School Improvements, And Real Education,<br>Authenticity And Honesty especially in Politics...</div>\n    <div class=\"paragraph card-text card-stanza my-5 text-center\">And about the thing that actually solves Climate Change and Loss Of Species,<br>the Universal Income Card that helps people retain their Dignity and Health,</div>\n    <div class=\"paragraph card-text card-stanza my-5 text-center\">and creates room for their natural yearning<br>of Knowledge and Wisdom...</div>\n    <div class=\"paragraph card-text card-stanza my-5 text-center\">You will be remembered with smiles, and admiration,<br>with appreciation.</div>\n    <div class=\"paragraph card-text card-stanza my-5 text-center\">And a hundred years from now,<br>people will still look back at you, and wish they could talk to you, and be your friend, and be around you.</div>\n    <div class=\"paragraph card-text card-stanza my-5 text-center\">That is what all art is for, no matter what type,<br>art is for creating a bookmark in the History of Human Kind.</div>\n    <div class=\"paragraph card-text card-stanza my-5 text-center\">A bookmark that curious people can turn to,<br>and entertain their curiosities whilst conjuring up your spirit sometimes across centuries.</div>\n    <div class=\"paragraph card-text card-stanza my-5 text-center\">Humanity will be around for a long time,<br>and people will be fascinated with 2000's there will be many-a-meme from the stuff we uploaded.</div>\n    <div class=\"paragraph card-text card-stanza my-5 text-center\">I am certain that Pop Surrealism, propaganda posters included,<br>will become the biggest thing since the Renascence.</div>\n  </div>\n</div>",
  "print": "<div class=\"section avoid-break-inside\" style=\"padding-bottom: 2rem;\">\n  <div class=\"paragraph\">An Art Show is a few days,<br>of where you make your art speak.</div>\n  <div class=\"paragraph\">You can make it yell,<br>you can make it whisper.</div>\n  <div class=\"paragraph\">You can make it relevant,<br>or it can be totally retro.</div>\n  <div class=\"paragraph\">Please, understand,<br>being shy is beautiful.</div>\n  <div class=\"paragraph\">And you will be beautiful,<br>for being shy.</div>\n  <div class=\"paragraph\">There is no such a thing,<br>as a bad art show.</div>\n</div>\n<div class=\"section avoid-break-inside\" style=\"padding-bottom: 2rem;\">\n  <br>\n</div>\n<div class=\"section avoid-break-inside\" style=\"padding-bottom: 2rem;\">\n  <div class=\"paragraph\">I will stress,<br>that everything needs to go into your portfolio.</div>\n  <div class=\"paragraph\">I hate to say it, while this is not completely true, even your elder-self agrees:<br>\"If it is not in your portfolio it didn't happen.\".</div>\n  <div class=\"paragraph\">So take all the pictures,<br>put them in neatly organized directories and back them up into multiple cloud services.</div>\n  <div class=\"paragraph\">Make sure that once your hard drive dies, and it happens every few years,<br>nothing will be lost, other than a few minutes of your time as you replace it.</div>\n</div>\n<div class=\"section avoid-break-inside\" style=\"padding-bottom: 2rem;\">\n  <br>\n</div>\n<div class=\"section avoid-break-inside\" style=\"padding-bottom: 2rem;\">\n  <div class=\"paragraph\"><span>Sunaura Taylor's website<sup>[1]</sup></span>,<br>is a nice example of what your website should contain.</div>\n  <div class=\"paragraph\">But do keep the JavaScript to minimum,<br>and setup https, at the time of writing GitHub Pages seem a OK.</div>\n</div>\n<div class=\"section avoid-break-inside\" style=\"padding-bottom: 2rem;\">\n  <br>\n</div>\n<div class=\"section avoid-break-inside\" style=\"padding-bottom: 2rem;\">\n  <div class=\"paragraph\">My first art-show took 12 hours to setup,<br>and that included painting all the art.</div>\n  <div class=\"paragraph\">I used a projector,<br>canvas paper, couple of canvas, I did not use frames.</div>\n  <div class=\"paragraph\">I just hung everything up at a coffeehouse,<br>and took it down a week or two later.</div>\n  <div class=\"paragraph\">Though I didn't intend to sell anything,<br>I had one sale.</div>\n  <div class=\"paragraph\">It frightened me,<br>because people that pay for my art seem suspicious.</div>\n</div>\n<div class=\"section avoid-break-inside\" style=\"padding-bottom: 2rem;\">\n  <br>\n</div>\n<div class=\"section avoid-break-inside\" style=\"padding-bottom: 2rem;\">\n  <div class=\"paragraph\">I had labels describing the meaning of my art,<br>I wanted to share the meaning.</div>\n  <div class=\"paragraph\">Previously, I invented (or probably independently invented)<br>a new kind of Art Form, I called it Content Art.</div>\n  <div class=\"paragraph\">It means that there is a lot of content in the piece,<br>diagrams, mind maps, poems, and little codes that you can scan to go to websites.</div>\n  <div class=\"paragraph\">Life got busy and I never had a Content Art show,<br>it evolved in a Symbolic Language that I would like to use in an educational setting.</div>\n  <div class=\"paragraph\">Basically students have to create concept maps that help them through a game,<br>that consists of rooms, libraries, worlds - it is a school that teacher for real.</div>\n  <div class=\"paragraph\">Every concept map is a mini game,<br>that unlocks doors and futures.</div>\n  <div class=\"paragraph\">In that way, I guess,<br>I am yet to have that art show.</div>\n</div>\n<div class=\"section avoid-break-inside\" style=\"padding-bottom: 2rem;\">\n  <br>\n</div>\n<div class=\"section avoid-break-inside\" style=\"padding-bottom: 2rem;\">\n  <div class=\"paragraph\">What I have here for you,<br>is also a challenge.</div>\n  <div class=\"paragraph\">I am challenging you top create a series of Minimalist Content Art pieces,<br>for your first extremely outrageous, on topic, and if you want to to be Guerrilla art show.</div>\n  <div class=\"paragraph\">Guerrilla Art shows,<br>is where you exhibit your art by just putting it up in places where it is seen.</div>\n  <div class=\"paragraph\">Sometimes it is taken down,<br>sometimes you put it up again.</div>\n  <div class=\"paragraph\">Sometimes, people take your art home,<br>and it makes them cry.</div>\n  <div class=\"paragraph\">Sometimes they become free,<br>sometimes they just laugh.</div>\n  <div class=\"paragraph\">Nothing bad ever happens,<br>unless you are as skittish as me about interacting with people that pay you for the damn things.</div>\n  <div class=\"paragraph\">Take the money, tell them your house is on fire,<br>and run away.</div>\n</div>\n<div class=\"section avoid-break-inside\" style=\"padding-bottom: 2rem;\">\n  <br>\n</div>\n<div class=\"section avoid-break-inside\" style=\"padding-bottom: 2rem;\">\n  <div class=\"paragraph\">The rules of the challenge are simple,<br>create five to then posters that are inspired by, or directly quote the text below.</div>\n  <div class=\"paragraph\">It is OK not to come up with your own text,<br>I have put the text below in the public domain.</div>\n  <div class=\"paragraph\">It is all good natured sarcasm,<br>but I don't like any of it.</div>\n  <div class=\"paragraph\">I don't like talking about negative things,<br>even though, obviously this is all reverse psychology.</div>\n</div>\n<div class=\"section avoid-break-inside\" style=\"padding-bottom: 2rem;\">\n  <br>\n</div>\n<div class=\"section avoid-break-inside\" style=\"padding-bottom: 2rem;\">\n  <div class=\"paragraph\">The challenge is about creating fake <span>Propaganda Posters<sup>[2]</sup></span>,<br>that when seen by a person on the street.</div>\n  <div class=\"paragraph\">Or seen hanging in some abandoned office,<br>or nailed to a tree somewhere, or even blown down the street in the wind...</div>\n  <div class=\"paragraph\">Will make the reader, pause,<br>and really take a deep look at what they are saying.</div>\n  <div class=\"paragraph\">The poster,<br>is supposed to make them think.</div>\n</div>\n<div class=\"section avoid-break-inside\" style=\"padding-bottom: 2rem;\">\n  <br>\n</div>\n<div class=\"section avoid-break-inside\" style=\"padding-bottom: 2rem;\">\n  <div class=\"paragraph\">If you are looking beyond Guerrilla Art,<br>then have a professional print them out, and then put a layer of glass over it, skip the expensive frames.</div>\n  <div class=\"paragraph\">And if you want to go 3D,<br>buy some used briefcases, luggage, and create sculptures.</div>\n  <div class=\"paragraph\">The theme of the show would be,<br>evil men who left their briefcases behind, or something similar.</div>\n  <div class=\"paragraph\">Be warned, Guerrilla Art and Briefcases Do not mix,<br>you may go to jail or pay an enormous fine.</div>\n  <div class=\"paragraph\">So briefcases are gallery only,<br>and I would set the price at 500 to a 1,000 bucks or your equivalent - it is just cool art.</div>\n  <div class=\"paragraph\">Sometimes people will buy your art to befriend you,<br>that is not how friendships work, so be very careful and as suspicious as I am.</div>\n</div>\n<div class=\"section avoid-break-inside\" style=\"padding-bottom: 2rem;\">\n  <br>\n</div>\n<div class=\"section avoid-break-inside\" style=\"padding-bottom: 2rem;\">\n  <div class=\"paragraph\">So let me formally disclaim the ownership of these texts,<br>so that you have no worries about anything.</div>\n  <div class=\"paragraph\">\"Please Note That The Following Text, is released into Public Domain,<br>For those of you looking for a specific license see <span>WTFPL<sup>[3]</sup></span>\"</div>\n</div>\n<div class=\"section avoid-break-inside\" style=\"padding-bottom: 2rem;\">\n  <br>\n</div>\n<div class=\"section avoid-break-inside\" style=\"padding-bottom: 2rem;\">\n  <div class=\"paragraph\">Allow me one more note for all the conspiracy lovers,<br>there is no conspiracy to hurt the world.</div>\n  <div class=\"paragraph\">There maybe some fools pretending to take credit,<br>but they are not the reason.</div>\n  <div class=\"paragraph\">The problem with the world today is lack of real and effective education,<br>from that point on the consequences only compound and complexity.</div>\n  <div class=\"paragraph\">All the people that frighten us,<br>are just victims of fake education.</div>\n  <div class=\"paragraph\">Universal income, where we borrow from the improved future of humanity,<br>and grant each human being a serious amount of money is a critical component of real education.</div>\n  <div class=\"paragraph\">In short, a scared, or stressed out, or pressured by poverty person,<br>will not be able to fully develop an urge for respected Peer Reviewed Knowledge, and resulting internal wisdom.</div>\n  <div class=\"paragraph\">It is that wisdom born of stable and clean and dependable knowledge,<br>that will assure control over climate change, collapse of ecosystems, loss of species, mass incarceration, nuclear threats, and so on.</div>\n  <div class=\"paragraph\">We are nothing like some civilization destined to be forgotten,<br>Science and Wisdom will grow more powerful the more trouble we get into.</div>\n  <div class=\"paragraph\">No political force can ever become greater,<br>than a well meaning scientist with all the evidence right behind her.</div>\n  <div class=\"paragraph\">The improved schools will pose an enormous challenge to liars,<br>they will be required to retake tests.</div>\n  <div class=\"paragraph\">The gravity of climate change and repair,<br>is such that the uneducated will be severely limited in their political powers - until they show Wisdom, Scientific Knowledge, and a Fine Grasp On Reality.</div>\n  <div class=\"paragraph\">Don't worry, it is just that today Humanity is just a baby,<br>but this century it is destined to become as wise as a mighty and unstoppable teenager - we'll be OK.</div>\n</div>\n<div class=\"section avoid-break-inside\" style=\"padding-bottom: 2rem;\">\n  <br>\n</div>\n<div class=\"section avoid-break-inside\" style=\"padding-bottom: 2rem;\">\n  <div class=\"paragraph\">To imagine the future, imagine it is 1920 right now,<br>and compare the 20's to the 50's, 60's, 70's, 80's, 90's, and so on.</div>\n  <div class=\"paragraph\">Now bring the magnitude of these changes out of 1920 into 2020,<br>and now by subtle analogy look into the 50's, 60's, 70's, 80's, 90's, and so on.</div>\n  <div class=\"paragraph\">It will all work out OK,<br>but the next century will not begin with ineffective education, as they will know where that shit will lead to now.</div>\n</div>\n<div class=\"section avoid-break-inside\" style=\"padding-bottom: 2rem;\">\n  <br>\n</div>\n<div class=\"section avoid-break-inside\" style=\"padding-bottom: 2rem;\">\n  <div class=\"paragraph\">Without further adu,<br>here are the taglines for the posters:</div>\n</div>\n<div class=\"section avoid-break-inside\" style=\"padding-bottom: 2rem;\">\n  <br>\n</div>\n<div class=\"section avoid-break-inside\" style=\"padding-bottom: 2rem;\">\n  <div class=\"paragraph\">On School And Education</div>\n  <div class=\"paragraph\">Make Them Fear Powerful Books,<br>And Teach Them Textbooks Only.</div>\n  <div class=\"paragraph\">Make Them Work Eight Hours Per Day In High School.</div>\n  <div class=\"paragraph\">If They Complain About Work,<br>Bring Them To Heel To Eviscerate That Quirk.</div>\n  <div class=\"paragraph\">Be Careful, Because Too Much Education,<br>Could End Wage Slavery In Our Nation.</div>\n  <div class=\"paragraph\">To Protect Our Beautiful Nation,<br>Schools Must Ridicule And Speak Out Against Self Education,</div>\n  <div class=\"paragraph\">To Easily Put Food On Your Table,<br>Trick Them All That They Are Unable.</div>\n  <div class=\"paragraph\">Make Sure They Don't Figure Out,<br>That We Sold Them All Out.</div>\n  <div class=\"paragraph\">Show Sass And Kiss Our Ass,<br>Because The Grades We Give You,<br>Can Make Or Break Your Job Interview.</div>\n  <div class=\"paragraph\">Force Students Into Temporary Memorization,<br>To Make Them Better Servants Of This Nation.</div>\n  <div class=\"paragraph\">A Productive Teacher Dumbs Down Tests And Education,<br>And Forces The Students Into Temporary Rote Memorization.</div>\n  <div class=\"paragraph\">Fake Education Protects Our Nation.<br>A Well Educated Worker, Could Start A Revolution.</div>\n  <div class=\"paragraph\">A Student That Retains Knowledge,<br>Must Be Forced Into Impossible Debt In College.</div>\n  <div class=\"paragraph\">Don't Be A Tool,<br>Educated Voters Won't Vote For A Fool.</div>\n  <div class=\"paragraph\">Defund Education,<br>To Prevent Student Agitation.</div>\n  <div class=\"paragraph\">Your Position Is Worth A Ton,<br>Hire A Crook To Elect Your Son.</div>\n  <div class=\"paragraph\">Shitty Textbooks,<br>Will Help Us Reelect Crooks.</div>\n  <div class=\"paragraph\">Keep It At Student Debt Forgiveness,<br>Do Not Let Them Figure Out All Deserve A Refund.</div>\n</div>\n<div class=\"section avoid-break-inside\" style=\"padding-bottom: 2rem;\">\n  <br>\n</div>\n<div class=\"section avoid-break-inside\" style=\"padding-bottom: 2rem;\">\n  <div class=\"paragraph\">Money Ideas</div>\n  <div class=\"paragraph\">Even Though Money Is For The Banks,<br>Make The Fools Think That's How They Rise In Ranks.</div>\n  <div class=\"paragraph\">Life Is Money.<br>Earn A Living.</div>\n  <div class=\"paragraph\">Spend All Your Cash,<br>On Useless Trash.</div>\n  <div class=\"paragraph\"><span>Shorting<sup>[4]</sup></span> Student Debt,<br>Is A Sure Fuc**g Bet.</div>\n  <div class=\"paragraph\">Teach Them Universal Income Is Bad,<br>Otherwise They Will Rise Up And Get Mad.</div>\n  <div class=\"paragraph\">Make Sure They Are All Sick, Poor, And Disagreeing,<br>Otherwise It Is A Hundred Bucks For Every Human Being.</div>\n  <div class=\"paragraph\">Keep Them Thinking It Is Just Income Inequality,<br>And Not Universal Income Of The Highest Quality.</div>\n  <div class=\"paragraph\">On Planet Earth,<br>Paycheck Is Your Worth.</div>\n  <div class=\"paragraph\">We Should All Agree,<br>That Overwork Will Set You Free.</div>\n  <div class=\"paragraph\">Keep 'Em Poor,<br>Force Them To Endure.</div>\n</div>\n<div class=\"section avoid-break-inside\" style=\"padding-bottom: 2rem;\">\n  <br>\n</div>\n<div class=\"section avoid-break-inside\" style=\"padding-bottom: 2rem;\">\n  <div class=\"paragraph\">Religion</div>\n  <div class=\"paragraph\">Force Them To Worship Men That Invented The Wheel Barrow,<br>And Their Thinking Will Be Simple, Shallow, And Narrow.</div>\n  <div class=\"paragraph\">Teach Them That They Are Less,<br>And That You Are More,<br>And Watch Their Empty Eyes Adore.</div>\n  <div class=\"paragraph\">Tell Them They Are All Born In Sin,<br>And That They Are Lost And Cannot Win.</div>\n  <div class=\"paragraph\">Make Sure Not To Mention What We Got Away With,<br>Convince Them That It Is Just A Myth.</div>\n</div>\n<div class=\"section avoid-break-inside\" style=\"padding-bottom: 2rem;\">\n  <br>\n</div>\n<div class=\"section avoid-break-inside\" style=\"padding-bottom: 2rem;\">\n  <div class=\"paragraph\">Military</div>\n  <div class=\"paragraph\">Relax By Drinking Plenty Of Alcohol In Bars,<br>So That Our Generals Can Get More Kindergarten Stars.</div>\n  <div class=\"paragraph\">To Quench Our Nation's Thirst,<br>Military Industrial Complex Must Come First.</div>\n  <div class=\"paragraph\">We Don't Want You To Be Skilled.<br>Just Follow Our Directions And Be Strong Willed.</div>\n  <div class=\"paragraph\">Educated Teenagers Make Bad Soldiers As They Can Actually Think,<br>Therefore, We Must Crush Them Into Smoking S**t And An Alcoholic Drink.</div>\n  <div class=\"paragraph\">Find All The Ones That Are Strong And Tall,<br>And Lie To Them At The Mall.</div>\n</div>\n<div class=\"section avoid-break-inside\" style=\"padding-bottom: 2rem;\">\n  <br>\n</div>\n<div class=\"section avoid-break-inside\" style=\"padding-bottom: 2rem;\">\n  <div class=\"paragraph\">Medicine</div>\n  <div class=\"paragraph\">Hospitals Demand That You Become Overweight,<br>And Line Up At The Gate.</div>\n  <div class=\"paragraph\">You Must Smile More Often,<br>Because Depression Is A Form Of Oppression.</div>\n  <div class=\"paragraph\">Don't Be So Brittle<br>Pay For The Hospital,<br>With Your Family Capital.</div>\n</div>\n<div class=\"section avoid-break-inside\" style=\"padding-bottom: 2rem;\">\n  <br>\n</div>\n<div class=\"section avoid-break-inside\" style=\"padding-bottom: 2rem;\">\n  <div class=\"paragraph\">Climate</div>\n  <div class=\"paragraph\">Don't Be A Deadbeat,<br>Eat Plenty Of Meat.</div>\n  <div class=\"paragraph\">Stand Proud For Stock Exchange.<br>And Tell Them Not To Change For Climate Change,</div>\n  <div class=\"paragraph\">Make Sure They Never Figure Out,<br>That Destroying Nature Is Something We Are Too Old To Worry About.</div>\n</div>\n<div class=\"section avoid-break-inside\" style=\"padding-bottom: 2rem;\">\n  <br>\n</div>\n<div class=\"section avoid-break-inside\" style=\"padding-bottom: 2rem;\">\n  <div class=\"paragraph\">Creativity</div>\n  <div class=\"paragraph\">You Must Give Up Your Creativity,<br>To Increase Your Productivity.</div>\n  <div class=\"paragraph\">Laugh At Their Rhymes,<br>To Trick Them Into Working For Dimes.</div>\n  <div class=\"paragraph\">Thinking With Your Heart,<br>Won't Make You Smart.</div>\n  <div class=\"paragraph\">If You Want To Make A Dope,<br>Teach Them To Merely Hope.</div>\n  <div class=\"paragraph\">Shhh, Don't Tell Them About <span>Startups<sup>[5]</sup></span>,<br>Make Them Think They Are Only For Grownups.</div>\n</div>\n<div class=\"section avoid-break-inside\" style=\"padding-bottom: 2rem;\">\n  <br>\n</div>\n<div class=\"section avoid-break-inside\" style=\"padding-bottom: 2rem;\">\n  <div class=\"paragraph\">And Finally,</div>\n  <div class=\"paragraph\">Revolutionary Posters Are Not Art,<br>We Must Stop Them From Becoming Smart.</div>\n</div>\n<div class=\"section avoid-break-inside\" style=\"padding-bottom: 2rem;\">\n  <br>\n</div>\n<div class=\"section avoid-break-inside\" style=\"padding-bottom: 2rem;\">\n  <div class=\"paragraph\">I am very sorry for the serious tone of some of these taglines,<br>but I want you to see that Art is a superpower.</div>\n  <div class=\"paragraph\">I want you to witness, your posters, altering people,<br>inspiring them, helping them rise, snapping them out of their slumber.</div>\n</div>\n<div class=\"section avoid-break-inside\" style=\"padding-bottom: 2rem;\">\n  <br>\n</div>\n<div class=\"section avoid-break-inside\" style=\"padding-bottom: 2rem;\">\n  <div class=\"paragraph\">In conclusion, to this imperfect list,<br>art shows are a very precious thing.</div>\n  <div class=\"paragraph\">And they are meant to be protected,<br>never ever, ever, if you can help it, should you ever look back and say - last time I had an art show was 30 years ago.</div>\n  <div class=\"paragraph\">You have to be MINDFUL,<br>that each art show must be followed by the next, and you have to keep that promise.</div>\n  <div class=\"paragraph\">You Art Portfolio, will absolutely become a family heirloom,<br>certainly it will be a website, but perhaps it will be a book sold in stores, or a journal you are attached to as well.</div>\n  <div class=\"paragraph\">In your lifetime, it MUST be a reminder to continue exhibiting new shows and ideas,<br>and beyond it will be a connection to who you were.</div>\n  <div class=\"paragraph\">I write this in the 2020's by the 50's we may see the first cheap version of a global universal income program,<br>aimed at prevention of mass immigration, animal slaughter, destroying the remainder of the amazon forest.</div>\n  <div class=\"paragraph\">And by the 90's we may actually have a prevention program,<br>that is worthy of Humanity, that will be enough for us to take to real education.</div>\n</div>\n<div class=\"section avoid-break-inside\" style=\"padding-bottom: 2rem;\">\n  <br>\n</div>\n<div class=\"section avoid-break-inside\" style=\"padding-bottom: 2rem;\">\n  <div class=\"paragraph\">If you make your art hint on School Improvements, And Real Education,<br>Authenticity And Honesty especially in Politics...</div>\n  <div class=\"paragraph\">And about the thing that actually solves Climate Change and Loss Of Species,<br>the Universal Income Card that helps people retain their Dignity and Health,</div>\n  <div class=\"paragraph\">and creates room for their natural yearning<br>of Knowledge and Wisdom...</div>\n  <div class=\"paragraph\">You will be remembered with smiles, and admiration,<br>with appreciation.</div>\n  <div class=\"paragraph\">And a hundred years from now,<br>people will still look back at you, and wish they could talk to you, and be your friend, and be around you.</div>\n  <div class=\"paragraph\">That is what all art is for, no matter what type,<br>art is for creating a bookmark in the History of Human Kind.</div>\n  <div class=\"paragraph\">A bookmark that curious people can turn to,<br>and entertain their curiosities whilst conjuring up your spirit sometimes across centuries.</div>\n  <div class=\"paragraph\">Humanity will be around for a long time,<br>and people will be fascinated with 2000's there will be many-a-meme from the stuff we uploaded.</div>\n  <div class=\"paragraph\">I am certain that Pop Surrealism, propaganda posters included,<br>will become the biggest thing since the Renascence.</div>\n</div>\n<div class=\"break-after\">&nbsp;</div>\n<div>\n  <div class=\"section\" style=\"padding-bottom: 1rem;\">References</div>\n  <div>[1]: http://www.sunaurataylor.com</div>\n  <div>[2]: https://www.qwant.com/?client=opensearch&q=Propaganda+Posters&t=images</div>\n  <div>[3]: http://www.wtfpl.net</div>\n  <div>[4]: https://www.youtube.com/watch?v=dR3MjbD6V1k</div>\n  <div>[5]: https://www.youtube.com/watch?v=ZoqgAy3h4OM</div>\n</div>",
  "text": "An Art Show is a few days,\nof where you make your art speak.\nYou can make it yell,\nyou can make it whisper.\nYou can make it relevant,\nor it can be totally retro.\nPlease, understand,\nbeing shy is beautiful.\nAnd you will be beautiful,\nfor being shy.\nThere is no such a thing,\nas a bad art show.\n\nI will stress,\nthat everything needs to go into your portfolio.\nI hate to say it, while this is not completely true, even your elder-self agrees:\n\"If it is not in your portfolio it didn't happen.\".\nSo take all the pictures,\nput them in neatly organized directories and back them up into multiple cloud services.\nMake sure that once your hard drive dies, and it happens every few years,\nnothing will be lost, other than a few minutes of your time as you replace it.\n\nSunaura Taylor's website[1],\nis a nice example of what your website should contain.\nBut do keep the JavaScript to minimum,\nand setup https, at the time of writing GitHub Pages seem a OK.\n\nMy first art-show took 12 hours to setup,\nand that included painting all the art.\nI used a projector,\ncanvas paper, couple of canvas, I did not use frames.\nI just hung everything up at a coffeehouse,\nand took it down a week or two later.\nThough I didn't intend to sell anything,\nI had one sale.\nIt frightened me,\nbecause people that pay for my art seem suspicious.\n\nI had labels describing the meaning of my art,\nI wanted to share the meaning.\nPreviously, I invented (or probably independently invented)\na new kind of Art Form, I called it Content Art.\nIt means that there is a lot of content in the piece,\ndiagrams, mind maps, poems, and little codes that you can scan to go to websites.\nLife got busy and I never had a Content Art show,\nit evolved in a Symbolic Language that I would like to use in an educational setting.\nBasically students have to create concept maps that help them through a game,\nthat consists of rooms, libraries, worlds - it is a school that teacher for real.\nEvery concept map is a mini game,\nthat unlocks doors and futures.\nIn that way, I guess,\nI am yet to have that art show.\n\nWhat I have here for you,\nis also a challenge.\nI am challenging you top create a series of Minimalist Content Art pieces,\nfor your first extremely outrageous, on topic, and if you want to to be Guerrilla art show.\nGuerrilla Art shows,\nis where you exhibit your art by just putting it up in places where it is seen.\nSometimes it is taken down,\nsometimes you put it up again.\nSometimes, people take your art home,\nand it makes them cry.\nSometimes they become free,\nsometimes they just laugh.\nNothing bad ever happens,\nunless you are as skittish as me about interacting with people that pay you for the damn things.\nTake the money, tell them your house is on fire,\nand run away.\n\nThe rules of the challenge are simple,\ncreate five to then posters that are inspired by, or directly quote the text below.\nIt is OK not to come up with your own text,\nI have put the text below in the public domain.\nIt is all good natured sarcasm,\nbut I don't like any of it.\nI don't like talking about negative things,\neven though, obviously this is all reverse psychology.\n\nThe challenge is about creating fake Propaganda Posters[2],\nthat when seen by a person on the street.\nOr seen hanging in some abandoned office,\nor nailed to a tree somewhere, or even blown down the street in the wind...\nWill make the reader, pause,\nand really take a deep look at what they are saying.\nThe poster,\nis supposed to make them think.\n\nIf you are looking beyond Guerrilla Art,\nthen have a professional print them out, and then put a layer of glass over it, skip the expensive frames.\nAnd if you want to go 3D,\nbuy some used briefcases, luggage, and create sculptures.\nThe theme of the show would be,\nevil men who left their briefcases behind, or something similar.\nBe warned, Guerrilla Art and Briefcases Do not mix,\nyou may go to jail or pay an enormous fine.\nSo briefcases are gallery only,\nand I would set the price at 500 to a 1,000 bucks or your equivalent - it is just cool art.\nSometimes people will buy your art to befriend you,\nthat is not how friendships work, so be very careful and as suspicious as I am.\n\nSo let me formally disclaim the ownership of these texts,\nso that you have no worries about anything.\n\"Please Note That The Following Text, is released into Public Domain,\nFor those of you looking for a specific license see WTFPL[3]\"\n\nAllow me one more note for all the conspiracy lovers,\nthere is no conspiracy to hurt the world.\nThere maybe some fools pretending to take credit,\nbut they are not the reason.\nThe problem with the world today is lack of real and effective education,\nfrom that point on the consequences only compound and complexity.\nAll the people that frighten us,\nare just victims of fake education.\nUniversal income, where we borrow from the improved future of humanity,\nand grant each human being a serious amount of money is a critical component of real education.\nIn short, a scared, or stressed out, or pressured by poverty person,\nwill not be able to fully develop an urge for respected Peer Reviewed Knowledge, and resulting internal wisdom.\nIt is that wisdom born of stable and clean and dependable knowledge,\nthat will assure control over climate change, collapse of ecosystems, loss of species, mass incarceration, nuclear threats, and so on.\nWe are nothing like some civilization destined to be forgotten,\nScience and Wisdom will grow more powerful the more trouble we get into.\nNo political force can ever become greater,\nthan a well meaning scientist with all the evidence right behind her.\nThe improved schools will pose an enormous challenge to liars,\nthey will be required to retake tests.\nThe gravity of climate change and repair,\nis such that the uneducated will be severely limited in their political powers - until they show Wisdom, Scientific Knowledge, and a Fine Grasp On Reality.\nDon't worry, it is just that today Humanity is just a baby,\nbut this century it is destined to become as wise as a mighty and unstoppable teenager - we'll be OK.\n\nTo imagine the future, imagine it is 1920 right now,\nand compare the 20's to the 50's, 60's, 70's, 80's, 90's, and so on.\nNow bring the magnitude of these changes out of 1920 into 2020,\nand now by subtle analogy look into the 50's, 60's, 70's, 80's, 90's, and so on.\nIt will all work out OK,\nbut the next century will not begin with ineffective education, as they will know where that shit will lead to now.\n\nWithout further adu,\nhere are the taglines for the posters:\n\nOn School And Education\nMake Them Fear Powerful Books,\nAnd Teach Them Textbooks Only.\nMake Them Work Eight Hours Per Day In High School.\nIf They Complain About Work,\nBring Them To Heel To Eviscerate That Quirk.\nBe Careful, Because Too Much Education,\nCould End Wage Slavery In Our Nation.\nTo Protect Our Beautiful Nation,\nSchools Must Ridicule And Speak Out Against Self Education,\nTo Easily Put Food On Your Table,\nTrick Them All That They Are Unable.\nMake Sure They Don't Figure Out,\nThat We Sold Them All Out.\nShow Sass And Kiss Our Ass,\nBecause The Grades We Give You,\nCan Make Or Break Your Job Interview.\nForce Students Into Temporary Memorization,\nTo Make Them Better Servants Of This Nation.\nA Productive Teacher Dumbs Down Tests And Education,\nAnd Forces The Students Into Temporary Rote Memorization.\nFake Education Protects Our Nation.\nA Well Educated Worker, Could Start A Revolution.\nA Student That Retains Knowledge,\nMust Be Forced Into Impossible Debt In College.\nDon't Be A Tool,\nEducated Voters Won't Vote For A Fool.\nDefund Education,\nTo Prevent Student Agitation.\nYour Position Is Worth A Ton,\nHire A Crook To Elect Your Son.\nShitty Textbooks,\nWill Help Us Reelect Crooks.\nKeep It At Student Debt Forgiveness,\nDo Not Let Them Figure Out All Deserve A Refund.\n\nMoney Ideas\nEven Though Money Is For The Banks,\nMake The Fools Think That's How They Rise In Ranks.\nLife Is Money.\nEarn A Living.\nSpend All Your Cash,\nOn Useless Trash.\nShorting[4] Student Debt,\nIs A Sure Fuc**g Bet.\nTeach Them Universal Income Is Bad,\nOtherwise They Will Rise Up And Get Mad.\nMake Sure They Are All Sick, Poor, And Disagreeing,\nOtherwise It Is A Hundred Bucks For Every Human Being.\nKeep Them Thinking It Is Just Income Inequality,\nAnd Not Universal Income Of The Highest Quality.\nOn Planet Earth,\nPaycheck Is Your Worth.\nWe Should All Agree,\nThat Overwork Will Set You Free.\nKeep 'Em Poor,\nForce Them To Endure.\n\nReligion\nForce Them To Worship Men That Invented The Wheel Barrow,\nAnd Their Thinking Will Be Simple, Shallow, And Narrow.\nTeach Them That They Are Less,\nAnd That You Are More,\nAnd Watch Their Empty Eyes Adore.\nTell Them They Are All Born In Sin,\nAnd That They Are Lost And Cannot Win.\nMake Sure Not To Mention What We Got Away With,\nConvince Them That It Is Just A Myth.\n\nMilitary\nRelax By Drinking Plenty Of Alcohol In Bars,\nSo That Our Generals Can Get More Kindergarten Stars.\nTo Quench Our Nation's Thirst,\nMilitary Industrial Complex Must Come First.\nWe Don't Want You To Be Skilled.\nJust Follow Our Directions And Be Strong Willed.\nEducated Teenagers Make Bad Soldiers As They Can Actually Think,\nTherefore, We Must Crush Them Into Smoking S**t And An Alcoholic Drink.\nFind All The Ones That Are Strong And Tall,\nAnd Lie To Them At The Mall.\n\nMedicine\nHospitals Demand That You Become Overweight,\nAnd Line Up At The Gate.\nYou Must Smile More Often,\nBecause Depression Is A Form Of Oppression.\nDon't Be So Brittle\nPay For The Hospital,\nWith Your Family Capital.\n\nClimate\nDon't Be A Deadbeat,\nEat Plenty Of Meat.\nStand Proud For Stock Exchange.\nAnd Tell Them Not To Change For Climate Change,\nMake Sure They Never Figure Out,\nThat Destroying Nature Is Something We Are Too Old To Worry About.\n\nCreativity\nYou Must Give Up Your Creativity,\nTo Increase Your Productivity.\nLaugh At Their Rhymes,\nTo Trick Them Into Working For Dimes.\nThinking With Your Heart,\nWon't Make You Smart.\nIf You Want To Make A Dope,\nTeach Them To Merely Hope.\nShhh, Don't Tell Them About Startups[5],\nMake Them Think They Are Only For Grownups.\n\nAnd Finally,\nRevolutionary Posters Are Not Art,\nWe Must Stop Them From Becoming Smart.\n\nI am very sorry for the serious tone of some of these taglines,\nbut I want you to see that Art is a superpower.\nI want you to witness, your posters, altering people,\ninspiring them, helping them rise, snapping them out of their slumber.\n\nIn conclusion, to this imperfect list,\nart shows are a very precious thing.\nAnd they are meant to be protected,\nnever ever, ever, if you can help it, should you ever look back and say - last time I had an art show was 30 years ago.\nYou have to be MINDFUL,\nthat each art show must be followed by the next, and you have to keep that promise.\nYou Art Portfolio, will absolutely become a family heirloom,\ncertainly it will be a website, but perhaps it will be a book sold in stores, or a journal you are attached to as well.\nIn your lifetime, it MUST be a reminder to continue exhibiting new shows and ideas,\nand beyond it will be a connection to who you were.\nI write this in the 2020's by the 50's we may see the first cheap version of a global universal income program,\naimed at prevention of mass immigration, animal slaughter, destroying the remainder of the amazon forest.\nAnd by the 90's we may actually have a prevention program,\nthat is worthy of Humanity, that will be enough for us to take to real education.\n\nIf you make your art hint on School Improvements, And Real Education,\nAuthenticity And Honesty especially in Politics...\nAnd about the thing that actually solves Climate Change and Loss Of Species,\nthe Universal Income Card that helps people retain their Dignity and Health,\nand creates room for their natural yearning\nof Knowledge and Wisdom...\nYou will be remembered with smiles, and admiration,\nwith appreciation.\nAnd a hundred years from now,\npeople will still look back at you, and wish they could talk to you, and be your friend, and be around you.\nThat is what all art is for, no matter what type,\nart is for creating a bookmark in the History of Human Kind.\nA bookmark that curious people can turn to,\nand entertain their curiosities whilst conjuring up your spirit sometimes across centuries.\nHumanity will be around for a long time,\nand people will be fascinated with 2000's there will be many-a-meme from the stuff we uploaded.\nI am certain that Pop Surrealism, propaganda posters included,\nwill become the biggest thing since the Renascence.\n \nReferences\n[1]: http://www.sunaurataylor.com\n[2]: https://www.qwant.com/?client=opensearch&q=Propaganda+Posters&t=images\n[3]: http://www.wtfpl.net\n[4]: https://www.youtube.com/watch?v=dR3MjbD6V1k\n[5]: https://www.youtube.com/watch?v=ZoqgAy3h4OM",
  "images": [],
  "links": [
    {
      "title": "Sunaura Taylor's website",
      "url": "http://www.sunaurataylor.com",
      "hostname": "www.sunaurataylor.com"
    },
    {
      "title": "Propaganda Posters",
      "url": "https://www.qwant.com/?client=opensearch&q=Propaganda+Posters&t=images",
      "hostname": "www.qwant.com"
    },
    {
      "title": "WTFPL",
      "url": "http://www.wtfpl.net",
      "hostname": "www.wtfpl.net"
    },
    {
      "title": "Shorting",
      "url": "https://www.youtube.com/watch?v=dR3MjbD6V1k",
      "hostname": "www.youtube.com"
    },
    {
      "title": "Startups",
      "url": "https://www.youtube.com/watch?v=ZoqgAy3h4OM",
      "hostname": "www.youtube.com"
    }
  ]
}