{
  "id": "furkies-purrkies-poetry-0517",
  "title": "Instant Artist: Learn Art Right Now",
  "date": "2021-07-31T02:07:18.837Z",
  "image": "poetry-0517-illustration.jpg",
  "artwork": "https://unsplash.com/photos/mmYyzczxvdo",
  "audio": "poetry-0517.mp3",
  "guid": "ed18771c-d1a6-4d90-91b9-8ec14a25e0bc"
}
