{
  "title": "Let Us All Become Poets Then",
  "date": "2020-11-13T01:02:32.700Z",
  "image": "poetry-0257-illustration.jpg",
  "audio": "poetry-0257.mp3",
  "artwork": "https://unsplash.com/photos/HYcXUU-mLwE",
  "id": "furkies-purrkies-poetry-0257",
  "attachments": {},
  "guid": "1a494472-d80d-4f1a-b965-4e6a2c097352"
}
