{
  "name": "furkies-purrkies-poetry-0313",
  "title": "Self Education",
  "date": "2021-01-08T03:24:57.088Z",
  "image": "poetry-0313-illustration.jpg",
  "audio": "poetry-0313.mp3",
  "artwork": "https://unsplash.com/photos/F8sCVSW4t4E",
  "id": "furkies-purrkies-poetry-0313",
  "attachments": {},
  "guid": "0d821759-5bf0-42ef-b223-e5fcdb3fda6a",
  "html": "<div class=\"section\">\n  <p>No matter how many times a teacher punishes you with bad grades,</p>\n  <p>you are most likely to assume you are not smart.</p>\n</div>\n\n<div class=\"section\">\n  <p>The truth is that the teacher is a fraud,</p>\n  <p>they are only preparing you to put on a show.</p>\n</div>\n\n<div class=\"section\">\n  <hr>\n</div>\n\n<div class=\"section\">\n  <p>The idea of subject divisions, pre-set time periods, and sitting in rows,</p>\n  <p>is a horrible insult to you, there is no way to apologize for something like this.</p>\n</div>\n\n<div class=\"section\">\n  <p>Personally, I suspect that organizations cannot help but to enter a run-away state,</p>\n  <p>where all the participants brainlessly, heartlessly, and unwisely copy things in their incompetence.</p>\n</div>\n\n<div class=\"section\">\n  <p>It appears that middle school and high school,</p>\n  <p>are basically copies of elementary.</p>\n</div>\n\n<div class=\"section\">\n  <hr>\n</div>\n\n<div class=\"section\">\n  <p>Elementary does work,</p>\n  <p>because it is very useful to memorize letters and numbers and words.</p>\n</div>\n\n<div class=\"section\">\n  <p>But everything that comes after elementary is just elementary with extras,</p>\n  <p>which cannot work.</p>\n</div>\n\n<div class=\"section\">\n  <p>The expansion to include more subjects, and subject divisions,</p>\n  <p>and introduce abstract ideas is devastating and can only force students to memorize.</p>\n</div>\n\n<div class=\"section\">\n  <p>Formulas and abstract ideas are not mean to be memorized,</p>\n  <p>they are meant to be disassembled, rebuilt.</p>\n</div>\n\n<div class=\"section\">\n  <p>What is gained from this is meant to be used by subtle analogy</p>\n  <p>to construct and re-construct new things.</p>\n</div>\n\n<div class=\"section\">\n  <p>To memorize a formula,</p>\n  <p>is to throw it away.</p>\n</div>\n\n<div class=\"section\">\n  <hr>\n</div>\n\n<div class=\"section\">\n  <p>In order for a school to try to function in some way,</p>\n  <p>the dangerous standardized memorization and standardized testing, has emerged.</p>\n</div>\n\n<div class=\"section\">\n  <p>You see the simplicity and desperation of it,</p>\n  <p>of course.</p>\n</div>\n\n<div class=\"section\">\n  <p>Get everyone to temporarily recall the same thing,</p>\n  <p>and use the same test for evaluation.</p>\n</div>\n\n<div class=\"section\">\n  <p>Tests that rely on previous knowledge,</p>\n  <p>are simply re-memorized.</p>\n</div>\n\n<div class=\"section\">\n  <p>A refresher course is not something that refreshes your memory,</p>\n  <p>it is just an introduction to what is basically memorization for a new test.</p>\n</div>\n\n<div class=\"section\">\n  <hr>\n</div>\n\n<div class=\"section\">\n  <p>Modern education is very much like a dangerous theatrical play,</p>\n  <p>everyone memorizes their part, puts on a show, and moves on to the next gig without learning anything.</p>\n</div>\n\n<div class=\"section\">\n  <hr>\n</div>\n\n<div class=\"section\">\n  <p>Because nobody is learning for real,</p>\n  <p>and nobody is fully inheriting the wisdom gained in previous generations.</p>\n</div>\n\n<div class=\"section\">\n  <p>People assemble in desperate self reinforcing cults,</p>\n  <p>that can only repeat history&apos;s mistakes.</p>\n</div>\n\n<div class=\"section\">\n  <p>Because of lack of wisdom,</p>\n  <p>people are misleading themselves.</p>\n</div>\n\n<div class=\"section\">\n  <p>And their chosen communities,</p>\n  <p>can only further reinforce their mistaken beliefs.</p>\n</div>\n\n<div class=\"section\">\n  <hr>\n</div>\n\n<div class=\"section\">\n  <p>This is an old tragedy,</p>\n  <p>prevention of this curse of blindness is a large part of the reason why mandatory schooling was invented.</p>\n</div>\n\n<div class=\"section\">\n  <p>To prevent blindness, to prevent repetition of mistakes,</p>\n  <p>to encourage, to inspire, to enable students with tools with which they can invent new things.</p>\n</div>\n\n<div class=\"section\">\n  <p>But in blindness that is affecting multiple generations,</p>\n  <p>it is cheaper, and easier to put on a sick show and sell the students out for small paycheck.</p>\n</div>\n\n<div class=\"section\">\n  <hr>\n</div>\n\n<div class=\"section\">\n  <p>Can large institutions on whom countless many people rely on for a desperate paycheck,</p>\n  <p>server both the teachers and the students?</p>\n</div>\n\n<div class=\"section\">\n  <p>No, not really, not without Universal basic Income,</p>\n  <p>not without generations of life long personalized (not standardized) education.</p>\n</div>\n\n<div class=\"section\">\n  <p>Schools will eventually work,</p>\n  <p>but it will take us a very long time to make this happen - a very long time.</p>\n</div>\n\n<div class=\"section\">\n  <p>Even a university education is more about the diploma than the actual knowledge,</p>\n  <p>it is not how knowledgeable a person is, it is the name of the university on the diploma that matters.</p>\n</div>\n\n<div class=\"section\">\n  <hr>\n</div>\n\n<div class=\"section\">\n  <p>It is important for me to share these ideas with you,</p>\n  <p>precisely because so many of us have been tricked into thinking we are not smart.</p>\n</div>\n\n<div class=\"section\">\n  <p>Too many got crushed by the gears of the runaway machinery that sells a fantasy of education,</p>\n  <p>and sends a teacher back home with a paycheck, that they didn&apos;t deserve.</p>\n</div>\n\n<div class=\"section\">\n  <hr>\n</div>\n\n<div class=\"section\">\n  <p>You are just as smart as everyone else,</p>\n  <p>including the confusing university graduates that fill blackboards with strange mathematical notations.</p>\n</div>\n\n<div class=\"section\">\n  <p>The reason why they are able to manipulate mathematical notation,</p>\n  <p>is that they taught themselves <a href=\"https://github.com/Jam3/math-as-code\">what it actually does</a>.</p>\n</div>\n\n<div class=\"section\">\n  <p>Search the internet for <a href=\"https://github.com/Jam3/math-as-code\">Math As Code</a> to see that notation expressed in a more modern approachable way,</p>\n  <p>math nerds just took the time to take formulas apart and gained the ability to reassemble them from scratch.</p>\n</div>\n\n<div class=\"section\">\n  <p>This doers not mean that they are smarter than you,</p>\n  <p>but they have a larger collection of tools and visualizations.</p>\n</div>\n\n<div class=\"section\">\n  <p>They don&apos;t quite memorize things,</p>\n  <p>they retain them the way you retained how to use your cell phone, or start your car remotely, or how to replace the toner in your printer.</p>\n</div>\n\n<div class=\"section\">\n  <p>They don&apos;t force them selves to repeat over and over, countlesly repeating the same task,</p>\n  <p>they just find it useful, even exiting, they see it as something that they will later rely on in real life, they see it as a need, and a strength.</p>\n</div>\n\n<div class=\"section\">\n  <hr>\n</div>\n\n<div class=\"section\">\n  <p>We are each very unique, and one person may see themselves in an observatory at night,</p>\n  <p>scribbling extremely exciting back-of-the-envelope calculations, and maybe circuits to modernize some hardware.</p>\n</div>\n\n<div class=\"section\">\n  <p>There is something in their life that led them to the stars,</p>\n  <p>a book, a parent, a movie, or maybe even a school trip.</p>\n</div>\n\n<div class=\"section\">\n  <p>If you don&apos;t have that and the experiences leading up to it,</p>\n  <p>stars won&apos;t interest you, the observatory will not call to your heart, and you will not be interested in understanding mathematics.</p>\n</div>\n\n<div class=\"section\">\n  <p>But without a doubt, there are experiences in you that have conspired to create an interest,</p>\n  <p>it feels like it has always been there and it has always been a little friend.</p>\n</div>\n\n<div class=\"section\">\n  <p>If you follow it, if you follow what moves you, then everything on the path leading up to it, will stick to you, it will feel great to learn new things,</p>\n  <p>it will make you feel satisfaction, and a kind of quiet joy, and fiddling with all the little bits you learned will feel like meditation.</p>\n</div>\n\n<div class=\"section\">\n  <p>But it has to be something that is calling to you, that has been within you for a very long time,</p>\n  <p>and if you are still young then it is something that a series of you most amazing adventures is already pointing towards.</p>\n</div>\n\n<div class=\"section\">\n  <p>If someone else tells yo to become a Doctor or a Lawyer something that you are not interested in, then your mind will reject everything that will follow,</p>\n  <p>when you choose the path that brings you relief and joy the road ahead of you won&apos;t be so much about learning, but merely advancing forward, towards something that you like.</p>\n</div>\n\n<div class=\"section\">\n  <hr>\n</div>\n\n<div class=\"section\">\n  <p>Please, accept the responsibility for your own education,</p>\n  <p>and never again trust anyone with it.</p>\n</div>",
  "bootstrap": "<div class=\"card card-section bg-dark text-warning shadow\">\n  <div class=\"section card-body mb-0 my-2\">\n    <div class=\"paragraph card-text card-stanza my-5 text-center\">No matter how many times a teacher punishes you with bad grades,</div>\n    <div class=\"paragraph card-text card-stanza my-5 text-center\">you are most likely to assume you are not smart.</div>\n  </div>\n</div>\n<div class=\"card card-section bg-dark text-warning shadow\">\n  <div class=\"section card-body mb-0 my-2\">\n    <div class=\"paragraph card-text card-stanza my-5 text-center\">The truth is that the teacher is a fraud,</div>\n    <div class=\"paragraph card-text card-stanza my-5 text-center\">they are only preparing you to put on a show.</div>\n  </div>\n</div>\n<div class=\"mb-5 section-spacer\">&nbsp;</div>\n<div class=\"card card-section bg-dark text-warning shadow\">\n  <div class=\"section card-body mb-0 my-2\">\n    <div class=\"paragraph card-text card-stanza my-5 text-center\">The idea of subject divisions, pre-set time periods, and sitting in rows,</div>\n    <div class=\"paragraph card-text card-stanza my-5 text-center\">is a horrible insult to you, there is no way to apologize for something like this.</div>\n  </div>\n</div>\n<div class=\"card card-section bg-dark text-warning shadow\">\n  <div class=\"section card-body mb-0 my-2\">\n    <div class=\"paragraph card-text card-stanza my-5 text-center\">Personally, I suspect that organizations cannot help but to enter a run-away state,</div>\n    <div class=\"paragraph card-text card-stanza my-5 text-center\">where all the participants brainlessly, heartlessly, and unwisely copy things in their incompetence.</div>\n  </div>\n</div>\n<div class=\"card card-section bg-dark text-warning shadow\">\n  <div class=\"section card-body mb-0 my-2\">\n    <div class=\"paragraph card-text card-stanza my-5 text-center\">It appears that middle school and high school,</div>\n    <div class=\"paragraph card-text card-stanza my-5 text-center\">are basically copies of elementary.</div>\n  </div>\n</div>\n<div class=\"mb-5 section-spacer\">&nbsp;</div>\n<div class=\"card card-section bg-dark text-warning shadow\">\n  <div class=\"section card-body mb-0 my-2\">\n    <div class=\"paragraph card-text card-stanza my-5 text-center\">Elementary does work,</div>\n    <div class=\"paragraph card-text card-stanza my-5 text-center\">because it is very useful to memorize letters and numbers and words.</div>\n  </div>\n</div>\n<div class=\"card card-section bg-dark text-warning shadow\">\n  <div class=\"section card-body mb-0 my-2\">\n    <div class=\"paragraph card-text card-stanza my-5 text-center\">But everything that comes after elementary is just elementary with extras,</div>\n    <div class=\"paragraph card-text card-stanza my-5 text-center\">which cannot work.</div>\n  </div>\n</div>\n<div class=\"card card-section bg-dark text-warning shadow\">\n  <div class=\"section card-body mb-0 my-2\">\n    <div class=\"paragraph card-text card-stanza my-5 text-center\">The expansion to include more subjects, and subject divisions,</div>\n    <div class=\"paragraph card-text card-stanza my-5 text-center\">and introduce abstract ideas is devastating and can only force students to memorize.</div>\n  </div>\n</div>\n<div class=\"card card-section bg-dark text-warning shadow\">\n  <div class=\"section card-body mb-0 my-2\">\n    <div class=\"paragraph card-text card-stanza my-5 text-center\">Formulas and abstract ideas are not mean to be memorized,</div>\n    <div class=\"paragraph card-text card-stanza my-5 text-center\">they are meant to be disassembled, rebuilt.</div>\n  </div>\n</div>\n<div class=\"card card-section bg-dark text-warning shadow\">\n  <div class=\"section card-body mb-0 my-2\">\n    <div class=\"paragraph card-text card-stanza my-5 text-center\">What is gained from this is meant to be used by subtle analogy</div>\n    <div class=\"paragraph card-text card-stanza my-5 text-center\">to construct and re-construct new things.</div>\n  </div>\n</div>\n<div class=\"card card-section bg-dark text-warning shadow\">\n  <div class=\"section card-body mb-0 my-2\">\n    <div class=\"paragraph card-text card-stanza my-5 text-center\">To memorize a formula,</div>\n    <div class=\"paragraph card-text card-stanza my-5 text-center\">is to throw it away.</div>\n  </div>\n</div>\n<div class=\"mb-5 section-spacer\">&nbsp;</div>\n<div class=\"card card-section bg-dark text-warning shadow\">\n  <div class=\"section card-body mb-0 my-2\">\n    <div class=\"paragraph card-text card-stanza my-5 text-center\">In order for a school to try to function in some way,</div>\n    <div class=\"paragraph card-text card-stanza my-5 text-center\">the dangerous standardized memorization and standardized testing, has emerged.</div>\n  </div>\n</div>\n<div class=\"card card-section bg-dark text-warning shadow\">\n  <div class=\"section card-body mb-0 my-2\">\n    <div class=\"paragraph card-text card-stanza my-5 text-center\">You see the simplicity and desperation of it,</div>\n    <div class=\"paragraph card-text card-stanza my-5 text-center\">of course.</div>\n  </div>\n</div>\n<div class=\"card card-section bg-dark text-warning shadow\">\n  <div class=\"section card-body mb-0 my-2\">\n    <div class=\"paragraph card-text card-stanza my-5 text-center\">Get everyone to temporarily recall the same thing,</div>\n    <div class=\"paragraph card-text card-stanza my-5 text-center\">and use the same test for evaluation.</div>\n  </div>\n</div>\n<div class=\"card card-section bg-dark text-warning shadow\">\n  <div class=\"section card-body mb-0 my-2\">\n    <div class=\"paragraph card-text card-stanza my-5 text-center\">Tests that rely on previous knowledge,</div>\n    <div class=\"paragraph card-text card-stanza my-5 text-center\">are simply re-memorized.</div>\n  </div>\n</div>\n<div class=\"card card-section bg-dark text-warning shadow\">\n  <div class=\"section card-body mb-0 my-2\">\n    <div class=\"paragraph card-text card-stanza my-5 text-center\">A refresher course is not something that refreshes your memory,</div>\n    <div class=\"paragraph card-text card-stanza my-5 text-center\">it is just an introduction to what is basically memorization for a new test.</div>\n  </div>\n</div>\n<div class=\"mb-5 section-spacer\">&nbsp;</div>\n<div class=\"card card-section bg-dark text-warning shadow\">\n  <div class=\"section card-body mb-0 my-2\">\n    <div class=\"paragraph card-text card-stanza my-5 text-center\">Modern education is very much like a dangerous theatrical play,</div>\n    <div class=\"paragraph card-text card-stanza my-5 text-center\">everyone memorizes their part, puts on a show, and moves on to the next gig without learning anything.</div>\n  </div>\n</div>\n<div class=\"mb-5 section-spacer\">&nbsp;</div>\n<div class=\"card card-section bg-dark text-warning shadow\">\n  <div class=\"section card-body mb-0 my-2\">\n    <div class=\"paragraph card-text card-stanza my-5 text-center\">Because nobody is learning for real,</div>\n    <div class=\"paragraph card-text card-stanza my-5 text-center\">and nobody is fully inheriting the wisdom gained in previous generations.</div>\n  </div>\n</div>\n<div class=\"card card-section bg-dark text-warning shadow\">\n  <div class=\"section card-body mb-0 my-2\">\n    <div class=\"paragraph card-text card-stanza my-5 text-center\">People assemble in desperate self reinforcing cults,</div>\n    <div class=\"paragraph card-text card-stanza my-5 text-center\">that can only repeat history's mistakes.</div>\n  </div>\n</div>\n<div class=\"card card-section bg-dark text-warning shadow\">\n  <div class=\"section card-body mb-0 my-2\">\n    <div class=\"paragraph card-text card-stanza my-5 text-center\">Because of lack of wisdom,</div>\n    <div class=\"paragraph card-text card-stanza my-5 text-center\">people are misleading themselves.</div>\n  </div>\n</div>\n<div class=\"card card-section bg-dark text-warning shadow\">\n  <div class=\"section card-body mb-0 my-2\">\n    <div class=\"paragraph card-text card-stanza my-5 text-center\">And their chosen communities,</div>\n    <div class=\"paragraph card-text card-stanza my-5 text-center\">can only further reinforce their mistaken beliefs.</div>\n  </div>\n</div>\n<div class=\"mb-5 section-spacer\">&nbsp;</div>\n<div class=\"card card-section bg-dark text-warning shadow\">\n  <div class=\"section card-body mb-0 my-2\">\n    <div class=\"paragraph card-text card-stanza my-5 text-center\">This is an old tragedy,</div>\n    <div class=\"paragraph card-text card-stanza my-5 text-center\">prevention of this curse of blindness is a large part of the reason why mandatory schooling was invented.</div>\n  </div>\n</div>\n<div class=\"card card-section bg-dark text-warning shadow\">\n  <div class=\"section card-body mb-0 my-2\">\n    <div class=\"paragraph card-text card-stanza my-5 text-center\">To prevent blindness, to prevent repetition of mistakes,</div>\n    <div class=\"paragraph card-text card-stanza my-5 text-center\">to encourage, to inspire, to enable students with tools with which they can invent new things.</div>\n  </div>\n</div>\n<div class=\"card card-section bg-dark text-warning shadow\">\n  <div class=\"section card-body mb-0 my-2\">\n    <div class=\"paragraph card-text card-stanza my-5 text-center\">But in blindness that is affecting multiple generations,</div>\n    <div class=\"paragraph card-text card-stanza my-5 text-center\">it is cheaper, and easier to put on a sick show and sell the students out for small paycheck.</div>\n  </div>\n</div>\n<div class=\"mb-5 section-spacer\">&nbsp;</div>\n<div class=\"card card-section bg-dark text-warning shadow\">\n  <div class=\"section card-body mb-0 my-2\">\n    <div class=\"paragraph card-text card-stanza my-5 text-center\">Can large institutions on whom countless many people rely on for a desperate paycheck,</div>\n    <div class=\"paragraph card-text card-stanza my-5 text-center\">server both the teachers and the students?</div>\n  </div>\n</div>\n<div class=\"card card-section bg-dark text-warning shadow\">\n  <div class=\"section card-body mb-0 my-2\">\n    <div class=\"paragraph card-text card-stanza my-5 text-center\">No, not really, not without Universal basic Income,</div>\n    <div class=\"paragraph card-text card-stanza my-5 text-center\">not without generations of life long personalized (not standardized) education.</div>\n  </div>\n</div>\n<div class=\"card card-section bg-dark text-warning shadow\">\n  <div class=\"section card-body mb-0 my-2\">\n    <div class=\"paragraph card-text card-stanza my-5 text-center\">Schools will eventually work,</div>\n    <div class=\"paragraph card-text card-stanza my-5 text-center\">but it will take us a very long time to make this happen - a very long time.</div>\n  </div>\n</div>\n<div class=\"card card-section bg-dark text-warning shadow\">\n  <div class=\"section card-body mb-0 my-2\">\n    <div class=\"paragraph card-text card-stanza my-5 text-center\">Even a university education is more about the diploma than the actual knowledge,</div>\n    <div class=\"paragraph card-text card-stanza my-5 text-center\">it is not how knowledgeable a person is, it is the name of the university on the diploma that matters.</div>\n  </div>\n</div>\n<div class=\"mb-5 section-spacer\">&nbsp;</div>\n<div class=\"card card-section bg-dark text-warning shadow\">\n  <div class=\"section card-body mb-0 my-2\">\n    <div class=\"paragraph card-text card-stanza my-5 text-center\">It is important for me to share these ideas with you,</div>\n    <div class=\"paragraph card-text card-stanza my-5 text-center\">precisely because so many of us have been tricked into thinking we are not smart.</div>\n  </div>\n</div>\n<div class=\"card card-section bg-dark text-warning shadow\">\n  <div class=\"section card-body mb-0 my-2\">\n    <div class=\"paragraph card-text card-stanza my-5 text-center\">Too many got crushed by the gears of the runaway machinery that sells a fantasy of education,</div>\n    <div class=\"paragraph card-text card-stanza my-5 text-center\">and sends a teacher back home with a paycheck, that they didn't deserve.</div>\n  </div>\n</div>\n<div class=\"mb-5 section-spacer\">&nbsp;</div>\n<div class=\"card card-section bg-dark text-warning shadow\">\n  <div class=\"section card-body mb-0 my-2\">\n    <div class=\"paragraph card-text card-stanza my-5 text-center\">You are just as smart as everyone else,</div>\n    <div class=\"paragraph card-text card-stanza my-5 text-center\">including the confusing university graduates that fill blackboards with strange mathematical notations.</div>\n  </div>\n</div>\n<div class=\"card card-section bg-dark text-warning shadow\">\n  <div class=\"section card-body mb-0 my-2\">\n    <div class=\"paragraph card-text card-stanza my-5 text-center\">The reason why they are able to manipulate mathematical notation,</div>\n    <div class=\"paragraph card-text card-stanza my-5 text-center\">is that they taught themselves <a href=\"https://github.com/Jam3/math-as-code\">what it actually does</a>.</div>\n  </div>\n</div>\n<div class=\"card card-section bg-dark text-warning shadow\">\n  <div class=\"section card-body mb-0 my-2\">\n    <div class=\"paragraph card-text card-stanza my-5 text-center\">Search the internet for <a href=\"https://github.com/Jam3/math-as-code\">Math As Code</a> to see that notation expressed in a more modern approachable way,</div>\n    <div class=\"paragraph card-text card-stanza my-5 text-center\">math nerds just took the time to take formulas apart and gained the ability to reassemble them from scratch.</div>\n  </div>\n</div>\n<div class=\"card card-section bg-dark text-warning shadow\">\n  <div class=\"section card-body mb-0 my-2\">\n    <div class=\"paragraph card-text card-stanza my-5 text-center\">This doers not mean that they are smarter than you,</div>\n    <div class=\"paragraph card-text card-stanza my-5 text-center\">but they have a larger collection of tools and visualizations.</div>\n  </div>\n</div>\n<div class=\"card card-section bg-dark text-warning shadow\">\n  <div class=\"section card-body mb-0 my-2\">\n    <div class=\"paragraph card-text card-stanza my-5 text-center\">They don't quite memorize things,</div>\n    <div class=\"paragraph card-text card-stanza my-5 text-center\">they retain them the way you retained how to use your cell phone, or start your car remotely, or how to replace the toner in your printer.</div>\n  </div>\n</div>\n<div class=\"card card-section bg-dark text-warning shadow\">\n  <div class=\"section card-body mb-0 my-2\">\n    <div class=\"paragraph card-text card-stanza my-5 text-center\">They don't force them selves to repeat over and over, countlesly repeating the same task,</div>\n    <div class=\"paragraph card-text card-stanza my-5 text-center\">they just find it useful, even exiting, they see it as something that they will later rely on in real life, they see it as a need, and a strength.</div>\n  </div>\n</div>\n<div class=\"mb-5 section-spacer\">&nbsp;</div>\n<div class=\"card card-section bg-dark text-warning shadow\">\n  <div class=\"section card-body mb-0 my-2\">\n    <div class=\"paragraph card-text card-stanza my-5 text-center\">We are each very unique, and one person may see themselves in an observatory at night,</div>\n    <div class=\"paragraph card-text card-stanza my-5 text-center\">scribbling extremely exciting back-of-the-envelope calculations, and maybe circuits to modernize some hardware.</div>\n  </div>\n</div>\n<div class=\"card card-section bg-dark text-warning shadow\">\n  <div class=\"section card-body mb-0 my-2\">\n    <div class=\"paragraph card-text card-stanza my-5 text-center\">There is something in their life that led them to the stars,</div>\n    <div class=\"paragraph card-text card-stanza my-5 text-center\">a book, a parent, a movie, or maybe even a school trip.</div>\n  </div>\n</div>\n<div class=\"card card-section bg-dark text-warning shadow\">\n  <div class=\"section card-body mb-0 my-2\">\n    <div class=\"paragraph card-text card-stanza my-5 text-center\">If you don't have that and the experiences leading up to it,</div>\n    <div class=\"paragraph card-text card-stanza my-5 text-center\">stars won't interest you, the observatory will not call to your heart, and you will not be interested in understanding mathematics.</div>\n  </div>\n</div>\n<div class=\"card card-section bg-dark text-warning shadow\">\n  <div class=\"section card-body mb-0 my-2\">\n    <div class=\"paragraph card-text card-stanza my-5 text-center\">But without a doubt, there are experiences in you that have conspired to create an interest,</div>\n    <div class=\"paragraph card-text card-stanza my-5 text-center\">it feels like it has always been there and it has always been a little friend.</div>\n  </div>\n</div>\n<div class=\"card card-section bg-dark text-warning shadow\">\n  <div class=\"section card-body mb-0 my-2\">\n    <div class=\"paragraph card-text card-stanza my-5 text-center\">If you follow it, if you follow what moves you, then everything on the path leading up to it, will stick to you, it will feel great to learn new things,</div>\n    <div class=\"paragraph card-text card-stanza my-5 text-center\">it will make you feel satisfaction, and a kind of quiet joy, and fiddling with all the little bits you learned will feel like meditation.</div>\n  </div>\n</div>\n<div class=\"card card-section bg-dark text-warning shadow\">\n  <div class=\"section card-body mb-0 my-2\">\n    <div class=\"paragraph card-text card-stanza my-5 text-center\">But it has to be something that is calling to you, that has been within you for a very long time,</div>\n    <div class=\"paragraph card-text card-stanza my-5 text-center\">and if you are still young then it is something that a series of you most amazing adventures is already pointing towards.</div>\n  </div>\n</div>\n<div class=\"card card-section bg-dark text-warning shadow\">\n  <div class=\"section card-body mb-0 my-2\">\n    <div class=\"paragraph card-text card-stanza my-5 text-center\">If someone else tells yo to become a Doctor or a Lawyer something that you are not interested in, then your mind will reject everything that will follow,</div>\n    <div class=\"paragraph card-text card-stanza my-5 text-center\">when you choose the path that brings you relief and joy the road ahead of you won't be so much about learning, but merely advancing forward, towards something that you like.</div>\n  </div>\n</div>\n<div class=\"mb-5 section-spacer\">&nbsp;</div>\n<div class=\"card card-section bg-dark text-warning shadow\">\n  <div class=\"section card-body mb-0 my-2\">\n    <div class=\"paragraph card-text card-stanza my-5 text-center\">Please, accept the responsibility for your own education,</div>\n    <div class=\"paragraph card-text card-stanza my-5 text-center\">and never again trust anyone with it.</div>\n  </div>\n</div>",
  "print": "<div class=\"section avoid-break-inside\" style=\"padding-bottom: 2rem;\">\n  <div class=\"paragraph\">No matter how many times a teacher punishes you with bad grades,</div>\n  <div class=\"paragraph\">you are most likely to assume you are not smart.</div>\n</div>\n<div class=\"section avoid-break-inside\" style=\"padding-bottom: 2rem;\">\n  <div class=\"paragraph\">The truth is that the teacher is a fraud,</div>\n  <div class=\"paragraph\">they are only preparing you to put on a show.</div>\n</div>\n<div class=\"section avoid-break-inside\" style=\"padding-bottom: 2rem;\">\n  <br>\n</div>\n<div class=\"section avoid-break-inside\" style=\"padding-bottom: 2rem;\">\n  <div class=\"paragraph\">The idea of subject divisions, pre-set time periods, and sitting in rows,</div>\n  <div class=\"paragraph\">is a horrible insult to you, there is no way to apologize for something like this.</div>\n</div>\n<div class=\"section avoid-break-inside\" style=\"padding-bottom: 2rem;\">\n  <div class=\"paragraph\">Personally, I suspect that organizations cannot help but to enter a run-away state,</div>\n  <div class=\"paragraph\">where all the participants brainlessly, heartlessly, and unwisely copy things in their incompetence.</div>\n</div>\n<div class=\"section avoid-break-inside\" style=\"padding-bottom: 2rem;\">\n  <div class=\"paragraph\">It appears that middle school and high school,</div>\n  <div class=\"paragraph\">are basically copies of elementary.</div>\n</div>\n<div class=\"section avoid-break-inside\" style=\"padding-bottom: 2rem;\">\n  <br>\n</div>\n<div class=\"section avoid-break-inside\" style=\"padding-bottom: 2rem;\">\n  <div class=\"paragraph\">Elementary does work,</div>\n  <div class=\"paragraph\">because it is very useful to memorize letters and numbers and words.</div>\n</div>\n<div class=\"section avoid-break-inside\" style=\"padding-bottom: 2rem;\">\n  <div class=\"paragraph\">But everything that comes after elementary is just elementary with extras,</div>\n  <div class=\"paragraph\">which cannot work.</div>\n</div>\n<div class=\"section avoid-break-inside\" style=\"padding-bottom: 2rem;\">\n  <div class=\"paragraph\">The expansion to include more subjects, and subject divisions,</div>\n  <div class=\"paragraph\">and introduce abstract ideas is devastating and can only force students to memorize.</div>\n</div>\n<div class=\"section avoid-break-inside\" style=\"padding-bottom: 2rem;\">\n  <div class=\"paragraph\">Formulas and abstract ideas are not mean to be memorized,</div>\n  <div class=\"paragraph\">they are meant to be disassembled, rebuilt.</div>\n</div>\n<div class=\"section avoid-break-inside\" style=\"padding-bottom: 2rem;\">\n  <div class=\"paragraph\">What is gained from this is meant to be used by subtle analogy</div>\n  <div class=\"paragraph\">to construct and re-construct new things.</div>\n</div>\n<div class=\"section avoid-break-inside\" style=\"padding-bottom: 2rem;\">\n  <div class=\"paragraph\">To memorize a formula,</div>\n  <div class=\"paragraph\">is to throw it away.</div>\n</div>\n<div class=\"section avoid-break-inside\" style=\"padding-bottom: 2rem;\">\n  <br>\n</div>\n<div class=\"section avoid-break-inside\" style=\"padding-bottom: 2rem;\">\n  <div class=\"paragraph\">In order for a school to try to function in some way,</div>\n  <div class=\"paragraph\">the dangerous standardized memorization and standardized testing, has emerged.</div>\n</div>\n<div class=\"section avoid-break-inside\" style=\"padding-bottom: 2rem;\">\n  <div class=\"paragraph\">You see the simplicity and desperation of it,</div>\n  <div class=\"paragraph\">of course.</div>\n</div>\n<div class=\"section avoid-break-inside\" style=\"padding-bottom: 2rem;\">\n  <div class=\"paragraph\">Get everyone to temporarily recall the same thing,</div>\n  <div class=\"paragraph\">and use the same test for evaluation.</div>\n</div>\n<div class=\"section avoid-break-inside\" style=\"padding-bottom: 2rem;\">\n  <div class=\"paragraph\">Tests that rely on previous knowledge,</div>\n  <div class=\"paragraph\">are simply re-memorized.</div>\n</div>\n<div class=\"section avoid-break-inside\" style=\"padding-bottom: 2rem;\">\n  <div class=\"paragraph\">A refresher course is not something that refreshes your memory,</div>\n  <div class=\"paragraph\">it is just an introduction to what is basically memorization for a new test.</div>\n</div>\n<div class=\"section avoid-break-inside\" style=\"padding-bottom: 2rem;\">\n  <br>\n</div>\n<div class=\"section avoid-break-inside\" style=\"padding-bottom: 2rem;\">\n  <div class=\"paragraph\">Modern education is very much like a dangerous theatrical play,</div>\n  <div class=\"paragraph\">everyone memorizes their part, puts on a show, and moves on to the next gig without learning anything.</div>\n</div>\n<div class=\"section avoid-break-inside\" style=\"padding-bottom: 2rem;\">\n  <br>\n</div>\n<div class=\"section avoid-break-inside\" style=\"padding-bottom: 2rem;\">\n  <div class=\"paragraph\">Because nobody is learning for real,</div>\n  <div class=\"paragraph\">and nobody is fully inheriting the wisdom gained in previous generations.</div>\n</div>\n<div class=\"section avoid-break-inside\" style=\"padding-bottom: 2rem;\">\n  <div class=\"paragraph\">People assemble in desperate self reinforcing cults,</div>\n  <div class=\"paragraph\">that can only repeat history's mistakes.</div>\n</div>\n<div class=\"section avoid-break-inside\" style=\"padding-bottom: 2rem;\">\n  <div class=\"paragraph\">Because of lack of wisdom,</div>\n  <div class=\"paragraph\">people are misleading themselves.</div>\n</div>\n<div class=\"section avoid-break-inside\" style=\"padding-bottom: 2rem;\">\n  <div class=\"paragraph\">And their chosen communities,</div>\n  <div class=\"paragraph\">can only further reinforce their mistaken beliefs.</div>\n</div>\n<div class=\"section avoid-break-inside\" style=\"padding-bottom: 2rem;\">\n  <br>\n</div>\n<div class=\"section avoid-break-inside\" style=\"padding-bottom: 2rem;\">\n  <div class=\"paragraph\">This is an old tragedy,</div>\n  <div class=\"paragraph\">prevention of this curse of blindness is a large part of the reason why mandatory schooling was invented.</div>\n</div>\n<div class=\"section avoid-break-inside\" style=\"padding-bottom: 2rem;\">\n  <div class=\"paragraph\">To prevent blindness, to prevent repetition of mistakes,</div>\n  <div class=\"paragraph\">to encourage, to inspire, to enable students with tools with which they can invent new things.</div>\n</div>\n<div class=\"section avoid-break-inside\" style=\"padding-bottom: 2rem;\">\n  <div class=\"paragraph\">But in blindness that is affecting multiple generations,</div>\n  <div class=\"paragraph\">it is cheaper, and easier to put on a sick show and sell the students out for small paycheck.</div>\n</div>\n<div class=\"section avoid-break-inside\" style=\"padding-bottom: 2rem;\">\n  <br>\n</div>\n<div class=\"section avoid-break-inside\" style=\"padding-bottom: 2rem;\">\n  <div class=\"paragraph\">Can large institutions on whom countless many people rely on for a desperate paycheck,</div>\n  <div class=\"paragraph\">server both the teachers and the students?</div>\n</div>\n<div class=\"section avoid-break-inside\" style=\"padding-bottom: 2rem;\">\n  <div class=\"paragraph\">No, not really, not without Universal basic Income,</div>\n  <div class=\"paragraph\">not without generations of life long personalized (not standardized) education.</div>\n</div>\n<div class=\"section avoid-break-inside\" style=\"padding-bottom: 2rem;\">\n  <div class=\"paragraph\">Schools will eventually work,</div>\n  <div class=\"paragraph\">but it will take us a very long time to make this happen - a very long time.</div>\n</div>\n<div class=\"section avoid-break-inside\" style=\"padding-bottom: 2rem;\">\n  <div class=\"paragraph\">Even a university education is more about the diploma than the actual knowledge,</div>\n  <div class=\"paragraph\">it is not how knowledgeable a person is, it is the name of the university on the diploma that matters.</div>\n</div>\n<div class=\"section avoid-break-inside\" style=\"padding-bottom: 2rem;\">\n  <br>\n</div>\n<div class=\"section avoid-break-inside\" style=\"padding-bottom: 2rem;\">\n  <div class=\"paragraph\">It is important for me to share these ideas with you,</div>\n  <div class=\"paragraph\">precisely because so many of us have been tricked into thinking we are not smart.</div>\n</div>\n<div class=\"section avoid-break-inside\" style=\"padding-bottom: 2rem;\">\n  <div class=\"paragraph\">Too many got crushed by the gears of the runaway machinery that sells a fantasy of education,</div>\n  <div class=\"paragraph\">and sends a teacher back home with a paycheck, that they didn't deserve.</div>\n</div>\n<div class=\"section avoid-break-inside\" style=\"padding-bottom: 2rem;\">\n  <br>\n</div>\n<div class=\"section avoid-break-inside\" style=\"padding-bottom: 2rem;\">\n  <div class=\"paragraph\">You are just as smart as everyone else,</div>\n  <div class=\"paragraph\">including the confusing university graduates that fill blackboards with strange mathematical notations.</div>\n</div>\n<div class=\"section avoid-break-inside\" style=\"padding-bottom: 2rem;\">\n  <div class=\"paragraph\">The reason why they are able to manipulate mathematical notation,</div>\n  <div class=\"paragraph\">is that they taught themselves <span>what it actually does<sup>[1]</sup></span>.</div>\n</div>\n<div class=\"section avoid-break-inside\" style=\"padding-bottom: 2rem;\">\n  <div class=\"paragraph\">Search the internet for <span>Math As Code<sup>[2]</sup></span> to see that notation expressed in a more modern approachable way,</div>\n  <div class=\"paragraph\">math nerds just took the time to take formulas apart and gained the ability to reassemble them from scratch.</div>\n</div>\n<div class=\"section avoid-break-inside\" style=\"padding-bottom: 2rem;\">\n  <div class=\"paragraph\">This doers not mean that they are smarter than you,</div>\n  <div class=\"paragraph\">but they have a larger collection of tools and visualizations.</div>\n</div>\n<div class=\"section avoid-break-inside\" style=\"padding-bottom: 2rem;\">\n  <div class=\"paragraph\">They don't quite memorize things,</div>\n  <div class=\"paragraph\">they retain them the way you retained how to use your cell phone, or start your car remotely, or how to replace the toner in your printer.</div>\n</div>\n<div class=\"section avoid-break-inside\" style=\"padding-bottom: 2rem;\">\n  <div class=\"paragraph\">They don't force them selves to repeat over and over, countlesly repeating the same task,</div>\n  <div class=\"paragraph\">they just find it useful, even exiting, they see it as something that they will later rely on in real life, they see it as a need, and a strength.</div>\n</div>\n<div class=\"section avoid-break-inside\" style=\"padding-bottom: 2rem;\">\n  <br>\n</div>\n<div class=\"section avoid-break-inside\" style=\"padding-bottom: 2rem;\">\n  <div class=\"paragraph\">We are each very unique, and one person may see themselves in an observatory at night,</div>\n  <div class=\"paragraph\">scribbling extremely exciting back-of-the-envelope calculations, and maybe circuits to modernize some hardware.</div>\n</div>\n<div class=\"section avoid-break-inside\" style=\"padding-bottom: 2rem;\">\n  <div class=\"paragraph\">There is something in their life that led them to the stars,</div>\n  <div class=\"paragraph\">a book, a parent, a movie, or maybe even a school trip.</div>\n</div>\n<div class=\"section avoid-break-inside\" style=\"padding-bottom: 2rem;\">\n  <div class=\"paragraph\">If you don't have that and the experiences leading up to it,</div>\n  <div class=\"paragraph\">stars won't interest you, the observatory will not call to your heart, and you will not be interested in understanding mathematics.</div>\n</div>\n<div class=\"section avoid-break-inside\" style=\"padding-bottom: 2rem;\">\n  <div class=\"paragraph\">But without a doubt, there are experiences in you that have conspired to create an interest,</div>\n  <div class=\"paragraph\">it feels like it has always been there and it has always been a little friend.</div>\n</div>\n<div class=\"section avoid-break-inside\" style=\"padding-bottom: 2rem;\">\n  <div class=\"paragraph\">If you follow it, if you follow what moves you, then everything on the path leading up to it, will stick to you, it will feel great to learn new things,</div>\n  <div class=\"paragraph\">it will make you feel satisfaction, and a kind of quiet joy, and fiddling with all the little bits you learned will feel like meditation.</div>\n</div>\n<div class=\"section avoid-break-inside\" style=\"padding-bottom: 2rem;\">\n  <div class=\"paragraph\">But it has to be something that is calling to you, that has been within you for a very long time,</div>\n  <div class=\"paragraph\">and if you are still young then it is something that a series of you most amazing adventures is already pointing towards.</div>\n</div>\n<div class=\"section avoid-break-inside\" style=\"padding-bottom: 2rem;\">\n  <div class=\"paragraph\">If someone else tells yo to become a Doctor or a Lawyer something that you are not interested in, then your mind will reject everything that will follow,</div>\n  <div class=\"paragraph\">when you choose the path that brings you relief and joy the road ahead of you won't be so much about learning, but merely advancing forward, towards something that you like.</div>\n</div>\n<div class=\"section avoid-break-inside\" style=\"padding-bottom: 2rem;\">\n  <br>\n</div>\n<div class=\"section avoid-break-inside\" style=\"padding-bottom: 2rem;\">\n  <div class=\"paragraph\">Please, accept the responsibility for your own education,</div>\n  <div class=\"paragraph\">and never again trust anyone with it.</div>\n</div>\n<div class=\"break-after\">&nbsp;</div>\n<div>\n  <div class=\"section\" style=\"padding-bottom: 1rem;\">References</div>\n  <div>[1]: https://github.com/Jam3/math-as-code</div>\n  <div>[2]: https://github.com/Jam3/math-as-code</div>\n</div>",
  "text": "No matter how many times a teacher punishes you with bad grades,\nyou are most likely to assume you are not smart.\nThe truth is that the teacher is a fraud,\nthey are only preparing you to put on a show.\n\nThe idea of subject divisions, pre-set time periods, and sitting in rows,\nis a horrible insult to you, there is no way to apologize for something like this.\nPersonally, I suspect that organizations cannot help but to enter a run-away state,\nwhere all the participants brainlessly, heartlessly, and unwisely copy things in their incompetence.\nIt appears that middle school and high school,\nare basically copies of elementary.\n\nElementary does work,\nbecause it is very useful to memorize letters and numbers and words.\nBut everything that comes after elementary is just elementary with extras,\nwhich cannot work.\nThe expansion to include more subjects, and subject divisions,\nand introduce abstract ideas is devastating and can only force students to memorize.\nFormulas and abstract ideas are not mean to be memorized,\nthey are meant to be disassembled, rebuilt.\nWhat is gained from this is meant to be used by subtle analogy\nto construct and re-construct new things.\nTo memorize a formula,\nis to throw it away.\n\nIn order for a school to try to function in some way,\nthe dangerous standardized memorization and standardized testing, has emerged.\nYou see the simplicity and desperation of it,\nof course.\nGet everyone to temporarily recall the same thing,\nand use the same test for evaluation.\nTests that rely on previous knowledge,\nare simply re-memorized.\nA refresher course is not something that refreshes your memory,\nit is just an introduction to what is basically memorization for a new test.\n\nModern education is very much like a dangerous theatrical play,\neveryone memorizes their part, puts on a show, and moves on to the next gig without learning anything.\n\nBecause nobody is learning for real,\nand nobody is fully inheriting the wisdom gained in previous generations.\nPeople assemble in desperate self reinforcing cults,\nthat can only repeat history's mistakes.\nBecause of lack of wisdom,\npeople are misleading themselves.\nAnd their chosen communities,\ncan only further reinforce their mistaken beliefs.\n\nThis is an old tragedy,\nprevention of this curse of blindness is a large part of the reason why mandatory schooling was invented.\nTo prevent blindness, to prevent repetition of mistakes,\nto encourage, to inspire, to enable students with tools with which they can invent new things.\nBut in blindness that is affecting multiple generations,\nit is cheaper, and easier to put on a sick show and sell the students out for small paycheck.\n\nCan large institutions on whom countless many people rely on for a desperate paycheck,\nserver both the teachers and the students?\nNo, not really, not without Universal basic Income,\nnot without generations of life long personalized (not standardized) education.\nSchools will eventually work,\nbut it will take us a very long time to make this happen - a very long time.\nEven a university education is more about the diploma than the actual knowledge,\nit is not how knowledgeable a person is, it is the name of the university on the diploma that matters.\n\nIt is important for me to share these ideas with you,\nprecisely because so many of us have been tricked into thinking we are not smart.\nToo many got crushed by the gears of the runaway machinery that sells a fantasy of education,\nand sends a teacher back home with a paycheck, that they didn't deserve.\n\nYou are just as smart as everyone else,\nincluding the confusing university graduates that fill blackboards with strange mathematical notations.\nThe reason why they are able to manipulate mathematical notation,\nis that they taught themselves what it actually does[1].\nSearch the internet for Math As Code[2] to see that notation expressed in a more modern approachable way,\nmath nerds just took the time to take formulas apart and gained the ability to reassemble them from scratch.\nThis doers not mean that they are smarter than you,\nbut they have a larger collection of tools and visualizations.\nThey don't quite memorize things,\nthey retain them the way you retained how to use your cell phone, or start your car remotely, or how to replace the toner in your printer.\nThey don't force them selves to repeat over and over, countlesly repeating the same task,\nthey just find it useful, even exiting, they see it as something that they will later rely on in real life, they see it as a need, and a strength.\n\nWe are each very unique, and one person may see themselves in an observatory at night,\nscribbling extremely exciting back-of-the-envelope calculations, and maybe circuits to modernize some hardware.\nThere is something in their life that led them to the stars,\na book, a parent, a movie, or maybe even a school trip.\nIf you don't have that and the experiences leading up to it,\nstars won't interest you, the observatory will not call to your heart, and you will not be interested in understanding mathematics.\nBut without a doubt, there are experiences in you that have conspired to create an interest,\nit feels like it has always been there and it has always been a little friend.\nIf you follow it, if you follow what moves you, then everything on the path leading up to it, will stick to you, it will feel great to learn new things,\nit will make you feel satisfaction, and a kind of quiet joy, and fiddling with all the little bits you learned will feel like meditation.\nBut it has to be something that is calling to you, that has been within you for a very long time,\nand if you are still young then it is something that a series of you most amazing adventures is already pointing towards.\nIf someone else tells yo to become a Doctor or a Lawyer something that you are not interested in, then your mind will reject everything that will follow,\nwhen you choose the path that brings you relief and joy the road ahead of you won't be so much about learning, but merely advancing forward, towards something that you like.\n\nPlease, accept the responsibility for your own education,\nand never again trust anyone with it.\n \nReferences\n[1]: https://github.com/Jam3/math-as-code\n[2]: https://github.com/Jam3/math-as-code",
  "images": [],
  "links": [
    {
      "title": "what it actually does",
      "url": "https://github.com/Jam3/math-as-code",
      "hostname": "github.com"
    },
    {
      "title": "Math As Code",
      "url": "https://github.com/Jam3/math-as-code",
      "hostname": "github.com"
    }
  ]
}