{
  "title": "Get Out Of My Laboratory, Or Invention Is A Teacher",
  "date": "2020-10-22T03:38:31.127Z",
  "image": "poetry-0235-illustration.jpg",
  "audio": "poetry-0235.mp3",
  "artwork": "https://unsplash.com/photos/kr-olxRwCa4",
  "id": "furkies-purrkies-poetry-0235",
  "attachments": {},
  "guid": "fadbceb0-0c81-44b3-ab26-4909f5b70326"
}
