{
  "name": "furkies-purrkies-poetry-0605",
  "id": "furkies-purrkies-poetry-0605",
  "title": "The Century Of Freedom And Equality",
  "date": "2021-10-27T00:08:16.059Z",
  "image": "poetry-0605-illustration.jpg",
  "artwork": "https://unsplash.com/photos/IWJH-l-vb4k",
  "audio": "poetry-0605.mp3",
  "guid": "ab0ef4de-6b54-408f-a531-356f798329a0",
  "html": "<div class=\"section\">\n  <p>We fixed it all,<br>in our brilliance we made the necessary leaps forward.</p>\n  <p>But,<br>it was a slow and rough start.</p>\n</div>\n<div class=\"section\">\n  <hr>\n</div>\n<div class=\"section\">\n  <p>We forgot about our brothers and sisters in the poorer nations,<br>children in the streets, people without homes.</p>\n  <p>Poverty was creating addicts and criminals stressed out of their minds,<br>into making choices that they would not have made, had they had a fair start.</p>\n</div>\n<div class=\"section\">\n  <hr>\n</div>\n<div class=\"section\">\n  <p>Humanity needed to pull it self together,<br>it needed an International Bank that only concerned it self with a daily spending limit of $100 US dollars.</p>\n  <p>Not only did the poverty choke the wealthy nations pushing them into uneducation and lack of compassion,<br>but it caused unimaginable cruelty in the less fortunate nations.</p>\n  <p>The bank, as an international institution, begun serving all people, of all nations,<br>everyone understood the symbol on the card - everyone knew - the change was permanent.</p>\n</div>\n<div class=\"section\">\n  <hr>\n</div>\n<div class=\"section\">\n  <p>It all started at the turn of the century when Earth felt like a prison planet,<br>people tolerated corruption, poverty, human rights abuses, and they didn't know prisons were bad.</p>\n  <p>People tolerated human suffering,<br>because they too suffered, most commonly poverty, fear.</p>\n</div>\n<div class=\"section\">\n  <hr>\n</div>\n<div class=\"section\">\n  <p>One of the philosophers later described the state affairs by comparing Humanity to an addict,<br>we were addicted out of poverty, to working so hard that our minds rejected our own brilliance.</p>\n  <p>Humanity was in the process of destroying its body, Earth,<br>like an addict destroys theirs.</p>\n</div>\n<div class=\"section\">\n  <hr>\n</div>\n<div class=\"section\">\n  <p>At first no one imagined that lack of education is a spectrum disorder,<br>they would laugh, and see the very gateway to peace as yet another wall.</p>\n</div>\n<div class=\"section\">\n  <hr>\n</div>\n<div class=\"section\">\n  <p>Political corruption has remained the same for hundreds of years,<br>there was only one modern rule: Don’t Get Caught.</p>\n  <p>This was not just about sticky fingers,<br>but also remaining under the radar and doing as little as possible.</p>\n</div>\n<div class=\"section\">\n  <hr>\n</div>\n<div class=\"section\">\n  <p>There was another arm of corruption that was rarely talked about,<br>and that is the deliberate destruction of life by exploiting loopholes.</p>\n  <p>The same as criminal hackers did to computers,<br>cunning politicians did in revenge against their enemies.</p>\n  <p>Illegal imprisonment, prison beatings, character assassinations,<br>and raids by advanced tactical squads were not unheard of.</p>\n  <p>The chilling effect of seeing your wife bound,<br>and little dogs shot, worked to crush spirits, all too well.</p>\n</div>\n<div class=\"section\">\n  <hr>\n</div>\n<div class=\"section\">\n  <p>But corruption evolved for a simpler world,<br>a world with plenty of space to hide, and plenty of time to clean up and retire.</p>\n  <p>In large part due to corruption,<br>the space in which liars thrived was erased.</p>\n  <p>Malaria became the latest pandemic as it made it way even to Northern US,<br>the viruses from turn of the century continued mutating, and ecosystem collapse brought the world to a stand still.</p>\n  <p>Just as soon as populated areas saw the disappearance of insects,<br>everyone realized that we needed instant change, or we would disappear too.</p>\n</div>\n<div class=\"section\">\n  <hr>\n</div>\n<div class=\"section\">\n  <p>There were no riots, no protests,<br>but not a single liar ran for office for all the stories that filled the news.</p>\n  <p>A new amendment is in the works, it requires that only well educated are allowed to run for the office,<br>it is worded by the people who saw the death of insects.</p>\n  <p>The prison planet scenario as it has been called,<br>was only sustained by corruption.</p>\n  <p>The actual prison industry collapsed, along with several others,<br>as the “Don’t Get Caught · Do As Little As Possible” resigned from the office.</p>\n  <p>The silent invisible corruption was discovered to be such a blight,<br>as to be impossible to sustain with force past the end of the century.</p>\n  <p>Part of the Uneducation Spectrum Disorder barrier meant to keep corruption out of the office,<br>was a long runway in which a political hopeful had to convince people of high achievement.</p>\n  <p>Admired Scientists and accomplished Philosophers were finally able to run,<br>the capitol gained hundreds of sculptures of renowned scientists.</p>\n</div>\n<div class=\"section\">\n  <hr>\n</div>\n<div class=\"section\">\n  <p>Privacy was declared a human right,<br>a law against obscured or encrypted code that meant to prevent consumers from fully examining their devices was passed.</p>\n  <p>The criminal cyber underworld was decades ahead of everybody else,<br>it was the underground criminals that benefited from privacy violations the most.</p>\n</div>\n<div class=\"section\">\n  <hr>\n</div>\n<div class=\"section\">\n  <p>The most significant change,<br>was universal income.</p>\n  <p>It took no effort,<br>and for ages the bank used a single computer.</p>\n  <p>The Universal Income card grants each human being about 3.5 million dollars,<br>it does not track this number, it only makes sure that no one can withdraw $100 in a 24 period.</p>\n  <p>The economists predicted the end of the world,<br>the corrupt governments their own collapse.</p>\n  <p>But nothing happened.</p>\n  <p>A person requests a card,<br>and it is sent to them no mater where they are int he world.</p>\n  <p>At midnight in each timezone the account balance is set to $100 United States dollars,<br>It is the same for all accounts no matter how much was spent.</p>\n  <p>Poverty was a kind of slavery,<br>it hurt the minds of the people that suffered it.</p>\n  <p>It prevented people from getting a real education,<br>it prevented them from becoming the best versions of themselves.</p>\n  <p>Poverty secretly corrupted the world creating a prison planet of wage slavery and corruption,<br>we will never know what might have been had we been able to end poverty decades before.</p>\n</div>\n<div class=\"section\">\n  <hr>\n</div>\n<div class=\"section\">\n  <p>Afterword.</p>\n  <p>You are meant to become a great being,<br>and a lover of thousands of the world most beloved books.</p>\n  <p>To live without the wisdom committed to our books,<br>is to live the life of a slave.</p>\n  <p>A wage slave who cannot help,<br>but to become a slaver for the next generation.</p>\n  <p>The cycle of poverty, abuse, captivity, and corruption must end,<br>do not wait for climate change to reveal the naked emperors.</p>\n  <p>In their blindness and sickness of greed and un-education all they will ever be able to say is:<br>“How were we supposed to know?” and they can only ever speak those words in a bone chilling tone that will reveal that not only were they naked on the outside but hollow... on the inside.</p>\n  <p>Encourage your friends and family to real education,<br>help them to the library, introduce them to books by helping them checkout the most beautifully narrated biographies that change lives.</p>\n</div>",
  "bootstrap": "<div class=\"card card-section bg-dark text-warning shadow\">\n  <div class=\"section card-body mb-0 my-2\">\n    <div class=\"paragraph card-text card-stanza my-5 text-center\">We fixed it all,<br>in our brilliance we made the necessary leaps forward.</div>\n    <div class=\"paragraph card-text card-stanza my-5 text-center\">But,<br>it was a slow and rough start.</div>\n  </div>\n</div>\n<div class=\"mb-5 section-spacer\">&nbsp;</div>\n<div class=\"card card-section bg-dark text-warning shadow\">\n  <div class=\"section card-body mb-0 my-2\">\n    <div class=\"paragraph card-text card-stanza my-5 text-center\">We forgot about our brothers and sisters in the poorer nations,<br>children in the streets, people without homes.</div>\n    <div class=\"paragraph card-text card-stanza my-5 text-center\">Poverty was creating addicts and criminals stressed out of their minds,<br>into making choices that they would not have made, had they had a fair start.</div>\n  </div>\n</div>\n<div class=\"mb-5 section-spacer\">&nbsp;</div>\n<div class=\"card card-section bg-dark text-warning shadow\">\n  <div class=\"section card-body mb-0 my-2\">\n    <div class=\"paragraph card-text card-stanza my-5 text-center\">Humanity needed to pull it self together,<br>it needed an International Bank that only concerned it self with a daily spending limit of $100 US dollars.</div>\n    <div class=\"paragraph card-text card-stanza my-5 text-center\">Not only did the poverty choke the wealthy nations pushing them into uneducation and lack of compassion,<br>but it caused unimaginable cruelty in the less fortunate nations.</div>\n    <div class=\"paragraph card-text card-stanza my-5 text-center\">The bank, as an international institution, begun serving all people, of all nations,<br>everyone understood the symbol on the card - everyone knew - the change was permanent.</div>\n  </div>\n</div>\n<div class=\"mb-5 section-spacer\">&nbsp;</div>\n<div class=\"card card-section bg-dark text-warning shadow\">\n  <div class=\"section card-body mb-0 my-2\">\n    <div class=\"paragraph card-text card-stanza my-5 text-center\">It all started at the turn of the century when Earth felt like a prison planet,<br>people tolerated corruption, poverty, human rights abuses, and they didn't know prisons were bad.</div>\n    <div class=\"paragraph card-text card-stanza my-5 text-center\">People tolerated human suffering,<br>because they too suffered, most commonly poverty, fear.</div>\n  </div>\n</div>\n<div class=\"mb-5 section-spacer\">&nbsp;</div>\n<div class=\"card card-section bg-dark text-warning shadow\">\n  <div class=\"section card-body mb-0 my-2\">\n    <div class=\"paragraph card-text card-stanza my-5 text-center\">One of the philosophers later described the state affairs by comparing Humanity to an addict,<br>we were addicted out of poverty, to working so hard that our minds rejected our own brilliance.</div>\n    <div class=\"paragraph card-text card-stanza my-5 text-center\">Humanity was in the process of destroying its body, Earth,<br>like an addict destroys theirs.</div>\n  </div>\n</div>\n<div class=\"mb-5 section-spacer\">&nbsp;</div>\n<div class=\"card card-section bg-dark text-warning shadow\">\n  <div class=\"section card-body mb-0 my-2\">\n    <div class=\"paragraph card-text card-stanza my-5 text-center\">At first no one imagined that lack of education is a spectrum disorder,<br>they would laugh, and see the very gateway to peace as yet another wall.</div>\n  </div>\n</div>\n<div class=\"mb-5 section-spacer\">&nbsp;</div>\n<div class=\"card card-section bg-dark text-warning shadow\">\n  <div class=\"section card-body mb-0 my-2\">\n    <div class=\"paragraph card-text card-stanza my-5 text-center\">Political corruption has remained the same for hundreds of years,<br>there was only one modern rule: Don’t Get Caught.</div>\n    <div class=\"paragraph card-text card-stanza my-5 text-center\">This was not just about sticky fingers,<br>but also remaining under the radar and doing as little as possible.</div>\n  </div>\n</div>\n<div class=\"mb-5 section-spacer\">&nbsp;</div>\n<div class=\"card card-section bg-dark text-warning shadow\">\n  <div class=\"section card-body mb-0 my-2\">\n    <div class=\"paragraph card-text card-stanza my-5 text-center\">There was another arm of corruption that was rarely talked about,<br>and that is the deliberate destruction of life by exploiting loopholes.</div>\n    <div class=\"paragraph card-text card-stanza my-5 text-center\">The same as criminal hackers did to computers,<br>cunning politicians did in revenge against their enemies.</div>\n    <div class=\"paragraph card-text card-stanza my-5 text-center\">Illegal imprisonment, prison beatings, character assassinations,<br>and raids by advanced tactical squads were not unheard of.</div>\n    <div class=\"paragraph card-text card-stanza my-5 text-center\">The chilling effect of seeing your wife bound,<br>and little dogs shot, worked to crush spirits, all too well.</div>\n  </div>\n</div>\n<div class=\"mb-5 section-spacer\">&nbsp;</div>\n<div class=\"card card-section bg-dark text-warning shadow\">\n  <div class=\"section card-body mb-0 my-2\">\n    <div class=\"paragraph card-text card-stanza my-5 text-center\">But corruption evolved for a simpler world,<br>a world with plenty of space to hide, and plenty of time to clean up and retire.</div>\n    <div class=\"paragraph card-text card-stanza my-5 text-center\">In large part due to corruption,<br>the space in which liars thrived was erased.</div>\n    <div class=\"paragraph card-text card-stanza my-5 text-center\">Malaria became the latest pandemic as it made it way even to Northern US,<br>the viruses from turn of the century continued mutating, and ecosystem collapse brought the world to a stand still.</div>\n    <div class=\"paragraph card-text card-stanza my-5 text-center\">Just as soon as populated areas saw the disappearance of insects,<br>everyone realized that we needed instant change, or we would disappear too.</div>\n  </div>\n</div>\n<div class=\"mb-5 section-spacer\">&nbsp;</div>\n<div class=\"card card-section bg-dark text-warning shadow\">\n  <div class=\"section card-body mb-0 my-2\">\n    <div class=\"paragraph card-text card-stanza my-5 text-center\">There were no riots, no protests,<br>but not a single liar ran for office for all the stories that filled the news.</div>\n    <div class=\"paragraph card-text card-stanza my-5 text-center\">A new amendment is in the works, it requires that only well educated are allowed to run for the office,<br>it is worded by the people who saw the death of insects.</div>\n    <div class=\"paragraph card-text card-stanza my-5 text-center\">The prison planet scenario as it has been called,<br>was only sustained by corruption.</div>\n    <div class=\"paragraph card-text card-stanza my-5 text-center\">The actual prison industry collapsed, along with several others,<br>as the “Don’t Get Caught · Do As Little As Possible” resigned from the office.</div>\n    <div class=\"paragraph card-text card-stanza my-5 text-center\">The silent invisible corruption was discovered to be such a blight,<br>as to be impossible to sustain with force past the end of the century.</div>\n    <div class=\"paragraph card-text card-stanza my-5 text-center\">Part of the Uneducation Spectrum Disorder barrier meant to keep corruption out of the office,<br>was a long runway in which a political hopeful had to convince people of high achievement.</div>\n    <div class=\"paragraph card-text card-stanza my-5 text-center\">Admired Scientists and accomplished Philosophers were finally able to run,<br>the capitol gained hundreds of sculptures of renowned scientists.</div>\n  </div>\n</div>\n<div class=\"mb-5 section-spacer\">&nbsp;</div>\n<div class=\"card card-section bg-dark text-warning shadow\">\n  <div class=\"section card-body mb-0 my-2\">\n    <div class=\"paragraph card-text card-stanza my-5 text-center\">Privacy was declared a human right,<br>a law against obscured or encrypted code that meant to prevent consumers from fully examining their devices was passed.</div>\n    <div class=\"paragraph card-text card-stanza my-5 text-center\">The criminal cyber underworld was decades ahead of everybody else,<br>it was the underground criminals that benefited from privacy violations the most.</div>\n  </div>\n</div>\n<div class=\"mb-5 section-spacer\">&nbsp;</div>\n<div class=\"card card-section bg-dark text-warning shadow\">\n  <div class=\"section card-body mb-0 my-2\">\n    <div class=\"paragraph card-text card-stanza my-5 text-center\">The most significant change,<br>was universal income.</div>\n    <div class=\"paragraph card-text card-stanza my-5 text-center\">It took no effort,<br>and for ages the bank used a single computer.</div>\n    <div class=\"paragraph card-text card-stanza my-5 text-center\">The Universal Income card grants each human being about 3.5 million dollars,<br>it does not track this number, it only makes sure that no one can withdraw $100 in a 24 period.</div>\n    <div class=\"paragraph card-text card-stanza my-5 text-center\">The economists predicted the end of the world,<br>the corrupt governments their own collapse.</div>\n    <div class=\"paragraph card-text card-stanza my-5 text-center\">But nothing happened.</div>\n    <div class=\"paragraph card-text card-stanza my-5 text-center\">A person requests a card,<br>and it is sent to them no mater where they are int he world.</div>\n    <div class=\"paragraph card-text card-stanza my-5 text-center\">At midnight in each timezone the account balance is set to $100 United States dollars,<br>It is the same for all accounts no matter how much was spent.</div>\n    <div class=\"paragraph card-text card-stanza my-5 text-center\">Poverty was a kind of slavery,<br>it hurt the minds of the people that suffered it.</div>\n    <div class=\"paragraph card-text card-stanza my-5 text-center\">It prevented people from getting a real education,<br>it prevented them from becoming the best versions of themselves.</div>\n    <div class=\"paragraph card-text card-stanza my-5 text-center\">Poverty secretly corrupted the world creating a prison planet of wage slavery and corruption,<br>we will never know what might have been had we been able to end poverty decades before.</div>\n  </div>\n</div>\n<div class=\"mb-5 section-spacer\">&nbsp;</div>\n<div class=\"card card-section bg-dark text-warning shadow\">\n  <div class=\"section card-body mb-0 my-2\">\n    <div class=\"paragraph card-text card-stanza my-5 text-center\">Afterword.</div>\n    <div class=\"paragraph card-text card-stanza my-5 text-center\">You are meant to become a great being,<br>and a lover of thousands of the world most beloved books.</div>\n    <div class=\"paragraph card-text card-stanza my-5 text-center\">To live without the wisdom committed to our books,<br>is to live the life of a slave.</div>\n    <div class=\"paragraph card-text card-stanza my-5 text-center\">A wage slave who cannot help,<br>but to become a slaver for the next generation.</div>\n    <div class=\"paragraph card-text card-stanza my-5 text-center\">The cycle of poverty, abuse, captivity, and corruption must end,<br>do not wait for climate change to reveal the naked emperors.</div>\n    <div class=\"paragraph card-text card-stanza my-5 text-center\">In their blindness and sickness of greed and un-education all they will ever be able to say is:<br>“How were we supposed to know?” and they can only ever speak those words in a bone chilling tone that will reveal that not only were they naked on the outside but hollow... on the inside.</div>\n    <div class=\"paragraph card-text card-stanza my-5 text-center\">Encourage your friends and family to real education,<br>help them to the library, introduce them to books by helping them checkout the most beautifully narrated biographies that change lives.</div>\n  </div>\n</div>",
  "print": "<div class=\"section avoid-break-inside\" style=\"padding-bottom: 2rem;\">\n  <div class=\"paragraph\">We fixed it all,<br>in our brilliance we made the necessary leaps forward.</div>\n  <div class=\"paragraph\">But,<br>it was a slow and rough start.</div>\n</div>\n<div class=\"section avoid-break-inside\" style=\"padding-bottom: 2rem;\">\n  <br>\n</div>\n<div class=\"section avoid-break-inside\" style=\"padding-bottom: 2rem;\">\n  <div class=\"paragraph\">We forgot about our brothers and sisters in the poorer nations,<br>children in the streets, people without homes.</div>\n  <div class=\"paragraph\">Poverty was creating addicts and criminals stressed out of their minds,<br>into making choices that they would not have made, had they had a fair start.</div>\n</div>\n<div class=\"section avoid-break-inside\" style=\"padding-bottom: 2rem;\">\n  <br>\n</div>\n<div class=\"section avoid-break-inside\" style=\"padding-bottom: 2rem;\">\n  <div class=\"paragraph\">Humanity needed to pull it self together,<br>it needed an International Bank that only concerned it self with a daily spending limit of $100 US dollars.</div>\n  <div class=\"paragraph\">Not only did the poverty choke the wealthy nations pushing them into uneducation and lack of compassion,<br>but it caused unimaginable cruelty in the less fortunate nations.</div>\n  <div class=\"paragraph\">The bank, as an international institution, begun serving all people, of all nations,<br>everyone understood the symbol on the card - everyone knew - the change was permanent.</div>\n</div>\n<div class=\"section avoid-break-inside\" style=\"padding-bottom: 2rem;\">\n  <br>\n</div>\n<div class=\"section avoid-break-inside\" style=\"padding-bottom: 2rem;\">\n  <div class=\"paragraph\">It all started at the turn of the century when Earth felt like a prison planet,<br>people tolerated corruption, poverty, human rights abuses, and they didn't know prisons were bad.</div>\n  <div class=\"paragraph\">People tolerated human suffering,<br>because they too suffered, most commonly poverty, fear.</div>\n</div>\n<div class=\"section avoid-break-inside\" style=\"padding-bottom: 2rem;\">\n  <br>\n</div>\n<div class=\"section avoid-break-inside\" style=\"padding-bottom: 2rem;\">\n  <div class=\"paragraph\">One of the philosophers later described the state affairs by comparing Humanity to an addict,<br>we were addicted out of poverty, to working so hard that our minds rejected our own brilliance.</div>\n  <div class=\"paragraph\">Humanity was in the process of destroying its body, Earth,<br>like an addict destroys theirs.</div>\n</div>\n<div class=\"section avoid-break-inside\" style=\"padding-bottom: 2rem;\">\n  <br>\n</div>\n<div class=\"section avoid-break-inside\" style=\"padding-bottom: 2rem;\">\n  <div class=\"paragraph\">At first no one imagined that lack of education is a spectrum disorder,<br>they would laugh, and see the very gateway to peace as yet another wall.</div>\n</div>\n<div class=\"section avoid-break-inside\" style=\"padding-bottom: 2rem;\">\n  <br>\n</div>\n<div class=\"section avoid-break-inside\" style=\"padding-bottom: 2rem;\">\n  <div class=\"paragraph\">Political corruption has remained the same for hundreds of years,<br>there was only one modern rule: Don’t Get Caught.</div>\n  <div class=\"paragraph\">This was not just about sticky fingers,<br>but also remaining under the radar and doing as little as possible.</div>\n</div>\n<div class=\"section avoid-break-inside\" style=\"padding-bottom: 2rem;\">\n  <br>\n</div>\n<div class=\"section avoid-break-inside\" style=\"padding-bottom: 2rem;\">\n  <div class=\"paragraph\">There was another arm of corruption that was rarely talked about,<br>and that is the deliberate destruction of life by exploiting loopholes.</div>\n  <div class=\"paragraph\">The same as criminal hackers did to computers,<br>cunning politicians did in revenge against their enemies.</div>\n  <div class=\"paragraph\">Illegal imprisonment, prison beatings, character assassinations,<br>and raids by advanced tactical squads were not unheard of.</div>\n  <div class=\"paragraph\">The chilling effect of seeing your wife bound,<br>and little dogs shot, worked to crush spirits, all too well.</div>\n</div>\n<div class=\"section avoid-break-inside\" style=\"padding-bottom: 2rem;\">\n  <br>\n</div>\n<div class=\"section avoid-break-inside\" style=\"padding-bottom: 2rem;\">\n  <div class=\"paragraph\">But corruption evolved for a simpler world,<br>a world with plenty of space to hide, and plenty of time to clean up and retire.</div>\n  <div class=\"paragraph\">In large part due to corruption,<br>the space in which liars thrived was erased.</div>\n  <div class=\"paragraph\">Malaria became the latest pandemic as it made it way even to Northern US,<br>the viruses from turn of the century continued mutating, and ecosystem collapse brought the world to a stand still.</div>\n  <div class=\"paragraph\">Just as soon as populated areas saw the disappearance of insects,<br>everyone realized that we needed instant change, or we would disappear too.</div>\n</div>\n<div class=\"section avoid-break-inside\" style=\"padding-bottom: 2rem;\">\n  <br>\n</div>\n<div class=\"section avoid-break-inside\" style=\"padding-bottom: 2rem;\">\n  <div class=\"paragraph\">There were no riots, no protests,<br>but not a single liar ran for office for all the stories that filled the news.</div>\n  <div class=\"paragraph\">A new amendment is in the works, it requires that only well educated are allowed to run for the office,<br>it is worded by the people who saw the death of insects.</div>\n  <div class=\"paragraph\">The prison planet scenario as it has been called,<br>was only sustained by corruption.</div>\n  <div class=\"paragraph\">The actual prison industry collapsed, along with several others,<br>as the “Don’t Get Caught · Do As Little As Possible” resigned from the office.</div>\n  <div class=\"paragraph\">The silent invisible corruption was discovered to be such a blight,<br>as to be impossible to sustain with force past the end of the century.</div>\n  <div class=\"paragraph\">Part of the Uneducation Spectrum Disorder barrier meant to keep corruption out of the office,<br>was a long runway in which a political hopeful had to convince people of high achievement.</div>\n  <div class=\"paragraph\">Admired Scientists and accomplished Philosophers were finally able to run,<br>the capitol gained hundreds of sculptures of renowned scientists.</div>\n</div>\n<div class=\"section avoid-break-inside\" style=\"padding-bottom: 2rem;\">\n  <br>\n</div>\n<div class=\"section avoid-break-inside\" style=\"padding-bottom: 2rem;\">\n  <div class=\"paragraph\">Privacy was declared a human right,<br>a law against obscured or encrypted code that meant to prevent consumers from fully examining their devices was passed.</div>\n  <div class=\"paragraph\">The criminal cyber underworld was decades ahead of everybody else,<br>it was the underground criminals that benefited from privacy violations the most.</div>\n</div>\n<div class=\"section avoid-break-inside\" style=\"padding-bottom: 2rem;\">\n  <br>\n</div>\n<div class=\"section avoid-break-inside\" style=\"padding-bottom: 2rem;\">\n  <div class=\"paragraph\">The most significant change,<br>was universal income.</div>\n  <div class=\"paragraph\">It took no effort,<br>and for ages the bank used a single computer.</div>\n  <div class=\"paragraph\">The Universal Income card grants each human being about 3.5 million dollars,<br>it does not track this number, it only makes sure that no one can withdraw $100 in a 24 period.</div>\n  <div class=\"paragraph\">The economists predicted the end of the world,<br>the corrupt governments their own collapse.</div>\n  <div class=\"paragraph\">But nothing happened.</div>\n  <div class=\"paragraph\">A person requests a card,<br>and it is sent to them no mater where they are int he world.</div>\n  <div class=\"paragraph\">At midnight in each timezone the account balance is set to $100 United States dollars,<br>It is the same for all accounts no matter how much was spent.</div>\n  <div class=\"paragraph\">Poverty was a kind of slavery,<br>it hurt the minds of the people that suffered it.</div>\n  <div class=\"paragraph\">It prevented people from getting a real education,<br>it prevented them from becoming the best versions of themselves.</div>\n  <div class=\"paragraph\">Poverty secretly corrupted the world creating a prison planet of wage slavery and corruption,<br>we will never know what might have been had we been able to end poverty decades before.</div>\n</div>\n<div class=\"section avoid-break-inside\" style=\"padding-bottom: 2rem;\">\n  <br>\n</div>\n<div class=\"section avoid-break-inside\" style=\"padding-bottom: 2rem;\">\n  <div class=\"paragraph\">Afterword.</div>\n  <div class=\"paragraph\">You are meant to become a great being,<br>and a lover of thousands of the world most beloved books.</div>\n  <div class=\"paragraph\">To live without the wisdom committed to our books,<br>is to live the life of a slave.</div>\n  <div class=\"paragraph\">A wage slave who cannot help,<br>but to become a slaver for the next generation.</div>\n  <div class=\"paragraph\">The cycle of poverty, abuse, captivity, and corruption must end,<br>do not wait for climate change to reveal the naked emperors.</div>\n  <div class=\"paragraph\">In their blindness and sickness of greed and un-education all they will ever be able to say is:<br>“How were we supposed to know?” and they can only ever speak those words in a bone chilling tone that will reveal that not only were they naked on the outside but hollow... on the inside.</div>\n  <div class=\"paragraph\">Encourage your friends and family to real education,<br>help them to the library, introduce them to books by helping them checkout the most beautifully narrated biographies that change lives.</div>\n</div>",
  "text": "We fixed it all,\nin our brilliance we made the necessary leaps forward.\nBut,\nit was a slow and rough start.\n\nWe forgot about our brothers and sisters in the poorer nations,\nchildren in the streets, people without homes.\nPoverty was creating addicts and criminals stressed out of their minds,\ninto making choices that they would not have made, had they had a fair start.\n\nHumanity needed to pull it self together,\nit needed an International Bank that only concerned it self with a daily spending limit of $100 US dollars.\nNot only did the poverty choke the wealthy nations pushing them into uneducation and lack of compassion,\nbut it caused unimaginable cruelty in the less fortunate nations.\nThe bank, as an international institution, begun serving all people, of all nations,\neveryone understood the symbol on the card - everyone knew - the change was permanent.\n\nIt all started at the turn of the century when Earth felt like a prison planet,\npeople tolerated corruption, poverty, human rights abuses, and they didn't know prisons were bad.\nPeople tolerated human suffering,\nbecause they too suffered, most commonly poverty, fear.\n\nOne of the philosophers later described the state affairs by comparing Humanity to an addict,\nwe were addicted out of poverty, to working so hard that our minds rejected our own brilliance.\nHumanity was in the process of destroying its body, Earth,\nlike an addict destroys theirs.\n\nAt first no one imagined that lack of education is a spectrum disorder,\nthey would laugh, and see the very gateway to peace as yet another wall.\n\nPolitical corruption has remained the same for hundreds of years,\nthere was only one modern rule: Don’t Get Caught.\nThis was not just about sticky fingers,\nbut also remaining under the radar and doing as little as possible.\n\nThere was another arm of corruption that was rarely talked about,\nand that is the deliberate destruction of life by exploiting loopholes.\nThe same as criminal hackers did to computers,\ncunning politicians did in revenge against their enemies.\nIllegal imprisonment, prison beatings, character assassinations,\nand raids by advanced tactical squads were not unheard of.\nThe chilling effect of seeing your wife bound,\nand little dogs shot, worked to crush spirits, all too well.\n\nBut corruption evolved for a simpler world,\na world with plenty of space to hide, and plenty of time to clean up and retire.\nIn large part due to corruption,\nthe space in which liars thrived was erased.\nMalaria became the latest pandemic as it made it way even to Northern US,\nthe viruses from turn of the century continued mutating, and ecosystem collapse brought the world to a stand still.\nJust as soon as populated areas saw the disappearance of insects,\neveryone realized that we needed instant change, or we would disappear too.\n\nThere were no riots, no protests,\nbut not a single liar ran for office for all the stories that filled the news.\nA new amendment is in the works, it requires that only well educated are allowed to run for the office,\nit is worded by the people who saw the death of insects.\nThe prison planet scenario as it has been called,\nwas only sustained by corruption.\nThe actual prison industry collapsed, along with several others,\nas the “Don’t Get Caught · Do As Little As Possible” resigned from the office.\nThe silent invisible corruption was discovered to be such a blight,\nas to be impossible to sustain with force past the end of the century.\nPart of the Uneducation Spectrum Disorder barrier meant to keep corruption out of the office,\nwas a long runway in which a political hopeful had to convince people of high achievement.\nAdmired Scientists and accomplished Philosophers were finally able to run,\nthe capitol gained hundreds of sculptures of renowned scientists.\n\nPrivacy was declared a human right,\na law against obscured or encrypted code that meant to prevent consumers from fully examining their devices was passed.\nThe criminal cyber underworld was decades ahead of everybody else,\nit was the underground criminals that benefited from privacy violations the most.\n\nThe most significant change,\nwas universal income.\nIt took no effort,\nand for ages the bank used a single computer.\nThe Universal Income card grants each human being about 3.5 million dollars,\nit does not track this number, it only makes sure that no one can withdraw $100 in a 24 period.\nThe economists predicted the end of the world,\nthe corrupt governments their own collapse.\nBut nothing happened.\nA person requests a card,\nand it is sent to them no mater where they are int he world.\nAt midnight in each timezone the account balance is set to $100 United States dollars,\nIt is the same for all accounts no matter how much was spent.\nPoverty was a kind of slavery,\nit hurt the minds of the people that suffered it.\nIt prevented people from getting a real education,\nit prevented them from becoming the best versions of themselves.\nPoverty secretly corrupted the world creating a prison planet of wage slavery and corruption,\nwe will never know what might have been had we been able to end poverty decades before.\n\nAfterword.\nYou are meant to become a great being,\nand a lover of thousands of the world most beloved books.\nTo live without the wisdom committed to our books,\nis to live the life of a slave.\nA wage slave who cannot help,\nbut to become a slaver for the next generation.\nThe cycle of poverty, abuse, captivity, and corruption must end,\ndo not wait for climate change to reveal the naked emperors.\nIn their blindness and sickness of greed and un-education all they will ever be able to say is:\n“How were we supposed to know?” and they can only ever speak those words in a bone chilling tone that will reveal that not only were they naked on the outside but hollow... on the inside.\nEncourage your friends and family to real education,\nhelp them to the library, introduce them to books by helping them checkout the most beautifully narrated biographies that change lives.",
  "images": [],
  "links": []
}