{
  "id": "furkies-purrkies-poetry-0905",
  "title": "Capturing Portraits; Or, A Person's Appearance Is Sacred",
  "date": "2022-08-23T01:46:55.663Z",
  "image": "poetry-0905-illustration.jpg",
  "artwork": "https://catpea.com",
  "audio": "poetry-0905.mp3",
  "guid": "fe3e5fe4-f337-4988-91df-84a7c960a8a9"
}
