{
  "id": "furkies-purrkies-poetry-0686",
  "title": "A Beautiful Work Of Art",
  "date": "2022-01-16T02:21:30.109Z",
  "image": "poetry-0686-illustration.jpg",
  "artwork": "https://unsplash.com/photos/wXYggdVFeQI",
  "audio": "poetry-0686.mp3",
  "guid": "822f265b-1249-4537-a50a-83cae6fe1405"
}
