{
  "title": "Brilliance and Enlightenment",
  "date": "2020-06-29T03:34:49.241Z",
  "image": "poetry-0121-illustration.jpg",
  "audio": "poetry-0121.mp3",
  "id": "furkies-purrkies-poetry-0121",
  "attachments": {},
  "guid": "d5e8c047-a194-4f8e-85ab-d9a29eabcf2e"
}
