{
  "name": "furkies-purrkies-poetry-0483",
  "id": "furkies-purrkies-poetry-0483",
  "title": "To Fix The World",
  "date": "2021-06-27T01:13:03.213Z",
  "image": "poetry-0483-illustration.jpg",
  "artwork": "https://unsplash.com/photos/s4aOPAJ4v0E",
  "audio": "poetry-0483.mp3",
  "guid": "88e5e461-f549-430b-a92a-2c416a639305",
  "html": "<div class=\"section\">\n  <p>If laws are like source code,<br>and politics of a nation is like a running program.</p>\n  <p>Then, the source code can be modified,<br>to eliminate poverty, mass incarceration, unfairness, and fake education.</p>\n  <p>Living within this fine program would grant us greater meaning,<br>as we could spend more time on learning, on helping the world.</p>\n  <p>Some may wish to know, why are we delaying,<br>why can't we bring that fair, more meaningful world, into existence now.</p>\n</div>\n<div class=\"section\">\n  <hr>\n</div>\n<div class=\"section\">\n  <p>We have that little problem of following authority without question,<br>we have a tendency to inherit the culture we grew up into without question.</p>\n  <p>This means that a lot of people may not know there is a problem,<br>they accept meaningless suffering as part of existence.</p>\n  <p>There will say \"what are you going to do about it?\", or,<br>\"You can't change the way things are\".</p>\n  <p>Seeing that there is a problem,<br>requires real education.</p>\n</div>\n<div class=\"section\">\n  <hr>\n</div>\n<div class=\"section\">\n  <p>Once we do cross into the more advanced world,<br>prevention of ineffective or fake education will be very important.</p>\n  <p>Just like we are confused by the primitive lifestyles of the middle ages,<br>the more advanced Earth Civilization will be confused by us.</p>\n  <p>Even if we can't see that our education in ineffective,<br>we can still feel the problem of unfairness in the back of our mind.</p>\n  <p>The future will explain our cultures as lacking in education,<br>as being crushed by poverty and politics of our own making.</p>\n</div>\n<div class=\"section\">\n  <hr>\n</div>\n<div class=\"section\">\n  <p>The nations of the world can't change the laws,<br>because their people are still growing up to see that there is a fixable problem.</p>\n  <p>We can accelerate the time it will take the world to grow up,<br>by accepting the responsibility for our own education.</p>\n  <p>By finding ways to make \"the gift of words on paper\",<br>easier to learn from, easier to understand with narrated versions and interactive lectures and info-graphics.</p>\n  <p>First we self educate,<br>and then turn right around and build the new Universities the World Needs.</p>\n</div>\n<div class=\"section\">\n  <hr>\n</div>\n<div class=\"section\">\n  <p>The whole world can only change for better,<br>when all its people become wiser.</p>\n  <p>No wrong doers, or misery worshipers, or those who feed on the poor,<br>can stop wise ideas that have permeated the people.</p>\n  <p>The only way this change can come about,<br>is by people accepting responsibility for their own education.</p>\n  <p>By understanding \"the gift of words on paper\", and the importance of fine unending self education.<br>Our lives will become more enlightened by Knowledge, Wisdom and Greatness.</p>\n</div>\n<div class=\"section\">\n  <hr>\n</div>\n<div class=\"section\">\n  <p>Our struggles will become more meaningful when we dedicate some part of our daily efforts<br>to encouraging to self education and thus help humanity grow.</p>\n  <p>There is no such thing as a nerd, or book worm,<br>these labels mark the stages of someone's struggle to understanding.</p>\n  <p>To growing all the way up to become an Intellectual, a Visionary, and or an Inspiration,<br>aging on the other hand has little to do with growing up.</p>\n  <p>While there is no graduation, not n end to Real Education,<br>there does come a day - when our journals in hopes of grasping the world - become brilliant.</p>\n</div>\n<div class=\"section\">\n  <hr>\n</div>\n<div class=\"section\">\n  <p>The first step is understanding, to get there we need Real Education,<br>and no education can be made more real, than Independent Self Education just at the right time, pace and in the correct sequence.</p>\n  <p>Let us all take that first step to making the world a more meaningful place for all the future generations,<br>by making room for, and reading non0fiction books that capture our attention.</p>\n  <p>The way to make meaningful repairs to the world starts with the individual and their independent self education,<br>and then their encouragement for others to do the same.</p>\n  <p>Let us then, take to the great adventure of finding the next set of books that will enlighten our lives for better,<br>that will improve the clarity of our thinking, the grasp on the world as it is today, and a vision of the future that is worth our efforts.</p>\n</div>",
  "bootstrap": "<div class=\"card card-section bg-dark text-warning shadow\">\n  <div class=\"section card-body mb-0 my-2\">\n    <div class=\"paragraph card-text card-stanza my-5 text-center\">If laws are like source code,<br>and politics of a nation is like a running program.</div>\n    <div class=\"paragraph card-text card-stanza my-5 text-center\">Then, the source code can be modified,<br>to eliminate poverty, mass incarceration, unfairness, and fake education.</div>\n    <div class=\"paragraph card-text card-stanza my-5 text-center\">Living within this fine program would grant us greater meaning,<br>as we could spend more time on learning, on helping the world.</div>\n    <div class=\"paragraph card-text card-stanza my-5 text-center\">Some may wish to know, why are we delaying,<br>why can't we bring that fair, more meaningful world, into existence now.</div>\n  </div>\n</div>\n<div class=\"mb-5 section-spacer\">&nbsp;</div>\n<div class=\"card card-section bg-dark text-warning shadow\">\n  <div class=\"section card-body mb-0 my-2\">\n    <div class=\"paragraph card-text card-stanza my-5 text-center\">We have that little problem of following authority without question,<br>we have a tendency to inherit the culture we grew up into without question.</div>\n    <div class=\"paragraph card-text card-stanza my-5 text-center\">This means that a lot of people may not know there is a problem,<br>they accept meaningless suffering as part of existence.</div>\n    <div class=\"paragraph card-text card-stanza my-5 text-center\">There will say \"what are you going to do about it?\", or,<br>\"You can't change the way things are\".</div>\n    <div class=\"paragraph card-text card-stanza my-5 text-center\">Seeing that there is a problem,<br>requires real education.</div>\n  </div>\n</div>\n<div class=\"mb-5 section-spacer\">&nbsp;</div>\n<div class=\"card card-section bg-dark text-warning shadow\">\n  <div class=\"section card-body mb-0 my-2\">\n    <div class=\"paragraph card-text card-stanza my-5 text-center\">Once we do cross into the more advanced world,<br>prevention of ineffective or fake education will be very important.</div>\n    <div class=\"paragraph card-text card-stanza my-5 text-center\">Just like we are confused by the primitive lifestyles of the middle ages,<br>the more advanced Earth Civilization will be confused by us.</div>\n    <div class=\"paragraph card-text card-stanza my-5 text-center\">Even if we can't see that our education in ineffective,<br>we can still feel the problem of unfairness in the back of our mind.</div>\n    <div class=\"paragraph card-text card-stanza my-5 text-center\">The future will explain our cultures as lacking in education,<br>as being crushed by poverty and politics of our own making.</div>\n  </div>\n</div>\n<div class=\"mb-5 section-spacer\">&nbsp;</div>\n<div class=\"card card-section bg-dark text-warning shadow\">\n  <div class=\"section card-body mb-0 my-2\">\n    <div class=\"paragraph card-text card-stanza my-5 text-center\">The nations of the world can't change the laws,<br>because their people are still growing up to see that there is a fixable problem.</div>\n    <div class=\"paragraph card-text card-stanza my-5 text-center\">We can accelerate the time it will take the world to grow up,<br>by accepting the responsibility for our own education.</div>\n    <div class=\"paragraph card-text card-stanza my-5 text-center\">By finding ways to make \"the gift of words on paper\",<br>easier to learn from, easier to understand with narrated versions and interactive lectures and info-graphics.</div>\n    <div class=\"paragraph card-text card-stanza my-5 text-center\">First we self educate,<br>and then turn right around and build the new Universities the World Needs.</div>\n  </div>\n</div>\n<div class=\"mb-5 section-spacer\">&nbsp;</div>\n<div class=\"card card-section bg-dark text-warning shadow\">\n  <div class=\"section card-body mb-0 my-2\">\n    <div class=\"paragraph card-text card-stanza my-5 text-center\">The whole world can only change for better,<br>when all its people become wiser.</div>\n    <div class=\"paragraph card-text card-stanza my-5 text-center\">No wrong doers, or misery worshipers, or those who feed on the poor,<br>can stop wise ideas that have permeated the people.</div>\n    <div class=\"paragraph card-text card-stanza my-5 text-center\">The only way this change can come about,<br>is by people accepting responsibility for their own education.</div>\n    <div class=\"paragraph card-text card-stanza my-5 text-center\">By understanding \"the gift of words on paper\", and the importance of fine unending self education.<br>Our lives will become more enlightened by Knowledge, Wisdom and Greatness.</div>\n  </div>\n</div>\n<div class=\"mb-5 section-spacer\">&nbsp;</div>\n<div class=\"card card-section bg-dark text-warning shadow\">\n  <div class=\"section card-body mb-0 my-2\">\n    <div class=\"paragraph card-text card-stanza my-5 text-center\">Our struggles will become more meaningful when we dedicate some part of our daily efforts<br>to encouraging to self education and thus help humanity grow.</div>\n    <div class=\"paragraph card-text card-stanza my-5 text-center\">There is no such thing as a nerd, or book worm,<br>these labels mark the stages of someone's struggle to understanding.</div>\n    <div class=\"paragraph card-text card-stanza my-5 text-center\">To growing all the way up to become an Intellectual, a Visionary, and or an Inspiration,<br>aging on the other hand has little to do with growing up.</div>\n    <div class=\"paragraph card-text card-stanza my-5 text-center\">While there is no graduation, not n end to Real Education,<br>there does come a day - when our journals in hopes of grasping the world - become brilliant.</div>\n  </div>\n</div>\n<div class=\"mb-5 section-spacer\">&nbsp;</div>\n<div class=\"card card-section bg-dark text-warning shadow\">\n  <div class=\"section card-body mb-0 my-2\">\n    <div class=\"paragraph card-text card-stanza my-5 text-center\">The first step is understanding, to get there we need Real Education,<br>and no education can be made more real, than Independent Self Education just at the right time, pace and in the correct sequence.</div>\n    <div class=\"paragraph card-text card-stanza my-5 text-center\">Let us all take that first step to making the world a more meaningful place for all the future generations,<br>by making room for, and reading non0fiction books that capture our attention.</div>\n    <div class=\"paragraph card-text card-stanza my-5 text-center\">The way to make meaningful repairs to the world starts with the individual and their independent self education,<br>and then their encouragement for others to do the same.</div>\n    <div class=\"paragraph card-text card-stanza my-5 text-center\">Let us then, take to the great adventure of finding the next set of books that will enlighten our lives for better,<br>that will improve the clarity of our thinking, the grasp on the world as it is today, and a vision of the future that is worth our efforts.</div>\n  </div>\n</div>",
  "print": "<div class=\"section avoid-break-inside\" style=\"padding-bottom: 2rem;\">\n  <div class=\"paragraph\">If laws are like source code,<br>and politics of a nation is like a running program.</div>\n  <div class=\"paragraph\">Then, the source code can be modified,<br>to eliminate poverty, mass incarceration, unfairness, and fake education.</div>\n  <div class=\"paragraph\">Living within this fine program would grant us greater meaning,<br>as we could spend more time on learning, on helping the world.</div>\n  <div class=\"paragraph\">Some may wish to know, why are we delaying,<br>why can't we bring that fair, more meaningful world, into existence now.</div>\n</div>\n<div class=\"section avoid-break-inside\" style=\"padding-bottom: 2rem;\">\n  <br>\n</div>\n<div class=\"section avoid-break-inside\" style=\"padding-bottom: 2rem;\">\n  <div class=\"paragraph\">We have that little problem of following authority without question,<br>we have a tendency to inherit the culture we grew up into without question.</div>\n  <div class=\"paragraph\">This means that a lot of people may not know there is a problem,<br>they accept meaningless suffering as part of existence.</div>\n  <div class=\"paragraph\">There will say \"what are you going to do about it?\", or,<br>\"You can't change the way things are\".</div>\n  <div class=\"paragraph\">Seeing that there is a problem,<br>requires real education.</div>\n</div>\n<div class=\"section avoid-break-inside\" style=\"padding-bottom: 2rem;\">\n  <br>\n</div>\n<div class=\"section avoid-break-inside\" style=\"padding-bottom: 2rem;\">\n  <div class=\"paragraph\">Once we do cross into the more advanced world,<br>prevention of ineffective or fake education will be very important.</div>\n  <div class=\"paragraph\">Just like we are confused by the primitive lifestyles of the middle ages,<br>the more advanced Earth Civilization will be confused by us.</div>\n  <div class=\"paragraph\">Even if we can't see that our education in ineffective,<br>we can still feel the problem of unfairness in the back of our mind.</div>\n  <div class=\"paragraph\">The future will explain our cultures as lacking in education,<br>as being crushed by poverty and politics of our own making.</div>\n</div>\n<div class=\"section avoid-break-inside\" style=\"padding-bottom: 2rem;\">\n  <br>\n</div>\n<div class=\"section avoid-break-inside\" style=\"padding-bottom: 2rem;\">\n  <div class=\"paragraph\">The nations of the world can't change the laws,<br>because their people are still growing up to see that there is a fixable problem.</div>\n  <div class=\"paragraph\">We can accelerate the time it will take the world to grow up,<br>by accepting the responsibility for our own education.</div>\n  <div class=\"paragraph\">By finding ways to make \"the gift of words on paper\",<br>easier to learn from, easier to understand with narrated versions and interactive lectures and info-graphics.</div>\n  <div class=\"paragraph\">First we self educate,<br>and then turn right around and build the new Universities the World Needs.</div>\n</div>\n<div class=\"section avoid-break-inside\" style=\"padding-bottom: 2rem;\">\n  <br>\n</div>\n<div class=\"section avoid-break-inside\" style=\"padding-bottom: 2rem;\">\n  <div class=\"paragraph\">The whole world can only change for better,<br>when all its people become wiser.</div>\n  <div class=\"paragraph\">No wrong doers, or misery worshipers, or those who feed on the poor,<br>can stop wise ideas that have permeated the people.</div>\n  <div class=\"paragraph\">The only way this change can come about,<br>is by people accepting responsibility for their own education.</div>\n  <div class=\"paragraph\">By understanding \"the gift of words on paper\", and the importance of fine unending self education.<br>Our lives will become more enlightened by Knowledge, Wisdom and Greatness.</div>\n</div>\n<div class=\"section avoid-break-inside\" style=\"padding-bottom: 2rem;\">\n  <br>\n</div>\n<div class=\"section avoid-break-inside\" style=\"padding-bottom: 2rem;\">\n  <div class=\"paragraph\">Our struggles will become more meaningful when we dedicate some part of our daily efforts<br>to encouraging to self education and thus help humanity grow.</div>\n  <div class=\"paragraph\">There is no such thing as a nerd, or book worm,<br>these labels mark the stages of someone's struggle to understanding.</div>\n  <div class=\"paragraph\">To growing all the way up to become an Intellectual, a Visionary, and or an Inspiration,<br>aging on the other hand has little to do with growing up.</div>\n  <div class=\"paragraph\">While there is no graduation, not n end to Real Education,<br>there does come a day - when our journals in hopes of grasping the world - become brilliant.</div>\n</div>\n<div class=\"section avoid-break-inside\" style=\"padding-bottom: 2rem;\">\n  <br>\n</div>\n<div class=\"section avoid-break-inside\" style=\"padding-bottom: 2rem;\">\n  <div class=\"paragraph\">The first step is understanding, to get there we need Real Education,<br>and no education can be made more real, than Independent Self Education just at the right time, pace and in the correct sequence.</div>\n  <div class=\"paragraph\">Let us all take that first step to making the world a more meaningful place for all the future generations,<br>by making room for, and reading non0fiction books that capture our attention.</div>\n  <div class=\"paragraph\">The way to make meaningful repairs to the world starts with the individual and their independent self education,<br>and then their encouragement for others to do the same.</div>\n  <div class=\"paragraph\">Let us then, take to the great adventure of finding the next set of books that will enlighten our lives for better,<br>that will improve the clarity of our thinking, the grasp on the world as it is today, and a vision of the future that is worth our efforts.</div>\n</div>",
  "text": "If laws are like source code,\nand politics of a nation is like a running program.\nThen, the source code can be modified,\nto eliminate poverty, mass incarceration, unfairness, and fake education.\nLiving within this fine program would grant us greater meaning,\nas we could spend more time on learning, on helping the world.\nSome may wish to know, why are we delaying,\nwhy can't we bring that fair, more meaningful world, into existence now.\n\nWe have that little problem of following authority without question,\nwe have a tendency to inherit the culture we grew up into without question.\nThis means that a lot of people may not know there is a problem,\nthey accept meaningless suffering as part of existence.\nThere will say \"what are you going to do about it?\", or,\n\"You can't change the way things are\".\nSeeing that there is a problem,\nrequires real education.\n\nOnce we do cross into the more advanced world,\nprevention of ineffective or fake education will be very important.\nJust like we are confused by the primitive lifestyles of the middle ages,\nthe more advanced Earth Civilization will be confused by us.\nEven if we can't see that our education in ineffective,\nwe can still feel the problem of unfairness in the back of our mind.\nThe future will explain our cultures as lacking in education,\nas being crushed by poverty and politics of our own making.\n\nThe nations of the world can't change the laws,\nbecause their people are still growing up to see that there is a fixable problem.\nWe can accelerate the time it will take the world to grow up,\nby accepting the responsibility for our own education.\nBy finding ways to make \"the gift of words on paper\",\neasier to learn from, easier to understand with narrated versions and interactive lectures and info-graphics.\nFirst we self educate,\nand then turn right around and build the new Universities the World Needs.\n\nThe whole world can only change for better,\nwhen all its people become wiser.\nNo wrong doers, or misery worshipers, or those who feed on the poor,\ncan stop wise ideas that have permeated the people.\nThe only way this change can come about,\nis by people accepting responsibility for their own education.\nBy understanding \"the gift of words on paper\", and the importance of fine unending self education.\nOur lives will become more enlightened by Knowledge, Wisdom and Greatness.\n\nOur struggles will become more meaningful when we dedicate some part of our daily efforts\nto encouraging to self education and thus help humanity grow.\nThere is no such thing as a nerd, or book worm,\nthese labels mark the stages of someone's struggle to understanding.\nTo growing all the way up to become an Intellectual, a Visionary, and or an Inspiration,\naging on the other hand has little to do with growing up.\nWhile there is no graduation, not n end to Real Education,\nthere does come a day - when our journals in hopes of grasping the world - become brilliant.\n\nThe first step is understanding, to get there we need Real Education,\nand no education can be made more real, than Independent Self Education just at the right time, pace and in the correct sequence.\nLet us all take that first step to making the world a more meaningful place for all the future generations,\nby making room for, and reading non0fiction books that capture our attention.\nThe way to make meaningful repairs to the world starts with the individual and their independent self education,\nand then their encouragement for others to do the same.\nLet us then, take to the great adventure of finding the next set of books that will enlighten our lives for better,\nthat will improve the clarity of our thinking, the grasp on the world as it is today, and a vision of the future that is worth our efforts.",
  "images": [],
  "links": []
}