{
  "id": "furkies-purrkies-poetry-0714",
  "title": "The Cat Pea Technique: The Digital Portrait Experiment Is A Success",
  "date": "2022-02-13T02:14:47.651Z",
  "image": "poetry-0714-illustration.jpg",
  "artwork": "https://catpea.com",
  "audio": "poetry-0714.mp3",
  "guid": "e73997d9-7bb2-4d10-9239-06e8e69621dc"
}
