[
  {
    "title": "composing your own music with LMMS",
    "url": "https://www.youtube.com/watch?v=0sRvkaxh8EU",
    "hostname": "www.youtube.com"
  },
  {
    "title": "projector above your head in art class",
    "url": "https://www.youtube.com/watch?v=4ZKUKCnkZ6E",
    "hostname": "www.youtube.com"
  },
  {
    "title": "Digital Art is even better",
    "url": "https://www.youtube.com/watch?v=0uCH2z_zLmc",
    "hostname": "www.youtube.com"
  }
]