{
  "id": "furkies-purrkies-poetry-0593",
  "title": "Silliness, Art, And The Universe",
  "date": "2021-10-15T00:44:32.605Z",
  "image": "poetry-0593-illustration.jpg",
  "artwork": "https://unsplash.com/photos/lJJlaUWYrPE",
  "audio": "poetry-0593.mp3",
  "guid": "1ea62452-613a-452c-a906-10be8f317e5f"
}
