{
  "id": "furkies-purrkies-poetry-0928",
  "guid": "9cff0b4f-f984-480f-b419-18ad4db302b0",
  "title": "Art Of Knowledge; Or, School Assesses Your Memorization Because It Cannot Create Comprehension",
  "date": "2022-09-14T17:43:09.834Z",
  "image": "poetry-0928-illustration.jpg",
  "artwork": "https://unsplash.com/photos/UU69D-_nwPI",
  "audio": "poetry-0928.mp3"
}
