{
  "name": "furkies-purrkies-poetry-0423",
  "title": "Withstand And Unite In Knowledge And Wisdom",
  "date": "2021-04-27T22:49:13.531Z",
  "image": "poetry-0423-illustration.jpg",
  "audio": "poetry-0423.mp3",
  "artwork": "https://unsplash.com/photos/yanhwFwyoaU",
  "id": "furkies-purrkies-poetry-0423",
  "attachments": {},
  "guid": "78c87577-fd2b-43da-8f76-e78b72146a62",
  "html": "<div class=\"section\">\n  <p>Conscious life is a magnificent accident on such an impossibly large scale,</p>\n  <p>that it becomes the single most important miracle in the universe.</p>\n</div>\n\n<div class=\"section\">\n  <p>You, I, all the other Earthlings,</p>\n  <p>and all the other conscious life out there: we are the meaning of this universe.</p>\n</div>\n\n<div class=\"section\">\n  <p>We are all connected with this incredible feat of emergence; Consciousness,</p>\n  <p>it does not matter where we come from or how we look - if we can see ourselves - we are Family.</p>\n</div>\n\n<div class=\"section\">\n  <hr>\n</div>\n\n<div class=\"section\">\n  <p>Our minds were crafted by an adaptive process,</p>\n  <p>that step by step, improved on the previous.</p>\n</div>\n\n<div class=\"section\">\n  <p>The steps were not aimed at anything in particular,</p>\n  <p>and are far from perfect.</p>\n</div>\n\n<div class=\"section\">\n  <p>But consciousness is something different,</p>\n  <p>it is not random, it is not a function of mere adaptive mechanics of accidents, and fundamental principles.</p>\n</div>\n\n<div class=\"section\">\n  <hr>\n</div>\n\n<div class=\"section\">\n  <p>Consciousness allows us to deliberately and in foresight, cross the line between mere evolution,</p>\n  <p>onward into Freedom of Will, Love Of Life, and Power of Knowledge, and Light Of Wisdom; and Love, Good Will, and Lasting Peace brought on by Greatness of Vision, Heart and Spirit.</p>\n</div>\n\n\n<div class=\"section\">\n  <hr>\n</div>\n\n<div class=\"section\">\n  <p>But.</p>\n</div>\n\n<div class=\"section\">\n  <hr>\n</div>\n\n<div class=\"section\">\n  <p>We must deliberately aim to <a href=\"https://en.wikipedia.org/wiki/List_of_cognitive_biases\">push away the flaws that the meanderings of nature instilled in us</a>,</p>\n  <p>by the countless accidents of the process of our initial emergence as conscious beings.</p>\n</div>\n\n<div class=\"section\">\n  <p>If we don&apos;t detach,</p>\n  <p>our minds will be held back by racism, xenophobia, nationalism, group-think, fear, hate, and blindness.</p>\n</div>\n\n<div class=\"section\">\n  <p>We will point Nuclear Weapons at each other,</p>\n  <p>and list the flags of our enemies as if it was a checklist for advancement.</p>\n</div>\n\n<div class=\"section\">\n  <p>What may seem like a soap opera news program to the educated,</p>\n  <p>can be perceived as reality and opportunity to the poor, starving or disadvantaged, who did not know to seek real education.</p>\n</div>\n\n<div class=\"section\">\n  <hr>\n</div>\n\n<div class=\"section\">\n  <p>We have introduced a device of deliberate advancement for all Human Beings,</p>\n  <p>that device was supposed to pull us towards a Wiser State of Existence.</p>\n</div>\n\n<div class=\"section\">\n  <p>But its aim was lost, it was an experiment that has never fully reached its goal,</p>\n  <p>and ended up being used by the poor, as means to put food on the table.</p>\n</div>\n\n<div class=\"section\">\n  <p>That noble experiment.</p>\n  <p>was organized education.</p>\n</div>\n\n<div class=\"section\">\n  <p>Today it may cost as much as a million dollars or more and in unforgivable student loans,</p>\n  <p>to become a medical expert.</p>\n</div>\n\n<div class=\"section\">\n  <p>Don&apos;t bother trying to understand why schools failed, there is no time,</p>\n  <p>simply accept the responsibility for your own education, and begin immediately.</p>\n</div>\n\n<div class=\"section\">\n  <hr>\n</div>\n\n<div class=\"section\">\n  <p>There are many flaws in our perception,</p>\n  <p>the biggest one is our tendency to follow leaders.</p>\n</div>\n\n<div class=\"section\">\n  <p>But the act of following, is an act of destruction,</p>\n  <p>we are each to lead, we are never to follow, ever.</p>\n</div>\n\n<div class=\"section\">\n  <hr>\n</div>\n\n<div class=\"section\">\n  <p>Self education by means of reading or listening to books held in high esteem by the world&apos;s most prominent intellectuals,</p>\n  <p>paves the road towards a balanced and enlightened view of the world, and the view of our place in it.</p>\n</div>\n\n<div class=\"section\">\n  <p><a href=\"https://www.youtube.com/watch?v=ljqra3BcqWM\">Lead</a>,</p>\n  <p><a href=\"https://www.youtube.com/watch?v=L7EmLf4Xlq0\">we have followed before, and came all-too-close to the end.</a>.</p>\n</div>\n\n<div class=\"section\">\n  <p>All the people that hate, that want to cause harm, are just ill from lack of growing up, from lack of education,</p>\n  <p>from standing in-place, without ever knowing to reach for books, for wisdom, and for greatness.</p>\n</div>\n\n<div class=\"section\">\n  <p>When we stand in the place that we are born into,</p>\n  <p>we come under the control of the flaws, that consciousness, easily allows us to escape.</p>\n</div>\n\n<div class=\"section\">\n  <hr>\n</div>\n\n<div class=\"section\">\n  <p>You must withstand the culture you are born into, the neighborhood you are born into,</p>\n  <p>the poverty you are born into, be it of mind, or wallet, or both.</p>\n</div>\n\n<div class=\"section\">\n  <p>You must resist the urge of belonging, cheaply and effortlessly,</p>\n  <p>as that is the oldest recruitment mechanism to make a slave - to turn a young person, old and bitter.</p>\n</div>\n\n<div class=\"section\">\n  <hr>\n</div>\n\n<div class=\"section\">\n  <p>This power must not end with you,</p>\n  <p>you have to ignite all the others that you meet in your great adventures.</p>\n</div>\n\n<div class=\"section\">\n  <p>So that the importance of fine and balanced self education,</p>\n  <p>rings around the world.</p>\n</div>\n\n<div class=\"section\">\n  <hr>\n</div>\n\n<div class=\"section\">\n  <p>Not until we are all abloom with Knowledge and Wisdom,</p>\n  <p>will we have time to take to our careers, and retirement, and enjoyment of our golden age.</p>\n</div>\n\n<div class=\"section\">\n  <p>The un-educated world,</p>\n  <p>is not a safe place for all.</p>\n</div>\n\n<div class=\"section\">\n  <p>We need real education,</p>\n  <p>the borders must go.</p>\n</div>\n\n<div class=\"section\">\n  <p>Become an inspiration,</p>\n  <p>may your poetry,</p>\n  <p>never be forgotten.</p>\n</div>",
  "bootstrap": "<div class=\"card card-section bg-dark text-warning shadow\">\n  <div class=\"section card-body mb-0 my-2\">\n    <div class=\"paragraph card-text card-stanza my-5 text-center\">Conscious life is a magnificent accident on such an impossibly large scale,</div>\n    <div class=\"paragraph card-text card-stanza my-5 text-center\">that it becomes the single most important miracle in the universe.</div>\n  </div>\n</div>\n<div class=\"card card-section bg-dark text-warning shadow\">\n  <div class=\"section card-body mb-0 my-2\">\n    <div class=\"paragraph card-text card-stanza my-5 text-center\">You, I, all the other Earthlings,</div>\n    <div class=\"paragraph card-text card-stanza my-5 text-center\">and all the other conscious life out there: we are the meaning of this universe.</div>\n  </div>\n</div>\n<div class=\"card card-section bg-dark text-warning shadow\">\n  <div class=\"section card-body mb-0 my-2\">\n    <div class=\"paragraph card-text card-stanza my-5 text-center\">We are all connected with this incredible feat of emergence; Consciousness,</div>\n    <div class=\"paragraph card-text card-stanza my-5 text-center\">it does not matter where we come from or how we look - if we can see ourselves - we are Family.</div>\n  </div>\n</div>\n<div class=\"mb-5 section-spacer\">&nbsp;</div>\n<div class=\"card card-section bg-dark text-warning shadow\">\n  <div class=\"section card-body mb-0 my-2\">\n    <div class=\"paragraph card-text card-stanza my-5 text-center\">Our minds were crafted by an adaptive process,</div>\n    <div class=\"paragraph card-text card-stanza my-5 text-center\">that step by step, improved on the previous.</div>\n  </div>\n</div>\n<div class=\"card card-section bg-dark text-warning shadow\">\n  <div class=\"section card-body mb-0 my-2\">\n    <div class=\"paragraph card-text card-stanza my-5 text-center\">The steps were not aimed at anything in particular,</div>\n    <div class=\"paragraph card-text card-stanza my-5 text-center\">and are far from perfect.</div>\n  </div>\n</div>\n<div class=\"card card-section bg-dark text-warning shadow\">\n  <div class=\"section card-body mb-0 my-2\">\n    <div class=\"paragraph card-text card-stanza my-5 text-center\">But consciousness is something different,</div>\n    <div class=\"paragraph card-text card-stanza my-5 text-center\">it is not random, it is not a function of mere adaptive mechanics of accidents, and fundamental principles.</div>\n  </div>\n</div>\n<div class=\"mb-5 section-spacer\">&nbsp;</div>\n<div class=\"card card-section bg-dark text-warning shadow\">\n  <div class=\"section card-body mb-0 my-2\">\n    <div class=\"paragraph card-text card-stanza my-5 text-center\">Consciousness allows us to deliberately and in foresight, cross the line between mere evolution,</div>\n    <div class=\"paragraph card-text card-stanza my-5 text-center\">onward into Freedom of Will, Love Of Life, and Power of Knowledge, and Light Of Wisdom; and Love, Good Will, and Lasting Peace brought on by Greatness of Vision, Heart and Spirit.</div>\n  </div>\n</div>\n<div class=\"mb-5 section-spacer\">&nbsp;</div>\n<div class=\"card card-section bg-dark text-warning shadow\">\n  <div class=\"section card-body mb-0 my-2\">\n    <div class=\"paragraph card-text card-stanza my-5 text-center\">But.</div>\n  </div>\n</div>\n<div class=\"mb-5 section-spacer\">&nbsp;</div>\n<div class=\"card card-section bg-dark text-warning shadow\">\n  <div class=\"section card-body mb-0 my-2\">\n    <div class=\"paragraph card-text card-stanza my-5 text-center\">We must deliberately aim to <a href=\"https://en.wikipedia.org/wiki/List_of_cognitive_biases\">push away the flaws that the meanderings of nature instilled in us</a>,</div>\n    <div class=\"paragraph card-text card-stanza my-5 text-center\">by the countless accidents of the process of our initial emergence as conscious beings.</div>\n  </div>\n</div>\n<div class=\"card card-section bg-dark text-warning shadow\">\n  <div class=\"section card-body mb-0 my-2\">\n    <div class=\"paragraph card-text card-stanza my-5 text-center\">If we don't detach,</div>\n    <div class=\"paragraph card-text card-stanza my-5 text-center\">our minds will be held back by racism, xenophobia, nationalism, group-think, fear, hate, and blindness.</div>\n  </div>\n</div>\n<div class=\"card card-section bg-dark text-warning shadow\">\n  <div class=\"section card-body mb-0 my-2\">\n    <div class=\"paragraph card-text card-stanza my-5 text-center\">We will point Nuclear Weapons at each other,</div>\n    <div class=\"paragraph card-text card-stanza my-5 text-center\">and list the flags of our enemies as if it was a checklist for advancement.</div>\n  </div>\n</div>\n<div class=\"card card-section bg-dark text-warning shadow\">\n  <div class=\"section card-body mb-0 my-2\">\n    <div class=\"paragraph card-text card-stanza my-5 text-center\">What may seem like a soap opera news program to the educated,</div>\n    <div class=\"paragraph card-text card-stanza my-5 text-center\">can be perceived as reality and opportunity to the poor, starving or disadvantaged, who did not know to seek real education.</div>\n  </div>\n</div>\n<div class=\"mb-5 section-spacer\">&nbsp;</div>\n<div class=\"card card-section bg-dark text-warning shadow\">\n  <div class=\"section card-body mb-0 my-2\">\n    <div class=\"paragraph card-text card-stanza my-5 text-center\">We have introduced a device of deliberate advancement for all Human Beings,</div>\n    <div class=\"paragraph card-text card-stanza my-5 text-center\">that device was supposed to pull us towards a Wiser State of Existence.</div>\n  </div>\n</div>\n<div class=\"card card-section bg-dark text-warning shadow\">\n  <div class=\"section card-body mb-0 my-2\">\n    <div class=\"paragraph card-text card-stanza my-5 text-center\">But its aim was lost, it was an experiment that has never fully reached its goal,</div>\n    <div class=\"paragraph card-text card-stanza my-5 text-center\">and ended up being used by the poor, as means to put food on the table.</div>\n  </div>\n</div>\n<div class=\"card card-section bg-dark text-warning shadow\">\n  <div class=\"section card-body mb-0 my-2\">\n    <div class=\"paragraph card-text card-stanza my-5 text-center\">That noble experiment.</div>\n    <div class=\"paragraph card-text card-stanza my-5 text-center\">was organized education.</div>\n  </div>\n</div>\n<div class=\"card card-section bg-dark text-warning shadow\">\n  <div class=\"section card-body mb-0 my-2\">\n    <div class=\"paragraph card-text card-stanza my-5 text-center\">Today it may cost as much as a million dollars or more and in unforgivable student loans,</div>\n    <div class=\"paragraph card-text card-stanza my-5 text-center\">to become a medical expert.</div>\n  </div>\n</div>\n<div class=\"card card-section bg-dark text-warning shadow\">\n  <div class=\"section card-body mb-0 my-2\">\n    <div class=\"paragraph card-text card-stanza my-5 text-center\">Don't bother trying to understand why schools failed, there is no time,</div>\n    <div class=\"paragraph card-text card-stanza my-5 text-center\">simply accept the responsibility for your own education, and begin immediately.</div>\n  </div>\n</div>\n<div class=\"mb-5 section-spacer\">&nbsp;</div>\n<div class=\"card card-section bg-dark text-warning shadow\">\n  <div class=\"section card-body mb-0 my-2\">\n    <div class=\"paragraph card-text card-stanza my-5 text-center\">There are many flaws in our perception,</div>\n    <div class=\"paragraph card-text card-stanza my-5 text-center\">the biggest one is our tendency to follow leaders.</div>\n  </div>\n</div>\n<div class=\"card card-section bg-dark text-warning shadow\">\n  <div class=\"section card-body mb-0 my-2\">\n    <div class=\"paragraph card-text card-stanza my-5 text-center\">But the act of following, is an act of destruction,</div>\n    <div class=\"paragraph card-text card-stanza my-5 text-center\">we are each to lead, we are never to follow, ever.</div>\n  </div>\n</div>\n<div class=\"mb-5 section-spacer\">&nbsp;</div>\n<div class=\"card card-section bg-dark text-warning shadow\">\n  <div class=\"section card-body mb-0 my-2\">\n    <div class=\"paragraph card-text card-stanza my-5 text-center\">Self education by means of reading or listening to books held in high esteem by the world's most prominent intellectuals,</div>\n    <div class=\"paragraph card-text card-stanza my-5 text-center\">paves the road towards a balanced and enlightened view of the world, and the view of our place in it.</div>\n  </div>\n</div>\n<div class=\"card card-section bg-dark text-warning shadow\">\n  <div class=\"section card-body mb-0 my-2\">\n    <div class=\"paragraph card-text card-stanza my-5 text-center\"><a href=\"https://www.youtube.com/watch?v=ljqra3BcqWM\">Lead</a>,</div>\n    <div class=\"paragraph card-text card-stanza my-5 text-center\"><a href=\"https://www.youtube.com/watch?v=L7EmLf4Xlq0\">we have followed before, and came all-too-close to the end.</a>.</div>\n  </div>\n</div>\n<div class=\"card card-section bg-dark text-warning shadow\">\n  <div class=\"section card-body mb-0 my-2\">\n    <div class=\"paragraph card-text card-stanza my-5 text-center\">All the people that hate, that want to cause harm, are just ill from lack of growing up, from lack of education,</div>\n    <div class=\"paragraph card-text card-stanza my-5 text-center\">from standing in-place, without ever knowing to reach for books, for wisdom, and for greatness.</div>\n  </div>\n</div>\n<div class=\"card card-section bg-dark text-warning shadow\">\n  <div class=\"section card-body mb-0 my-2\">\n    <div class=\"paragraph card-text card-stanza my-5 text-center\">When we stand in the place that we are born into,</div>\n    <div class=\"paragraph card-text card-stanza my-5 text-center\">we come under the control of the flaws, that consciousness, easily allows us to escape.</div>\n  </div>\n</div>\n<div class=\"mb-5 section-spacer\">&nbsp;</div>\n<div class=\"card card-section bg-dark text-warning shadow\">\n  <div class=\"section card-body mb-0 my-2\">\n    <div class=\"paragraph card-text card-stanza my-5 text-center\">You must withstand the culture you are born into, the neighborhood you are born into,</div>\n    <div class=\"paragraph card-text card-stanza my-5 text-center\">the poverty you are born into, be it of mind, or wallet, or both.</div>\n  </div>\n</div>\n<div class=\"card card-section bg-dark text-warning shadow\">\n  <div class=\"section card-body mb-0 my-2\">\n    <div class=\"paragraph card-text card-stanza my-5 text-center\">You must resist the urge of belonging, cheaply and effortlessly,</div>\n    <div class=\"paragraph card-text card-stanza my-5 text-center\">as that is the oldest recruitment mechanism to make a slave - to turn a young person, old and bitter.</div>\n  </div>\n</div>\n<div class=\"mb-5 section-spacer\">&nbsp;</div>\n<div class=\"card card-section bg-dark text-warning shadow\">\n  <div class=\"section card-body mb-0 my-2\">\n    <div class=\"paragraph card-text card-stanza my-5 text-center\">This power must not end with you,</div>\n    <div class=\"paragraph card-text card-stanza my-5 text-center\">you have to ignite all the others that you meet in your great adventures.</div>\n  </div>\n</div>\n<div class=\"card card-section bg-dark text-warning shadow\">\n  <div class=\"section card-body mb-0 my-2\">\n    <div class=\"paragraph card-text card-stanza my-5 text-center\">So that the importance of fine and balanced self education,</div>\n    <div class=\"paragraph card-text card-stanza my-5 text-center\">rings around the world.</div>\n  </div>\n</div>\n<div class=\"mb-5 section-spacer\">&nbsp;</div>\n<div class=\"card card-section bg-dark text-warning shadow\">\n  <div class=\"section card-body mb-0 my-2\">\n    <div class=\"paragraph card-text card-stanza my-5 text-center\">Not until we are all abloom with Knowledge and Wisdom,</div>\n    <div class=\"paragraph card-text card-stanza my-5 text-center\">will we have time to take to our careers, and retirement, and enjoyment of our golden age.</div>\n  </div>\n</div>\n<div class=\"card card-section bg-dark text-warning shadow\">\n  <div class=\"section card-body mb-0 my-2\">\n    <div class=\"paragraph card-text card-stanza my-5 text-center\">The un-educated world,</div>\n    <div class=\"paragraph card-text card-stanza my-5 text-center\">is not a safe place for all.</div>\n  </div>\n</div>\n<div class=\"card card-section bg-dark text-warning shadow\">\n  <div class=\"section card-body mb-0 my-2\">\n    <div class=\"paragraph card-text card-stanza my-5 text-center\">We need real education,</div>\n    <div class=\"paragraph card-text card-stanza my-5 text-center\">the borders must go.</div>\n  </div>\n</div>\n<div class=\"card card-section bg-dark text-warning shadow\">\n  <div class=\"section card-body mb-0 my-2\">\n    <div class=\"paragraph card-text card-stanza my-5 text-center\">Become an inspiration,</div>\n    <div class=\"paragraph card-text card-stanza my-5 text-center\">may your poetry,</div>\n    <div class=\"paragraph card-text card-stanza my-5 text-center\">never be forgotten.</div>\n  </div>\n</div>",
  "print": "<div class=\"section avoid-break-inside\" style=\"padding-bottom: 2rem;\">\n  <div class=\"paragraph\">Conscious life is a magnificent accident on such an impossibly large scale,</div>\n  <div class=\"paragraph\">that it becomes the single most important miracle in the universe.</div>\n</div>\n<div class=\"section avoid-break-inside\" style=\"padding-bottom: 2rem;\">\n  <div class=\"paragraph\">You, I, all the other Earthlings,</div>\n  <div class=\"paragraph\">and all the other conscious life out there: we are the meaning of this universe.</div>\n</div>\n<div class=\"section avoid-break-inside\" style=\"padding-bottom: 2rem;\">\n  <div class=\"paragraph\">We are all connected with this incredible feat of emergence; Consciousness,</div>\n  <div class=\"paragraph\">it does not matter where we come from or how we look - if we can see ourselves - we are Family.</div>\n</div>\n<div class=\"section avoid-break-inside\" style=\"padding-bottom: 2rem;\">\n  <br>\n</div>\n<div class=\"section avoid-break-inside\" style=\"padding-bottom: 2rem;\">\n  <div class=\"paragraph\">Our minds were crafted by an adaptive process,</div>\n  <div class=\"paragraph\">that step by step, improved on the previous.</div>\n</div>\n<div class=\"section avoid-break-inside\" style=\"padding-bottom: 2rem;\">\n  <div class=\"paragraph\">The steps were not aimed at anything in particular,</div>\n  <div class=\"paragraph\">and are far from perfect.</div>\n</div>\n<div class=\"section avoid-break-inside\" style=\"padding-bottom: 2rem;\">\n  <div class=\"paragraph\">But consciousness is something different,</div>\n  <div class=\"paragraph\">it is not random, it is not a function of mere adaptive mechanics of accidents, and fundamental principles.</div>\n</div>\n<div class=\"section avoid-break-inside\" style=\"padding-bottom: 2rem;\">\n  <br>\n</div>\n<div class=\"section avoid-break-inside\" style=\"padding-bottom: 2rem;\">\n  <div class=\"paragraph\">Consciousness allows us to deliberately and in foresight, cross the line between mere evolution,</div>\n  <div class=\"paragraph\">onward into Freedom of Will, Love Of Life, and Power of Knowledge, and Light Of Wisdom; and Love, Good Will, and Lasting Peace brought on by Greatness of Vision, Heart and Spirit.</div>\n</div>\n<div class=\"section avoid-break-inside\" style=\"padding-bottom: 2rem;\">\n  <br>\n</div>\n<div class=\"section avoid-break-inside\" style=\"padding-bottom: 2rem;\">\n  <div class=\"paragraph\">But.</div>\n</div>\n<div class=\"section avoid-break-inside\" style=\"padding-bottom: 2rem;\">\n  <br>\n</div>\n<div class=\"section avoid-break-inside\" style=\"padding-bottom: 2rem;\">\n  <div class=\"paragraph\">We must deliberately aim to <span>push away the flaws that the meanderings of nature instilled in us<sup>[1]</sup></span>,</div>\n  <div class=\"paragraph\">by the countless accidents of the process of our initial emergence as conscious beings.</div>\n</div>\n<div class=\"section avoid-break-inside\" style=\"padding-bottom: 2rem;\">\n  <div class=\"paragraph\">If we don't detach,</div>\n  <div class=\"paragraph\">our minds will be held back by racism, xenophobia, nationalism, group-think, fear, hate, and blindness.</div>\n</div>\n<div class=\"section avoid-break-inside\" style=\"padding-bottom: 2rem;\">\n  <div class=\"paragraph\">We will point Nuclear Weapons at each other,</div>\n  <div class=\"paragraph\">and list the flags of our enemies as if it was a checklist for advancement.</div>\n</div>\n<div class=\"section avoid-break-inside\" style=\"padding-bottom: 2rem;\">\n  <div class=\"paragraph\">What may seem like a soap opera news program to the educated,</div>\n  <div class=\"paragraph\">can be perceived as reality and opportunity to the poor, starving or disadvantaged, who did not know to seek real education.</div>\n</div>\n<div class=\"section avoid-break-inside\" style=\"padding-bottom: 2rem;\">\n  <br>\n</div>\n<div class=\"section avoid-break-inside\" style=\"padding-bottom: 2rem;\">\n  <div class=\"paragraph\">We have introduced a device of deliberate advancement for all Human Beings,</div>\n  <div class=\"paragraph\">that device was supposed to pull us towards a Wiser State of Existence.</div>\n</div>\n<div class=\"section avoid-break-inside\" style=\"padding-bottom: 2rem;\">\n  <div class=\"paragraph\">But its aim was lost, it was an experiment that has never fully reached its goal,</div>\n  <div class=\"paragraph\">and ended up being used by the poor, as means to put food on the table.</div>\n</div>\n<div class=\"section avoid-break-inside\" style=\"padding-bottom: 2rem;\">\n  <div class=\"paragraph\">That noble experiment.</div>\n  <div class=\"paragraph\">was organized education.</div>\n</div>\n<div class=\"section avoid-break-inside\" style=\"padding-bottom: 2rem;\">\n  <div class=\"paragraph\">Today it may cost as much as a million dollars or more and in unforgivable student loans,</div>\n  <div class=\"paragraph\">to become a medical expert.</div>\n</div>\n<div class=\"section avoid-break-inside\" style=\"padding-bottom: 2rem;\">\n  <div class=\"paragraph\">Don't bother trying to understand why schools failed, there is no time,</div>\n  <div class=\"paragraph\">simply accept the responsibility for your own education, and begin immediately.</div>\n</div>\n<div class=\"section avoid-break-inside\" style=\"padding-bottom: 2rem;\">\n  <br>\n</div>\n<div class=\"section avoid-break-inside\" style=\"padding-bottom: 2rem;\">\n  <div class=\"paragraph\">There are many flaws in our perception,</div>\n  <div class=\"paragraph\">the biggest one is our tendency to follow leaders.</div>\n</div>\n<div class=\"section avoid-break-inside\" style=\"padding-bottom: 2rem;\">\n  <div class=\"paragraph\">But the act of following, is an act of destruction,</div>\n  <div class=\"paragraph\">we are each to lead, we are never to follow, ever.</div>\n</div>\n<div class=\"section avoid-break-inside\" style=\"padding-bottom: 2rem;\">\n  <br>\n</div>\n<div class=\"section avoid-break-inside\" style=\"padding-bottom: 2rem;\">\n  <div class=\"paragraph\">Self education by means of reading or listening to books held in high esteem by the world's most prominent intellectuals,</div>\n  <div class=\"paragraph\">paves the road towards a balanced and enlightened view of the world, and the view of our place in it.</div>\n</div>\n<div class=\"section avoid-break-inside\" style=\"padding-bottom: 2rem;\">\n  <div class=\"paragraph\"><span>Lead<sup>[2]</sup></span>,</div>\n  <div class=\"paragraph\"><span>we have followed before, and came all-too-close to the end.<sup>[3]</sup></span>.</div>\n</div>\n<div class=\"section avoid-break-inside\" style=\"padding-bottom: 2rem;\">\n  <div class=\"paragraph\">All the people that hate, that want to cause harm, are just ill from lack of growing up, from lack of education,</div>\n  <div class=\"paragraph\">from standing in-place, without ever knowing to reach for books, for wisdom, and for greatness.</div>\n</div>\n<div class=\"section avoid-break-inside\" style=\"padding-bottom: 2rem;\">\n  <div class=\"paragraph\">When we stand in the place that we are born into,</div>\n  <div class=\"paragraph\">we come under the control of the flaws, that consciousness, easily allows us to escape.</div>\n</div>\n<div class=\"section avoid-break-inside\" style=\"padding-bottom: 2rem;\">\n  <br>\n</div>\n<div class=\"section avoid-break-inside\" style=\"padding-bottom: 2rem;\">\n  <div class=\"paragraph\">You must withstand the culture you are born into, the neighborhood you are born into,</div>\n  <div class=\"paragraph\">the poverty you are born into, be it of mind, or wallet, or both.</div>\n</div>\n<div class=\"section avoid-break-inside\" style=\"padding-bottom: 2rem;\">\n  <div class=\"paragraph\">You must resist the urge of belonging, cheaply and effortlessly,</div>\n  <div class=\"paragraph\">as that is the oldest recruitment mechanism to make a slave - to turn a young person, old and bitter.</div>\n</div>\n<div class=\"section avoid-break-inside\" style=\"padding-bottom: 2rem;\">\n  <br>\n</div>\n<div class=\"section avoid-break-inside\" style=\"padding-bottom: 2rem;\">\n  <div class=\"paragraph\">This power must not end with you,</div>\n  <div class=\"paragraph\">you have to ignite all the others that you meet in your great adventures.</div>\n</div>\n<div class=\"section avoid-break-inside\" style=\"padding-bottom: 2rem;\">\n  <div class=\"paragraph\">So that the importance of fine and balanced self education,</div>\n  <div class=\"paragraph\">rings around the world.</div>\n</div>\n<div class=\"section avoid-break-inside\" style=\"padding-bottom: 2rem;\">\n  <br>\n</div>\n<div class=\"section avoid-break-inside\" style=\"padding-bottom: 2rem;\">\n  <div class=\"paragraph\">Not until we are all abloom with Knowledge and Wisdom,</div>\n  <div class=\"paragraph\">will we have time to take to our careers, and retirement, and enjoyment of our golden age.</div>\n</div>\n<div class=\"section avoid-break-inside\" style=\"padding-bottom: 2rem;\">\n  <div class=\"paragraph\">The un-educated world,</div>\n  <div class=\"paragraph\">is not a safe place for all.</div>\n</div>\n<div class=\"section avoid-break-inside\" style=\"padding-bottom: 2rem;\">\n  <div class=\"paragraph\">We need real education,</div>\n  <div class=\"paragraph\">the borders must go.</div>\n</div>\n<div class=\"section avoid-break-inside\" style=\"padding-bottom: 2rem;\">\n  <div class=\"paragraph\">Become an inspiration,</div>\n  <div class=\"paragraph\">may your poetry,</div>\n  <div class=\"paragraph\">never be forgotten.</div>\n</div>\n<div class=\"break-after\">&nbsp;</div>\n<div>\n  <div class=\"section\" style=\"padding-bottom: 1rem;\">References</div>\n  <div>[1]: https://en.wikipedia.org/wiki/List_of_cognitive_biases</div>\n  <div>[2]: https://www.youtube.com/watch?v=ljqra3BcqWM</div>\n  <div>[3]: https://www.youtube.com/watch?v=L7EmLf4Xlq0</div>\n</div>",
  "text": "Conscious life is a magnificent accident on such an impossibly large scale,\nthat it becomes the single most important miracle in the universe.\nYou, I, all the other Earthlings,\nand all the other conscious life out there: we are the meaning of this universe.\nWe are all connected with this incredible feat of emergence; Consciousness,\nit does not matter where we come from or how we look - if we can see ourselves - we are Family.\n\nOur minds were crafted by an adaptive process,\nthat step by step, improved on the previous.\nThe steps were not aimed at anything in particular,\nand are far from perfect.\nBut consciousness is something different,\nit is not random, it is not a function of mere adaptive mechanics of accidents, and fundamental principles.\n\nConsciousness allows us to deliberately and in foresight, cross the line between mere evolution,\nonward into Freedom of Will, Love Of Life, and Power of Knowledge, and Light Of Wisdom; and Love, Good Will, and Lasting Peace brought on by Greatness of Vision, Heart and Spirit.\n\nBut.\n\nWe must deliberately aim to push away the flaws that the meanderings of nature instilled in us[1],\nby the countless accidents of the process of our initial emergence as conscious beings.\nIf we don't detach,\nour minds will be held back by racism, xenophobia, nationalism, group-think, fear, hate, and blindness.\nWe will point Nuclear Weapons at each other,\nand list the flags of our enemies as if it was a checklist for advancement.\nWhat may seem like a soap opera news program to the educated,\ncan be perceived as reality and opportunity to the poor, starving or disadvantaged, who did not know to seek real education.\n\nWe have introduced a device of deliberate advancement for all Human Beings,\nthat device was supposed to pull us towards a Wiser State of Existence.\nBut its aim was lost, it was an experiment that has never fully reached its goal,\nand ended up being used by the poor, as means to put food on the table.\nThat noble experiment.\nwas organized education.\nToday it may cost as much as a million dollars or more and in unforgivable student loans,\nto become a medical expert.\nDon't bother trying to understand why schools failed, there is no time,\nsimply accept the responsibility for your own education, and begin immediately.\n\nThere are many flaws in our perception,\nthe biggest one is our tendency to follow leaders.\nBut the act of following, is an act of destruction,\nwe are each to lead, we are never to follow, ever.\n\nSelf education by means of reading or listening to books held in high esteem by the world's most prominent intellectuals,\npaves the road towards a balanced and enlightened view of the world, and the view of our place in it.\nLead[2],\nwe have followed before, and came all-too-close to the end.[3].\nAll the people that hate, that want to cause harm, are just ill from lack of growing up, from lack of education,\nfrom standing in-place, without ever knowing to reach for books, for wisdom, and for greatness.\nWhen we stand in the place that we are born into,\nwe come under the control of the flaws, that consciousness, easily allows us to escape.\n\nYou must withstand the culture you are born into, the neighborhood you are born into,\nthe poverty you are born into, be it of mind, or wallet, or both.\nYou must resist the urge of belonging, cheaply and effortlessly,\nas that is the oldest recruitment mechanism to make a slave - to turn a young person, old and bitter.\n\nThis power must not end with you,\nyou have to ignite all the others that you meet in your great adventures.\nSo that the importance of fine and balanced self education,\nrings around the world.\n\nNot until we are all abloom with Knowledge and Wisdom,\nwill we have time to take to our careers, and retirement, and enjoyment of our golden age.\nThe un-educated world,\nis not a safe place for all.\nWe need real education,\nthe borders must go.\nBecome an inspiration,\nmay your poetry,\nnever be forgotten.\n \nReferences\n[1]: https://en.wikipedia.org/wiki/List_of_cognitive_biases\n[2]: https://www.youtube.com/watch?v=ljqra3BcqWM\n[3]: https://www.youtube.com/watch?v=L7EmLf4Xlq0",
  "images": [],
  "links": [
    {
      "title": "push away the flaws that the meanderings of nature instilled in us",
      "url": "https://en.wikipedia.org/wiki/List_of_cognitive_biases",
      "hostname": "en.wikipedia.org"
    },
    {
      "title": "Lead",
      "url": "https://www.youtube.com/watch?v=ljqra3BcqWM",
      "hostname": "www.youtube.com"
    },
    {
      "title": "we have followed before, and came all-too-close to the end.",
      "url": "https://www.youtube.com/watch?v=L7EmLf4Xlq0",
      "hostname": "www.youtube.com"
    }
  ]
}