{
  "title": "You Are Not Wrong",
  "date": "2020-11-28T03:29:58.051Z",
  "image": "poetry-0272-illustration.jpg",
  "audio": "poetry-0272.mp3",
  "artwork": "https://unsplash.com/",
  "id": "furkies-purrkies-poetry-0272",
  "attachments": {},
  "guid": "82638040-babc-46f7-bc60-d4cd4343d789"
}
