{
  "name": "furkies-purrkies-poetry-0918",
  "id": "furkies-purrkies-poetry-0918",
  "guid": "d8755991-5beb-40d2-9c92-1f29be9fe9bd",
  "title": "Importance Of Context In Education",
  "date": "2022-09-05T02:16:56.772Z",
  "image": "poetry-0918-illustration.jpg",
  "artwork": "https://unsplash.com/photos/w58KovW_d0A",
  "audio": "poetry-0918.mp3",
  "html": "<div class=\"section\">\n  <p>When learning a new language,<br>context is everything.</p>\n  <p>Context supports meanings,<br>and supposed meanings.</p>\n  <p>It is the fabric of a conversation,<br>and along with facial expression and body language...</p>\n  <p>You may sometimes wonder,<br>if perhaps it isn’t so hard to lean a language even without textbooks.</p>\n</div>\n<div class=\"section\">\n  <hr>\n</div>\n<div class=\"section\">\n  <p>As important as context in a new language you are trying to learn is,<br>it is a magnitude <strong>more</strong> important in more complex things.</p>\n  <p>For example, it is the difference between taking a programming class,<br>and actually becoming a programmer.</p>\n  <p>Taking a programming class, will have you write gibberish programs,<br>and test the worst kind of memorization, the temporary one.</p>\n</div>\n<div class=\"section\">\n  <hr>\n</div>\n<div class=\"section\">\n  <p>When you write real programs, you learn much more and much faster,<br>later on you can memorize a new language in less than 24 hours.</p>\n  <p>And then hop along with boilerplate and tutorials,<br>to carve your own way through its ecosystem.</p>\n  <p>But the best way to learn, practice, stay current,<br>and entertain yourself, is by writing real programs.</p>\n  <p>Static website generators for example,<br>basically just visit a directory to create a data list.</p>\n  <p>And you use that list to create pages for reading and browsing,<br>you pretty much just work with the simple list.</p>\n  <p>And slowly grow,<br>a layout directory with HTML templates.</p>\n  <p>But you are really,<br>just creating two things.</p>\n  <p>Article pages where a person can read the actual blog posts,<br>and a catalog with 20 links per page, with a pager on the bottom linking to more.</p>\n  <p>Your home page is just the first page of the catalog,<br>down on the bottom the user clicks Older or More to get a listing of 20 more links.</p>\n  <p>If you have some text to publish, writing a static site generator,<br>would place you in a context that would ensure rapid self education.</p>\n</div>\n<div class=\"section\">\n  <hr>\n</div>\n<div class=\"section\">\n  <p>Art too,<br>is a great example of the might of context.</p>\n  <p>I would wholeheartedly discourage all people,<br>from learning how to model 3D objects without a 3D printer.</p>\n  <p>The 3D printer is the context, for the initial lessons in 3D modeling,<br>once you get your mesh all buttoned up, you print it out and put it on your key chain.</p>\n  <p>You are not going to be able to stop learning 3D modeling,<br>it will be impossible, with those things on your key-chain.</p>\n  <p>Later on you can branch out to sculpting and character animation,<br>but at first precision modeling is best.</p>\n</div>\n<div class=\"section\">\n  <hr>\n</div>\n<div class=\"section\">\n  <p>In digital painting, when you apply reference images directly to your art,<br>you get to skip messing with proportions, something you will do later on anyways.</p>\n  <p>And dive right into Value, and Color Mixing,<br>and since you got the shapes right, you can paint your friends, or your selfies.</p>\n  <p>Here you are always creating a recognizable portraits,<br>you are always improving and expanding your style.</p>\n  <p>Appreciation is an amazing reward for practicing Art,<br>in this context you will grow fast, merge many concepts and build a precious new universe.</p>\n</div>\n<div class=\"section\">\n  <hr>\n</div>\n<div class=\"section\">\n  <p>Finally, be careful, the gibberish context that schools teach, and later sell,<br>destroys everything, it <a href=\"https://www.youtube.com/watch?v=17fbxRQgMlU\">destroys creativity</a> and individuality, and creates nothing but ends.</p>\n  <p>If you can, help the world learn,<br>Humanity needs real schools, that without exception create meaningful and lasting results.</p>\n</div>",
  "bootstrap": "<div class=\"card card-section bg-dark text-warning shadow\">\n  <div class=\"section card-body mb-0 my-2\">\n    <div class=\"paragraph card-text card-stanza my-5 text-center\">When learning a new language,<br>context is everything.</div>\n    <div class=\"paragraph card-text card-stanza my-5 text-center\">Context supports meanings,<br>and supposed meanings.</div>\n    <div class=\"paragraph card-text card-stanza my-5 text-center\">It is the fabric of a conversation,<br>and along with facial expression and body language...</div>\n    <div class=\"paragraph card-text card-stanza my-5 text-center\">You may sometimes wonder,<br>if perhaps it isn’t so hard to lean a language even without textbooks.</div>\n  </div>\n</div>\n<div class=\"mb-5 section-spacer\">&nbsp;</div>\n<div class=\"card card-section bg-dark text-warning shadow\">\n  <div class=\"section card-body mb-0 my-2\">\n    <div class=\"paragraph card-text card-stanza my-5 text-center\">As important as context in a new language you are trying to learn is,<br>it is a magnitude <strong>more</strong> important in more complex things.</div>\n    <div class=\"paragraph card-text card-stanza my-5 text-center\">For example, it is the difference between taking a programming class,<br>and actually becoming a programmer.</div>\n    <div class=\"paragraph card-text card-stanza my-5 text-center\">Taking a programming class, will have you write gibberish programs,<br>and test the worst kind of memorization, the temporary one.</div>\n  </div>\n</div>\n<div class=\"mb-5 section-spacer\">&nbsp;</div>\n<div class=\"card card-section bg-dark text-warning shadow\">\n  <div class=\"section card-body mb-0 my-2\">\n    <div class=\"paragraph card-text card-stanza my-5 text-center\">When you write real programs, you learn much more and much faster,<br>later on you can memorize a new language in less than 24 hours.</div>\n    <div class=\"paragraph card-text card-stanza my-5 text-center\">And then hop along with boilerplate and tutorials,<br>to carve your own way through its ecosystem.</div>\n    <div class=\"paragraph card-text card-stanza my-5 text-center\">But the best way to learn, practice, stay current,<br>and entertain yourself, is by writing real programs.</div>\n    <div class=\"paragraph card-text card-stanza my-5 text-center\">Static website generators for example,<br>basically just visit a directory to create a data list.</div>\n    <div class=\"paragraph card-text card-stanza my-5 text-center\">And you use that list to create pages for reading and browsing,<br>you pretty much just work with the simple list.</div>\n    <div class=\"paragraph card-text card-stanza my-5 text-center\">And slowly grow,<br>a layout directory with HTML templates.</div>\n    <div class=\"paragraph card-text card-stanza my-5 text-center\">But you are really,<br>just creating two things.</div>\n    <div class=\"paragraph card-text card-stanza my-5 text-center\">Article pages where a person can read the actual blog posts,<br>and a catalog with 20 links per page, with a pager on the bottom linking to more.</div>\n    <div class=\"paragraph card-text card-stanza my-5 text-center\">Your home page is just the first page of the catalog,<br>down on the bottom the user clicks Older or More to get a listing of 20 more links.</div>\n    <div class=\"paragraph card-text card-stanza my-5 text-center\">If you have some text to publish, writing a static site generator,<br>would place you in a context that would ensure rapid self education.</div>\n  </div>\n</div>\n<div class=\"mb-5 section-spacer\">&nbsp;</div>\n<div class=\"card card-section bg-dark text-warning shadow\">\n  <div class=\"section card-body mb-0 my-2\">\n    <div class=\"paragraph card-text card-stanza my-5 text-center\">Art too,<br>is a great example of the might of context.</div>\n    <div class=\"paragraph card-text card-stanza my-5 text-center\">I would wholeheartedly discourage all people,<br>from learning how to model 3D objects without a 3D printer.</div>\n    <div class=\"paragraph card-text card-stanza my-5 text-center\">The 3D printer is the context, for the initial lessons in 3D modeling,<br>once you get your mesh all buttoned up, you print it out and put it on your key chain.</div>\n    <div class=\"paragraph card-text card-stanza my-5 text-center\">You are not going to be able to stop learning 3D modeling,<br>it will be impossible, with those things on your key-chain.</div>\n    <div class=\"paragraph card-text card-stanza my-5 text-center\">Later on you can branch out to sculpting and character animation,<br>but at first precision modeling is best.</div>\n  </div>\n</div>\n<div class=\"mb-5 section-spacer\">&nbsp;</div>\n<div class=\"card card-section bg-dark text-warning shadow\">\n  <div class=\"section card-body mb-0 my-2\">\n    <div class=\"paragraph card-text card-stanza my-5 text-center\">In digital painting, when you apply reference images directly to your art,<br>you get to skip messing with proportions, something you will do later on anyways.</div>\n    <div class=\"paragraph card-text card-stanza my-5 text-center\">And dive right into Value, and Color Mixing,<br>and since you got the shapes right, you can paint your friends, or your selfies.</div>\n    <div class=\"paragraph card-text card-stanza my-5 text-center\">Here you are always creating a recognizable portraits,<br>you are always improving and expanding your style.</div>\n    <div class=\"paragraph card-text card-stanza my-5 text-center\">Appreciation is an amazing reward for practicing Art,<br>in this context you will grow fast, merge many concepts and build a precious new universe.</div>\n  </div>\n</div>\n<div class=\"mb-5 section-spacer\">&nbsp;</div>\n<div class=\"card card-section bg-dark text-warning shadow\">\n  <div class=\"section card-body mb-0 my-2\">\n    <div class=\"paragraph card-text card-stanza my-5 text-center\">Finally, be careful, the gibberish context that schools teach, and later sell,<br>destroys everything, it <a href=\"https://www.youtube.com/watch?v=17fbxRQgMlU\">destroys creativity</a> and individuality, and creates nothing but ends.</div>\n    <div class=\"paragraph card-text card-stanza my-5 text-center\">If you can, help the world learn,<br>Humanity needs real schools, that without exception create meaningful and lasting results.</div>\n  </div>\n</div>",
  "print": "<div class=\"section avoid-break-inside\" style=\"padding-bottom: 2rem;\">\n  <div class=\"paragraph\">When learning a new language,<br>context is everything.</div>\n  <div class=\"paragraph\">Context supports meanings,<br>and supposed meanings.</div>\n  <div class=\"paragraph\">It is the fabric of a conversation,<br>and along with facial expression and body language...</div>\n  <div class=\"paragraph\">You may sometimes wonder,<br>if perhaps it isn’t so hard to lean a language even without textbooks.</div>\n</div>\n<div class=\"section avoid-break-inside\" style=\"padding-bottom: 2rem;\">\n  <br>\n</div>\n<div class=\"section avoid-break-inside\" style=\"padding-bottom: 2rem;\">\n  <div class=\"paragraph\">As important as context in a new language you are trying to learn is,<br>it is a magnitude <strong>more</strong> important in more complex things.</div>\n  <div class=\"paragraph\">For example, it is the difference between taking a programming class,<br>and actually becoming a programmer.</div>\n  <div class=\"paragraph\">Taking a programming class, will have you write gibberish programs,<br>and test the worst kind of memorization, the temporary one.</div>\n</div>\n<div class=\"section avoid-break-inside\" style=\"padding-bottom: 2rem;\">\n  <br>\n</div>\n<div class=\"section avoid-break-inside\" style=\"padding-bottom: 2rem;\">\n  <div class=\"paragraph\">When you write real programs, you learn much more and much faster,<br>later on you can memorize a new language in less than 24 hours.</div>\n  <div class=\"paragraph\">And then hop along with boilerplate and tutorials,<br>to carve your own way through its ecosystem.</div>\n  <div class=\"paragraph\">But the best way to learn, practice, stay current,<br>and entertain yourself, is by writing real programs.</div>\n  <div class=\"paragraph\">Static website generators for example,<br>basically just visit a directory to create a data list.</div>\n  <div class=\"paragraph\">And you use that list to create pages for reading and browsing,<br>you pretty much just work with the simple list.</div>\n  <div class=\"paragraph\">And slowly grow,<br>a layout directory with HTML templates.</div>\n  <div class=\"paragraph\">But you are really,<br>just creating two things.</div>\n  <div class=\"paragraph\">Article pages where a person can read the actual blog posts,<br>and a catalog with 20 links per page, with a pager on the bottom linking to more.</div>\n  <div class=\"paragraph\">Your home page is just the first page of the catalog,<br>down on the bottom the user clicks Older or More to get a listing of 20 more links.</div>\n  <div class=\"paragraph\">If you have some text to publish, writing a static site generator,<br>would place you in a context that would ensure rapid self education.</div>\n</div>\n<div class=\"section avoid-break-inside\" style=\"padding-bottom: 2rem;\">\n  <br>\n</div>\n<div class=\"section avoid-break-inside\" style=\"padding-bottom: 2rem;\">\n  <div class=\"paragraph\">Art too,<br>is a great example of the might of context.</div>\n  <div class=\"paragraph\">I would wholeheartedly discourage all people,<br>from learning how to model 3D objects without a 3D printer.</div>\n  <div class=\"paragraph\">The 3D printer is the context, for the initial lessons in 3D modeling,<br>once you get your mesh all buttoned up, you print it out and put it on your key chain.</div>\n  <div class=\"paragraph\">You are not going to be able to stop learning 3D modeling,<br>it will be impossible, with those things on your key-chain.</div>\n  <div class=\"paragraph\">Later on you can branch out to sculpting and character animation,<br>but at first precision modeling is best.</div>\n</div>\n<div class=\"section avoid-break-inside\" style=\"padding-bottom: 2rem;\">\n  <br>\n</div>\n<div class=\"section avoid-break-inside\" style=\"padding-bottom: 2rem;\">\n  <div class=\"paragraph\">In digital painting, when you apply reference images directly to your art,<br>you get to skip messing with proportions, something you will do later on anyways.</div>\n  <div class=\"paragraph\">And dive right into Value, and Color Mixing,<br>and since you got the shapes right, you can paint your friends, or your selfies.</div>\n  <div class=\"paragraph\">Here you are always creating a recognizable portraits,<br>you are always improving and expanding your style.</div>\n  <div class=\"paragraph\">Appreciation is an amazing reward for practicing Art,<br>in this context you will grow fast, merge many concepts and build a precious new universe.</div>\n</div>\n<div class=\"section avoid-break-inside\" style=\"padding-bottom: 2rem;\">\n  <br>\n</div>\n<div class=\"section avoid-break-inside\" style=\"padding-bottom: 2rem;\">\n  <div class=\"paragraph\">Finally, be careful, the gibberish context that schools teach, and later sell,<br>destroys everything, it <span>destroys creativity<sup>[1]</sup></span> and individuality, and creates nothing but ends.</div>\n  <div class=\"paragraph\">If you can, help the world learn,<br>Humanity needs real schools, that without exception create meaningful and lasting results.</div>\n</div>\n<div class=\"break-after\">&nbsp;</div>\n<div>\n  <div class=\"section\" style=\"padding-bottom: 1rem;\">References</div>\n  <div>[1]: https://www.youtube.com/watch?v=17fbxRQgMlU</div>\n</div>",
  "text": "When learning a new language,\ncontext is everything.\nContext supports meanings,\nand supposed meanings.\nIt is the fabric of a conversation,\nand along with facial expression and body language...\nYou may sometimes wonder,\nif perhaps it isn’t so hard to lean a language even without textbooks.\n\nAs important as context in a new language you are trying to learn is,\nit is a magnitude more important in more complex things.\nFor example, it is the difference between taking a programming class,\nand actually becoming a programmer.\nTaking a programming class, will have you write gibberish programs,\nand test the worst kind of memorization, the temporary one.\n\nWhen you write real programs, you learn much more and much faster,\nlater on you can memorize a new language in less than 24 hours.\nAnd then hop along with boilerplate and tutorials,\nto carve your own way through its ecosystem.\nBut the best way to learn, practice, stay current,\nand entertain yourself, is by writing real programs.\nStatic website generators for example,\nbasically just visit a directory to create a data list.\nAnd you use that list to create pages for reading and browsing,\nyou pretty much just work with the simple list.\nAnd slowly grow,\na layout directory with HTML templates.\nBut you are really,\njust creating two things.\nArticle pages where a person can read the actual blog posts,\nand a catalog with 20 links per page, with a pager on the bottom linking to more.\nYour home page is just the first page of the catalog,\ndown on the bottom the user clicks Older or More to get a listing of 20 more links.\nIf you have some text to publish, writing a static site generator,\nwould place you in a context that would ensure rapid self education.\n\nArt too,\nis a great example of the might of context.\nI would wholeheartedly discourage all people,\nfrom learning how to model 3D objects without a 3D printer.\nThe 3D printer is the context, for the initial lessons in 3D modeling,\nonce you get your mesh all buttoned up, you print it out and put it on your key chain.\nYou are not going to be able to stop learning 3D modeling,\nit will be impossible, with those things on your key-chain.\nLater on you can branch out to sculpting and character animation,\nbut at first precision modeling is best.\n\nIn digital painting, when you apply reference images directly to your art,\nyou get to skip messing with proportions, something you will do later on anyways.\nAnd dive right into Value, and Color Mixing,\nand since you got the shapes right, you can paint your friends, or your selfies.\nHere you are always creating a recognizable portraits,\nyou are always improving and expanding your style.\nAppreciation is an amazing reward for practicing Art,\nin this context you will grow fast, merge many concepts and build a precious new universe.\n\nFinally, be careful, the gibberish context that schools teach, and later sell,\ndestroys everything, it destroys creativity[1] and individuality, and creates nothing but ends.\nIf you can, help the world learn,\nHumanity needs real schools, that without exception create meaningful and lasting results.\n \nReferences\n[1]: https://www.youtube.com/watch?v=17fbxRQgMlU",
  "images": [],
  "links": [
    {
      "title": "destroys creativity",
      "url": "https://www.youtube.com/watch?v=17fbxRQgMlU",
      "hostname": "www.youtube.com"
    }
  ]
}