{
  "name": "furkies-purrkies-poetry-0195",
  "title": "World School",
  "date": "2020-09-11T22:46:06.349Z",
  "image": "poetry-0195-illustration.jpg",
  "audio": "poetry-0195.mp3",
  "artwork": "https://unsplash.com/",
  "id": "furkies-purrkies-poetry-0195",
  "attachments": {},
  "guid": "85a1cf4a-0e31-4a47-949e-e6f499b1b5ac",
  "html": "<div class=\"section\">\n  <p>We must repair schools,</p>\n  <p>and finally put an end to ideas like listen and repeat and short term memorization.</p>\n</div>\n<div class=\"section\">\n  <p>The first and foremost is the elimination of grades,</p>\n  <p>which also means elimination of standardized testing.</p>\n</div>\n<div class=\"section\">\n  <p>There cannot be such a thing as a Standard Human,</p>\n  <p>with a standard mind, it is very foolish to think that.</p>\n</div>\n<div class=\"section\">\n  <hr>\n</div>\n<div class=\"section\">\n  <p>The second is the division of subjects,</p>\n  <p>and that is no different than browsing the World Encyclopedia.</p>\n</div>\n<div class=\"section\">\n  <p>Eventually, people who arrive at Gene Editing,</p>\n  <p>will choose their own path through Biology.</p>\n</div>\n<div class=\"section\">\n  <p>Eventually, those who take to building Software,</p>\n  <p>will create a path through languages and concepts that fit them best.</p>\n</div>\n<div class=\"section\">\n  <p>Same for every other subject...</p>\n</div>\n<div class=\"section\">\n  <p>Mathematics can be studied from an enormous number of starting points,</p>\n  <p>from Color Theories, and Music and Sound Processing,</p>\n  <p>to 3D Printing, Game and Game Engine Design, Astrobiology, Cryptanalysis and Combinatorial Genomics,</p>\n  <p>it is not presented as an aim, but rather a small stepping stone in a familiar context, and thus much more easily mastered.</p>\n</div>\n<div class=\"section\">\n  <hr>\n</div>\n<div class=\"section\">\n  <p>Once a student displays a long term curiosity for a subject,</p>\n  <p>they will choose to be tested and choose to follow industry standards,</p>\n  <p>they will also choose an evolving test program to which they themselves may contribute.</p>\n</div>\n<div class=\"section\">\n  <p>As a whole, that creates their own Study Curriculum,</p>\n  <p>Curriculum Vitae, Resume and Job Posting.</p>\n</div>\n<div class=\"section\">\n  <p>The student moves at their own pace,</p>\n  <p>leaving an open trail that can be reviewed by prospective employers,</p>\n  <p>teachers, fellow researchers, and employers willing to pay for their study.</p>\n</div>\n<div class=\"section\">\n  <p>Certain paths can carry a Bounty, or Monetary Tips, Recurring Monetary Encouragement,</p>\n  <p>and above all creates a point into which the Government, City or Community, can invest.</p>\n</div>\n<div class=\"section\">\n  <hr>\n</div>\n<div class=\"section\">\n  <p>This is an Open School where anybody can come,</p>\n  <p>where anybody can begin excelling at a subject that they are interested in.</p>\n</div>\n<div class=\"section\">\n  <p>Many may start with traditional subjects like Mathematics,</p>\n  <p>but here mathematics is presented with connecting points to various industries, and scholarships.</p>\n</div>\n<div class=\"section\">\n  <hr>\n</div>\n<div class=\"section\">\n  <p>The software program behind this system will be kept purposefully simple and open,</p>\n  <p>it is after-all very similar to World Encyclopedia with a Blockchain for purposes of Scholarships and Path Funding.</p>\n</div>\n<div class=\"section\">\n  <p>The software will discourage disconnected clusters in hopes of bringing Humanity together to a single Truth we can all agree on,</p>\n  <p>as this an important requirement for dealing with Elimination of Poverty, Improvement of Education, Repair of Climate, and Prevention of Mass Incarceration.</p>\n</div>\n<div class=\"section\">\n  <hr>\n</div>\n<div class=\"section\">\n  <p>Let us hope that this school will quickly become a Point of Cultural Convergence on Wisdom and Good Ideas,</p>\n  <p>a place for sharing Study Paths, Preservation of Knowledge, and a Fine Exit from Poverty by Means of Self Education and Pursuit of Excellence.</p>\n</div>\n<div class=\"section\">\n  <p>The Nations that Choose to Invest in This School to Help with Scholarship Programs,</p>\n  <p>will be investing in nothing less than the very Future of Human Kind.</p>\n</div>\n<div class=\"section\">\n  <p>One Family,</p>\n  <p>United In Wisdom.</p>\n</div>",
  "bootstrap": "<div class=\"card card-section bg-dark text-warning shadow\">\n  <div class=\"section card-body mb-0 my-2\">\n    <div class=\"paragraph card-text card-stanza my-5 text-center\">We must repair schools,</div>\n    <div class=\"paragraph card-text card-stanza my-5 text-center\">and finally put an end to ideas like listen and repeat and short term memorization.</div>\n  </div>\n</div>\n<div class=\"card card-section bg-dark text-warning shadow\">\n  <div class=\"section card-body mb-0 my-2\">\n    <div class=\"paragraph card-text card-stanza my-5 text-center\">The first and foremost is the elimination of grades,</div>\n    <div class=\"paragraph card-text card-stanza my-5 text-center\">which also means elimination of standardized testing.</div>\n  </div>\n</div>\n<div class=\"card card-section bg-dark text-warning shadow\">\n  <div class=\"section card-body mb-0 my-2\">\n    <div class=\"paragraph card-text card-stanza my-5 text-center\">There cannot be such a thing as a Standard Human,</div>\n    <div class=\"paragraph card-text card-stanza my-5 text-center\">with a standard mind, it is very foolish to think that.</div>\n  </div>\n</div>\n<div class=\"mb-5 section-spacer\">&nbsp;</div>\n<div class=\"card card-section bg-dark text-warning shadow\">\n  <div class=\"section card-body mb-0 my-2\">\n    <div class=\"paragraph card-text card-stanza my-5 text-center\">The second is the division of subjects,</div>\n    <div class=\"paragraph card-text card-stanza my-5 text-center\">and that is no different than browsing the World Encyclopedia.</div>\n  </div>\n</div>\n<div class=\"card card-section bg-dark text-warning shadow\">\n  <div class=\"section card-body mb-0 my-2\">\n    <div class=\"paragraph card-text card-stanza my-5 text-center\">Eventually, people who arrive at Gene Editing,</div>\n    <div class=\"paragraph card-text card-stanza my-5 text-center\">will choose their own path through Biology.</div>\n  </div>\n</div>\n<div class=\"card card-section bg-dark text-warning shadow\">\n  <div class=\"section card-body mb-0 my-2\">\n    <div class=\"paragraph card-text card-stanza my-5 text-center\">Eventually, those who take to building Software,</div>\n    <div class=\"paragraph card-text card-stanza my-5 text-center\">will create a path through languages and concepts that fit them best.</div>\n  </div>\n</div>\n<div class=\"card card-section bg-dark text-warning shadow\">\n  <div class=\"section card-body mb-0 my-2\">\n    <div class=\"paragraph card-text card-stanza my-5 text-center\">Same for every other subject...</div>\n  </div>\n</div>\n<div class=\"card card-section bg-dark text-warning shadow\">\n  <div class=\"section card-body mb-0 my-2\">\n    <div class=\"paragraph card-text card-stanza my-5 text-center\">Mathematics can be studied from an enormous number of starting points,</div>\n    <div class=\"paragraph card-text card-stanza my-5 text-center\">from Color Theories, and Music and Sound Processing,</div>\n    <div class=\"paragraph card-text card-stanza my-5 text-center\">to 3D Printing, Game and Game Engine Design, Astrobiology, Cryptanalysis and Combinatorial Genomics,</div>\n    <div class=\"paragraph card-text card-stanza my-5 text-center\">it is not presented as an aim, but rather a small stepping stone in a familiar context, and thus much more easily mastered.</div>\n  </div>\n</div>\n<div class=\"mb-5 section-spacer\">&nbsp;</div>\n<div class=\"card card-section bg-dark text-warning shadow\">\n  <div class=\"section card-body mb-0 my-2\">\n    <div class=\"paragraph card-text card-stanza my-5 text-center\">Once a student displays a long term curiosity for a subject,</div>\n    <div class=\"paragraph card-text card-stanza my-5 text-center\">they will choose to be tested and choose to follow industry standards,</div>\n    <div class=\"paragraph card-text card-stanza my-5 text-center\">they will also choose an evolving test program to which they themselves may contribute.</div>\n  </div>\n</div>\n<div class=\"card card-section bg-dark text-warning shadow\">\n  <div class=\"section card-body mb-0 my-2\">\n    <div class=\"paragraph card-text card-stanza my-5 text-center\">As a whole, that creates their own Study Curriculum,</div>\n    <div class=\"paragraph card-text card-stanza my-5 text-center\">Curriculum Vitae, Resume and Job Posting.</div>\n  </div>\n</div>\n<div class=\"card card-section bg-dark text-warning shadow\">\n  <div class=\"section card-body mb-0 my-2\">\n    <div class=\"paragraph card-text card-stanza my-5 text-center\">The student moves at their own pace,</div>\n    <div class=\"paragraph card-text card-stanza my-5 text-center\">leaving an open trail that can be reviewed by prospective employers,</div>\n    <div class=\"paragraph card-text card-stanza my-5 text-center\">teachers, fellow researchers, and employers willing to pay for their study.</div>\n  </div>\n</div>\n<div class=\"card card-section bg-dark text-warning shadow\">\n  <div class=\"section card-body mb-0 my-2\">\n    <div class=\"paragraph card-text card-stanza my-5 text-center\">Certain paths can carry a Bounty, or Monetary Tips, Recurring Monetary Encouragement,</div>\n    <div class=\"paragraph card-text card-stanza my-5 text-center\">and above all creates a point into which the Government, City or Community, can invest.</div>\n  </div>\n</div>\n<div class=\"mb-5 section-spacer\">&nbsp;</div>\n<div class=\"card card-section bg-dark text-warning shadow\">\n  <div class=\"section card-body mb-0 my-2\">\n    <div class=\"paragraph card-text card-stanza my-5 text-center\">This is an Open School where anybody can come,</div>\n    <div class=\"paragraph card-text card-stanza my-5 text-center\">where anybody can begin excelling at a subject that they are interested in.</div>\n  </div>\n</div>\n<div class=\"card card-section bg-dark text-warning shadow\">\n  <div class=\"section card-body mb-0 my-2\">\n    <div class=\"paragraph card-text card-stanza my-5 text-center\">Many may start with traditional subjects like Mathematics,</div>\n    <div class=\"paragraph card-text card-stanza my-5 text-center\">but here mathematics is presented with connecting points to various industries, and scholarships.</div>\n  </div>\n</div>\n<div class=\"mb-5 section-spacer\">&nbsp;</div>\n<div class=\"card card-section bg-dark text-warning shadow\">\n  <div class=\"section card-body mb-0 my-2\">\n    <div class=\"paragraph card-text card-stanza my-5 text-center\">The software program behind this system will be kept purposefully simple and open,</div>\n    <div class=\"paragraph card-text card-stanza my-5 text-center\">it is after-all very similar to World Encyclopedia with a Blockchain for purposes of Scholarships and Path Funding.</div>\n  </div>\n</div>\n<div class=\"card card-section bg-dark text-warning shadow\">\n  <div class=\"section card-body mb-0 my-2\">\n    <div class=\"paragraph card-text card-stanza my-5 text-center\">The software will discourage disconnected clusters in hopes of bringing Humanity together to a single Truth we can all agree on,</div>\n    <div class=\"paragraph card-text card-stanza my-5 text-center\">as this an important requirement for dealing with Elimination of Poverty, Improvement of Education, Repair of Climate, and Prevention of Mass Incarceration.</div>\n  </div>\n</div>\n<div class=\"mb-5 section-spacer\">&nbsp;</div>\n<div class=\"card card-section bg-dark text-warning shadow\">\n  <div class=\"section card-body mb-0 my-2\">\n    <div class=\"paragraph card-text card-stanza my-5 text-center\">Let us hope that this school will quickly become a Point of Cultural Convergence on Wisdom and Good Ideas,</div>\n    <div class=\"paragraph card-text card-stanza my-5 text-center\">a place for sharing Study Paths, Preservation of Knowledge, and a Fine Exit from Poverty by Means of Self Education and Pursuit of Excellence.</div>\n  </div>\n</div>\n<div class=\"card card-section bg-dark text-warning shadow\">\n  <div class=\"section card-body mb-0 my-2\">\n    <div class=\"paragraph card-text card-stanza my-5 text-center\">The Nations that Choose to Invest in This School to Help with Scholarship Programs,</div>\n    <div class=\"paragraph card-text card-stanza my-5 text-center\">will be investing in nothing less than the very Future of Human Kind.</div>\n  </div>\n</div>\n<div class=\"card card-section bg-dark text-warning shadow\">\n  <div class=\"section card-body mb-0 my-2\">\n    <div class=\"paragraph card-text card-stanza my-5 text-center\">One Family,</div>\n    <div class=\"paragraph card-text card-stanza my-5 text-center\">United In Wisdom.</div>\n  </div>\n</div>",
  "print": "<div class=\"section avoid-break-inside\" style=\"padding-bottom: 2rem;\">\n  <div class=\"paragraph\">We must repair schools,</div>\n  <div class=\"paragraph\">and finally put an end to ideas like listen and repeat and short term memorization.</div>\n</div>\n<div class=\"section avoid-break-inside\" style=\"padding-bottom: 2rem;\">\n  <div class=\"paragraph\">The first and foremost is the elimination of grades,</div>\n  <div class=\"paragraph\">which also means elimination of standardized testing.</div>\n</div>\n<div class=\"section avoid-break-inside\" style=\"padding-bottom: 2rem;\">\n  <div class=\"paragraph\">There cannot be such a thing as a Standard Human,</div>\n  <div class=\"paragraph\">with a standard mind, it is very foolish to think that.</div>\n</div>\n<div class=\"section avoid-break-inside\" style=\"padding-bottom: 2rem;\">\n  <br>\n</div>\n<div class=\"section avoid-break-inside\" style=\"padding-bottom: 2rem;\">\n  <div class=\"paragraph\">The second is the division of subjects,</div>\n  <div class=\"paragraph\">and that is no different than browsing the World Encyclopedia.</div>\n</div>\n<div class=\"section avoid-break-inside\" style=\"padding-bottom: 2rem;\">\n  <div class=\"paragraph\">Eventually, people who arrive at Gene Editing,</div>\n  <div class=\"paragraph\">will choose their own path through Biology.</div>\n</div>\n<div class=\"section avoid-break-inside\" style=\"padding-bottom: 2rem;\">\n  <div class=\"paragraph\">Eventually, those who take to building Software,</div>\n  <div class=\"paragraph\">will create a path through languages and concepts that fit them best.</div>\n</div>\n<div class=\"section avoid-break-inside\" style=\"padding-bottom: 2rem;\">\n  <div class=\"paragraph\">Same for every other subject...</div>\n</div>\n<div class=\"section avoid-break-inside\" style=\"padding-bottom: 2rem;\">\n  <div class=\"paragraph\">Mathematics can be studied from an enormous number of starting points,</div>\n  <div class=\"paragraph\">from Color Theories, and Music and Sound Processing,</div>\n  <div class=\"paragraph\">to 3D Printing, Game and Game Engine Design, Astrobiology, Cryptanalysis and Combinatorial Genomics,</div>\n  <div class=\"paragraph\">it is not presented as an aim, but rather a small stepping stone in a familiar context, and thus much more easily mastered.</div>\n</div>\n<div class=\"section avoid-break-inside\" style=\"padding-bottom: 2rem;\">\n  <br>\n</div>\n<div class=\"section avoid-break-inside\" style=\"padding-bottom: 2rem;\">\n  <div class=\"paragraph\">Once a student displays a long term curiosity for a subject,</div>\n  <div class=\"paragraph\">they will choose to be tested and choose to follow industry standards,</div>\n  <div class=\"paragraph\">they will also choose an evolving test program to which they themselves may contribute.</div>\n</div>\n<div class=\"section avoid-break-inside\" style=\"padding-bottom: 2rem;\">\n  <div class=\"paragraph\">As a whole, that creates their own Study Curriculum,</div>\n  <div class=\"paragraph\">Curriculum Vitae, Resume and Job Posting.</div>\n</div>\n<div class=\"section avoid-break-inside\" style=\"padding-bottom: 2rem;\">\n  <div class=\"paragraph\">The student moves at their own pace,</div>\n  <div class=\"paragraph\">leaving an open trail that can be reviewed by prospective employers,</div>\n  <div class=\"paragraph\">teachers, fellow researchers, and employers willing to pay for their study.</div>\n</div>\n<div class=\"section avoid-break-inside\" style=\"padding-bottom: 2rem;\">\n  <div class=\"paragraph\">Certain paths can carry a Bounty, or Monetary Tips, Recurring Monetary Encouragement,</div>\n  <div class=\"paragraph\">and above all creates a point into which the Government, City or Community, can invest.</div>\n</div>\n<div class=\"section avoid-break-inside\" style=\"padding-bottom: 2rem;\">\n  <br>\n</div>\n<div class=\"section avoid-break-inside\" style=\"padding-bottom: 2rem;\">\n  <div class=\"paragraph\">This is an Open School where anybody can come,</div>\n  <div class=\"paragraph\">where anybody can begin excelling at a subject that they are interested in.</div>\n</div>\n<div class=\"section avoid-break-inside\" style=\"padding-bottom: 2rem;\">\n  <div class=\"paragraph\">Many may start with traditional subjects like Mathematics,</div>\n  <div class=\"paragraph\">but here mathematics is presented with connecting points to various industries, and scholarships.</div>\n</div>\n<div class=\"section avoid-break-inside\" style=\"padding-bottom: 2rem;\">\n  <br>\n</div>\n<div class=\"section avoid-break-inside\" style=\"padding-bottom: 2rem;\">\n  <div class=\"paragraph\">The software program behind this system will be kept purposefully simple and open,</div>\n  <div class=\"paragraph\">it is after-all very similar to World Encyclopedia with a Blockchain for purposes of Scholarships and Path Funding.</div>\n</div>\n<div class=\"section avoid-break-inside\" style=\"padding-bottom: 2rem;\">\n  <div class=\"paragraph\">The software will discourage disconnected clusters in hopes of bringing Humanity together to a single Truth we can all agree on,</div>\n  <div class=\"paragraph\">as this an important requirement for dealing with Elimination of Poverty, Improvement of Education, Repair of Climate, and Prevention of Mass Incarceration.</div>\n</div>\n<div class=\"section avoid-break-inside\" style=\"padding-bottom: 2rem;\">\n  <br>\n</div>\n<div class=\"section avoid-break-inside\" style=\"padding-bottom: 2rem;\">\n  <div class=\"paragraph\">Let us hope that this school will quickly become a Point of Cultural Convergence on Wisdom and Good Ideas,</div>\n  <div class=\"paragraph\">a place for sharing Study Paths, Preservation of Knowledge, and a Fine Exit from Poverty by Means of Self Education and Pursuit of Excellence.</div>\n</div>\n<div class=\"section avoid-break-inside\" style=\"padding-bottom: 2rem;\">\n  <div class=\"paragraph\">The Nations that Choose to Invest in This School to Help with Scholarship Programs,</div>\n  <div class=\"paragraph\">will be investing in nothing less than the very Future of Human Kind.</div>\n</div>\n<div class=\"section avoid-break-inside\" style=\"padding-bottom: 2rem;\">\n  <div class=\"paragraph\">One Family,</div>\n  <div class=\"paragraph\">United In Wisdom.</div>\n</div>",
  "text": "We must repair schools,\nand finally put an end to ideas like listen and repeat and short term memorization.\nThe first and foremost is the elimination of grades,\nwhich also means elimination of standardized testing.\nThere cannot be such a thing as a Standard Human,\nwith a standard mind, it is very foolish to think that.\n\nThe second is the division of subjects,\nand that is no different than browsing the World Encyclopedia.\nEventually, people who arrive at Gene Editing,\nwill choose their own path through Biology.\nEventually, those who take to building Software,\nwill create a path through languages and concepts that fit them best.\nSame for every other subject...\nMathematics can be studied from an enormous number of starting points,\nfrom Color Theories, and Music and Sound Processing,\nto 3D Printing, Game and Game Engine Design, Astrobiology, Cryptanalysis and Combinatorial Genomics,\nit is not presented as an aim, but rather a small stepping stone in a familiar context, and thus much more easily mastered.\n\nOnce a student displays a long term curiosity for a subject,\nthey will choose to be tested and choose to follow industry standards,\nthey will also choose an evolving test program to which they themselves may contribute.\nAs a whole, that creates their own Study Curriculum,\nCurriculum Vitae, Resume and Job Posting.\nThe student moves at their own pace,\nleaving an open trail that can be reviewed by prospective employers,\nteachers, fellow researchers, and employers willing to pay for their study.\nCertain paths can carry a Bounty, or Monetary Tips, Recurring Monetary Encouragement,\nand above all creates a point into which the Government, City or Community, can invest.\n\nThis is an Open School where anybody can come,\nwhere anybody can begin excelling at a subject that they are interested in.\nMany may start with traditional subjects like Mathematics,\nbut here mathematics is presented with connecting points to various industries, and scholarships.\n\nThe software program behind this system will be kept purposefully simple and open,\nit is after-all very similar to World Encyclopedia with a Blockchain for purposes of Scholarships and Path Funding.\nThe software will discourage disconnected clusters in hopes of bringing Humanity together to a single Truth we can all agree on,\nas this an important requirement for dealing with Elimination of Poverty, Improvement of Education, Repair of Climate, and Prevention of Mass Incarceration.\n\nLet us hope that this school will quickly become a Point of Cultural Convergence on Wisdom and Good Ideas,\na place for sharing Study Paths, Preservation of Knowledge, and a Fine Exit from Poverty by Means of Self Education and Pursuit of Excellence.\nThe Nations that Choose to Invest in This School to Help with Scholarship Programs,\nwill be investing in nothing less than the very Future of Human Kind.\nOne Family,\nUnited In Wisdom.",
  "images": [],
  "links": []
}