{
  "title": "The Sword Can't Even Compare To Your Pen",
  "date": "2020-08-20T00:06:40.703Z",
  "image": "poetry-0172-illustration.jpg",
  "audio": "poetry-0172.mp3",
  "id": "furkies-purrkies-poetry-0172",
  "attachments": {},
  "guid": "6329f590-8093-4d47-b22b-e350cebfab5a"
}
