{
  "title": "Deer: The Happy Little Horses",
  "date": "2021-06-17T01:36:52.055Z",
  "image": "poetry-0473-illustration.jpg",
  "audio": "poetry-0473.mp3",
  "artwork": "https://catpea.com/",
  "id": "furkies-purrkies-poetry-0473",
  "attachments": {},
  "guid": "3ed67e88-019c-4bd6-8b0b-a00c7a078a5a"
}
