{
  "id": "furkies-purrkies-poetry-0558",
  "title": "Philosophers And Warriors",
  "date": "2021-09-10T01:57:21.411Z",
  "image": "poetry-0558-illustration.jpg",
  "artwork": "https://unsplash.com/photos/l_MXHKODm9c",
  "audio": "poetry-0558.mp3",
  "guid": "bde449bc-b689-477f-abfb-a060a5fecd83"
}
