{
  "name": "furkies-purrkies-poetry-0521",
  "id": "furkies-purrkies-poetry-0521",
  "title": "A Strange Little List Of Artsy Things",
  "date": "2021-08-04T02:21:15.139Z",
  "image": "poetry-0521-illustration.jpg",
  "artwork": "https://www.pexels.com/photo/photo-of-woman-in-front-of-painting-3547625/",
  "audio": "poetry-0521.mp3",
  "guid": "e93de215-04b7-4d58-b509-5a28d322900a",
  "html": "<div class=\"section\">\n  <p>There is of course but one rule in art:<br>Don't Stop.</p>\n  <p>In deed, what makes an artist,<br>is frequent practice.</p>\n  <p>That is all,<br>there is to it,</p>\n</div>\n<div class=\"section\">\n  <hr>\n</div>\n<div class=\"section\">\n  <p>Even so, what follows is a few thoughts I jotted this evening,<br>in anticipation of this poem.</p>\n</div>\n<div class=\"section\">\n  <hr>\n</div>\n<div class=\"section\">\n  <p>An easel, especially a portable one, meant for adventures,<br>can't be driven to the art destination.</p>\n  <p>You can't just whip your easel out of the car,<br>and pop it up in front of some vista.</p>\n  <p>It is hard to explain,<br>but you have to park somewhere far, down the hill.</p>\n  <p>You can ride a bicycle, or huff an puff some other way,<br>but you can't use a car to get all the way.</p>\n  <p>The practice of art,<br>requires great Dignity and Nobility.</p>\n</div>\n<div class=\"section\">\n  <hr>\n</div>\n<div class=\"section\">\n  <p>Long before you pounce at art,<br>take time to learn how and what time of day you can take good photos.</p>\n  <p>Always take more photos than you will ever need,<br>you just never know the smiles you can discover in there.</p>\n  <p>A photo is a magical connection to the subject of your drawing or painting,<br>instead of bicycling all the way out there again, you can just pull it out of your pocket.</p>\n  <p>Somewhere on my way to Nordhouse, I had the impossible luck of having come across,<br>an old Black and White postcard of Mona Lisa.</p>\n  <p>It was all I needed,<br>to invent my way towards art.</p>\n</div>\n<div class=\"section\">\n  <hr>\n</div>\n<div class=\"section\">\n  <p>Searching for color and gradient combinations is a big deal,<br>you need journals and posters and entire painting dedicated to the exploration.</p>\n  <p>But take the time to look at history of color as well,<br>history of oil painting in general.</p>\n  <p>It is not always a good thing to say that one should only use the most beautiful of colors,<br>but if you are to replicate colors of your source image perfectly.</p>\n  <p>As you sit down to your painting,<br><a href=\"https://www.youtube.com/watch?v=DYGi18U4D4M\">grab a large full color printout of your subject, place a glass pane over it, and test your colors on the glass</a>.</p>\n  <p>But also consider painting for the colors sake,<br>it is such a happy thing to have your breath taken away by a painting with colors from another world.</p>\n</div>\n<div class=\"section\">\n  <hr>\n</div>\n<div class=\"section\">\n  <p>Trace, trace, trace, copy, and project you images with office projectors,<br>invent countless ways of transferring shapes with precision to your painting or drawing.</p>\n  <p>Unless you are a medical student, there is little to be found by first memorizing everything to perfection,<br>memorize your shapes and their needs by tracing thousands of portraits.</p>\n  <p>And tell everyone about it, invite them to the world of Art,<br>make them wonder, and daydream about becoming artists.</p>\n  <p>Take time to prepare an entire book of tracings,<br>both for practice and for meditation.</p>\n  <p>It is so nice to have everything ready, to just sit down and doodle,<br>while you sip your white mocha.</p>\n</div>\n<div class=\"section\">\n  <hr>\n</div>\n<div class=\"section\">\n  <p>Finally, just because you are at a beautiful location,<br>it does not mean that you have to paint what is right there.</p>\n  <p>One time, I was at the <a href=\"https://www2.dnr.state.mi.us/parksandtrails/details.aspx?id=484&type=SPRK\">Pinckney Recreation Area</a>, which has a pretty lake,<br>with a neat woodland horizon.</p>\n  <p>I remember being lost in my thoughts as I've noticed,<br>that they have recently installed Bear proof garbage cans.</p>\n  <p>It just blew my mind, that somewhere out there could be a bear,<br>eyeing me for a beefy succulent treat.</p>\n  <p>And for the hell in me, I just couldn't open any for those cans,<br>no matter how many times I read the instructions.</p>\n  <p>Before I could stop myself,<br>from pondering if perhaps I was the bear.</p>\n  <p>I've noticed a mother and child waddling my way,<br>in a way that bespoke \"C'mon lets see his painting.\"</p>\n  <p>Normally this would be strange, as from where they were standing,<br>one could assume that they were closer to the scene that I was painting than I was.</p>\n  <p>However, this time,<br>I went to the lake for the purpose of not painting the lake.</p>\n  <p>Before I knew it, the mother was behind me, heavily breathing on my neck,<br>and intently staring at my painting, with a grimace.</p>\n  <p>The child was still huffing and puffing up the hill,<br>and she slid down there, to get him.</p>\n  <p>And I could hear her saying, that it was <em>not</em> the lake,<br>that it is an \"Inebriated Dog\".</p>\n  <p>Which it was - I was painting <a href=\"https://en.wikipedia.org/wiki/Brian_Griffin\">Brian Griffin</a> the white drunk intellectual Labrador that speaks English,<br>in Seth MacFarlane's Family Guy.</p>\n  <p>I haven't sat down a TV in 20 years, I don't think I ever watched a full episode,<br>but I figured I should paint the Dog, because it seemed smart.</p>\n</div>\n<div class=\"section\">\n  <hr>\n</div>\n<div class=\"section\">\n  <p>And that is my final piece of advice,<br>it is good to have rules, because Art rules are meant to be broken.</p>\n</div>",
  "bootstrap": "<div class=\"card card-section bg-dark text-warning shadow\">\n  <div class=\"section card-body mb-0 my-2\">\n    <div class=\"paragraph card-text card-stanza my-5 text-center\">There is of course but one rule in art:<br>Don't Stop.</div>\n    <div class=\"paragraph card-text card-stanza my-5 text-center\">In deed, what makes an artist,<br>is frequent practice.</div>\n    <div class=\"paragraph card-text card-stanza my-5 text-center\">That is all,<br>there is to it,</div>\n  </div>\n</div>\n<div class=\"mb-5 section-spacer\">&nbsp;</div>\n<div class=\"card card-section bg-dark text-warning shadow\">\n  <div class=\"section card-body mb-0 my-2\">\n    <div class=\"paragraph card-text card-stanza my-5 text-center\">Even so, what follows is a few thoughts I jotted this evening,<br>in anticipation of this poem.</div>\n  </div>\n</div>\n<div class=\"mb-5 section-spacer\">&nbsp;</div>\n<div class=\"card card-section bg-dark text-warning shadow\">\n  <div class=\"section card-body mb-0 my-2\">\n    <div class=\"paragraph card-text card-stanza my-5 text-center\">An easel, especially a portable one, meant for adventures,<br>can't be driven to the art destination.</div>\n    <div class=\"paragraph card-text card-stanza my-5 text-center\">You can't just whip your easel out of the car,<br>and pop it up in front of some vista.</div>\n    <div class=\"paragraph card-text card-stanza my-5 text-center\">It is hard to explain,<br>but you have to park somewhere far, down the hill.</div>\n    <div class=\"paragraph card-text card-stanza my-5 text-center\">You can ride a bicycle, or huff an puff some other way,<br>but you can't use a car to get all the way.</div>\n    <div class=\"paragraph card-text card-stanza my-5 text-center\">The practice of art,<br>requires great Dignity and Nobility.</div>\n  </div>\n</div>\n<div class=\"mb-5 section-spacer\">&nbsp;</div>\n<div class=\"card card-section bg-dark text-warning shadow\">\n  <div class=\"section card-body mb-0 my-2\">\n    <div class=\"paragraph card-text card-stanza my-5 text-center\">Long before you pounce at art,<br>take time to learn how and what time of day you can take good photos.</div>\n    <div class=\"paragraph card-text card-stanza my-5 text-center\">Always take more photos than you will ever need,<br>you just never know the smiles you can discover in there.</div>\n    <div class=\"paragraph card-text card-stanza my-5 text-center\">A photo is a magical connection to the subject of your drawing or painting,<br>instead of bicycling all the way out there again, you can just pull it out of your pocket.</div>\n    <div class=\"paragraph card-text card-stanza my-5 text-center\">Somewhere on my way to Nordhouse, I had the impossible luck of having come across,<br>an old Black and White postcard of Mona Lisa.</div>\n    <div class=\"paragraph card-text card-stanza my-5 text-center\">It was all I needed,<br>to invent my way towards art.</div>\n  </div>\n</div>\n<div class=\"mb-5 section-spacer\">&nbsp;</div>\n<div class=\"card card-section bg-dark text-warning shadow\">\n  <div class=\"section card-body mb-0 my-2\">\n    <div class=\"paragraph card-text card-stanza my-5 text-center\">Searching for color and gradient combinations is a big deal,<br>you need journals and posters and entire painting dedicated to the exploration.</div>\n    <div class=\"paragraph card-text card-stanza my-5 text-center\">But take the time to look at history of color as well,<br>history of oil painting in general.</div>\n    <div class=\"paragraph card-text card-stanza my-5 text-center\">It is not always a good thing to say that one should only use the most beautiful of colors,<br>but if you are to replicate colors of your source image perfectly.</div>\n    <div class=\"paragraph card-text card-stanza my-5 text-center\">As you sit down to your painting,<br><a href=\"https://www.youtube.com/watch?v=DYGi18U4D4M\">grab a large full color printout of your subject, place a glass pane over it, and test your colors on the glass</a>.</div>\n    <div class=\"paragraph card-text card-stanza my-5 text-center\">But also consider painting for the colors sake,<br>it is such a happy thing to have your breath taken away by a painting with colors from another world.</div>\n  </div>\n</div>\n<div class=\"mb-5 section-spacer\">&nbsp;</div>\n<div class=\"card card-section bg-dark text-warning shadow\">\n  <div class=\"section card-body mb-0 my-2\">\n    <div class=\"paragraph card-text card-stanza my-5 text-center\">Trace, trace, trace, copy, and project you images with office projectors,<br>invent countless ways of transferring shapes with precision to your painting or drawing.</div>\n    <div class=\"paragraph card-text card-stanza my-5 text-center\">Unless you are a medical student, there is little to be found by first memorizing everything to perfection,<br>memorize your shapes and their needs by tracing thousands of portraits.</div>\n    <div class=\"paragraph card-text card-stanza my-5 text-center\">And tell everyone about it, invite them to the world of Art,<br>make them wonder, and daydream about becoming artists.</div>\n    <div class=\"paragraph card-text card-stanza my-5 text-center\">Take time to prepare an entire book of tracings,<br>both for practice and for meditation.</div>\n    <div class=\"paragraph card-text card-stanza my-5 text-center\">It is so nice to have everything ready, to just sit down and doodle,<br>while you sip your white mocha.</div>\n  </div>\n</div>\n<div class=\"mb-5 section-spacer\">&nbsp;</div>\n<div class=\"card card-section bg-dark text-warning shadow\">\n  <div class=\"section card-body mb-0 my-2\">\n    <div class=\"paragraph card-text card-stanza my-5 text-center\">Finally, just because you are at a beautiful location,<br>it does not mean that you have to paint what is right there.</div>\n    <div class=\"paragraph card-text card-stanza my-5 text-center\">One time, I was at the <a href=\"https://www2.dnr.state.mi.us/parksandtrails/details.aspx?id=484&type=SPRK\">Pinckney Recreation Area</a>, which has a pretty lake,<br>with a neat woodland horizon.</div>\n    <div class=\"paragraph card-text card-stanza my-5 text-center\">I remember being lost in my thoughts as I've noticed,<br>that they have recently installed Bear proof garbage cans.</div>\n    <div class=\"paragraph card-text card-stanza my-5 text-center\">It just blew my mind, that somewhere out there could be a bear,<br>eyeing me for a beefy succulent treat.</div>\n    <div class=\"paragraph card-text card-stanza my-5 text-center\">And for the hell in me, I just couldn't open any for those cans,<br>no matter how many times I read the instructions.</div>\n    <div class=\"paragraph card-text card-stanza my-5 text-center\">Before I could stop myself,<br>from pondering if perhaps I was the bear.</div>\n    <div class=\"paragraph card-text card-stanza my-5 text-center\">I've noticed a mother and child waddling my way,<br>in a way that bespoke \"C'mon lets see his painting.\"</div>\n    <div class=\"paragraph card-text card-stanza my-5 text-center\">Normally this would be strange, as from where they were standing,<br>one could assume that they were closer to the scene that I was painting than I was.</div>\n    <div class=\"paragraph card-text card-stanza my-5 text-center\">However, this time,<br>I went to the lake for the purpose of not painting the lake.</div>\n    <div class=\"paragraph card-text card-stanza my-5 text-center\">Before I knew it, the mother was behind me, heavily breathing on my neck,<br>and intently staring at my painting, with a grimace.</div>\n    <div class=\"paragraph card-text card-stanza my-5 text-center\">The child was still huffing and puffing up the hill,<br>and she slid down there, to get him.</div>\n    <div class=\"paragraph card-text card-stanza my-5 text-center\">And I could hear her saying, that it was <em>not</em> the lake,<br>that it is an \"Inebriated Dog\".</div>\n    <div class=\"paragraph card-text card-stanza my-5 text-center\">Which it was - I was painting <a href=\"https://en.wikipedia.org/wiki/Brian_Griffin\">Brian Griffin</a> the white drunk intellectual Labrador that speaks English,<br>in Seth MacFarlane's Family Guy.</div>\n    <div class=\"paragraph card-text card-stanza my-5 text-center\">I haven't sat down a TV in 20 years, I don't think I ever watched a full episode,<br>but I figured I should paint the Dog, because it seemed smart.</div>\n  </div>\n</div>\n<div class=\"mb-5 section-spacer\">&nbsp;</div>\n<div class=\"card card-section bg-dark text-warning shadow\">\n  <div class=\"section card-body mb-0 my-2\">\n    <div class=\"paragraph card-text card-stanza my-5 text-center\">And that is my final piece of advice,<br>it is good to have rules, because Art rules are meant to be broken.</div>\n  </div>\n</div>",
  "print": "<div class=\"section avoid-break-inside\" style=\"padding-bottom: 2rem;\">\n  <div class=\"paragraph\">There is of course but one rule in art:<br>Don't Stop.</div>\n  <div class=\"paragraph\">In deed, what makes an artist,<br>is frequent practice.</div>\n  <div class=\"paragraph\">That is all,<br>there is to it,</div>\n</div>\n<div class=\"section avoid-break-inside\" style=\"padding-bottom: 2rem;\">\n  <br>\n</div>\n<div class=\"section avoid-break-inside\" style=\"padding-bottom: 2rem;\">\n  <div class=\"paragraph\">Even so, what follows is a few thoughts I jotted this evening,<br>in anticipation of this poem.</div>\n</div>\n<div class=\"section avoid-break-inside\" style=\"padding-bottom: 2rem;\">\n  <br>\n</div>\n<div class=\"section avoid-break-inside\" style=\"padding-bottom: 2rem;\">\n  <div class=\"paragraph\">An easel, especially a portable one, meant for adventures,<br>can't be driven to the art destination.</div>\n  <div class=\"paragraph\">You can't just whip your easel out of the car,<br>and pop it up in front of some vista.</div>\n  <div class=\"paragraph\">It is hard to explain,<br>but you have to park somewhere far, down the hill.</div>\n  <div class=\"paragraph\">You can ride a bicycle, or huff an puff some other way,<br>but you can't use a car to get all the way.</div>\n  <div class=\"paragraph\">The practice of art,<br>requires great Dignity and Nobility.</div>\n</div>\n<div class=\"section avoid-break-inside\" style=\"padding-bottom: 2rem;\">\n  <br>\n</div>\n<div class=\"section avoid-break-inside\" style=\"padding-bottom: 2rem;\">\n  <div class=\"paragraph\">Long before you pounce at art,<br>take time to learn how and what time of day you can take good photos.</div>\n  <div class=\"paragraph\">Always take more photos than you will ever need,<br>you just never know the smiles you can discover in there.</div>\n  <div class=\"paragraph\">A photo is a magical connection to the subject of your drawing or painting,<br>instead of bicycling all the way out there again, you can just pull it out of your pocket.</div>\n  <div class=\"paragraph\">Somewhere on my way to Nordhouse, I had the impossible luck of having come across,<br>an old Black and White postcard of Mona Lisa.</div>\n  <div class=\"paragraph\">It was all I needed,<br>to invent my way towards art.</div>\n</div>\n<div class=\"section avoid-break-inside\" style=\"padding-bottom: 2rem;\">\n  <br>\n</div>\n<div class=\"section avoid-break-inside\" style=\"padding-bottom: 2rem;\">\n  <div class=\"paragraph\">Searching for color and gradient combinations is a big deal,<br>you need journals and posters and entire painting dedicated to the exploration.</div>\n  <div class=\"paragraph\">But take the time to look at history of color as well,<br>history of oil painting in general.</div>\n  <div class=\"paragraph\">It is not always a good thing to say that one should only use the most beautiful of colors,<br>but if you are to replicate colors of your source image perfectly.</div>\n  <div class=\"paragraph\">As you sit down to your painting,<br><span>grab a large full color printout of your subject, place a glass pane over it, and test your colors on the glass<sup>[1]</sup></span>.</div>\n  <div class=\"paragraph\">But also consider painting for the colors sake,<br>it is such a happy thing to have your breath taken away by a painting with colors from another world.</div>\n</div>\n<div class=\"section avoid-break-inside\" style=\"padding-bottom: 2rem;\">\n  <br>\n</div>\n<div class=\"section avoid-break-inside\" style=\"padding-bottom: 2rem;\">\n  <div class=\"paragraph\">Trace, trace, trace, copy, and project you images with office projectors,<br>invent countless ways of transferring shapes with precision to your painting or drawing.</div>\n  <div class=\"paragraph\">Unless you are a medical student, there is little to be found by first memorizing everything to perfection,<br>memorize your shapes and their needs by tracing thousands of portraits.</div>\n  <div class=\"paragraph\">And tell everyone about it, invite them to the world of Art,<br>make them wonder, and daydream about becoming artists.</div>\n  <div class=\"paragraph\">Take time to prepare an entire book of tracings,<br>both for practice and for meditation.</div>\n  <div class=\"paragraph\">It is so nice to have everything ready, to just sit down and doodle,<br>while you sip your white mocha.</div>\n</div>\n<div class=\"section avoid-break-inside\" style=\"padding-bottom: 2rem;\">\n  <br>\n</div>\n<div class=\"section avoid-break-inside\" style=\"padding-bottom: 2rem;\">\n  <div class=\"paragraph\">Finally, just because you are at a beautiful location,<br>it does not mean that you have to paint what is right there.</div>\n  <div class=\"paragraph\">One time, I was at the <span>Pinckney Recreation Area<sup>[2]</sup></span>, which has a pretty lake,<br>with a neat woodland horizon.</div>\n  <div class=\"paragraph\">I remember being lost in my thoughts as I've noticed,<br>that they have recently installed Bear proof garbage cans.</div>\n  <div class=\"paragraph\">It just blew my mind, that somewhere out there could be a bear,<br>eyeing me for a beefy succulent treat.</div>\n  <div class=\"paragraph\">And for the hell in me, I just couldn't open any for those cans,<br>no matter how many times I read the instructions.</div>\n  <div class=\"paragraph\">Before I could stop myself,<br>from pondering if perhaps I was the bear.</div>\n  <div class=\"paragraph\">I've noticed a mother and child waddling my way,<br>in a way that bespoke \"C'mon lets see his painting.\"</div>\n  <div class=\"paragraph\">Normally this would be strange, as from where they were standing,<br>one could assume that they were closer to the scene that I was painting than I was.</div>\n  <div class=\"paragraph\">However, this time,<br>I went to the lake for the purpose of not painting the lake.</div>\n  <div class=\"paragraph\">Before I knew it, the mother was behind me, heavily breathing on my neck,<br>and intently staring at my painting, with a grimace.</div>\n  <div class=\"paragraph\">The child was still huffing and puffing up the hill,<br>and she slid down there, to get him.</div>\n  <div class=\"paragraph\">And I could hear her saying, that it was <em>not</em> the lake,<br>that it is an \"Inebriated Dog\".</div>\n  <div class=\"paragraph\">Which it was - I was painting <span>Brian Griffin<sup>[3]</sup></span> the white drunk intellectual Labrador that speaks English,<br>in Seth MacFarlane's Family Guy.</div>\n  <div class=\"paragraph\">I haven't sat down a TV in 20 years, I don't think I ever watched a full episode,<br>but I figured I should paint the Dog, because it seemed smart.</div>\n</div>\n<div class=\"section avoid-break-inside\" style=\"padding-bottom: 2rem;\">\n  <br>\n</div>\n<div class=\"section avoid-break-inside\" style=\"padding-bottom: 2rem;\">\n  <div class=\"paragraph\">And that is my final piece of advice,<br>it is good to have rules, because Art rules are meant to be broken.</div>\n</div>\n<div class=\"break-after\">&nbsp;</div>\n<div>\n  <div class=\"section\" style=\"padding-bottom: 1rem;\">References</div>\n  <div>[1]: https://www.youtube.com/watch?v=DYGi18U4D4M</div>\n  <div>[2]: https://www2.dnr.state.mi.us/parksandtrails/details.aspx?id=484&type=SPRK</div>\n  <div>[3]: https://en.wikipedia.org/wiki/Brian_Griffin</div>\n</div>",
  "text": "There is of course but one rule in art:\nDon't Stop.\nIn deed, what makes an artist,\nis frequent practice.\nThat is all,\nthere is to it,\n\nEven so, what follows is a few thoughts I jotted this evening,\nin anticipation of this poem.\n\nAn easel, especially a portable one, meant for adventures,\ncan't be driven to the art destination.\nYou can't just whip your easel out of the car,\nand pop it up in front of some vista.\nIt is hard to explain,\nbut you have to park somewhere far, down the hill.\nYou can ride a bicycle, or huff an puff some other way,\nbut you can't use a car to get all the way.\nThe practice of art,\nrequires great Dignity and Nobility.\n\nLong before you pounce at art,\ntake time to learn how and what time of day you can take good photos.\nAlways take more photos than you will ever need,\nyou just never know the smiles you can discover in there.\nA photo is a magical connection to the subject of your drawing or painting,\ninstead of bicycling all the way out there again, you can just pull it out of your pocket.\nSomewhere on my way to Nordhouse, I had the impossible luck of having come across,\nan old Black and White postcard of Mona Lisa.\nIt was all I needed,\nto invent my way towards art.\n\nSearching for color and gradient combinations is a big deal,\nyou need journals and posters and entire painting dedicated to the exploration.\nBut take the time to look at history of color as well,\nhistory of oil painting in general.\nIt is not always a good thing to say that one should only use the most beautiful of colors,\nbut if you are to replicate colors of your source image perfectly.\nAs you sit down to your painting,\ngrab a large full color printout of your subject, place a glass pane over it, and test your colors on the glass[1].\nBut also consider painting for the colors sake,\nit is such a happy thing to have your breath taken away by a painting with colors from another world.\n\nTrace, trace, trace, copy, and project you images with office projectors,\ninvent countless ways of transferring shapes with precision to your painting or drawing.\nUnless you are a medical student, there is little to be found by first memorizing everything to perfection,\nmemorize your shapes and their needs by tracing thousands of portraits.\nAnd tell everyone about it, invite them to the world of Art,\nmake them wonder, and daydream about becoming artists.\nTake time to prepare an entire book of tracings,\nboth for practice and for meditation.\nIt is so nice to have everything ready, to just sit down and doodle,\nwhile you sip your white mocha.\n\nFinally, just because you are at a beautiful location,\nit does not mean that you have to paint what is right there.\nOne time, I was at the Pinckney Recreation Area[2], which has a pretty lake,\nwith a neat woodland horizon.\nI remember being lost in my thoughts as I've noticed,\nthat they have recently installed Bear proof garbage cans.\nIt just blew my mind, that somewhere out there could be a bear,\neyeing me for a beefy succulent treat.\nAnd for the hell in me, I just couldn't open any for those cans,\nno matter how many times I read the instructions.\nBefore I could stop myself,\nfrom pondering if perhaps I was the bear.\nI've noticed a mother and child waddling my way,\nin a way that bespoke \"C'mon lets see his painting.\"\nNormally this would be strange, as from where they were standing,\none could assume that they were closer to the scene that I was painting than I was.\nHowever, this time,\nI went to the lake for the purpose of not painting the lake.\nBefore I knew it, the mother was behind me, heavily breathing on my neck,\nand intently staring at my painting, with a grimace.\nThe child was still huffing and puffing up the hill,\nand she slid down there, to get him.\nAnd I could hear her saying, that it was not the lake,\nthat it is an \"Inebriated Dog\".\nWhich it was - I was painting Brian Griffin[3] the white drunk intellectual Labrador that speaks English,\nin Seth MacFarlane's Family Guy.\nI haven't sat down a TV in 20 years, I don't think I ever watched a full episode,\nbut I figured I should paint the Dog, because it seemed smart.\n\nAnd that is my final piece of advice,\nit is good to have rules, because Art rules are meant to be broken.\n \nReferences\n[1]: https://www.youtube.com/watch?v=DYGi18U4D4M\n[2]: https://www2.dnr.state.mi.us/parksandtrails/details.aspx?id=484&type=SPRK\n[3]: https://en.wikipedia.org/wiki/Brian_Griffin",
  "images": [],
  "links": [
    {
      "title": "grab a large full color printout of your subject, place a glass pane over it, and test your colors on the glass",
      "url": "https://www.youtube.com/watch?v=DYGi18U4D4M",
      "hostname": "www.youtube.com"
    },
    {
      "title": "Pinckney Recreation Area",
      "url": "https://www2.dnr.state.mi.us/parksandtrails/details.aspx?id=484&type=SPRK",
      "hostname": "www2.dnr.state.mi.us"
    },
    {
      "title": "Brian Griffin",
      "url": "https://en.wikipedia.org/wiki/Brian_Griffin",
      "hostname": "en.wikipedia.org"
    }
  ]
}