{
  "name": "furkies-purrkies-poetry-0085",
  "title": "My Little Day",
  "date": "2020-05-29T01:19:47.917Z",
  "image": "poetry-0085-illustration.jpg",
  "audio": "poetry-0085.mp3",
  "id": "furkies-purrkies-poetry-0085",
  "attachments": {},
  "guid": "bc43377c-6836-43bb-8c5d-e95db60c5462",
  "html": "<div class=\"section\">\n  <p>Today was my day of rest,</p>\n  <p>and then I went jogging to run another test.</p>\n</div>\n<div class=\"section\">\n  <p>I got really tired after my run,</p>\n  <p>but I said &quot;Not until I write my poem, will I be done.&quot;</p>\n</div>\n<div class=\"section\">\n  <hr>\n</div>\n<div class=\"section\">\n  <p>Earlier I wrote a little programs to <a href=\"https://github.com/fantasyui-com/mockup\">make art</a></p>\n  <p>overall it was a really good start.</p>\n</div>\n<div class=\"section\">\n  <p>I woke up at six in the morning,</p>\n  <p>and jumped out of bed without a warning.</p>\n</div>\n<div class=\"section\">\n  <hr>\n</div>\n<div class=\"section\">\n  <p>Now the hour nears eleven,</p>\n  <p>getting into my bed will feel like heaven.</p>\n</div>\n<div class=\"section\">\n  <p>I am not sure how I feel about staying up late to write my rhyme,</p>\n  <p>but there is something sweet about writing just before bed time.</p>\n</div>",
  "bootstrap": "<div class=\"card card-section bg-dark text-warning shadow\">\n  <div class=\"section card-body mb-0 my-2\">\n    <div class=\"paragraph card-text card-stanza my-5 text-center\">Today was my day of rest,</div>\n    <div class=\"paragraph card-text card-stanza my-5 text-center\">and then I went jogging to run another test.</div>\n  </div>\n</div>\n<div class=\"card card-section bg-dark text-warning shadow\">\n  <div class=\"section card-body mb-0 my-2\">\n    <div class=\"paragraph card-text card-stanza my-5 text-center\">I got really tired after my run,</div>\n    <div class=\"paragraph card-text card-stanza my-5 text-center\">but I said \"Not until I write my poem, will I be done.\"</div>\n  </div>\n</div>\n<div class=\"mb-5 section-spacer\">&nbsp;</div>\n<div class=\"card card-section bg-dark text-warning shadow\">\n  <div class=\"section card-body mb-0 my-2\">\n    <div class=\"paragraph card-text card-stanza my-5 text-center\">Earlier I wrote a little programs to <a href=\"https://github.com/fantasyui-com/mockup\">make art</a></div>\n    <div class=\"paragraph card-text card-stanza my-5 text-center\">overall it was a really good start.</div>\n  </div>\n</div>\n<div class=\"card card-section bg-dark text-warning shadow\">\n  <div class=\"section card-body mb-0 my-2\">\n    <div class=\"paragraph card-text card-stanza my-5 text-center\">I woke up at six in the morning,</div>\n    <div class=\"paragraph card-text card-stanza my-5 text-center\">and jumped out of bed without a warning.</div>\n  </div>\n</div>\n<div class=\"mb-5 section-spacer\">&nbsp;</div>\n<div class=\"card card-section bg-dark text-warning shadow\">\n  <div class=\"section card-body mb-0 my-2\">\n    <div class=\"paragraph card-text card-stanza my-5 text-center\">Now the hour nears eleven,</div>\n    <div class=\"paragraph card-text card-stanza my-5 text-center\">getting into my bed will feel like heaven.</div>\n  </div>\n</div>\n<div class=\"card card-section bg-dark text-warning shadow\">\n  <div class=\"section card-body mb-0 my-2\">\n    <div class=\"paragraph card-text card-stanza my-5 text-center\">I am not sure how I feel about staying up late to write my rhyme,</div>\n    <div class=\"paragraph card-text card-stanza my-5 text-center\">but there is something sweet about writing just before bed time.</div>\n  </div>\n</div>",
  "print": "<div class=\"section avoid-break-inside\" style=\"padding-bottom: 2rem;\">\n  <div class=\"paragraph\">Today was my day of rest,</div>\n  <div class=\"paragraph\">and then I went jogging to run another test.</div>\n</div>\n<div class=\"section avoid-break-inside\" style=\"padding-bottom: 2rem;\">\n  <div class=\"paragraph\">I got really tired after my run,</div>\n  <div class=\"paragraph\">but I said \"Not until I write my poem, will I be done.\"</div>\n</div>\n<div class=\"section avoid-break-inside\" style=\"padding-bottom: 2rem;\">\n  <br>\n</div>\n<div class=\"section avoid-break-inside\" style=\"padding-bottom: 2rem;\">\n  <div class=\"paragraph\">Earlier I wrote a little programs to <span>make art<sup>[1]</sup></span></div>\n  <div class=\"paragraph\">overall it was a really good start.</div>\n</div>\n<div class=\"section avoid-break-inside\" style=\"padding-bottom: 2rem;\">\n  <div class=\"paragraph\">I woke up at six in the morning,</div>\n  <div class=\"paragraph\">and jumped out of bed without a warning.</div>\n</div>\n<div class=\"section avoid-break-inside\" style=\"padding-bottom: 2rem;\">\n  <br>\n</div>\n<div class=\"section avoid-break-inside\" style=\"padding-bottom: 2rem;\">\n  <div class=\"paragraph\">Now the hour nears eleven,</div>\n  <div class=\"paragraph\">getting into my bed will feel like heaven.</div>\n</div>\n<div class=\"section avoid-break-inside\" style=\"padding-bottom: 2rem;\">\n  <div class=\"paragraph\">I am not sure how I feel about staying up late to write my rhyme,</div>\n  <div class=\"paragraph\">but there is something sweet about writing just before bed time.</div>\n</div>\n<div class=\"break-after\">&nbsp;</div>\n<div>\n  <div class=\"section\" style=\"padding-bottom: 1rem;\">References</div>\n  <div>[1]: https://github.com/fantasyui-com/mockup</div>\n</div>",
  "text": "Today was my day of rest,\nand then I went jogging to run another test.\nI got really tired after my run,\nbut I said \"Not until I write my poem, will I be done.\"\n\nEarlier I wrote a little programs to make art[1]\noverall it was a really good start.\nI woke up at six in the morning,\nand jumped out of bed without a warning.\n\nNow the hour nears eleven,\ngetting into my bed will feel like heaven.\nI am not sure how I feel about staying up late to write my rhyme,\nbut there is something sweet about writing just before bed time.\n \nReferences\n[1]: https://github.com/fantasyui-com/mockup",
  "images": [],
  "links": [
    {
      "title": "make art",
      "url": "https://github.com/fantasyui-com/mockup",
      "hostname": "github.com"
    }
  ]
}