{
  "id": "furkies-purrkies-poetry-0925",
  "guid": "53829e74-faea-45e3-a3d3-c14244480d2f",
  "title": "Furkies Purrkies Poetry 0925",
  "date": "2022-09-12T02:24:39.414Z",
  "image": "poetry-0925-illustration.jpg",
  "artwork": "https://example.com",
  "audio": "poetry-0925.mp3"
}