{
  "name": "furkies-purrkies-poetry-0176",
  "title": "The Practice of Strength",
  "date": "2020-08-24T00:10:15.529Z",
  "image": "poetry-0176-illustration.jpg",
  "audio": "poetry-0176.mp3",
  "id": "furkies-purrkies-poetry-0176",
  "attachments": {},
  "guid": "2daabbd5-b77d-4199-ba28-19f8a7ada608",
  "html": "<div class=\"section\">\n  <p>You can&apos;t leap into whatever you conceive Enlightenment to be,</p>\n  <p>it is built layer by layer, step by step, and year by year.</p>\n</div>\n<div class=\"section\">\n  <p>We all need might, never has a creature been alive that didn&apos;t need strength,</p>\n  <p>and waiting until the last moment; is a bad idea, anyway.</p>\n</div>\n<div class=\"section\">\n  <p>That&apos;s why people run marathons,</p>\n  <p>this is why people challenge themselves with practice.</p>\n</div>\n<div class=\"section\">\n  <p>So that when life becomes a challenge,</p>\n  <p>for all the finish lines they crossed, failure won&apos;t cross their mind.</p>\n</div>\n<div class=\"section\">\n  <hr>\n</div>\n<div class=\"section\">\n  <p>A self challenge, is a practice of strength,</p>\n  <p>it is good for us.</p>\n</div>\n<div class=\"section\">\n  <p>It is different challenges for different people,</p>\n  <p>at different places in their lives.</p>\n</div>\n<div class=\"section\">\n  <p>But there is one thing they all have in common,</p>\n  <p>whatever they set off to do, it seems impossible at first.</p>\n</div>\n<div class=\"section\">\n  <p>That&apos;s what the hard parts of life are like,</p>\n  <p>they seem like an impassible challenge at first.</p>\n</div>\n<div class=\"section\">\n  <hr>\n</div>\n<div class=\"section\">\n  <p>Practice makes us strong,</p>\n  <p>difficult challenges help us grow, and help us think too.</p>\n</div>\n<div class=\"section\">\n  <p>It is all for life,</p>\n  <p>it is all for enlightenment.</p>\n</div>\n<div class=\"section\">\n  <p>It is all for living above the common levels of life,</p>\n  <p>it is all for knowing that no matter the challenge, we will find a way.</p>\n</div>\n<div class=\"section\">\n  <p>May we all grow wise, and strong, and healthy,</p>\n  <p>may we each find a mountain to move and inspire a generation.</p>\n</div>",
  "bootstrap": "<div class=\"card card-section bg-dark text-warning shadow\">\n  <div class=\"section card-body mb-0 my-2\">\n    <div class=\"paragraph card-text card-stanza my-5 text-center\">You can't leap into whatever you conceive Enlightenment to be,</div>\n    <div class=\"paragraph card-text card-stanza my-5 text-center\">it is built layer by layer, step by step, and year by year.</div>\n  </div>\n</div>\n<div class=\"card card-section bg-dark text-warning shadow\">\n  <div class=\"section card-body mb-0 my-2\">\n    <div class=\"paragraph card-text card-stanza my-5 text-center\">We all need might, never has a creature been alive that didn't need strength,</div>\n    <div class=\"paragraph card-text card-stanza my-5 text-center\">and waiting until the last moment; is a bad idea, anyway.</div>\n  </div>\n</div>\n<div class=\"card card-section bg-dark text-warning shadow\">\n  <div class=\"section card-body mb-0 my-2\">\n    <div class=\"paragraph card-text card-stanza my-5 text-center\">That's why people run marathons,</div>\n    <div class=\"paragraph card-text card-stanza my-5 text-center\">this is why people challenge themselves with practice.</div>\n  </div>\n</div>\n<div class=\"card card-section bg-dark text-warning shadow\">\n  <div class=\"section card-body mb-0 my-2\">\n    <div class=\"paragraph card-text card-stanza my-5 text-center\">So that when life becomes a challenge,</div>\n    <div class=\"paragraph card-text card-stanza my-5 text-center\">for all the finish lines they crossed, failure won't cross their mind.</div>\n  </div>\n</div>\n<div class=\"mb-5 section-spacer\">&nbsp;</div>\n<div class=\"card card-section bg-dark text-warning shadow\">\n  <div class=\"section card-body mb-0 my-2\">\n    <div class=\"paragraph card-text card-stanza my-5 text-center\">A self challenge, is a practice of strength,</div>\n    <div class=\"paragraph card-text card-stanza my-5 text-center\">it is good for us.</div>\n  </div>\n</div>\n<div class=\"card card-section bg-dark text-warning shadow\">\n  <div class=\"section card-body mb-0 my-2\">\n    <div class=\"paragraph card-text card-stanza my-5 text-center\">It is different challenges for different people,</div>\n    <div class=\"paragraph card-text card-stanza my-5 text-center\">at different places in their lives.</div>\n  </div>\n</div>\n<div class=\"card card-section bg-dark text-warning shadow\">\n  <div class=\"section card-body mb-0 my-2\">\n    <div class=\"paragraph card-text card-stanza my-5 text-center\">But there is one thing they all have in common,</div>\n    <div class=\"paragraph card-text card-stanza my-5 text-center\">whatever they set off to do, it seems impossible at first.</div>\n  </div>\n</div>\n<div class=\"card card-section bg-dark text-warning shadow\">\n  <div class=\"section card-body mb-0 my-2\">\n    <div class=\"paragraph card-text card-stanza my-5 text-center\">That's what the hard parts of life are like,</div>\n    <div class=\"paragraph card-text card-stanza my-5 text-center\">they seem like an impassible challenge at first.</div>\n  </div>\n</div>\n<div class=\"mb-5 section-spacer\">&nbsp;</div>\n<div class=\"card card-section bg-dark text-warning shadow\">\n  <div class=\"section card-body mb-0 my-2\">\n    <div class=\"paragraph card-text card-stanza my-5 text-center\">Practice makes us strong,</div>\n    <div class=\"paragraph card-text card-stanza my-5 text-center\">difficult challenges help us grow, and help us think too.</div>\n  </div>\n</div>\n<div class=\"card card-section bg-dark text-warning shadow\">\n  <div class=\"section card-body mb-0 my-2\">\n    <div class=\"paragraph card-text card-stanza my-5 text-center\">It is all for life,</div>\n    <div class=\"paragraph card-text card-stanza my-5 text-center\">it is all for enlightenment.</div>\n  </div>\n</div>\n<div class=\"card card-section bg-dark text-warning shadow\">\n  <div class=\"section card-body mb-0 my-2\">\n    <div class=\"paragraph card-text card-stanza my-5 text-center\">It is all for living above the common levels of life,</div>\n    <div class=\"paragraph card-text card-stanza my-5 text-center\">it is all for knowing that no matter the challenge, we will find a way.</div>\n  </div>\n</div>\n<div class=\"card card-section bg-dark text-warning shadow\">\n  <div class=\"section card-body mb-0 my-2\">\n    <div class=\"paragraph card-text card-stanza my-5 text-center\">May we all grow wise, and strong, and healthy,</div>\n    <div class=\"paragraph card-text card-stanza my-5 text-center\">may we each find a mountain to move and inspire a generation.</div>\n  </div>\n</div>",
  "print": "<div class=\"section avoid-break-inside\" style=\"padding-bottom: 2rem;\">\n  <div class=\"paragraph\">You can't leap into whatever you conceive Enlightenment to be,</div>\n  <div class=\"paragraph\">it is built layer by layer, step by step, and year by year.</div>\n</div>\n<div class=\"section avoid-break-inside\" style=\"padding-bottom: 2rem;\">\n  <div class=\"paragraph\">We all need might, never has a creature been alive that didn't need strength,</div>\n  <div class=\"paragraph\">and waiting until the last moment; is a bad idea, anyway.</div>\n</div>\n<div class=\"section avoid-break-inside\" style=\"padding-bottom: 2rem;\">\n  <div class=\"paragraph\">That's why people run marathons,</div>\n  <div class=\"paragraph\">this is why people challenge themselves with practice.</div>\n</div>\n<div class=\"section avoid-break-inside\" style=\"padding-bottom: 2rem;\">\n  <div class=\"paragraph\">So that when life becomes a challenge,</div>\n  <div class=\"paragraph\">for all the finish lines they crossed, failure won't cross their mind.</div>\n</div>\n<div class=\"section avoid-break-inside\" style=\"padding-bottom: 2rem;\">\n  <br>\n</div>\n<div class=\"section avoid-break-inside\" style=\"padding-bottom: 2rem;\">\n  <div class=\"paragraph\">A self challenge, is a practice of strength,</div>\n  <div class=\"paragraph\">it is good for us.</div>\n</div>\n<div class=\"section avoid-break-inside\" style=\"padding-bottom: 2rem;\">\n  <div class=\"paragraph\">It is different challenges for different people,</div>\n  <div class=\"paragraph\">at different places in their lives.</div>\n</div>\n<div class=\"section avoid-break-inside\" style=\"padding-bottom: 2rem;\">\n  <div class=\"paragraph\">But there is one thing they all have in common,</div>\n  <div class=\"paragraph\">whatever they set off to do, it seems impossible at first.</div>\n</div>\n<div class=\"section avoid-break-inside\" style=\"padding-bottom: 2rem;\">\n  <div class=\"paragraph\">That's what the hard parts of life are like,</div>\n  <div class=\"paragraph\">they seem like an impassible challenge at first.</div>\n</div>\n<div class=\"section avoid-break-inside\" style=\"padding-bottom: 2rem;\">\n  <br>\n</div>\n<div class=\"section avoid-break-inside\" style=\"padding-bottom: 2rem;\">\n  <div class=\"paragraph\">Practice makes us strong,</div>\n  <div class=\"paragraph\">difficult challenges help us grow, and help us think too.</div>\n</div>\n<div class=\"section avoid-break-inside\" style=\"padding-bottom: 2rem;\">\n  <div class=\"paragraph\">It is all for life,</div>\n  <div class=\"paragraph\">it is all for enlightenment.</div>\n</div>\n<div class=\"section avoid-break-inside\" style=\"padding-bottom: 2rem;\">\n  <div class=\"paragraph\">It is all for living above the common levels of life,</div>\n  <div class=\"paragraph\">it is all for knowing that no matter the challenge, we will find a way.</div>\n</div>\n<div class=\"section avoid-break-inside\" style=\"padding-bottom: 2rem;\">\n  <div class=\"paragraph\">May we all grow wise, and strong, and healthy,</div>\n  <div class=\"paragraph\">may we each find a mountain to move and inspire a generation.</div>\n</div>",
  "text": "You can't leap into whatever you conceive Enlightenment to be,\nit is built layer by layer, step by step, and year by year.\nWe all need might, never has a creature been alive that didn't need strength,\nand waiting until the last moment; is a bad idea, anyway.\nThat's why people run marathons,\nthis is why people challenge themselves with practice.\nSo that when life becomes a challenge,\nfor all the finish lines they crossed, failure won't cross their mind.\n\nA self challenge, is a practice of strength,\nit is good for us.\nIt is different challenges for different people,\nat different places in their lives.\nBut there is one thing they all have in common,\nwhatever they set off to do, it seems impossible at first.\nThat's what the hard parts of life are like,\nthey seem like an impassible challenge at first.\n\nPractice makes us strong,\ndifficult challenges help us grow, and help us think too.\nIt is all for life,\nit is all for enlightenment.\nIt is all for living above the common levels of life,\nit is all for knowing that no matter the challenge, we will find a way.\nMay we all grow wise, and strong, and healthy,\nmay we each find a mountain to move and inspire a generation.",
  "images": [],
  "links": []
}