{
  "title": "For Contributions To Human Kind",
  "date": "2021-02-24T22:25:53.907Z",
  "image": "poetry-0361-illustration.jpg",
  "audio": "poetry-0361.mp3",
  "artwork": "https://unsplash.com/photos/bpGg5wH7d08",
  "id": "furkies-purrkies-poetry-0361",
  "attachments": {},
  "guid": "88dfeeb6-aeb4-4df7-8366-d3ee4ef2ea8d"
}
