{
  "name": "furkies-purrkies-poetry-0712",
  "id": "furkies-purrkies-poetry-0712",
  "title": "Caricatures!",
  "date": "2022-02-11T01:42:05.122Z",
  "image": "poetry-0712-illustration.jpg",
  "artwork": "https://catpea.com",
  "audio": "poetry-0712.mp3",
  "guid": "8562cd72-d258-423d-a5c7-17d300c415c3",
  "html": "<div class=\"section\">\n  <p>Somehow male and female faces<br>each have their own caricature.</p>\n  <p>Ladies have bigger eyes, smaller, (though not shorter) noses, and small lips,<br>and they are squished together towards the bottom.</p>\n  <p>Germs on the other hand have their eyes bigger, noses shortened,<br>and lips can even stay the same size.</p>\n  <p>It is cuteness for ladies,<br>and humor for gentlemen.</p>\n  <p>And I invite everyone to think of this as a starting point,<br>by the time you reach your tenth caricature, you will have a much better theory than mine.</p>\n  <p>As with all things there is an exception,<br>and it is wonderfully ridiculous.</p>\n</div>\n<div class=\"section\">\n  <hr>\n</div>\n<div class=\"section\">\n  <p>You will find this tool in GIMP, Krita's older sister (also free and open source),<br>and the tool is called warp transform.</p>\n  <p>Pay close attention to the tool options,<br>as the topmost dropdown lets you choose: Move Pixels, Grow Area, Shrink Area, Swirls, Erase, and Smooth.</p>\n  <p>Here you can liquefy a photo, smoothly enlarge eyes,<br>shrink the lips, warp without destruction photo.</p>\n  <p>The image once distorted, is little more than a low effort meme,<br>but when you take the distorted image to Krita...</p>\n  <p>Trace and paint and decorate it,<br>you are in business... pun intended.</p>\n</div>\n<div class=\"section\">\n  <hr>\n</div>\n<div class=\"section\">\n  <p>I think just offering realistic portraits,<br>cuts you of from a lot of giggles and potential customers.</p>\n  <p>Even if foolishness is beneath you,<br>you may still need to practice it just to support your business.</p>\n  <p>It will make you laugh,<br>and that is always worth it.</p>\n</div>\n<div class=\"section\">\n  <hr>\n</div>\n<div class=\"section\">\n  <p>Here I wanted to explain why my source image, is not perfect,<br>especially to those who are just joining in.</p>\n  <p>It is just photo reference, a quick sketch,<br>to see if the final product will look silly enough.</p>\n  <p>It does not need to be perfect,<br>because to make a beautiful caricature, we must make a digital painting out of it.</p>\n  <p>It is not just to paint the shapes of the eyes and nose,<br>it also serves as color reference.</p>\n  <p>The correct color chose,<br>is as important as the shape.</p>\n  <p>Wrong colors will absolutely destroy a painting,<br>portraits are special because you always have photo reference.</p>\n  <p>Close enough,<br>is not good enough for color.</p>\n</div>\n<div class=\"section\">\n  <hr>\n</div>\n<div class=\"section\">\n  <p>Portraits and caricatures, are a fine start,<br>one more thing that is needed here are backgrounds.</p>\n  <p>I recommend abstract backgrounds,<br>making your portraits look like they are bursting out of a paint explosion.</p>\n</div>\n<div class=\"section\">\n  <hr>\n</div>\n<div class=\"section\">\n  <p>Lastly, a word on sales,<br>you should be able to sell portraits for $50 dollars.</p>\n  <p>They may take about five hours at first,<br>but that will eventually become one or two.</p>\n  <p>It hurts to say it,<br><a href=\"https://www.qwant.com/?q=where+to+sell+digital+art&client=opensearch&t=web\">but the platforms that will sell your art will take a huge cut</a>.</p>\n  <p>Though some platforms will give the customer an option to have your digital paintings framed,<br>the process of framing occurs after the sale is made.</p>\n  <p>There is no warehouse to store your framed paintings,<br>it costs you nothing.</p>\n  <p>The sales platforms will demand exclusive access to your painting,<br>that means you can't sell the same painting on two services, but you can sell different ones.</p>\n</div>\n<div class=\"section\">\n  <hr>\n</div>\n<div class=\"section\">\n  <p>As to running your own platform,<br>yes, that is why you shouldn't stop at Art.</p>\n  <p>This is not as awful as it sounds,<br>because you can build a program where people upload their photos and watch you work on the paintings of people ahead of them - until it is their turn.</p>\n  <p>Beyond that, you may with to build an application that will let others join your website,<br>and sell their works, where you can take a small percent of their sales.</p>\n  <p>The cut that the popular platforms take is too big,<br>so if you just take 5% percent then you can get a lot of sign-ups.</p>\n  <p>The main problem with hosting your own software are hackers,<br>so you will need to monitor for snooping, and use an off-site credit card processor with its own security, like <a href=\"https://www.youtube.com/watch?v=YTc0Zi70AjM\">Stripe</a>.</p>\n  <p>The programming you do on your own is only ever for prototyping and learning,<br>once things get series, you will need investors, and programmers that will do all the programming for you.</p>\n</div>\n<div class=\"section\">\n  <hr>\n</div>\n<div class=\"section\">\n  <p>It all begins,<br>with some silly art.</p>\n</div>",
  "bootstrap": "<div class=\"card card-section bg-dark text-warning shadow\">\n  <div class=\"section card-body mb-0 my-2\">\n    <div class=\"paragraph card-text card-stanza my-5 text-center\">Somehow male and female faces<br>each have their own caricature.</div>\n    <div class=\"paragraph card-text card-stanza my-5 text-center\">Ladies have bigger eyes, smaller, (though not shorter) noses, and small lips,<br>and they are squished together towards the bottom.</div>\n    <div class=\"paragraph card-text card-stanza my-5 text-center\">Germs on the other hand have their eyes bigger, noses shortened,<br>and lips can even stay the same size.</div>\n    <div class=\"paragraph card-text card-stanza my-5 text-center\">It is cuteness for ladies,<br>and humor for gentlemen.</div>\n    <div class=\"paragraph card-text card-stanza my-5 text-center\">And I invite everyone to think of this as a starting point,<br>by the time you reach your tenth caricature, you will have a much better theory than mine.</div>\n    <div class=\"paragraph card-text card-stanza my-5 text-center\">As with all things there is an exception,<br>and it is wonderfully ridiculous.</div>\n  </div>\n</div>\n<div class=\"mb-5 section-spacer\">&nbsp;</div>\n<div class=\"card card-section bg-dark text-warning shadow\">\n  <div class=\"section card-body mb-0 my-2\">\n    <div class=\"paragraph card-text card-stanza my-5 text-center\">You will find this tool in GIMP, Krita's older sister (also free and open source),<br>and the tool is called warp transform.</div>\n    <div class=\"paragraph card-text card-stanza my-5 text-center\">Pay close attention to the tool options,<br>as the topmost dropdown lets you choose: Move Pixels, Grow Area, Shrink Area, Swirls, Erase, and Smooth.</div>\n    <div class=\"paragraph card-text card-stanza my-5 text-center\">Here you can liquefy a photo, smoothly enlarge eyes,<br>shrink the lips, warp without destruction photo.</div>\n    <div class=\"paragraph card-text card-stanza my-5 text-center\">The image once distorted, is little more than a low effort meme,<br>but when you take the distorted image to Krita...</div>\n    <div class=\"paragraph card-text card-stanza my-5 text-center\">Trace and paint and decorate it,<br>you are in business... pun intended.</div>\n  </div>\n</div>\n<div class=\"mb-5 section-spacer\">&nbsp;</div>\n<div class=\"card card-section bg-dark text-warning shadow\">\n  <div class=\"section card-body mb-0 my-2\">\n    <div class=\"paragraph card-text card-stanza my-5 text-center\">I think just offering realistic portraits,<br>cuts you of from a lot of giggles and potential customers.</div>\n    <div class=\"paragraph card-text card-stanza my-5 text-center\">Even if foolishness is beneath you,<br>you may still need to practice it just to support your business.</div>\n    <div class=\"paragraph card-text card-stanza my-5 text-center\">It will make you laugh,<br>and that is always worth it.</div>\n  </div>\n</div>\n<div class=\"mb-5 section-spacer\">&nbsp;</div>\n<div class=\"card card-section bg-dark text-warning shadow\">\n  <div class=\"section card-body mb-0 my-2\">\n    <div class=\"paragraph card-text card-stanza my-5 text-center\">Here I wanted to explain why my source image, is not perfect,<br>especially to those who are just joining in.</div>\n    <div class=\"paragraph card-text card-stanza my-5 text-center\">It is just photo reference, a quick sketch,<br>to see if the final product will look silly enough.</div>\n    <div class=\"paragraph card-text card-stanza my-5 text-center\">It does not need to be perfect,<br>because to make a beautiful caricature, we must make a digital painting out of it.</div>\n    <div class=\"paragraph card-text card-stanza my-5 text-center\">It is not just to paint the shapes of the eyes and nose,<br>it also serves as color reference.</div>\n    <div class=\"paragraph card-text card-stanza my-5 text-center\">The correct color chose,<br>is as important as the shape.</div>\n    <div class=\"paragraph card-text card-stanza my-5 text-center\">Wrong colors will absolutely destroy a painting,<br>portraits are special because you always have photo reference.</div>\n    <div class=\"paragraph card-text card-stanza my-5 text-center\">Close enough,<br>is not good enough for color.</div>\n  </div>\n</div>\n<div class=\"mb-5 section-spacer\">&nbsp;</div>\n<div class=\"card card-section bg-dark text-warning shadow\">\n  <div class=\"section card-body mb-0 my-2\">\n    <div class=\"paragraph card-text card-stanza my-5 text-center\">Portraits and caricatures, are a fine start,<br>one more thing that is needed here are backgrounds.</div>\n    <div class=\"paragraph card-text card-stanza my-5 text-center\">I recommend abstract backgrounds,<br>making your portraits look like they are bursting out of a paint explosion.</div>\n  </div>\n</div>\n<div class=\"mb-5 section-spacer\">&nbsp;</div>\n<div class=\"card card-section bg-dark text-warning shadow\">\n  <div class=\"section card-body mb-0 my-2\">\n    <div class=\"paragraph card-text card-stanza my-5 text-center\">Lastly, a word on sales,<br>you should be able to sell portraits for $50 dollars.</div>\n    <div class=\"paragraph card-text card-stanza my-5 text-center\">They may take about five hours at first,<br>but that will eventually become one or two.</div>\n    <div class=\"paragraph card-text card-stanza my-5 text-center\">It hurts to say it,<br><a href=\"https://www.qwant.com/?q=where+to+sell+digital+art&client=opensearch&t=web\">but the platforms that will sell your art will take a huge cut</a>.</div>\n    <div class=\"paragraph card-text card-stanza my-5 text-center\">Though some platforms will give the customer an option to have your digital paintings framed,<br>the process of framing occurs after the sale is made.</div>\n    <div class=\"paragraph card-text card-stanza my-5 text-center\">There is no warehouse to store your framed paintings,<br>it costs you nothing.</div>\n    <div class=\"paragraph card-text card-stanza my-5 text-center\">The sales platforms will demand exclusive access to your painting,<br>that means you can't sell the same painting on two services, but you can sell different ones.</div>\n  </div>\n</div>\n<div class=\"mb-5 section-spacer\">&nbsp;</div>\n<div class=\"card card-section bg-dark text-warning shadow\">\n  <div class=\"section card-body mb-0 my-2\">\n    <div class=\"paragraph card-text card-stanza my-5 text-center\">As to running your own platform,<br>yes, that is why you shouldn't stop at Art.</div>\n    <div class=\"paragraph card-text card-stanza my-5 text-center\">This is not as awful as it sounds,<br>because you can build a program where people upload their photos and watch you work on the paintings of people ahead of them - until it is their turn.</div>\n    <div class=\"paragraph card-text card-stanza my-5 text-center\">Beyond that, you may with to build an application that will let others join your website,<br>and sell their works, where you can take a small percent of their sales.</div>\n    <div class=\"paragraph card-text card-stanza my-5 text-center\">The cut that the popular platforms take is too big,<br>so if you just take 5% percent then you can get a lot of sign-ups.</div>\n    <div class=\"paragraph card-text card-stanza my-5 text-center\">The main problem with hosting your own software are hackers,<br>so you will need to monitor for snooping, and use an off-site credit card processor with its own security, like <a href=\"https://www.youtube.com/watch?v=YTc0Zi70AjM\">Stripe</a>.</div>\n    <div class=\"paragraph card-text card-stanza my-5 text-center\">The programming you do on your own is only ever for prototyping and learning,<br>once things get series, you will need investors, and programmers that will do all the programming for you.</div>\n  </div>\n</div>\n<div class=\"mb-5 section-spacer\">&nbsp;</div>\n<div class=\"card card-section bg-dark text-warning shadow\">\n  <div class=\"section card-body mb-0 my-2\">\n    <div class=\"paragraph card-text card-stanza my-5 text-center\">It all begins,<br>with some silly art.</div>\n  </div>\n</div>",
  "print": "<div class=\"section avoid-break-inside\" style=\"padding-bottom: 2rem;\">\n  <div class=\"paragraph\">Somehow male and female faces<br>each have their own caricature.</div>\n  <div class=\"paragraph\">Ladies have bigger eyes, smaller, (though not shorter) noses, and small lips,<br>and they are squished together towards the bottom.</div>\n  <div class=\"paragraph\">Germs on the other hand have their eyes bigger, noses shortened,<br>and lips can even stay the same size.</div>\n  <div class=\"paragraph\">It is cuteness for ladies,<br>and humor for gentlemen.</div>\n  <div class=\"paragraph\">And I invite everyone to think of this as a starting point,<br>by the time you reach your tenth caricature, you will have a much better theory than mine.</div>\n  <div class=\"paragraph\">As with all things there is an exception,<br>and it is wonderfully ridiculous.</div>\n</div>\n<div class=\"section avoid-break-inside\" style=\"padding-bottom: 2rem;\">\n  <br>\n</div>\n<div class=\"section avoid-break-inside\" style=\"padding-bottom: 2rem;\">\n  <div class=\"paragraph\">You will find this tool in GIMP, Krita's older sister (also free and open source),<br>and the tool is called warp transform.</div>\n  <div class=\"paragraph\">Pay close attention to the tool options,<br>as the topmost dropdown lets you choose: Move Pixels, Grow Area, Shrink Area, Swirls, Erase, and Smooth.</div>\n  <div class=\"paragraph\">Here you can liquefy a photo, smoothly enlarge eyes,<br>shrink the lips, warp without destruction photo.</div>\n  <div class=\"paragraph\">The image once distorted, is little more than a low effort meme,<br>but when you take the distorted image to Krita...</div>\n  <div class=\"paragraph\">Trace and paint and decorate it,<br>you are in business... pun intended.</div>\n</div>\n<div class=\"section avoid-break-inside\" style=\"padding-bottom: 2rem;\">\n  <br>\n</div>\n<div class=\"section avoid-break-inside\" style=\"padding-bottom: 2rem;\">\n  <div class=\"paragraph\">I think just offering realistic portraits,<br>cuts you of from a lot of giggles and potential customers.</div>\n  <div class=\"paragraph\">Even if foolishness is beneath you,<br>you may still need to practice it just to support your business.</div>\n  <div class=\"paragraph\">It will make you laugh,<br>and that is always worth it.</div>\n</div>\n<div class=\"section avoid-break-inside\" style=\"padding-bottom: 2rem;\">\n  <br>\n</div>\n<div class=\"section avoid-break-inside\" style=\"padding-bottom: 2rem;\">\n  <div class=\"paragraph\">Here I wanted to explain why my source image, is not perfect,<br>especially to those who are just joining in.</div>\n  <div class=\"paragraph\">It is just photo reference, a quick sketch,<br>to see if the final product will look silly enough.</div>\n  <div class=\"paragraph\">It does not need to be perfect,<br>because to make a beautiful caricature, we must make a digital painting out of it.</div>\n  <div class=\"paragraph\">It is not just to paint the shapes of the eyes and nose,<br>it also serves as color reference.</div>\n  <div class=\"paragraph\">The correct color chose,<br>is as important as the shape.</div>\n  <div class=\"paragraph\">Wrong colors will absolutely destroy a painting,<br>portraits are special because you always have photo reference.</div>\n  <div class=\"paragraph\">Close enough,<br>is not good enough for color.</div>\n</div>\n<div class=\"section avoid-break-inside\" style=\"padding-bottom: 2rem;\">\n  <br>\n</div>\n<div class=\"section avoid-break-inside\" style=\"padding-bottom: 2rem;\">\n  <div class=\"paragraph\">Portraits and caricatures, are a fine start,<br>one more thing that is needed here are backgrounds.</div>\n  <div class=\"paragraph\">I recommend abstract backgrounds,<br>making your portraits look like they are bursting out of a paint explosion.</div>\n</div>\n<div class=\"section avoid-break-inside\" style=\"padding-bottom: 2rem;\">\n  <br>\n</div>\n<div class=\"section avoid-break-inside\" style=\"padding-bottom: 2rem;\">\n  <div class=\"paragraph\">Lastly, a word on sales,<br>you should be able to sell portraits for $50 dollars.</div>\n  <div class=\"paragraph\">They may take about five hours at first,<br>but that will eventually become one or two.</div>\n  <div class=\"paragraph\">It hurts to say it,<br><span>but the platforms that will sell your art will take a huge cut<sup>[1]</sup></span>.</div>\n  <div class=\"paragraph\">Though some platforms will give the customer an option to have your digital paintings framed,<br>the process of framing occurs after the sale is made.</div>\n  <div class=\"paragraph\">There is no warehouse to store your framed paintings,<br>it costs you nothing.</div>\n  <div class=\"paragraph\">The sales platforms will demand exclusive access to your painting,<br>that means you can't sell the same painting on two services, but you can sell different ones.</div>\n</div>\n<div class=\"section avoid-break-inside\" style=\"padding-bottom: 2rem;\">\n  <br>\n</div>\n<div class=\"section avoid-break-inside\" style=\"padding-bottom: 2rem;\">\n  <div class=\"paragraph\">As to running your own platform,<br>yes, that is why you shouldn't stop at Art.</div>\n  <div class=\"paragraph\">This is not as awful as it sounds,<br>because you can build a program where people upload their photos and watch you work on the paintings of people ahead of them - until it is their turn.</div>\n  <div class=\"paragraph\">Beyond that, you may with to build an application that will let others join your website,<br>and sell their works, where you can take a small percent of their sales.</div>\n  <div class=\"paragraph\">The cut that the popular platforms take is too big,<br>so if you just take 5% percent then you can get a lot of sign-ups.</div>\n  <div class=\"paragraph\">The main problem with hosting your own software are hackers,<br>so you will need to monitor for snooping, and use an off-site credit card processor with its own security, like <span>Stripe<sup>[2]</sup></span>.</div>\n  <div class=\"paragraph\">The programming you do on your own is only ever for prototyping and learning,<br>once things get series, you will need investors, and programmers that will do all the programming for you.</div>\n</div>\n<div class=\"section avoid-break-inside\" style=\"padding-bottom: 2rem;\">\n  <br>\n</div>\n<div class=\"section avoid-break-inside\" style=\"padding-bottom: 2rem;\">\n  <div class=\"paragraph\">It all begins,<br>with some silly art.</div>\n</div>\n<div class=\"break-after\">&nbsp;</div>\n<div>\n  <div class=\"section\" style=\"padding-bottom: 1rem;\">References</div>\n  <div>[1]: https://www.qwant.com/?q=where+to+sell+digital+art&client=opensearch&t=web</div>\n  <div>[2]: https://www.youtube.com/watch?v=YTc0Zi70AjM</div>\n</div>",
  "text": "Somehow male and female faces\neach have their own caricature.\nLadies have bigger eyes, smaller, (though not shorter) noses, and small lips,\nand they are squished together towards the bottom.\nGerms on the other hand have their eyes bigger, noses shortened,\nand lips can even stay the same size.\nIt is cuteness for ladies,\nand humor for gentlemen.\nAnd I invite everyone to think of this as a starting point,\nby the time you reach your tenth caricature, you will have a much better theory than mine.\nAs with all things there is an exception,\nand it is wonderfully ridiculous.\n\nYou will find this tool in GIMP, Krita's older sister (also free and open source),\nand the tool is called warp transform.\nPay close attention to the tool options,\nas the topmost dropdown lets you choose: Move Pixels, Grow Area, Shrink Area, Swirls, Erase, and Smooth.\nHere you can liquefy a photo, smoothly enlarge eyes,\nshrink the lips, warp without destruction photo.\nThe image once distorted, is little more than a low effort meme,\nbut when you take the distorted image to Krita...\nTrace and paint and decorate it,\nyou are in business... pun intended.\n\nI think just offering realistic portraits,\ncuts you of from a lot of giggles and potential customers.\nEven if foolishness is beneath you,\nyou may still need to practice it just to support your business.\nIt will make you laugh,\nand that is always worth it.\n\nHere I wanted to explain why my source image, is not perfect,\nespecially to those who are just joining in.\nIt is just photo reference, a quick sketch,\nto see if the final product will look silly enough.\nIt does not need to be perfect,\nbecause to make a beautiful caricature, we must make a digital painting out of it.\nIt is not just to paint the shapes of the eyes and nose,\nit also serves as color reference.\nThe correct color chose,\nis as important as the shape.\nWrong colors will absolutely destroy a painting,\nportraits are special because you always have photo reference.\nClose enough,\nis not good enough for color.\n\nPortraits and caricatures, are a fine start,\none more thing that is needed here are backgrounds.\nI recommend abstract backgrounds,\nmaking your portraits look like they are bursting out of a paint explosion.\n\nLastly, a word on sales,\nyou should be able to sell portraits for $50 dollars.\nThey may take about five hours at first,\nbut that will eventually become one or two.\nIt hurts to say it,\nbut the platforms that will sell your art will take a huge cut[1].\nThough some platforms will give the customer an option to have your digital paintings framed,\nthe process of framing occurs after the sale is made.\nThere is no warehouse to store your framed paintings,\nit costs you nothing.\nThe sales platforms will demand exclusive access to your painting,\nthat means you can't sell the same painting on two services, but you can sell different ones.\n\nAs to running your own platform,\nyes, that is why you shouldn't stop at Art.\nThis is not as awful as it sounds,\nbecause you can build a program where people upload their photos and watch you work on the paintings of people ahead of them - until it is their turn.\nBeyond that, you may with to build an application that will let others join your website,\nand sell their works, where you can take a small percent of their sales.\nThe cut that the popular platforms take is too big,\nso if you just take 5% percent then you can get a lot of sign-ups.\nThe main problem with hosting your own software are hackers,\nso you will need to monitor for snooping, and use an off-site credit card processor with its own security, like Stripe[2].\nThe programming you do on your own is only ever for prototyping and learning,\nonce things get series, you will need investors, and programmers that will do all the programming for you.\n\nIt all begins,\nwith some silly art.\n \nReferences\n[1]: https://www.qwant.com/?q=where+to+sell+digital+art&client=opensearch&t=web\n[2]: https://www.youtube.com/watch?v=YTc0Zi70AjM",
  "images": [],
  "links": [
    {
      "title": "but the platforms that will sell your art will take a huge cut",
      "url": "https://www.qwant.com/?q=where+to+sell+digital+art&client=opensearch&t=web",
      "hostname": "www.qwant.com"
    },
    {
      "title": "Stripe",
      "url": "https://www.youtube.com/watch?v=YTc0Zi70AjM",
      "hostname": "www.youtube.com"
    }
  ]
}