{
  "id": "furkies-purrkies-poetry-0574",
  "title": "High School 101: Building Your Own Secret Laboratory",
  "date": "2021-09-26T01:25:31.013Z",
  "image": "poetry-0574-illustration.jpg",
  "artwork": "https://unsplash.com/photos/ZPeXrWxOjRQ",
  "audio": "poetry-0574.mp3",
  "guid": "6d1b7edc-5799-47ef-9312-e5ccaaa156da"
}
