{
  "name": "furkies-purrkies-poetry-0027",
  "title": "Save The Files",
  "date": "2020-04-08T01:41:32.088Z",
  "image": "poetry-0027-illustration.jpg",
  "artwork": "https://catpea.com/",
  "id": "furkies-purrkies-poetry-0027",
  "attachments": {},
  "guid": "843eef2a-7c39-40da-a007-a22c3b60f02d",
  "html": "<div class=\"section\">\n  <p>Captain&apos;s Log, Eternal, Quarantine, Day Twenty Two.</p>\n</div>\n<div class=\"section\">\n  <p>Eeeeek! It&apos;s raining, I am trying not to be complaining.</p>\n  <p>But the sky is no longer blue, what am I to do?</p>\n</div>\n<div class=\"section\">\n  <p>Each time I sneeze, the power goes out,</p>\n  <p>not to say my sneezes are not petite, or that I am ill!</p>\n</div>\n<div class=\"section\">\n  <p>No, I am perfectly fine, I don&apos;t need to blow my nose.</p>\n  <p>It is the transformer outside that blows!</p>\n</div>\n<div class=\"section\">\n  <p>Frantically, atomically I hit CTRL+S, CTRL+S, save, save. Saves,</p>\n  <p>as the thunderous thunder thunders its electromagnetic waves.</p>\n</div>\n<div class=\"section\">\n  <p>How am I going to finish, how can I upload,</p>\n  <p>when any moment something will explode,</p>\n  <p>and there will be nothing where current once flowed.</p>\n</div>\n<div class=\"section\">\n  <p>While the rain has slowed, my fingers still tapping,</p>\n  <p>Save, save, save! rise! against the Gigawatt Wave.</p>\n</div>\n<div class=\"section\">\n  <p>Seriously, please remember to save your files,</p>\n  <p>this can only result in more smiles.</p>\n</div>\n<div class=\"section\">\n  <p>Also, please remember to backup your files.</p>\n  <p>As that&apos;s even better, by miles.</p>\n</div>",
  "bootstrap": "<div class=\"card card-section bg-dark text-warning shadow\">\n  <div class=\"section card-body mb-0 my-2\">\n    <div class=\"paragraph card-text card-stanza my-5 text-center\">Captain's Log, Eternal, Quarantine, Day Twenty Two.</div>\n  </div>\n</div>\n<div class=\"card card-section bg-dark text-warning shadow\">\n  <div class=\"section card-body mb-0 my-2\">\n    <div class=\"paragraph card-text card-stanza my-5 text-center\">Eeeeek! It's raining, I am trying not to be complaining.</div>\n    <div class=\"paragraph card-text card-stanza my-5 text-center\">But the sky is no longer blue, what am I to do?</div>\n  </div>\n</div>\n<div class=\"card card-section bg-dark text-warning shadow\">\n  <div class=\"section card-body mb-0 my-2\">\n    <div class=\"paragraph card-text card-stanza my-5 text-center\">Each time I sneeze, the power goes out,</div>\n    <div class=\"paragraph card-text card-stanza my-5 text-center\">not to say my sneezes are not petite, or that I am ill!</div>\n  </div>\n</div>\n<div class=\"card card-section bg-dark text-warning shadow\">\n  <div class=\"section card-body mb-0 my-2\">\n    <div class=\"paragraph card-text card-stanza my-5 text-center\">No, I am perfectly fine, I don't need to blow my nose.</div>\n    <div class=\"paragraph card-text card-stanza my-5 text-center\">It is the transformer outside that blows!</div>\n  </div>\n</div>\n<div class=\"card card-section bg-dark text-warning shadow\">\n  <div class=\"section card-body mb-0 my-2\">\n    <div class=\"paragraph card-text card-stanza my-5 text-center\">Frantically, atomically I hit CTRL+S, CTRL+S, save, save. Saves,</div>\n    <div class=\"paragraph card-text card-stanza my-5 text-center\">as the thunderous thunder thunders its electromagnetic waves.</div>\n  </div>\n</div>\n<div class=\"card card-section bg-dark text-warning shadow\">\n  <div class=\"section card-body mb-0 my-2\">\n    <div class=\"paragraph card-text card-stanza my-5 text-center\">How am I going to finish, how can I upload,</div>\n    <div class=\"paragraph card-text card-stanza my-5 text-center\">when any moment something will explode,</div>\n    <div class=\"paragraph card-text card-stanza my-5 text-center\">and there will be nothing where current once flowed.</div>\n  </div>\n</div>\n<div class=\"card card-section bg-dark text-warning shadow\">\n  <div class=\"section card-body mb-0 my-2\">\n    <div class=\"paragraph card-text card-stanza my-5 text-center\">While the rain has slowed, my fingers still tapping,</div>\n    <div class=\"paragraph card-text card-stanza my-5 text-center\">Save, save, save! rise! against the Gigawatt Wave.</div>\n  </div>\n</div>\n<div class=\"card card-section bg-dark text-warning shadow\">\n  <div class=\"section card-body mb-0 my-2\">\n    <div class=\"paragraph card-text card-stanza my-5 text-center\">Seriously, please remember to save your files,</div>\n    <div class=\"paragraph card-text card-stanza my-5 text-center\">this can only result in more smiles.</div>\n  </div>\n</div>\n<div class=\"card card-section bg-dark text-warning shadow\">\n  <div class=\"section card-body mb-0 my-2\">\n    <div class=\"paragraph card-text card-stanza my-5 text-center\">Also, please remember to backup your files.</div>\n    <div class=\"paragraph card-text card-stanza my-5 text-center\">As that's even better, by miles.</div>\n  </div>\n</div>",
  "print": "<div class=\"section avoid-break-inside\" style=\"padding-bottom: 2rem;\">\n  <div class=\"paragraph\">Captain's Log, Eternal, Quarantine, Day Twenty Two.</div>\n</div>\n<div class=\"section avoid-break-inside\" style=\"padding-bottom: 2rem;\">\n  <div class=\"paragraph\">Eeeeek! It's raining, I am trying not to be complaining.</div>\n  <div class=\"paragraph\">But the sky is no longer blue, what am I to do?</div>\n</div>\n<div class=\"section avoid-break-inside\" style=\"padding-bottom: 2rem;\">\n  <div class=\"paragraph\">Each time I sneeze, the power goes out,</div>\n  <div class=\"paragraph\">not to say my sneezes are not petite, or that I am ill!</div>\n</div>\n<div class=\"section avoid-break-inside\" style=\"padding-bottom: 2rem;\">\n  <div class=\"paragraph\">No, I am perfectly fine, I don't need to blow my nose.</div>\n  <div class=\"paragraph\">It is the transformer outside that blows!</div>\n</div>\n<div class=\"section avoid-break-inside\" style=\"padding-bottom: 2rem;\">\n  <div class=\"paragraph\">Frantically, atomically I hit CTRL+S, CTRL+S, save, save. Saves,</div>\n  <div class=\"paragraph\">as the thunderous thunder thunders its electromagnetic waves.</div>\n</div>\n<div class=\"section avoid-break-inside\" style=\"padding-bottom: 2rem;\">\n  <div class=\"paragraph\">How am I going to finish, how can I upload,</div>\n  <div class=\"paragraph\">when any moment something will explode,</div>\n  <div class=\"paragraph\">and there will be nothing where current once flowed.</div>\n</div>\n<div class=\"section avoid-break-inside\" style=\"padding-bottom: 2rem;\">\n  <div class=\"paragraph\">While the rain has slowed, my fingers still tapping,</div>\n  <div class=\"paragraph\">Save, save, save! rise! against the Gigawatt Wave.</div>\n</div>\n<div class=\"section avoid-break-inside\" style=\"padding-bottom: 2rem;\">\n  <div class=\"paragraph\">Seriously, please remember to save your files,</div>\n  <div class=\"paragraph\">this can only result in more smiles.</div>\n</div>\n<div class=\"section avoid-break-inside\" style=\"padding-bottom: 2rem;\">\n  <div class=\"paragraph\">Also, please remember to backup your files.</div>\n  <div class=\"paragraph\">As that's even better, by miles.</div>\n</div>",
  "text": "Captain's Log, Eternal, Quarantine, Day Twenty Two.\nEeeeek! It's raining, I am trying not to be complaining.\nBut the sky is no longer blue, what am I to do?\nEach time I sneeze, the power goes out,\nnot to say my sneezes are not petite, or that I am ill!\nNo, I am perfectly fine, I don't need to blow my nose.\nIt is the transformer outside that blows!\nFrantically, atomically I hit CTRL+S, CTRL+S, save, save. Saves,\nas the thunderous thunder thunders its electromagnetic waves.\nHow am I going to finish, how can I upload,\nwhen any moment something will explode,\nand there will be nothing where current once flowed.\nWhile the rain has slowed, my fingers still tapping,\nSave, save, save! rise! against the Gigawatt Wave.\nSeriously, please remember to save your files,\nthis can only result in more smiles.\nAlso, please remember to backup your files.\nAs that's even better, by miles.",
  "images": [],
  "links": []
}