{
  "id": "furkies-purrkies-poetry-0779",
  "title": "Why Snow: Summer Will Be Delayed Until The Groundhog Gets Paid",
  "date": "2022-04-18T20:27:07.073Z",
  "image": "poetry-0779-illustration.jpg",
  "artwork": "https://unsplash.com/photos/jU63qRAHXPc",
  "audio": "poetry-0779.mp3",
  "guid": "318eded2-8390-4951-9c8c-283b91a16123"
}
