{
  "name": "furkies-purrkies-poetry-0834",
  "id": "furkies-purrkies-poetry-0834",
  "title": "The Easy Peasy World Citizenship",
  "date": "2022-06-12T21:16:50.795Z",
  "image": "poetry-0834-illustration.jpg",
  "artwork": "https://unsplash.com/photos/uE2T1tCFsn8",
  "audio": "poetry-0834.mp3",
  "guid": "0ee48cd6-7929-4faa-bdee-84a36bafff0a",
  "html": "<div class=\"section\">\n  <p>\"Life moves pretty fast.<br>If you don't stop and look around once in a while, you could miss it.\".</p>\n  <p>While not quite correct, this is one of my favorite High School movie quotes,<br>and a reason why I skipped many a class.</p>\n  <p>I just went,<br>to look around.</p>\n  <p>My favorite memory, is sitting on an old broken bench, on Brooklyn Bridge,<br>looking at Lady Liberty.</p>\n</div>\n<div class=\"section\">\n  <hr>\n</div>\n<div class=\"section\">\n  <p>We each have about a hundred years,<br>more than long enough for us to start forgetting our days.</p>\n  <p>So it is not a short amount of time,<br>but it is a limited amount of time.</p>\n</div>\n<div class=\"section\">\n  <hr>\n</div>\n<div class=\"section\">\n  <p>Your bullies do not care, your employer does not care,<br>your schools and teachers do not care, and governments do not care.</p>\n  <p>So unless you care,<br>your youth will be used to power a company and decades of your life may fade away.</p>\n</div>\n<div class=\"section\">\n  <hr>\n</div>\n<div class=\"section\">\n  <p>One of the most helpful things a parent can do to help their children grow,<br>is to travel with them around the world.</p>\n  <p>Not just go on temporary vacations,<br>but move around the world until they are old enough to protest.</p>\n  <p>Finding a temporary home in all the safe and beautiful places,<br>helps to grow and later flourish.</p>\n  <p>Uluru, Pago Pago, Alaskan Glaciers, The Redwood Forests,<br>Grand Canyon, Brooklyn Bridge, Appalachian Trail.</p>\n  <p>Every once in a while someone must check up on Newton, at Westminster Abby,<br>and perhaps Nietzsche and few others at their own resting places, as well.</p>\n  <p>Years and years wandering the libraries, the birth and resting places of great beings,<br>their philosopher walks, the trails, and all the troubles and triumphs.</p>\n  <p>Helps a person, get a good view of the world,<br>Frequently switching cultures, makes a person a Citizen; of the World.</p>\n  <p>Poverty, stopped many a traveler,<br>it is a pretty scary thing of course.</p>\n  <p>Learning design, programming, maybe how to compose Techno in the Berlin School style,<br>will help a young person tutor and work remotely on the internet.</p>\n</div>\n<div class=\"section\">\n  <hr>\n</div>\n<div class=\"section\">\n  <p>As far as making education more real and relevant is concerned, there are many reasons,<br>why we must take to independent self education.</p>\n  <p>It is not just that the world becomes a little bit safer and a bit more open,<br>when we walk away from tutorials or lectures that actually enable us useful and powerful, abilities.</p>\n  <p>But we gain wisdom in the process,<br>be it by pondering the universe with Newton at Westminster Abby, or by Whitman's Subtle Analogy, we simply enhance our mind.</p>\n</div>\n<div class=\"section\">\n  <hr>\n</div>\n<div class=\"section\">\n  <p>To travel requires that the person actually wants to travel,<br>if they don't like the idea, then there is little benefit to be found.</p>\n  <p>That is is why I mention parents and children traveling,<br>it is for the kids.</p>\n  <p>It encourage learning for real,<br>and becoming unstuck from any one culture in particular.</p>\n</div>\n<div class=\"section\">\n  <hr>\n</div>\n<div class=\"section\">\n  <p>Once we enter into out 20s, I recommend the Appalachian Trail,<br>if overwork did become a toxic problem.</p>\n  <p>Again we have to be respectful of that 100 years granted to us,<br>we must avoid our things that dim our creative and drain us of energy.</p>\n  <p>As a result, we end up with room to ponder,<br>to read, listen or watch smart documentaries.</p>\n</div>\n<div class=\"section\">\n  <hr>\n</div>\n<div class=\"section\">\n  <p>And past the 20s, we have to learn even harder,<br>and make a series of serious attempts at launching little businesses with all our wonderful talents.</p>\n  <p>But, the more we know the faster we learn,<br>and learning on our own, is just standing in pursuit of our own curiosities, it is nothing like school.</p>\n  <p>Once you accept the responsibility for your won education,<br>you learn a hundred times faster.</p>\n</div>\n<div class=\"section\">\n  <hr>\n</div>\n<div class=\"section\">\n  <p>And I suspect that there is still room here for the Great Trails,<br>section hiking, rather than through hiking.</p>\n  <p>And at a much slower pace,<br>as this time it is more about refining our wisdom and learning towards writing books.</p>\n</div>\n<div class=\"section\">\n  <hr>\n</div>\n<div class=\"section\">\n  <p>Travel or no travel, becoming a self educated citizen of the world,<br>or an adventurer, or an athlete, or artist, or a professional troublemaker, so as long as it is with many a book in hand, is a great start to life.</p>\n  <p>It is a great start to connect all powerful and meaningful things,<br>like creation of life-changing art, or writing and story telling, that makes lives a bit better.</p>\n  <p>Self Education is a sure formula to appreciate Humanity’s greatest achievements,<br>and resume where the previews authors left off.</p>\n  <p>Intellectual Independence,<br>is The Great Adventure in Knowledge, Wisdom, and Greatness.</p>\n</div>",
  "bootstrap": "<div class=\"card card-section bg-dark text-warning shadow\">\n  <div class=\"section card-body mb-0 my-2\">\n    <div class=\"paragraph card-text card-stanza my-5 text-center\">\"Life moves pretty fast.<br>If you don't stop and look around once in a while, you could miss it.\".</div>\n    <div class=\"paragraph card-text card-stanza my-5 text-center\">While not quite correct, this is one of my favorite High School movie quotes,<br>and a reason why I skipped many a class.</div>\n    <div class=\"paragraph card-text card-stanza my-5 text-center\">I just went,<br>to look around.</div>\n    <div class=\"paragraph card-text card-stanza my-5 text-center\">My favorite memory, is sitting on an old broken bench, on Brooklyn Bridge,<br>looking at Lady Liberty.</div>\n  </div>\n</div>\n<div class=\"mb-5 section-spacer\">&nbsp;</div>\n<div class=\"card card-section bg-dark text-warning shadow\">\n  <div class=\"section card-body mb-0 my-2\">\n    <div class=\"paragraph card-text card-stanza my-5 text-center\">We each have about a hundred years,<br>more than long enough for us to start forgetting our days.</div>\n    <div class=\"paragraph card-text card-stanza my-5 text-center\">So it is not a short amount of time,<br>but it is a limited amount of time.</div>\n  </div>\n</div>\n<div class=\"mb-5 section-spacer\">&nbsp;</div>\n<div class=\"card card-section bg-dark text-warning shadow\">\n  <div class=\"section card-body mb-0 my-2\">\n    <div class=\"paragraph card-text card-stanza my-5 text-center\">Your bullies do not care, your employer does not care,<br>your schools and teachers do not care, and governments do not care.</div>\n    <div class=\"paragraph card-text card-stanza my-5 text-center\">So unless you care,<br>your youth will be used to power a company and decades of your life may fade away.</div>\n  </div>\n</div>\n<div class=\"mb-5 section-spacer\">&nbsp;</div>\n<div class=\"card card-section bg-dark text-warning shadow\">\n  <div class=\"section card-body mb-0 my-2\">\n    <div class=\"paragraph card-text card-stanza my-5 text-center\">One of the most helpful things a parent can do to help their children grow,<br>is to travel with them around the world.</div>\n    <div class=\"paragraph card-text card-stanza my-5 text-center\">Not just go on temporary vacations,<br>but move around the world until they are old enough to protest.</div>\n    <div class=\"paragraph card-text card-stanza my-5 text-center\">Finding a temporary home in all the safe and beautiful places,<br>helps to grow and later flourish.</div>\n    <div class=\"paragraph card-text card-stanza my-5 text-center\">Uluru, Pago Pago, Alaskan Glaciers, The Redwood Forests,<br>Grand Canyon, Brooklyn Bridge, Appalachian Trail.</div>\n    <div class=\"paragraph card-text card-stanza my-5 text-center\">Every once in a while someone must check up on Newton, at Westminster Abby,<br>and perhaps Nietzsche and few others at their own resting places, as well.</div>\n    <div class=\"paragraph card-text card-stanza my-5 text-center\">Years and years wandering the libraries, the birth and resting places of great beings,<br>their philosopher walks, the trails, and all the troubles and triumphs.</div>\n    <div class=\"paragraph card-text card-stanza my-5 text-center\">Helps a person, get a good view of the world,<br>Frequently switching cultures, makes a person a Citizen; of the World.</div>\n    <div class=\"paragraph card-text card-stanza my-5 text-center\">Poverty, stopped many a traveler,<br>it is a pretty scary thing of course.</div>\n    <div class=\"paragraph card-text card-stanza my-5 text-center\">Learning design, programming, maybe how to compose Techno in the Berlin School style,<br>will help a young person tutor and work remotely on the internet.</div>\n  </div>\n</div>\n<div class=\"mb-5 section-spacer\">&nbsp;</div>\n<div class=\"card card-section bg-dark text-warning shadow\">\n  <div class=\"section card-body mb-0 my-2\">\n    <div class=\"paragraph card-text card-stanza my-5 text-center\">As far as making education more real and relevant is concerned, there are many reasons,<br>why we must take to independent self education.</div>\n    <div class=\"paragraph card-text card-stanza my-5 text-center\">It is not just that the world becomes a little bit safer and a bit more open,<br>when we walk away from tutorials or lectures that actually enable us useful and powerful, abilities.</div>\n    <div class=\"paragraph card-text card-stanza my-5 text-center\">But we gain wisdom in the process,<br>be it by pondering the universe with Newton at Westminster Abby, or by Whitman's Subtle Analogy, we simply enhance our mind.</div>\n  </div>\n</div>\n<div class=\"mb-5 section-spacer\">&nbsp;</div>\n<div class=\"card card-section bg-dark text-warning shadow\">\n  <div class=\"section card-body mb-0 my-2\">\n    <div class=\"paragraph card-text card-stanza my-5 text-center\">To travel requires that the person actually wants to travel,<br>if they don't like the idea, then there is little benefit to be found.</div>\n    <div class=\"paragraph card-text card-stanza my-5 text-center\">That is is why I mention parents and children traveling,<br>it is for the kids.</div>\n    <div class=\"paragraph card-text card-stanza my-5 text-center\">It encourage learning for real,<br>and becoming unstuck from any one culture in particular.</div>\n  </div>\n</div>\n<div class=\"mb-5 section-spacer\">&nbsp;</div>\n<div class=\"card card-section bg-dark text-warning shadow\">\n  <div class=\"section card-body mb-0 my-2\">\n    <div class=\"paragraph card-text card-stanza my-5 text-center\">Once we enter into out 20s, I recommend the Appalachian Trail,<br>if overwork did become a toxic problem.</div>\n    <div class=\"paragraph card-text card-stanza my-5 text-center\">Again we have to be respectful of that 100 years granted to us,<br>we must avoid our things that dim our creative and drain us of energy.</div>\n    <div class=\"paragraph card-text card-stanza my-5 text-center\">As a result, we end up with room to ponder,<br>to read, listen or watch smart documentaries.</div>\n  </div>\n</div>\n<div class=\"mb-5 section-spacer\">&nbsp;</div>\n<div class=\"card card-section bg-dark text-warning shadow\">\n  <div class=\"section card-body mb-0 my-2\">\n    <div class=\"paragraph card-text card-stanza my-5 text-center\">And past the 20s, we have to learn even harder,<br>and make a series of serious attempts at launching little businesses with all our wonderful talents.</div>\n    <div class=\"paragraph card-text card-stanza my-5 text-center\">But, the more we know the faster we learn,<br>and learning on our own, is just standing in pursuit of our own curiosities, it is nothing like school.</div>\n    <div class=\"paragraph card-text card-stanza my-5 text-center\">Once you accept the responsibility for your won education,<br>you learn a hundred times faster.</div>\n  </div>\n</div>\n<div class=\"mb-5 section-spacer\">&nbsp;</div>\n<div class=\"card card-section bg-dark text-warning shadow\">\n  <div class=\"section card-body mb-0 my-2\">\n    <div class=\"paragraph card-text card-stanza my-5 text-center\">And I suspect that there is still room here for the Great Trails,<br>section hiking, rather than through hiking.</div>\n    <div class=\"paragraph card-text card-stanza my-5 text-center\">And at a much slower pace,<br>as this time it is more about refining our wisdom and learning towards writing books.</div>\n  </div>\n</div>\n<div class=\"mb-5 section-spacer\">&nbsp;</div>\n<div class=\"card card-section bg-dark text-warning shadow\">\n  <div class=\"section card-body mb-0 my-2\">\n    <div class=\"paragraph card-text card-stanza my-5 text-center\">Travel or no travel, becoming a self educated citizen of the world,<br>or an adventurer, or an athlete, or artist, or a professional troublemaker, so as long as it is with many a book in hand, is a great start to life.</div>\n    <div class=\"paragraph card-text card-stanza my-5 text-center\">It is a great start to connect all powerful and meaningful things,<br>like creation of life-changing art, or writing and story telling, that makes lives a bit better.</div>\n    <div class=\"paragraph card-text card-stanza my-5 text-center\">Self Education is a sure formula to appreciate Humanity’s greatest achievements,<br>and resume where the previews authors left off.</div>\n    <div class=\"paragraph card-text card-stanza my-5 text-center\">Intellectual Independence,<br>is The Great Adventure in Knowledge, Wisdom, and Greatness.</div>\n  </div>\n</div>",
  "print": "<div class=\"section avoid-break-inside\" style=\"padding-bottom: 2rem;\">\n  <div class=\"paragraph\">\"Life moves pretty fast.<br>If you don't stop and look around once in a while, you could miss it.\".</div>\n  <div class=\"paragraph\">While not quite correct, this is one of my favorite High School movie quotes,<br>and a reason why I skipped many a class.</div>\n  <div class=\"paragraph\">I just went,<br>to look around.</div>\n  <div class=\"paragraph\">My favorite memory, is sitting on an old broken bench, on Brooklyn Bridge,<br>looking at Lady Liberty.</div>\n</div>\n<div class=\"section avoid-break-inside\" style=\"padding-bottom: 2rem;\">\n  <br>\n</div>\n<div class=\"section avoid-break-inside\" style=\"padding-bottom: 2rem;\">\n  <div class=\"paragraph\">We each have about a hundred years,<br>more than long enough for us to start forgetting our days.</div>\n  <div class=\"paragraph\">So it is not a short amount of time,<br>but it is a limited amount of time.</div>\n</div>\n<div class=\"section avoid-break-inside\" style=\"padding-bottom: 2rem;\">\n  <br>\n</div>\n<div class=\"section avoid-break-inside\" style=\"padding-bottom: 2rem;\">\n  <div class=\"paragraph\">Your bullies do not care, your employer does not care,<br>your schools and teachers do not care, and governments do not care.</div>\n  <div class=\"paragraph\">So unless you care,<br>your youth will be used to power a company and decades of your life may fade away.</div>\n</div>\n<div class=\"section avoid-break-inside\" style=\"padding-bottom: 2rem;\">\n  <br>\n</div>\n<div class=\"section avoid-break-inside\" style=\"padding-bottom: 2rem;\">\n  <div class=\"paragraph\">One of the most helpful things a parent can do to help their children grow,<br>is to travel with them around the world.</div>\n  <div class=\"paragraph\">Not just go on temporary vacations,<br>but move around the world until they are old enough to protest.</div>\n  <div class=\"paragraph\">Finding a temporary home in all the safe and beautiful places,<br>helps to grow and later flourish.</div>\n  <div class=\"paragraph\">Uluru, Pago Pago, Alaskan Glaciers, The Redwood Forests,<br>Grand Canyon, Brooklyn Bridge, Appalachian Trail.</div>\n  <div class=\"paragraph\">Every once in a while someone must check up on Newton, at Westminster Abby,<br>and perhaps Nietzsche and few others at their own resting places, as well.</div>\n  <div class=\"paragraph\">Years and years wandering the libraries, the birth and resting places of great beings,<br>their philosopher walks, the trails, and all the troubles and triumphs.</div>\n  <div class=\"paragraph\">Helps a person, get a good view of the world,<br>Frequently switching cultures, makes a person a Citizen; of the World.</div>\n  <div class=\"paragraph\">Poverty, stopped many a traveler,<br>it is a pretty scary thing of course.</div>\n  <div class=\"paragraph\">Learning design, programming, maybe how to compose Techno in the Berlin School style,<br>will help a young person tutor and work remotely on the internet.</div>\n</div>\n<div class=\"section avoid-break-inside\" style=\"padding-bottom: 2rem;\">\n  <br>\n</div>\n<div class=\"section avoid-break-inside\" style=\"padding-bottom: 2rem;\">\n  <div class=\"paragraph\">As far as making education more real and relevant is concerned, there are many reasons,<br>why we must take to independent self education.</div>\n  <div class=\"paragraph\">It is not just that the world becomes a little bit safer and a bit more open,<br>when we walk away from tutorials or lectures that actually enable us useful and powerful, abilities.</div>\n  <div class=\"paragraph\">But we gain wisdom in the process,<br>be it by pondering the universe with Newton at Westminster Abby, or by Whitman's Subtle Analogy, we simply enhance our mind.</div>\n</div>\n<div class=\"section avoid-break-inside\" style=\"padding-bottom: 2rem;\">\n  <br>\n</div>\n<div class=\"section avoid-break-inside\" style=\"padding-bottom: 2rem;\">\n  <div class=\"paragraph\">To travel requires that the person actually wants to travel,<br>if they don't like the idea, then there is little benefit to be found.</div>\n  <div class=\"paragraph\">That is is why I mention parents and children traveling,<br>it is for the kids.</div>\n  <div class=\"paragraph\">It encourage learning for real,<br>and becoming unstuck from any one culture in particular.</div>\n</div>\n<div class=\"section avoid-break-inside\" style=\"padding-bottom: 2rem;\">\n  <br>\n</div>\n<div class=\"section avoid-break-inside\" style=\"padding-bottom: 2rem;\">\n  <div class=\"paragraph\">Once we enter into out 20s, I recommend the Appalachian Trail,<br>if overwork did become a toxic problem.</div>\n  <div class=\"paragraph\">Again we have to be respectful of that 100 years granted to us,<br>we must avoid our things that dim our creative and drain us of energy.</div>\n  <div class=\"paragraph\">As a result, we end up with room to ponder,<br>to read, listen or watch smart documentaries.</div>\n</div>\n<div class=\"section avoid-break-inside\" style=\"padding-bottom: 2rem;\">\n  <br>\n</div>\n<div class=\"section avoid-break-inside\" style=\"padding-bottom: 2rem;\">\n  <div class=\"paragraph\">And past the 20s, we have to learn even harder,<br>and make a series of serious attempts at launching little businesses with all our wonderful talents.</div>\n  <div class=\"paragraph\">But, the more we know the faster we learn,<br>and learning on our own, is just standing in pursuit of our own curiosities, it is nothing like school.</div>\n  <div class=\"paragraph\">Once you accept the responsibility for your won education,<br>you learn a hundred times faster.</div>\n</div>\n<div class=\"section avoid-break-inside\" style=\"padding-bottom: 2rem;\">\n  <br>\n</div>\n<div class=\"section avoid-break-inside\" style=\"padding-bottom: 2rem;\">\n  <div class=\"paragraph\">And I suspect that there is still room here for the Great Trails,<br>section hiking, rather than through hiking.</div>\n  <div class=\"paragraph\">And at a much slower pace,<br>as this time it is more about refining our wisdom and learning towards writing books.</div>\n</div>\n<div class=\"section avoid-break-inside\" style=\"padding-bottom: 2rem;\">\n  <br>\n</div>\n<div class=\"section avoid-break-inside\" style=\"padding-bottom: 2rem;\">\n  <div class=\"paragraph\">Travel or no travel, becoming a self educated citizen of the world,<br>or an adventurer, or an athlete, or artist, or a professional troublemaker, so as long as it is with many a book in hand, is a great start to life.</div>\n  <div class=\"paragraph\">It is a great start to connect all powerful and meaningful things,<br>like creation of life-changing art, or writing and story telling, that makes lives a bit better.</div>\n  <div class=\"paragraph\">Self Education is a sure formula to appreciate Humanity’s greatest achievements,<br>and resume where the previews authors left off.</div>\n  <div class=\"paragraph\">Intellectual Independence,<br>is The Great Adventure in Knowledge, Wisdom, and Greatness.</div>\n</div>",
  "text": "\"Life moves pretty fast.\nIf you don't stop and look around once in a while, you could miss it.\".\nWhile not quite correct, this is one of my favorite High School movie quotes,\nand a reason why I skipped many a class.\nI just went,\nto look around.\nMy favorite memory, is sitting on an old broken bench, on Brooklyn Bridge,\nlooking at Lady Liberty.\n\nWe each have about a hundred years,\nmore than long enough for us to start forgetting our days.\nSo it is not a short amount of time,\nbut it is a limited amount of time.\n\nYour bullies do not care, your employer does not care,\nyour schools and teachers do not care, and governments do not care.\nSo unless you care,\nyour youth will be used to power a company and decades of your life may fade away.\n\nOne of the most helpful things a parent can do to help their children grow,\nis to travel with them around the world.\nNot just go on temporary vacations,\nbut move around the world until they are old enough to protest.\nFinding a temporary home in all the safe and beautiful places,\nhelps to grow and later flourish.\nUluru, Pago Pago, Alaskan Glaciers, The Redwood Forests,\nGrand Canyon, Brooklyn Bridge, Appalachian Trail.\nEvery once in a while someone must check up on Newton, at Westminster Abby,\nand perhaps Nietzsche and few others at their own resting places, as well.\nYears and years wandering the libraries, the birth and resting places of great beings,\ntheir philosopher walks, the trails, and all the troubles and triumphs.\nHelps a person, get a good view of the world,\nFrequently switching cultures, makes a person a Citizen; of the World.\nPoverty, stopped many a traveler,\nit is a pretty scary thing of course.\nLearning design, programming, maybe how to compose Techno in the Berlin School style,\nwill help a young person tutor and work remotely on the internet.\n\nAs far as making education more real and relevant is concerned, there are many reasons,\nwhy we must take to independent self education.\nIt is not just that the world becomes a little bit safer and a bit more open,\nwhen we walk away from tutorials or lectures that actually enable us useful and powerful, abilities.\nBut we gain wisdom in the process,\nbe it by pondering the universe with Newton at Westminster Abby, or by Whitman's Subtle Analogy, we simply enhance our mind.\n\nTo travel requires that the person actually wants to travel,\nif they don't like the idea, then there is little benefit to be found.\nThat is is why I mention parents and children traveling,\nit is for the kids.\nIt encourage learning for real,\nand becoming unstuck from any one culture in particular.\n\nOnce we enter into out 20s, I recommend the Appalachian Trail,\nif overwork did become a toxic problem.\nAgain we have to be respectful of that 100 years granted to us,\nwe must avoid our things that dim our creative and drain us of energy.\nAs a result, we end up with room to ponder,\nto read, listen or watch smart documentaries.\n\nAnd past the 20s, we have to learn even harder,\nand make a series of serious attempts at launching little businesses with all our wonderful talents.\nBut, the more we know the faster we learn,\nand learning on our own, is just standing in pursuit of our own curiosities, it is nothing like school.\nOnce you accept the responsibility for your won education,\nyou learn a hundred times faster.\n\nAnd I suspect that there is still room here for the Great Trails,\nsection hiking, rather than through hiking.\nAnd at a much slower pace,\nas this time it is more about refining our wisdom and learning towards writing books.\n\nTravel or no travel, becoming a self educated citizen of the world,\nor an adventurer, or an athlete, or artist, or a professional troublemaker, so as long as it is with many a book in hand, is a great start to life.\nIt is a great start to connect all powerful and meaningful things,\nlike creation of life-changing art, or writing and story telling, that makes lives a bit better.\nSelf Education is a sure formula to appreciate Humanity’s greatest achievements,\nand resume where the previews authors left off.\nIntellectual Independence,\nis The Great Adventure in Knowledge, Wisdom, and Greatness.",
  "images": [],
  "links": []
}