{
  "id": "furkies-purrkies-poetry-0927",
  "guid": "4290e704-2223-4538-99f0-06a87ea6b5dd",
  "title": "To Learn For Real",
  "date": "2022-09-14T02:19:26.974Z",
  "image": "poetry-0927-illustration.jpg",
  "artwork": "https://unsplash.com/photos/-y4dVPa8EQI",
  "audio": "poetry-0927.mp3"
}
