{
  "name": "furkies-purrkies-poetry-0020",
  "title": "Squirty Squirrels",
  "date": "2020-03-31T16:20:21.586Z",
  "image": "poetry-0020-illustration.jpg",
  "artwork": "https://catpea.com/",
  "id": "furkies-purrkies-poetry-0020",
  "attachments": {},
  "guid": "2f1b2994-8578-4ff8-b0cc-7e6e382e0e5f",
  "html": "<div class=\"section\">\n  <p>Captain&apos;s Log: Day Fifteen of Quarantine,</p>\n</div>\n<div class=\"section\">\n  <p>Squirrels continue being mean.</p>\n</div>\n<div class=\"section\">\n  <p>They just aren&apos;t very keen, on the idea,</p>\n</div>\n<div class=\"section\">\n  <p>that their theft gave them diarrhea.</p>\n</div>\n<div class=\"section\">\n  <p>I know not what to do,</p>\n</div>\n<div class=\"section\">\n  <p>Darn Squirrels! that Trailmix was not for you!</p>\n</div>\n<div class=\"section\">\n  <p>Maybe someday we&apos;ll move on,</p>\n</div>\n<div class=\"section\">\n  <p>come a sunny day, carry on.</p>\n</div>\n<div class=\"section\">\n  <p>But today, is not that day,</p>\n</div>\n<div class=\"section\">\n  <p>it&apos;s just Tuesday.</p>\n</div>\n<div class=\"section\">\n  <p>This is getting out of control,</p>\n</div>\n<div class=\"section\">\n  <p>I don&apos;t want to be a poet anymore!</p>\n</div>\n<div class=\"section\">\n  <p>I just wanted to feed the creatures I adore.</p>\n</div>\n<div class=\"section\">\n  <p>Not write strange rhymes out the front door.</p>\n</div>\n<div class=\"section\">\n  <p>I must stop rhyming,</p>\n</div>\n<div class=\"section\">\n  <p>this is not the right timing.</p>\n</div>\n<div class=\"section\">\n  <p>I feel like I&apos;ve lost control,</p>\n</div>\n<div class=\"section\">\n  <p>spiraling down a Squirrel Hole.</p>\n</div>\n<div class=\"section\">\n  <p>I swear I am not like this in real life... I can change!</p>\n</div>",
  "bootstrap": "<div class=\"card card-section bg-dark text-warning shadow\">\n  <div class=\"section card-body mb-0 my-2\">\n    <div class=\"paragraph card-text card-stanza my-5 text-center\">Captain's Log: Day Fifteen of Quarantine,</div>\n  </div>\n</div>\n<div class=\"card card-section bg-dark text-warning shadow\">\n  <div class=\"section card-body mb-0 my-2\">\n    <div class=\"paragraph card-text card-stanza my-5 text-center\">Squirrels continue being mean.</div>\n  </div>\n</div>\n<div class=\"card card-section bg-dark text-warning shadow\">\n  <div class=\"section card-body mb-0 my-2\">\n    <div class=\"paragraph card-text card-stanza my-5 text-center\">They just aren't very keen, on the idea,</div>\n  </div>\n</div>\n<div class=\"card card-section bg-dark text-warning shadow\">\n  <div class=\"section card-body mb-0 my-2\">\n    <div class=\"paragraph card-text card-stanza my-5 text-center\">that their theft gave them diarrhea.</div>\n  </div>\n</div>\n<div class=\"card card-section bg-dark text-warning shadow\">\n  <div class=\"section card-body mb-0 my-2\">\n    <div class=\"paragraph card-text card-stanza my-5 text-center\">I know not what to do,</div>\n  </div>\n</div>\n<div class=\"card card-section bg-dark text-warning shadow\">\n  <div class=\"section card-body mb-0 my-2\">\n    <div class=\"paragraph card-text card-stanza my-5 text-center\">Darn Squirrels! that Trailmix was not for you!</div>\n  </div>\n</div>\n<div class=\"card card-section bg-dark text-warning shadow\">\n  <div class=\"section card-body mb-0 my-2\">\n    <div class=\"paragraph card-text card-stanza my-5 text-center\">Maybe someday we'll move on,</div>\n  </div>\n</div>\n<div class=\"card card-section bg-dark text-warning shadow\">\n  <div class=\"section card-body mb-0 my-2\">\n    <div class=\"paragraph card-text card-stanza my-5 text-center\">come a sunny day, carry on.</div>\n  </div>\n</div>\n<div class=\"card card-section bg-dark text-warning shadow\">\n  <div class=\"section card-body mb-0 my-2\">\n    <div class=\"paragraph card-text card-stanza my-5 text-center\">But today, is not that day,</div>\n  </div>\n</div>\n<div class=\"card card-section bg-dark text-warning shadow\">\n  <div class=\"section card-body mb-0 my-2\">\n    <div class=\"paragraph card-text card-stanza my-5 text-center\">it's just Tuesday.</div>\n  </div>\n</div>\n<div class=\"card card-section bg-dark text-warning shadow\">\n  <div class=\"section card-body mb-0 my-2\">\n    <div class=\"paragraph card-text card-stanza my-5 text-center\">This is getting out of control,</div>\n  </div>\n</div>\n<div class=\"card card-section bg-dark text-warning shadow\">\n  <div class=\"section card-body mb-0 my-2\">\n    <div class=\"paragraph card-text card-stanza my-5 text-center\">I don't want to be a poet anymore!</div>\n  </div>\n</div>\n<div class=\"card card-section bg-dark text-warning shadow\">\n  <div class=\"section card-body mb-0 my-2\">\n    <div class=\"paragraph card-text card-stanza my-5 text-center\">I just wanted to feed the creatures I adore.</div>\n  </div>\n</div>\n<div class=\"card card-section bg-dark text-warning shadow\">\n  <div class=\"section card-body mb-0 my-2\">\n    <div class=\"paragraph card-text card-stanza my-5 text-center\">Not write strange rhymes out the front door.</div>\n  </div>\n</div>\n<div class=\"card card-section bg-dark text-warning shadow\">\n  <div class=\"section card-body mb-0 my-2\">\n    <div class=\"paragraph card-text card-stanza my-5 text-center\">I must stop rhyming,</div>\n  </div>\n</div>\n<div class=\"card card-section bg-dark text-warning shadow\">\n  <div class=\"section card-body mb-0 my-2\">\n    <div class=\"paragraph card-text card-stanza my-5 text-center\">this is not the right timing.</div>\n  </div>\n</div>\n<div class=\"card card-section bg-dark text-warning shadow\">\n  <div class=\"section card-body mb-0 my-2\">\n    <div class=\"paragraph card-text card-stanza my-5 text-center\">I feel like I've lost control,</div>\n  </div>\n</div>\n<div class=\"card card-section bg-dark text-warning shadow\">\n  <div class=\"section card-body mb-0 my-2\">\n    <div class=\"paragraph card-text card-stanza my-5 text-center\">spiraling down a Squirrel Hole.</div>\n  </div>\n</div>\n<div class=\"card card-section bg-dark text-warning shadow\">\n  <div class=\"section card-body mb-0 my-2\">\n    <div class=\"paragraph card-text card-stanza my-5 text-center\">I swear I am not like this in real life... I can change!</div>\n  </div>\n</div>",
  "print": "<div class=\"section avoid-break-inside\" style=\"padding-bottom: 2rem;\">\n  <div class=\"paragraph\">Captain's Log: Day Fifteen of Quarantine,</div>\n</div>\n<div class=\"section avoid-break-inside\" style=\"padding-bottom: 2rem;\">\n  <div class=\"paragraph\">Squirrels continue being mean.</div>\n</div>\n<div class=\"section avoid-break-inside\" style=\"padding-bottom: 2rem;\">\n  <div class=\"paragraph\">They just aren't very keen, on the idea,</div>\n</div>\n<div class=\"section avoid-break-inside\" style=\"padding-bottom: 2rem;\">\n  <div class=\"paragraph\">that their theft gave them diarrhea.</div>\n</div>\n<div class=\"section avoid-break-inside\" style=\"padding-bottom: 2rem;\">\n  <div class=\"paragraph\">I know not what to do,</div>\n</div>\n<div class=\"section avoid-break-inside\" style=\"padding-bottom: 2rem;\">\n  <div class=\"paragraph\">Darn Squirrels! that Trailmix was not for you!</div>\n</div>\n<div class=\"section avoid-break-inside\" style=\"padding-bottom: 2rem;\">\n  <div class=\"paragraph\">Maybe someday we'll move on,</div>\n</div>\n<div class=\"section avoid-break-inside\" style=\"padding-bottom: 2rem;\">\n  <div class=\"paragraph\">come a sunny day, carry on.</div>\n</div>\n<div class=\"section avoid-break-inside\" style=\"padding-bottom: 2rem;\">\n  <div class=\"paragraph\">But today, is not that day,</div>\n</div>\n<div class=\"section avoid-break-inside\" style=\"padding-bottom: 2rem;\">\n  <div class=\"paragraph\">it's just Tuesday.</div>\n</div>\n<div class=\"section avoid-break-inside\" style=\"padding-bottom: 2rem;\">\n  <div class=\"paragraph\">This is getting out of control,</div>\n</div>\n<div class=\"section avoid-break-inside\" style=\"padding-bottom: 2rem;\">\n  <div class=\"paragraph\">I don't want to be a poet anymore!</div>\n</div>\n<div class=\"section avoid-break-inside\" style=\"padding-bottom: 2rem;\">\n  <div class=\"paragraph\">I just wanted to feed the creatures I adore.</div>\n</div>\n<div class=\"section avoid-break-inside\" style=\"padding-bottom: 2rem;\">\n  <div class=\"paragraph\">Not write strange rhymes out the front door.</div>\n</div>\n<div class=\"section avoid-break-inside\" style=\"padding-bottom: 2rem;\">\n  <div class=\"paragraph\">I must stop rhyming,</div>\n</div>\n<div class=\"section avoid-break-inside\" style=\"padding-bottom: 2rem;\">\n  <div class=\"paragraph\">this is not the right timing.</div>\n</div>\n<div class=\"section avoid-break-inside\" style=\"padding-bottom: 2rem;\">\n  <div class=\"paragraph\">I feel like I've lost control,</div>\n</div>\n<div class=\"section avoid-break-inside\" style=\"padding-bottom: 2rem;\">\n  <div class=\"paragraph\">spiraling down a Squirrel Hole.</div>\n</div>\n<div class=\"section avoid-break-inside\" style=\"padding-bottom: 2rem;\">\n  <div class=\"paragraph\">I swear I am not like this in real life... I can change!</div>\n</div>",
  "text": "Captain's Log: Day Fifteen of Quarantine,\nSquirrels continue being mean.\nThey just aren't very keen, on the idea,\nthat their theft gave them diarrhea.\nI know not what to do,\nDarn Squirrels! that Trailmix was not for you!\nMaybe someday we'll move on,\ncome a sunny day, carry on.\nBut today, is not that day,\nit's just Tuesday.\nThis is getting out of control,\nI don't want to be a poet anymore!\nI just wanted to feed the creatures I adore.\nNot write strange rhymes out the front door.\nI must stop rhyming,\nthis is not the right timing.\nI feel like I've lost control,\nspiraling down a Squirrel Hole.\nI swear I am not like this in real life... I can change!",
  "images": [],
  "links": []
}