{
  "name": "furkies-purrkies-poetry-0874",
  "id": "furkies-purrkies-poetry-0874",
  "title": "How to Choose, Grow & Care for Ideas: A Creativists' Guide to Creativity Care and Maintenance",
  "date": "2022-07-22T18:00:11.154Z",
  "image": "poetry-0874-illustration.jpg",
  "artwork": "https://unsplash.com/photos/vnWFm9NXdds",
  "audio": "poetry-0874.mp3",
  "guid": "b96a6e3d-5b15-4861-bb5b-f24bee11f169",
  "html": "<div class=\"section\">\n  <p>An itemized list or a TODO,<br>can only make you blue.</p>\n  <p>A list is no good,<br>it will ruin your mood.</p>\n  <p>You will always sail short,<br>and never leave port.</p>\n</div>\n<div class=\"section\">\n  <hr>\n</div>\n<div class=\"section\">\n  <p>Move slowly at your own speed,<br>perhaps, the speed with which you read.</p>\n  <p>A project needs to grow,<br>think of it as chunky dough.</p>\n  <p>Above all, be indirect,<br>to be correct.</p>\n  <p>Please! write a cook book,<br>before you cook.</p>\n</div>\n<div class=\"section\">\n  <hr>\n</div>\n<div class=\"section\">\n  <p>There is a better way,<br>and that is OK.</p>\n  <p>Go after it,<br>at least for a bit.</p>\n  <p>So you can learn more,<br>and get to the core.</p>\n  <p>Rewrite, rewrite, rewrite,<br>and eventually you’ll be right.</p>\n</div>\n<div class=\"section\">\n  <hr>\n</div>\n<div class=\"section\">\n  <p>Majority is always wrong,<br>so do not follow along.</p>\n  <p>Mix your talents,<br>to create a new balance.</p>\n  <p>Then fluff things up,<br>and sip them from a teacup.</p>\n</div>\n<div class=\"section\">\n  <hr>\n</div>\n<div class=\"section\">\n  <p>Stay strong,<br>because the experts are wrong.</p>\n  <p>What you can do the old way,<br>in a day.</p>\n  <p>Can be done in a lickety-split,<br>if you just dream about it a bit.</p>\n</div>\n<div class=\"section\">\n  <hr>\n</div>\n<div class=\"section\">\n  <p>Don’t study perspective,<br>as modeling in 3D is more effective.</p>\n  <p>Don’t be scared to trace,<br>capture the perfect face.</p>\n  <p>Before jeweler design contracts,<br>learn to rebuild precious artifacts.</p>\n</div>\n<div class=\"section\">\n  <hr>\n</div>\n<div class=\"section\">\n  <p>But by far my best piece of advice,<br>even better than measuring twice.</p>\n  <p>Has to do with getting rest,<br>and not being so stressed.</p>\n  <p>Do not let people wear you like a hat,<br>be more like a wise cat.</p>\n  <p>To put it simply: To stop inventing crap,<br>you must first take a long feline nap.</p>\n</div>",
  "bootstrap": "<div class=\"card card-section bg-dark text-warning shadow\">\n  <div class=\"section card-body mb-0 my-2\">\n    <div class=\"paragraph card-text card-stanza my-5 text-center\">An itemized list or a TODO,<br>can only make you blue.</div>\n    <div class=\"paragraph card-text card-stanza my-5 text-center\">A list is no good,<br>it will ruin your mood.</div>\n    <div class=\"paragraph card-text card-stanza my-5 text-center\">You will always sail short,<br>and never leave port.</div>\n  </div>\n</div>\n<div class=\"mb-5 section-spacer\">&nbsp;</div>\n<div class=\"card card-section bg-dark text-warning shadow\">\n  <div class=\"section card-body mb-0 my-2\">\n    <div class=\"paragraph card-text card-stanza my-5 text-center\">Move slowly at your own speed,<br>perhaps, the speed with which you read.</div>\n    <div class=\"paragraph card-text card-stanza my-5 text-center\">A project needs to grow,<br>think of it as chunky dough.</div>\n    <div class=\"paragraph card-text card-stanza my-5 text-center\">Above all, be indirect,<br>to be correct.</div>\n    <div class=\"paragraph card-text card-stanza my-5 text-center\">Please! write a cook book,<br>before you cook.</div>\n  </div>\n</div>\n<div class=\"mb-5 section-spacer\">&nbsp;</div>\n<div class=\"card card-section bg-dark text-warning shadow\">\n  <div class=\"section card-body mb-0 my-2\">\n    <div class=\"paragraph card-text card-stanza my-5 text-center\">There is a better way,<br>and that is OK.</div>\n    <div class=\"paragraph card-text card-stanza my-5 text-center\">Go after it,<br>at least for a bit.</div>\n    <div class=\"paragraph card-text card-stanza my-5 text-center\">So you can learn more,<br>and get to the core.</div>\n    <div class=\"paragraph card-text card-stanza my-5 text-center\">Rewrite, rewrite, rewrite,<br>and eventually you’ll be right.</div>\n  </div>\n</div>\n<div class=\"mb-5 section-spacer\">&nbsp;</div>\n<div class=\"card card-section bg-dark text-warning shadow\">\n  <div class=\"section card-body mb-0 my-2\">\n    <div class=\"paragraph card-text card-stanza my-5 text-center\">Majority is always wrong,<br>so do not follow along.</div>\n    <div class=\"paragraph card-text card-stanza my-5 text-center\">Mix your talents,<br>to create a new balance.</div>\n    <div class=\"paragraph card-text card-stanza my-5 text-center\">Then fluff things up,<br>and sip them from a teacup.</div>\n  </div>\n</div>\n<div class=\"mb-5 section-spacer\">&nbsp;</div>\n<div class=\"card card-section bg-dark text-warning shadow\">\n  <div class=\"section card-body mb-0 my-2\">\n    <div class=\"paragraph card-text card-stanza my-5 text-center\">Stay strong,<br>because the experts are wrong.</div>\n    <div class=\"paragraph card-text card-stanza my-5 text-center\">What you can do the old way,<br>in a day.</div>\n    <div class=\"paragraph card-text card-stanza my-5 text-center\">Can be done in a lickety-split,<br>if you just dream about it a bit.</div>\n  </div>\n</div>\n<div class=\"mb-5 section-spacer\">&nbsp;</div>\n<div class=\"card card-section bg-dark text-warning shadow\">\n  <div class=\"section card-body mb-0 my-2\">\n    <div class=\"paragraph card-text card-stanza my-5 text-center\">Don’t study perspective,<br>as modeling in 3D is more effective.</div>\n    <div class=\"paragraph card-text card-stanza my-5 text-center\">Don’t be scared to trace,<br>capture the perfect face.</div>\n    <div class=\"paragraph card-text card-stanza my-5 text-center\">Before jeweler design contracts,<br>learn to rebuild precious artifacts.</div>\n  </div>\n</div>\n<div class=\"mb-5 section-spacer\">&nbsp;</div>\n<div class=\"card card-section bg-dark text-warning shadow\">\n  <div class=\"section card-body mb-0 my-2\">\n    <div class=\"paragraph card-text card-stanza my-5 text-center\">But by far my best piece of advice,<br>even better than measuring twice.</div>\n    <div class=\"paragraph card-text card-stanza my-5 text-center\">Has to do with getting rest,<br>and not being so stressed.</div>\n    <div class=\"paragraph card-text card-stanza my-5 text-center\">Do not let people wear you like a hat,<br>be more like a wise cat.</div>\n    <div class=\"paragraph card-text card-stanza my-5 text-center\">To put it simply: To stop inventing crap,<br>you must first take a long feline nap.</div>\n  </div>\n</div>",
  "print": "<div class=\"section avoid-break-inside\" style=\"padding-bottom: 2rem;\">\n  <div class=\"paragraph\">An itemized list or a TODO,<br>can only make you blue.</div>\n  <div class=\"paragraph\">A list is no good,<br>it will ruin your mood.</div>\n  <div class=\"paragraph\">You will always sail short,<br>and never leave port.</div>\n</div>\n<div class=\"section avoid-break-inside\" style=\"padding-bottom: 2rem;\">\n  <br>\n</div>\n<div class=\"section avoid-break-inside\" style=\"padding-bottom: 2rem;\">\n  <div class=\"paragraph\">Move slowly at your own speed,<br>perhaps, the speed with which you read.</div>\n  <div class=\"paragraph\">A project needs to grow,<br>think of it as chunky dough.</div>\n  <div class=\"paragraph\">Above all, be indirect,<br>to be correct.</div>\n  <div class=\"paragraph\">Please! write a cook book,<br>before you cook.</div>\n</div>\n<div class=\"section avoid-break-inside\" style=\"padding-bottom: 2rem;\">\n  <br>\n</div>\n<div class=\"section avoid-break-inside\" style=\"padding-bottom: 2rem;\">\n  <div class=\"paragraph\">There is a better way,<br>and that is OK.</div>\n  <div class=\"paragraph\">Go after it,<br>at least for a bit.</div>\n  <div class=\"paragraph\">So you can learn more,<br>and get to the core.</div>\n  <div class=\"paragraph\">Rewrite, rewrite, rewrite,<br>and eventually you’ll be right.</div>\n</div>\n<div class=\"section avoid-break-inside\" style=\"padding-bottom: 2rem;\">\n  <br>\n</div>\n<div class=\"section avoid-break-inside\" style=\"padding-bottom: 2rem;\">\n  <div class=\"paragraph\">Majority is always wrong,<br>so do not follow along.</div>\n  <div class=\"paragraph\">Mix your talents,<br>to create a new balance.</div>\n  <div class=\"paragraph\">Then fluff things up,<br>and sip them from a teacup.</div>\n</div>\n<div class=\"section avoid-break-inside\" style=\"padding-bottom: 2rem;\">\n  <br>\n</div>\n<div class=\"section avoid-break-inside\" style=\"padding-bottom: 2rem;\">\n  <div class=\"paragraph\">Stay strong,<br>because the experts are wrong.</div>\n  <div class=\"paragraph\">What you can do the old way,<br>in a day.</div>\n  <div class=\"paragraph\">Can be done in a lickety-split,<br>if you just dream about it a bit.</div>\n</div>\n<div class=\"section avoid-break-inside\" style=\"padding-bottom: 2rem;\">\n  <br>\n</div>\n<div class=\"section avoid-break-inside\" style=\"padding-bottom: 2rem;\">\n  <div class=\"paragraph\">Don’t study perspective,<br>as modeling in 3D is more effective.</div>\n  <div class=\"paragraph\">Don’t be scared to trace,<br>capture the perfect face.</div>\n  <div class=\"paragraph\">Before jeweler design contracts,<br>learn to rebuild precious artifacts.</div>\n</div>\n<div class=\"section avoid-break-inside\" style=\"padding-bottom: 2rem;\">\n  <br>\n</div>\n<div class=\"section avoid-break-inside\" style=\"padding-bottom: 2rem;\">\n  <div class=\"paragraph\">But by far my best piece of advice,<br>even better than measuring twice.</div>\n  <div class=\"paragraph\">Has to do with getting rest,<br>and not being so stressed.</div>\n  <div class=\"paragraph\">Do not let people wear you like a hat,<br>be more like a wise cat.</div>\n  <div class=\"paragraph\">To put it simply: To stop inventing crap,<br>you must first take a long feline nap.</div>\n</div>",
  "text": "An itemized list or a TODO,\ncan only make you blue.\nA list is no good,\nit will ruin your mood.\nYou will always sail short,\nand never leave port.\n\nMove slowly at your own speed,\nperhaps, the speed with which you read.\nA project needs to grow,\nthink of it as chunky dough.\nAbove all, be indirect,\nto be correct.\nPlease! write a cook book,\nbefore you cook.\n\nThere is a better way,\nand that is OK.\nGo after it,\nat least for a bit.\nSo you can learn more,\nand get to the core.\nRewrite, rewrite, rewrite,\nand eventually you’ll be right.\n\nMajority is always wrong,\nso do not follow along.\nMix your talents,\nto create a new balance.\nThen fluff things up,\nand sip them from a teacup.\n\nStay strong,\nbecause the experts are wrong.\nWhat you can do the old way,\nin a day.\nCan be done in a lickety-split,\nif you just dream about it a bit.\n\nDon’t study perspective,\nas modeling in 3D is more effective.\nDon’t be scared to trace,\ncapture the perfect face.\nBefore jeweler design contracts,\nlearn to rebuild precious artifacts.\n\nBut by far my best piece of advice,\neven better than measuring twice.\nHas to do with getting rest,\nand not being so stressed.\nDo not let people wear you like a hat,\nbe more like a wise cat.\nTo put it simply: To stop inventing crap,\nyou must first take a long feline nap.",
  "images": [],
  "links": []
}