{
  "name": "furkies-purrkies-poetry-0228",
  "title": "De Hominis Dignitate",
  "date": "2020-10-15T02:20:44.076Z",
  "image": "poetry-0228-illustration.jpg",
  "audio": "poetry-0228.mp3",
  "artwork": "https://unsplash.com/",
  "id": "furkies-purrkies-poetry-0228",
  "attachments": {},
  "guid": "8aace94b-15a3-4478-8cf8-4b63634d87b0",
  "html": "<div class=\"section\">\n  <p>Your Ideas, Curiosities, Adventures, Doodles, and Little Poems,</p>\n  <p>is all there is, and it is all that will hold the world together.</p>\n</div>\n<div class=\"section\">\n  <p>From the little seed of your notebook, your trusty pencil,</p>\n  <p>that one thing you posted on the internet that still impresses you,</p>\n  <p>grows a Brilliant Thinker.</p>\n</div>\n<div class=\"section\">\n  <hr>\n</div>\n<div class=\"section\">\n  <p>A Custodian of Knowledge, A Lover of Wisdom,</p>\n  <p>and a Great Being.</p>\n</div>\n<div class=\"section\">\n  <p>If you choose to practice resignation, if you fall,</p>\n  <p>the link of chain that holds the past and the future of Humanity will weaken.</p>\n</div>\n<div class=\"section\">\n  <p>The many Hearts, of The Great Beings that rose before you,</p>\n  <p>will wail and howl, and the universe will become permanently darker for it.</p>\n</div>\n<div class=\"section\">\n  <hr>\n</div>\n<div class=\"section\">\n  <p>School is just the best all of the uneducated humanity at the time could agree on,</p>\n  <p>it is our first best try, and it was a failure that in its misery will now serve us,</p>\n  <p>as a source of wisdom for building the second generation of schools.</p>\n</div>\n<div class=\"section\">\n  <p>This time everybody can see, that proper education is the best hope humanity has,</p>\n  <p>this time we will know the price that an Miseducated Earth pays.</p>\n</div>\n<div class=\"section\">\n  <hr>\n</div>\n<div class=\"section\">\n  <p>People that made you feel unintelligent, made a mistake out of desperation,</p>\n  <p>because they couldn&apos;t have know how to teach, because the idea of the classroom,</p>\n  <p>and standardized education and testing is just an uninformed political fantasy,</p>\n  <p>crafted for simple and convincing displays of progress, and easy reelection campaigns.</p>\n</div>\n<div class=\"section\">\n  <hr>\n</div>\n<div class=\"section\">\n  <p>School was invented as an experiment by Great Self Taught Beings,</p>\n  <p>though it is broken, it still serves to keep the Global Level of Knowledge high enough,</p>\n  <p>for us to communicate about leaving bad ideas behind, and which are worth keeping.</p>\n</div>\n<div class=\"section\">\n  <p>We know it will be based on the way the Self Taught learn,</p>\n  <p>we know there will be no grades, just your brilliant path through the tree of knowledge.</p>\n</div>\n<div class=\"section\">\n  <hr>\n</div>\n<div class=\"section\">\n  <p>The new generation of schools will bring Humanity closer together,</p>\n  <p>it will help us take better care of our Planet and its Inhabitants.</p>\n</div>\n<div class=\"section\">\n  <p>We used to think that school was an island,</p>\n  <p>but it turned out to be the very thing that steers humanity forward in time.</p>\n</div>\n<div class=\"section\">\n  <p>You were seen as students once,</p>\n  <p>and now you will be seen as Earth&apos;s Captains,</p>\n  <p>Lighthouse Keepers, Navigators, and Admirals.</p>\n</div>\n<div class=\"section\">\n  <hr>\n</div>\n<div class=\"section\">\n  <p>If I may,</p>\n</div>\n<div class=\"section\">\n  <p>Let us begin by taking to the Universal Declaration of Human Rights,</p>\n  <p>and setting it as the Opening Chapter of the New Text Book,</p>\n  <p>in recognition that school is directly responsible,</p>\n  <p>for the future of Earth and all her Inhabitants.</p>\n</div>\n<div class=\"section\">\n  <p>May the first lesson, of this first New Text Book,</p>\n  <p>stand to describe how vulnerable we are to cultural indoctrination,</p>\n  <p>and the resulting following without thinking.</p>\n</div>\n<div class=\"section\">\n  <p>May it serve as a cautionary tale,</p>\n  <p>and as an inspiration to Leadership, clear thinking,</p>\n  <p>and always choosing the harder right over the easier wrong.</p>\n</div>\n<div class=\"section\">\n  <p>May all the countless chapters of this new book help each student,</p>\n  <p>young or old to find their beginning and discover their unique path through Human Knowledge.</p>\n</div>",
  "bootstrap": "<div class=\"card card-section bg-dark text-warning shadow\">\n  <div class=\"section card-body mb-0 my-2\">\n    <div class=\"paragraph card-text card-stanza my-5 text-center\">Your Ideas, Curiosities, Adventures, Doodles, and Little Poems,</div>\n    <div class=\"paragraph card-text card-stanza my-5 text-center\">is all there is, and it is all that will hold the world together.</div>\n  </div>\n</div>\n<div class=\"card card-section bg-dark text-warning shadow\">\n  <div class=\"section card-body mb-0 my-2\">\n    <div class=\"paragraph card-text card-stanza my-5 text-center\">From the little seed of your notebook, your trusty pencil,</div>\n    <div class=\"paragraph card-text card-stanza my-5 text-center\">that one thing you posted on the internet that still impresses you,</div>\n    <div class=\"paragraph card-text card-stanza my-5 text-center\">grows a Brilliant Thinker.</div>\n  </div>\n</div>\n<div class=\"mb-5 section-spacer\">&nbsp;</div>\n<div class=\"card card-section bg-dark text-warning shadow\">\n  <div class=\"section card-body mb-0 my-2\">\n    <div class=\"paragraph card-text card-stanza my-5 text-center\">A Custodian of Knowledge, A Lover of Wisdom,</div>\n    <div class=\"paragraph card-text card-stanza my-5 text-center\">and a Great Being.</div>\n  </div>\n</div>\n<div class=\"card card-section bg-dark text-warning shadow\">\n  <div class=\"section card-body mb-0 my-2\">\n    <div class=\"paragraph card-text card-stanza my-5 text-center\">If you choose to practice resignation, if you fall,</div>\n    <div class=\"paragraph card-text card-stanza my-5 text-center\">the link of chain that holds the past and the future of Humanity will weaken.</div>\n  </div>\n</div>\n<div class=\"card card-section bg-dark text-warning shadow\">\n  <div class=\"section card-body mb-0 my-2\">\n    <div class=\"paragraph card-text card-stanza my-5 text-center\">The many Hearts, of The Great Beings that rose before you,</div>\n    <div class=\"paragraph card-text card-stanza my-5 text-center\">will wail and howl, and the universe will become permanently darker for it.</div>\n  </div>\n</div>\n<div class=\"mb-5 section-spacer\">&nbsp;</div>\n<div class=\"card card-section bg-dark text-warning shadow\">\n  <div class=\"section card-body mb-0 my-2\">\n    <div class=\"paragraph card-text card-stanza my-5 text-center\">School is just the best all of the uneducated humanity at the time could agree on,</div>\n    <div class=\"paragraph card-text card-stanza my-5 text-center\">it is our first best try, and it was a failure that in its misery will now serve us,</div>\n    <div class=\"paragraph card-text card-stanza my-5 text-center\">as a source of wisdom for building the second generation of schools.</div>\n  </div>\n</div>\n<div class=\"card card-section bg-dark text-warning shadow\">\n  <div class=\"section card-body mb-0 my-2\">\n    <div class=\"paragraph card-text card-stanza my-5 text-center\">This time everybody can see, that proper education is the best hope humanity has,</div>\n    <div class=\"paragraph card-text card-stanza my-5 text-center\">this time we will know the price that an Miseducated Earth pays.</div>\n  </div>\n</div>\n<div class=\"mb-5 section-spacer\">&nbsp;</div>\n<div class=\"card card-section bg-dark text-warning shadow\">\n  <div class=\"section card-body mb-0 my-2\">\n    <div class=\"paragraph card-text card-stanza my-5 text-center\">People that made you feel unintelligent, made a mistake out of desperation,</div>\n    <div class=\"paragraph card-text card-stanza my-5 text-center\">because they couldn't have know how to teach, because the idea of the classroom,</div>\n    <div class=\"paragraph card-text card-stanza my-5 text-center\">and standardized education and testing is just an uninformed political fantasy,</div>\n    <div class=\"paragraph card-text card-stanza my-5 text-center\">crafted for simple and convincing displays of progress, and easy reelection campaigns.</div>\n  </div>\n</div>\n<div class=\"mb-5 section-spacer\">&nbsp;</div>\n<div class=\"card card-section bg-dark text-warning shadow\">\n  <div class=\"section card-body mb-0 my-2\">\n    <div class=\"paragraph card-text card-stanza my-5 text-center\">School was invented as an experiment by Great Self Taught Beings,</div>\n    <div class=\"paragraph card-text card-stanza my-5 text-center\">though it is broken, it still serves to keep the Global Level of Knowledge high enough,</div>\n    <div class=\"paragraph card-text card-stanza my-5 text-center\">for us to communicate about leaving bad ideas behind, and which are worth keeping.</div>\n  </div>\n</div>\n<div class=\"card card-section bg-dark text-warning shadow\">\n  <div class=\"section card-body mb-0 my-2\">\n    <div class=\"paragraph card-text card-stanza my-5 text-center\">We know it will be based on the way the Self Taught learn,</div>\n    <div class=\"paragraph card-text card-stanza my-5 text-center\">we know there will be no grades, just your brilliant path through the tree of knowledge.</div>\n  </div>\n</div>\n<div class=\"mb-5 section-spacer\">&nbsp;</div>\n<div class=\"card card-section bg-dark text-warning shadow\">\n  <div class=\"section card-body mb-0 my-2\">\n    <div class=\"paragraph card-text card-stanza my-5 text-center\">The new generation of schools will bring Humanity closer together,</div>\n    <div class=\"paragraph card-text card-stanza my-5 text-center\">it will help us take better care of our Planet and its Inhabitants.</div>\n  </div>\n</div>\n<div class=\"card card-section bg-dark text-warning shadow\">\n  <div class=\"section card-body mb-0 my-2\">\n    <div class=\"paragraph card-text card-stanza my-5 text-center\">We used to think that school was an island,</div>\n    <div class=\"paragraph card-text card-stanza my-5 text-center\">but it turned out to be the very thing that steers humanity forward in time.</div>\n  </div>\n</div>\n<div class=\"card card-section bg-dark text-warning shadow\">\n  <div class=\"section card-body mb-0 my-2\">\n    <div class=\"paragraph card-text card-stanza my-5 text-center\">You were seen as students once,</div>\n    <div class=\"paragraph card-text card-stanza my-5 text-center\">and now you will be seen as Earth's Captains,</div>\n    <div class=\"paragraph card-text card-stanza my-5 text-center\">Lighthouse Keepers, Navigators, and Admirals.</div>\n  </div>\n</div>\n<div class=\"mb-5 section-spacer\">&nbsp;</div>\n<div class=\"card card-section bg-dark text-warning shadow\">\n  <div class=\"section card-body mb-0 my-2\">\n    <div class=\"paragraph card-text card-stanza my-5 text-center\">If I may,</div>\n  </div>\n</div>\n<div class=\"card card-section bg-dark text-warning shadow\">\n  <div class=\"section card-body mb-0 my-2\">\n    <div class=\"paragraph card-text card-stanza my-5 text-center\">Let us begin by taking to the Universal Declaration of Human Rights,</div>\n    <div class=\"paragraph card-text card-stanza my-5 text-center\">and setting it as the Opening Chapter of the New Text Book,</div>\n    <div class=\"paragraph card-text card-stanza my-5 text-center\">in recognition that school is directly responsible,</div>\n    <div class=\"paragraph card-text card-stanza my-5 text-center\">for the future of Earth and all her Inhabitants.</div>\n  </div>\n</div>\n<div class=\"card card-section bg-dark text-warning shadow\">\n  <div class=\"section card-body mb-0 my-2\">\n    <div class=\"paragraph card-text card-stanza my-5 text-center\">May the first lesson, of this first New Text Book,</div>\n    <div class=\"paragraph card-text card-stanza my-5 text-center\">stand to describe how vulnerable we are to cultural indoctrination,</div>\n    <div class=\"paragraph card-text card-stanza my-5 text-center\">and the resulting following without thinking.</div>\n  </div>\n</div>\n<div class=\"card card-section bg-dark text-warning shadow\">\n  <div class=\"section card-body mb-0 my-2\">\n    <div class=\"paragraph card-text card-stanza my-5 text-center\">May it serve as a cautionary tale,</div>\n    <div class=\"paragraph card-text card-stanza my-5 text-center\">and as an inspiration to Leadership, clear thinking,</div>\n    <div class=\"paragraph card-text card-stanza my-5 text-center\">and always choosing the harder right over the easier wrong.</div>\n  </div>\n</div>\n<div class=\"card card-section bg-dark text-warning shadow\">\n  <div class=\"section card-body mb-0 my-2\">\n    <div class=\"paragraph card-text card-stanza my-5 text-center\">May all the countless chapters of this new book help each student,</div>\n    <div class=\"paragraph card-text card-stanza my-5 text-center\">young or old to find their beginning and discover their unique path through Human Knowledge.</div>\n  </div>\n</div>",
  "print": "<div class=\"section avoid-break-inside\" style=\"padding-bottom: 2rem;\">\n  <div class=\"paragraph\">Your Ideas, Curiosities, Adventures, Doodles, and Little Poems,</div>\n  <div class=\"paragraph\">is all there is, and it is all that will hold the world together.</div>\n</div>\n<div class=\"section avoid-break-inside\" style=\"padding-bottom: 2rem;\">\n  <div class=\"paragraph\">From the little seed of your notebook, your trusty pencil,</div>\n  <div class=\"paragraph\">that one thing you posted on the internet that still impresses you,</div>\n  <div class=\"paragraph\">grows a Brilliant Thinker.</div>\n</div>\n<div class=\"section avoid-break-inside\" style=\"padding-bottom: 2rem;\">\n  <br>\n</div>\n<div class=\"section avoid-break-inside\" style=\"padding-bottom: 2rem;\">\n  <div class=\"paragraph\">A Custodian of Knowledge, A Lover of Wisdom,</div>\n  <div class=\"paragraph\">and a Great Being.</div>\n</div>\n<div class=\"section avoid-break-inside\" style=\"padding-bottom: 2rem;\">\n  <div class=\"paragraph\">If you choose to practice resignation, if you fall,</div>\n  <div class=\"paragraph\">the link of chain that holds the past and the future of Humanity will weaken.</div>\n</div>\n<div class=\"section avoid-break-inside\" style=\"padding-bottom: 2rem;\">\n  <div class=\"paragraph\">The many Hearts, of The Great Beings that rose before you,</div>\n  <div class=\"paragraph\">will wail and howl, and the universe will become permanently darker for it.</div>\n</div>\n<div class=\"section avoid-break-inside\" style=\"padding-bottom: 2rem;\">\n  <br>\n</div>\n<div class=\"section avoid-break-inside\" style=\"padding-bottom: 2rem;\">\n  <div class=\"paragraph\">School is just the best all of the uneducated humanity at the time could agree on,</div>\n  <div class=\"paragraph\">it is our first best try, and it was a failure that in its misery will now serve us,</div>\n  <div class=\"paragraph\">as a source of wisdom for building the second generation of schools.</div>\n</div>\n<div class=\"section avoid-break-inside\" style=\"padding-bottom: 2rem;\">\n  <div class=\"paragraph\">This time everybody can see, that proper education is the best hope humanity has,</div>\n  <div class=\"paragraph\">this time we will know the price that an Miseducated Earth pays.</div>\n</div>\n<div class=\"section avoid-break-inside\" style=\"padding-bottom: 2rem;\">\n  <br>\n</div>\n<div class=\"section avoid-break-inside\" style=\"padding-bottom: 2rem;\">\n  <div class=\"paragraph\">People that made you feel unintelligent, made a mistake out of desperation,</div>\n  <div class=\"paragraph\">because they couldn't have know how to teach, because the idea of the classroom,</div>\n  <div class=\"paragraph\">and standardized education and testing is just an uninformed political fantasy,</div>\n  <div class=\"paragraph\">crafted for simple and convincing displays of progress, and easy reelection campaigns.</div>\n</div>\n<div class=\"section avoid-break-inside\" style=\"padding-bottom: 2rem;\">\n  <br>\n</div>\n<div class=\"section avoid-break-inside\" style=\"padding-bottom: 2rem;\">\n  <div class=\"paragraph\">School was invented as an experiment by Great Self Taught Beings,</div>\n  <div class=\"paragraph\">though it is broken, it still serves to keep the Global Level of Knowledge high enough,</div>\n  <div class=\"paragraph\">for us to communicate about leaving bad ideas behind, and which are worth keeping.</div>\n</div>\n<div class=\"section avoid-break-inside\" style=\"padding-bottom: 2rem;\">\n  <div class=\"paragraph\">We know it will be based on the way the Self Taught learn,</div>\n  <div class=\"paragraph\">we know there will be no grades, just your brilliant path through the tree of knowledge.</div>\n</div>\n<div class=\"section avoid-break-inside\" style=\"padding-bottom: 2rem;\">\n  <br>\n</div>\n<div class=\"section avoid-break-inside\" style=\"padding-bottom: 2rem;\">\n  <div class=\"paragraph\">The new generation of schools will bring Humanity closer together,</div>\n  <div class=\"paragraph\">it will help us take better care of our Planet and its Inhabitants.</div>\n</div>\n<div class=\"section avoid-break-inside\" style=\"padding-bottom: 2rem;\">\n  <div class=\"paragraph\">We used to think that school was an island,</div>\n  <div class=\"paragraph\">but it turned out to be the very thing that steers humanity forward in time.</div>\n</div>\n<div class=\"section avoid-break-inside\" style=\"padding-bottom: 2rem;\">\n  <div class=\"paragraph\">You were seen as students once,</div>\n  <div class=\"paragraph\">and now you will be seen as Earth's Captains,</div>\n  <div class=\"paragraph\">Lighthouse Keepers, Navigators, and Admirals.</div>\n</div>\n<div class=\"section avoid-break-inside\" style=\"padding-bottom: 2rem;\">\n  <br>\n</div>\n<div class=\"section avoid-break-inside\" style=\"padding-bottom: 2rem;\">\n  <div class=\"paragraph\">If I may,</div>\n</div>\n<div class=\"section avoid-break-inside\" style=\"padding-bottom: 2rem;\">\n  <div class=\"paragraph\">Let us begin by taking to the Universal Declaration of Human Rights,</div>\n  <div class=\"paragraph\">and setting it as the Opening Chapter of the New Text Book,</div>\n  <div class=\"paragraph\">in recognition that school is directly responsible,</div>\n  <div class=\"paragraph\">for the future of Earth and all her Inhabitants.</div>\n</div>\n<div class=\"section avoid-break-inside\" style=\"padding-bottom: 2rem;\">\n  <div class=\"paragraph\">May the first lesson, of this first New Text Book,</div>\n  <div class=\"paragraph\">stand to describe how vulnerable we are to cultural indoctrination,</div>\n  <div class=\"paragraph\">and the resulting following without thinking.</div>\n</div>\n<div class=\"section avoid-break-inside\" style=\"padding-bottom: 2rem;\">\n  <div class=\"paragraph\">May it serve as a cautionary tale,</div>\n  <div class=\"paragraph\">and as an inspiration to Leadership, clear thinking,</div>\n  <div class=\"paragraph\">and always choosing the harder right over the easier wrong.</div>\n</div>\n<div class=\"section avoid-break-inside\" style=\"padding-bottom: 2rem;\">\n  <div class=\"paragraph\">May all the countless chapters of this new book help each student,</div>\n  <div class=\"paragraph\">young or old to find their beginning and discover their unique path through Human Knowledge.</div>\n</div>",
  "text": "Your Ideas, Curiosities, Adventures, Doodles, and Little Poems,\nis all there is, and it is all that will hold the world together.\nFrom the little seed of your notebook, your trusty pencil,\nthat one thing you posted on the internet that still impresses you,\ngrows a Brilliant Thinker.\n\nA Custodian of Knowledge, A Lover of Wisdom,\nand a Great Being.\nIf you choose to practice resignation, if you fall,\nthe link of chain that holds the past and the future of Humanity will weaken.\nThe many Hearts, of The Great Beings that rose before you,\nwill wail and howl, and the universe will become permanently darker for it.\n\nSchool is just the best all of the uneducated humanity at the time could agree on,\nit is our first best try, and it was a failure that in its misery will now serve us,\nas a source of wisdom for building the second generation of schools.\nThis time everybody can see, that proper education is the best hope humanity has,\nthis time we will know the price that an Miseducated Earth pays.\n\nPeople that made you feel unintelligent, made a mistake out of desperation,\nbecause they couldn't have know how to teach, because the idea of the classroom,\nand standardized education and testing is just an uninformed political fantasy,\ncrafted for simple and convincing displays of progress, and easy reelection campaigns.\n\nSchool was invented as an experiment by Great Self Taught Beings,\nthough it is broken, it still serves to keep the Global Level of Knowledge high enough,\nfor us to communicate about leaving bad ideas behind, and which are worth keeping.\nWe know it will be based on the way the Self Taught learn,\nwe know there will be no grades, just your brilliant path through the tree of knowledge.\n\nThe new generation of schools will bring Humanity closer together,\nit will help us take better care of our Planet and its Inhabitants.\nWe used to think that school was an island,\nbut it turned out to be the very thing that steers humanity forward in time.\nYou were seen as students once,\nand now you will be seen as Earth's Captains,\nLighthouse Keepers, Navigators, and Admirals.\n\nIf I may,\nLet us begin by taking to the Universal Declaration of Human Rights,\nand setting it as the Opening Chapter of the New Text Book,\nin recognition that school is directly responsible,\nfor the future of Earth and all her Inhabitants.\nMay the first lesson, of this first New Text Book,\nstand to describe how vulnerable we are to cultural indoctrination,\nand the resulting following without thinking.\nMay it serve as a cautionary tale,\nand as an inspiration to Leadership, clear thinking,\nand always choosing the harder right over the easier wrong.\nMay all the countless chapters of this new book help each student,\nyoung or old to find their beginning and discover their unique path through Human Knowledge.",
  "images": [],
  "links": []
}