{
  "name": "furkies-purrkies-poetry-0840",
  "id": "furkies-purrkies-poetry-0840",
  "title": "Towards Lasting World Peace; Or, Real And Meaningful Education For A Wiser Generation",
  "date": "2022-06-18T22:02:45.239Z",
  "image": "poetry-0840-illustration.jpg",
  "artwork": "https://unsplash.com/photos/JRjaNVotNlA",
  "audio": "poetry-0840.mp3",
  "guid": "d395a667-2546-4584-9998-4ca8e3fb0f02",
  "html": "<div class=\"section\">\n  <p>And such is the world as you see it today,<br>uneducated leaders spewing propaganda to see what will stick and stay.</p>\n  <p>Drifting towards a future they can't foresee,<br>a future where our world simply cannot be free.</p>\n  <p>Are we all so squeezed by poverty,<br>that we can't see how mighty we can be?</p>\n  <p>All the while, the liars and ghouls,<br>expect us to become their tools.</p>\n  <p>Be it war, or constantly asking for more-more-more,<br>or giving up on human rights, or forcing us to climb fake heights.</p>\n</div>\n<div class=\"section\">\n  <hr>\n</div>\n<div class=\"section\">\n  <p>A generation can't face a ghoul,<br>to whom to whom it is but an expendable tool.</p>\n  <p>Nor can it change the future by forcing its will,<br>or thinking that some part of the world <strong>must</strong> remain ill.</p>\n  <p>We must leave that dark blindness behind,<br>and learn, and read, and bring light to our mind.</p>\n  <p>We can't just keep asking lairs for change or hope,<br>that will only make the ghouls hand us, the end of the rope.</p>\n</div>\n<div class=\"section\">\n  <hr>\n</div>\n<div class=\"section\">\n  <p>But by knowing that your generation is misrepresented and mislead,<br>by taking to great challenges, and becoming well read.</p>\n  <p>By learning for real, and by making it so that everyone knows.<br>you <strong>can</strong> repair where it all goes.</p>\n  <p>By inviting all the others to grow as well,<br>you <strong>will</strong> end the cycle, and bid the ghouls farewell.</p>\n  <p>Learn and rise to no end, because what <strong>you</strong> really need, is to know,<br>is that you all are the fabric of tomorrow.</p>\n</div>",
  "bootstrap": "<div class=\"card card-section bg-dark text-warning shadow\">\n  <div class=\"section card-body mb-0 my-2\">\n    <div class=\"paragraph card-text card-stanza my-5 text-center\">And such is the world as you see it today,<br>uneducated leaders spewing propaganda to see what will stick and stay.</div>\n    <div class=\"paragraph card-text card-stanza my-5 text-center\">Drifting towards a future they can't foresee,<br>a future where our world simply cannot be free.</div>\n    <div class=\"paragraph card-text card-stanza my-5 text-center\">Are we all so squeezed by poverty,<br>that we can't see how mighty we can be?</div>\n    <div class=\"paragraph card-text card-stanza my-5 text-center\">All the while, the liars and ghouls,<br>expect us to become their tools.</div>\n    <div class=\"paragraph card-text card-stanza my-5 text-center\">Be it war, or constantly asking for more-more-more,<br>or giving up on human rights, or forcing us to climb fake heights.</div>\n  </div>\n</div>\n<div class=\"mb-5 section-spacer\">&nbsp;</div>\n<div class=\"card card-section bg-dark text-warning shadow\">\n  <div class=\"section card-body mb-0 my-2\">\n    <div class=\"paragraph card-text card-stanza my-5 text-center\">A generation can't face a ghoul,<br>to whom to whom it is but an expendable tool.</div>\n    <div class=\"paragraph card-text card-stanza my-5 text-center\">Nor can it change the future by forcing its will,<br>or thinking that some part of the world <strong>must</strong> remain ill.</div>\n    <div class=\"paragraph card-text card-stanza my-5 text-center\">We must leave that dark blindness behind,<br>and learn, and read, and bring light to our mind.</div>\n    <div class=\"paragraph card-text card-stanza my-5 text-center\">We can't just keep asking lairs for change or hope,<br>that will only make the ghouls hand us, the end of the rope.</div>\n  </div>\n</div>\n<div class=\"mb-5 section-spacer\">&nbsp;</div>\n<div class=\"card card-section bg-dark text-warning shadow\">\n  <div class=\"section card-body mb-0 my-2\">\n    <div class=\"paragraph card-text card-stanza my-5 text-center\">But by knowing that your generation is misrepresented and mislead,<br>by taking to great challenges, and becoming well read.</div>\n    <div class=\"paragraph card-text card-stanza my-5 text-center\">By learning for real, and by making it so that everyone knows.<br>you <strong>can</strong> repair where it all goes.</div>\n    <div class=\"paragraph card-text card-stanza my-5 text-center\">By inviting all the others to grow as well,<br>you <strong>will</strong> end the cycle, and bid the ghouls farewell.</div>\n    <div class=\"paragraph card-text card-stanza my-5 text-center\">Learn and rise to no end, because what <strong>you</strong> really need, is to know,<br>is that you all are the fabric of tomorrow.</div>\n  </div>\n</div>",
  "print": "<div class=\"section avoid-break-inside\" style=\"padding-bottom: 2rem;\">\n  <div class=\"paragraph\">And such is the world as you see it today,<br>uneducated leaders spewing propaganda to see what will stick and stay.</div>\n  <div class=\"paragraph\">Drifting towards a future they can't foresee,<br>a future where our world simply cannot be free.</div>\n  <div class=\"paragraph\">Are we all so squeezed by poverty,<br>that we can't see how mighty we can be?</div>\n  <div class=\"paragraph\">All the while, the liars and ghouls,<br>expect us to become their tools.</div>\n  <div class=\"paragraph\">Be it war, or constantly asking for more-more-more,<br>or giving up on human rights, or forcing us to climb fake heights.</div>\n</div>\n<div class=\"section avoid-break-inside\" style=\"padding-bottom: 2rem;\">\n  <br>\n</div>\n<div class=\"section avoid-break-inside\" style=\"padding-bottom: 2rem;\">\n  <div class=\"paragraph\">A generation can't face a ghoul,<br>to whom to whom it is but an expendable tool.</div>\n  <div class=\"paragraph\">Nor can it change the future by forcing its will,<br>or thinking that some part of the world <strong>must</strong> remain ill.</div>\n  <div class=\"paragraph\">We must leave that dark blindness behind,<br>and learn, and read, and bring light to our mind.</div>\n  <div class=\"paragraph\">We can't just keep asking lairs for change or hope,<br>that will only make the ghouls hand us, the end of the rope.</div>\n</div>\n<div class=\"section avoid-break-inside\" style=\"padding-bottom: 2rem;\">\n  <br>\n</div>\n<div class=\"section avoid-break-inside\" style=\"padding-bottom: 2rem;\">\n  <div class=\"paragraph\">But by knowing that your generation is misrepresented and mislead,<br>by taking to great challenges, and becoming well read.</div>\n  <div class=\"paragraph\">By learning for real, and by making it so that everyone knows.<br>you <strong>can</strong> repair where it all goes.</div>\n  <div class=\"paragraph\">By inviting all the others to grow as well,<br>you <strong>will</strong> end the cycle, and bid the ghouls farewell.</div>\n  <div class=\"paragraph\">Learn and rise to no end, because what <strong>you</strong> really need, is to know,<br>is that you all are the fabric of tomorrow.</div>\n</div>",
  "text": "And such is the world as you see it today,\nuneducated leaders spewing propaganda to see what will stick and stay.\nDrifting towards a future they can't foresee,\na future where our world simply cannot be free.\nAre we all so squeezed by poverty,\nthat we can't see how mighty we can be?\nAll the while, the liars and ghouls,\nexpect us to become their tools.\nBe it war, or constantly asking for more-more-more,\nor giving up on human rights, or forcing us to climb fake heights.\n\nA generation can't face a ghoul,\nto whom to whom it is but an expendable tool.\nNor can it change the future by forcing its will,\nor thinking that some part of the world must remain ill.\nWe must leave that dark blindness behind,\nand learn, and read, and bring light to our mind.\nWe can't just keep asking lairs for change or hope,\nthat will only make the ghouls hand us, the end of the rope.\n\nBut by knowing that your generation is misrepresented and mislead,\nby taking to great challenges, and becoming well read.\nBy learning for real, and by making it so that everyone knows.\nyou can repair where it all goes.\nBy inviting all the others to grow as well,\nyou will end the cycle, and bid the ghouls farewell.\nLearn and rise to no end, because what you really need, is to know,\nis that you all are the fabric of tomorrow.",
  "images": [],
  "links": []
}