{
  "name": "furkies-purrkies-poetry-0269",
  "title": "We Are All Beings Of Wisdom",
  "date": "2020-11-25T00:32:06.177Z",
  "image": "poetry-0269-illustration.jpg",
  "audio": "poetry-0269.mp3",
  "artwork": "https://unsplash.com/photos/28nk2O5RjMo",
  "id": "furkies-purrkies-poetry-0269",
  "attachments": {},
  "guid": "7cc9cd51-665c-4130-9c7c-5a816b0bf045",
  "html": "<div class=\"section\">\n  <p>Wisdom has many names and can be viewed in many different ways,</p>\n  <p>most popular perspective is that [non-academic] Philosophy leads to wisdom.</p>\n</div>\n<div class=\"section\">\n  <p>One particularly beautiful view,</p>\n  <p>hints on wisdom with the words Content of Character.</p>\n</div>\n<div class=\"section\">\n  <p>The most mechanically sound description is,</p>\n  <p>understanding new things by subtle analogy to what we already know.</p>\n</div>\n<div class=\"section\">\n  <p>The most concerning view states that,</p>\n  <p>without wisdom we will be making mistakes.</p>\n</div>\n<div class=\"section\">\n  <p>I think most reasonable view; is all of the above,</p>\n  <p>plus knowledge gained from Adventure, Philosophy, and Science Books and Audio Books.</p>\n</div>\n<div class=\"section\">\n  <p>What is it for?</p>\n  <p>Why, it is our Operating System.</p>\n</div>\n<div class=\"section\">\n  <p>PART II, Thought Experiment</p>\n</div>\n<div class=\"section\">\n  <p>Allow me to share with you a thought experiment,</p>\n  <p>a way of seeing things that aid in your view of the world.</p>\n</div>\n<div class=\"section\">\n  <p>Without wisdom, we form tribes and elect leaders, shamans, or popes,</p>\n  <p>and hire muscle, creatures of violence.</p>\n</div>\n<div class=\"section\">\n  <p>Because that is the same thing the other tribe is doing,</p>\n  <p>and the weaker one will be destroyed with great horror.</p>\n</div>\n<div class=\"section\">\n  <p>These tribal bare bone behavior did not end in middle ages,</p>\n  <p>as one would hope.</p>\n</div>\n<div class=\"section\">\n  <p>This behavior is the default human behavior for the frightened and uneducated,</p>\n  <p>the desperate, the angry, even the sick.</p>\n</div>\n<div class=\"section\">\n  <p>We may not understand why criminals do the things they do,</p>\n  <p>but we can imagine one of our family members, who one by one loses everything.</p>\n</div>\n<div class=\"section\">\n  <p>And on the last day, when all he has left,</p>\n  <p>is an ounce of sanity, and a beating hart, he will fight, steal, and hate just to live another day.</p>\n</div>\n<div class=\"section\">\n  <p>And for those who can&apos;t imagine why one would like to live another day when it is all pain,</p>\n  <p>to persevere memories, to keep the fallen alive.</p>\n</div>\n<div class=\"section\">\n  <p>And here we meet a Man of Honor,</p>\n  <p>a Judge, along with a jury, and wealthy lawyers in fantastic shoes.</p>\n</div>\n<div class=\"section\">\n  <p>And all they see is a mad man,</p>\n  <p>a criminal, a man who needs to be put in a cage.</p>\n</div>\n<div class=\"section\">\n  <p>The Judge is wrong,</p>\n  <p>when it comes to putting people in cages, all judges are wrong.</p>\n</div>\n<div class=\"section\">\n  <p>To restore this man, he needs a home, and books, and friends,</p>\n  <p>and an education, and hope, and reams, and free money, and free food.</p>\n</div>\n<div class=\"section\">\n  <p>He needs to be treated with love and dignity,</p>\n  <p>and granted an opportunity to persevere his memories in a book.</p>\n</div>\n<div class=\"section\">\n  <p>There are no criminals,</p>\n  <p>they are just broken children.</p>\n</div>\n<div class=\"section\">\n  <p>The ugliness of the worst of them is just an act,</p>\n  <p>they just want to be left alone.</p>\n</div>\n<div class=\"section\">\n  <p>And I suppose that evil men do exist,</p>\n  <p>but I don&apos;t think there is enough of them in the world to fill a single prison.</p>\n</div>\n<div class=\"section\">\n  <p>The 10,000,000 people we keep in cages,</p>\n  <p>are just children with severe developmental issues.</p>\n</div>\n<div class=\"section\">\n  <p>There are no political systems advanced enough to treat these beings,</p>\n  <p>their only hope is the Public Defender.</p>\n</div>\n<div class=\"section\">\n  <p>The Public Defenders will fight to keep the broken people out of prison,</p>\n  <p>because they know prison will only make them worse.</p>\n</div>\n<div class=\"section\">\n  <p>If you ever wanted to see a real Angel,</p>\n  <p>ask a Judge to let you sit in on a court case, look that tired being in the eyes.</p>\n</div>\n<div class=\"section\">\n  <p>We are Human Beings,</p>\n  <p>we are not animals to be kept in cages.</p>\n</div>\n<div class=\"section\">\n  <p>I have met snarling beasts,</p>\n  <p>and I saw their red faces and bulging eyes, and they were just broken kids.</p>\n</div>\n<div class=\"section\">\n  <p>At first I wanted my older self to come and help me,</p>\n  <p>but later I just started calling them My Bullies, they never had a chance at a good life.</p>\n</div>\n<div class=\"section\">\n  <p>And here we find a sliver of sanity,</p>\n  <p>because there is something that can be done to control crime.</p>\n</div>\n<div class=\"section\">\n  <p>It is preventing children from being forced into that desperate mode of existence,</p>\n  <p>PREVENTION.</p>\n</div>\n<div class=\"section\">\n  <p>Prevention is a simple thing, Free Home, Free Food, Free Money,</p>\n  <p>and Free Tutors, a Real Education.</p>\n</div>\n<div class=\"section\">\n  <p>It will take a psychologist to identify those who need help,</p>\n  <p>it is as simple as that.</p>\n</div>\n<div class=\"section\">\n  <p>No suffering,</p>\n  <p>no harm.</p>\n</div>\n<div class=\"section\">\n  <p>And for those of you who are crazy enough to ask who will pay for this,</p>\n  <p>let us call the institution a Bank of Love, right at the Heart of a Country.</p>\n</div>\n<div class=\"section\">\n  <p>They print only as much money as people need to be taken care of,</p>\n  <p>and they pride themselves in the amount of debt that nobody will come to collect.</p>\n</div>\n<div class=\"section\">\n  <p>Prevention, is really about education,</p>\n  <p>because an educated person can make a lot more than any government can grant them.</p>\n</div>\n<div class=\"section\">\n  <p>Social Programs, Real Welfare, or Universal Basic Income,</p>\n  <p>will grant a person a Home, a Car, Food, and all the necessities, but they can&apos;t pay for extras.</p>\n</div>\n<div class=\"section\">\n  <p>They&apos;ll pay for an education leading up to a Captains License,</p>\n  <p>but not the boat.</p>\n</div>\n<div class=\"section\">\n  <p>Prevention will go a long way to bring the number of prisoners down,</p>\n  <p>these desperate beings are part of our family, it is all of us or none.</p>\n</div>\n<div class=\"section\">\n  <p>We are a young civilization,</p>\n  <p>we don&apos;t have governments that can handle Universal Basic Income.</p>\n</div>\n<div class=\"section\">\n  <p>We have governments,</p>\n  <p>that can barely handle themselves.</p>\n</div>\n<div class=\"section\">\n  <p>We can cross this bridge, the bridge where we eliminate poverty, and homelessness, and immense fear and suffering,</p>\n  <p>suffering that draws those who have the courage to keep fighting into addiction so that they don&apos;t burst out of pain.</p>\n</div>\n<div class=\"section\">\n  <p>To get there, to begin growing up as a civilization,</p>\n  <p>those of us who can handle it must take to Books and Audio Books and reach Wisdom.</p>\n</div>\n<div class=\"section\">\n  <p>Only in your Wisdom can the world begin growing,</p>\n  <p>beyond the noisy mess that desperate, blind and tone deaf career politicians created.</p>\n</div>\n<div class=\"section\">\n  <p>The youngest of you are going to inherit all these problems,</p>\n  <p>but you will also know that all of these problems are happening due to lack of wisdom.</p>\n</div>\n<div class=\"section\">\n  <p>Treat the cause,</p>\n  <p>and the symptoms will subside.</p>\n</div>\n<div class=\"section\">\n  <p>Only in wisdom,</p>\n  <p>can our civilization advance forward.</p>\n</div>\n<div class=\"section\">\n  <p>Personal Note,</p>\n</div>\n<div class=\"section\">\n  <p>Those of you who are just learning about the world,</p>\n  <p>know that it is confusing because hardly anything works right.</p>\n</div>\n<div class=\"section\">\n  <p>Be it a be it a Judge, or General, and most shockingly a Jury,</p>\n  <p>they are missing lessons that help them see the world as a Work in Progress.</p>\n</div>\n<div class=\"section\">\n  <p>We are still building the foundation,</p>\n  <p>and we are getting too much interference from our leadership.</p>\n</div>\n<div class=\"section\">\n  <p>Look no further than the complete loss of privacy,</p>\n  <p>this is a function of uneducation and desperation, and blindness.</p>\n</div>\n<div class=\"section\">\n  <p>Enhanced interrogation, is even a more terrifying example,</p>\n  <p>the world has no faith in nations that practice torture.</p>\n</div>\n<div class=\"section\">\n  <p>The 13th Amendment to Constitution of United States did not end Slavery in Full</p>\n  <p>it reads &quot;Neither slavery nor involuntary servitude, except as a punishment for crime whereof the party shall have been duly convicted, shall exist within the United States&quot;.</p>\n</div>\n<div class=\"section\">\n  <p>You have a lot of work on your hands,</p>\n  <p>and you will have a lot of friends working just as hard as you, and all over the world.</p>\n</div>\n<div class=\"section\">\n  <p>While you are still young, take to Adventure Audio Books,</p>\n  <p>read them all, and especially pay attention to the part where the adventurer reveals the reason for this quest.</p>\n</div>\n<div class=\"section\">\n  <p>In less than a Hundred Audio Books that call to you,</p>\n  <p>you will begin becoming wise onward to becoming a great being.</p>\n</div>\n<div class=\"section\">\n  <p>It is in it self a great adventure,</p>\n  <p>and if I may, a Memoir is best written as your life unfolds, it is never too early to start writing.</p>\n</div>",
  "bootstrap": "<div class=\"card card-section bg-dark text-warning shadow\">\n  <div class=\"section card-body mb-0 my-2\">\n    <div class=\"paragraph card-text card-stanza my-5 text-center\">Wisdom has many names and can be viewed in many different ways,</div>\n    <div class=\"paragraph card-text card-stanza my-5 text-center\">most popular perspective is that [non-academic] Philosophy leads to wisdom.</div>\n  </div>\n</div>\n<div class=\"card card-section bg-dark text-warning shadow\">\n  <div class=\"section card-body mb-0 my-2\">\n    <div class=\"paragraph card-text card-stanza my-5 text-center\">One particularly beautiful view,</div>\n    <div class=\"paragraph card-text card-stanza my-5 text-center\">hints on wisdom with the words Content of Character.</div>\n  </div>\n</div>\n<div class=\"card card-section bg-dark text-warning shadow\">\n  <div class=\"section card-body mb-0 my-2\">\n    <div class=\"paragraph card-text card-stanza my-5 text-center\">The most mechanically sound description is,</div>\n    <div class=\"paragraph card-text card-stanza my-5 text-center\">understanding new things by subtle analogy to what we already know.</div>\n  </div>\n</div>\n<div class=\"card card-section bg-dark text-warning shadow\">\n  <div class=\"section card-body mb-0 my-2\">\n    <div class=\"paragraph card-text card-stanza my-5 text-center\">The most concerning view states that,</div>\n    <div class=\"paragraph card-text card-stanza my-5 text-center\">without wisdom we will be making mistakes.</div>\n  </div>\n</div>\n<div class=\"card card-section bg-dark text-warning shadow\">\n  <div class=\"section card-body mb-0 my-2\">\n    <div class=\"paragraph card-text card-stanza my-5 text-center\">I think most reasonable view; is all of the above,</div>\n    <div class=\"paragraph card-text card-stanza my-5 text-center\">plus knowledge gained from Adventure, Philosophy, and Science Books and Audio Books.</div>\n  </div>\n</div>\n<div class=\"card card-section bg-dark text-warning shadow\">\n  <div class=\"section card-body mb-0 my-2\">\n    <div class=\"paragraph card-text card-stanza my-5 text-center\">What is it for?</div>\n    <div class=\"paragraph card-text card-stanza my-5 text-center\">Why, it is our Operating System.</div>\n  </div>\n</div>\n<div class=\"card card-section bg-dark text-warning shadow\">\n  <div class=\"section card-body mb-0 my-2\">\n    <div class=\"paragraph card-text card-stanza my-5 text-center\">PART II, Thought Experiment</div>\n  </div>\n</div>\n<div class=\"card card-section bg-dark text-warning shadow\">\n  <div class=\"section card-body mb-0 my-2\">\n    <div class=\"paragraph card-text card-stanza my-5 text-center\">Allow me to share with you a thought experiment,</div>\n    <div class=\"paragraph card-text card-stanza my-5 text-center\">a way of seeing things that aid in your view of the world.</div>\n  </div>\n</div>\n<div class=\"card card-section bg-dark text-warning shadow\">\n  <div class=\"section card-body mb-0 my-2\">\n    <div class=\"paragraph card-text card-stanza my-5 text-center\">Without wisdom, we form tribes and elect leaders, shamans, or popes,</div>\n    <div class=\"paragraph card-text card-stanza my-5 text-center\">and hire muscle, creatures of violence.</div>\n  </div>\n</div>\n<div class=\"card card-section bg-dark text-warning shadow\">\n  <div class=\"section card-body mb-0 my-2\">\n    <div class=\"paragraph card-text card-stanza my-5 text-center\">Because that is the same thing the other tribe is doing,</div>\n    <div class=\"paragraph card-text card-stanza my-5 text-center\">and the weaker one will be destroyed with great horror.</div>\n  </div>\n</div>\n<div class=\"card card-section bg-dark text-warning shadow\">\n  <div class=\"section card-body mb-0 my-2\">\n    <div class=\"paragraph card-text card-stanza my-5 text-center\">These tribal bare bone behavior did not end in middle ages,</div>\n    <div class=\"paragraph card-text card-stanza my-5 text-center\">as one would hope.</div>\n  </div>\n</div>\n<div class=\"card card-section bg-dark text-warning shadow\">\n  <div class=\"section card-body mb-0 my-2\">\n    <div class=\"paragraph card-text card-stanza my-5 text-center\">This behavior is the default human behavior for the frightened and uneducated,</div>\n    <div class=\"paragraph card-text card-stanza my-5 text-center\">the desperate, the angry, even the sick.</div>\n  </div>\n</div>\n<div class=\"card card-section bg-dark text-warning shadow\">\n  <div class=\"section card-body mb-0 my-2\">\n    <div class=\"paragraph card-text card-stanza my-5 text-center\">We may not understand why criminals do the things they do,</div>\n    <div class=\"paragraph card-text card-stanza my-5 text-center\">but we can imagine one of our family members, who one by one loses everything.</div>\n  </div>\n</div>\n<div class=\"card card-section bg-dark text-warning shadow\">\n  <div class=\"section card-body mb-0 my-2\">\n    <div class=\"paragraph card-text card-stanza my-5 text-center\">And on the last day, when all he has left,</div>\n    <div class=\"paragraph card-text card-stanza my-5 text-center\">is an ounce of sanity, and a beating hart, he will fight, steal, and hate just to live another day.</div>\n  </div>\n</div>\n<div class=\"card card-section bg-dark text-warning shadow\">\n  <div class=\"section card-body mb-0 my-2\">\n    <div class=\"paragraph card-text card-stanza my-5 text-center\">And for those who can't imagine why one would like to live another day when it is all pain,</div>\n    <div class=\"paragraph card-text card-stanza my-5 text-center\">to persevere memories, to keep the fallen alive.</div>\n  </div>\n</div>\n<div class=\"card card-section bg-dark text-warning shadow\">\n  <div class=\"section card-body mb-0 my-2\">\n    <div class=\"paragraph card-text card-stanza my-5 text-center\">And here we meet a Man of Honor,</div>\n    <div class=\"paragraph card-text card-stanza my-5 text-center\">a Judge, along with a jury, and wealthy lawyers in fantastic shoes.</div>\n  </div>\n</div>\n<div class=\"card card-section bg-dark text-warning shadow\">\n  <div class=\"section card-body mb-0 my-2\">\n    <div class=\"paragraph card-text card-stanza my-5 text-center\">And all they see is a mad man,</div>\n    <div class=\"paragraph card-text card-stanza my-5 text-center\">a criminal, a man who needs to be put in a cage.</div>\n  </div>\n</div>\n<div class=\"card card-section bg-dark text-warning shadow\">\n  <div class=\"section card-body mb-0 my-2\">\n    <div class=\"paragraph card-text card-stanza my-5 text-center\">The Judge is wrong,</div>\n    <div class=\"paragraph card-text card-stanza my-5 text-center\">when it comes to putting people in cages, all judges are wrong.</div>\n  </div>\n</div>\n<div class=\"card card-section bg-dark text-warning shadow\">\n  <div class=\"section card-body mb-0 my-2\">\n    <div class=\"paragraph card-text card-stanza my-5 text-center\">To restore this man, he needs a home, and books, and friends,</div>\n    <div class=\"paragraph card-text card-stanza my-5 text-center\">and an education, and hope, and reams, and free money, and free food.</div>\n  </div>\n</div>\n<div class=\"card card-section bg-dark text-warning shadow\">\n  <div class=\"section card-body mb-0 my-2\">\n    <div class=\"paragraph card-text card-stanza my-5 text-center\">He needs to be treated with love and dignity,</div>\n    <div class=\"paragraph card-text card-stanza my-5 text-center\">and granted an opportunity to persevere his memories in a book.</div>\n  </div>\n</div>\n<div class=\"card card-section bg-dark text-warning shadow\">\n  <div class=\"section card-body mb-0 my-2\">\n    <div class=\"paragraph card-text card-stanza my-5 text-center\">There are no criminals,</div>\n    <div class=\"paragraph card-text card-stanza my-5 text-center\">they are just broken children.</div>\n  </div>\n</div>\n<div class=\"card card-section bg-dark text-warning shadow\">\n  <div class=\"section card-body mb-0 my-2\">\n    <div class=\"paragraph card-text card-stanza my-5 text-center\">The ugliness of the worst of them is just an act,</div>\n    <div class=\"paragraph card-text card-stanza my-5 text-center\">they just want to be left alone.</div>\n  </div>\n</div>\n<div class=\"card card-section bg-dark text-warning shadow\">\n  <div class=\"section card-body mb-0 my-2\">\n    <div class=\"paragraph card-text card-stanza my-5 text-center\">And I suppose that evil men do exist,</div>\n    <div class=\"paragraph card-text card-stanza my-5 text-center\">but I don't think there is enough of them in the world to fill a single prison.</div>\n  </div>\n</div>\n<div class=\"card card-section bg-dark text-warning shadow\">\n  <div class=\"section card-body mb-0 my-2\">\n    <div class=\"paragraph card-text card-stanza my-5 text-center\">The 10,000,000 people we keep in cages,</div>\n    <div class=\"paragraph card-text card-stanza my-5 text-center\">are just children with severe developmental issues.</div>\n  </div>\n</div>\n<div class=\"card card-section bg-dark text-warning shadow\">\n  <div class=\"section card-body mb-0 my-2\">\n    <div class=\"paragraph card-text card-stanza my-5 text-center\">There are no political systems advanced enough to treat these beings,</div>\n    <div class=\"paragraph card-text card-stanza my-5 text-center\">their only hope is the Public Defender.</div>\n  </div>\n</div>\n<div class=\"card card-section bg-dark text-warning shadow\">\n  <div class=\"section card-body mb-0 my-2\">\n    <div class=\"paragraph card-text card-stanza my-5 text-center\">The Public Defenders will fight to keep the broken people out of prison,</div>\n    <div class=\"paragraph card-text card-stanza my-5 text-center\">because they know prison will only make them worse.</div>\n  </div>\n</div>\n<div class=\"card card-section bg-dark text-warning shadow\">\n  <div class=\"section card-body mb-0 my-2\">\n    <div class=\"paragraph card-text card-stanza my-5 text-center\">If you ever wanted to see a real Angel,</div>\n    <div class=\"paragraph card-text card-stanza my-5 text-center\">ask a Judge to let you sit in on a court case, look that tired being in the eyes.</div>\n  </div>\n</div>\n<div class=\"card card-section bg-dark text-warning shadow\">\n  <div class=\"section card-body mb-0 my-2\">\n    <div class=\"paragraph card-text card-stanza my-5 text-center\">We are Human Beings,</div>\n    <div class=\"paragraph card-text card-stanza my-5 text-center\">we are not animals to be kept in cages.</div>\n  </div>\n</div>\n<div class=\"card card-section bg-dark text-warning shadow\">\n  <div class=\"section card-body mb-0 my-2\">\n    <div class=\"paragraph card-text card-stanza my-5 text-center\">I have met snarling beasts,</div>\n    <div class=\"paragraph card-text card-stanza my-5 text-center\">and I saw their red faces and bulging eyes, and they were just broken kids.</div>\n  </div>\n</div>\n<div class=\"card card-section bg-dark text-warning shadow\">\n  <div class=\"section card-body mb-0 my-2\">\n    <div class=\"paragraph card-text card-stanza my-5 text-center\">At first I wanted my older self to come and help me,</div>\n    <div class=\"paragraph card-text card-stanza my-5 text-center\">but later I just started calling them My Bullies, they never had a chance at a good life.</div>\n  </div>\n</div>\n<div class=\"card card-section bg-dark text-warning shadow\">\n  <div class=\"section card-body mb-0 my-2\">\n    <div class=\"paragraph card-text card-stanza my-5 text-center\">And here we find a sliver of sanity,</div>\n    <div class=\"paragraph card-text card-stanza my-5 text-center\">because there is something that can be done to control crime.</div>\n  </div>\n</div>\n<div class=\"card card-section bg-dark text-warning shadow\">\n  <div class=\"section card-body mb-0 my-2\">\n    <div class=\"paragraph card-text card-stanza my-5 text-center\">It is preventing children from being forced into that desperate mode of existence,</div>\n    <div class=\"paragraph card-text card-stanza my-5 text-center\">PREVENTION.</div>\n  </div>\n</div>\n<div class=\"card card-section bg-dark text-warning shadow\">\n  <div class=\"section card-body mb-0 my-2\">\n    <div class=\"paragraph card-text card-stanza my-5 text-center\">Prevention is a simple thing, Free Home, Free Food, Free Money,</div>\n    <div class=\"paragraph card-text card-stanza my-5 text-center\">and Free Tutors, a Real Education.</div>\n  </div>\n</div>\n<div class=\"card card-section bg-dark text-warning shadow\">\n  <div class=\"section card-body mb-0 my-2\">\n    <div class=\"paragraph card-text card-stanza my-5 text-center\">It will take a psychologist to identify those who need help,</div>\n    <div class=\"paragraph card-text card-stanza my-5 text-center\">it is as simple as that.</div>\n  </div>\n</div>\n<div class=\"card card-section bg-dark text-warning shadow\">\n  <div class=\"section card-body mb-0 my-2\">\n    <div class=\"paragraph card-text card-stanza my-5 text-center\">No suffering,</div>\n    <div class=\"paragraph card-text card-stanza my-5 text-center\">no harm.</div>\n  </div>\n</div>\n<div class=\"card card-section bg-dark text-warning shadow\">\n  <div class=\"section card-body mb-0 my-2\">\n    <div class=\"paragraph card-text card-stanza my-5 text-center\">And for those of you who are crazy enough to ask who will pay for this,</div>\n    <div class=\"paragraph card-text card-stanza my-5 text-center\">let us call the institution a Bank of Love, right at the Heart of a Country.</div>\n  </div>\n</div>\n<div class=\"card card-section bg-dark text-warning shadow\">\n  <div class=\"section card-body mb-0 my-2\">\n    <div class=\"paragraph card-text card-stanza my-5 text-center\">They print only as much money as people need to be taken care of,</div>\n    <div class=\"paragraph card-text card-stanza my-5 text-center\">and they pride themselves in the amount of debt that nobody will come to collect.</div>\n  </div>\n</div>\n<div class=\"card card-section bg-dark text-warning shadow\">\n  <div class=\"section card-body mb-0 my-2\">\n    <div class=\"paragraph card-text card-stanza my-5 text-center\">Prevention, is really about education,</div>\n    <div class=\"paragraph card-text card-stanza my-5 text-center\">because an educated person can make a lot more than any government can grant them.</div>\n  </div>\n</div>\n<div class=\"card card-section bg-dark text-warning shadow\">\n  <div class=\"section card-body mb-0 my-2\">\n    <div class=\"paragraph card-text card-stanza my-5 text-center\">Social Programs, Real Welfare, or Universal Basic Income,</div>\n    <div class=\"paragraph card-text card-stanza my-5 text-center\">will grant a person a Home, a Car, Food, and all the necessities, but they can't pay for extras.</div>\n  </div>\n</div>\n<div class=\"card card-section bg-dark text-warning shadow\">\n  <div class=\"section card-body mb-0 my-2\">\n    <div class=\"paragraph card-text card-stanza my-5 text-center\">They'll pay for an education leading up to a Captains License,</div>\n    <div class=\"paragraph card-text card-stanza my-5 text-center\">but not the boat.</div>\n  </div>\n</div>\n<div class=\"card card-section bg-dark text-warning shadow\">\n  <div class=\"section card-body mb-0 my-2\">\n    <div class=\"paragraph card-text card-stanza my-5 text-center\">Prevention will go a long way to bring the number of prisoners down,</div>\n    <div class=\"paragraph card-text card-stanza my-5 text-center\">these desperate beings are part of our family, it is all of us or none.</div>\n  </div>\n</div>\n<div class=\"card card-section bg-dark text-warning shadow\">\n  <div class=\"section card-body mb-0 my-2\">\n    <div class=\"paragraph card-text card-stanza my-5 text-center\">We are a young civilization,</div>\n    <div class=\"paragraph card-text card-stanza my-5 text-center\">we don't have governments that can handle Universal Basic Income.</div>\n  </div>\n</div>\n<div class=\"card card-section bg-dark text-warning shadow\">\n  <div class=\"section card-body mb-0 my-2\">\n    <div class=\"paragraph card-text card-stanza my-5 text-center\">We have governments,</div>\n    <div class=\"paragraph card-text card-stanza my-5 text-center\">that can barely handle themselves.</div>\n  </div>\n</div>\n<div class=\"card card-section bg-dark text-warning shadow\">\n  <div class=\"section card-body mb-0 my-2\">\n    <div class=\"paragraph card-text card-stanza my-5 text-center\">We can cross this bridge, the bridge where we eliminate poverty, and homelessness, and immense fear and suffering,</div>\n    <div class=\"paragraph card-text card-stanza my-5 text-center\">suffering that draws those who have the courage to keep fighting into addiction so that they don't burst out of pain.</div>\n  </div>\n</div>\n<div class=\"card card-section bg-dark text-warning shadow\">\n  <div class=\"section card-body mb-0 my-2\">\n    <div class=\"paragraph card-text card-stanza my-5 text-center\">To get there, to begin growing up as a civilization,</div>\n    <div class=\"paragraph card-text card-stanza my-5 text-center\">those of us who can handle it must take to Books and Audio Books and reach Wisdom.</div>\n  </div>\n</div>\n<div class=\"card card-section bg-dark text-warning shadow\">\n  <div class=\"section card-body mb-0 my-2\">\n    <div class=\"paragraph card-text card-stanza my-5 text-center\">Only in your Wisdom can the world begin growing,</div>\n    <div class=\"paragraph card-text card-stanza my-5 text-center\">beyond the noisy mess that desperate, blind and tone deaf career politicians created.</div>\n  </div>\n</div>\n<div class=\"card card-section bg-dark text-warning shadow\">\n  <div class=\"section card-body mb-0 my-2\">\n    <div class=\"paragraph card-text card-stanza my-5 text-center\">The youngest of you are going to inherit all these problems,</div>\n    <div class=\"paragraph card-text card-stanza my-5 text-center\">but you will also know that all of these problems are happening due to lack of wisdom.</div>\n  </div>\n</div>\n<div class=\"card card-section bg-dark text-warning shadow\">\n  <div class=\"section card-body mb-0 my-2\">\n    <div class=\"paragraph card-text card-stanza my-5 text-center\">Treat the cause,</div>\n    <div class=\"paragraph card-text card-stanza my-5 text-center\">and the symptoms will subside.</div>\n  </div>\n</div>\n<div class=\"card card-section bg-dark text-warning shadow\">\n  <div class=\"section card-body mb-0 my-2\">\n    <div class=\"paragraph card-text card-stanza my-5 text-center\">Only in wisdom,</div>\n    <div class=\"paragraph card-text card-stanza my-5 text-center\">can our civilization advance forward.</div>\n  </div>\n</div>\n<div class=\"card card-section bg-dark text-warning shadow\">\n  <div class=\"section card-body mb-0 my-2\">\n    <div class=\"paragraph card-text card-stanza my-5 text-center\">Personal Note,</div>\n  </div>\n</div>\n<div class=\"card card-section bg-dark text-warning shadow\">\n  <div class=\"section card-body mb-0 my-2\">\n    <div class=\"paragraph card-text card-stanza my-5 text-center\">Those of you who are just learning about the world,</div>\n    <div class=\"paragraph card-text card-stanza my-5 text-center\">know that it is confusing because hardly anything works right.</div>\n  </div>\n</div>\n<div class=\"card card-section bg-dark text-warning shadow\">\n  <div class=\"section card-body mb-0 my-2\">\n    <div class=\"paragraph card-text card-stanza my-5 text-center\">Be it a be it a Judge, or General, and most shockingly a Jury,</div>\n    <div class=\"paragraph card-text card-stanza my-5 text-center\">they are missing lessons that help them see the world as a Work in Progress.</div>\n  </div>\n</div>\n<div class=\"card card-section bg-dark text-warning shadow\">\n  <div class=\"section card-body mb-0 my-2\">\n    <div class=\"paragraph card-text card-stanza my-5 text-center\">We are still building the foundation,</div>\n    <div class=\"paragraph card-text card-stanza my-5 text-center\">and we are getting too much interference from our leadership.</div>\n  </div>\n</div>\n<div class=\"card card-section bg-dark text-warning shadow\">\n  <div class=\"section card-body mb-0 my-2\">\n    <div class=\"paragraph card-text card-stanza my-5 text-center\">Look no further than the complete loss of privacy,</div>\n    <div class=\"paragraph card-text card-stanza my-5 text-center\">this is a function of uneducation and desperation, and blindness.</div>\n  </div>\n</div>\n<div class=\"card card-section bg-dark text-warning shadow\">\n  <div class=\"section card-body mb-0 my-2\">\n    <div class=\"paragraph card-text card-stanza my-5 text-center\">Enhanced interrogation, is even a more terrifying example,</div>\n    <div class=\"paragraph card-text card-stanza my-5 text-center\">the world has no faith in nations that practice torture.</div>\n  </div>\n</div>\n<div class=\"card card-section bg-dark text-warning shadow\">\n  <div class=\"section card-body mb-0 my-2\">\n    <div class=\"paragraph card-text card-stanza my-5 text-center\">The 13th Amendment to Constitution of United States did not end Slavery in Full</div>\n    <div class=\"paragraph card-text card-stanza my-5 text-center\">it reads \"Neither slavery nor involuntary servitude, except as a punishment for crime whereof the party shall have been duly convicted, shall exist within the United States\".</div>\n  </div>\n</div>\n<div class=\"card card-section bg-dark text-warning shadow\">\n  <div class=\"section card-body mb-0 my-2\">\n    <div class=\"paragraph card-text card-stanza my-5 text-center\">You have a lot of work on your hands,</div>\n    <div class=\"paragraph card-text card-stanza my-5 text-center\">and you will have a lot of friends working just as hard as you, and all over the world.</div>\n  </div>\n</div>\n<div class=\"card card-section bg-dark text-warning shadow\">\n  <div class=\"section card-body mb-0 my-2\">\n    <div class=\"paragraph card-text card-stanza my-5 text-center\">While you are still young, take to Adventure Audio Books,</div>\n    <div class=\"paragraph card-text card-stanza my-5 text-center\">read them all, and especially pay attention to the part where the adventurer reveals the reason for this quest.</div>\n  </div>\n</div>\n<div class=\"card card-section bg-dark text-warning shadow\">\n  <div class=\"section card-body mb-0 my-2\">\n    <div class=\"paragraph card-text card-stanza my-5 text-center\">In less than a Hundred Audio Books that call to you,</div>\n    <div class=\"paragraph card-text card-stanza my-5 text-center\">you will begin becoming wise onward to becoming a great being.</div>\n  </div>\n</div>\n<div class=\"card card-section bg-dark text-warning shadow\">\n  <div class=\"section card-body mb-0 my-2\">\n    <div class=\"paragraph card-text card-stanza my-5 text-center\">It is in it self a great adventure,</div>\n    <div class=\"paragraph card-text card-stanza my-5 text-center\">and if I may, a Memoir is best written as your life unfolds, it is never too early to start writing.</div>\n  </div>\n</div>",
  "print": "<div class=\"section avoid-break-inside\" style=\"padding-bottom: 2rem;\">\n  <div class=\"paragraph\">Wisdom has many names and can be viewed in many different ways,</div>\n  <div class=\"paragraph\">most popular perspective is that [non-academic] Philosophy leads to wisdom.</div>\n</div>\n<div class=\"section avoid-break-inside\" style=\"padding-bottom: 2rem;\">\n  <div class=\"paragraph\">One particularly beautiful view,</div>\n  <div class=\"paragraph\">hints on wisdom with the words Content of Character.</div>\n</div>\n<div class=\"section avoid-break-inside\" style=\"padding-bottom: 2rem;\">\n  <div class=\"paragraph\">The most mechanically sound description is,</div>\n  <div class=\"paragraph\">understanding new things by subtle analogy to what we already know.</div>\n</div>\n<div class=\"section avoid-break-inside\" style=\"padding-bottom: 2rem;\">\n  <div class=\"paragraph\">The most concerning view states that,</div>\n  <div class=\"paragraph\">without wisdom we will be making mistakes.</div>\n</div>\n<div class=\"section avoid-break-inside\" style=\"padding-bottom: 2rem;\">\n  <div class=\"paragraph\">I think most reasonable view; is all of the above,</div>\n  <div class=\"paragraph\">plus knowledge gained from Adventure, Philosophy, and Science Books and Audio Books.</div>\n</div>\n<div class=\"section avoid-break-inside\" style=\"padding-bottom: 2rem;\">\n  <div class=\"paragraph\">What is it for?</div>\n  <div class=\"paragraph\">Why, it is our Operating System.</div>\n</div>\n<div class=\"section avoid-break-inside\" style=\"padding-bottom: 2rem;\">\n  <div class=\"paragraph\">PART II, Thought Experiment</div>\n</div>\n<div class=\"section avoid-break-inside\" style=\"padding-bottom: 2rem;\">\n  <div class=\"paragraph\">Allow me to share with you a thought experiment,</div>\n  <div class=\"paragraph\">a way of seeing things that aid in your view of the world.</div>\n</div>\n<div class=\"section avoid-break-inside\" style=\"padding-bottom: 2rem;\">\n  <div class=\"paragraph\">Without wisdom, we form tribes and elect leaders, shamans, or popes,</div>\n  <div class=\"paragraph\">and hire muscle, creatures of violence.</div>\n</div>\n<div class=\"section avoid-break-inside\" style=\"padding-bottom: 2rem;\">\n  <div class=\"paragraph\">Because that is the same thing the other tribe is doing,</div>\n  <div class=\"paragraph\">and the weaker one will be destroyed with great horror.</div>\n</div>\n<div class=\"section avoid-break-inside\" style=\"padding-bottom: 2rem;\">\n  <div class=\"paragraph\">These tribal bare bone behavior did not end in middle ages,</div>\n  <div class=\"paragraph\">as one would hope.</div>\n</div>\n<div class=\"section avoid-break-inside\" style=\"padding-bottom: 2rem;\">\n  <div class=\"paragraph\">This behavior is the default human behavior for the frightened and uneducated,</div>\n  <div class=\"paragraph\">the desperate, the angry, even the sick.</div>\n</div>\n<div class=\"section avoid-break-inside\" style=\"padding-bottom: 2rem;\">\n  <div class=\"paragraph\">We may not understand why criminals do the things they do,</div>\n  <div class=\"paragraph\">but we can imagine one of our family members, who one by one loses everything.</div>\n</div>\n<div class=\"section avoid-break-inside\" style=\"padding-bottom: 2rem;\">\n  <div class=\"paragraph\">And on the last day, when all he has left,</div>\n  <div class=\"paragraph\">is an ounce of sanity, and a beating hart, he will fight, steal, and hate just to live another day.</div>\n</div>\n<div class=\"section avoid-break-inside\" style=\"padding-bottom: 2rem;\">\n  <div class=\"paragraph\">And for those who can't imagine why one would like to live another day when it is all pain,</div>\n  <div class=\"paragraph\">to persevere memories, to keep the fallen alive.</div>\n</div>\n<div class=\"section avoid-break-inside\" style=\"padding-bottom: 2rem;\">\n  <div class=\"paragraph\">And here we meet a Man of Honor,</div>\n  <div class=\"paragraph\">a Judge, along with a jury, and wealthy lawyers in fantastic shoes.</div>\n</div>\n<div class=\"section avoid-break-inside\" style=\"padding-bottom: 2rem;\">\n  <div class=\"paragraph\">And all they see is a mad man,</div>\n  <div class=\"paragraph\">a criminal, a man who needs to be put in a cage.</div>\n</div>\n<div class=\"section avoid-break-inside\" style=\"padding-bottom: 2rem;\">\n  <div class=\"paragraph\">The Judge is wrong,</div>\n  <div class=\"paragraph\">when it comes to putting people in cages, all judges are wrong.</div>\n</div>\n<div class=\"section avoid-break-inside\" style=\"padding-bottom: 2rem;\">\n  <div class=\"paragraph\">To restore this man, he needs a home, and books, and friends,</div>\n  <div class=\"paragraph\">and an education, and hope, and reams, and free money, and free food.</div>\n</div>\n<div class=\"section avoid-break-inside\" style=\"padding-bottom: 2rem;\">\n  <div class=\"paragraph\">He needs to be treated with love and dignity,</div>\n  <div class=\"paragraph\">and granted an opportunity to persevere his memories in a book.</div>\n</div>\n<div class=\"section avoid-break-inside\" style=\"padding-bottom: 2rem;\">\n  <div class=\"paragraph\">There are no criminals,</div>\n  <div class=\"paragraph\">they are just broken children.</div>\n</div>\n<div class=\"section avoid-break-inside\" style=\"padding-bottom: 2rem;\">\n  <div class=\"paragraph\">The ugliness of the worst of them is just an act,</div>\n  <div class=\"paragraph\">they just want to be left alone.</div>\n</div>\n<div class=\"section avoid-break-inside\" style=\"padding-bottom: 2rem;\">\n  <div class=\"paragraph\">And I suppose that evil men do exist,</div>\n  <div class=\"paragraph\">but I don't think there is enough of them in the world to fill a single prison.</div>\n</div>\n<div class=\"section avoid-break-inside\" style=\"padding-bottom: 2rem;\">\n  <div class=\"paragraph\">The 10,000,000 people we keep in cages,</div>\n  <div class=\"paragraph\">are just children with severe developmental issues.</div>\n</div>\n<div class=\"section avoid-break-inside\" style=\"padding-bottom: 2rem;\">\n  <div class=\"paragraph\">There are no political systems advanced enough to treat these beings,</div>\n  <div class=\"paragraph\">their only hope is the Public Defender.</div>\n</div>\n<div class=\"section avoid-break-inside\" style=\"padding-bottom: 2rem;\">\n  <div class=\"paragraph\">The Public Defenders will fight to keep the broken people out of prison,</div>\n  <div class=\"paragraph\">because they know prison will only make them worse.</div>\n</div>\n<div class=\"section avoid-break-inside\" style=\"padding-bottom: 2rem;\">\n  <div class=\"paragraph\">If you ever wanted to see a real Angel,</div>\n  <div class=\"paragraph\">ask a Judge to let you sit in on a court case, look that tired being in the eyes.</div>\n</div>\n<div class=\"section avoid-break-inside\" style=\"padding-bottom: 2rem;\">\n  <div class=\"paragraph\">We are Human Beings,</div>\n  <div class=\"paragraph\">we are not animals to be kept in cages.</div>\n</div>\n<div class=\"section avoid-break-inside\" style=\"padding-bottom: 2rem;\">\n  <div class=\"paragraph\">I have met snarling beasts,</div>\n  <div class=\"paragraph\">and I saw their red faces and bulging eyes, and they were just broken kids.</div>\n</div>\n<div class=\"section avoid-break-inside\" style=\"padding-bottom: 2rem;\">\n  <div class=\"paragraph\">At first I wanted my older self to come and help me,</div>\n  <div class=\"paragraph\">but later I just started calling them My Bullies, they never had a chance at a good life.</div>\n</div>\n<div class=\"section avoid-break-inside\" style=\"padding-bottom: 2rem;\">\n  <div class=\"paragraph\">And here we find a sliver of sanity,</div>\n  <div class=\"paragraph\">because there is something that can be done to control crime.</div>\n</div>\n<div class=\"section avoid-break-inside\" style=\"padding-bottom: 2rem;\">\n  <div class=\"paragraph\">It is preventing children from being forced into that desperate mode of existence,</div>\n  <div class=\"paragraph\">PREVENTION.</div>\n</div>\n<div class=\"section avoid-break-inside\" style=\"padding-bottom: 2rem;\">\n  <div class=\"paragraph\">Prevention is a simple thing, Free Home, Free Food, Free Money,</div>\n  <div class=\"paragraph\">and Free Tutors, a Real Education.</div>\n</div>\n<div class=\"section avoid-break-inside\" style=\"padding-bottom: 2rem;\">\n  <div class=\"paragraph\">It will take a psychologist to identify those who need help,</div>\n  <div class=\"paragraph\">it is as simple as that.</div>\n</div>\n<div class=\"section avoid-break-inside\" style=\"padding-bottom: 2rem;\">\n  <div class=\"paragraph\">No suffering,</div>\n  <div class=\"paragraph\">no harm.</div>\n</div>\n<div class=\"section avoid-break-inside\" style=\"padding-bottom: 2rem;\">\n  <div class=\"paragraph\">And for those of you who are crazy enough to ask who will pay for this,</div>\n  <div class=\"paragraph\">let us call the institution a Bank of Love, right at the Heart of a Country.</div>\n</div>\n<div class=\"section avoid-break-inside\" style=\"padding-bottom: 2rem;\">\n  <div class=\"paragraph\">They print only as much money as people need to be taken care of,</div>\n  <div class=\"paragraph\">and they pride themselves in the amount of debt that nobody will come to collect.</div>\n</div>\n<div class=\"section avoid-break-inside\" style=\"padding-bottom: 2rem;\">\n  <div class=\"paragraph\">Prevention, is really about education,</div>\n  <div class=\"paragraph\">because an educated person can make a lot more than any government can grant them.</div>\n</div>\n<div class=\"section avoid-break-inside\" style=\"padding-bottom: 2rem;\">\n  <div class=\"paragraph\">Social Programs, Real Welfare, or Universal Basic Income,</div>\n  <div class=\"paragraph\">will grant a person a Home, a Car, Food, and all the necessities, but they can't pay for extras.</div>\n</div>\n<div class=\"section avoid-break-inside\" style=\"padding-bottom: 2rem;\">\n  <div class=\"paragraph\">They'll pay for an education leading up to a Captains License,</div>\n  <div class=\"paragraph\">but not the boat.</div>\n</div>\n<div class=\"section avoid-break-inside\" style=\"padding-bottom: 2rem;\">\n  <div class=\"paragraph\">Prevention will go a long way to bring the number of prisoners down,</div>\n  <div class=\"paragraph\">these desperate beings are part of our family, it is all of us or none.</div>\n</div>\n<div class=\"section avoid-break-inside\" style=\"padding-bottom: 2rem;\">\n  <div class=\"paragraph\">We are a young civilization,</div>\n  <div class=\"paragraph\">we don't have governments that can handle Universal Basic Income.</div>\n</div>\n<div class=\"section avoid-break-inside\" style=\"padding-bottom: 2rem;\">\n  <div class=\"paragraph\">We have governments,</div>\n  <div class=\"paragraph\">that can barely handle themselves.</div>\n</div>\n<div class=\"section avoid-break-inside\" style=\"padding-bottom: 2rem;\">\n  <div class=\"paragraph\">We can cross this bridge, the bridge where we eliminate poverty, and homelessness, and immense fear and suffering,</div>\n  <div class=\"paragraph\">suffering that draws those who have the courage to keep fighting into addiction so that they don't burst out of pain.</div>\n</div>\n<div class=\"section avoid-break-inside\" style=\"padding-bottom: 2rem;\">\n  <div class=\"paragraph\">To get there, to begin growing up as a civilization,</div>\n  <div class=\"paragraph\">those of us who can handle it must take to Books and Audio Books and reach Wisdom.</div>\n</div>\n<div class=\"section avoid-break-inside\" style=\"padding-bottom: 2rem;\">\n  <div class=\"paragraph\">Only in your Wisdom can the world begin growing,</div>\n  <div class=\"paragraph\">beyond the noisy mess that desperate, blind and tone deaf career politicians created.</div>\n</div>\n<div class=\"section avoid-break-inside\" style=\"padding-bottom: 2rem;\">\n  <div class=\"paragraph\">The youngest of you are going to inherit all these problems,</div>\n  <div class=\"paragraph\">but you will also know that all of these problems are happening due to lack of wisdom.</div>\n</div>\n<div class=\"section avoid-break-inside\" style=\"padding-bottom: 2rem;\">\n  <div class=\"paragraph\">Treat the cause,</div>\n  <div class=\"paragraph\">and the symptoms will subside.</div>\n</div>\n<div class=\"section avoid-break-inside\" style=\"padding-bottom: 2rem;\">\n  <div class=\"paragraph\">Only in wisdom,</div>\n  <div class=\"paragraph\">can our civilization advance forward.</div>\n</div>\n<div class=\"section avoid-break-inside\" style=\"padding-bottom: 2rem;\">\n  <div class=\"paragraph\">Personal Note,</div>\n</div>\n<div class=\"section avoid-break-inside\" style=\"padding-bottom: 2rem;\">\n  <div class=\"paragraph\">Those of you who are just learning about the world,</div>\n  <div class=\"paragraph\">know that it is confusing because hardly anything works right.</div>\n</div>\n<div class=\"section avoid-break-inside\" style=\"padding-bottom: 2rem;\">\n  <div class=\"paragraph\">Be it a be it a Judge, or General, and most shockingly a Jury,</div>\n  <div class=\"paragraph\">they are missing lessons that help them see the world as a Work in Progress.</div>\n</div>\n<div class=\"section avoid-break-inside\" style=\"padding-bottom: 2rem;\">\n  <div class=\"paragraph\">We are still building the foundation,</div>\n  <div class=\"paragraph\">and we are getting too much interference from our leadership.</div>\n</div>\n<div class=\"section avoid-break-inside\" style=\"padding-bottom: 2rem;\">\n  <div class=\"paragraph\">Look no further than the complete loss of privacy,</div>\n  <div class=\"paragraph\">this is a function of uneducation and desperation, and blindness.</div>\n</div>\n<div class=\"section avoid-break-inside\" style=\"padding-bottom: 2rem;\">\n  <div class=\"paragraph\">Enhanced interrogation, is even a more terrifying example,</div>\n  <div class=\"paragraph\">the world has no faith in nations that practice torture.</div>\n</div>\n<div class=\"section avoid-break-inside\" style=\"padding-bottom: 2rem;\">\n  <div class=\"paragraph\">The 13th Amendment to Constitution of United States did not end Slavery in Full</div>\n  <div class=\"paragraph\">it reads \"Neither slavery nor involuntary servitude, except as a punishment for crime whereof the party shall have been duly convicted, shall exist within the United States\".</div>\n</div>\n<div class=\"section avoid-break-inside\" style=\"padding-bottom: 2rem;\">\n  <div class=\"paragraph\">You have a lot of work on your hands,</div>\n  <div class=\"paragraph\">and you will have a lot of friends working just as hard as you, and all over the world.</div>\n</div>\n<div class=\"section avoid-break-inside\" style=\"padding-bottom: 2rem;\">\n  <div class=\"paragraph\">While you are still young, take to Adventure Audio Books,</div>\n  <div class=\"paragraph\">read them all, and especially pay attention to the part where the adventurer reveals the reason for this quest.</div>\n</div>\n<div class=\"section avoid-break-inside\" style=\"padding-bottom: 2rem;\">\n  <div class=\"paragraph\">In less than a Hundred Audio Books that call to you,</div>\n  <div class=\"paragraph\">you will begin becoming wise onward to becoming a great being.</div>\n</div>\n<div class=\"section avoid-break-inside\" style=\"padding-bottom: 2rem;\">\n  <div class=\"paragraph\">It is in it self a great adventure,</div>\n  <div class=\"paragraph\">and if I may, a Memoir is best written as your life unfolds, it is never too early to start writing.</div>\n</div>",
  "text": "Wisdom has many names and can be viewed in many different ways,\nmost popular perspective is that [non-academic] Philosophy leads to wisdom.\nOne particularly beautiful view,\nhints on wisdom with the words Content of Character.\nThe most mechanically sound description is,\nunderstanding new things by subtle analogy to what we already know.\nThe most concerning view states that,\nwithout wisdom we will be making mistakes.\nI think most reasonable view; is all of the above,\nplus knowledge gained from Adventure, Philosophy, and Science Books and Audio Books.\nWhat is it for?\nWhy, it is our Operating System.\nPART II, Thought Experiment\nAllow me to share with you a thought experiment,\na way of seeing things that aid in your view of the world.\nWithout wisdom, we form tribes and elect leaders, shamans, or popes,\nand hire muscle, creatures of violence.\nBecause that is the same thing the other tribe is doing,\nand the weaker one will be destroyed with great horror.\nThese tribal bare bone behavior did not end in middle ages,\nas one would hope.\nThis behavior is the default human behavior for the frightened and uneducated,\nthe desperate, the angry, even the sick.\nWe may not understand why criminals do the things they do,\nbut we can imagine one of our family members, who one by one loses everything.\nAnd on the last day, when all he has left,\nis an ounce of sanity, and a beating hart, he will fight, steal, and hate just to live another day.\nAnd for those who can't imagine why one would like to live another day when it is all pain,\nto persevere memories, to keep the fallen alive.\nAnd here we meet a Man of Honor,\na Judge, along with a jury, and wealthy lawyers in fantastic shoes.\nAnd all they see is a mad man,\na criminal, a man who needs to be put in a cage.\nThe Judge is wrong,\nwhen it comes to putting people in cages, all judges are wrong.\nTo restore this man, he needs a home, and books, and friends,\nand an education, and hope, and reams, and free money, and free food.\nHe needs to be treated with love and dignity,\nand granted an opportunity to persevere his memories in a book.\nThere are no criminals,\nthey are just broken children.\nThe ugliness of the worst of them is just an act,\nthey just want to be left alone.\nAnd I suppose that evil men do exist,\nbut I don't think there is enough of them in the world to fill a single prison.\nThe 10,000,000 people we keep in cages,\nare just children with severe developmental issues.\nThere are no political systems advanced enough to treat these beings,\ntheir only hope is the Public Defender.\nThe Public Defenders will fight to keep the broken people out of prison,\nbecause they know prison will only make them worse.\nIf you ever wanted to see a real Angel,\nask a Judge to let you sit in on a court case, look that tired being in the eyes.\nWe are Human Beings,\nwe are not animals to be kept in cages.\nI have met snarling beasts,\nand I saw their red faces and bulging eyes, and they were just broken kids.\nAt first I wanted my older self to come and help me,\nbut later I just started calling them My Bullies, they never had a chance at a good life.\nAnd here we find a sliver of sanity,\nbecause there is something that can be done to control crime.\nIt is preventing children from being forced into that desperate mode of existence,\nPREVENTION.\nPrevention is a simple thing, Free Home, Free Food, Free Money,\nand Free Tutors, a Real Education.\nIt will take a psychologist to identify those who need help,\nit is as simple as that.\nNo suffering,\nno harm.\nAnd for those of you who are crazy enough to ask who will pay for this,\nlet us call the institution a Bank of Love, right at the Heart of a Country.\nThey print only as much money as people need to be taken care of,\nand they pride themselves in the amount of debt that nobody will come to collect.\nPrevention, is really about education,\nbecause an educated person can make a lot more than any government can grant them.\nSocial Programs, Real Welfare, or Universal Basic Income,\nwill grant a person a Home, a Car, Food, and all the necessities, but they can't pay for extras.\nThey'll pay for an education leading up to a Captains License,\nbut not the boat.\nPrevention will go a long way to bring the number of prisoners down,\nthese desperate beings are part of our family, it is all of us or none.\nWe are a young civilization,\nwe don't have governments that can handle Universal Basic Income.\nWe have governments,\nthat can barely handle themselves.\nWe can cross this bridge, the bridge where we eliminate poverty, and homelessness, and immense fear and suffering,\nsuffering that draws those who have the courage to keep fighting into addiction so that they don't burst out of pain.\nTo get there, to begin growing up as a civilization,\nthose of us who can handle it must take to Books and Audio Books and reach Wisdom.\nOnly in your Wisdom can the world begin growing,\nbeyond the noisy mess that desperate, blind and tone deaf career politicians created.\nThe youngest of you are going to inherit all these problems,\nbut you will also know that all of these problems are happening due to lack of wisdom.\nTreat the cause,\nand the symptoms will subside.\nOnly in wisdom,\ncan our civilization advance forward.\nPersonal Note,\nThose of you who are just learning about the world,\nknow that it is confusing because hardly anything works right.\nBe it a be it a Judge, or General, and most shockingly a Jury,\nthey are missing lessons that help them see the world as a Work in Progress.\nWe are still building the foundation,\nand we are getting too much interference from our leadership.\nLook no further than the complete loss of privacy,\nthis is a function of uneducation and desperation, and blindness.\nEnhanced interrogation, is even a more terrifying example,\nthe world has no faith in nations that practice torture.\nThe 13th Amendment to Constitution of United States did not end Slavery in Full\nit reads \"Neither slavery nor involuntary servitude, except as a punishment for crime whereof the party shall have been duly convicted, shall exist within the United States\".\nYou have a lot of work on your hands,\nand you will have a lot of friends working just as hard as you, and all over the world.\nWhile you are still young, take to Adventure Audio Books,\nread them all, and especially pay attention to the part where the adventurer reveals the reason for this quest.\nIn less than a Hundred Audio Books that call to you,\nyou will begin becoming wise onward to becoming a great being.\nIt is in it self a great adventure,\nand if I may, a Memoir is best written as your life unfolds, it is never too early to start writing.",
  "images": [],
  "links": []
}