{
  "id": "furkies-purrkies-poetry-0555",
  "title": "Programming Challenge: declaration.json",
  "date": "2021-09-06T18:37:40.464Z",
  "image": "poetry-0555-illustration.jpg",
  "artwork": "https://unsplash.com/photos/i_xNmRRy0kk",
  "audio": "poetry-0555.mp3",
  "guid": "9ae5da53-5ffe-40dc-aa12-c3f2eb0afaab"
}
