{
  "id": "furkies-purrkies-poetry-0911",
  "title": "The First Master Of Art",
  "date": "2022-08-28T22:19:16.998Z",
  "image": "poetry-0911-illustration.jpg",
  "artwork": "https://catpea.com",
  "audio": "poetry-0911.mp3",
  "guid": "05116f36-07fe-465b-a93b-219baea39215"
}
