{
  "title": "United In Wisdom",
  "date": "2020-11-04T01:32:46.725Z",
  "image": "poetry-0248-illustration.jpg",
  "audio": "poetry-0248.mp3",
  "artwork": "https://unsplash.com/photos/NhU0nUR7920",
  "id": "furkies-purrkies-poetry-0248",
  "attachments": {},
  "guid": "76e6aa73-26e9-4806-84d9-0904de1f28e9"
}
