{
  "name": "furkies-purrkies-poetry-0649",
  "id": "furkies-purrkies-poetry-0649",
  "title": "No Adventure Too Silly",
  "date": "2021-12-10T00:58:50.943Z",
  "image": "poetry-0649-illustration.jpg",
  "artwork": "https://unsplash.com/photos/7mXNSmfMfo4",
  "audio": "poetry-0649.mp3",
  "guid": "e923efc6-78d1-4b6f-80c6-6d6705a6b899",
  "html": "<div class=\"section\">\n  <p>All adventures big or small are real treasures,<br>and there is no such thing as a silly adventure.</p>\n  <p>Plus, we really have to hang on to our talents,<br>and practice from time to time to stay sharp.</p>\n  <p>This makes us really beautiful,<br>as we circle around our little marvels and inventions.</p>\n</div>\n<div class=\"section\">\n  <hr>\n</div>\n<div class=\"section\">\n  <p>The things that call to us in childhood,<br>tend to make a life long impression on us.</p>\n  <p>If we like going on nature walks when five,<br>we probably appreciate camping at seventy five.</p>\n  <p>There is no explanation for it,<br>it is just a little star in our constellation that never gets tired.</p>\n</div>\n<div class=\"section\">\n  <hr>\n</div>\n<div class=\"section\">\n  <p>As teenagers,<br>we almost hold a perfect map of where to go in life.</p>\n  <p>That map is so good, that if we get lost,<br>all we need to do is dream back in time to get back on track.</p>\n</div>\n<div class=\"section\">\n  <hr>\n</div>\n<div class=\"section\">\n  <p>When I came to America all the TV shows seemed to talk about,<br>getting in touch with the inner child.</p>\n  <p>This only sounds weird, by remembering where we wanted to go,<br>we can use our adult wisdom to get there.</p>\n</div>\n<div class=\"section\">\n  <hr>\n</div>\n<div class=\"section\">\n  <p>Having said that, I actually listened to the TV,<br>and tried to get in touch with my inner child as a teenager.</p>\n  <p>From a broader perspective I was still a child,<br>and the experiment did not go so good.</p>\n  <p>Instead I gout in touch with my inner animal,<br>and it turned out it is a house cat.</p>\n  <p>Even now I keep telling myself,<br>maybe it means I am a lion.</p>\n  <p>Who can tell,<br>I know I can't.</p>\n</div>\n<div class=\"section\">\n  <hr>\n</div>\n<div class=\"section\">\n  <p>I went to college,<br>as part of my great adventure in art.</p>\n  <p>I was having a lot of fun,<br>I ended up spending entire evenings painting at the College.</p>\n  <p>I didn't care about rules,<br>I knew that my study of art won't agree with anybody - but none said anything.</p>\n  <p>Once I finished painting my Mona Lisa copies,<br>I could see that it was not a good painting to copy.</p>\n  <p>I guess that times have changed,<br>maybe Mona Lisa used to take the breath away.</p>\n  <p>But in modern times, faces have more detail,<br>expressions are deeper and more profound.</p>\n  <p>We speak with light and not just the shadow,<br>and paintings aren't limited to emotion, they can show attitude, philosophy, dignity.</p>\n  <p>A nice research corner for modern art,<br>can be found with <a href=\"https://cgsociety.org/\">3D artists, as they seem to be the leaders of today's art</a>.</p>\n  <p>The only real lessons I found in college,<br>are the ones I took time to create.</p>\n</div>\n<div class=\"section\">\n  <hr>\n</div>\n<div class=\"section\">\n  <p>When college becomes too useless to learn from for lack of coherent lectures,<br>then we have to become the teachers, to ourselves, to others, whatever.</p>\n</div>\n<div class=\"section\">\n  <hr>\n</div>\n<div class=\"section\">\n  <p>The adventures that we create for ourselves,<br>always come with a solid dose of silliness.</p>\n  <p>What I learned of silliness is that joy and inspiration by any other name,<br>is still joy and inspiration.</p>\n  <p>And joy and inspiration is exactly what we give up,<br>when we forget to protect our adventures.</p>\n</div>\n<div class=\"section\">\n  <hr>\n</div>\n<div class=\"section\">\n  <p>Neither is art just about drawing,<br>nor everything else is just about the thing.</p>\n  <p>A brush or pencil,<br>is also a reminder to visit to countless museums.</p>\n  <p>Likewise so is actual camping,<br>much greater than it seems.</p>\n  <p>There is an inner self that we can lose touch with,<br>and this happens when we start following, instead of leading.</p>\n  <p>No matter how overworked, mislead, off path we end up,<br>the constellation of stars within us will wait for us to awaken.</p>\n  <p><a href=\"https://www.youtube.com/watch?v=hPSvdKTEZug\">Camping can become extremely powerful medicine</a>,<br>and long before the long trails we can pack a backpack and keep it by the door.</p>\n  <p>It is all to easy to become overworked or lost,<br>the trails restore our health.</p>\n  <p>They will remind us to always lead, and always follow a step with the next one,<br>and to slow down so that we can feel the Sunrise and Sunsets.</p>\n  <p>So that we make time for our thoughts and ideas,<br>which in turn will bring many a dream, and many of those are sure to come true.</p>\n</div>\n<div class=\"section\">\n  <hr>\n</div>\n<div class=\"section\">\n  <p>We cannot ever become lost in out joys, curiosities, dreams and adventures,<br>they can only add to make us stronger, and wiser.</p>\n  <p>In truth,<br>no silly thing is a silly it seems, no matter what anybody says.</p>\n  <p>Never let anybody steer you away from your path,<br>because then you will have to start searching for yourself.</p>\n  <p>And take good care of your talents, dreams, and adventures,<br>as they are part of who you are.</p>\n</div>",
  "bootstrap": "<div class=\"card card-section bg-dark text-warning shadow\">\n  <div class=\"section card-body mb-0 my-2\">\n    <div class=\"paragraph card-text card-stanza my-5 text-center\">All adventures big or small are real treasures,<br>and there is no such thing as a silly adventure.</div>\n    <div class=\"paragraph card-text card-stanza my-5 text-center\">Plus, we really have to hang on to our talents,<br>and practice from time to time to stay sharp.</div>\n    <div class=\"paragraph card-text card-stanza my-5 text-center\">This makes us really beautiful,<br>as we circle around our little marvels and inventions.</div>\n  </div>\n</div>\n<div class=\"mb-5 section-spacer\">&nbsp;</div>\n<div class=\"card card-section bg-dark text-warning shadow\">\n  <div class=\"section card-body mb-0 my-2\">\n    <div class=\"paragraph card-text card-stanza my-5 text-center\">The things that call to us in childhood,<br>tend to make a life long impression on us.</div>\n    <div class=\"paragraph card-text card-stanza my-5 text-center\">If we like going on nature walks when five,<br>we probably appreciate camping at seventy five.</div>\n    <div class=\"paragraph card-text card-stanza my-5 text-center\">There is no explanation for it,<br>it is just a little star in our constellation that never gets tired.</div>\n  </div>\n</div>\n<div class=\"mb-5 section-spacer\">&nbsp;</div>\n<div class=\"card card-section bg-dark text-warning shadow\">\n  <div class=\"section card-body mb-0 my-2\">\n    <div class=\"paragraph card-text card-stanza my-5 text-center\">As teenagers,<br>we almost hold a perfect map of where to go in life.</div>\n    <div class=\"paragraph card-text card-stanza my-5 text-center\">That map is so good, that if we get lost,<br>all we need to do is dream back in time to get back on track.</div>\n  </div>\n</div>\n<div class=\"mb-5 section-spacer\">&nbsp;</div>\n<div class=\"card card-section bg-dark text-warning shadow\">\n  <div class=\"section card-body mb-0 my-2\">\n    <div class=\"paragraph card-text card-stanza my-5 text-center\">When I came to America all the TV shows seemed to talk about,<br>getting in touch with the inner child.</div>\n    <div class=\"paragraph card-text card-stanza my-5 text-center\">This only sounds weird, by remembering where we wanted to go,<br>we can use our adult wisdom to get there.</div>\n  </div>\n</div>\n<div class=\"mb-5 section-spacer\">&nbsp;</div>\n<div class=\"card card-section bg-dark text-warning shadow\">\n  <div class=\"section card-body mb-0 my-2\">\n    <div class=\"paragraph card-text card-stanza my-5 text-center\">Having said that, I actually listened to the TV,<br>and tried to get in touch with my inner child as a teenager.</div>\n    <div class=\"paragraph card-text card-stanza my-5 text-center\">From a broader perspective I was still a child,<br>and the experiment did not go so good.</div>\n    <div class=\"paragraph card-text card-stanza my-5 text-center\">Instead I gout in touch with my inner animal,<br>and it turned out it is a house cat.</div>\n    <div class=\"paragraph card-text card-stanza my-5 text-center\">Even now I keep telling myself,<br>maybe it means I am a lion.</div>\n    <div class=\"paragraph card-text card-stanza my-5 text-center\">Who can tell,<br>I know I can't.</div>\n  </div>\n</div>\n<div class=\"mb-5 section-spacer\">&nbsp;</div>\n<div class=\"card card-section bg-dark text-warning shadow\">\n  <div class=\"section card-body mb-0 my-2\">\n    <div class=\"paragraph card-text card-stanza my-5 text-center\">I went to college,<br>as part of my great adventure in art.</div>\n    <div class=\"paragraph card-text card-stanza my-5 text-center\">I was having a lot of fun,<br>I ended up spending entire evenings painting at the College.</div>\n    <div class=\"paragraph card-text card-stanza my-5 text-center\">I didn't care about rules,<br>I knew that my study of art won't agree with anybody - but none said anything.</div>\n    <div class=\"paragraph card-text card-stanza my-5 text-center\">Once I finished painting my Mona Lisa copies,<br>I could see that it was not a good painting to copy.</div>\n    <div class=\"paragraph card-text card-stanza my-5 text-center\">I guess that times have changed,<br>maybe Mona Lisa used to take the breath away.</div>\n    <div class=\"paragraph card-text card-stanza my-5 text-center\">But in modern times, faces have more detail,<br>expressions are deeper and more profound.</div>\n    <div class=\"paragraph card-text card-stanza my-5 text-center\">We speak with light and not just the shadow,<br>and paintings aren't limited to emotion, they can show attitude, philosophy, dignity.</div>\n    <div class=\"paragraph card-text card-stanza my-5 text-center\">A nice research corner for modern art,<br>can be found with <a href=\"https://cgsociety.org/\">3D artists, as they seem to be the leaders of today's art</a>.</div>\n    <div class=\"paragraph card-text card-stanza my-5 text-center\">The only real lessons I found in college,<br>are the ones I took time to create.</div>\n  </div>\n</div>\n<div class=\"mb-5 section-spacer\">&nbsp;</div>\n<div class=\"card card-section bg-dark text-warning shadow\">\n  <div class=\"section card-body mb-0 my-2\">\n    <div class=\"paragraph card-text card-stanza my-5 text-center\">When college becomes too useless to learn from for lack of coherent lectures,<br>then we have to become the teachers, to ourselves, to others, whatever.</div>\n  </div>\n</div>\n<div class=\"mb-5 section-spacer\">&nbsp;</div>\n<div class=\"card card-section bg-dark text-warning shadow\">\n  <div class=\"section card-body mb-0 my-2\">\n    <div class=\"paragraph card-text card-stanza my-5 text-center\">The adventures that we create for ourselves,<br>always come with a solid dose of silliness.</div>\n    <div class=\"paragraph card-text card-stanza my-5 text-center\">What I learned of silliness is that joy and inspiration by any other name,<br>is still joy and inspiration.</div>\n    <div class=\"paragraph card-text card-stanza my-5 text-center\">And joy and inspiration is exactly what we give up,<br>when we forget to protect our adventures.</div>\n  </div>\n</div>\n<div class=\"mb-5 section-spacer\">&nbsp;</div>\n<div class=\"card card-section bg-dark text-warning shadow\">\n  <div class=\"section card-body mb-0 my-2\">\n    <div class=\"paragraph card-text card-stanza my-5 text-center\">Neither is art just about drawing,<br>nor everything else is just about the thing.</div>\n    <div class=\"paragraph card-text card-stanza my-5 text-center\">A brush or pencil,<br>is also a reminder to visit to countless museums.</div>\n    <div class=\"paragraph card-text card-stanza my-5 text-center\">Likewise so is actual camping,<br>much greater than it seems.</div>\n    <div class=\"paragraph card-text card-stanza my-5 text-center\">There is an inner self that we can lose touch with,<br>and this happens when we start following, instead of leading.</div>\n    <div class=\"paragraph card-text card-stanza my-5 text-center\">No matter how overworked, mislead, off path we end up,<br>the constellation of stars within us will wait for us to awaken.</div>\n    <div class=\"paragraph card-text card-stanza my-5 text-center\"><a href=\"https://www.youtube.com/watch?v=hPSvdKTEZug\">Camping can become extremely powerful medicine</a>,<br>and long before the long trails we can pack a backpack and keep it by the door.</div>\n    <div class=\"paragraph card-text card-stanza my-5 text-center\">It is all to easy to become overworked or lost,<br>the trails restore our health.</div>\n    <div class=\"paragraph card-text card-stanza my-5 text-center\">They will remind us to always lead, and always follow a step with the next one,<br>and to slow down so that we can feel the Sunrise and Sunsets.</div>\n    <div class=\"paragraph card-text card-stanza my-5 text-center\">So that we make time for our thoughts and ideas,<br>which in turn will bring many a dream, and many of those are sure to come true.</div>\n  </div>\n</div>\n<div class=\"mb-5 section-spacer\">&nbsp;</div>\n<div class=\"card card-section bg-dark text-warning shadow\">\n  <div class=\"section card-body mb-0 my-2\">\n    <div class=\"paragraph card-text card-stanza my-5 text-center\">We cannot ever become lost in out joys, curiosities, dreams and adventures,<br>they can only add to make us stronger, and wiser.</div>\n    <div class=\"paragraph card-text card-stanza my-5 text-center\">In truth,<br>no silly thing is a silly it seems, no matter what anybody says.</div>\n    <div class=\"paragraph card-text card-stanza my-5 text-center\">Never let anybody steer you away from your path,<br>because then you will have to start searching for yourself.</div>\n    <div class=\"paragraph card-text card-stanza my-5 text-center\">And take good care of your talents, dreams, and adventures,<br>as they are part of who you are.</div>\n  </div>\n</div>",
  "print": "<div class=\"section avoid-break-inside\" style=\"padding-bottom: 2rem;\">\n  <div class=\"paragraph\">All adventures big or small are real treasures,<br>and there is no such thing as a silly adventure.</div>\n  <div class=\"paragraph\">Plus, we really have to hang on to our talents,<br>and practice from time to time to stay sharp.</div>\n  <div class=\"paragraph\">This makes us really beautiful,<br>as we circle around our little marvels and inventions.</div>\n</div>\n<div class=\"section avoid-break-inside\" style=\"padding-bottom: 2rem;\">\n  <br>\n</div>\n<div class=\"section avoid-break-inside\" style=\"padding-bottom: 2rem;\">\n  <div class=\"paragraph\">The things that call to us in childhood,<br>tend to make a life long impression on us.</div>\n  <div class=\"paragraph\">If we like going on nature walks when five,<br>we probably appreciate camping at seventy five.</div>\n  <div class=\"paragraph\">There is no explanation for it,<br>it is just a little star in our constellation that never gets tired.</div>\n</div>\n<div class=\"section avoid-break-inside\" style=\"padding-bottom: 2rem;\">\n  <br>\n</div>\n<div class=\"section avoid-break-inside\" style=\"padding-bottom: 2rem;\">\n  <div class=\"paragraph\">As teenagers,<br>we almost hold a perfect map of where to go in life.</div>\n  <div class=\"paragraph\">That map is so good, that if we get lost,<br>all we need to do is dream back in time to get back on track.</div>\n</div>\n<div class=\"section avoid-break-inside\" style=\"padding-bottom: 2rem;\">\n  <br>\n</div>\n<div class=\"section avoid-break-inside\" style=\"padding-bottom: 2rem;\">\n  <div class=\"paragraph\">When I came to America all the TV shows seemed to talk about,<br>getting in touch with the inner child.</div>\n  <div class=\"paragraph\">This only sounds weird, by remembering where we wanted to go,<br>we can use our adult wisdom to get there.</div>\n</div>\n<div class=\"section avoid-break-inside\" style=\"padding-bottom: 2rem;\">\n  <br>\n</div>\n<div class=\"section avoid-break-inside\" style=\"padding-bottom: 2rem;\">\n  <div class=\"paragraph\">Having said that, I actually listened to the TV,<br>and tried to get in touch with my inner child as a teenager.</div>\n  <div class=\"paragraph\">From a broader perspective I was still a child,<br>and the experiment did not go so good.</div>\n  <div class=\"paragraph\">Instead I gout in touch with my inner animal,<br>and it turned out it is a house cat.</div>\n  <div class=\"paragraph\">Even now I keep telling myself,<br>maybe it means I am a lion.</div>\n  <div class=\"paragraph\">Who can tell,<br>I know I can't.</div>\n</div>\n<div class=\"section avoid-break-inside\" style=\"padding-bottom: 2rem;\">\n  <br>\n</div>\n<div class=\"section avoid-break-inside\" style=\"padding-bottom: 2rem;\">\n  <div class=\"paragraph\">I went to college,<br>as part of my great adventure in art.</div>\n  <div class=\"paragraph\">I was having a lot of fun,<br>I ended up spending entire evenings painting at the College.</div>\n  <div class=\"paragraph\">I didn't care about rules,<br>I knew that my study of art won't agree with anybody - but none said anything.</div>\n  <div class=\"paragraph\">Once I finished painting my Mona Lisa copies,<br>I could see that it was not a good painting to copy.</div>\n  <div class=\"paragraph\">I guess that times have changed,<br>maybe Mona Lisa used to take the breath away.</div>\n  <div class=\"paragraph\">But in modern times, faces have more detail,<br>expressions are deeper and more profound.</div>\n  <div class=\"paragraph\">We speak with light and not just the shadow,<br>and paintings aren't limited to emotion, they can show attitude, philosophy, dignity.</div>\n  <div class=\"paragraph\">A nice research corner for modern art,<br>can be found with <span>3D artists, as they seem to be the leaders of today's art<sup>[1]</sup></span>.</div>\n  <div class=\"paragraph\">The only real lessons I found in college,<br>are the ones I took time to create.</div>\n</div>\n<div class=\"section avoid-break-inside\" style=\"padding-bottom: 2rem;\">\n  <br>\n</div>\n<div class=\"section avoid-break-inside\" style=\"padding-bottom: 2rem;\">\n  <div class=\"paragraph\">When college becomes too useless to learn from for lack of coherent lectures,<br>then we have to become the teachers, to ourselves, to others, whatever.</div>\n</div>\n<div class=\"section avoid-break-inside\" style=\"padding-bottom: 2rem;\">\n  <br>\n</div>\n<div class=\"section avoid-break-inside\" style=\"padding-bottom: 2rem;\">\n  <div class=\"paragraph\">The adventures that we create for ourselves,<br>always come with a solid dose of silliness.</div>\n  <div class=\"paragraph\">What I learned of silliness is that joy and inspiration by any other name,<br>is still joy and inspiration.</div>\n  <div class=\"paragraph\">And joy and inspiration is exactly what we give up,<br>when we forget to protect our adventures.</div>\n</div>\n<div class=\"section avoid-break-inside\" style=\"padding-bottom: 2rem;\">\n  <br>\n</div>\n<div class=\"section avoid-break-inside\" style=\"padding-bottom: 2rem;\">\n  <div class=\"paragraph\">Neither is art just about drawing,<br>nor everything else is just about the thing.</div>\n  <div class=\"paragraph\">A brush or pencil,<br>is also a reminder to visit to countless museums.</div>\n  <div class=\"paragraph\">Likewise so is actual camping,<br>much greater than it seems.</div>\n  <div class=\"paragraph\">There is an inner self that we can lose touch with,<br>and this happens when we start following, instead of leading.</div>\n  <div class=\"paragraph\">No matter how overworked, mislead, off path we end up,<br>the constellation of stars within us will wait for us to awaken.</div>\n  <div class=\"paragraph\"><span>Camping can become extremely powerful medicine<sup>[2]</sup></span>,<br>and long before the long trails we can pack a backpack and keep it by the door.</div>\n  <div class=\"paragraph\">It is all to easy to become overworked or lost,<br>the trails restore our health.</div>\n  <div class=\"paragraph\">They will remind us to always lead, and always follow a step with the next one,<br>and to slow down so that we can feel the Sunrise and Sunsets.</div>\n  <div class=\"paragraph\">So that we make time for our thoughts and ideas,<br>which in turn will bring many a dream, and many of those are sure to come true.</div>\n</div>\n<div class=\"section avoid-break-inside\" style=\"padding-bottom: 2rem;\">\n  <br>\n</div>\n<div class=\"section avoid-break-inside\" style=\"padding-bottom: 2rem;\">\n  <div class=\"paragraph\">We cannot ever become lost in out joys, curiosities, dreams and adventures,<br>they can only add to make us stronger, and wiser.</div>\n  <div class=\"paragraph\">In truth,<br>no silly thing is a silly it seems, no matter what anybody says.</div>\n  <div class=\"paragraph\">Never let anybody steer you away from your path,<br>because then you will have to start searching for yourself.</div>\n  <div class=\"paragraph\">And take good care of your talents, dreams, and adventures,<br>as they are part of who you are.</div>\n</div>\n<div class=\"break-after\">&nbsp;</div>\n<div>\n  <div class=\"section\" style=\"padding-bottom: 1rem;\">References</div>\n  <div>[1]: https://cgsociety.org/</div>\n  <div>[2]: https://www.youtube.com/watch?v=hPSvdKTEZug</div>\n</div>",
  "text": "All adventures big or small are real treasures,\nand there is no such thing as a silly adventure.\nPlus, we really have to hang on to our talents,\nand practice from time to time to stay sharp.\nThis makes us really beautiful,\nas we circle around our little marvels and inventions.\n\nThe things that call to us in childhood,\ntend to make a life long impression on us.\nIf we like going on nature walks when five,\nwe probably appreciate camping at seventy five.\nThere is no explanation for it,\nit is just a little star in our constellation that never gets tired.\n\nAs teenagers,\nwe almost hold a perfect map of where to go in life.\nThat map is so good, that if we get lost,\nall we need to do is dream back in time to get back on track.\n\nWhen I came to America all the TV shows seemed to talk about,\ngetting in touch with the inner child.\nThis only sounds weird, by remembering where we wanted to go,\nwe can use our adult wisdom to get there.\n\nHaving said that, I actually listened to the TV,\nand tried to get in touch with my inner child as a teenager.\nFrom a broader perspective I was still a child,\nand the experiment did not go so good.\nInstead I gout in touch with my inner animal,\nand it turned out it is a house cat.\nEven now I keep telling myself,\nmaybe it means I am a lion.\nWho can tell,\nI know I can't.\n\nI went to college,\nas part of my great adventure in art.\nI was having a lot of fun,\nI ended up spending entire evenings painting at the College.\nI didn't care about rules,\nI knew that my study of art won't agree with anybody - but none said anything.\nOnce I finished painting my Mona Lisa copies,\nI could see that it was not a good painting to copy.\nI guess that times have changed,\nmaybe Mona Lisa used to take the breath away.\nBut in modern times, faces have more detail,\nexpressions are deeper and more profound.\nWe speak with light and not just the shadow,\nand paintings aren't limited to emotion, they can show attitude, philosophy, dignity.\nA nice research corner for modern art,\ncan be found with 3D artists, as they seem to be the leaders of today's art[1].\nThe only real lessons I found in college,\nare the ones I took time to create.\n\nWhen college becomes too useless to learn from for lack of coherent lectures,\nthen we have to become the teachers, to ourselves, to others, whatever.\n\nThe adventures that we create for ourselves,\nalways come with a solid dose of silliness.\nWhat I learned of silliness is that joy and inspiration by any other name,\nis still joy and inspiration.\nAnd joy and inspiration is exactly what we give up,\nwhen we forget to protect our adventures.\n\nNeither is art just about drawing,\nnor everything else is just about the thing.\nA brush or pencil,\nis also a reminder to visit to countless museums.\nLikewise so is actual camping,\nmuch greater than it seems.\nThere is an inner self that we can lose touch with,\nand this happens when we start following, instead of leading.\nNo matter how overworked, mislead, off path we end up,\nthe constellation of stars within us will wait for us to awaken.\nCamping can become extremely powerful medicine[2],\nand long before the long trails we can pack a backpack and keep it by the door.\nIt is all to easy to become overworked or lost,\nthe trails restore our health.\nThey will remind us to always lead, and always follow a step with the next one,\nand to slow down so that we can feel the Sunrise and Sunsets.\nSo that we make time for our thoughts and ideas,\nwhich in turn will bring many a dream, and many of those are sure to come true.\n\nWe cannot ever become lost in out joys, curiosities, dreams and adventures,\nthey can only add to make us stronger, and wiser.\nIn truth,\nno silly thing is a silly it seems, no matter what anybody says.\nNever let anybody steer you away from your path,\nbecause then you will have to start searching for yourself.\nAnd take good care of your talents, dreams, and adventures,\nas they are part of who you are.\n \nReferences\n[1]: https://cgsociety.org/\n[2]: https://www.youtube.com/watch?v=hPSvdKTEZug",
  "images": [],
  "links": [
    {
      "title": "3D artists, as they seem to be the leaders of today's art",
      "url": "https://cgsociety.org/",
      "hostname": "cgsociety.org"
    },
    {
      "title": "Camping can become extremely powerful medicine",
      "url": "https://www.youtube.com/watch?v=hPSvdKTEZug",
      "hostname": "www.youtube.com"
    }
  ]
}