{
  "id": "furkies-purrkies-poetry-0546",
  "title": "Students Must Not Face Broken And Corrupt Schools",
  "date": "2021-08-28T23:18:49.032Z",
  "image": "poetry-0546-illustration.jpg",
  "artwork": "https://unsplash.com/photos/1VqHRwxcCCw",
  "audio": "poetry-0546.mp3",
  "guid": "87fdf58a-45d0-4f1b-83ca-891fac2cb1e9"
}
