{
  "title": "Programming Tutorial: Connecting All The Program Pieces Together With An Event Emitter",
  "date": "2021-04-25T00:38:17.829Z",
  "image": "poetry-0420-illustration.jpg",
  "audio": "poetry-0420.mp3",
  "artwork": "https://unsplash.com/photos/BxEgi-70FQk",
  "id": "furkies-purrkies-poetry-0420",
  "attachments": {},
  "guid": "d547ad2f-3399-4218-a129-9709c2000e01"
}
