{
  "name": "furkies-purrkies-poetry-0836",
  "id": "furkies-purrkies-poetry-0836",
  "title": "On Designing Enchanted Rings",
  "date": "2022-06-14T22:12:19.606Z",
  "image": "poetry-0836-illustration.jpg",
  "artwork": "https://catpea.com",
  "artworks": [
    "https://unsplash.com/photos/Y_bxfTa_iUA",
    "https://en.wikipedia.org/wiki/File:Anneau_episcopal_cluny.JPG",
    "https://unsplash.com/photos/kuko1hX_kXw",
    "https://en.wikipedia.org/wiki/File:Ring_Ruby.jpg",
    "https://en.wikipedia.org/wiki/File:Cameo_ring_bm_2022.JPG",
    "https://en.wikipedia.org/wiki/File:Claddaghring.jpg",
    "https://en.wikipedia.org/wiki/File:Doktorsring_Uppsala_filfak.JPG",
    "https://en.wikipedia.org/wiki/File:European_-_Ring_with_Clasped_Right_Hands_-_Walters_571636.jpg",
    "https://en.wikipedia.org/wiki/File:Giardinetti_ring_british_museum2020.JPG",
    "https://en.wikipedia.org/wiki/File:Late_medieval_ring_thimble_(FindID_152522).jpg",
    "https://en.wikipedia.org/wiki/File:WLA_vanda_jade_thumb_ring.jpg"
  ],
  "audio": "poetry-0836.mp3",
  "guid": "c1463b72-1705-488e-940e-4120bba1bcfe",
  "html": "<div class=\"section\">\n  <p>An enchanted ring, is a ring that cannot be made by the human hand,<br>and the kind of a ring that comes with a silly or strange story.</p>\n  <p>It is about looking incredible,<br>and breaking all the design rules.</p>\n  <p>I recommend working with copper, brass, silver and gold,<br>and waiting a little bit before designing rings that hold stones.</p>\n</div>\n<div class=\"section\">\n  <hr>\n</div>\n<div class=\"section\">\n  <p>There is no right way to design such a creation,<br>using standard Blender tools may just be more reliable.</p>\n  <p>Once you get into Geometry Nodes,<br>it takes a while to figure out what not to do with them.</p>\n  <p>There is a way to invent a ring generator,<br>but it is probably better to focus on making rings.</p>\n</div>\n<div class=\"section\">\n  <hr>\n</div>\n<div class=\"section\">\n  <p>Ring is not just a closed loop,<br>some rings are open.</p>\n  <p>And the loop may not always be solid,<br>it can be, at least in part a rail that holds the stones.</p>\n  <p>You would need multiple generators of rings,<br>so this project could get pretty boring.</p>\n</div>\n<div class=\"section\">\n  <hr>\n</div>\n<div class=\"section\">\n  <p>Now having said that,<br>you really need to enable Extra Objects in Blender.</p>\n  <p>It us under Under Preferences Add-ons,<br>just search for extra.</p>\n  <p>Use a solidify modifier on flat or mathematical shapes,<br>to give them thickness.</p>\n</div>\n<div class=\"section\">\n  <hr>\n</div>\n<div class=\"section\">\n  <p>All the strange shapes you will find across 3D object generators and libraries,<br>Photogrammetry and ancient artifacts will make for excellent rings.</p>\n  <p>And you shouldn't worry is they seem difficult to wear,<br>an enchanted ring is about fantasy, showing off, and few will wear it daily.</p>\n  <p>If it wasn't copyrighted, or at least legally questionable,<br>I would recommend rebuilding the <a href=\"https://darksouls.wiki.fextralife.com/Rings\">Dark Souls Rings</a>.</p>\n  <p>Even so,<br>it is a good source of inspiration.</p>\n  <p>Elden Ring a new installment in the series does not appear to have rings,<br>but <a href=\"https://eldenring.wiki.fextralife.com/Talismans\">Elden Ring Talismans</a> are also very inspirational - good designs.</p>\n  <p>There is a <a href=\"https://en.wikipedia.org/wiki/The_Lesser_Key_of_Solomon#The_Seventy-Two_Demons\">textbook of magic that presents 72 demons</a>,<br>along with <a href=\"https://en.wikipedia.org/wiki/The_Lesser_Key_of_Solomon#/media/File:72_Goeta_sigils.png\">72 magical symbols</a>.</p>\n  <p>But I would encourage you to rebuild the symbols,<br>but they look pretty ugly, like circuit diagrams.</p>\n  <p>You will need to rebuild them,<br>just enough to make them recognizable.</p>\n  <p>Unlike Dark Souls and Elden Ring items,<br>the symbols were published in 1904.</p>\n</div>\n<div class=\"section\">\n  <hr>\n</div>\n<div class=\"section\">\n  <p>Searching “<a href=\"https://lite.qwant.com/?q=britishmuseum+ring&t=images\">britishmuseum ring</a>” in an image search engine,<br>yields another treasure trove of ideas.</p>\n  <p>And of course there is the <a href=\"https://www.popular.pics/reddit/subreddits/posts?r=artefactporn&sort=top&t=year\">random artefact collection</a>,<br>yields a collection of ideas that can be easily turned into a ring.</p>\n</div>\n<div class=\"section\">\n  <hr>\n</div>\n<div class=\"section\">\n  <p>It maybe extremely temping to get some basic tools and order a batch of copper rings,<br>that you customize and set with stones.</p>\n  <p>But at least try, solid metal first,<br>this way you can create a “print jewelry on demand online store”.</p>\n</div>\n<div class=\"section\">\n  <hr>\n</div>\n<div class=\"section\">\n  <p>You may wish to consider that large rings, copper or gold,<br>are not really solid, some seem folded out of a gold sheet which may save on material costs.</p>\n  <p>And of course, and this is perhaps one of the more interesting challenges,<br>an enchanted ring shouldn't really look brand new.</p>\n  <p>But I leave this challenge,<br>to you.</p>\n</div>",
  "bootstrap": "<div class=\"card card-section bg-dark text-warning shadow\">\n  <div class=\"section card-body mb-0 my-2\">\n    <div class=\"paragraph card-text card-stanza my-5 text-center\">An enchanted ring, is a ring that cannot be made by the human hand,<br>and the kind of a ring that comes with a silly or strange story.</div>\n    <div class=\"paragraph card-text card-stanza my-5 text-center\">It is about looking incredible,<br>and breaking all the design rules.</div>\n    <div class=\"paragraph card-text card-stanza my-5 text-center\">I recommend working with copper, brass, silver and gold,<br>and waiting a little bit before designing rings that hold stones.</div>\n  </div>\n</div>\n<div class=\"mb-5 section-spacer\">&nbsp;</div>\n<div class=\"card card-section bg-dark text-warning shadow\">\n  <div class=\"section card-body mb-0 my-2\">\n    <div class=\"paragraph card-text card-stanza my-5 text-center\">There is no right way to design such a creation,<br>using standard Blender tools may just be more reliable.</div>\n    <div class=\"paragraph card-text card-stanza my-5 text-center\">Once you get into Geometry Nodes,<br>it takes a while to figure out what not to do with them.</div>\n    <div class=\"paragraph card-text card-stanza my-5 text-center\">There is a way to invent a ring generator,<br>but it is probably better to focus on making rings.</div>\n  </div>\n</div>\n<div class=\"mb-5 section-spacer\">&nbsp;</div>\n<div class=\"card card-section bg-dark text-warning shadow\">\n  <div class=\"section card-body mb-0 my-2\">\n    <div class=\"paragraph card-text card-stanza my-5 text-center\">Ring is not just a closed loop,<br>some rings are open.</div>\n    <div class=\"paragraph card-text card-stanza my-5 text-center\">And the loop may not always be solid,<br>it can be, at least in part a rail that holds the stones.</div>\n    <div class=\"paragraph card-text card-stanza my-5 text-center\">You would need multiple generators of rings,<br>so this project could get pretty boring.</div>\n  </div>\n</div>\n<div class=\"mb-5 section-spacer\">&nbsp;</div>\n<div class=\"card card-section bg-dark text-warning shadow\">\n  <div class=\"section card-body mb-0 my-2\">\n    <div class=\"paragraph card-text card-stanza my-5 text-center\">Now having said that,<br>you really need to enable Extra Objects in Blender.</div>\n    <div class=\"paragraph card-text card-stanza my-5 text-center\">It us under Under Preferences Add-ons,<br>just search for extra.</div>\n    <div class=\"paragraph card-text card-stanza my-5 text-center\">Use a solidify modifier on flat or mathematical shapes,<br>to give them thickness.</div>\n  </div>\n</div>\n<div class=\"mb-5 section-spacer\">&nbsp;</div>\n<div class=\"card card-section bg-dark text-warning shadow\">\n  <div class=\"section card-body mb-0 my-2\">\n    <div class=\"paragraph card-text card-stanza my-5 text-center\">All the strange shapes you will find across 3D object generators and libraries,<br>Photogrammetry and ancient artifacts will make for excellent rings.</div>\n    <div class=\"paragraph card-text card-stanza my-5 text-center\">And you shouldn't worry is they seem difficult to wear,<br>an enchanted ring is about fantasy, showing off, and few will wear it daily.</div>\n    <div class=\"paragraph card-text card-stanza my-5 text-center\">If it wasn't copyrighted, or at least legally questionable,<br>I would recommend rebuilding the <a href=\"https://darksouls.wiki.fextralife.com/Rings\">Dark Souls Rings</a>.</div>\n    <div class=\"paragraph card-text card-stanza my-5 text-center\">Even so,<br>it is a good source of inspiration.</div>\n    <div class=\"paragraph card-text card-stanza my-5 text-center\">Elden Ring a new installment in the series does not appear to have rings,<br>but <a href=\"https://eldenring.wiki.fextralife.com/Talismans\">Elden Ring Talismans</a> are also very inspirational - good designs.</div>\n    <div class=\"paragraph card-text card-stanza my-5 text-center\">There is a <a href=\"https://en.wikipedia.org/wiki/The_Lesser_Key_of_Solomon#The_Seventy-Two_Demons\">textbook of magic that presents 72 demons</a>,<br>along with <a href=\"https://en.wikipedia.org/wiki/The_Lesser_Key_of_Solomon#/media/File:72_Goeta_sigils.png\">72 magical symbols</a>.</div>\n    <div class=\"paragraph card-text card-stanza my-5 text-center\">But I would encourage you to rebuild the symbols,<br>but they look pretty ugly, like circuit diagrams.</div>\n    <div class=\"paragraph card-text card-stanza my-5 text-center\">You will need to rebuild them,<br>just enough to make them recognizable.</div>\n    <div class=\"paragraph card-text card-stanza my-5 text-center\">Unlike Dark Souls and Elden Ring items,<br>the symbols were published in 1904.</div>\n  </div>\n</div>\n<div class=\"mb-5 section-spacer\">&nbsp;</div>\n<div class=\"card card-section bg-dark text-warning shadow\">\n  <div class=\"section card-body mb-0 my-2\">\n    <div class=\"paragraph card-text card-stanza my-5 text-center\">Searching “<a href=\"https://lite.qwant.com/?q=britishmuseum+ring&t=images\">britishmuseum ring</a>” in an image search engine,<br>yields another treasure trove of ideas.</div>\n    <div class=\"paragraph card-text card-stanza my-5 text-center\">And of course there is the <a href=\"https://www.popular.pics/reddit/subreddits/posts?r=artefactporn&sort=top&t=year\">random artefact collection</a>,<br>yields a collection of ideas that can be easily turned into a ring.</div>\n  </div>\n</div>\n<div class=\"mb-5 section-spacer\">&nbsp;</div>\n<div class=\"card card-section bg-dark text-warning shadow\">\n  <div class=\"section card-body mb-0 my-2\">\n    <div class=\"paragraph card-text card-stanza my-5 text-center\">It maybe extremely temping to get some basic tools and order a batch of copper rings,<br>that you customize and set with stones.</div>\n    <div class=\"paragraph card-text card-stanza my-5 text-center\">But at least try, solid metal first,<br>this way you can create a “print jewelry on demand online store”.</div>\n  </div>\n</div>\n<div class=\"mb-5 section-spacer\">&nbsp;</div>\n<div class=\"card card-section bg-dark text-warning shadow\">\n  <div class=\"section card-body mb-0 my-2\">\n    <div class=\"paragraph card-text card-stanza my-5 text-center\">You may wish to consider that large rings, copper or gold,<br>are not really solid, some seem folded out of a gold sheet which may save on material costs.</div>\n    <div class=\"paragraph card-text card-stanza my-5 text-center\">And of course, and this is perhaps one of the more interesting challenges,<br>an enchanted ring shouldn't really look brand new.</div>\n    <div class=\"paragraph card-text card-stanza my-5 text-center\">But I leave this challenge,<br>to you.</div>\n  </div>\n</div>",
  "print": "<div class=\"section avoid-break-inside\" style=\"padding-bottom: 2rem;\">\n  <div class=\"paragraph\">An enchanted ring, is a ring that cannot be made by the human hand,<br>and the kind of a ring that comes with a silly or strange story.</div>\n  <div class=\"paragraph\">It is about looking incredible,<br>and breaking all the design rules.</div>\n  <div class=\"paragraph\">I recommend working with copper, brass, silver and gold,<br>and waiting a little bit before designing rings that hold stones.</div>\n</div>\n<div class=\"section avoid-break-inside\" style=\"padding-bottom: 2rem;\">\n  <br>\n</div>\n<div class=\"section avoid-break-inside\" style=\"padding-bottom: 2rem;\">\n  <div class=\"paragraph\">There is no right way to design such a creation,<br>using standard Blender tools may just be more reliable.</div>\n  <div class=\"paragraph\">Once you get into Geometry Nodes,<br>it takes a while to figure out what not to do with them.</div>\n  <div class=\"paragraph\">There is a way to invent a ring generator,<br>but it is probably better to focus on making rings.</div>\n</div>\n<div class=\"section avoid-break-inside\" style=\"padding-bottom: 2rem;\">\n  <br>\n</div>\n<div class=\"section avoid-break-inside\" style=\"padding-bottom: 2rem;\">\n  <div class=\"paragraph\">Ring is not just a closed loop,<br>some rings are open.</div>\n  <div class=\"paragraph\">And the loop may not always be solid,<br>it can be, at least in part a rail that holds the stones.</div>\n  <div class=\"paragraph\">You would need multiple generators of rings,<br>so this project could get pretty boring.</div>\n</div>\n<div class=\"section avoid-break-inside\" style=\"padding-bottom: 2rem;\">\n  <br>\n</div>\n<div class=\"section avoid-break-inside\" style=\"padding-bottom: 2rem;\">\n  <div class=\"paragraph\">Now having said that,<br>you really need to enable Extra Objects in Blender.</div>\n  <div class=\"paragraph\">It us under Under Preferences Add-ons,<br>just search for extra.</div>\n  <div class=\"paragraph\">Use a solidify modifier on flat or mathematical shapes,<br>to give them thickness.</div>\n</div>\n<div class=\"section avoid-break-inside\" style=\"padding-bottom: 2rem;\">\n  <br>\n</div>\n<div class=\"section avoid-break-inside\" style=\"padding-bottom: 2rem;\">\n  <div class=\"paragraph\">All the strange shapes you will find across 3D object generators and libraries,<br>Photogrammetry and ancient artifacts will make for excellent rings.</div>\n  <div class=\"paragraph\">And you shouldn't worry is they seem difficult to wear,<br>an enchanted ring is about fantasy, showing off, and few will wear it daily.</div>\n  <div class=\"paragraph\">If it wasn't copyrighted, or at least legally questionable,<br>I would recommend rebuilding the <span>Dark Souls Rings<sup>[1]</sup></span>.</div>\n  <div class=\"paragraph\">Even so,<br>it is a good source of inspiration.</div>\n  <div class=\"paragraph\">Elden Ring a new installment in the series does not appear to have rings,<br>but <span>Elden Ring Talismans<sup>[2]</sup></span> are also very inspirational - good designs.</div>\n  <div class=\"paragraph\">There is a <span>textbook of magic that presents 72 demons<sup>[3]</sup></span>,<br>along with <span>72 magical symbols<sup>[4]</sup></span>.</div>\n  <div class=\"paragraph\">But I would encourage you to rebuild the symbols,<br>but they look pretty ugly, like circuit diagrams.</div>\n  <div class=\"paragraph\">You will need to rebuild them,<br>just enough to make them recognizable.</div>\n  <div class=\"paragraph\">Unlike Dark Souls and Elden Ring items,<br>the symbols were published in 1904.</div>\n</div>\n<div class=\"section avoid-break-inside\" style=\"padding-bottom: 2rem;\">\n  <br>\n</div>\n<div class=\"section avoid-break-inside\" style=\"padding-bottom: 2rem;\">\n  <div class=\"paragraph\">Searching “<span>britishmuseum ring<sup>[5]</sup></span>” in an image search engine,<br>yields another treasure trove of ideas.</div>\n  <div class=\"paragraph\">And of course there is the <span>random artefact collection<sup>[6]</sup></span>,<br>yields a collection of ideas that can be easily turned into a ring.</div>\n</div>\n<div class=\"section avoid-break-inside\" style=\"padding-bottom: 2rem;\">\n  <br>\n</div>\n<div class=\"section avoid-break-inside\" style=\"padding-bottom: 2rem;\">\n  <div class=\"paragraph\">It maybe extremely temping to get some basic tools and order a batch of copper rings,<br>that you customize and set with stones.</div>\n  <div class=\"paragraph\">But at least try, solid metal first,<br>this way you can create a “print jewelry on demand online store”.</div>\n</div>\n<div class=\"section avoid-break-inside\" style=\"padding-bottom: 2rem;\">\n  <br>\n</div>\n<div class=\"section avoid-break-inside\" style=\"padding-bottom: 2rem;\">\n  <div class=\"paragraph\">You may wish to consider that large rings, copper or gold,<br>are not really solid, some seem folded out of a gold sheet which may save on material costs.</div>\n  <div class=\"paragraph\">And of course, and this is perhaps one of the more interesting challenges,<br>an enchanted ring shouldn't really look brand new.</div>\n  <div class=\"paragraph\">But I leave this challenge,<br>to you.</div>\n</div>\n<div class=\"break-after\">&nbsp;</div>\n<div>\n  <div class=\"section\" style=\"padding-bottom: 1rem;\">References</div>\n  <div>[1]: https://darksouls.wiki.fextralife.com/Rings</div>\n  <div>[2]: https://eldenring.wiki.fextralife.com/Talismans</div>\n  <div>[3]: https://en.wikipedia.org/wiki/The_Lesser_Key_of_Solomon#The_Seventy-Two_Demons</div>\n  <div>[4]: https://en.wikipedia.org/wiki/The_Lesser_Key_of_Solomon#/media/File:72_Goeta_sigils.png</div>\n  <div>[5]: https://lite.qwant.com/?q=britishmuseum+ring&t=images</div>\n  <div>[6]: https://www.popular.pics/reddit/subreddits/posts?r=artefactporn&sort=top&t=year</div>\n</div>",
  "text": "An enchanted ring, is a ring that cannot be made by the human hand,\nand the kind of a ring that comes with a silly or strange story.\nIt is about looking incredible,\nand breaking all the design rules.\nI recommend working with copper, brass, silver and gold,\nand waiting a little bit before designing rings that hold stones.\n\nThere is no right way to design such a creation,\nusing standard Blender tools may just be more reliable.\nOnce you get into Geometry Nodes,\nit takes a while to figure out what not to do with them.\nThere is a way to invent a ring generator,\nbut it is probably better to focus on making rings.\n\nRing is not just a closed loop,\nsome rings are open.\nAnd the loop may not always be solid,\nit can be, at least in part a rail that holds the stones.\nYou would need multiple generators of rings,\nso this project could get pretty boring.\n\nNow having said that,\nyou really need to enable Extra Objects in Blender.\nIt us under Under Preferences Add-ons,\njust search for extra.\nUse a solidify modifier on flat or mathematical shapes,\nto give them thickness.\n\nAll the strange shapes you will find across 3D object generators and libraries,\nPhotogrammetry and ancient artifacts will make for excellent rings.\nAnd you shouldn't worry is they seem difficult to wear,\nan enchanted ring is about fantasy, showing off, and few will wear it daily.\nIf it wasn't copyrighted, or at least legally questionable,\nI would recommend rebuilding the Dark Souls Rings[1].\nEven so,\nit is a good source of inspiration.\nElden Ring a new installment in the series does not appear to have rings,\nbut Elden Ring Talismans[2] are also very inspirational - good designs.\nThere is a textbook of magic that presents 72 demons[3],\nalong with 72 magical symbols[4].\nBut I would encourage you to rebuild the symbols,\nbut they look pretty ugly, like circuit diagrams.\nYou will need to rebuild them,\njust enough to make them recognizable.\nUnlike Dark Souls and Elden Ring items,\nthe symbols were published in 1904.\n\nSearching “britishmuseum ring[5]” in an image search engine,\nyields another treasure trove of ideas.\nAnd of course there is the random artefact collection[6],\nyields a collection of ideas that can be easily turned into a ring.\n\nIt maybe extremely temping to get some basic tools and order a batch of copper rings,\nthat you customize and set with stones.\nBut at least try, solid metal first,\nthis way you can create a “print jewelry on demand online store”.\n\nYou may wish to consider that large rings, copper or gold,\nare not really solid, some seem folded out of a gold sheet which may save on material costs.\nAnd of course, and this is perhaps one of the more interesting challenges,\nan enchanted ring shouldn't really look brand new.\nBut I leave this challenge,\nto you.\n \nReferences\n[1]: https://darksouls.wiki.fextralife.com/Rings\n[2]: https://eldenring.wiki.fextralife.com/Talismans\n[3]: https://en.wikipedia.org/wiki/The_Lesser_Key_of_Solomon#The_Seventy-Two_Demons\n[4]: https://en.wikipedia.org/wiki/The_Lesser_Key_of_Solomon#/media/File:72_Goeta_sigils.png\n[5]: https://lite.qwant.com/?q=britishmuseum+ring&t=images\n[6]: https://www.popular.pics/reddit/subreddits/posts?r=artefactporn&sort=top&t=year",
  "images": [],
  "links": [
    {
      "title": "Dark Souls Rings",
      "url": "https://darksouls.wiki.fextralife.com/Rings",
      "hostname": "darksouls.wiki.fextralife.com"
    },
    {
      "title": "Elden Ring Talismans",
      "url": "https://eldenring.wiki.fextralife.com/Talismans",
      "hostname": "eldenring.wiki.fextralife.com"
    },
    {
      "title": "textbook of magic that presents 72 demons",
      "url": "https://en.wikipedia.org/wiki/The_Lesser_Key_of_Solomon#The_Seventy-Two_Demons",
      "hostname": "en.wikipedia.org"
    },
    {
      "title": "72 magical symbols",
      "url": "https://en.wikipedia.org/wiki/The_Lesser_Key_of_Solomon#/media/File:72_Goeta_sigils.png",
      "hostname": "en.wikipedia.org"
    },
    {
      "title": "britishmuseum ring",
      "url": "https://lite.qwant.com/?q=britishmuseum+ring&t=images",
      "hostname": "lite.qwant.com"
    },
    {
      "title": "random artefact collection",
      "url": "https://www.popular.pics/reddit/subreddits/posts?r=artefactporn&sort=top&t=year",
      "hostname": "www.popular.pics"
    }
  ]
}