{
  "name": "furkies-purrkies-poetry-0199",
  "title": "We Must All Write",
  "date": "2020-09-15T21:12:36.380Z",
  "image": "poetry-0199-illustration.jpg",
  "audio": "poetry-0199.mp3",
  "artwork": "https://unsplash.com/photos/tcyW6Im5Uug",
  "id": "furkies-purrkies-poetry-0199",
  "attachments": {},
  "guid": "10b5b4e1-4c85-43ce-b0f5-52c7d8636edc",
  "html": "<div class=\"section\">\n  <p>Writing is like the spinning top in Inception,</p>\n  <p>it is a way to self evaluate.</p>\n</div>\n<div class=\"section\">\n  <p>If you continue being unable to write,</p>\n  <p>then it means you are surrounded by invisible walls.</p>\n</div>\n<div class=\"section\">\n  <p>Being able to lay down your favorite thoughts on a piece of paper,</p>\n  <p>and helping to inspire or enlighten someone, is a sign of health and inner-freedom, and in some cases Greatness.</p>\n</div>\n<div class=\"section\">\n  <hr>\n</div>\n<div class=\"section\">\n  <p>There are many styles of writing,</p>\n  <p>and many directions.</p>\n</div>\n<div class=\"section\">\n  <p>My style of writing is patterned after poems,</p>\n  <p>I write two sentences per stanza, if I need a third sentence,</p>\n  <p>then it generally means I over-complicated something.</p>\n</div>\n<div class=\"section\">\n  <p>I think my favorite aim is to turn my little poems,</p>\n  <p>into little movies and stitch them together into a tiny documentary.</p>\n</div>\n<div class=\"section\">\n  <p>I&apos;ve heard of a project called <a href=\"https://www.ted.com/talks/hannah_brencher_love_letters_to_strangers?language=en\">Love Letters to Strangers</a></p>\n  <p>and I find that to be the sweetest aim of all.</p>\n</div>\n<div class=\"section\">\n  <hr>\n</div>\n<div class=\"section\">\n  <p>In the larger scope,</p>\n  <p>we must all write to update the surface for future generations to stand on.</p>\n</div>\n<div class=\"section\">\n  <p>The books our parents read are great, by they are a bit old fashioned,</p>\n  <p>we have to, rebuild the library for the future generations.</p>\n</div>\n<div class=\"section\">\n  <p>We don&apos;t want the future to start with our parents,</p>\n  <p>we want them to start where we left off,</p>\n  <p>so that we may spare them the aches we went through.</p>\n</div>\n<div class=\"section\">\n  <hr>\n</div>\n<div class=\"section\">\n  <p>Things change.</p>\n</div>\n<div class=\"section\">\n  <p>When we talked about climate 50 years ago,</p>\n  <p>there was still a chance to become educated about it and make informed decisions, today.</p>\n</div>\n<div class=\"section\">\n  <p>But, today, all we got is the observation that climate appears to have become more unstable,</p>\n  <p>and most are not educated enough to make any sense of it, or agree on any solution.</p>\n</div>\n<div class=\"section\">\n  <p>And that the world lost two-thirds of its wildlife is last 50 years,</p>\n  <p>people are too desperate for food, money, housing and health, to grasp what that means.</p>\n</div>\n<div class=\"section\">\n  <p>We need a new perspective on dealing with climate change,</p>\n  <p>because a world uneducated on the subject,</p>\n  <p>is a world that will never reach a consensus, and may never do anything about it.</p>\n</div>\n<div class=\"section\">\n  <hr>\n</div>\n<div class=\"section\">\n  <p>Writing a book will tell you if you have the knowledge you think you do,</p>\n  <p>there are many teenagers, that feel they have mastered Quantum Physics; bless their Great Hearts and Beautiful Minds.</p>\n</div>\n<div class=\"section\">\n  <p>However, they can only write an assay or two,</p>\n  <p>they can&apos;t synthesize new ideas to fill a book.</p>\n</div>\n<div class=\"section\">\n  <p>Feeling smart is a very healthy sign, that a person is headed in the right direction,</p>\n  <p>but writing a book is a sign that they have traveled a considerable way there, and are of great health.</p>\n</div>\n<div class=\"section\">\n  <p>You can see what it means to be able to write a book much more clearly in this example in particular,</p>\n  <p>it means Freedom and Power of Mind, falling short is just... Dreaming.</p>\n</div>\n<div class=\"section\">\n  <hr>\n</div>\n<div class=\"section\">\n  <p>There is a very powerful kind of book, that perhaps is most important,</p>\n  <p>and only a young person, during their youth can write it.</p>\n</div>\n<div class=\"section\">\n  <p>Brilliant Teenage Minds that made some headway in life,</p>\n  <p>writing advice to their peers, that have unfortunately gotten stuck, or fallen.</p>\n</div>\n<div class=\"section\">\n  <p>Opening ones heart at a young age, is a very noble thing to do,</p>\n  <p>it is a sign of Great Beauty, Compassion and Grand Heroism.</p>\n</div>\n<div class=\"section\">\n  <p>Those books, must not be judged by adults,</p>\n  <p>their creators must understand not to judge their creative writing by adult standards.</p>\n</div>\n<div class=\"section\">\n  <p>Adults are not what they seem, for one;</p>\n  <p>and second the people who benefit from those books are teenagers themselves.</p>\n</div>\n<div class=\"section\">\n  <p>A person who is suffering early in their life,</p>\n  <p>is best helped by the words of someone who has recently managed to rise out of similar problems.</p>\n</div>\n<div class=\"section\">\n  <p>Our youth is the most formative period of our life. Even the smallest of pains spared,</p>\n  <p>or littlest of mistakes avoided will have massive and profound influence over us, come our middle age.</p>\n</div>\n<div class=\"section\">\n  <hr>\n</div>\n<div class=\"section\">\n  <p>Write,</p>\n  <p>write when you are young,</p>\n  <p>write when you are growing up,</p>\n  <p>write when nobody seems to be listening.</p>\n</div>\n<div class=\"section\">\n  <p>Write in the face of Liars,</p>\n  <p>write in the face pretenders, fakers, manipulators, wannabes, and fake-it-until-you-make-it morons.</p>\n</div>\n<div class=\"section\">\n  <p>Write to pull yourself up by your own bootstraps,</p>\n  <p>write to become a beacon</p>\n  <p>write to become a light of enlightenment.</p>\n</div>\n<div class=\"section\">\n  <p>Write to bring back what has been written a generation before,</p>\n  <p>if the story is worth the while, retell it, retell it countless times.</p>\n</div>\n<div class=\"section\">\n  <p>And when you are ready to lay down your pencil for the day,</p>\n  <p>read, read it out loud, and record it,</p>\n  <p>because the light in your voice is worth a million books.</p>\n</div>\n<div class=\"section\">\n  <p>And finally,</p>\n  <p>know what it is all for...</p>\n</div>\n<div class=\"section\">\n  <p>It is how the next generation learns from the previous one,</p>\n  <p>it is how they win the wars we could only hoped to have won.</p>\n</div>\n<div class=\"section\">\n  <p>It is how they become the heroes we hoped to be,</p>\n  <p>it is how they save the world, that we can&apos;t see.</p>\n</div>\n<div class=\"section\">\n  <p>Write, because that&apos;s how you! become the hero you hoped to be,</p>\n  <p>and because the world belongs to the future generations,</p>\n  <p>not just you and me.</p>\n</div>\n<div class=\"section\">\n  <p>Write.</p>\n</div>",
  "bootstrap": "<div class=\"card card-section bg-dark text-warning shadow\">\n  <div class=\"section card-body mb-0 my-2\">\n    <div class=\"paragraph card-text card-stanza my-5 text-center\">Writing is like the spinning top in Inception,</div>\n    <div class=\"paragraph card-text card-stanza my-5 text-center\">it is a way to self evaluate.</div>\n  </div>\n</div>\n<div class=\"card card-section bg-dark text-warning shadow\">\n  <div class=\"section card-body mb-0 my-2\">\n    <div class=\"paragraph card-text card-stanza my-5 text-center\">If you continue being unable to write,</div>\n    <div class=\"paragraph card-text card-stanza my-5 text-center\">then it means you are surrounded by invisible walls.</div>\n  </div>\n</div>\n<div class=\"card card-section bg-dark text-warning shadow\">\n  <div class=\"section card-body mb-0 my-2\">\n    <div class=\"paragraph card-text card-stanza my-5 text-center\">Being able to lay down your favorite thoughts on a piece of paper,</div>\n    <div class=\"paragraph card-text card-stanza my-5 text-center\">and helping to inspire or enlighten someone, is a sign of health and inner-freedom, and in some cases Greatness.</div>\n  </div>\n</div>\n<div class=\"mb-5 section-spacer\">&nbsp;</div>\n<div class=\"card card-section bg-dark text-warning shadow\">\n  <div class=\"section card-body mb-0 my-2\">\n    <div class=\"paragraph card-text card-stanza my-5 text-center\">There are many styles of writing,</div>\n    <div class=\"paragraph card-text card-stanza my-5 text-center\">and many directions.</div>\n  </div>\n</div>\n<div class=\"card card-section bg-dark text-warning shadow\">\n  <div class=\"section card-body mb-0 my-2\">\n    <div class=\"paragraph card-text card-stanza my-5 text-center\">My style of writing is patterned after poems,</div>\n    <div class=\"paragraph card-text card-stanza my-5 text-center\">I write two sentences per stanza, if I need a third sentence,</div>\n    <div class=\"paragraph card-text card-stanza my-5 text-center\">then it generally means I over-complicated something.</div>\n  </div>\n</div>\n<div class=\"card card-section bg-dark text-warning shadow\">\n  <div class=\"section card-body mb-0 my-2\">\n    <div class=\"paragraph card-text card-stanza my-5 text-center\">I think my favorite aim is to turn my little poems,</div>\n    <div class=\"paragraph card-text card-stanza my-5 text-center\">into little movies and stitch them together into a tiny documentary.</div>\n  </div>\n</div>\n<div class=\"card card-section bg-dark text-warning shadow\">\n  <div class=\"section card-body mb-0 my-2\">\n    <div class=\"paragraph card-text card-stanza my-5 text-center\">I've heard of a project called <a href=\"https://www.ted.com/talks/hannah_brencher_love_letters_to_strangers?language=en\">Love Letters to Strangers</a></div>\n    <div class=\"paragraph card-text card-stanza my-5 text-center\">and I find that to be the sweetest aim of all.</div>\n  </div>\n</div>\n<div class=\"mb-5 section-spacer\">&nbsp;</div>\n<div class=\"card card-section bg-dark text-warning shadow\">\n  <div class=\"section card-body mb-0 my-2\">\n    <div class=\"paragraph card-text card-stanza my-5 text-center\">In the larger scope,</div>\n    <div class=\"paragraph card-text card-stanza my-5 text-center\">we must all write to update the surface for future generations to stand on.</div>\n  </div>\n</div>\n<div class=\"card card-section bg-dark text-warning shadow\">\n  <div class=\"section card-body mb-0 my-2\">\n    <div class=\"paragraph card-text card-stanza my-5 text-center\">The books our parents read are great, by they are a bit old fashioned,</div>\n    <div class=\"paragraph card-text card-stanza my-5 text-center\">we have to, rebuild the library for the future generations.</div>\n  </div>\n</div>\n<div class=\"card card-section bg-dark text-warning shadow\">\n  <div class=\"section card-body mb-0 my-2\">\n    <div class=\"paragraph card-text card-stanza my-5 text-center\">We don't want the future to start with our parents,</div>\n    <div class=\"paragraph card-text card-stanza my-5 text-center\">we want them to start where we left off,</div>\n    <div class=\"paragraph card-text card-stanza my-5 text-center\">so that we may spare them the aches we went through.</div>\n  </div>\n</div>\n<div class=\"mb-5 section-spacer\">&nbsp;</div>\n<div class=\"card card-section bg-dark text-warning shadow\">\n  <div class=\"section card-body mb-0 my-2\">\n    <div class=\"paragraph card-text card-stanza my-5 text-center\">Things change.</div>\n  </div>\n</div>\n<div class=\"card card-section bg-dark text-warning shadow\">\n  <div class=\"section card-body mb-0 my-2\">\n    <div class=\"paragraph card-text card-stanza my-5 text-center\">When we talked about climate 50 years ago,</div>\n    <div class=\"paragraph card-text card-stanza my-5 text-center\">there was still a chance to become educated about it and make informed decisions, today.</div>\n  </div>\n</div>\n<div class=\"card card-section bg-dark text-warning shadow\">\n  <div class=\"section card-body mb-0 my-2\">\n    <div class=\"paragraph card-text card-stanza my-5 text-center\">But, today, all we got is the observation that climate appears to have become more unstable,</div>\n    <div class=\"paragraph card-text card-stanza my-5 text-center\">and most are not educated enough to make any sense of it, or agree on any solution.</div>\n  </div>\n</div>\n<div class=\"card card-section bg-dark text-warning shadow\">\n  <div class=\"section card-body mb-0 my-2\">\n    <div class=\"paragraph card-text card-stanza my-5 text-center\">And that the world lost two-thirds of its wildlife is last 50 years,</div>\n    <div class=\"paragraph card-text card-stanza my-5 text-center\">people are too desperate for food, money, housing and health, to grasp what that means.</div>\n  </div>\n</div>\n<div class=\"card card-section bg-dark text-warning shadow\">\n  <div class=\"section card-body mb-0 my-2\">\n    <div class=\"paragraph card-text card-stanza my-5 text-center\">We need a new perspective on dealing with climate change,</div>\n    <div class=\"paragraph card-text card-stanza my-5 text-center\">because a world uneducated on the subject,</div>\n    <div class=\"paragraph card-text card-stanza my-5 text-center\">is a world that will never reach a consensus, and may never do anything about it.</div>\n  </div>\n</div>\n<div class=\"mb-5 section-spacer\">&nbsp;</div>\n<div class=\"card card-section bg-dark text-warning shadow\">\n  <div class=\"section card-body mb-0 my-2\">\n    <div class=\"paragraph card-text card-stanza my-5 text-center\">Writing a book will tell you if you have the knowledge you think you do,</div>\n    <div class=\"paragraph card-text card-stanza my-5 text-center\">there are many teenagers, that feel they have mastered Quantum Physics; bless their Great Hearts and Beautiful Minds.</div>\n  </div>\n</div>\n<div class=\"card card-section bg-dark text-warning shadow\">\n  <div class=\"section card-body mb-0 my-2\">\n    <div class=\"paragraph card-text card-stanza my-5 text-center\">However, they can only write an assay or two,</div>\n    <div class=\"paragraph card-text card-stanza my-5 text-center\">they can't synthesize new ideas to fill a book.</div>\n  </div>\n</div>\n<div class=\"card card-section bg-dark text-warning shadow\">\n  <div class=\"section card-body mb-0 my-2\">\n    <div class=\"paragraph card-text card-stanza my-5 text-center\">Feeling smart is a very healthy sign, that a person is headed in the right direction,</div>\n    <div class=\"paragraph card-text card-stanza my-5 text-center\">but writing a book is a sign that they have traveled a considerable way there, and are of great health.</div>\n  </div>\n</div>\n<div class=\"card card-section bg-dark text-warning shadow\">\n  <div class=\"section card-body mb-0 my-2\">\n    <div class=\"paragraph card-text card-stanza my-5 text-center\">You can see what it means to be able to write a book much more clearly in this example in particular,</div>\n    <div class=\"paragraph card-text card-stanza my-5 text-center\">it means Freedom and Power of Mind, falling short is just... Dreaming.</div>\n  </div>\n</div>\n<div class=\"mb-5 section-spacer\">&nbsp;</div>\n<div class=\"card card-section bg-dark text-warning shadow\">\n  <div class=\"section card-body mb-0 my-2\">\n    <div class=\"paragraph card-text card-stanza my-5 text-center\">There is a very powerful kind of book, that perhaps is most important,</div>\n    <div class=\"paragraph card-text card-stanza my-5 text-center\">and only a young person, during their youth can write it.</div>\n  </div>\n</div>\n<div class=\"card card-section bg-dark text-warning shadow\">\n  <div class=\"section card-body mb-0 my-2\">\n    <div class=\"paragraph card-text card-stanza my-5 text-center\">Brilliant Teenage Minds that made some headway in life,</div>\n    <div class=\"paragraph card-text card-stanza my-5 text-center\">writing advice to their peers, that have unfortunately gotten stuck, or fallen.</div>\n  </div>\n</div>\n<div class=\"card card-section bg-dark text-warning shadow\">\n  <div class=\"section card-body mb-0 my-2\">\n    <div class=\"paragraph card-text card-stanza my-5 text-center\">Opening ones heart at a young age, is a very noble thing to do,</div>\n    <div class=\"paragraph card-text card-stanza my-5 text-center\">it is a sign of Great Beauty, Compassion and Grand Heroism.</div>\n  </div>\n</div>\n<div class=\"card card-section bg-dark text-warning shadow\">\n  <div class=\"section card-body mb-0 my-2\">\n    <div class=\"paragraph card-text card-stanza my-5 text-center\">Those books, must not be judged by adults,</div>\n    <div class=\"paragraph card-text card-stanza my-5 text-center\">their creators must understand not to judge their creative writing by adult standards.</div>\n  </div>\n</div>\n<div class=\"card card-section bg-dark text-warning shadow\">\n  <div class=\"section card-body mb-0 my-2\">\n    <div class=\"paragraph card-text card-stanza my-5 text-center\">Adults are not what they seem, for one;</div>\n    <div class=\"paragraph card-text card-stanza my-5 text-center\">and second the people who benefit from those books are teenagers themselves.</div>\n  </div>\n</div>\n<div class=\"card card-section bg-dark text-warning shadow\">\n  <div class=\"section card-body mb-0 my-2\">\n    <div class=\"paragraph card-text card-stanza my-5 text-center\">A person who is suffering early in their life,</div>\n    <div class=\"paragraph card-text card-stanza my-5 text-center\">is best helped by the words of someone who has recently managed to rise out of similar problems.</div>\n  </div>\n</div>\n<div class=\"card card-section bg-dark text-warning shadow\">\n  <div class=\"section card-body mb-0 my-2\">\n    <div class=\"paragraph card-text card-stanza my-5 text-center\">Our youth is the most formative period of our life. Even the smallest of pains spared,</div>\n    <div class=\"paragraph card-text card-stanza my-5 text-center\">or littlest of mistakes avoided will have massive and profound influence over us, come our middle age.</div>\n  </div>\n</div>\n<div class=\"mb-5 section-spacer\">&nbsp;</div>\n<div class=\"card card-section bg-dark text-warning shadow\">\n  <div class=\"section card-body mb-0 my-2\">\n    <div class=\"paragraph card-text card-stanza my-5 text-center\">Write,</div>\n    <div class=\"paragraph card-text card-stanza my-5 text-center\">write when you are young,</div>\n    <div class=\"paragraph card-text card-stanza my-5 text-center\">write when you are growing up,</div>\n    <div class=\"paragraph card-text card-stanza my-5 text-center\">write when nobody seems to be listening.</div>\n  </div>\n</div>\n<div class=\"card card-section bg-dark text-warning shadow\">\n  <div class=\"section card-body mb-0 my-2\">\n    <div class=\"paragraph card-text card-stanza my-5 text-center\">Write in the face of Liars,</div>\n    <div class=\"paragraph card-text card-stanza my-5 text-center\">write in the face pretenders, fakers, manipulators, wannabes, and fake-it-until-you-make-it morons.</div>\n  </div>\n</div>\n<div class=\"card card-section bg-dark text-warning shadow\">\n  <div class=\"section card-body mb-0 my-2\">\n    <div class=\"paragraph card-text card-stanza my-5 text-center\">Write to pull yourself up by your own bootstraps,</div>\n    <div class=\"paragraph card-text card-stanza my-5 text-center\">write to become a beacon</div>\n    <div class=\"paragraph card-text card-stanza my-5 text-center\">write to become a light of enlightenment.</div>\n  </div>\n</div>\n<div class=\"card card-section bg-dark text-warning shadow\">\n  <div class=\"section card-body mb-0 my-2\">\n    <div class=\"paragraph card-text card-stanza my-5 text-center\">Write to bring back what has been written a generation before,</div>\n    <div class=\"paragraph card-text card-stanza my-5 text-center\">if the story is worth the while, retell it, retell it countless times.</div>\n  </div>\n</div>\n<div class=\"card card-section bg-dark text-warning shadow\">\n  <div class=\"section card-body mb-0 my-2\">\n    <div class=\"paragraph card-text card-stanza my-5 text-center\">And when you are ready to lay down your pencil for the day,</div>\n    <div class=\"paragraph card-text card-stanza my-5 text-center\">read, read it out loud, and record it,</div>\n    <div class=\"paragraph card-text card-stanza my-5 text-center\">because the light in your voice is worth a million books.</div>\n  </div>\n</div>\n<div class=\"card card-section bg-dark text-warning shadow\">\n  <div class=\"section card-body mb-0 my-2\">\n    <div class=\"paragraph card-text card-stanza my-5 text-center\">And finally,</div>\n    <div class=\"paragraph card-text card-stanza my-5 text-center\">know what it is all for...</div>\n  </div>\n</div>\n<div class=\"card card-section bg-dark text-warning shadow\">\n  <div class=\"section card-body mb-0 my-2\">\n    <div class=\"paragraph card-text card-stanza my-5 text-center\">It is how the next generation learns from the previous one,</div>\n    <div class=\"paragraph card-text card-stanza my-5 text-center\">it is how they win the wars we could only hoped to have won.</div>\n  </div>\n</div>\n<div class=\"card card-section bg-dark text-warning shadow\">\n  <div class=\"section card-body mb-0 my-2\">\n    <div class=\"paragraph card-text card-stanza my-5 text-center\">It is how they become the heroes we hoped to be,</div>\n    <div class=\"paragraph card-text card-stanza my-5 text-center\">it is how they save the world, that we can't see.</div>\n  </div>\n</div>\n<div class=\"card card-section bg-dark text-warning shadow\">\n  <div class=\"section card-body mb-0 my-2\">\n    <div class=\"paragraph card-text card-stanza my-5 text-center\">Write, because that's how you! become the hero you hoped to be,</div>\n    <div class=\"paragraph card-text card-stanza my-5 text-center\">and because the world belongs to the future generations,</div>\n    <div class=\"paragraph card-text card-stanza my-5 text-center\">not just you and me.</div>\n  </div>\n</div>\n<div class=\"card card-section bg-dark text-warning shadow\">\n  <div class=\"section card-body mb-0 my-2\">\n    <div class=\"paragraph card-text card-stanza my-5 text-center\">Write.</div>\n  </div>\n</div>",
  "print": "<div class=\"section avoid-break-inside\" style=\"padding-bottom: 2rem;\">\n  <div class=\"paragraph\">Writing is like the spinning top in Inception,</div>\n  <div class=\"paragraph\">it is a way to self evaluate.</div>\n</div>\n<div class=\"section avoid-break-inside\" style=\"padding-bottom: 2rem;\">\n  <div class=\"paragraph\">If you continue being unable to write,</div>\n  <div class=\"paragraph\">then it means you are surrounded by invisible walls.</div>\n</div>\n<div class=\"section avoid-break-inside\" style=\"padding-bottom: 2rem;\">\n  <div class=\"paragraph\">Being able to lay down your favorite thoughts on a piece of paper,</div>\n  <div class=\"paragraph\">and helping to inspire or enlighten someone, is a sign of health and inner-freedom, and in some cases Greatness.</div>\n</div>\n<div class=\"section avoid-break-inside\" style=\"padding-bottom: 2rem;\">\n  <br>\n</div>\n<div class=\"section avoid-break-inside\" style=\"padding-bottom: 2rem;\">\n  <div class=\"paragraph\">There are many styles of writing,</div>\n  <div class=\"paragraph\">and many directions.</div>\n</div>\n<div class=\"section avoid-break-inside\" style=\"padding-bottom: 2rem;\">\n  <div class=\"paragraph\">My style of writing is patterned after poems,</div>\n  <div class=\"paragraph\">I write two sentences per stanza, if I need a third sentence,</div>\n  <div class=\"paragraph\">then it generally means I over-complicated something.</div>\n</div>\n<div class=\"section avoid-break-inside\" style=\"padding-bottom: 2rem;\">\n  <div class=\"paragraph\">I think my favorite aim is to turn my little poems,</div>\n  <div class=\"paragraph\">into little movies and stitch them together into a tiny documentary.</div>\n</div>\n<div class=\"section avoid-break-inside\" style=\"padding-bottom: 2rem;\">\n  <div class=\"paragraph\">I've heard of a project called <span>Love Letters to Strangers<sup>[1]</sup></span></div>\n  <div class=\"paragraph\">and I find that to be the sweetest aim of all.</div>\n</div>\n<div class=\"section avoid-break-inside\" style=\"padding-bottom: 2rem;\">\n  <br>\n</div>\n<div class=\"section avoid-break-inside\" style=\"padding-bottom: 2rem;\">\n  <div class=\"paragraph\">In the larger scope,</div>\n  <div class=\"paragraph\">we must all write to update the surface for future generations to stand on.</div>\n</div>\n<div class=\"section avoid-break-inside\" style=\"padding-bottom: 2rem;\">\n  <div class=\"paragraph\">The books our parents read are great, by they are a bit old fashioned,</div>\n  <div class=\"paragraph\">we have to, rebuild the library for the future generations.</div>\n</div>\n<div class=\"section avoid-break-inside\" style=\"padding-bottom: 2rem;\">\n  <div class=\"paragraph\">We don't want the future to start with our parents,</div>\n  <div class=\"paragraph\">we want them to start where we left off,</div>\n  <div class=\"paragraph\">so that we may spare them the aches we went through.</div>\n</div>\n<div class=\"section avoid-break-inside\" style=\"padding-bottom: 2rem;\">\n  <br>\n</div>\n<div class=\"section avoid-break-inside\" style=\"padding-bottom: 2rem;\">\n  <div class=\"paragraph\">Things change.</div>\n</div>\n<div class=\"section avoid-break-inside\" style=\"padding-bottom: 2rem;\">\n  <div class=\"paragraph\">When we talked about climate 50 years ago,</div>\n  <div class=\"paragraph\">there was still a chance to become educated about it and make informed decisions, today.</div>\n</div>\n<div class=\"section avoid-break-inside\" style=\"padding-bottom: 2rem;\">\n  <div class=\"paragraph\">But, today, all we got is the observation that climate appears to have become more unstable,</div>\n  <div class=\"paragraph\">and most are not educated enough to make any sense of it, or agree on any solution.</div>\n</div>\n<div class=\"section avoid-break-inside\" style=\"padding-bottom: 2rem;\">\n  <div class=\"paragraph\">And that the world lost two-thirds of its wildlife is last 50 years,</div>\n  <div class=\"paragraph\">people are too desperate for food, money, housing and health, to grasp what that means.</div>\n</div>\n<div class=\"section avoid-break-inside\" style=\"padding-bottom: 2rem;\">\n  <div class=\"paragraph\">We need a new perspective on dealing with climate change,</div>\n  <div class=\"paragraph\">because a world uneducated on the subject,</div>\n  <div class=\"paragraph\">is a world that will never reach a consensus, and may never do anything about it.</div>\n</div>\n<div class=\"section avoid-break-inside\" style=\"padding-bottom: 2rem;\">\n  <br>\n</div>\n<div class=\"section avoid-break-inside\" style=\"padding-bottom: 2rem;\">\n  <div class=\"paragraph\">Writing a book will tell you if you have the knowledge you think you do,</div>\n  <div class=\"paragraph\">there are many teenagers, that feel they have mastered Quantum Physics; bless their Great Hearts and Beautiful Minds.</div>\n</div>\n<div class=\"section avoid-break-inside\" style=\"padding-bottom: 2rem;\">\n  <div class=\"paragraph\">However, they can only write an assay or two,</div>\n  <div class=\"paragraph\">they can't synthesize new ideas to fill a book.</div>\n</div>\n<div class=\"section avoid-break-inside\" style=\"padding-bottom: 2rem;\">\n  <div class=\"paragraph\">Feeling smart is a very healthy sign, that a person is headed in the right direction,</div>\n  <div class=\"paragraph\">but writing a book is a sign that they have traveled a considerable way there, and are of great health.</div>\n</div>\n<div class=\"section avoid-break-inside\" style=\"padding-bottom: 2rem;\">\n  <div class=\"paragraph\">You can see what it means to be able to write a book much more clearly in this example in particular,</div>\n  <div class=\"paragraph\">it means Freedom and Power of Mind, falling short is just... Dreaming.</div>\n</div>\n<div class=\"section avoid-break-inside\" style=\"padding-bottom: 2rem;\">\n  <br>\n</div>\n<div class=\"section avoid-break-inside\" style=\"padding-bottom: 2rem;\">\n  <div class=\"paragraph\">There is a very powerful kind of book, that perhaps is most important,</div>\n  <div class=\"paragraph\">and only a young person, during their youth can write it.</div>\n</div>\n<div class=\"section avoid-break-inside\" style=\"padding-bottom: 2rem;\">\n  <div class=\"paragraph\">Brilliant Teenage Minds that made some headway in life,</div>\n  <div class=\"paragraph\">writing advice to their peers, that have unfortunately gotten stuck, or fallen.</div>\n</div>\n<div class=\"section avoid-break-inside\" style=\"padding-bottom: 2rem;\">\n  <div class=\"paragraph\">Opening ones heart at a young age, is a very noble thing to do,</div>\n  <div class=\"paragraph\">it is a sign of Great Beauty, Compassion and Grand Heroism.</div>\n</div>\n<div class=\"section avoid-break-inside\" style=\"padding-bottom: 2rem;\">\n  <div class=\"paragraph\">Those books, must not be judged by adults,</div>\n  <div class=\"paragraph\">their creators must understand not to judge their creative writing by adult standards.</div>\n</div>\n<div class=\"section avoid-break-inside\" style=\"padding-bottom: 2rem;\">\n  <div class=\"paragraph\">Adults are not what they seem, for one;</div>\n  <div class=\"paragraph\">and second the people who benefit from those books are teenagers themselves.</div>\n</div>\n<div class=\"section avoid-break-inside\" style=\"padding-bottom: 2rem;\">\n  <div class=\"paragraph\">A person who is suffering early in their life,</div>\n  <div class=\"paragraph\">is best helped by the words of someone who has recently managed to rise out of similar problems.</div>\n</div>\n<div class=\"section avoid-break-inside\" style=\"padding-bottom: 2rem;\">\n  <div class=\"paragraph\">Our youth is the most formative period of our life. Even the smallest of pains spared,</div>\n  <div class=\"paragraph\">or littlest of mistakes avoided will have massive and profound influence over us, come our middle age.</div>\n</div>\n<div class=\"section avoid-break-inside\" style=\"padding-bottom: 2rem;\">\n  <br>\n</div>\n<div class=\"section avoid-break-inside\" style=\"padding-bottom: 2rem;\">\n  <div class=\"paragraph\">Write,</div>\n  <div class=\"paragraph\">write when you are young,</div>\n  <div class=\"paragraph\">write when you are growing up,</div>\n  <div class=\"paragraph\">write when nobody seems to be listening.</div>\n</div>\n<div class=\"section avoid-break-inside\" style=\"padding-bottom: 2rem;\">\n  <div class=\"paragraph\">Write in the face of Liars,</div>\n  <div class=\"paragraph\">write in the face pretenders, fakers, manipulators, wannabes, and fake-it-until-you-make-it morons.</div>\n</div>\n<div class=\"section avoid-break-inside\" style=\"padding-bottom: 2rem;\">\n  <div class=\"paragraph\">Write to pull yourself up by your own bootstraps,</div>\n  <div class=\"paragraph\">write to become a beacon</div>\n  <div class=\"paragraph\">write to become a light of enlightenment.</div>\n</div>\n<div class=\"section avoid-break-inside\" style=\"padding-bottom: 2rem;\">\n  <div class=\"paragraph\">Write to bring back what has been written a generation before,</div>\n  <div class=\"paragraph\">if the story is worth the while, retell it, retell it countless times.</div>\n</div>\n<div class=\"section avoid-break-inside\" style=\"padding-bottom: 2rem;\">\n  <div class=\"paragraph\">And when you are ready to lay down your pencil for the day,</div>\n  <div class=\"paragraph\">read, read it out loud, and record it,</div>\n  <div class=\"paragraph\">because the light in your voice is worth a million books.</div>\n</div>\n<div class=\"section avoid-break-inside\" style=\"padding-bottom: 2rem;\">\n  <div class=\"paragraph\">And finally,</div>\n  <div class=\"paragraph\">know what it is all for...</div>\n</div>\n<div class=\"section avoid-break-inside\" style=\"padding-bottom: 2rem;\">\n  <div class=\"paragraph\">It is how the next generation learns from the previous one,</div>\n  <div class=\"paragraph\">it is how they win the wars we could only hoped to have won.</div>\n</div>\n<div class=\"section avoid-break-inside\" style=\"padding-bottom: 2rem;\">\n  <div class=\"paragraph\">It is how they become the heroes we hoped to be,</div>\n  <div class=\"paragraph\">it is how they save the world, that we can't see.</div>\n</div>\n<div class=\"section avoid-break-inside\" style=\"padding-bottom: 2rem;\">\n  <div class=\"paragraph\">Write, because that's how you! become the hero you hoped to be,</div>\n  <div class=\"paragraph\">and because the world belongs to the future generations,</div>\n  <div class=\"paragraph\">not just you and me.</div>\n</div>\n<div class=\"section avoid-break-inside\" style=\"padding-bottom: 2rem;\">\n  <div class=\"paragraph\">Write.</div>\n</div>\n<div class=\"break-after\">&nbsp;</div>\n<div>\n  <div class=\"section\" style=\"padding-bottom: 1rem;\">References</div>\n  <div>[1]: https://www.ted.com/talks/hannah_brencher_love_letters_to_strangers?language=en</div>\n</div>",
  "text": "Writing is like the spinning top in Inception,\nit is a way to self evaluate.\nIf you continue being unable to write,\nthen it means you are surrounded by invisible walls.\nBeing able to lay down your favorite thoughts on a piece of paper,\nand helping to inspire or enlighten someone, is a sign of health and inner-freedom, and in some cases Greatness.\n\nThere are many styles of writing,\nand many directions.\nMy style of writing is patterned after poems,\nI write two sentences per stanza, if I need a third sentence,\nthen it generally means I over-complicated something.\nI think my favorite aim is to turn my little poems,\ninto little movies and stitch them together into a tiny documentary.\nI've heard of a project called Love Letters to Strangers[1]\nand I find that to be the sweetest aim of all.\n\nIn the larger scope,\nwe must all write to update the surface for future generations to stand on.\nThe books our parents read are great, by they are a bit old fashioned,\nwe have to, rebuild the library for the future generations.\nWe don't want the future to start with our parents,\nwe want them to start where we left off,\nso that we may spare them the aches we went through.\n\nThings change.\nWhen we talked about climate 50 years ago,\nthere was still a chance to become educated about it and make informed decisions, today.\nBut, today, all we got is the observation that climate appears to have become more unstable,\nand most are not educated enough to make any sense of it, or agree on any solution.\nAnd that the world lost two-thirds of its wildlife is last 50 years,\npeople are too desperate for food, money, housing and health, to grasp what that means.\nWe need a new perspective on dealing with climate change,\nbecause a world uneducated on the subject,\nis a world that will never reach a consensus, and may never do anything about it.\n\nWriting a book will tell you if you have the knowledge you think you do,\nthere are many teenagers, that feel they have mastered Quantum Physics; bless their Great Hearts and Beautiful Minds.\nHowever, they can only write an assay or two,\nthey can't synthesize new ideas to fill a book.\nFeeling smart is a very healthy sign, that a person is headed in the right direction,\nbut writing a book is a sign that they have traveled a considerable way there, and are of great health.\nYou can see what it means to be able to write a book much more clearly in this example in particular,\nit means Freedom and Power of Mind, falling short is just... Dreaming.\n\nThere is a very powerful kind of book, that perhaps is most important,\nand only a young person, during their youth can write it.\nBrilliant Teenage Minds that made some headway in life,\nwriting advice to their peers, that have unfortunately gotten stuck, or fallen.\nOpening ones heart at a young age, is a very noble thing to do,\nit is a sign of Great Beauty, Compassion and Grand Heroism.\nThose books, must not be judged by adults,\ntheir creators must understand not to judge their creative writing by adult standards.\nAdults are not what they seem, for one;\nand second the people who benefit from those books are teenagers themselves.\nA person who is suffering early in their life,\nis best helped by the words of someone who has recently managed to rise out of similar problems.\nOur youth is the most formative period of our life. Even the smallest of pains spared,\nor littlest of mistakes avoided will have massive and profound influence over us, come our middle age.\n\nWrite,\nwrite when you are young,\nwrite when you are growing up,\nwrite when nobody seems to be listening.\nWrite in the face of Liars,\nwrite in the face pretenders, fakers, manipulators, wannabes, and fake-it-until-you-make-it morons.\nWrite to pull yourself up by your own bootstraps,\nwrite to become a beacon\nwrite to become a light of enlightenment.\nWrite to bring back what has been written a generation before,\nif the story is worth the while, retell it, retell it countless times.\nAnd when you are ready to lay down your pencil for the day,\nread, read it out loud, and record it,\nbecause the light in your voice is worth a million books.\nAnd finally,\nknow what it is all for...\nIt is how the next generation learns from the previous one,\nit is how they win the wars we could only hoped to have won.\nIt is how they become the heroes we hoped to be,\nit is how they save the world, that we can't see.\nWrite, because that's how you! become the hero you hoped to be,\nand because the world belongs to the future generations,\nnot just you and me.\nWrite.\n \nReferences\n[1]: https://www.ted.com/talks/hannah_brencher_love_letters_to_strangers?language=en",
  "images": [],
  "links": [
    {
      "title": "Love Letters to Strangers",
      "url": "https://www.ted.com/talks/hannah_brencher_love_letters_to_strangers?language=en",
      "hostname": "www.ted.com"
    }
  ]
}