{
  "name": "furkies-purrkies-poetry-0559",
  "id": "furkies-purrkies-poetry-0559",
  "title": "Biographies: Stories of Wisdom, and Adventures in Life",
  "date": "2021-09-11T02:04:58.250Z",
  "image": "poetry-0559-illustration.jpg",
  "artwork": "https://unsplash.com/photos/ZpnVeCKf6KM",
  "audio": "poetry-0559.mp3",
  "guid": "fcefd5ae-49a0-4616-a13b-c2499b1e6393",
  "html": "<div class=\"section\">\n  <p>I could see the people who knew High School was fake, or at least trouble,<br>all three principals knew, and the English teacher.</p>\n  <p>The English teacher,<br>tried to pass on a message.</p>\n  <p>He didn’t care about anything but that message, the message was:<br>“<a href=\"https://www.youtube.com/watch?v=0o2Vc_57hSI&t=118s\">The choices we make dictate the life we lead, to thine own self be true.</a>”.</p>\n  <p>The third principal put up an experimental class to try to get a read on us,<br>I was the control sample, that was the semester I dropped out.</p>\n  <p>(I am not 100% sure he became a principal,<br>someone who had his last name was a principal few years ago.)</p>\n  <p>It is good data,<br>I hope he used it.</p>\n  <p>He had another message,<br>“Wherever you go there you are.”</p>\n  <p>This message means that you can’t run away, or move somewhere, or escape something,<br>that the change must come from within.</p>\n  <p>The reason I ended up as the control sample, was because the news class teacher,<br>and let me just say to this day I don’t know what a news class is...</p>\n  <p>Was unstable, presumably attempting to be funny,<br>I am 95% sure he licked his finer and put it in one of the sleeping student’s ear.</p>\n  <p>I needed to leave that class,<br>because it was creepy - I don’t remember what my plan was - but I was exploring the school corridors when the experimental class teacher grabbed me.</p>\n</div>\n<div class=\"section\">\n  <hr>\n</div>\n<div class=\"section\">\n  <p>The class would always open by asking the students how they really feel,<br>and the teacher said, not to say I am fine, becasue that meant f’d-up, insecure, neurotic, and emotional.</p>\n  <p>So the kids would talk about their lives,<br>the assistant psychologist would scribble things in the corner.</p>\n  <p>These were real feelings, real concerns,<br>real experiences.</p>\n  <p>But there was a problem<br>with what the teachers were trying to do.</p>\n  <p>And they were getting corrupted feedback from us,<br>as a result of the problem.</p>\n  <p><a href=\"http://www.sunaurataylor.com/\">Sunaura Taylor</a> has this heartbreaking, powerful, gut wrenching, screaming, work of art,<br>that brings me to tears every time I think about it.</p>\n  <p>That perfectly captures, why they were getting shit data from us,<br>it is part of her “<a href=\"http://www.sunaurataylor.com/portfolio/Factory%20Farms\">Factory Farms</a>” set, entitled “<a href=\"http://www.sunaurataylor.com/portfolio/Factory%20Farms/details/Chicken%20Truck\">Chicken Truck</a>”</p>\n  <p>So, we were reporting how we were doing relative to the world we knew,<br>and the world we knew in High School was pretty sad.</p>\n  <p>In order to report how we were really doing in school, and in life.<br>we needed to know more about life.</p>\n  <p>At the very least... we needed to make weekly trips to the Museum of Contemporary Art, Detroit Historical Museum, Detroit Zoo, Michigan Science Center, Bell Isle Park, ride the People Mover,<br>we needed to be at every performance of the Michigan Opera and Detroit Symphony Orchestra, and never miss a new show at the DIA.</p>\n  <p>The most important thing we needed was a plan out of poverty,<br>meaning we needed help with building our companies.</p>\n  <p>In case this is somehow too new, or too unrealistic,<br>please, please, realize that, the first company the class would have co-founded together, was going to take care of getting students to visit all those places and more - we’d have lectures all around the city.</p>\n  <p>Instead, we were just reporting how we were doing,<br>in Sunaura’s Chicken Truck.</p>\n  <p>We were,<br>F.I.N.E.</p>\n</div>\n<div class=\"section\">\n  <hr>\n</div>\n<div class=\"section\">\n  <p>High School is our first real problem,<br>and not letting it crush us, is our first battle against invisible prison walls.</p>\n  <p>We can push the walls back - well enough,<br>but we can’t see what is outside.</p>\n  <p>We couldn't answer how we were doing,<br>anymore than a person who spent his life in a cubicle could</p>\n</div>\n<div class=\"section\">\n  <hr>\n</div>\n<div class=\"section\">\n  <p>I think we need to be more cautious,<br>about letting other people convince us that they have all the answers.</p>\n  <p>And we need to keep in mind,<br>that some people will not be aware they are hurting us.</p>\n  <p>This is probably what “road to hell is paved with good intentions” means,<br>people being tricked into thinking they are helping.</p>\n  <p>It may not be safe to believe,<br>that schools are going to make the future certain for us.</p>\n  <p>In military <a href=\"https://www.youtube.com/watch?v=xkSh4JCUXro\">the recruiter always lies</a>,<br>there will be no Charger, no Camaro, what you sometimes get is being scared of fireworks for the rest of your life.</p>\n  <p>In science or medicine, even if we set aside the 400,000 yearly deaths from medical errors,<br>getting into science does nothing for Mental Health, Wisdom and Greatness.</p>\n  <p>If schools tried to help us for real,<br>co-founding businesses, constantly reading beautiful biographies would be the first and foremost.</p>\n  <p>And that is what we need to do,<br>set aside the stupid ideas of grades, and that diploma which is made worthless by schools forcing us to memorize like little actors.</p>\n  <p>And we need to focus on building companies,<br>instead of working for them.</p>\n  <p>You can still have your medical carrier,<br>but here you will no longer be discarded when they realize that you can be replaced with two cheaper employees.</p>\n  <p>You can still be a scientist,<br>find your won co-founders, get investors to help you build powerful laboratories.</p>\n</div>\n<div class=\"section\">\n  <hr>\n</div>\n<div class=\"section\">\n  <p>But above all,<br>our education needs to be Real.</p>\n  <p>I know,<br>you are in a chicken truck on this one.</p>\n  <p>It is hard to know what a real education is,<br>but we can get past this, by reading biographies.</p>\n  <p>Biographies are something else,<br>real people, real lives, real struggles and - my goodness - real wisdom.</p>\n  <p>Biographies only sound boring,<br>they are stories of adventure, adventure in life.</p>\n  <p>You should absolutely,<br>start with the stories that interest you.</p>\n  <p>The whole point is to become inspired,<br>and a little bit wiser.</p>\n  <p>The books that people adore that seem uninteresting to you,<br>or maybe seem too hard to read, are actually things you leave for later.</p>\n  <p>Some books may seem confusing the first time you listen to them,<br>but that is only because you are reaching too far, your on-ramp is too steep.</p>\n  <p>For example, before you start reading philosophy,<br>you should read about the philosophers, and then about the work you are trying to read.</p>\n  <p>Or before you get to Shakespeare,<br>you should read everything about him, and then study guides, and kind of like him as a person, or persons as the case may be.</p>\n</div>\n<div class=\"section\">\n  <hr>\n</div>\n<div class=\"section\">\n  <p>Understanding life is important,<br>and it will absolutely help you see where to go next.</p>\n  <p>Biographies, or Stories of Wisdom and Adventures in Life as they should be called,<br>are probably the best way to look outside of high school, outside of all the cages in life.</p>\n  <p>I know we are all extremely intelligent, that we can learn anything,<br>and before we know it we start becoming wise.</p>\n  <p>Learning is about going at your own pace,<br>and learning in a sequence that fit what you already know; that fit you best.</p>\n  <p>Wisdom is about thinking of new solutions, to new problems,<br>by subtle analogy to the things that you know, to the things that you have learned from wise beings.</p>\n  <p>And then beyond Knowledge and Wisdom,<br>is Greatness.</p>\n  <p>Most of the books worth reading,<br>will be written by Great Beings.</p>\n  <p>Great beings are the people that change the world for better,<br>they are the true force that drives the advancement of Human Kind.</p>\n</div>",
  "bootstrap": "<div class=\"card card-section bg-dark text-warning shadow\">\n  <div class=\"section card-body mb-0 my-2\">\n    <div class=\"paragraph card-text card-stanza my-5 text-center\">I could see the people who knew High School was fake, or at least trouble,<br>all three principals knew, and the English teacher.</div>\n    <div class=\"paragraph card-text card-stanza my-5 text-center\">The English teacher,<br>tried to pass on a message.</div>\n    <div class=\"paragraph card-text card-stanza my-5 text-center\">He didn’t care about anything but that message, the message was:<br>“<a href=\"https://www.youtube.com/watch?v=0o2Vc_57hSI&t=118s\">The choices we make dictate the life we lead, to thine own self be true.</a>”.</div>\n    <div class=\"paragraph card-text card-stanza my-5 text-center\">The third principal put up an experimental class to try to get a read on us,<br>I was the control sample, that was the semester I dropped out.</div>\n    <div class=\"paragraph card-text card-stanza my-5 text-center\">(I am not 100% sure he became a principal,<br>someone who had his last name was a principal few years ago.)</div>\n    <div class=\"paragraph card-text card-stanza my-5 text-center\">It is good data,<br>I hope he used it.</div>\n    <div class=\"paragraph card-text card-stanza my-5 text-center\">He had another message,<br>“Wherever you go there you are.”</div>\n    <div class=\"paragraph card-text card-stanza my-5 text-center\">This message means that you can’t run away, or move somewhere, or escape something,<br>that the change must come from within.</div>\n    <div class=\"paragraph card-text card-stanza my-5 text-center\">The reason I ended up as the control sample, was because the news class teacher,<br>and let me just say to this day I don’t know what a news class is...</div>\n    <div class=\"paragraph card-text card-stanza my-5 text-center\">Was unstable, presumably attempting to be funny,<br>I am 95% sure he licked his finer and put it in one of the sleeping student’s ear.</div>\n    <div class=\"paragraph card-text card-stanza my-5 text-center\">I needed to leave that class,<br>because it was creepy - I don’t remember what my plan was - but I was exploring the school corridors when the experimental class teacher grabbed me.</div>\n  </div>\n</div>\n<div class=\"mb-5 section-spacer\">&nbsp;</div>\n<div class=\"card card-section bg-dark text-warning shadow\">\n  <div class=\"section card-body mb-0 my-2\">\n    <div class=\"paragraph card-text card-stanza my-5 text-center\">The class would always open by asking the students how they really feel,<br>and the teacher said, not to say I am fine, becasue that meant f’d-up, insecure, neurotic, and emotional.</div>\n    <div class=\"paragraph card-text card-stanza my-5 text-center\">So the kids would talk about their lives,<br>the assistant psychologist would scribble things in the corner.</div>\n    <div class=\"paragraph card-text card-stanza my-5 text-center\">These were real feelings, real concerns,<br>real experiences.</div>\n    <div class=\"paragraph card-text card-stanza my-5 text-center\">But there was a problem<br>with what the teachers were trying to do.</div>\n    <div class=\"paragraph card-text card-stanza my-5 text-center\">And they were getting corrupted feedback from us,<br>as a result of the problem.</div>\n    <div class=\"paragraph card-text card-stanza my-5 text-center\"><a href=\"http://www.sunaurataylor.com/\">Sunaura Taylor</a> has this heartbreaking, powerful, gut wrenching, screaming, work of art,<br>that brings me to tears every time I think about it.</div>\n    <div class=\"paragraph card-text card-stanza my-5 text-center\">That perfectly captures, why they were getting shit data from us,<br>it is part of her “<a href=\"http://www.sunaurataylor.com/portfolio/Factory%20Farms\">Factory Farms</a>” set, entitled “<a href=\"http://www.sunaurataylor.com/portfolio/Factory%20Farms/details/Chicken%20Truck\">Chicken Truck</a>”</div>\n    <div class=\"paragraph card-text card-stanza my-5 text-center\">So, we were reporting how we were doing relative to the world we knew,<br>and the world we knew in High School was pretty sad.</div>\n    <div class=\"paragraph card-text card-stanza my-5 text-center\">In order to report how we were really doing in school, and in life.<br>we needed to know more about life.</div>\n    <div class=\"paragraph card-text card-stanza my-5 text-center\">At the very least... we needed to make weekly trips to the Museum of Contemporary Art, Detroit Historical Museum, Detroit Zoo, Michigan Science Center, Bell Isle Park, ride the People Mover,<br>we needed to be at every performance of the Michigan Opera and Detroit Symphony Orchestra, and never miss a new show at the DIA.</div>\n    <div class=\"paragraph card-text card-stanza my-5 text-center\">The most important thing we needed was a plan out of poverty,<br>meaning we needed help with building our companies.</div>\n    <div class=\"paragraph card-text card-stanza my-5 text-center\">In case this is somehow too new, or too unrealistic,<br>please, please, realize that, the first company the class would have co-founded together, was going to take care of getting students to visit all those places and more - we’d have lectures all around the city.</div>\n    <div class=\"paragraph card-text card-stanza my-5 text-center\">Instead, we were just reporting how we were doing,<br>in Sunaura’s Chicken Truck.</div>\n    <div class=\"paragraph card-text card-stanza my-5 text-center\">We were,<br>F.I.N.E.</div>\n  </div>\n</div>\n<div class=\"mb-5 section-spacer\">&nbsp;</div>\n<div class=\"card card-section bg-dark text-warning shadow\">\n  <div class=\"section card-body mb-0 my-2\">\n    <div class=\"paragraph card-text card-stanza my-5 text-center\">High School is our first real problem,<br>and not letting it crush us, is our first battle against invisible prison walls.</div>\n    <div class=\"paragraph card-text card-stanza my-5 text-center\">We can push the walls back - well enough,<br>but we can’t see what is outside.</div>\n    <div class=\"paragraph card-text card-stanza my-5 text-center\">We couldn't answer how we were doing,<br>anymore than a person who spent his life in a cubicle could</div>\n  </div>\n</div>\n<div class=\"mb-5 section-spacer\">&nbsp;</div>\n<div class=\"card card-section bg-dark text-warning shadow\">\n  <div class=\"section card-body mb-0 my-2\">\n    <div class=\"paragraph card-text card-stanza my-5 text-center\">I think we need to be more cautious,<br>about letting other people convince us that they have all the answers.</div>\n    <div class=\"paragraph card-text card-stanza my-5 text-center\">And we need to keep in mind,<br>that some people will not be aware they are hurting us.</div>\n    <div class=\"paragraph card-text card-stanza my-5 text-center\">This is probably what “road to hell is paved with good intentions” means,<br>people being tricked into thinking they are helping.</div>\n    <div class=\"paragraph card-text card-stanza my-5 text-center\">It may not be safe to believe,<br>that schools are going to make the future certain for us.</div>\n    <div class=\"paragraph card-text card-stanza my-5 text-center\">In military <a href=\"https://www.youtube.com/watch?v=xkSh4JCUXro\">the recruiter always lies</a>,<br>there will be no Charger, no Camaro, what you sometimes get is being scared of fireworks for the rest of your life.</div>\n    <div class=\"paragraph card-text card-stanza my-5 text-center\">In science or medicine, even if we set aside the 400,000 yearly deaths from medical errors,<br>getting into science does nothing for Mental Health, Wisdom and Greatness.</div>\n    <div class=\"paragraph card-text card-stanza my-5 text-center\">If schools tried to help us for real,<br>co-founding businesses, constantly reading beautiful biographies would be the first and foremost.</div>\n    <div class=\"paragraph card-text card-stanza my-5 text-center\">And that is what we need to do,<br>set aside the stupid ideas of grades, and that diploma which is made worthless by schools forcing us to memorize like little actors.</div>\n    <div class=\"paragraph card-text card-stanza my-5 text-center\">And we need to focus on building companies,<br>instead of working for them.</div>\n    <div class=\"paragraph card-text card-stanza my-5 text-center\">You can still have your medical carrier,<br>but here you will no longer be discarded when they realize that you can be replaced with two cheaper employees.</div>\n    <div class=\"paragraph card-text card-stanza my-5 text-center\">You can still be a scientist,<br>find your won co-founders, get investors to help you build powerful laboratories.</div>\n  </div>\n</div>\n<div class=\"mb-5 section-spacer\">&nbsp;</div>\n<div class=\"card card-section bg-dark text-warning shadow\">\n  <div class=\"section card-body mb-0 my-2\">\n    <div class=\"paragraph card-text card-stanza my-5 text-center\">But above all,<br>our education needs to be Real.</div>\n    <div class=\"paragraph card-text card-stanza my-5 text-center\">I know,<br>you are in a chicken truck on this one.</div>\n    <div class=\"paragraph card-text card-stanza my-5 text-center\">It is hard to know what a real education is,<br>but we can get past this, by reading biographies.</div>\n    <div class=\"paragraph card-text card-stanza my-5 text-center\">Biographies are something else,<br>real people, real lives, real struggles and - my goodness - real wisdom.</div>\n    <div class=\"paragraph card-text card-stanza my-5 text-center\">Biographies only sound boring,<br>they are stories of adventure, adventure in life.</div>\n    <div class=\"paragraph card-text card-stanza my-5 text-center\">You should absolutely,<br>start with the stories that interest you.</div>\n    <div class=\"paragraph card-text card-stanza my-5 text-center\">The whole point is to become inspired,<br>and a little bit wiser.</div>\n    <div class=\"paragraph card-text card-stanza my-5 text-center\">The books that people adore that seem uninteresting to you,<br>or maybe seem too hard to read, are actually things you leave for later.</div>\n    <div class=\"paragraph card-text card-stanza my-5 text-center\">Some books may seem confusing the first time you listen to them,<br>but that is only because you are reaching too far, your on-ramp is too steep.</div>\n    <div class=\"paragraph card-text card-stanza my-5 text-center\">For example, before you start reading philosophy,<br>you should read about the philosophers, and then about the work you are trying to read.</div>\n    <div class=\"paragraph card-text card-stanza my-5 text-center\">Or before you get to Shakespeare,<br>you should read everything about him, and then study guides, and kind of like him as a person, or persons as the case may be.</div>\n  </div>\n</div>\n<div class=\"mb-5 section-spacer\">&nbsp;</div>\n<div class=\"card card-section bg-dark text-warning shadow\">\n  <div class=\"section card-body mb-0 my-2\">\n    <div class=\"paragraph card-text card-stanza my-5 text-center\">Understanding life is important,<br>and it will absolutely help you see where to go next.</div>\n    <div class=\"paragraph card-text card-stanza my-5 text-center\">Biographies, or Stories of Wisdom and Adventures in Life as they should be called,<br>are probably the best way to look outside of high school, outside of all the cages in life.</div>\n    <div class=\"paragraph card-text card-stanza my-5 text-center\">I know we are all extremely intelligent, that we can learn anything,<br>and before we know it we start becoming wise.</div>\n    <div class=\"paragraph card-text card-stanza my-5 text-center\">Learning is about going at your own pace,<br>and learning in a sequence that fit what you already know; that fit you best.</div>\n    <div class=\"paragraph card-text card-stanza my-5 text-center\">Wisdom is about thinking of new solutions, to new problems,<br>by subtle analogy to the things that you know, to the things that you have learned from wise beings.</div>\n    <div class=\"paragraph card-text card-stanza my-5 text-center\">And then beyond Knowledge and Wisdom,<br>is Greatness.</div>\n    <div class=\"paragraph card-text card-stanza my-5 text-center\">Most of the books worth reading,<br>will be written by Great Beings.</div>\n    <div class=\"paragraph card-text card-stanza my-5 text-center\">Great beings are the people that change the world for better,<br>they are the true force that drives the advancement of Human Kind.</div>\n  </div>\n</div>",
  "print": "<div class=\"section avoid-break-inside\" style=\"padding-bottom: 2rem;\">\n  <div class=\"paragraph\">I could see the people who knew High School was fake, or at least trouble,<br>all three principals knew, and the English teacher.</div>\n  <div class=\"paragraph\">The English teacher,<br>tried to pass on a message.</div>\n  <div class=\"paragraph\">He didn’t care about anything but that message, the message was:<br>“<span>The choices we make dictate the life we lead, to thine own self be true.<sup>[1]</sup></span>”.</div>\n  <div class=\"paragraph\">The third principal put up an experimental class to try to get a read on us,<br>I was the control sample, that was the semester I dropped out.</div>\n  <div class=\"paragraph\">(I am not 100% sure he became a principal,<br>someone who had his last name was a principal few years ago.)</div>\n  <div class=\"paragraph\">It is good data,<br>I hope he used it.</div>\n  <div class=\"paragraph\">He had another message,<br>“Wherever you go there you are.”</div>\n  <div class=\"paragraph\">This message means that you can’t run away, or move somewhere, or escape something,<br>that the change must come from within.</div>\n  <div class=\"paragraph\">The reason I ended up as the control sample, was because the news class teacher,<br>and let me just say to this day I don’t know what a news class is...</div>\n  <div class=\"paragraph\">Was unstable, presumably attempting to be funny,<br>I am 95% sure he licked his finer and put it in one of the sleeping student’s ear.</div>\n  <div class=\"paragraph\">I needed to leave that class,<br>because it was creepy - I don’t remember what my plan was - but I was exploring the school corridors when the experimental class teacher grabbed me.</div>\n</div>\n<div class=\"section avoid-break-inside\" style=\"padding-bottom: 2rem;\">\n  <br>\n</div>\n<div class=\"section avoid-break-inside\" style=\"padding-bottom: 2rem;\">\n  <div class=\"paragraph\">The class would always open by asking the students how they really feel,<br>and the teacher said, not to say I am fine, becasue that meant f’d-up, insecure, neurotic, and emotional.</div>\n  <div class=\"paragraph\">So the kids would talk about their lives,<br>the assistant psychologist would scribble things in the corner.</div>\n  <div class=\"paragraph\">These were real feelings, real concerns,<br>real experiences.</div>\n  <div class=\"paragraph\">But there was a problem<br>with what the teachers were trying to do.</div>\n  <div class=\"paragraph\">And they were getting corrupted feedback from us,<br>as a result of the problem.</div>\n  <div class=\"paragraph\"><span>Sunaura Taylor<sup>[2]</sup></span> has this heartbreaking, powerful, gut wrenching, screaming, work of art,<br>that brings me to tears every time I think about it.</div>\n  <div class=\"paragraph\">That perfectly captures, why they were getting shit data from us,<br>it is part of her “<span>Factory Farms<sup>[3]</sup></span>” set, entitled “<span>Chicken Truck<sup>[4]</sup></span>”</div>\n  <div class=\"paragraph\">So, we were reporting how we were doing relative to the world we knew,<br>and the world we knew in High School was pretty sad.</div>\n  <div class=\"paragraph\">In order to report how we were really doing in school, and in life.<br>we needed to know more about life.</div>\n  <div class=\"paragraph\">At the very least... we needed to make weekly trips to the Museum of Contemporary Art, Detroit Historical Museum, Detroit Zoo, Michigan Science Center, Bell Isle Park, ride the People Mover,<br>we needed to be at every performance of the Michigan Opera and Detroit Symphony Orchestra, and never miss a new show at the DIA.</div>\n  <div class=\"paragraph\">The most important thing we needed was a plan out of poverty,<br>meaning we needed help with building our companies.</div>\n  <div class=\"paragraph\">In case this is somehow too new, or too unrealistic,<br>please, please, realize that, the first company the class would have co-founded together, was going to take care of getting students to visit all those places and more - we’d have lectures all around the city.</div>\n  <div class=\"paragraph\">Instead, we were just reporting how we were doing,<br>in Sunaura’s Chicken Truck.</div>\n  <div class=\"paragraph\">We were,<br>F.I.N.E.</div>\n</div>\n<div class=\"section avoid-break-inside\" style=\"padding-bottom: 2rem;\">\n  <br>\n</div>\n<div class=\"section avoid-break-inside\" style=\"padding-bottom: 2rem;\">\n  <div class=\"paragraph\">High School is our first real problem,<br>and not letting it crush us, is our first battle against invisible prison walls.</div>\n  <div class=\"paragraph\">We can push the walls back - well enough,<br>but we can’t see what is outside.</div>\n  <div class=\"paragraph\">We couldn't answer how we were doing,<br>anymore than a person who spent his life in a cubicle could</div>\n</div>\n<div class=\"section avoid-break-inside\" style=\"padding-bottom: 2rem;\">\n  <br>\n</div>\n<div class=\"section avoid-break-inside\" style=\"padding-bottom: 2rem;\">\n  <div class=\"paragraph\">I think we need to be more cautious,<br>about letting other people convince us that they have all the answers.</div>\n  <div class=\"paragraph\">And we need to keep in mind,<br>that some people will not be aware they are hurting us.</div>\n  <div class=\"paragraph\">This is probably what “road to hell is paved with good intentions” means,<br>people being tricked into thinking they are helping.</div>\n  <div class=\"paragraph\">It may not be safe to believe,<br>that schools are going to make the future certain for us.</div>\n  <div class=\"paragraph\">In military <span>the recruiter always lies<sup>[5]</sup></span>,<br>there will be no Charger, no Camaro, what you sometimes get is being scared of fireworks for the rest of your life.</div>\n  <div class=\"paragraph\">In science or medicine, even if we set aside the 400,000 yearly deaths from medical errors,<br>getting into science does nothing for Mental Health, Wisdom and Greatness.</div>\n  <div class=\"paragraph\">If schools tried to help us for real,<br>co-founding businesses, constantly reading beautiful biographies would be the first and foremost.</div>\n  <div class=\"paragraph\">And that is what we need to do,<br>set aside the stupid ideas of grades, and that diploma which is made worthless by schools forcing us to memorize like little actors.</div>\n  <div class=\"paragraph\">And we need to focus on building companies,<br>instead of working for them.</div>\n  <div class=\"paragraph\">You can still have your medical carrier,<br>but here you will no longer be discarded when they realize that you can be replaced with two cheaper employees.</div>\n  <div class=\"paragraph\">You can still be a scientist,<br>find your won co-founders, get investors to help you build powerful laboratories.</div>\n</div>\n<div class=\"section avoid-break-inside\" style=\"padding-bottom: 2rem;\">\n  <br>\n</div>\n<div class=\"section avoid-break-inside\" style=\"padding-bottom: 2rem;\">\n  <div class=\"paragraph\">But above all,<br>our education needs to be Real.</div>\n  <div class=\"paragraph\">I know,<br>you are in a chicken truck on this one.</div>\n  <div class=\"paragraph\">It is hard to know what a real education is,<br>but we can get past this, by reading biographies.</div>\n  <div class=\"paragraph\">Biographies are something else,<br>real people, real lives, real struggles and - my goodness - real wisdom.</div>\n  <div class=\"paragraph\">Biographies only sound boring,<br>they are stories of adventure, adventure in life.</div>\n  <div class=\"paragraph\">You should absolutely,<br>start with the stories that interest you.</div>\n  <div class=\"paragraph\">The whole point is to become inspired,<br>and a little bit wiser.</div>\n  <div class=\"paragraph\">The books that people adore that seem uninteresting to you,<br>or maybe seem too hard to read, are actually things you leave for later.</div>\n  <div class=\"paragraph\">Some books may seem confusing the first time you listen to them,<br>but that is only because you are reaching too far, your on-ramp is too steep.</div>\n  <div class=\"paragraph\">For example, before you start reading philosophy,<br>you should read about the philosophers, and then about the work you are trying to read.</div>\n  <div class=\"paragraph\">Or before you get to Shakespeare,<br>you should read everything about him, and then study guides, and kind of like him as a person, or persons as the case may be.</div>\n</div>\n<div class=\"section avoid-break-inside\" style=\"padding-bottom: 2rem;\">\n  <br>\n</div>\n<div class=\"section avoid-break-inside\" style=\"padding-bottom: 2rem;\">\n  <div class=\"paragraph\">Understanding life is important,<br>and it will absolutely help you see where to go next.</div>\n  <div class=\"paragraph\">Biographies, or Stories of Wisdom and Adventures in Life as they should be called,<br>are probably the best way to look outside of high school, outside of all the cages in life.</div>\n  <div class=\"paragraph\">I know we are all extremely intelligent, that we can learn anything,<br>and before we know it we start becoming wise.</div>\n  <div class=\"paragraph\">Learning is about going at your own pace,<br>and learning in a sequence that fit what you already know; that fit you best.</div>\n  <div class=\"paragraph\">Wisdom is about thinking of new solutions, to new problems,<br>by subtle analogy to the things that you know, to the things that you have learned from wise beings.</div>\n  <div class=\"paragraph\">And then beyond Knowledge and Wisdom,<br>is Greatness.</div>\n  <div class=\"paragraph\">Most of the books worth reading,<br>will be written by Great Beings.</div>\n  <div class=\"paragraph\">Great beings are the people that change the world for better,<br>they are the true force that drives the advancement of Human Kind.</div>\n</div>\n<div class=\"break-after\">&nbsp;</div>\n<div>\n  <div class=\"section\" style=\"padding-bottom: 1rem;\">References</div>\n  <div>[1]: https://www.youtube.com/watch?v=0o2Vc_57hSI&t=118s</div>\n  <div>[2]: http://www.sunaurataylor.com/</div>\n  <div>[3]: http://www.sunaurataylor.com/portfolio/Factory%20Farms</div>\n  <div>[4]: http://www.sunaurataylor.com/portfolio/Factory%20Farms/details/Chicken%20Truck</div>\n  <div>[5]: https://www.youtube.com/watch?v=xkSh4JCUXro</div>\n</div>",
  "text": "I could see the people who knew High School was fake, or at least trouble,\nall three principals knew, and the English teacher.\nThe English teacher,\ntried to pass on a message.\nHe didn’t care about anything but that message, the message was:\n“The choices we make dictate the life we lead, to thine own self be true.[1]”.\nThe third principal put up an experimental class to try to get a read on us,\nI was the control sample, that was the semester I dropped out.\n(I am not 100% sure he became a principal,\nsomeone who had his last name was a principal few years ago.)\nIt is good data,\nI hope he used it.\nHe had another message,\n“Wherever you go there you are.”\nThis message means that you can’t run away, or move somewhere, or escape something,\nthat the change must come from within.\nThe reason I ended up as the control sample, was because the news class teacher,\nand let me just say to this day I don’t know what a news class is...\nWas unstable, presumably attempting to be funny,\nI am 95% sure he licked his finer and put it in one of the sleeping student’s ear.\nI needed to leave that class,\nbecause it was creepy - I don’t remember what my plan was - but I was exploring the school corridors when the experimental class teacher grabbed me.\n\nThe class would always open by asking the students how they really feel,\nand the teacher said, not to say I am fine, becasue that meant f’d-up, insecure, neurotic, and emotional.\nSo the kids would talk about their lives,\nthe assistant psychologist would scribble things in the corner.\nThese were real feelings, real concerns,\nreal experiences.\nBut there was a problem\nwith what the teachers were trying to do.\nAnd they were getting corrupted feedback from us,\nas a result of the problem.\nSunaura Taylor[2] has this heartbreaking, powerful, gut wrenching, screaming, work of art,\nthat brings me to tears every time I think about it.\nThat perfectly captures, why they were getting shit data from us,\nit is part of her “Factory Farms[3]” set, entitled “Chicken Truck[4]”\nSo, we were reporting how we were doing relative to the world we knew,\nand the world we knew in High School was pretty sad.\nIn order to report how we were really doing in school, and in life.\nwe needed to know more about life.\nAt the very least... we needed to make weekly trips to the Museum of Contemporary Art, Detroit Historical Museum, Detroit Zoo, Michigan Science Center, Bell Isle Park, ride the People Mover,\nwe needed to be at every performance of the Michigan Opera and Detroit Symphony Orchestra, and never miss a new show at the DIA.\nThe most important thing we needed was a plan out of poverty,\nmeaning we needed help with building our companies.\nIn case this is somehow too new, or too unrealistic,\nplease, please, realize that, the first company the class would have co-founded together, was going to take care of getting students to visit all those places and more - we’d have lectures all around the city.\nInstead, we were just reporting how we were doing,\nin Sunaura’s Chicken Truck.\nWe were,\nF.I.N.E.\n\nHigh School is our first real problem,\nand not letting it crush us, is our first battle against invisible prison walls.\nWe can push the walls back - well enough,\nbut we can’t see what is outside.\nWe couldn't answer how we were doing,\nanymore than a person who spent his life in a cubicle could\n\nI think we need to be more cautious,\nabout letting other people convince us that they have all the answers.\nAnd we need to keep in mind,\nthat some people will not be aware they are hurting us.\nThis is probably what “road to hell is paved with good intentions” means,\npeople being tricked into thinking they are helping.\nIt may not be safe to believe,\nthat schools are going to make the future certain for us.\nIn military the recruiter always lies[5],\nthere will be no Charger, no Camaro, what you sometimes get is being scared of fireworks for the rest of your life.\nIn science or medicine, even if we set aside the 400,000 yearly deaths from medical errors,\ngetting into science does nothing for Mental Health, Wisdom and Greatness.\nIf schools tried to help us for real,\nco-founding businesses, constantly reading beautiful biographies would be the first and foremost.\nAnd that is what we need to do,\nset aside the stupid ideas of grades, and that diploma which is made worthless by schools forcing us to memorize like little actors.\nAnd we need to focus on building companies,\ninstead of working for them.\nYou can still have your medical carrier,\nbut here you will no longer be discarded when they realize that you can be replaced with two cheaper employees.\nYou can still be a scientist,\nfind your won co-founders, get investors to help you build powerful laboratories.\n\nBut above all,\nour education needs to be Real.\nI know,\nyou are in a chicken truck on this one.\nIt is hard to know what a real education is,\nbut we can get past this, by reading biographies.\nBiographies are something else,\nreal people, real lives, real struggles and - my goodness - real wisdom.\nBiographies only sound boring,\nthey are stories of adventure, adventure in life.\nYou should absolutely,\nstart with the stories that interest you.\nThe whole point is to become inspired,\nand a little bit wiser.\nThe books that people adore that seem uninteresting to you,\nor maybe seem too hard to read, are actually things you leave for later.\nSome books may seem confusing the first time you listen to them,\nbut that is only because you are reaching too far, your on-ramp is too steep.\nFor example, before you start reading philosophy,\nyou should read about the philosophers, and then about the work you are trying to read.\nOr before you get to Shakespeare,\nyou should read everything about him, and then study guides, and kind of like him as a person, or persons as the case may be.\n\nUnderstanding life is important,\nand it will absolutely help you see where to go next.\nBiographies, or Stories of Wisdom and Adventures in Life as they should be called,\nare probably the best way to look outside of high school, outside of all the cages in life.\nI know we are all extremely intelligent, that we can learn anything,\nand before we know it we start becoming wise.\nLearning is about going at your own pace,\nand learning in a sequence that fit what you already know; that fit you best.\nWisdom is about thinking of new solutions, to new problems,\nby subtle analogy to the things that you know, to the things that you have learned from wise beings.\nAnd then beyond Knowledge and Wisdom,\nis Greatness.\nMost of the books worth reading,\nwill be written by Great Beings.\nGreat beings are the people that change the world for better,\nthey are the true force that drives the advancement of Human Kind.\n \nReferences\n[1]: https://www.youtube.com/watch?v=0o2Vc_57hSI&t=118s\n[2]: http://www.sunaurataylor.com/\n[3]: http://www.sunaurataylor.com/portfolio/Factory%20Farms\n[4]: http://www.sunaurataylor.com/portfolio/Factory%20Farms/details/Chicken%20Truck\n[5]: https://www.youtube.com/watch?v=xkSh4JCUXro",
  "images": [],
  "links": [
    {
      "title": "The choices we make dictate the life we lead, to thine own self be true.",
      "url": "https://www.youtube.com/watch?v=0o2Vc_57hSI&t=118s",
      "hostname": "www.youtube.com"
    },
    {
      "title": "Sunaura Taylor",
      "url": "http://www.sunaurataylor.com/",
      "hostname": "www.sunaurataylor.com"
    },
    {
      "title": "Factory Farms",
      "url": "http://www.sunaurataylor.com/portfolio/Factory%20Farms",
      "hostname": "www.sunaurataylor.com"
    },
    {
      "title": "Chicken Truck",
      "url": "http://www.sunaurataylor.com/portfolio/Factory%20Farms/details/Chicken%20Truck",
      "hostname": "www.sunaurataylor.com"
    },
    {
      "title": "the recruiter always lies",
      "url": "https://www.youtube.com/watch?v=xkSh4JCUXro",
      "hostname": "www.youtube.com"
    }
  ]
}