{
  "title": "Live Wisely And Beautifully",
  "date": "2020-07-24T02:38:13.341Z",
  "image": "poetry-0145-illustration.jpg",
  "audio": "poetry-0145.mp3",
  "id": "furkies-purrkies-poetry-0145",
  "attachments": {},
  "guid": "ad06b4fc-bbcd-4f7c-b3dd-9ab6bd157fe4"
}
