{
  "id": "furkies-purrkies-poetry-0753",
  "title": "Hyperrealism, A Teacher And A Protector",
  "date": "2022-03-24T01:31:17.412Z",
  "image": "poetry-0753-illustration.jpg",
  "artwork": "https://unsplash.com/photos/64-oWIvxE8I",
  "audio": "poetry-0753.mp3",
  "guid": "eae20545-9b7a-4163-bd90-2b71131fb613"
}
