{
  "id": "furkies-purrkies-poetry-0764",
  "title": "Pad De Deux: Magically Unfinished",
  "date": "2022-04-03T19:48:59.505Z",
  "image": "poetry-0764-illustration.jpg",
  "artwork": "https://catpea.com",
  "audio": "poetry-0764.mp3",
  "guid": "723d4d9b-145d-4a64-97a9-b09cf3454574"
}
