{
  "name": "furkies-purrkies-poetry-0473",
  "title": "Deer: The Happy Little Horses",
  "date": "2021-06-17T01:36:52.055Z",
  "image": "poetry-0473-illustration.jpg",
  "audio": "poetry-0473.mp3",
  "artwork": "https://catpea.com/",
  "id": "furkies-purrkies-poetry-0473",
  "attachments": {},
  "guid": "3ed67e88-019c-4bd6-8b0b-a00c7a078a5a",
  "html": "<div class=\"section\">\n  <p>There is no normal way</p>\n  <p>to say:</p>\n</div>\n\n<div class=\"section\">\n  <p>To me, of course,</p>\n  <p>a Deer is like a little horse.</p>\n</div>\n\n<div class=\"section\">\n  <p>Since I like them a lot,</p>\n  <p>I had a wonderful thought.</p>\n</div>\n\n<div class=\"section\">\n  <p>I&apos;d grab my phone and go,</p>\n  <p>take a photo.</p>\n</div>\n\n<div class=\"section\">\n  <hr>\n</div>\n\n<div class=\"section\">\n  <p>I had to bicycle from my driveway,</p>\n  <p>all the way out to the highway.</p>\n</div>\n\n<div class=\"section\">\n  <p>And since they eat dinner at eight,</p>\n  <p>I had to hurry as not to be late.</p>\n</div>\n\n<div class=\"section\">\n  <hr>\n</div>\n\n<div class=\"section\">\n  <p>(read super fast)</p>\n</div>\n\n<div class=\"section\">\n  <p>I arrived just on time,</p>\n  <p>hit the brake, stopped on a dime.</p>\n</div>\n\n<div class=\"section\">\n  <p>Got my phone out,</p>\n  <p>did a little turnabout.</p>\n</div>\n\n<div class=\"section\">\n  <p>And click... click, click, click,</p>\n  <p>didn&apos;t even need a selfie stick.</p>\n</div>\n\n<div class=\"section\">\n  <hr>\n</div>\n\n<div class=\"section\">\n  <p>Say hello,</p>\n  <p>perfect photo.</p>\n</div>\n\n<div class=\"section\">\n  <p>And I took a few more,</p>\n  <p>just to be sure.</p>\n</div>\n\n<div class=\"section\">\n  <p>I really had a ball,</p>\n  <p>so decided I&apos;d upload them all.</p>\n</div>\n\n<div class=\"section\">\n  <hr>\n</div>\n\n<div class=\"section\">\n  <p>On my way back,</p>\n  <p>I had a little snack.</p>\n</div>\n\n<div class=\"section\">\n  <p>And pondered my rhyme,</p>\n  <p>to finish my poem on time.</p>\n</div>\n\n<div class=\"section\">\n  <p>I rate my adventure as ten out of ten,</p>\n  <p>&quot;will do again&quot;</p>\n</div>\n\n\n<div class=\"section\"> <a href=\"/image/xl-poetry-0473-photo-01.jpg\" title=\"Stopped By Rest Area For A Snack\"><img src=\"/image/poetry-0473-photo-01.jpg\" class=\"rounded mx-auto d-block\" alt=\"Stopped By Rest Area For A Snack\"></a> </div>\n<div class=\"section\"> <a href=\"/image/xl-poetry-0473-photo-02.jpg\" title=\"Selfie Numero Uno\"><img src=\"/image/poetry-0473-photo-02.jpg\" class=\"rounded mx-auto d-block\" alt=\"Selfie Numero Uno\"></a> </div>\n<div class=\"section\"> <a href=\"/image/xl-poetry-0473-photo-03.jpg\" title=\"Selfie Numero Dos\"><img src=\"/image/poetry-0473-photo-03.jpg\" class=\"rounded mx-auto d-block\" alt=\"Selfie Numero Dos\"></a> </div>\n<div class=\"section\"> <a href=\"/image/xl-poetry-0473-photo-04.jpg\" title=\"My Hair Tail\"><img src=\"/image/poetry-0473-photo-04.jpg\" class=\"rounded mx-auto d-block\" alt=\"My Hair Tail\"></a> </div>\n<div class=\"section\"> <a href=\"/image/xl-poetry-0473-photo-05.jpg\" title=\"Out Of Freaking Control\"><img src=\"/image/poetry-0473-photo-05.jpg\" class=\"rounded mx-auto d-block\" alt=\"Out Of Freaking Control\"></a> </div>\n<div class=\"section\"> <a href=\"/image/xl-poetry-0473-photo-06.jpg\" title=\"Selfie Numero Tres\"><img src=\"/image/poetry-0473-photo-06.jpg\" class=\"rounded mx-auto d-block\" alt=\"Selfie Numero Tres\"></a> </div>\n<div class=\"section\"> <a href=\"/image/xl-poetry-0473-photo-07.jpg\" title=\"Selfie Numero Quatro\"><img src=\"/image/poetry-0473-photo-07.jpg\" class=\"rounded mx-auto d-block\" alt=\"Selfie Numero Quatro\"></a> </div>\n<div class=\"section\"> <a href=\"/image/xl-poetry-0473-photo-08.jpg\" title=\"Whoo Whoo Found Happy Horseys\"><img src=\"/image/poetry-0473-photo-08.jpg\" class=\"rounded mx-auto d-block\" alt=\"Whoo Whoo Found Happy Horseys\"></a> </div>\n<div class=\"section\"> <a href=\"/image/xl-poetry-0473-photo-09.jpg\" title=\"Happy Horses\"><img src=\"/image/poetry-0473-photo-09.jpg\" class=\"rounded mx-auto d-block\" alt=\"Happy Horses\"></a> </div>\n<div class=\"section\"> <a href=\"/image/xl-poetry-0473-photo-10.jpg\" title=\"They Can See Me\"><img src=\"/image/poetry-0473-photo-10.jpg\" class=\"rounded mx-auto d-block\" alt=\"They Can See Me\"></a> </div>\n<div class=\"section\"> <a href=\"/image/xl-poetry-0473-photo-11.jpg\" title=\"Attempting To Send Duck Face To Happy Horses\"><img src=\"/image/poetry-0473-photo-11.jpg\" class=\"rounded mx-auto d-block\" alt=\"Attempting To Send Duck Face To Happy Horses\"></a> </div>\n<div class=\"section\"> <a href=\"/image/xl-poetry-0473-photo-12.jpg\" title=\"Myyy Haaaaappy Horseeeees\"><img src=\"/image/poetry-0473-photo-12.jpg\" class=\"rounded mx-auto d-block\" alt=\"Myyy Haaaaappy Horseeeees\"></a> </div>",
  "bootstrap": "<div class=\"card card-section bg-dark text-warning shadow\">\n  <div class=\"section card-body mb-0 my-2\">\n    <div class=\"paragraph card-text card-stanza my-5 text-center\">There is no normal way</div>\n    <div class=\"paragraph card-text card-stanza my-5 text-center\">to say:</div>\n  </div>\n</div>\n<div class=\"card card-section bg-dark text-warning shadow\">\n  <div class=\"section card-body mb-0 my-2\">\n    <div class=\"paragraph card-text card-stanza my-5 text-center\">To me, of course,</div>\n    <div class=\"paragraph card-text card-stanza my-5 text-center\">a Deer is like a little horse.</div>\n  </div>\n</div>\n<div class=\"card card-section bg-dark text-warning shadow\">\n  <div class=\"section card-body mb-0 my-2\">\n    <div class=\"paragraph card-text card-stanza my-5 text-center\">Since I like them a lot,</div>\n    <div class=\"paragraph card-text card-stanza my-5 text-center\">I had a wonderful thought.</div>\n  </div>\n</div>\n<div class=\"card card-section bg-dark text-warning shadow\">\n  <div class=\"section card-body mb-0 my-2\">\n    <div class=\"paragraph card-text card-stanza my-5 text-center\">I'd grab my phone and go,</div>\n    <div class=\"paragraph card-text card-stanza my-5 text-center\">take a photo.</div>\n  </div>\n</div>\n<div class=\"mb-5 section-spacer\">&nbsp;</div>\n<div class=\"card card-section bg-dark text-warning shadow\">\n  <div class=\"section card-body mb-0 my-2\">\n    <div class=\"paragraph card-text card-stanza my-5 text-center\">I had to bicycle from my driveway,</div>\n    <div class=\"paragraph card-text card-stanza my-5 text-center\">all the way out to the highway.</div>\n  </div>\n</div>\n<div class=\"card card-section bg-dark text-warning shadow\">\n  <div class=\"section card-body mb-0 my-2\">\n    <div class=\"paragraph card-text card-stanza my-5 text-center\">And since they eat dinner at eight,</div>\n    <div class=\"paragraph card-text card-stanza my-5 text-center\">I had to hurry as not to be late.</div>\n  </div>\n</div>\n<div class=\"mb-5 section-spacer\">&nbsp;</div>\n<div class=\"card card-section bg-dark text-warning shadow\">\n  <div class=\"section card-body mb-0 my-2\">\n    <div class=\"paragraph card-text card-stanza my-5 text-center\">(read super fast)</div>\n  </div>\n</div>\n<div class=\"card card-section bg-dark text-warning shadow\">\n  <div class=\"section card-body mb-0 my-2\">\n    <div class=\"paragraph card-text card-stanza my-5 text-center\">I arrived just on time,</div>\n    <div class=\"paragraph card-text card-stanza my-5 text-center\">hit the brake, stopped on a dime.</div>\n  </div>\n</div>\n<div class=\"card card-section bg-dark text-warning shadow\">\n  <div class=\"section card-body mb-0 my-2\">\n    <div class=\"paragraph card-text card-stanza my-5 text-center\">Got my phone out,</div>\n    <div class=\"paragraph card-text card-stanza my-5 text-center\">did a little turnabout.</div>\n  </div>\n</div>\n<div class=\"card card-section bg-dark text-warning shadow\">\n  <div class=\"section card-body mb-0 my-2\">\n    <div class=\"paragraph card-text card-stanza my-5 text-center\">And click... click, click, click,</div>\n    <div class=\"paragraph card-text card-stanza my-5 text-center\">didn't even need a selfie stick.</div>\n  </div>\n</div>\n<div class=\"mb-5 section-spacer\">&nbsp;</div>\n<div class=\"card card-section bg-dark text-warning shadow\">\n  <div class=\"section card-body mb-0 my-2\">\n    <div class=\"paragraph card-text card-stanza my-5 text-center\">Say hello,</div>\n    <div class=\"paragraph card-text card-stanza my-5 text-center\">perfect photo.</div>\n  </div>\n</div>\n<div class=\"card card-section bg-dark text-warning shadow\">\n  <div class=\"section card-body mb-0 my-2\">\n    <div class=\"paragraph card-text card-stanza my-5 text-center\">And I took a few more,</div>\n    <div class=\"paragraph card-text card-stanza my-5 text-center\">just to be sure.</div>\n  </div>\n</div>\n<div class=\"card card-section bg-dark text-warning shadow\">\n  <div class=\"section card-body mb-0 my-2\">\n    <div class=\"paragraph card-text card-stanza my-5 text-center\">I really had a ball,</div>\n    <div class=\"paragraph card-text card-stanza my-5 text-center\">so decided I'd upload them all.</div>\n  </div>\n</div>\n<div class=\"mb-5 section-spacer\">&nbsp;</div>\n<div class=\"card card-section bg-dark text-warning shadow\">\n  <div class=\"section card-body mb-0 my-2\">\n    <div class=\"paragraph card-text card-stanza my-5 text-center\">On my way back,</div>\n    <div class=\"paragraph card-text card-stanza my-5 text-center\">I had a little snack.</div>\n  </div>\n</div>\n<div class=\"card card-section bg-dark text-warning shadow\">\n  <div class=\"section card-body mb-0 my-2\">\n    <div class=\"paragraph card-text card-stanza my-5 text-center\">And pondered my rhyme,</div>\n    <div class=\"paragraph card-text card-stanza my-5 text-center\">to finish my poem on time.</div>\n  </div>\n</div>\n<div class=\"card card-section bg-dark text-warning shadow\">\n  <div class=\"section card-body mb-0 my-2\">\n    <div class=\"paragraph card-text card-stanza my-5 text-center\">I rate my adventure as ten out of ten,</div>\n    <div class=\"paragraph card-text card-stanza my-5 text-center\">\"will do again\"</div>\n  </div>\n</div>\n<div class=\"card card-section bg-dark text-warning shadow\">\n  <div class=\"section card-body mb-0 my-2\"> <a href=\"/image/xl-poetry-0473-photo-01.jpg\" title=\"Stopped By Rest Area For A Snack\"><img src=\"/image/poetry-0473-photo-01.jpg\" class=\"rounded mx-auto d-block w-100\" alt=\"Stopped By Rest Area For A Snack\"></a> </div>\n</div>\n<div class=\"card card-section bg-dark text-warning shadow\">\n  <div class=\"section card-body mb-0 my-2\"> <a href=\"/image/xl-poetry-0473-photo-02.jpg\" title=\"Selfie Numero Uno\"><img src=\"/image/poetry-0473-photo-02.jpg\" class=\"rounded mx-auto d-block w-100\" alt=\"Selfie Numero Uno\"></a> </div>\n</div>\n<div class=\"card card-section bg-dark text-warning shadow\">\n  <div class=\"section card-body mb-0 my-2\"> <a href=\"/image/xl-poetry-0473-photo-03.jpg\" title=\"Selfie Numero Dos\"><img src=\"/image/poetry-0473-photo-03.jpg\" class=\"rounded mx-auto d-block w-100\" alt=\"Selfie Numero Dos\"></a> </div>\n</div>\n<div class=\"card card-section bg-dark text-warning shadow\">\n  <div class=\"section card-body mb-0 my-2\"> <a href=\"/image/xl-poetry-0473-photo-04.jpg\" title=\"My Hair Tail\"><img src=\"/image/poetry-0473-photo-04.jpg\" class=\"rounded mx-auto d-block w-100\" alt=\"My Hair Tail\"></a> </div>\n</div>\n<div class=\"card card-section bg-dark text-warning shadow\">\n  <div class=\"section card-body mb-0 my-2\"> <a href=\"/image/xl-poetry-0473-photo-05.jpg\" title=\"Out Of Freaking Control\"><img src=\"/image/poetry-0473-photo-05.jpg\" class=\"rounded mx-auto d-block w-100\" alt=\"Out Of Freaking Control\"></a> </div>\n</div>\n<div class=\"card card-section bg-dark text-warning shadow\">\n  <div class=\"section card-body mb-0 my-2\"> <a href=\"/image/xl-poetry-0473-photo-06.jpg\" title=\"Selfie Numero Tres\"><img src=\"/image/poetry-0473-photo-06.jpg\" class=\"rounded mx-auto d-block w-100\" alt=\"Selfie Numero Tres\"></a> </div>\n</div>\n<div class=\"card card-section bg-dark text-warning shadow\">\n  <div class=\"section card-body mb-0 my-2\"> <a href=\"/image/xl-poetry-0473-photo-07.jpg\" title=\"Selfie Numero Quatro\"><img src=\"/image/poetry-0473-photo-07.jpg\" class=\"rounded mx-auto d-block w-100\" alt=\"Selfie Numero Quatro\"></a> </div>\n</div>\n<div class=\"card card-section bg-dark text-warning shadow\">\n  <div class=\"section card-body mb-0 my-2\"> <a href=\"/image/xl-poetry-0473-photo-08.jpg\" title=\"Whoo Whoo Found Happy Horseys\"><img src=\"/image/poetry-0473-photo-08.jpg\" class=\"rounded mx-auto d-block w-100\" alt=\"Whoo Whoo Found Happy Horseys\"></a> </div>\n</div>\n<div class=\"card card-section bg-dark text-warning shadow\">\n  <div class=\"section card-body mb-0 my-2\"> <a href=\"/image/xl-poetry-0473-photo-09.jpg\" title=\"Happy Horses\"><img src=\"/image/poetry-0473-photo-09.jpg\" class=\"rounded mx-auto d-block w-100\" alt=\"Happy Horses\"></a> </div>\n</div>\n<div class=\"card card-section bg-dark text-warning shadow\">\n  <div class=\"section card-body mb-0 my-2\"> <a href=\"/image/xl-poetry-0473-photo-10.jpg\" title=\"They Can See Me\"><img src=\"/image/poetry-0473-photo-10.jpg\" class=\"rounded mx-auto d-block w-100\" alt=\"They Can See Me\"></a> </div>\n</div>\n<div class=\"card card-section bg-dark text-warning shadow\">\n  <div class=\"section card-body mb-0 my-2\"> <a href=\"/image/xl-poetry-0473-photo-11.jpg\" title=\"Attempting To Send Duck Face To Happy Horses\"><img src=\"/image/poetry-0473-photo-11.jpg\" class=\"rounded mx-auto d-block w-100\" alt=\"Attempting To Send Duck Face To Happy Horses\"></a> </div>\n</div>\n<div class=\"card card-section bg-dark text-warning shadow\">\n  <div class=\"section card-body mb-0 my-2\"> <a href=\"/image/xl-poetry-0473-photo-12.jpg\" title=\"Myyy Haaaaappy Horseeeees\"><img src=\"/image/poetry-0473-photo-12.jpg\" class=\"rounded mx-auto d-block w-100\" alt=\"Myyy Haaaaappy Horseeeees\"></a> </div>\n</div>",
  "print": "<div class=\"section avoid-break-inside\" style=\"padding-bottom: 2rem;\">\n  <div class=\"paragraph\">There is no normal way</div>\n  <div class=\"paragraph\">to say:</div>\n</div>\n<div class=\"section avoid-break-inside\" style=\"padding-bottom: 2rem;\">\n  <div class=\"paragraph\">To me, of course,</div>\n  <div class=\"paragraph\">a Deer is like a little horse.</div>\n</div>\n<div class=\"section avoid-break-inside\" style=\"padding-bottom: 2rem;\">\n  <div class=\"paragraph\">Since I like them a lot,</div>\n  <div class=\"paragraph\">I had a wonderful thought.</div>\n</div>\n<div class=\"section avoid-break-inside\" style=\"padding-bottom: 2rem;\">\n  <div class=\"paragraph\">I'd grab my phone and go,</div>\n  <div class=\"paragraph\">take a photo.</div>\n</div>\n<div class=\"section avoid-break-inside\" style=\"padding-bottom: 2rem;\">\n  <br>\n</div>\n<div class=\"section avoid-break-inside\" style=\"padding-bottom: 2rem;\">\n  <div class=\"paragraph\">I had to bicycle from my driveway,</div>\n  <div class=\"paragraph\">all the way out to the highway.</div>\n</div>\n<div class=\"section avoid-break-inside\" style=\"padding-bottom: 2rem;\">\n  <div class=\"paragraph\">And since they eat dinner at eight,</div>\n  <div class=\"paragraph\">I had to hurry as not to be late.</div>\n</div>\n<div class=\"section avoid-break-inside\" style=\"padding-bottom: 2rem;\">\n  <br>\n</div>\n<div class=\"section avoid-break-inside\" style=\"padding-bottom: 2rem;\">\n  <div class=\"paragraph\">(read super fast)</div>\n</div>\n<div class=\"section avoid-break-inside\" style=\"padding-bottom: 2rem;\">\n  <div class=\"paragraph\">I arrived just on time,</div>\n  <div class=\"paragraph\">hit the brake, stopped on a dime.</div>\n</div>\n<div class=\"section avoid-break-inside\" style=\"padding-bottom: 2rem;\">\n  <div class=\"paragraph\">Got my phone out,</div>\n  <div class=\"paragraph\">did a little turnabout.</div>\n</div>\n<div class=\"section avoid-break-inside\" style=\"padding-bottom: 2rem;\">\n  <div class=\"paragraph\">And click... click, click, click,</div>\n  <div class=\"paragraph\">didn't even need a selfie stick.</div>\n</div>\n<div class=\"section avoid-break-inside\" style=\"padding-bottom: 2rem;\">\n  <br>\n</div>\n<div class=\"section avoid-break-inside\" style=\"padding-bottom: 2rem;\">\n  <div class=\"paragraph\">Say hello,</div>\n  <div class=\"paragraph\">perfect photo.</div>\n</div>\n<div class=\"section avoid-break-inside\" style=\"padding-bottom: 2rem;\">\n  <div class=\"paragraph\">And I took a few more,</div>\n  <div class=\"paragraph\">just to be sure.</div>\n</div>\n<div class=\"section avoid-break-inside\" style=\"padding-bottom: 2rem;\">\n  <div class=\"paragraph\">I really had a ball,</div>\n  <div class=\"paragraph\">so decided I'd upload them all.</div>\n</div>\n<div class=\"section avoid-break-inside\" style=\"padding-bottom: 2rem;\">\n  <br>\n</div>\n<div class=\"section avoid-break-inside\" style=\"padding-bottom: 2rem;\">\n  <div class=\"paragraph\">On my way back,</div>\n  <div class=\"paragraph\">I had a little snack.</div>\n</div>\n<div class=\"section avoid-break-inside\" style=\"padding-bottom: 2rem;\">\n  <div class=\"paragraph\">And pondered my rhyme,</div>\n  <div class=\"paragraph\">to finish my poem on time.</div>\n</div>\n<div class=\"section avoid-break-inside\" style=\"padding-bottom: 2rem;\">\n  <div class=\"paragraph\">I rate my adventure as ten out of ten,</div>\n  <div class=\"paragraph\">\"will do again\"</div>\n</div>\n<div class=\"section avoid-break-inside\" style=\"padding-bottom: 2rem;\"> <span><sup>[1]</sup></span> </div>\n<div class=\"section avoid-break-inside\" style=\"padding-bottom: 2rem;\"> <span><sup>[2]</sup></span> </div>\n<div class=\"section avoid-break-inside\" style=\"padding-bottom: 2rem;\"> <span><sup>[3]</sup></span> </div>\n<div class=\"section avoid-break-inside\" style=\"padding-bottom: 2rem;\"> <span><sup>[4]</sup></span> </div>\n<div class=\"section avoid-break-inside\" style=\"padding-bottom: 2rem;\"> <span><sup>[5]</sup></span> </div>\n<div class=\"section avoid-break-inside\" style=\"padding-bottom: 2rem;\"> <span><sup>[6]</sup></span> </div>\n<div class=\"section avoid-break-inside\" style=\"padding-bottom: 2rem;\"> <span><sup>[7]</sup></span> </div>\n<div class=\"section avoid-break-inside\" style=\"padding-bottom: 2rem;\"> <span><sup>[8]</sup></span> </div>\n<div class=\"section avoid-break-inside\" style=\"padding-bottom: 2rem;\"> <span><sup>[9]</sup></span> </div>\n<div class=\"section avoid-break-inside\" style=\"padding-bottom: 2rem;\"> <span><sup>[10]</sup></span> </div>\n<div class=\"section avoid-break-inside\" style=\"padding-bottom: 2rem;\"> <span><sup>[11]</sup></span> </div>\n<div class=\"section avoid-break-inside\" style=\"padding-bottom: 2rem;\"> <span><sup>[12]</sup></span> </div>\n<div class=\"break-after\">&nbsp;</div>\n<div>\n  <div class=\"section\" style=\"padding-bottom: 1rem;\">References</div>\n  <div>[1]: /image/xl-poetry-0473-photo-01.jpg</div>\n  <div>[2]: /image/xl-poetry-0473-photo-02.jpg</div>\n  <div>[3]: /image/xl-poetry-0473-photo-03.jpg</div>\n  <div>[4]: /image/xl-poetry-0473-photo-04.jpg</div>\n  <div>[5]: /image/xl-poetry-0473-photo-05.jpg</div>\n  <div>[6]: /image/xl-poetry-0473-photo-06.jpg</div>\n  <div>[7]: /image/xl-poetry-0473-photo-07.jpg</div>\n  <div>[8]: /image/xl-poetry-0473-photo-08.jpg</div>\n  <div>[9]: /image/xl-poetry-0473-photo-09.jpg</div>\n  <div>[10]: /image/xl-poetry-0473-photo-10.jpg</div>\n  <div>[11]: /image/xl-poetry-0473-photo-11.jpg</div>\n  <div>[12]: /image/xl-poetry-0473-photo-12.jpg</div>\n</div>",
  "text": "There is no normal way\nto say:\nTo me, of course,\na Deer is like a little horse.\nSince I like them a lot,\nI had a wonderful thought.\nI'd grab my phone and go,\ntake a photo.\n\nI had to bicycle from my driveway,\nall the way out to the highway.\nAnd since they eat dinner at eight,\nI had to hurry as not to be late.\n\n(read super fast)\nI arrived just on time,\nhit the brake, stopped on a dime.\nGot my phone out,\ndid a little turnabout.\nAnd click... click, click, click,\ndidn't even need a selfie stick.\n\nSay hello,\nperfect photo.\nAnd I took a few more,\njust to be sure.\nI really had a ball,\nso decided I'd upload them all.\n\nOn my way back,\nI had a little snack.\nAnd pondered my rhyme,\nto finish my poem on time.\nI rate my adventure as ten out of ten,\n\"will do again\"\n[1]\n[2]\n[3]\n[4]\n[5]\n[6]\n[7]\n[8]\n[9]\n[10]\n[11]\n[12]\n \nReferences\n[1]: /image/xl-poetry-0473-photo-01.jpg\n[2]: /image/xl-poetry-0473-photo-02.jpg\n[3]: /image/xl-poetry-0473-photo-03.jpg\n[4]: /image/xl-poetry-0473-photo-04.jpg\n[5]: /image/xl-poetry-0473-photo-05.jpg\n[6]: /image/xl-poetry-0473-photo-06.jpg\n[7]: /image/xl-poetry-0473-photo-07.jpg\n[8]: /image/xl-poetry-0473-photo-08.jpg\n[9]: /image/xl-poetry-0473-photo-09.jpg\n[10]: /image/xl-poetry-0473-photo-10.jpg\n[11]: /image/xl-poetry-0473-photo-11.jpg\n[12]: /image/xl-poetry-0473-photo-12.jpg",
  "images": [
    {
      "title": "Stopped By Rest Area For A Snack",
      "url": "poetry-0473-photo-01.jpg"
    },
    {
      "title": "Selfie Numero Uno",
      "url": "poetry-0473-photo-02.jpg"
    },
    {
      "title": "Selfie Numero Dos",
      "url": "poetry-0473-photo-03.jpg"
    },
    {
      "title": "My Hair Tail",
      "url": "poetry-0473-photo-04.jpg"
    },
    {
      "title": "Out Of Freaking Control",
      "url": "poetry-0473-photo-05.jpg"
    },
    {
      "title": "Selfie Numero Tres",
      "url": "poetry-0473-photo-06.jpg"
    },
    {
      "title": "Selfie Numero Quatro",
      "url": "poetry-0473-photo-07.jpg"
    },
    {
      "title": "Whoo Whoo Found Happy Horseys",
      "url": "poetry-0473-photo-08.jpg"
    },
    {
      "title": "Happy Horses",
      "url": "poetry-0473-photo-09.jpg"
    },
    {
      "title": "They Can See Me",
      "url": "poetry-0473-photo-10.jpg"
    },
    {
      "title": "Attempting To Send Duck Face To Happy Horses",
      "url": "poetry-0473-photo-11.jpg"
    },
    {
      "title": "Myyy Haaaaappy Horseeeees",
      "url": "poetry-0473-photo-12.jpg"
    }
  ],
  "links": [
    {
      "title": "Stopped By Rest Area For A Snack",
      "url": "/image/xl-poetry-0473-photo-01.jpg",
      "hostname": "local"
    },
    {
      "title": "Selfie Numero Uno",
      "url": "/image/xl-poetry-0473-photo-02.jpg",
      "hostname": "local"
    },
    {
      "title": "Selfie Numero Dos",
      "url": "/image/xl-poetry-0473-photo-03.jpg",
      "hostname": "local"
    },
    {
      "title": "My Hair Tail",
      "url": "/image/xl-poetry-0473-photo-04.jpg",
      "hostname": "local"
    },
    {
      "title": "Out Of Freaking Control",
      "url": "/image/xl-poetry-0473-photo-05.jpg",
      "hostname": "local"
    },
    {
      "title": "Selfie Numero Tres",
      "url": "/image/xl-poetry-0473-photo-06.jpg",
      "hostname": "local"
    },
    {
      "title": "Selfie Numero Quatro",
      "url": "/image/xl-poetry-0473-photo-07.jpg",
      "hostname": "local"
    },
    {
      "title": "Whoo Whoo Found Happy Horseys",
      "url": "/image/xl-poetry-0473-photo-08.jpg",
      "hostname": "local"
    },
    {
      "title": "Happy Horses",
      "url": "/image/xl-poetry-0473-photo-09.jpg",
      "hostname": "local"
    },
    {
      "title": "They Can See Me",
      "url": "/image/xl-poetry-0473-photo-10.jpg",
      "hostname": "local"
    },
    {
      "title": "Attempting To Send Duck Face To Happy Horses",
      "url": "/image/xl-poetry-0473-photo-11.jpg",
      "hostname": "local"
    },
    {
      "title": "Myyy Haaaaappy Horseeeees",
      "url": "/image/xl-poetry-0473-photo-12.jpg",
      "hostname": "local"
    }
  ]
}