{
  "name": "furkies-purrkies-poetry-0602",
  "id": "furkies-purrkies-poetry-0602",
  "title": "Each A Universe",
  "date": "2021-10-23T23:15:34.887Z",
  "image": "poetry-0602-illustration.jpg",
  "artwork": "https://unsplash.com/photos/Oze6U2m1oYU",
  "audio": "poetry-0602.mp3",
  "guid": "3f618aeb-4c95-47c6-afb7-297ec0451443",
  "html": "<div class=\"section\">\n  <p>School or College is an amazing time to read,<br>and on our own we can learn anything, in deed.</p>\n  <p>And if you can learn anything,<br>then you should aim to contain everything.</p>\n  <p>It is one of our perks,<br>and how a universe works.</p>\n</div>\n<div class=\"section\">\n  <hr>\n</div>\n<div class=\"section\">\n  <p>And the more you know,<br>the better your decisions go.</p>\n  <p>Until your mind is fully grown,<br>your decisions are not quite your own.</p>\n  <p>We must all grow up as fast as we can,<br>that is what it means to be human.</p>\n</div>\n<div class=\"section\">\n  <hr>\n</div>\n<div class=\"section\">\n  <p>People who are misinformed about the world,<br>are being controlled.</p>\n  <p>There as as many motives as there are crooks,<br>and cure is found in reading thousands of books.</p>\n</div>\n<div class=\"section\">\n  <hr>\n</div>\n<div class=\"section\">\n  <p>Not all falsehoods look like lies,<br>they often have an elaborate, golden disguise.</p>\n  <p>So do not read just one,<br>but countless books that are celebrated by everyone.</p>\n  <p>The best books are often said to change lives or the the word,<br>and those are the only true gold.</p>\n  <p>Go to the library and look,<br>that is all it takes to find your first life changing book.</p>\n  <p>Plus, we live in a beautiful age,<br>where you can <strong>listen</strong> to books without turning a page.</p>\n  <p>So, do not delay,<br>search for your book today.</p>\n  <p>Reading of listening to books is about moving from what you were told,<br>out into the real world.</p>\n</div>\n<div class=\"section\">\n  <hr>\n</div>\n<div class=\"section\">\n  <p>The real world is not a scary place,<br>so as long as you hold wisdom in firm embrace.</p>\n  <p>The best way to find real friends,<br>is to look at life though your own lens.</p>\n  <p>To learn and learn to no end,<br>until you become worthy of being and having a real friend.</p>\n  <p>In reading books you will find that those who run to bars,<br>eventually regret it in their memoirs.</p>\n  <p>The meaning of life is found in rising up,<br>in being serious about growing up.</p>\n  <p>Sometimes people don't need a liar to become mislead,<br>and become crushed by sadness instead.</p>\n  <p>It is because they don't know that one of the library's treasures,<br>is to grant us the sacred ability to resist all crushing pressures.</p>\n  <p>It is the most heartbreaking thing in the world<br>the oldest story hardly told.</p>\n  <p>Instead of finding a cheerful book,<br>they turn towards another heartless crook.</p>\n</div>\n<div class=\"section\">\n  <hr>\n</div>\n<div class=\"section\">\n  <p>So much ache and regret is had,<br>without knowing that a silly book can cure being sad.</p>\n  <p>Books can cure us from all manner of woe,<br>and continue encouraging us to fully grow.</p>\n  <p>Merely belonging to some circle or group,<br>often just leads a person in a loop.</p>\n  <p>But books help us rise from misery and strife,<br>and being cheerful is very important in life.</p>\n  <p>For one we begin to glow in a way,<br>it is probably the class with which we move though the day.</p>\n  <p>And we stop turning our trouble off to relax,<br>and begin laying down our own tracks.</p>\n</div>\n<div class=\"section\">\n  <hr>\n</div>\n<div class=\"section\">\n  <p>It is almost funny that the old library,<br>is how life stops being scary.</p>\n  <p>So as long as you take to books, and wisdom, you don't need to follow what we are told,<br>you will be safe out in the real world.</p>\n  <p>When the decisions we make are fueled by wisdom and are truly our own,<br>we will learn to live wisely and with wisdom become fully grown.</p>\n</div>\n<div class=\"section\">\n  <hr>\n</div>\n<div class=\"section\">\n  <p>It would be amazing, if following other people took us to the library,<br>but in the modern culture it takes us to the bar - where life will absolutely get scary.</p>\n  <p>We have to learn to set our foot down,<br>and say \"I am not going through life with a freaking frown.\".</p>\n</div>\n<div class=\"section\">\n  <hr>\n</div>\n<div class=\"section\">\n  <p>Hey, maybe you can be the one,<br>that will show her friends that the library is fun.</p>\n  <p>Could you become your school's first inspiration,<br>that leads everyone to the wisdom in some magnificent oration?</p>\n</div>\n<div class=\"section\">\n  <hr>\n</div>\n<div class=\"section\">\n  <p>Bring your friends to the library and quietly whisper to them the amazing parts,<br>show them the wisdom and all the beautiful hearts.</p>\n  <p>Tell them that the move away from books,<br>will almost always take them towards creepers and crooks.</p>\n  <p>Tell them that we find each other in life by means of light,<br>and that we are seen the best when we glow bright.</p>\n  <p>Tell them that it is in the wisdom we find and not in doing what we are told.<br>and that we have to search through many books to find the real gold.</p>\n</div>\n<div class=\"section\">\n  <hr>\n</div>\n<div class=\"section\">\n  <p>The universe within us requires stars to create the constellations we need,<br>and you can only ignite a star, when you read.</p>\n</div>",
  "bootstrap": "<div class=\"card card-section bg-dark text-warning shadow\">\n  <div class=\"section card-body mb-0 my-2\">\n    <div class=\"paragraph card-text card-stanza my-5 text-center\">School or College is an amazing time to read,<br>and on our own we can learn anything, in deed.</div>\n    <div class=\"paragraph card-text card-stanza my-5 text-center\">And if you can learn anything,<br>then you should aim to contain everything.</div>\n    <div class=\"paragraph card-text card-stanza my-5 text-center\">It is one of our perks,<br>and how a universe works.</div>\n  </div>\n</div>\n<div class=\"mb-5 section-spacer\">&nbsp;</div>\n<div class=\"card card-section bg-dark text-warning shadow\">\n  <div class=\"section card-body mb-0 my-2\">\n    <div class=\"paragraph card-text card-stanza my-5 text-center\">And the more you know,<br>the better your decisions go.</div>\n    <div class=\"paragraph card-text card-stanza my-5 text-center\">Until your mind is fully grown,<br>your decisions are not quite your own.</div>\n    <div class=\"paragraph card-text card-stanza my-5 text-center\">We must all grow up as fast as we can,<br>that is what it means to be human.</div>\n  </div>\n</div>\n<div class=\"mb-5 section-spacer\">&nbsp;</div>\n<div class=\"card card-section bg-dark text-warning shadow\">\n  <div class=\"section card-body mb-0 my-2\">\n    <div class=\"paragraph card-text card-stanza my-5 text-center\">People who are misinformed about the world,<br>are being controlled.</div>\n    <div class=\"paragraph card-text card-stanza my-5 text-center\">There as as many motives as there are crooks,<br>and cure is found in reading thousands of books.</div>\n  </div>\n</div>\n<div class=\"mb-5 section-spacer\">&nbsp;</div>\n<div class=\"card card-section bg-dark text-warning shadow\">\n  <div class=\"section card-body mb-0 my-2\">\n    <div class=\"paragraph card-text card-stanza my-5 text-center\">Not all falsehoods look like lies,<br>they often have an elaborate, golden disguise.</div>\n    <div class=\"paragraph card-text card-stanza my-5 text-center\">So do not read just one,<br>but countless books that are celebrated by everyone.</div>\n    <div class=\"paragraph card-text card-stanza my-5 text-center\">The best books are often said to change lives or the the word,<br>and those are the only true gold.</div>\n    <div class=\"paragraph card-text card-stanza my-5 text-center\">Go to the library and look,<br>that is all it takes to find your first life changing book.</div>\n    <div class=\"paragraph card-text card-stanza my-5 text-center\">Plus, we live in a beautiful age,<br>where you can <strong>listen</strong> to books without turning a page.</div>\n    <div class=\"paragraph card-text card-stanza my-5 text-center\">So, do not delay,<br>search for your book today.</div>\n    <div class=\"paragraph card-text card-stanza my-5 text-center\">Reading of listening to books is about moving from what you were told,<br>out into the real world.</div>\n  </div>\n</div>\n<div class=\"mb-5 section-spacer\">&nbsp;</div>\n<div class=\"card card-section bg-dark text-warning shadow\">\n  <div class=\"section card-body mb-0 my-2\">\n    <div class=\"paragraph card-text card-stanza my-5 text-center\">The real world is not a scary place,<br>so as long as you hold wisdom in firm embrace.</div>\n    <div class=\"paragraph card-text card-stanza my-5 text-center\">The best way to find real friends,<br>is to look at life though your own lens.</div>\n    <div class=\"paragraph card-text card-stanza my-5 text-center\">To learn and learn to no end,<br>until you become worthy of being and having a real friend.</div>\n    <div class=\"paragraph card-text card-stanza my-5 text-center\">In reading books you will find that those who run to bars,<br>eventually regret it in their memoirs.</div>\n    <div class=\"paragraph card-text card-stanza my-5 text-center\">The meaning of life is found in rising up,<br>in being serious about growing up.</div>\n    <div class=\"paragraph card-text card-stanza my-5 text-center\">Sometimes people don't need a liar to become mislead,<br>and become crushed by sadness instead.</div>\n    <div class=\"paragraph card-text card-stanza my-5 text-center\">It is because they don't know that one of the library's treasures,<br>is to grant us the sacred ability to resist all crushing pressures.</div>\n    <div class=\"paragraph card-text card-stanza my-5 text-center\">It is the most heartbreaking thing in the world<br>the oldest story hardly told.</div>\n    <div class=\"paragraph card-text card-stanza my-5 text-center\">Instead of finding a cheerful book,<br>they turn towards another heartless crook.</div>\n  </div>\n</div>\n<div class=\"mb-5 section-spacer\">&nbsp;</div>\n<div class=\"card card-section bg-dark text-warning shadow\">\n  <div class=\"section card-body mb-0 my-2\">\n    <div class=\"paragraph card-text card-stanza my-5 text-center\">So much ache and regret is had,<br>without knowing that a silly book can cure being sad.</div>\n    <div class=\"paragraph card-text card-stanza my-5 text-center\">Books can cure us from all manner of woe,<br>and continue encouraging us to fully grow.</div>\n    <div class=\"paragraph card-text card-stanza my-5 text-center\">Merely belonging to some circle or group,<br>often just leads a person in a loop.</div>\n    <div class=\"paragraph card-text card-stanza my-5 text-center\">But books help us rise from misery and strife,<br>and being cheerful is very important in life.</div>\n    <div class=\"paragraph card-text card-stanza my-5 text-center\">For one we begin to glow in a way,<br>it is probably the class with which we move though the day.</div>\n    <div class=\"paragraph card-text card-stanza my-5 text-center\">And we stop turning our trouble off to relax,<br>and begin laying down our own tracks.</div>\n  </div>\n</div>\n<div class=\"mb-5 section-spacer\">&nbsp;</div>\n<div class=\"card card-section bg-dark text-warning shadow\">\n  <div class=\"section card-body mb-0 my-2\">\n    <div class=\"paragraph card-text card-stanza my-5 text-center\">It is almost funny that the old library,<br>is how life stops being scary.</div>\n    <div class=\"paragraph card-text card-stanza my-5 text-center\">So as long as you take to books, and wisdom, you don't need to follow what we are told,<br>you will be safe out in the real world.</div>\n    <div class=\"paragraph card-text card-stanza my-5 text-center\">When the decisions we make are fueled by wisdom and are truly our own,<br>we will learn to live wisely and with wisdom become fully grown.</div>\n  </div>\n</div>\n<div class=\"mb-5 section-spacer\">&nbsp;</div>\n<div class=\"card card-section bg-dark text-warning shadow\">\n  <div class=\"section card-body mb-0 my-2\">\n    <div class=\"paragraph card-text card-stanza my-5 text-center\">It would be amazing, if following other people took us to the library,<br>but in the modern culture it takes us to the bar - where life will absolutely get scary.</div>\n    <div class=\"paragraph card-text card-stanza my-5 text-center\">We have to learn to set our foot down,<br>and say \"I am not going through life with a freaking frown.\".</div>\n  </div>\n</div>\n<div class=\"mb-5 section-spacer\">&nbsp;</div>\n<div class=\"card card-section bg-dark text-warning shadow\">\n  <div class=\"section card-body mb-0 my-2\">\n    <div class=\"paragraph card-text card-stanza my-5 text-center\">Hey, maybe you can be the one,<br>that will show her friends that the library is fun.</div>\n    <div class=\"paragraph card-text card-stanza my-5 text-center\">Could you become your school's first inspiration,<br>that leads everyone to the wisdom in some magnificent oration?</div>\n  </div>\n</div>\n<div class=\"mb-5 section-spacer\">&nbsp;</div>\n<div class=\"card card-section bg-dark text-warning shadow\">\n  <div class=\"section card-body mb-0 my-2\">\n    <div class=\"paragraph card-text card-stanza my-5 text-center\">Bring your friends to the library and quietly whisper to them the amazing parts,<br>show them the wisdom and all the beautiful hearts.</div>\n    <div class=\"paragraph card-text card-stanza my-5 text-center\">Tell them that the move away from books,<br>will almost always take them towards creepers and crooks.</div>\n    <div class=\"paragraph card-text card-stanza my-5 text-center\">Tell them that we find each other in life by means of light,<br>and that we are seen the best when we glow bright.</div>\n    <div class=\"paragraph card-text card-stanza my-5 text-center\">Tell them that it is in the wisdom we find and not in doing what we are told.<br>and that we have to search through many books to find the real gold.</div>\n  </div>\n</div>\n<div class=\"mb-5 section-spacer\">&nbsp;</div>\n<div class=\"card card-section bg-dark text-warning shadow\">\n  <div class=\"section card-body mb-0 my-2\">\n    <div class=\"paragraph card-text card-stanza my-5 text-center\">The universe within us requires stars to create the constellations we need,<br>and you can only ignite a star, when you read.</div>\n  </div>\n</div>",
  "print": "<div class=\"section avoid-break-inside\" style=\"padding-bottom: 2rem;\">\n  <div class=\"paragraph\">School or College is an amazing time to read,<br>and on our own we can learn anything, in deed.</div>\n  <div class=\"paragraph\">And if you can learn anything,<br>then you should aim to contain everything.</div>\n  <div class=\"paragraph\">It is one of our perks,<br>and how a universe works.</div>\n</div>\n<div class=\"section avoid-break-inside\" style=\"padding-bottom: 2rem;\">\n  <br>\n</div>\n<div class=\"section avoid-break-inside\" style=\"padding-bottom: 2rem;\">\n  <div class=\"paragraph\">And the more you know,<br>the better your decisions go.</div>\n  <div class=\"paragraph\">Until your mind is fully grown,<br>your decisions are not quite your own.</div>\n  <div class=\"paragraph\">We must all grow up as fast as we can,<br>that is what it means to be human.</div>\n</div>\n<div class=\"section avoid-break-inside\" style=\"padding-bottom: 2rem;\">\n  <br>\n</div>\n<div class=\"section avoid-break-inside\" style=\"padding-bottom: 2rem;\">\n  <div class=\"paragraph\">People who are misinformed about the world,<br>are being controlled.</div>\n  <div class=\"paragraph\">There as as many motives as there are crooks,<br>and cure is found in reading thousands of books.</div>\n</div>\n<div class=\"section avoid-break-inside\" style=\"padding-bottom: 2rem;\">\n  <br>\n</div>\n<div class=\"section avoid-break-inside\" style=\"padding-bottom: 2rem;\">\n  <div class=\"paragraph\">Not all falsehoods look like lies,<br>they often have an elaborate, golden disguise.</div>\n  <div class=\"paragraph\">So do not read just one,<br>but countless books that are celebrated by everyone.</div>\n  <div class=\"paragraph\">The best books are often said to change lives or the the word,<br>and those are the only true gold.</div>\n  <div class=\"paragraph\">Go to the library and look,<br>that is all it takes to find your first life changing book.</div>\n  <div class=\"paragraph\">Plus, we live in a beautiful age,<br>where you can <strong>listen</strong> to books without turning a page.</div>\n  <div class=\"paragraph\">So, do not delay,<br>search for your book today.</div>\n  <div class=\"paragraph\">Reading of listening to books is about moving from what you were told,<br>out into the real world.</div>\n</div>\n<div class=\"section avoid-break-inside\" style=\"padding-bottom: 2rem;\">\n  <br>\n</div>\n<div class=\"section avoid-break-inside\" style=\"padding-bottom: 2rem;\">\n  <div class=\"paragraph\">The real world is not a scary place,<br>so as long as you hold wisdom in firm embrace.</div>\n  <div class=\"paragraph\">The best way to find real friends,<br>is to look at life though your own lens.</div>\n  <div class=\"paragraph\">To learn and learn to no end,<br>until you become worthy of being and having a real friend.</div>\n  <div class=\"paragraph\">In reading books you will find that those who run to bars,<br>eventually regret it in their memoirs.</div>\n  <div class=\"paragraph\">The meaning of life is found in rising up,<br>in being serious about growing up.</div>\n  <div class=\"paragraph\">Sometimes people don't need a liar to become mislead,<br>and become crushed by sadness instead.</div>\n  <div class=\"paragraph\">It is because they don't know that one of the library's treasures,<br>is to grant us the sacred ability to resist all crushing pressures.</div>\n  <div class=\"paragraph\">It is the most heartbreaking thing in the world<br>the oldest story hardly told.</div>\n  <div class=\"paragraph\">Instead of finding a cheerful book,<br>they turn towards another heartless crook.</div>\n</div>\n<div class=\"section avoid-break-inside\" style=\"padding-bottom: 2rem;\">\n  <br>\n</div>\n<div class=\"section avoid-break-inside\" style=\"padding-bottom: 2rem;\">\n  <div class=\"paragraph\">So much ache and regret is had,<br>without knowing that a silly book can cure being sad.</div>\n  <div class=\"paragraph\">Books can cure us from all manner of woe,<br>and continue encouraging us to fully grow.</div>\n  <div class=\"paragraph\">Merely belonging to some circle or group,<br>often just leads a person in a loop.</div>\n  <div class=\"paragraph\">But books help us rise from misery and strife,<br>and being cheerful is very important in life.</div>\n  <div class=\"paragraph\">For one we begin to glow in a way,<br>it is probably the class with which we move though the day.</div>\n  <div class=\"paragraph\">And we stop turning our trouble off to relax,<br>and begin laying down our own tracks.</div>\n</div>\n<div class=\"section avoid-break-inside\" style=\"padding-bottom: 2rem;\">\n  <br>\n</div>\n<div class=\"section avoid-break-inside\" style=\"padding-bottom: 2rem;\">\n  <div class=\"paragraph\">It is almost funny that the old library,<br>is how life stops being scary.</div>\n  <div class=\"paragraph\">So as long as you take to books, and wisdom, you don't need to follow what we are told,<br>you will be safe out in the real world.</div>\n  <div class=\"paragraph\">When the decisions we make are fueled by wisdom and are truly our own,<br>we will learn to live wisely and with wisdom become fully grown.</div>\n</div>\n<div class=\"section avoid-break-inside\" style=\"padding-bottom: 2rem;\">\n  <br>\n</div>\n<div class=\"section avoid-break-inside\" style=\"padding-bottom: 2rem;\">\n  <div class=\"paragraph\">It would be amazing, if following other people took us to the library,<br>but in the modern culture it takes us to the bar - where life will absolutely get scary.</div>\n  <div class=\"paragraph\">We have to learn to set our foot down,<br>and say \"I am not going through life with a freaking frown.\".</div>\n</div>\n<div class=\"section avoid-break-inside\" style=\"padding-bottom: 2rem;\">\n  <br>\n</div>\n<div class=\"section avoid-break-inside\" style=\"padding-bottom: 2rem;\">\n  <div class=\"paragraph\">Hey, maybe you can be the one,<br>that will show her friends that the library is fun.</div>\n  <div class=\"paragraph\">Could you become your school's first inspiration,<br>that leads everyone to the wisdom in some magnificent oration?</div>\n</div>\n<div class=\"section avoid-break-inside\" style=\"padding-bottom: 2rem;\">\n  <br>\n</div>\n<div class=\"section avoid-break-inside\" style=\"padding-bottom: 2rem;\">\n  <div class=\"paragraph\">Bring your friends to the library and quietly whisper to them the amazing parts,<br>show them the wisdom and all the beautiful hearts.</div>\n  <div class=\"paragraph\">Tell them that the move away from books,<br>will almost always take them towards creepers and crooks.</div>\n  <div class=\"paragraph\">Tell them that we find each other in life by means of light,<br>and that we are seen the best when we glow bright.</div>\n  <div class=\"paragraph\">Tell them that it is in the wisdom we find and not in doing what we are told.<br>and that we have to search through many books to find the real gold.</div>\n</div>\n<div class=\"section avoid-break-inside\" style=\"padding-bottom: 2rem;\">\n  <br>\n</div>\n<div class=\"section avoid-break-inside\" style=\"padding-bottom: 2rem;\">\n  <div class=\"paragraph\">The universe within us requires stars to create the constellations we need,<br>and you can only ignite a star, when you read.</div>\n</div>",
  "text": "School or College is an amazing time to read,\nand on our own we can learn anything, in deed.\nAnd if you can learn anything,\nthen you should aim to contain everything.\nIt is one of our perks,\nand how a universe works.\n\nAnd the more you know,\nthe better your decisions go.\nUntil your mind is fully grown,\nyour decisions are not quite your own.\nWe must all grow up as fast as we can,\nthat is what it means to be human.\n\nPeople who are misinformed about the world,\nare being controlled.\nThere as as many motives as there are crooks,\nand cure is found in reading thousands of books.\n\nNot all falsehoods look like lies,\nthey often have an elaborate, golden disguise.\nSo do not read just one,\nbut countless books that are celebrated by everyone.\nThe best books are often said to change lives or the the word,\nand those are the only true gold.\nGo to the library and look,\nthat is all it takes to find your first life changing book.\nPlus, we live in a beautiful age,\nwhere you can listen to books without turning a page.\nSo, do not delay,\nsearch for your book today.\nReading of listening to books is about moving from what you were told,\nout into the real world.\n\nThe real world is not a scary place,\nso as long as you hold wisdom in firm embrace.\nThe best way to find real friends,\nis to look at life though your own lens.\nTo learn and learn to no end,\nuntil you become worthy of being and having a real friend.\nIn reading books you will find that those who run to bars,\neventually regret it in their memoirs.\nThe meaning of life is found in rising up,\nin being serious about growing up.\nSometimes people don't need a liar to become mislead,\nand become crushed by sadness instead.\nIt is because they don't know that one of the library's treasures,\nis to grant us the sacred ability to resist all crushing pressures.\nIt is the most heartbreaking thing in the world\nthe oldest story hardly told.\nInstead of finding a cheerful book,\nthey turn towards another heartless crook.\n\nSo much ache and regret is had,\nwithout knowing that a silly book can cure being sad.\nBooks can cure us from all manner of woe,\nand continue encouraging us to fully grow.\nMerely belonging to some circle or group,\noften just leads a person in a loop.\nBut books help us rise from misery and strife,\nand being cheerful is very important in life.\nFor one we begin to glow in a way,\nit is probably the class with which we move though the day.\nAnd we stop turning our trouble off to relax,\nand begin laying down our own tracks.\n\nIt is almost funny that the old library,\nis how life stops being scary.\nSo as long as you take to books, and wisdom, you don't need to follow what we are told,\nyou will be safe out in the real world.\nWhen the decisions we make are fueled by wisdom and are truly our own,\nwe will learn to live wisely and with wisdom become fully grown.\n\nIt would be amazing, if following other people took us to the library,\nbut in the modern culture it takes us to the bar - where life will absolutely get scary.\nWe have to learn to set our foot down,\nand say \"I am not going through life with a freaking frown.\".\n\nHey, maybe you can be the one,\nthat will show her friends that the library is fun.\nCould you become your school's first inspiration,\nthat leads everyone to the wisdom in some magnificent oration?\n\nBring your friends to the library and quietly whisper to them the amazing parts,\nshow them the wisdom and all the beautiful hearts.\nTell them that the move away from books,\nwill almost always take them towards creepers and crooks.\nTell them that we find each other in life by means of light,\nand that we are seen the best when we glow bright.\nTell them that it is in the wisdom we find and not in doing what we are told.\nand that we have to search through many books to find the real gold.\n\nThe universe within us requires stars to create the constellations we need,\nand you can only ignite a star, when you read.",
  "images": [],
  "links": []
}