{
  "name": "furkies-purrkies-poetry-0222",
  "title": "Flowers Of Earth: We set off to meet the others at Betelgeuse.",
  "date": "2020-10-08T23:47:57.000Z",
  "image": "poetry-0222-illustration.jpg",
  "audio": "poetry-0222.mp3",
  "artwork": "https://unsplash.com/photos/OwbUG4UrWm0",
  "id": "furkies-purrkies-poetry-0222",
  "attachments": {},
  "guid": "1a9c8cb0-0ebd-4582-bf98-38dd71284a9b",
  "html": "<div class=\"section\">\n  <p>We have traveled to watch Alpha Orionis undergo Supernova,</p>\n  <p>and to say Hello, to everybody else, who had the same idea.</p>\n</div>\n<div class=\"section\">\n  <hr>\n</div>\n<div class=\"section\">\n  <p>We have been studying it even before we became space faring species,</p>\n  <p>we as in all the species that grew up seeing it with their own eyes.</p>\n</div>\n<div class=\"section\">\n  <p>We&apos;re all humanoid here,</p>\n  <p>carbon based, mostly the same DNA.</p>\n</div>\n<div class=\"section\">\n  <hr>\n</div>\n<div class=\"section\">\n  <p>We&apos;ve been talking about the Flowers on Earth,</p>\n  <p>the Poets, and Libraries; Interesting Books.</p>\n</div>\n<div class=\"section\">\n  <p>Earth has become a Nature Preserve,</p>\n  <p>well, it has always been a nature preserve,</p>\n  <p>hence the quiet skies.</p>\n</div>\n<div class=\"section\">\n  <hr>\n</div>\n<div class=\"section\">\n  <p>Early humans had a lot of problems,</p>\n  <p>and they needed a lot of help.</p>\n</div>\n<div class=\"section\">\n  <p>The oldest of us date back to the first days of the pandemics,</p>\n  <p>it was a very strange time.</p>\n</div>\n<div class=\"section\">\n  <p>All planets eventually,</p>\n  <p>emerge dangerous pathogens.</p>\n</div>\n<div class=\"section\">\n  <p>If there is intelligent life, and if it approaches unsustainable,</p>\n  <p>some form of Contact is made.</p>\n</div>\n<div class=\"section\">\n  <hr>\n</div>\n<div class=\"section\">\n  <p>In our case, people just stopped aging,</p>\n  <p>90 year olds reverted back to their 40s.</p>\n</div>\n<div class=\"section\">\n  <p>We got really smart, it took a few decades to piece it all together,</p>\n  <p>and then we set off to meet the others at Betelgeuse.</p>\n</div>\n<div class=\"section\">\n  <p>And here here we are,</p>\n  <p>The Final Frontier, to quote Roddenberry.</p>\n</div>\n<div class=\"section\">\n  <hr>\n</div>\n<div class=\"section\">\n  <p>It is not a good idea to go Planet Side,</p>\n  <p>precisely because of pathogens.</p>\n</div>\n<div class=\"section\">\n  <p>Once we leave our solar systems,</p>\n  <p>we all keep to the Stars.</p>\n</div>\n<div class=\"section\">\n  <p>Time travel is available to us,</p>\n  <p>the space is infinite, in all dimensions.</p>\n</div>\n<div class=\"section\">\n  <hr>\n</div>\n<div class=\"section\">\n  <p>The worst thing that happened in the universe were Unlucky species dying alone,</p>\n  <p>we are now in the process of cataloging everybody by moving through the ancient past.</p>\n</div>\n<div class=\"section\">\n  <p>We are all moving towards where it all begun, Methuselah Prime,</p>\n  <p>the ancient source of all DNA based life.</p>\n</div>\n<div class=\"section\">\n  <p>It will take an Eternity,</p>\n  <p>but we&apos;ll get there.</p>\n</div>\n<div class=\"section\">\n  <hr>\n</div>\n<div class=\"section\">\n  <p>First Officer&apos;s Log,</p>\n  <p>Alpha Orionis, October 8th, Earthdate 102020.</p>\n</div>",
  "bootstrap": "<div class=\"card card-section bg-dark text-warning shadow\">\n  <div class=\"section card-body mb-0 my-2\">\n    <div class=\"paragraph card-text card-stanza my-5 text-center\">We have traveled to watch Alpha Orionis undergo Supernova,</div>\n    <div class=\"paragraph card-text card-stanza my-5 text-center\">and to say Hello, to everybody else, who had the same idea.</div>\n  </div>\n</div>\n<div class=\"mb-5 section-spacer\">&nbsp;</div>\n<div class=\"card card-section bg-dark text-warning shadow\">\n  <div class=\"section card-body mb-0 my-2\">\n    <div class=\"paragraph card-text card-stanza my-5 text-center\">We have been studying it even before we became space faring species,</div>\n    <div class=\"paragraph card-text card-stanza my-5 text-center\">we as in all the species that grew up seeing it with their own eyes.</div>\n  </div>\n</div>\n<div class=\"card card-section bg-dark text-warning shadow\">\n  <div class=\"section card-body mb-0 my-2\">\n    <div class=\"paragraph card-text card-stanza my-5 text-center\">We're all humanoid here,</div>\n    <div class=\"paragraph card-text card-stanza my-5 text-center\">carbon based, mostly the same DNA.</div>\n  </div>\n</div>\n<div class=\"mb-5 section-spacer\">&nbsp;</div>\n<div class=\"card card-section bg-dark text-warning shadow\">\n  <div class=\"section card-body mb-0 my-2\">\n    <div class=\"paragraph card-text card-stanza my-5 text-center\">We've been talking about the Flowers on Earth,</div>\n    <div class=\"paragraph card-text card-stanza my-5 text-center\">the Poets, and Libraries; Interesting Books.</div>\n  </div>\n</div>\n<div class=\"card card-section bg-dark text-warning shadow\">\n  <div class=\"section card-body mb-0 my-2\">\n    <div class=\"paragraph card-text card-stanza my-5 text-center\">Earth has become a Nature Preserve,</div>\n    <div class=\"paragraph card-text card-stanza my-5 text-center\">well, it has always been a nature preserve,</div>\n    <div class=\"paragraph card-text card-stanza my-5 text-center\">hence the quiet skies.</div>\n  </div>\n</div>\n<div class=\"mb-5 section-spacer\">&nbsp;</div>\n<div class=\"card card-section bg-dark text-warning shadow\">\n  <div class=\"section card-body mb-0 my-2\">\n    <div class=\"paragraph card-text card-stanza my-5 text-center\">Early humans had a lot of problems,</div>\n    <div class=\"paragraph card-text card-stanza my-5 text-center\">and they needed a lot of help.</div>\n  </div>\n</div>\n<div class=\"card card-section bg-dark text-warning shadow\">\n  <div class=\"section card-body mb-0 my-2\">\n    <div class=\"paragraph card-text card-stanza my-5 text-center\">The oldest of us date back to the first days of the pandemics,</div>\n    <div class=\"paragraph card-text card-stanza my-5 text-center\">it was a very strange time.</div>\n  </div>\n</div>\n<div class=\"card card-section bg-dark text-warning shadow\">\n  <div class=\"section card-body mb-0 my-2\">\n    <div class=\"paragraph card-text card-stanza my-5 text-center\">All planets eventually,</div>\n    <div class=\"paragraph card-text card-stanza my-5 text-center\">emerge dangerous pathogens.</div>\n  </div>\n</div>\n<div class=\"card card-section bg-dark text-warning shadow\">\n  <div class=\"section card-body mb-0 my-2\">\n    <div class=\"paragraph card-text card-stanza my-5 text-center\">If there is intelligent life, and if it approaches unsustainable,</div>\n    <div class=\"paragraph card-text card-stanza my-5 text-center\">some form of Contact is made.</div>\n  </div>\n</div>\n<div class=\"mb-5 section-spacer\">&nbsp;</div>\n<div class=\"card card-section bg-dark text-warning shadow\">\n  <div class=\"section card-body mb-0 my-2\">\n    <div class=\"paragraph card-text card-stanza my-5 text-center\">In our case, people just stopped aging,</div>\n    <div class=\"paragraph card-text card-stanza my-5 text-center\">90 year olds reverted back to their 40s.</div>\n  </div>\n</div>\n<div class=\"card card-section bg-dark text-warning shadow\">\n  <div class=\"section card-body mb-0 my-2\">\n    <div class=\"paragraph card-text card-stanza my-5 text-center\">We got really smart, it took a few decades to piece it all together,</div>\n    <div class=\"paragraph card-text card-stanza my-5 text-center\">and then we set off to meet the others at Betelgeuse.</div>\n  </div>\n</div>\n<div class=\"card card-section bg-dark text-warning shadow\">\n  <div class=\"section card-body mb-0 my-2\">\n    <div class=\"paragraph card-text card-stanza my-5 text-center\">And here here we are,</div>\n    <div class=\"paragraph card-text card-stanza my-5 text-center\">The Final Frontier, to quote Roddenberry.</div>\n  </div>\n</div>\n<div class=\"mb-5 section-spacer\">&nbsp;</div>\n<div class=\"card card-section bg-dark text-warning shadow\">\n  <div class=\"section card-body mb-0 my-2\">\n    <div class=\"paragraph card-text card-stanza my-5 text-center\">It is not a good idea to go Planet Side,</div>\n    <div class=\"paragraph card-text card-stanza my-5 text-center\">precisely because of pathogens.</div>\n  </div>\n</div>\n<div class=\"card card-section bg-dark text-warning shadow\">\n  <div class=\"section card-body mb-0 my-2\">\n    <div class=\"paragraph card-text card-stanza my-5 text-center\">Once we leave our solar systems,</div>\n    <div class=\"paragraph card-text card-stanza my-5 text-center\">we all keep to the Stars.</div>\n  </div>\n</div>\n<div class=\"card card-section bg-dark text-warning shadow\">\n  <div class=\"section card-body mb-0 my-2\">\n    <div class=\"paragraph card-text card-stanza my-5 text-center\">Time travel is available to us,</div>\n    <div class=\"paragraph card-text card-stanza my-5 text-center\">the space is infinite, in all dimensions.</div>\n  </div>\n</div>\n<div class=\"mb-5 section-spacer\">&nbsp;</div>\n<div class=\"card card-section bg-dark text-warning shadow\">\n  <div class=\"section card-body mb-0 my-2\">\n    <div class=\"paragraph card-text card-stanza my-5 text-center\">The worst thing that happened in the universe were Unlucky species dying alone,</div>\n    <div class=\"paragraph card-text card-stanza my-5 text-center\">we are now in the process of cataloging everybody by moving through the ancient past.</div>\n  </div>\n</div>\n<div class=\"card card-section bg-dark text-warning shadow\">\n  <div class=\"section card-body mb-0 my-2\">\n    <div class=\"paragraph card-text card-stanza my-5 text-center\">We are all moving towards where it all begun, Methuselah Prime,</div>\n    <div class=\"paragraph card-text card-stanza my-5 text-center\">the ancient source of all DNA based life.</div>\n  </div>\n</div>\n<div class=\"card card-section bg-dark text-warning shadow\">\n  <div class=\"section card-body mb-0 my-2\">\n    <div class=\"paragraph card-text card-stanza my-5 text-center\">It will take an Eternity,</div>\n    <div class=\"paragraph card-text card-stanza my-5 text-center\">but we'll get there.</div>\n  </div>\n</div>\n<div class=\"mb-5 section-spacer\">&nbsp;</div>\n<div class=\"card card-section bg-dark text-warning shadow\">\n  <div class=\"section card-body mb-0 my-2\">\n    <div class=\"paragraph card-text card-stanza my-5 text-center\">First Officer's Log,</div>\n    <div class=\"paragraph card-text card-stanza my-5 text-center\">Alpha Orionis, October 8th, Earthdate 102020.</div>\n  </div>\n</div>",
  "print": "<div class=\"section avoid-break-inside\" style=\"padding-bottom: 2rem;\">\n  <div class=\"paragraph\">We have traveled to watch Alpha Orionis undergo Supernova,</div>\n  <div class=\"paragraph\">and to say Hello, to everybody else, who had the same idea.</div>\n</div>\n<div class=\"section avoid-break-inside\" style=\"padding-bottom: 2rem;\">\n  <br>\n</div>\n<div class=\"section avoid-break-inside\" style=\"padding-bottom: 2rem;\">\n  <div class=\"paragraph\">We have been studying it even before we became space faring species,</div>\n  <div class=\"paragraph\">we as in all the species that grew up seeing it with their own eyes.</div>\n</div>\n<div class=\"section avoid-break-inside\" style=\"padding-bottom: 2rem;\">\n  <div class=\"paragraph\">We're all humanoid here,</div>\n  <div class=\"paragraph\">carbon based, mostly the same DNA.</div>\n</div>\n<div class=\"section avoid-break-inside\" style=\"padding-bottom: 2rem;\">\n  <br>\n</div>\n<div class=\"section avoid-break-inside\" style=\"padding-bottom: 2rem;\">\n  <div class=\"paragraph\">We've been talking about the Flowers on Earth,</div>\n  <div class=\"paragraph\">the Poets, and Libraries; Interesting Books.</div>\n</div>\n<div class=\"section avoid-break-inside\" style=\"padding-bottom: 2rem;\">\n  <div class=\"paragraph\">Earth has become a Nature Preserve,</div>\n  <div class=\"paragraph\">well, it has always been a nature preserve,</div>\n  <div class=\"paragraph\">hence the quiet skies.</div>\n</div>\n<div class=\"section avoid-break-inside\" style=\"padding-bottom: 2rem;\">\n  <br>\n</div>\n<div class=\"section avoid-break-inside\" style=\"padding-bottom: 2rem;\">\n  <div class=\"paragraph\">Early humans had a lot of problems,</div>\n  <div class=\"paragraph\">and they needed a lot of help.</div>\n</div>\n<div class=\"section avoid-break-inside\" style=\"padding-bottom: 2rem;\">\n  <div class=\"paragraph\">The oldest of us date back to the first days of the pandemics,</div>\n  <div class=\"paragraph\">it was a very strange time.</div>\n</div>\n<div class=\"section avoid-break-inside\" style=\"padding-bottom: 2rem;\">\n  <div class=\"paragraph\">All planets eventually,</div>\n  <div class=\"paragraph\">emerge dangerous pathogens.</div>\n</div>\n<div class=\"section avoid-break-inside\" style=\"padding-bottom: 2rem;\">\n  <div class=\"paragraph\">If there is intelligent life, and if it approaches unsustainable,</div>\n  <div class=\"paragraph\">some form of Contact is made.</div>\n</div>\n<div class=\"section avoid-break-inside\" style=\"padding-bottom: 2rem;\">\n  <br>\n</div>\n<div class=\"section avoid-break-inside\" style=\"padding-bottom: 2rem;\">\n  <div class=\"paragraph\">In our case, people just stopped aging,</div>\n  <div class=\"paragraph\">90 year olds reverted back to their 40s.</div>\n</div>\n<div class=\"section avoid-break-inside\" style=\"padding-bottom: 2rem;\">\n  <div class=\"paragraph\">We got really smart, it took a few decades to piece it all together,</div>\n  <div class=\"paragraph\">and then we set off to meet the others at Betelgeuse.</div>\n</div>\n<div class=\"section avoid-break-inside\" style=\"padding-bottom: 2rem;\">\n  <div class=\"paragraph\">And here here we are,</div>\n  <div class=\"paragraph\">The Final Frontier, to quote Roddenberry.</div>\n</div>\n<div class=\"section avoid-break-inside\" style=\"padding-bottom: 2rem;\">\n  <br>\n</div>\n<div class=\"section avoid-break-inside\" style=\"padding-bottom: 2rem;\">\n  <div class=\"paragraph\">It is not a good idea to go Planet Side,</div>\n  <div class=\"paragraph\">precisely because of pathogens.</div>\n</div>\n<div class=\"section avoid-break-inside\" style=\"padding-bottom: 2rem;\">\n  <div class=\"paragraph\">Once we leave our solar systems,</div>\n  <div class=\"paragraph\">we all keep to the Stars.</div>\n</div>\n<div class=\"section avoid-break-inside\" style=\"padding-bottom: 2rem;\">\n  <div class=\"paragraph\">Time travel is available to us,</div>\n  <div class=\"paragraph\">the space is infinite, in all dimensions.</div>\n</div>\n<div class=\"section avoid-break-inside\" style=\"padding-bottom: 2rem;\">\n  <br>\n</div>\n<div class=\"section avoid-break-inside\" style=\"padding-bottom: 2rem;\">\n  <div class=\"paragraph\">The worst thing that happened in the universe were Unlucky species dying alone,</div>\n  <div class=\"paragraph\">we are now in the process of cataloging everybody by moving through the ancient past.</div>\n</div>\n<div class=\"section avoid-break-inside\" style=\"padding-bottom: 2rem;\">\n  <div class=\"paragraph\">We are all moving towards where it all begun, Methuselah Prime,</div>\n  <div class=\"paragraph\">the ancient source of all DNA based life.</div>\n</div>\n<div class=\"section avoid-break-inside\" style=\"padding-bottom: 2rem;\">\n  <div class=\"paragraph\">It will take an Eternity,</div>\n  <div class=\"paragraph\">but we'll get there.</div>\n</div>\n<div class=\"section avoid-break-inside\" style=\"padding-bottom: 2rem;\">\n  <br>\n</div>\n<div class=\"section avoid-break-inside\" style=\"padding-bottom: 2rem;\">\n  <div class=\"paragraph\">First Officer's Log,</div>\n  <div class=\"paragraph\">Alpha Orionis, October 8th, Earthdate 102020.</div>\n</div>",
  "text": "We have traveled to watch Alpha Orionis undergo Supernova,\nand to say Hello, to everybody else, who had the same idea.\n\nWe have been studying it even before we became space faring species,\nwe as in all the species that grew up seeing it with their own eyes.\nWe're all humanoid here,\ncarbon based, mostly the same DNA.\n\nWe've been talking about the Flowers on Earth,\nthe Poets, and Libraries; Interesting Books.\nEarth has become a Nature Preserve,\nwell, it has always been a nature preserve,\nhence the quiet skies.\n\nEarly humans had a lot of problems,\nand they needed a lot of help.\nThe oldest of us date back to the first days of the pandemics,\nit was a very strange time.\nAll planets eventually,\nemerge dangerous pathogens.\nIf there is intelligent life, and if it approaches unsustainable,\nsome form of Contact is made.\n\nIn our case, people just stopped aging,\n90 year olds reverted back to their 40s.\nWe got really smart, it took a few decades to piece it all together,\nand then we set off to meet the others at Betelgeuse.\nAnd here here we are,\nThe Final Frontier, to quote Roddenberry.\n\nIt is not a good idea to go Planet Side,\nprecisely because of pathogens.\nOnce we leave our solar systems,\nwe all keep to the Stars.\nTime travel is available to us,\nthe space is infinite, in all dimensions.\n\nThe worst thing that happened in the universe were Unlucky species dying alone,\nwe are now in the process of cataloging everybody by moving through the ancient past.\nWe are all moving towards where it all begun, Methuselah Prime,\nthe ancient source of all DNA based life.\nIt will take an Eternity,\nbut we'll get there.\n\nFirst Officer's Log,\nAlpha Orionis, October 8th, Earthdate 102020.",
  "images": [],
  "links": []
}