{
  "id": "furkies-purrkies-poetry-0572",
  "title": "Upgrading The High School Diploma To A Real Design Portfolio And Beyond",
  "date": "2021-09-24T01:03:12.345Z",
  "image": "poetry-0572-illustration.jpg",
  "artwork": "https://unsplash.com/photos/MQvmhX7b3J4",
  "audio": "poetry-0572.mp3",
  "guid": "8c8c733a-060b-481a-b46f-bf41e3e08dd4"
}
