{
  "name": "furkies-purrkies-poetry-0142",
  "title": "Apocalypse Meow",
  "date": "2020-07-21T00:42:11.700Z",
  "image": "poetry-0142-illustration.jpg",
  "audio": "poetry-0142.mp3",
  "id": "furkies-purrkies-poetry-0142",
  "attachments": {},
  "guid": "21b75fbb-ddb1-4078-ad83-7d5b748d5dba",
  "html": "<div class=\"section\">\n  <p>A Powerful Summer Storm approached with mighty thunder and powerful showers,</p>\n  <p>and as always my power went out for for some twenty four hours.</p>\n</div>\n<div class=\"section\">\n  <p>I love Mother Nature and her Cosmic Powers,</p>\n  <p>with this much rain there can only be more blooming flowers.</p>\n</div>\n<div class=\"section\">\n  <p>But, yah, as soon as the power went out,</p>\n  <p>my apartment went completely dark.</p>\n</div>\n<div class=\"section\">\n  <p>My air conditioning was gone too;</p>\n  <p>I tried to turn on the window fan before I realized &quot;I need to think that one through.&quot;</p>\n</div>\n<div class=\"section\">\n  <p>All my extravagantly blinking computers and phones,</p>\n  <p>either shutdown or chirped their sad little low-battery tones.</p>\n</div>\n<div class=\"section\">\n  <p>I watched the sun go down with a sigh,</p>\n  <p>and so the only thing left blinking was the smoke detectors and I.</p>\n</div>",
  "bootstrap": "<div class=\"card card-section bg-dark text-warning shadow\">\n  <div class=\"section card-body mb-0 my-2\">\n    <div class=\"paragraph card-text card-stanza my-5 text-center\">A Powerful Summer Storm approached with mighty thunder and powerful showers,</div>\n    <div class=\"paragraph card-text card-stanza my-5 text-center\">and as always my power went out for for some twenty four hours.</div>\n  </div>\n</div>\n<div class=\"card card-section bg-dark text-warning shadow\">\n  <div class=\"section card-body mb-0 my-2\">\n    <div class=\"paragraph card-text card-stanza my-5 text-center\">I love Mother Nature and her Cosmic Powers,</div>\n    <div class=\"paragraph card-text card-stanza my-5 text-center\">with this much rain there can only be more blooming flowers.</div>\n  </div>\n</div>\n<div class=\"card card-section bg-dark text-warning shadow\">\n  <div class=\"section card-body mb-0 my-2\">\n    <div class=\"paragraph card-text card-stanza my-5 text-center\">But, yah, as soon as the power went out,</div>\n    <div class=\"paragraph card-text card-stanza my-5 text-center\">my apartment went completely dark.</div>\n  </div>\n</div>\n<div class=\"card card-section bg-dark text-warning shadow\">\n  <div class=\"section card-body mb-0 my-2\">\n    <div class=\"paragraph card-text card-stanza my-5 text-center\">My air conditioning was gone too;</div>\n    <div class=\"paragraph card-text card-stanza my-5 text-center\">I tried to turn on the window fan before I realized \"I need to think that one through.\"</div>\n  </div>\n</div>\n<div class=\"card card-section bg-dark text-warning shadow\">\n  <div class=\"section card-body mb-0 my-2\">\n    <div class=\"paragraph card-text card-stanza my-5 text-center\">All my extravagantly blinking computers and phones,</div>\n    <div class=\"paragraph card-text card-stanza my-5 text-center\">either shutdown or chirped their sad little low-battery tones.</div>\n  </div>\n</div>\n<div class=\"card card-section bg-dark text-warning shadow\">\n  <div class=\"section card-body mb-0 my-2\">\n    <div class=\"paragraph card-text card-stanza my-5 text-center\">I watched the sun go down with a sigh,</div>\n    <div class=\"paragraph card-text card-stanza my-5 text-center\">and so the only thing left blinking was the smoke detectors and I.</div>\n  </div>\n</div>",
  "print": "<div class=\"section avoid-break-inside\" style=\"padding-bottom: 2rem;\">\n  <div class=\"paragraph\">A Powerful Summer Storm approached with mighty thunder and powerful showers,</div>\n  <div class=\"paragraph\">and as always my power went out for for some twenty four hours.</div>\n</div>\n<div class=\"section avoid-break-inside\" style=\"padding-bottom: 2rem;\">\n  <div class=\"paragraph\">I love Mother Nature and her Cosmic Powers,</div>\n  <div class=\"paragraph\">with this much rain there can only be more blooming flowers.</div>\n</div>\n<div class=\"section avoid-break-inside\" style=\"padding-bottom: 2rem;\">\n  <div class=\"paragraph\">But, yah, as soon as the power went out,</div>\n  <div class=\"paragraph\">my apartment went completely dark.</div>\n</div>\n<div class=\"section avoid-break-inside\" style=\"padding-bottom: 2rem;\">\n  <div class=\"paragraph\">My air conditioning was gone too;</div>\n  <div class=\"paragraph\">I tried to turn on the window fan before I realized \"I need to think that one through.\"</div>\n</div>\n<div class=\"section avoid-break-inside\" style=\"padding-bottom: 2rem;\">\n  <div class=\"paragraph\">All my extravagantly blinking computers and phones,</div>\n  <div class=\"paragraph\">either shutdown or chirped their sad little low-battery tones.</div>\n</div>\n<div class=\"section avoid-break-inside\" style=\"padding-bottom: 2rem;\">\n  <div class=\"paragraph\">I watched the sun go down with a sigh,</div>\n  <div class=\"paragraph\">and so the only thing left blinking was the smoke detectors and I.</div>\n</div>",
  "text": "A Powerful Summer Storm approached with mighty thunder and powerful showers,\nand as always my power went out for for some twenty four hours.\nI love Mother Nature and her Cosmic Powers,\nwith this much rain there can only be more blooming flowers.\nBut, yah, as soon as the power went out,\nmy apartment went completely dark.\nMy air conditioning was gone too;\nI tried to turn on the window fan before I realized \"I need to think that one through.\"\nAll my extravagantly blinking computers and phones,\neither shutdown or chirped their sad little low-battery tones.\nI watched the sun go down with a sigh,\nand so the only thing left blinking was the smoke detectors and I.",
  "images": [],
  "links": []
}