{
  "id": "furkies-purrkies-poetry-0770",
  "title": "Seventy Five Days And Seventeen Paintings",
  "date": "2022-04-09T16:24:21.962Z",
  "image": "poetry-0770-illustration.jpg",
  "artwork": "https://catpea.com",
  "audio": "poetry-0770.mp3",
  "guid": "2aa50821-0d02-44ec-8a11-fe97e8fb88f2"
}
