{
  "name": "furkies-purrkies-poetry-0417",
  "title": "The Future School",
  "date": "2021-04-22T00:29:46.215Z",
  "image": "poetry-0417-illustration.jpg",
  "audio": "poetry-0417.mp3",
  "artwork": "https://unsplash.com/photos/FYR2nFGWxqM",
  "id": "furkies-purrkies-poetry-0417",
  "attachments": {},
  "guid": "5e75a1bb-35b5-4e5e-864d-8ce726d26990",
  "html": "<div class=\"section\">\n  <p>Above all, school pays for a hotel of your choice, including food and whatever else you need,</p>\n  <p>it does not matter if you are an exchange student, or if you want to live on your own.</p>\n</div>\n\n<div class=\"section\">\n  <p>And you can&apos;t be expelled for any reason, if you do something wrong,</p>\n  <p>no one will punish you, you&apos;ll get group therapy session with all the other people who think different.</p>\n</div>\n\n<div class=\"section\">\n  <p>Until you are ready to leave, school becomes your home,</p>\n  <p>and since there is no graduation, you can always come back.</p>\n</div>\n\n<div class=\"section\">\n  <p>Just like there are no creepy dorm rooms,</p>\n  <p>there is no real nurses office, you go to a hospital and the school will cover your bills.</p>\n</div>\n\n<div class=\"section\">\n  <hr>\n</div>\n\n<div class=\"section\">\n  <p>This is a place that will always treat you with great dignity,</p>\n  <p>they know that if you drop out, the future of the world will be darker for it.</p>\n</div>\n\n<div class=\"section\">\n  <p>You will be granted peace and serenity, and calm and safety and security,</p>\n  <p>and no one will take that way from you.</p>\n</div>\n\n<div class=\"section\">\n  <p>If you take of to work on your own,</p>\n  <p>and your business fails, you will be welcomed back.</p>\n</div>\n\n<div class=\"section\">\n  <p>The worst thing that will ever happen to you,</p>\n  <p>is coming back home, speaking out about your challenges, and trying again, until don&apos;t come back.</p>\n</div>\n\n<div class=\"section\">\n  <hr>\n</div>\n\n<div class=\"section\">\n  <p>The school is focused on real results,</p>\n  <p>here you will not be asked to memorize what the powerhouse of the cell is.</p>\n</div>\n\n<div class=\"section\">\n  <p>If you are into Microbiology, Medicine, you get a white coat,</p>\n  <p>and you are asked to find a place where you fit in.</p>\n</div>\n\n<div class=\"section\">\n  <p>And isn&apos;t very often that a person can&apos;t find a place where they fit in,</p>\n  <p>it is because to become curious about Microbiology is to have read a hundred books about it...</p>\n</div>\n\n<div class=\"section\">\n  <p>...is to be passionate about some detail,</p>\n  <p>there will be plenty of others with similar interests.</p>\n</div>\n\n<div class=\"section\">\n  <hr>\n</div>\n\n<div class=\"section\">\n  <p>Software development is perhaps the most illustrative idea,</p>\n  <p>the community is extremely friendly and the world is full of tutorials to help you get started.</p>\n</div>\n\n<div class=\"section\">\n  <p>It is a self guiding field,</p>\n  <p>driven by new ideas.</p>\n</div>\n\n<div class=\"section\">\n  <p>And your relation to the field will transform,</p>\n  <p>from student, to employee or mentor, to business owner, and employer, and leader, and inspiration.</p>\n</div>\n\n<div class=\"section\">\n  <p>There is nothing abstract to memorize here,</p>\n  <p>it is a clear road of achievement and excellence.</p>\n</div>\n\n<div class=\"section\">\n  <hr>\n</div>\n\n<div class=\"section\">\n  <p>School demands that you travel a lot,</p>\n  <p>switching cultures, nations, languages, laboratories and even interests.</p>\n</div>\n\n<div class=\"section\">\n  <p>It is not scary, it is not lonely, you pick when and where to go,</p>\n  <p>but you have to move from school to school.</p>\n</div>\n\n<div class=\"section\">\n  <p>You will never feel stuck or lonely,</p>\n  <p>you will never be among strangers, you will never be unsafe.</p>\n</div>\n\n<div class=\"section\">\n  <p>It is difficult to describe the change that your mind will go through,</p>\n  <p>there will be a visible change in your behavior as you become a Citizen of The Wold.</p>\n</div>\n\n<div class=\"section\">\n  <hr>\n</div>\n\n<div class=\"section\">\n  <p>The primary purpose of the school,</p>\n  <p>is to encourage you to become a leader in the field or fields that call to you.</p>\n</div>\n\n<div class=\"section\">\n  <p>It is there, to help you, to heal you, to protect you,</p>\n  <p>to give you unlimited retries until you succeed.</p>\n</div>\n\n<div class=\"section\">\n  <p>The school will recognize you as an investment,</p>\n  <p>a key to a worthy and peaceful future for Human Kind.</p>\n</div>\n\n<div class=\"section\">\n  <p>In return, you will rise to become a healthy, dignified, knowledgeable, and independent thinker and creator,</p>\n  <p>one to make meaningful contributions to Human Kind, and come your retirement; leave a lasting legacy behind.</p>\n</div>",
  "bootstrap": "<div class=\"card card-section bg-dark text-warning shadow\">\n  <div class=\"section card-body mb-0 my-2\">\n    <div class=\"paragraph card-text card-stanza my-5 text-center\">Above all, school pays for a hotel of your choice, including food and whatever else you need,</div>\n    <div class=\"paragraph card-text card-stanza my-5 text-center\">it does not matter if you are an exchange student, or if you want to live on your own.</div>\n  </div>\n</div>\n<div class=\"card card-section bg-dark text-warning shadow\">\n  <div class=\"section card-body mb-0 my-2\">\n    <div class=\"paragraph card-text card-stanza my-5 text-center\">And you can't be expelled for any reason, if you do something wrong,</div>\n    <div class=\"paragraph card-text card-stanza my-5 text-center\">no one will punish you, you'll get group therapy session with all the other people who think different.</div>\n  </div>\n</div>\n<div class=\"card card-section bg-dark text-warning shadow\">\n  <div class=\"section card-body mb-0 my-2\">\n    <div class=\"paragraph card-text card-stanza my-5 text-center\">Until you are ready to leave, school becomes your home,</div>\n    <div class=\"paragraph card-text card-stanza my-5 text-center\">and since there is no graduation, you can always come back.</div>\n  </div>\n</div>\n<div class=\"card card-section bg-dark text-warning shadow\">\n  <div class=\"section card-body mb-0 my-2\">\n    <div class=\"paragraph card-text card-stanza my-5 text-center\">Just like there are no creepy dorm rooms,</div>\n    <div class=\"paragraph card-text card-stanza my-5 text-center\">there is no real nurses office, you go to a hospital and the school will cover your bills.</div>\n  </div>\n</div>\n<div class=\"mb-5 section-spacer\">&nbsp;</div>\n<div class=\"card card-section bg-dark text-warning shadow\">\n  <div class=\"section card-body mb-0 my-2\">\n    <div class=\"paragraph card-text card-stanza my-5 text-center\">This is a place that will always treat you with great dignity,</div>\n    <div class=\"paragraph card-text card-stanza my-5 text-center\">they know that if you drop out, the future of the world will be darker for it.</div>\n  </div>\n</div>\n<div class=\"card card-section bg-dark text-warning shadow\">\n  <div class=\"section card-body mb-0 my-2\">\n    <div class=\"paragraph card-text card-stanza my-5 text-center\">You will be granted peace and serenity, and calm and safety and security,</div>\n    <div class=\"paragraph card-text card-stanza my-5 text-center\">and no one will take that way from you.</div>\n  </div>\n</div>\n<div class=\"card card-section bg-dark text-warning shadow\">\n  <div class=\"section card-body mb-0 my-2\">\n    <div class=\"paragraph card-text card-stanza my-5 text-center\">If you take of to work on your own,</div>\n    <div class=\"paragraph card-text card-stanza my-5 text-center\">and your business fails, you will be welcomed back.</div>\n  </div>\n</div>\n<div class=\"card card-section bg-dark text-warning shadow\">\n  <div class=\"section card-body mb-0 my-2\">\n    <div class=\"paragraph card-text card-stanza my-5 text-center\">The worst thing that will ever happen to you,</div>\n    <div class=\"paragraph card-text card-stanza my-5 text-center\">is coming back home, speaking out about your challenges, and trying again, until don't come back.</div>\n  </div>\n</div>\n<div class=\"mb-5 section-spacer\">&nbsp;</div>\n<div class=\"card card-section bg-dark text-warning shadow\">\n  <div class=\"section card-body mb-0 my-2\">\n    <div class=\"paragraph card-text card-stanza my-5 text-center\">The school is focused on real results,</div>\n    <div class=\"paragraph card-text card-stanza my-5 text-center\">here you will not be asked to memorize what the powerhouse of the cell is.</div>\n  </div>\n</div>\n<div class=\"card card-section bg-dark text-warning shadow\">\n  <div class=\"section card-body mb-0 my-2\">\n    <div class=\"paragraph card-text card-stanza my-5 text-center\">If you are into Microbiology, Medicine, you get a white coat,</div>\n    <div class=\"paragraph card-text card-stanza my-5 text-center\">and you are asked to find a place where you fit in.</div>\n  </div>\n</div>\n<div class=\"card card-section bg-dark text-warning shadow\">\n  <div class=\"section card-body mb-0 my-2\">\n    <div class=\"paragraph card-text card-stanza my-5 text-center\">And isn't very often that a person can't find a place where they fit in,</div>\n    <div class=\"paragraph card-text card-stanza my-5 text-center\">it is because to become curious about Microbiology is to have read a hundred books about it...</div>\n  </div>\n</div>\n<div class=\"card card-section bg-dark text-warning shadow\">\n  <div class=\"section card-body mb-0 my-2\">\n    <div class=\"paragraph card-text card-stanza my-5 text-center\">...is to be passionate about some detail,</div>\n    <div class=\"paragraph card-text card-stanza my-5 text-center\">there will be plenty of others with similar interests.</div>\n  </div>\n</div>\n<div class=\"mb-5 section-spacer\">&nbsp;</div>\n<div class=\"card card-section bg-dark text-warning shadow\">\n  <div class=\"section card-body mb-0 my-2\">\n    <div class=\"paragraph card-text card-stanza my-5 text-center\">Software development is perhaps the most illustrative idea,</div>\n    <div class=\"paragraph card-text card-stanza my-5 text-center\">the community is extremely friendly and the world is full of tutorials to help you get started.</div>\n  </div>\n</div>\n<div class=\"card card-section bg-dark text-warning shadow\">\n  <div class=\"section card-body mb-0 my-2\">\n    <div class=\"paragraph card-text card-stanza my-5 text-center\">It is a self guiding field,</div>\n    <div class=\"paragraph card-text card-stanza my-5 text-center\">driven by new ideas.</div>\n  </div>\n</div>\n<div class=\"card card-section bg-dark text-warning shadow\">\n  <div class=\"section card-body mb-0 my-2\">\n    <div class=\"paragraph card-text card-stanza my-5 text-center\">And your relation to the field will transform,</div>\n    <div class=\"paragraph card-text card-stanza my-5 text-center\">from student, to employee or mentor, to business owner, and employer, and leader, and inspiration.</div>\n  </div>\n</div>\n<div class=\"card card-section bg-dark text-warning shadow\">\n  <div class=\"section card-body mb-0 my-2\">\n    <div class=\"paragraph card-text card-stanza my-5 text-center\">There is nothing abstract to memorize here,</div>\n    <div class=\"paragraph card-text card-stanza my-5 text-center\">it is a clear road of achievement and excellence.</div>\n  </div>\n</div>\n<div class=\"mb-5 section-spacer\">&nbsp;</div>\n<div class=\"card card-section bg-dark text-warning shadow\">\n  <div class=\"section card-body mb-0 my-2\">\n    <div class=\"paragraph card-text card-stanza my-5 text-center\">School demands that you travel a lot,</div>\n    <div class=\"paragraph card-text card-stanza my-5 text-center\">switching cultures, nations, languages, laboratories and even interests.</div>\n  </div>\n</div>\n<div class=\"card card-section bg-dark text-warning shadow\">\n  <div class=\"section card-body mb-0 my-2\">\n    <div class=\"paragraph card-text card-stanza my-5 text-center\">It is not scary, it is not lonely, you pick when and where to go,</div>\n    <div class=\"paragraph card-text card-stanza my-5 text-center\">but you have to move from school to school.</div>\n  </div>\n</div>\n<div class=\"card card-section bg-dark text-warning shadow\">\n  <div class=\"section card-body mb-0 my-2\">\n    <div class=\"paragraph card-text card-stanza my-5 text-center\">You will never feel stuck or lonely,</div>\n    <div class=\"paragraph card-text card-stanza my-5 text-center\">you will never be among strangers, you will never be unsafe.</div>\n  </div>\n</div>\n<div class=\"card card-section bg-dark text-warning shadow\">\n  <div class=\"section card-body mb-0 my-2\">\n    <div class=\"paragraph card-text card-stanza my-5 text-center\">It is difficult to describe the change that your mind will go through,</div>\n    <div class=\"paragraph card-text card-stanza my-5 text-center\">there will be a visible change in your behavior as you become a Citizen of The Wold.</div>\n  </div>\n</div>\n<div class=\"mb-5 section-spacer\">&nbsp;</div>\n<div class=\"card card-section bg-dark text-warning shadow\">\n  <div class=\"section card-body mb-0 my-2\">\n    <div class=\"paragraph card-text card-stanza my-5 text-center\">The primary purpose of the school,</div>\n    <div class=\"paragraph card-text card-stanza my-5 text-center\">is to encourage you to become a leader in the field or fields that call to you.</div>\n  </div>\n</div>\n<div class=\"card card-section bg-dark text-warning shadow\">\n  <div class=\"section card-body mb-0 my-2\">\n    <div class=\"paragraph card-text card-stanza my-5 text-center\">It is there, to help you, to heal you, to protect you,</div>\n    <div class=\"paragraph card-text card-stanza my-5 text-center\">to give you unlimited retries until you succeed.</div>\n  </div>\n</div>\n<div class=\"card card-section bg-dark text-warning shadow\">\n  <div class=\"section card-body mb-0 my-2\">\n    <div class=\"paragraph card-text card-stanza my-5 text-center\">The school will recognize you as an investment,</div>\n    <div class=\"paragraph card-text card-stanza my-5 text-center\">a key to a worthy and peaceful future for Human Kind.</div>\n  </div>\n</div>\n<div class=\"card card-section bg-dark text-warning shadow\">\n  <div class=\"section card-body mb-0 my-2\">\n    <div class=\"paragraph card-text card-stanza my-5 text-center\">In return, you will rise to become a healthy, dignified, knowledgeable, and independent thinker and creator,</div>\n    <div class=\"paragraph card-text card-stanza my-5 text-center\">one to make meaningful contributions to Human Kind, and come your retirement; leave a lasting legacy behind.</div>\n  </div>\n</div>",
  "print": "<div class=\"section avoid-break-inside\" style=\"padding-bottom: 2rem;\">\n  <div class=\"paragraph\">Above all, school pays for a hotel of your choice, including food and whatever else you need,</div>\n  <div class=\"paragraph\">it does not matter if you are an exchange student, or if you want to live on your own.</div>\n</div>\n<div class=\"section avoid-break-inside\" style=\"padding-bottom: 2rem;\">\n  <div class=\"paragraph\">And you can't be expelled for any reason, if you do something wrong,</div>\n  <div class=\"paragraph\">no one will punish you, you'll get group therapy session with all the other people who think different.</div>\n</div>\n<div class=\"section avoid-break-inside\" style=\"padding-bottom: 2rem;\">\n  <div class=\"paragraph\">Until you are ready to leave, school becomes your home,</div>\n  <div class=\"paragraph\">and since there is no graduation, you can always come back.</div>\n</div>\n<div class=\"section avoid-break-inside\" style=\"padding-bottom: 2rem;\">\n  <div class=\"paragraph\">Just like there are no creepy dorm rooms,</div>\n  <div class=\"paragraph\">there is no real nurses office, you go to a hospital and the school will cover your bills.</div>\n</div>\n<div class=\"section avoid-break-inside\" style=\"padding-bottom: 2rem;\">\n  <br>\n</div>\n<div class=\"section avoid-break-inside\" style=\"padding-bottom: 2rem;\">\n  <div class=\"paragraph\">This is a place that will always treat you with great dignity,</div>\n  <div class=\"paragraph\">they know that if you drop out, the future of the world will be darker for it.</div>\n</div>\n<div class=\"section avoid-break-inside\" style=\"padding-bottom: 2rem;\">\n  <div class=\"paragraph\">You will be granted peace and serenity, and calm and safety and security,</div>\n  <div class=\"paragraph\">and no one will take that way from you.</div>\n</div>\n<div class=\"section avoid-break-inside\" style=\"padding-bottom: 2rem;\">\n  <div class=\"paragraph\">If you take of to work on your own,</div>\n  <div class=\"paragraph\">and your business fails, you will be welcomed back.</div>\n</div>\n<div class=\"section avoid-break-inside\" style=\"padding-bottom: 2rem;\">\n  <div class=\"paragraph\">The worst thing that will ever happen to you,</div>\n  <div class=\"paragraph\">is coming back home, speaking out about your challenges, and trying again, until don't come back.</div>\n</div>\n<div class=\"section avoid-break-inside\" style=\"padding-bottom: 2rem;\">\n  <br>\n</div>\n<div class=\"section avoid-break-inside\" style=\"padding-bottom: 2rem;\">\n  <div class=\"paragraph\">The school is focused on real results,</div>\n  <div class=\"paragraph\">here you will not be asked to memorize what the powerhouse of the cell is.</div>\n</div>\n<div class=\"section avoid-break-inside\" style=\"padding-bottom: 2rem;\">\n  <div class=\"paragraph\">If you are into Microbiology, Medicine, you get a white coat,</div>\n  <div class=\"paragraph\">and you are asked to find a place where you fit in.</div>\n</div>\n<div class=\"section avoid-break-inside\" style=\"padding-bottom: 2rem;\">\n  <div class=\"paragraph\">And isn't very often that a person can't find a place where they fit in,</div>\n  <div class=\"paragraph\">it is because to become curious about Microbiology is to have read a hundred books about it...</div>\n</div>\n<div class=\"section avoid-break-inside\" style=\"padding-bottom: 2rem;\">\n  <div class=\"paragraph\">...is to be passionate about some detail,</div>\n  <div class=\"paragraph\">there will be plenty of others with similar interests.</div>\n</div>\n<div class=\"section avoid-break-inside\" style=\"padding-bottom: 2rem;\">\n  <br>\n</div>\n<div class=\"section avoid-break-inside\" style=\"padding-bottom: 2rem;\">\n  <div class=\"paragraph\">Software development is perhaps the most illustrative idea,</div>\n  <div class=\"paragraph\">the community is extremely friendly and the world is full of tutorials to help you get started.</div>\n</div>\n<div class=\"section avoid-break-inside\" style=\"padding-bottom: 2rem;\">\n  <div class=\"paragraph\">It is a self guiding field,</div>\n  <div class=\"paragraph\">driven by new ideas.</div>\n</div>\n<div class=\"section avoid-break-inside\" style=\"padding-bottom: 2rem;\">\n  <div class=\"paragraph\">And your relation to the field will transform,</div>\n  <div class=\"paragraph\">from student, to employee or mentor, to business owner, and employer, and leader, and inspiration.</div>\n</div>\n<div class=\"section avoid-break-inside\" style=\"padding-bottom: 2rem;\">\n  <div class=\"paragraph\">There is nothing abstract to memorize here,</div>\n  <div class=\"paragraph\">it is a clear road of achievement and excellence.</div>\n</div>\n<div class=\"section avoid-break-inside\" style=\"padding-bottom: 2rem;\">\n  <br>\n</div>\n<div class=\"section avoid-break-inside\" style=\"padding-bottom: 2rem;\">\n  <div class=\"paragraph\">School demands that you travel a lot,</div>\n  <div class=\"paragraph\">switching cultures, nations, languages, laboratories and even interests.</div>\n</div>\n<div class=\"section avoid-break-inside\" style=\"padding-bottom: 2rem;\">\n  <div class=\"paragraph\">It is not scary, it is not lonely, you pick when and where to go,</div>\n  <div class=\"paragraph\">but you have to move from school to school.</div>\n</div>\n<div class=\"section avoid-break-inside\" style=\"padding-bottom: 2rem;\">\n  <div class=\"paragraph\">You will never feel stuck or lonely,</div>\n  <div class=\"paragraph\">you will never be among strangers, you will never be unsafe.</div>\n</div>\n<div class=\"section avoid-break-inside\" style=\"padding-bottom: 2rem;\">\n  <div class=\"paragraph\">It is difficult to describe the change that your mind will go through,</div>\n  <div class=\"paragraph\">there will be a visible change in your behavior as you become a Citizen of The Wold.</div>\n</div>\n<div class=\"section avoid-break-inside\" style=\"padding-bottom: 2rem;\">\n  <br>\n</div>\n<div class=\"section avoid-break-inside\" style=\"padding-bottom: 2rem;\">\n  <div class=\"paragraph\">The primary purpose of the school,</div>\n  <div class=\"paragraph\">is to encourage you to become a leader in the field or fields that call to you.</div>\n</div>\n<div class=\"section avoid-break-inside\" style=\"padding-bottom: 2rem;\">\n  <div class=\"paragraph\">It is there, to help you, to heal you, to protect you,</div>\n  <div class=\"paragraph\">to give you unlimited retries until you succeed.</div>\n</div>\n<div class=\"section avoid-break-inside\" style=\"padding-bottom: 2rem;\">\n  <div class=\"paragraph\">The school will recognize you as an investment,</div>\n  <div class=\"paragraph\">a key to a worthy and peaceful future for Human Kind.</div>\n</div>\n<div class=\"section avoid-break-inside\" style=\"padding-bottom: 2rem;\">\n  <div class=\"paragraph\">In return, you will rise to become a healthy, dignified, knowledgeable, and independent thinker and creator,</div>\n  <div class=\"paragraph\">one to make meaningful contributions to Human Kind, and come your retirement; leave a lasting legacy behind.</div>\n</div>",
  "text": "Above all, school pays for a hotel of your choice, including food and whatever else you need,\nit does not matter if you are an exchange student, or if you want to live on your own.\nAnd you can't be expelled for any reason, if you do something wrong,\nno one will punish you, you'll get group therapy session with all the other people who think different.\nUntil you are ready to leave, school becomes your home,\nand since there is no graduation, you can always come back.\nJust like there are no creepy dorm rooms,\nthere is no real nurses office, you go to a hospital and the school will cover your bills.\n\nThis is a place that will always treat you with great dignity,\nthey know that if you drop out, the future of the world will be darker for it.\nYou will be granted peace and serenity, and calm and safety and security,\nand no one will take that way from you.\nIf you take of to work on your own,\nand your business fails, you will be welcomed back.\nThe worst thing that will ever happen to you,\nis coming back home, speaking out about your challenges, and trying again, until don't come back.\n\nThe school is focused on real results,\nhere you will not be asked to memorize what the powerhouse of the cell is.\nIf you are into Microbiology, Medicine, you get a white coat,\nand you are asked to find a place where you fit in.\nAnd isn't very often that a person can't find a place where they fit in,\nit is because to become curious about Microbiology is to have read a hundred books about it...\n...is to be passionate about some detail,\nthere will be plenty of others with similar interests.\n\nSoftware development is perhaps the most illustrative idea,\nthe community is extremely friendly and the world is full of tutorials to help you get started.\nIt is a self guiding field,\ndriven by new ideas.\nAnd your relation to the field will transform,\nfrom student, to employee or mentor, to business owner, and employer, and leader, and inspiration.\nThere is nothing abstract to memorize here,\nit is a clear road of achievement and excellence.\n\nSchool demands that you travel a lot,\nswitching cultures, nations, languages, laboratories and even interests.\nIt is not scary, it is not lonely, you pick when and where to go,\nbut you have to move from school to school.\nYou will never feel stuck or lonely,\nyou will never be among strangers, you will never be unsafe.\nIt is difficult to describe the change that your mind will go through,\nthere will be a visible change in your behavior as you become a Citizen of The Wold.\n\nThe primary purpose of the school,\nis to encourage you to become a leader in the field or fields that call to you.\nIt is there, to help you, to heal you, to protect you,\nto give you unlimited retries until you succeed.\nThe school will recognize you as an investment,\na key to a worthy and peaceful future for Human Kind.\nIn return, you will rise to become a healthy, dignified, knowledgeable, and independent thinker and creator,\none to make meaningful contributions to Human Kind, and come your retirement; leave a lasting legacy behind.",
  "images": [],
  "links": []
}