[
  {
    "title": "Title Image Contest",
    "url": "https://www.reddit.com/r/redditgetsdrawn/comments/wud87a/this_is_me/ilxs5lt/?context=3",
    "hostname": "www.reddit.com"
  },
  {
    "title": "Title Image Time-lapse",
    "url": "https://youtu.be/NBhuUYJtSbs",
    "hostname": "youtu.be"
  }
]