{
  "name": "furkies-purrkies-poetry-0909",
  "id": "furkies-purrkies-poetry-0909",
  "title": "Making The World Beautiful; Or, The Idea To Unite The World Will Never Get Old",
  "date": "2022-08-26T23:56:08.898Z",
  "image": "poetry-0909-illustration.jpg",
  "artwork": "https://catpea.com",
  "audio": "poetry-0909.mp3",
  "guid": "04fdff5d-bf13-49e7-8cfc-e154d190fa34",
  "html": "<div class=\"section\">\n  <p>We got used to some ideas that got reversed,<br>and now have to design out world top-down first.</p>\n  <p>We can't fight the ghouls and vultures,<br>as what we need; is to unite all cultures.</p>\n  <p>That requires that a person grows,<br>that we all rise from the lows.</p>\n  <p>Although peace is found in education,<br>we must above all fix global poverty and starvation.</p>\n  <p>We can't learn when we are scared,<br>as our creativity becomes impaired.</p>\n</div>\n<div class=\"section\">\n  <hr>\n</div>\n<div class=\"section\">\n  <p>So to get everyone real education,<br>we must end poverty in every nation.</p>\n  <p>See, the credit card is already just software,<br>we can end this nightmare.</p>\n  <p>Create a universal income bank that does not track debt,<br>everyone can go to school, and the world is all set.</p>\n  <p>Education is the only way we can leave bad ideas behind,<br>the road to world peace; requires the mind.</p>\n</div>\n<div class=\"section\">\n  <hr>\n</div>\n<div class=\"section\">\n  <p>There are too many bad ideas, and yet, people are to quick to dismiss,<br>when I write like this.</p>\n</div>\n<div class=\"section\">\n  <hr>\n</div>\n<div class=\"section\">\n  <p>So I searched for a different tool,<br>that would still move the world towards a real school.</p>\n  <p>I found that the idea of genius is supremely dumb,<br>and it is something we must escape from.</p>\n  <p>We're all super smart,<br>we must recognize wisdom and greatness as our right.</p>\n  <p>So I am trying to use art,<br>to show everyone they are super smart.</p>\n  <p>This way students will be able to see,<br>what a classroom should be.</p>\n</div>\n<div class=\"section\">\n  <hr>\n</div>\n<div class=\"section\">\n  <p>It is not the borders that outline a nation,<br>it is just the low level of education.</p>\n  <p>For humanity to advance and rise,<br>we must all become wise.</p>\n</div>\n<div class=\"section\">\n  <hr>\n</div>\n<div class=\"section\">\n  <p><a href=\"https://www.reddit.com/r/redditgetsdrawn/comments/wud87a/this_is_me/ilxs5lt/?context=3\">Title Image Contest</a><br><a href=\"https://youtu.be/NBhuUYJtSbs\">Title Image Time-lapse</a></p>\n</div>",
  "bootstrap": "<div class=\"card card-section bg-dark text-warning shadow\">\n  <div class=\"section card-body mb-0 my-2\">\n    <div class=\"paragraph card-text card-stanza my-5 text-center\">We got used to some ideas that got reversed,<br>and now have to design out world top-down first.</div>\n    <div class=\"paragraph card-text card-stanza my-5 text-center\">We can't fight the ghouls and vultures,<br>as what we need; is to unite all cultures.</div>\n    <div class=\"paragraph card-text card-stanza my-5 text-center\">That requires that a person grows,<br>that we all rise from the lows.</div>\n    <div class=\"paragraph card-text card-stanza my-5 text-center\">Although peace is found in education,<br>we must above all fix global poverty and starvation.</div>\n    <div class=\"paragraph card-text card-stanza my-5 text-center\">We can't learn when we are scared,<br>as our creativity becomes impaired.</div>\n  </div>\n</div>\n<div class=\"mb-5 section-spacer\">&nbsp;</div>\n<div class=\"card card-section bg-dark text-warning shadow\">\n  <div class=\"section card-body mb-0 my-2\">\n    <div class=\"paragraph card-text card-stanza my-5 text-center\">So to get everyone real education,<br>we must end poverty in every nation.</div>\n    <div class=\"paragraph card-text card-stanza my-5 text-center\">See, the credit card is already just software,<br>we can end this nightmare.</div>\n    <div class=\"paragraph card-text card-stanza my-5 text-center\">Create a universal income bank that does not track debt,<br>everyone can go to school, and the world is all set.</div>\n    <div class=\"paragraph card-text card-stanza my-5 text-center\">Education is the only way we can leave bad ideas behind,<br>the road to world peace; requires the mind.</div>\n  </div>\n</div>\n<div class=\"mb-5 section-spacer\">&nbsp;</div>\n<div class=\"card card-section bg-dark text-warning shadow\">\n  <div class=\"section card-body mb-0 my-2\">\n    <div class=\"paragraph card-text card-stanza my-5 text-center\">There are too many bad ideas, and yet, people are to quick to dismiss,<br>when I write like this.</div>\n  </div>\n</div>\n<div class=\"mb-5 section-spacer\">&nbsp;</div>\n<div class=\"card card-section bg-dark text-warning shadow\">\n  <div class=\"section card-body mb-0 my-2\">\n    <div class=\"paragraph card-text card-stanza my-5 text-center\">So I searched for a different tool,<br>that would still move the world towards a real school.</div>\n    <div class=\"paragraph card-text card-stanza my-5 text-center\">I found that the idea of genius is supremely dumb,<br>and it is something we must escape from.</div>\n    <div class=\"paragraph card-text card-stanza my-5 text-center\">We're all super smart,<br>we must recognize wisdom and greatness as our right.</div>\n    <div class=\"paragraph card-text card-stanza my-5 text-center\">So I am trying to use art,<br>to show everyone they are super smart.</div>\n    <div class=\"paragraph card-text card-stanza my-5 text-center\">This way students will be able to see,<br>what a classroom should be.</div>\n  </div>\n</div>\n<div class=\"mb-5 section-spacer\">&nbsp;</div>\n<div class=\"card card-section bg-dark text-warning shadow\">\n  <div class=\"section card-body mb-0 my-2\">\n    <div class=\"paragraph card-text card-stanza my-5 text-center\">It is not the borders that outline a nation,<br>it is just the low level of education.</div>\n    <div class=\"paragraph card-text card-stanza my-5 text-center\">For humanity to advance and rise,<br>we must all become wise.</div>\n  </div>\n</div>\n<div class=\"mb-5 section-spacer\">&nbsp;</div>\n<div class=\"card card-section bg-dark text-warning shadow\">\n  <div class=\"section card-body mb-0 my-2\">\n    <div class=\"paragraph card-text card-stanza my-5 text-center\"><a href=\"https://www.reddit.com/r/redditgetsdrawn/comments/wud87a/this_is_me/ilxs5lt/?context=3\">Title Image Contest</a><br><a href=\"https://youtu.be/NBhuUYJtSbs\">Title Image Time-lapse</a></div>\n  </div>\n</div>",
  "print": "<div class=\"section avoid-break-inside\" style=\"padding-bottom: 2rem;\">\n  <div class=\"paragraph\">We got used to some ideas that got reversed,<br>and now have to design out world top-down first.</div>\n  <div class=\"paragraph\">We can't fight the ghouls and vultures,<br>as what we need; is to unite all cultures.</div>\n  <div class=\"paragraph\">That requires that a person grows,<br>that we all rise from the lows.</div>\n  <div class=\"paragraph\">Although peace is found in education,<br>we must above all fix global poverty and starvation.</div>\n  <div class=\"paragraph\">We can't learn when we are scared,<br>as our creativity becomes impaired.</div>\n</div>\n<div class=\"section avoid-break-inside\" style=\"padding-bottom: 2rem;\">\n  <br>\n</div>\n<div class=\"section avoid-break-inside\" style=\"padding-bottom: 2rem;\">\n  <div class=\"paragraph\">So to get everyone real education,<br>we must end poverty in every nation.</div>\n  <div class=\"paragraph\">See, the credit card is already just software,<br>we can end this nightmare.</div>\n  <div class=\"paragraph\">Create a universal income bank that does not track debt,<br>everyone can go to school, and the world is all set.</div>\n  <div class=\"paragraph\">Education is the only way we can leave bad ideas behind,<br>the road to world peace; requires the mind.</div>\n</div>\n<div class=\"section avoid-break-inside\" style=\"padding-bottom: 2rem;\">\n  <br>\n</div>\n<div class=\"section avoid-break-inside\" style=\"padding-bottom: 2rem;\">\n  <div class=\"paragraph\">There are too many bad ideas, and yet, people are to quick to dismiss,<br>when I write like this.</div>\n</div>\n<div class=\"section avoid-break-inside\" style=\"padding-bottom: 2rem;\">\n  <br>\n</div>\n<div class=\"section avoid-break-inside\" style=\"padding-bottom: 2rem;\">\n  <div class=\"paragraph\">So I searched for a different tool,<br>that would still move the world towards a real school.</div>\n  <div class=\"paragraph\">I found that the idea of genius is supremely dumb,<br>and it is something we must escape from.</div>\n  <div class=\"paragraph\">We're all super smart,<br>we must recognize wisdom and greatness as our right.</div>\n  <div class=\"paragraph\">So I am trying to use art,<br>to show everyone they are super smart.</div>\n  <div class=\"paragraph\">This way students will be able to see,<br>what a classroom should be.</div>\n</div>\n<div class=\"section avoid-break-inside\" style=\"padding-bottom: 2rem;\">\n  <br>\n</div>\n<div class=\"section avoid-break-inside\" style=\"padding-bottom: 2rem;\">\n  <div class=\"paragraph\">It is not the borders that outline a nation,<br>it is just the low level of education.</div>\n  <div class=\"paragraph\">For humanity to advance and rise,<br>we must all become wise.</div>\n</div>\n<div class=\"section avoid-break-inside\" style=\"padding-bottom: 2rem;\">\n  <br>\n</div>\n<div class=\"section avoid-break-inside\" style=\"padding-bottom: 2rem;\">\n  <div class=\"paragraph\"><span>Title Image Contest<sup>[1]</sup></span><br><span>Title Image Time-lapse<sup>[2]</sup></span></div>\n</div>\n<div class=\"break-after\">&nbsp;</div>\n<div>\n  <div class=\"section\" style=\"padding-bottom: 1rem;\">References</div>\n  <div>[1]: https://www.reddit.com/r/redditgetsdrawn/comments/wud87a/this_is_me/ilxs5lt/?context=3</div>\n  <div>[2]: https://youtu.be/NBhuUYJtSbs</div>\n</div>",
  "text": "We got used to some ideas that got reversed,\nand now have to design out world top-down first.\nWe can't fight the ghouls and vultures,\nas what we need; is to unite all cultures.\nThat requires that a person grows,\nthat we all rise from the lows.\nAlthough peace is found in education,\nwe must above all fix global poverty and starvation.\nWe can't learn when we are scared,\nas our creativity becomes impaired.\n\nSo to get everyone real education,\nwe must end poverty in every nation.\nSee, the credit card is already just software,\nwe can end this nightmare.\nCreate a universal income bank that does not track debt,\neveryone can go to school, and the world is all set.\nEducation is the only way we can leave bad ideas behind,\nthe road to world peace; requires the mind.\n\nThere are too many bad ideas, and yet, people are to quick to dismiss,\nwhen I write like this.\n\nSo I searched for a different tool,\nthat would still move the world towards a real school.\nI found that the idea of genius is supremely dumb,\nand it is something we must escape from.\nWe're all super smart,\nwe must recognize wisdom and greatness as our right.\nSo I am trying to use art,\nto show everyone they are super smart.\nThis way students will be able to see,\nwhat a classroom should be.\n\nIt is not the borders that outline a nation,\nit is just the low level of education.\nFor humanity to advance and rise,\nwe must all become wise.\n\nTitle Image Contest[1]\nTitle Image Time-lapse[2]\n \nReferences\n[1]: https://www.reddit.com/r/redditgetsdrawn/comments/wud87a/this_is_me/ilxs5lt/?context=3\n[2]: https://youtu.be/NBhuUYJtSbs",
  "images": [],
  "links": [
    {
      "title": "Title Image Contest",
      "url": "https://www.reddit.com/r/redditgetsdrawn/comments/wud87a/this_is_me/ilxs5lt/?context=3",
      "hostname": "www.reddit.com"
    },
    {
      "title": "Title Image Time-lapse",
      "url": "https://youtu.be/NBhuUYJtSbs",
      "hostname": "youtu.be"
    }
  ]
}