{
  "name": "furkies-purrkies-poetry-0298",
  "title": "Strive To Be Cheerful",
  "date": "2020-12-24T04:17:27.975Z",
  "image": "poetry-0298-illustration.jpg",
  "audio": "poetry-0298.mp3",
  "artwork": "https://unsplash.com/photos/HS5CLnQbCOc",
  "id": "furkies-purrkies-poetry-0298",
  "attachments": {},
  "guid": "87917925-322f-420d-83f7-8b6c7ae25dde",
  "html": "<div class=\"section\">\n  <p>Might is meant for battle only,</p>\n  <p>when battles end, we must return to balance.</p>\n</div>\n<div class=\"section\">\n  <p>Life is meant to revolve around cheerfulness,</p>\n  <p>or sweet mischief if you are one of those.</p>\n</div>\n<div class=\"section\">\n  <p>It is fueled by knowledge,</p>\n  <p>driven by wisdom, all towards greatness.</p>\n</div>\n<div class=\"section\">\n  <hr>\n</div>\n<div class=\"section\">\n  <p>It matters that we are good to ourselves,</p>\n  <p>that we care about our body and mind.</p>\n</div>\n<div class=\"section\">\n  <p>Some battles such as World Peace,</p>\n  <p>can&apos;t yet be fought, and we must not try.</p>\n</div>\n<div class=\"section\">\n  <p>If something is too big,</p>\n  <p>then it will take our cheerfulness and life away.</p>\n</div>\n<div class=\"section\">\n  <hr>\n</div>\n<div class=\"section\">\n  <p>There is much in the world that needs repair,</p>\n  <p>but first the world must become wiser.</p>\n</div>\n<div class=\"section\">\n  <p>Before a battle for World Peace is fought,</p>\n  <p>we must repair schools.</p>\n</div>\n<div class=\"section\">\n  <p>And before we take to repairing schools,</p>\n  <p>we must first speak out about what is wrong with them.</p>\n</div>\n<div class=\"section\">\n  <hr>\n</div>\n<div class=\"section\">\n  <p>The wiser our approach to such great endeavors,</p>\n  <p>the more you will see that it calls for clear thinking.</p>\n</div>\n<div class=\"section\">\n  <p>And clear thinking cannot come,</p>\n  <p>out of an unbalanced mind.</p>\n</div>\n<div class=\"section\">\n  <p>It requires peace, and cheerfulness, the sun and the moon,</p>\n  <p>ocean sunshine, snowy adventures, and fragrant woods.</p>\n</div>\n<div class=\"section\">\n  <hr>\n</div>\n<div class=\"section\">\n  <p>We must be kind to ourselves,</p>\n  <p>as in haste of might, all our life may pass us by.</p>\n</div>\n<div class=\"section\">\n  <p>And so I offer a small purrsciption,</p>\n  <p>to ensure that you are forever well.</p>\n</div>\n<div class=\"section\">\n  <p>Above all,</p>\n  <p>slow down.</p>\n</div>\n<div class=\"section\">\n  <p>Ensure that have time to listen to an audio book each week,</p>\n  <p>the book need not be long but it must be fascinating.</p>\n</div>\n<div class=\"section\">\n  <p>Prepare a tent and a backpack for this summer,</p>\n  <p>even if it is just for camping in your backyard.</p>\n</div>\n<div class=\"section\">\n  <p>Get a Mini Projector to trace photos on canvas,</p>\n  <p>and get some good watercolors, oils or pencils to begin study art.</p>\n</div>\n<div class=\"section\">\n  <p>And to keep heath, search the internet for Dance Tutorials,</p>\n  <p>and let the music move your body.</p>\n</div>\n<div class=\"section\">\n  <hr>\n</div>\n<div class=\"section\">\n  <p>You can be sure that you live in balance within your self,</p>\n  <p>when you have time for self improvement and keeping healthy.</p>\n</div>\n<div class=\"section\">\n  <hr>\n</div>\n<div class=\"section\">\n  <p>If this is something that you can&apos;t do,</p>\n  <p>then you must learn to love yourself more, and try harder.</p>\n</div>\n<div class=\"section\">\n  <p>Your health and the way you treat yourself in life,</p>\n  <p>must be the first and foremost concern.</p>\n</div>\n<div class=\"section\">\n  <p>Because, if you can&apos;t or don&apos;t care about yourself,</p>\n  <p>then many others will be too scared to care for you.</p>\n</div>\n<div class=\"section\">\n  <hr>\n</div>\n<div class=\"section\">\n  <p>Haste and Might are handy,</p>\n  <p>but just for a little while.</p>\n</div>\n<div class=\"section\">\n  <p>Balance, Creativity, Peace, and Health,</p>\n  <p>is how life is meant to be lived.</p>\n</div>\n<div class=\"section\">\n  <p>Do not be scared to switch majors, or carers, or continents,</p>\n  <p>be good to yourself, strive to be cheerful.</p>\n</div>",
  "bootstrap": "<div class=\"card card-section bg-dark text-warning shadow\">\n  <div class=\"section card-body mb-0 my-2\">\n    <div class=\"paragraph card-text card-stanza my-5 text-center\">Might is meant for battle only,</div>\n    <div class=\"paragraph card-text card-stanza my-5 text-center\">when battles end, we must return to balance.</div>\n  </div>\n</div>\n<div class=\"card card-section bg-dark text-warning shadow\">\n  <div class=\"section card-body mb-0 my-2\">\n    <div class=\"paragraph card-text card-stanza my-5 text-center\">Life is meant to revolve around cheerfulness,</div>\n    <div class=\"paragraph card-text card-stanza my-5 text-center\">or sweet mischief if you are one of those.</div>\n  </div>\n</div>\n<div class=\"card card-section bg-dark text-warning shadow\">\n  <div class=\"section card-body mb-0 my-2\">\n    <div class=\"paragraph card-text card-stanza my-5 text-center\">It is fueled by knowledge,</div>\n    <div class=\"paragraph card-text card-stanza my-5 text-center\">driven by wisdom, all towards greatness.</div>\n  </div>\n</div>\n<div class=\"mb-5 section-spacer\">&nbsp;</div>\n<div class=\"card card-section bg-dark text-warning shadow\">\n  <div class=\"section card-body mb-0 my-2\">\n    <div class=\"paragraph card-text card-stanza my-5 text-center\">It matters that we are good to ourselves,</div>\n    <div class=\"paragraph card-text card-stanza my-5 text-center\">that we care about our body and mind.</div>\n  </div>\n</div>\n<div class=\"card card-section bg-dark text-warning shadow\">\n  <div class=\"section card-body mb-0 my-2\">\n    <div class=\"paragraph card-text card-stanza my-5 text-center\">Some battles such as World Peace,</div>\n    <div class=\"paragraph card-text card-stanza my-5 text-center\">can't yet be fought, and we must not try.</div>\n  </div>\n</div>\n<div class=\"card card-section bg-dark text-warning shadow\">\n  <div class=\"section card-body mb-0 my-2\">\n    <div class=\"paragraph card-text card-stanza my-5 text-center\">If something is too big,</div>\n    <div class=\"paragraph card-text card-stanza my-5 text-center\">then it will take our cheerfulness and life away.</div>\n  </div>\n</div>\n<div class=\"mb-5 section-spacer\">&nbsp;</div>\n<div class=\"card card-section bg-dark text-warning shadow\">\n  <div class=\"section card-body mb-0 my-2\">\n    <div class=\"paragraph card-text card-stanza my-5 text-center\">There is much in the world that needs repair,</div>\n    <div class=\"paragraph card-text card-stanza my-5 text-center\">but first the world must become wiser.</div>\n  </div>\n</div>\n<div class=\"card card-section bg-dark text-warning shadow\">\n  <div class=\"section card-body mb-0 my-2\">\n    <div class=\"paragraph card-text card-stanza my-5 text-center\">Before a battle for World Peace is fought,</div>\n    <div class=\"paragraph card-text card-stanza my-5 text-center\">we must repair schools.</div>\n  </div>\n</div>\n<div class=\"card card-section bg-dark text-warning shadow\">\n  <div class=\"section card-body mb-0 my-2\">\n    <div class=\"paragraph card-text card-stanza my-5 text-center\">And before we take to repairing schools,</div>\n    <div class=\"paragraph card-text card-stanza my-5 text-center\">we must first speak out about what is wrong with them.</div>\n  </div>\n</div>\n<div class=\"mb-5 section-spacer\">&nbsp;</div>\n<div class=\"card card-section bg-dark text-warning shadow\">\n  <div class=\"section card-body mb-0 my-2\">\n    <div class=\"paragraph card-text card-stanza my-5 text-center\">The wiser our approach to such great endeavors,</div>\n    <div class=\"paragraph card-text card-stanza my-5 text-center\">the more you will see that it calls for clear thinking.</div>\n  </div>\n</div>\n<div class=\"card card-section bg-dark text-warning shadow\">\n  <div class=\"section card-body mb-0 my-2\">\n    <div class=\"paragraph card-text card-stanza my-5 text-center\">And clear thinking cannot come,</div>\n    <div class=\"paragraph card-text card-stanza my-5 text-center\">out of an unbalanced mind.</div>\n  </div>\n</div>\n<div class=\"card card-section bg-dark text-warning shadow\">\n  <div class=\"section card-body mb-0 my-2\">\n    <div class=\"paragraph card-text card-stanza my-5 text-center\">It requires peace, and cheerfulness, the sun and the moon,</div>\n    <div class=\"paragraph card-text card-stanza my-5 text-center\">ocean sunshine, snowy adventures, and fragrant woods.</div>\n  </div>\n</div>\n<div class=\"mb-5 section-spacer\">&nbsp;</div>\n<div class=\"card card-section bg-dark text-warning shadow\">\n  <div class=\"section card-body mb-0 my-2\">\n    <div class=\"paragraph card-text card-stanza my-5 text-center\">We must be kind to ourselves,</div>\n    <div class=\"paragraph card-text card-stanza my-5 text-center\">as in haste of might, all our life may pass us by.</div>\n  </div>\n</div>\n<div class=\"card card-section bg-dark text-warning shadow\">\n  <div class=\"section card-body mb-0 my-2\">\n    <div class=\"paragraph card-text card-stanza my-5 text-center\">And so I offer a small purrsciption,</div>\n    <div class=\"paragraph card-text card-stanza my-5 text-center\">to ensure that you are forever well.</div>\n  </div>\n</div>\n<div class=\"card card-section bg-dark text-warning shadow\">\n  <div class=\"section card-body mb-0 my-2\">\n    <div class=\"paragraph card-text card-stanza my-5 text-center\">Above all,</div>\n    <div class=\"paragraph card-text card-stanza my-5 text-center\">slow down.</div>\n  </div>\n</div>\n<div class=\"card card-section bg-dark text-warning shadow\">\n  <div class=\"section card-body mb-0 my-2\">\n    <div class=\"paragraph card-text card-stanza my-5 text-center\">Ensure that have time to listen to an audio book each week,</div>\n    <div class=\"paragraph card-text card-stanza my-5 text-center\">the book need not be long but it must be fascinating.</div>\n  </div>\n</div>\n<div class=\"card card-section bg-dark text-warning shadow\">\n  <div class=\"section card-body mb-0 my-2\">\n    <div class=\"paragraph card-text card-stanza my-5 text-center\">Prepare a tent and a backpack for this summer,</div>\n    <div class=\"paragraph card-text card-stanza my-5 text-center\">even if it is just for camping in your backyard.</div>\n  </div>\n</div>\n<div class=\"card card-section bg-dark text-warning shadow\">\n  <div class=\"section card-body mb-0 my-2\">\n    <div class=\"paragraph card-text card-stanza my-5 text-center\">Get a Mini Projector to trace photos on canvas,</div>\n    <div class=\"paragraph card-text card-stanza my-5 text-center\">and get some good watercolors, oils or pencils to begin study art.</div>\n  </div>\n</div>\n<div class=\"card card-section bg-dark text-warning shadow\">\n  <div class=\"section card-body mb-0 my-2\">\n    <div class=\"paragraph card-text card-stanza my-5 text-center\">And to keep heath, search the internet for Dance Tutorials,</div>\n    <div class=\"paragraph card-text card-stanza my-5 text-center\">and let the music move your body.</div>\n  </div>\n</div>\n<div class=\"mb-5 section-spacer\">&nbsp;</div>\n<div class=\"card card-section bg-dark text-warning shadow\">\n  <div class=\"section card-body mb-0 my-2\">\n    <div class=\"paragraph card-text card-stanza my-5 text-center\">You can be sure that you live in balance within your self,</div>\n    <div class=\"paragraph card-text card-stanza my-5 text-center\">when you have time for self improvement and keeping healthy.</div>\n  </div>\n</div>\n<div class=\"mb-5 section-spacer\">&nbsp;</div>\n<div class=\"card card-section bg-dark text-warning shadow\">\n  <div class=\"section card-body mb-0 my-2\">\n    <div class=\"paragraph card-text card-stanza my-5 text-center\">If this is something that you can't do,</div>\n    <div class=\"paragraph card-text card-stanza my-5 text-center\">then you must learn to love yourself more, and try harder.</div>\n  </div>\n</div>\n<div class=\"card card-section bg-dark text-warning shadow\">\n  <div class=\"section card-body mb-0 my-2\">\n    <div class=\"paragraph card-text card-stanza my-5 text-center\">Your health and the way you treat yourself in life,</div>\n    <div class=\"paragraph card-text card-stanza my-5 text-center\">must be the first and foremost concern.</div>\n  </div>\n</div>\n<div class=\"card card-section bg-dark text-warning shadow\">\n  <div class=\"section card-body mb-0 my-2\">\n    <div class=\"paragraph card-text card-stanza my-5 text-center\">Because, if you can't or don't care about yourself,</div>\n    <div class=\"paragraph card-text card-stanza my-5 text-center\">then many others will be too scared to care for you.</div>\n  </div>\n</div>\n<div class=\"mb-5 section-spacer\">&nbsp;</div>\n<div class=\"card card-section bg-dark text-warning shadow\">\n  <div class=\"section card-body mb-0 my-2\">\n    <div class=\"paragraph card-text card-stanza my-5 text-center\">Haste and Might are handy,</div>\n    <div class=\"paragraph card-text card-stanza my-5 text-center\">but just for a little while.</div>\n  </div>\n</div>\n<div class=\"card card-section bg-dark text-warning shadow\">\n  <div class=\"section card-body mb-0 my-2\">\n    <div class=\"paragraph card-text card-stanza my-5 text-center\">Balance, Creativity, Peace, and Health,</div>\n    <div class=\"paragraph card-text card-stanza my-5 text-center\">is how life is meant to be lived.</div>\n  </div>\n</div>\n<div class=\"card card-section bg-dark text-warning shadow\">\n  <div class=\"section card-body mb-0 my-2\">\n    <div class=\"paragraph card-text card-stanza my-5 text-center\">Do not be scared to switch majors, or carers, or continents,</div>\n    <div class=\"paragraph card-text card-stanza my-5 text-center\">be good to yourself, strive to be cheerful.</div>\n  </div>\n</div>",
  "print": "<div class=\"section avoid-break-inside\" style=\"padding-bottom: 2rem;\">\n  <div class=\"paragraph\">Might is meant for battle only,</div>\n  <div class=\"paragraph\">when battles end, we must return to balance.</div>\n</div>\n<div class=\"section avoid-break-inside\" style=\"padding-bottom: 2rem;\">\n  <div class=\"paragraph\">Life is meant to revolve around cheerfulness,</div>\n  <div class=\"paragraph\">or sweet mischief if you are one of those.</div>\n</div>\n<div class=\"section avoid-break-inside\" style=\"padding-bottom: 2rem;\">\n  <div class=\"paragraph\">It is fueled by knowledge,</div>\n  <div class=\"paragraph\">driven by wisdom, all towards greatness.</div>\n</div>\n<div class=\"section avoid-break-inside\" style=\"padding-bottom: 2rem;\">\n  <br>\n</div>\n<div class=\"section avoid-break-inside\" style=\"padding-bottom: 2rem;\">\n  <div class=\"paragraph\">It matters that we are good to ourselves,</div>\n  <div class=\"paragraph\">that we care about our body and mind.</div>\n</div>\n<div class=\"section avoid-break-inside\" style=\"padding-bottom: 2rem;\">\n  <div class=\"paragraph\">Some battles such as World Peace,</div>\n  <div class=\"paragraph\">can't yet be fought, and we must not try.</div>\n</div>\n<div class=\"section avoid-break-inside\" style=\"padding-bottom: 2rem;\">\n  <div class=\"paragraph\">If something is too big,</div>\n  <div class=\"paragraph\">then it will take our cheerfulness and life away.</div>\n</div>\n<div class=\"section avoid-break-inside\" style=\"padding-bottom: 2rem;\">\n  <br>\n</div>\n<div class=\"section avoid-break-inside\" style=\"padding-bottom: 2rem;\">\n  <div class=\"paragraph\">There is much in the world that needs repair,</div>\n  <div class=\"paragraph\">but first the world must become wiser.</div>\n</div>\n<div class=\"section avoid-break-inside\" style=\"padding-bottom: 2rem;\">\n  <div class=\"paragraph\">Before a battle for World Peace is fought,</div>\n  <div class=\"paragraph\">we must repair schools.</div>\n</div>\n<div class=\"section avoid-break-inside\" style=\"padding-bottom: 2rem;\">\n  <div class=\"paragraph\">And before we take to repairing schools,</div>\n  <div class=\"paragraph\">we must first speak out about what is wrong with them.</div>\n</div>\n<div class=\"section avoid-break-inside\" style=\"padding-bottom: 2rem;\">\n  <br>\n</div>\n<div class=\"section avoid-break-inside\" style=\"padding-bottom: 2rem;\">\n  <div class=\"paragraph\">The wiser our approach to such great endeavors,</div>\n  <div class=\"paragraph\">the more you will see that it calls for clear thinking.</div>\n</div>\n<div class=\"section avoid-break-inside\" style=\"padding-bottom: 2rem;\">\n  <div class=\"paragraph\">And clear thinking cannot come,</div>\n  <div class=\"paragraph\">out of an unbalanced mind.</div>\n</div>\n<div class=\"section avoid-break-inside\" style=\"padding-bottom: 2rem;\">\n  <div class=\"paragraph\">It requires peace, and cheerfulness, the sun and the moon,</div>\n  <div class=\"paragraph\">ocean sunshine, snowy adventures, and fragrant woods.</div>\n</div>\n<div class=\"section avoid-break-inside\" style=\"padding-bottom: 2rem;\">\n  <br>\n</div>\n<div class=\"section avoid-break-inside\" style=\"padding-bottom: 2rem;\">\n  <div class=\"paragraph\">We must be kind to ourselves,</div>\n  <div class=\"paragraph\">as in haste of might, all our life may pass us by.</div>\n</div>\n<div class=\"section avoid-break-inside\" style=\"padding-bottom: 2rem;\">\n  <div class=\"paragraph\">And so I offer a small purrsciption,</div>\n  <div class=\"paragraph\">to ensure that you are forever well.</div>\n</div>\n<div class=\"section avoid-break-inside\" style=\"padding-bottom: 2rem;\">\n  <div class=\"paragraph\">Above all,</div>\n  <div class=\"paragraph\">slow down.</div>\n</div>\n<div class=\"section avoid-break-inside\" style=\"padding-bottom: 2rem;\">\n  <div class=\"paragraph\">Ensure that have time to listen to an audio book each week,</div>\n  <div class=\"paragraph\">the book need not be long but it must be fascinating.</div>\n</div>\n<div class=\"section avoid-break-inside\" style=\"padding-bottom: 2rem;\">\n  <div class=\"paragraph\">Prepare a tent and a backpack for this summer,</div>\n  <div class=\"paragraph\">even if it is just for camping in your backyard.</div>\n</div>\n<div class=\"section avoid-break-inside\" style=\"padding-bottom: 2rem;\">\n  <div class=\"paragraph\">Get a Mini Projector to trace photos on canvas,</div>\n  <div class=\"paragraph\">and get some good watercolors, oils or pencils to begin study art.</div>\n</div>\n<div class=\"section avoid-break-inside\" style=\"padding-bottom: 2rem;\">\n  <div class=\"paragraph\">And to keep heath, search the internet for Dance Tutorials,</div>\n  <div class=\"paragraph\">and let the music move your body.</div>\n</div>\n<div class=\"section avoid-break-inside\" style=\"padding-bottom: 2rem;\">\n  <br>\n</div>\n<div class=\"section avoid-break-inside\" style=\"padding-bottom: 2rem;\">\n  <div class=\"paragraph\">You can be sure that you live in balance within your self,</div>\n  <div class=\"paragraph\">when you have time for self improvement and keeping healthy.</div>\n</div>\n<div class=\"section avoid-break-inside\" style=\"padding-bottom: 2rem;\">\n  <br>\n</div>\n<div class=\"section avoid-break-inside\" style=\"padding-bottom: 2rem;\">\n  <div class=\"paragraph\">If this is something that you can't do,</div>\n  <div class=\"paragraph\">then you must learn to love yourself more, and try harder.</div>\n</div>\n<div class=\"section avoid-break-inside\" style=\"padding-bottom: 2rem;\">\n  <div class=\"paragraph\">Your health and the way you treat yourself in life,</div>\n  <div class=\"paragraph\">must be the first and foremost concern.</div>\n</div>\n<div class=\"section avoid-break-inside\" style=\"padding-bottom: 2rem;\">\n  <div class=\"paragraph\">Because, if you can't or don't care about yourself,</div>\n  <div class=\"paragraph\">then many others will be too scared to care for you.</div>\n</div>\n<div class=\"section avoid-break-inside\" style=\"padding-bottom: 2rem;\">\n  <br>\n</div>\n<div class=\"section avoid-break-inside\" style=\"padding-bottom: 2rem;\">\n  <div class=\"paragraph\">Haste and Might are handy,</div>\n  <div class=\"paragraph\">but just for a little while.</div>\n</div>\n<div class=\"section avoid-break-inside\" style=\"padding-bottom: 2rem;\">\n  <div class=\"paragraph\">Balance, Creativity, Peace, and Health,</div>\n  <div class=\"paragraph\">is how life is meant to be lived.</div>\n</div>\n<div class=\"section avoid-break-inside\" style=\"padding-bottom: 2rem;\">\n  <div class=\"paragraph\">Do not be scared to switch majors, or carers, or continents,</div>\n  <div class=\"paragraph\">be good to yourself, strive to be cheerful.</div>\n</div>",
  "text": "Might is meant for battle only,\nwhen battles end, we must return to balance.\nLife is meant to revolve around cheerfulness,\nor sweet mischief if you are one of those.\nIt is fueled by knowledge,\ndriven by wisdom, all towards greatness.\n\nIt matters that we are good to ourselves,\nthat we care about our body and mind.\nSome battles such as World Peace,\ncan't yet be fought, and we must not try.\nIf something is too big,\nthen it will take our cheerfulness and life away.\n\nThere is much in the world that needs repair,\nbut first the world must become wiser.\nBefore a battle for World Peace is fought,\nwe must repair schools.\nAnd before we take to repairing schools,\nwe must first speak out about what is wrong with them.\n\nThe wiser our approach to such great endeavors,\nthe more you will see that it calls for clear thinking.\nAnd clear thinking cannot come,\nout of an unbalanced mind.\nIt requires peace, and cheerfulness, the sun and the moon,\nocean sunshine, snowy adventures, and fragrant woods.\n\nWe must be kind to ourselves,\nas in haste of might, all our life may pass us by.\nAnd so I offer a small purrsciption,\nto ensure that you are forever well.\nAbove all,\nslow down.\nEnsure that have time to listen to an audio book each week,\nthe book need not be long but it must be fascinating.\nPrepare a tent and a backpack for this summer,\neven if it is just for camping in your backyard.\nGet a Mini Projector to trace photos on canvas,\nand get some good watercolors, oils or pencils to begin study art.\nAnd to keep heath, search the internet for Dance Tutorials,\nand let the music move your body.\n\nYou can be sure that you live in balance within your self,\nwhen you have time for self improvement and keeping healthy.\n\nIf this is something that you can't do,\nthen you must learn to love yourself more, and try harder.\nYour health and the way you treat yourself in life,\nmust be the first and foremost concern.\nBecause, if you can't or don't care about yourself,\nthen many others will be too scared to care for you.\n\nHaste and Might are handy,\nbut just for a little while.\nBalance, Creativity, Peace, and Health,\nis how life is meant to be lived.\nDo not be scared to switch majors, or carers, or continents,\nbe good to yourself, strive to be cheerful.",
  "images": [],
  "links": []
}