{
  "title": "Real Education",
  "date": "2020-12-18T01:38:02.697Z",
  "image": "poetry-0292-illustration.jpg",
  "audio": "poetry-0292.mp3",
  "artwork": "https://unsplash.com/photos/elHKkgom1VU",
  "id": "furkies-purrkies-poetry-0292",
  "attachments": {},
  "guid": "b0aee2d0-316a-4296-9e00-6a634be3e157"
}
