{
  "title": "Whew, It Is Only Eight!",
  "date": "2020-07-11T00:36:16.758Z",
  "image": "poetry-0133-illustration.jpg",
  "audio": "poetry-0133.mp3",
  "id": "furkies-purrkies-poetry-0133",
  "attachments": {},
  "guid": "73104d07-19b5-4491-92c6-e9f07f1dbe3f"
}
