{
  "name": "furkies-purrkies-poetry-0686",
  "id": "furkies-purrkies-poetry-0686",
  "title": "A Beautiful Work Of Art",
  "date": "2022-01-16T02:21:30.109Z",
  "image": "poetry-0686-illustration.jpg",
  "artwork": "https://unsplash.com/photos/wXYggdVFeQI",
  "audio": "poetry-0686.mp3",
  "guid": "822f265b-1249-4537-a50a-83cae6fe1405",
  "html": "<div class=\"section\">\n  <p>In the beginning find your own self,<br>remember to be the Elf and not the shelf.</p>\n  <p>Don't just instantly run out the door,<br>don't go sky diving, do something you adore.</p>\n</div>\n<div class=\"section\">\n  <hr>\n</div>\n<div class=\"section\">\n  <p>Try fighting Matadors,<br>and tearing open the stable doors.</p>\n  <p>Save oppressed creatures,<br>maybe unleash them to become teachers.</p>\n  <p>Or, just hit the Appalachian Trail,<br>and return with a manuscript of a marvelous tail.</p>\n</div>\n<div class=\"section\">\n  <hr>\n</div>\n<div class=\"section\">\n  <p>Do things that that you move you,<br>that upon completion expand your view.</p>\n  <p>When you are young the aim is to rise,<br>and not all things need be wise.</p>\n  <p>You can even be artistic and somewhat obscene,<br>chalk London with curse words and make a big scene.</p>\n  <p>So as long as you don't get caught and the chalk comes from the White Cliffs of Dover,<br>you'll become as famous as <a href=\"https://www.youtube.com/watch?v=Az9ttLyQe9E\">Banksy</a> before it is over.</p>\n</div>\n<div class=\"section\">\n  <hr>\n</div>\n<div class=\"section\">\n  <p>Read many books on your way to your middle age,<br>and wisdom will take the center stage.</p>\n  <p>Your beautifully foolish Guerrilla Art,<br>will transform into many things that are very smart.</p>\n  <p>Stay on the trails,<br>and bring back many tales.</p>\n  <p>Pacific Crest Trail is great for growing wise,<br>all those sunsets make for beautiful skies.</p>\n  <p>This is about a strong connection,<br>and a single Human direction.</p>\n  <p>When wisdom fills your middle life,<br>in your golden age, it will cut through questions like a knife.</p>\n</div>\n<div class=\"section\">\n  <hr>\n</div>\n<div class=\"section\">\n  <p>Golden Age is where things get really fun,<br>you have to reverse-shoplift all your books one by one.</p>\n  <p>Visit every big library in Europe to plant your books,..<br>dress like a librarian and blend-in with your good looks.</p>\n  <p>Make sure that you sail most of the seas,<br>and enjoy the fragrant breeze.</p>\n  <p>If I may, eat a fried European flounder on a stick,<br>the salt of the Baltic Sea gives it a fiiine kick.</p>\n</div>\n<div class=\"section\">\n  <hr>\n</div>\n<div class=\"section\">\n  <p>Update the best wisdom of your generation,<br>and help the little ones with cogitation.</p>\n  <p>And please,<br>make sure they know to walk the trials and hit the seas.</p>\n  <p>We have to help the little ones begin at the best places,<br>there must never be an end to smiling faces.</p>\n</div>\n<div class=\"section\">\n  <hr>\n</div>\n<div class=\"section\">\n  <p>We cant just make a rules out of thin air,<br>and then force everyone to care.</p>\n  <p>Pushing young people into work and office, and career and stress,<br>only hurts them and creates a mess.</p>\n  <p>They need time and wisdom to see the world for what it is,<br>life is a big deal, not some multiple answer quiz.</p>\n  <p>Human Beings must be allowed to flourish and transcend,<br>that is how we can guarantee that Humanity never meets its end.</p>\n</div>\n<div class=\"section\">\n  <hr>\n</div>\n<div class=\"section\">\n  <p>A life well lived is marked by Cheerful Creativity, Beautiful Wisdom, and Lasting Greatness,<br>as it all adds up to create Profound Completeness.</p>\n  <p>And what a gift and inspiration a narrated book about such a life,<br>and how precious the wisdom that helps to avoid strife.</p>\n  <p>Surely, this is but one of countless ways to live well,<br>but we mustn't stay in our shell, nor aim for a cubicle or some other cell.</p>\n  <p>Life is meant to be A Beautiful Work Of Art,<br>it is not a machine but a beating heart.</p>\n</div>",
  "bootstrap": "<div class=\"card card-section bg-dark text-warning shadow\">\n  <div class=\"section card-body mb-0 my-2\">\n    <div class=\"paragraph card-text card-stanza my-5 text-center\">In the beginning find your own self,<br>remember to be the Elf and not the shelf.</div>\n    <div class=\"paragraph card-text card-stanza my-5 text-center\">Don't just instantly run out the door,<br>don't go sky diving, do something you adore.</div>\n  </div>\n</div>\n<div class=\"mb-5 section-spacer\">&nbsp;</div>\n<div class=\"card card-section bg-dark text-warning shadow\">\n  <div class=\"section card-body mb-0 my-2\">\n    <div class=\"paragraph card-text card-stanza my-5 text-center\">Try fighting Matadors,<br>and tearing open the stable doors.</div>\n    <div class=\"paragraph card-text card-stanza my-5 text-center\">Save oppressed creatures,<br>maybe unleash them to become teachers.</div>\n    <div class=\"paragraph card-text card-stanza my-5 text-center\">Or, just hit the Appalachian Trail,<br>and return with a manuscript of a marvelous tail.</div>\n  </div>\n</div>\n<div class=\"mb-5 section-spacer\">&nbsp;</div>\n<div class=\"card card-section bg-dark text-warning shadow\">\n  <div class=\"section card-body mb-0 my-2\">\n    <div class=\"paragraph card-text card-stanza my-5 text-center\">Do things that that you move you,<br>that upon completion expand your view.</div>\n    <div class=\"paragraph card-text card-stanza my-5 text-center\">When you are young the aim is to rise,<br>and not all things need be wise.</div>\n    <div class=\"paragraph card-text card-stanza my-5 text-center\">You can even be artistic and somewhat obscene,<br>chalk London with curse words and make a big scene.</div>\n    <div class=\"paragraph card-text card-stanza my-5 text-center\">So as long as you don't get caught and the chalk comes from the White Cliffs of Dover,<br>you'll become as famous as <a href=\"https://www.youtube.com/watch?v=Az9ttLyQe9E\">Banksy</a> before it is over.</div>\n  </div>\n</div>\n<div class=\"mb-5 section-spacer\">&nbsp;</div>\n<div class=\"card card-section bg-dark text-warning shadow\">\n  <div class=\"section card-body mb-0 my-2\">\n    <div class=\"paragraph card-text card-stanza my-5 text-center\">Read many books on your way to your middle age,<br>and wisdom will take the center stage.</div>\n    <div class=\"paragraph card-text card-stanza my-5 text-center\">Your beautifully foolish Guerrilla Art,<br>will transform into many things that are very smart.</div>\n    <div class=\"paragraph card-text card-stanza my-5 text-center\">Stay on the trails,<br>and bring back many tales.</div>\n    <div class=\"paragraph card-text card-stanza my-5 text-center\">Pacific Crest Trail is great for growing wise,<br>all those sunsets make for beautiful skies.</div>\n    <div class=\"paragraph card-text card-stanza my-5 text-center\">This is about a strong connection,<br>and a single Human direction.</div>\n    <div class=\"paragraph card-text card-stanza my-5 text-center\">When wisdom fills your middle life,<br>in your golden age, it will cut through questions like a knife.</div>\n  </div>\n</div>\n<div class=\"mb-5 section-spacer\">&nbsp;</div>\n<div class=\"card card-section bg-dark text-warning shadow\">\n  <div class=\"section card-body mb-0 my-2\">\n    <div class=\"paragraph card-text card-stanza my-5 text-center\">Golden Age is where things get really fun,<br>you have to reverse-shoplift all your books one by one.</div>\n    <div class=\"paragraph card-text card-stanza my-5 text-center\">Visit every big library in Europe to plant your books,..<br>dress like a librarian and blend-in with your good looks.</div>\n    <div class=\"paragraph card-text card-stanza my-5 text-center\">Make sure that you sail most of the seas,<br>and enjoy the fragrant breeze.</div>\n    <div class=\"paragraph card-text card-stanza my-5 text-center\">If I may, eat a fried European flounder on a stick,<br>the salt of the Baltic Sea gives it a fiiine kick.</div>\n  </div>\n</div>\n<div class=\"mb-5 section-spacer\">&nbsp;</div>\n<div class=\"card card-section bg-dark text-warning shadow\">\n  <div class=\"section card-body mb-0 my-2\">\n    <div class=\"paragraph card-text card-stanza my-5 text-center\">Update the best wisdom of your generation,<br>and help the little ones with cogitation.</div>\n    <div class=\"paragraph card-text card-stanza my-5 text-center\">And please,<br>make sure they know to walk the trials and hit the seas.</div>\n    <div class=\"paragraph card-text card-stanza my-5 text-center\">We have to help the little ones begin at the best places,<br>there must never be an end to smiling faces.</div>\n  </div>\n</div>\n<div class=\"mb-5 section-spacer\">&nbsp;</div>\n<div class=\"card card-section bg-dark text-warning shadow\">\n  <div class=\"section card-body mb-0 my-2\">\n    <div class=\"paragraph card-text card-stanza my-5 text-center\">We cant just make a rules out of thin air,<br>and then force everyone to care.</div>\n    <div class=\"paragraph card-text card-stanza my-5 text-center\">Pushing young people into work and office, and career and stress,<br>only hurts them and creates a mess.</div>\n    <div class=\"paragraph card-text card-stanza my-5 text-center\">They need time and wisdom to see the world for what it is,<br>life is a big deal, not some multiple answer quiz.</div>\n    <div class=\"paragraph card-text card-stanza my-5 text-center\">Human Beings must be allowed to flourish and transcend,<br>that is how we can guarantee that Humanity never meets its end.</div>\n  </div>\n</div>\n<div class=\"mb-5 section-spacer\">&nbsp;</div>\n<div class=\"card card-section bg-dark text-warning shadow\">\n  <div class=\"section card-body mb-0 my-2\">\n    <div class=\"paragraph card-text card-stanza my-5 text-center\">A life well lived is marked by Cheerful Creativity, Beautiful Wisdom, and Lasting Greatness,<br>as it all adds up to create Profound Completeness.</div>\n    <div class=\"paragraph card-text card-stanza my-5 text-center\">And what a gift and inspiration a narrated book about such a life,<br>and how precious the wisdom that helps to avoid strife.</div>\n    <div class=\"paragraph card-text card-stanza my-5 text-center\">Surely, this is but one of countless ways to live well,<br>but we mustn't stay in our shell, nor aim for a cubicle or some other cell.</div>\n    <div class=\"paragraph card-text card-stanza my-5 text-center\">Life is meant to be A Beautiful Work Of Art,<br>it is not a machine but a beating heart.</div>\n  </div>\n</div>",
  "print": "<div class=\"section avoid-break-inside\" style=\"padding-bottom: 2rem;\">\n  <div class=\"paragraph\">In the beginning find your own self,<br>remember to be the Elf and not the shelf.</div>\n  <div class=\"paragraph\">Don't just instantly run out the door,<br>don't go sky diving, do something you adore.</div>\n</div>\n<div class=\"section avoid-break-inside\" style=\"padding-bottom: 2rem;\">\n  <br>\n</div>\n<div class=\"section avoid-break-inside\" style=\"padding-bottom: 2rem;\">\n  <div class=\"paragraph\">Try fighting Matadors,<br>and tearing open the stable doors.</div>\n  <div class=\"paragraph\">Save oppressed creatures,<br>maybe unleash them to become teachers.</div>\n  <div class=\"paragraph\">Or, just hit the Appalachian Trail,<br>and return with a manuscript of a marvelous tail.</div>\n</div>\n<div class=\"section avoid-break-inside\" style=\"padding-bottom: 2rem;\">\n  <br>\n</div>\n<div class=\"section avoid-break-inside\" style=\"padding-bottom: 2rem;\">\n  <div class=\"paragraph\">Do things that that you move you,<br>that upon completion expand your view.</div>\n  <div class=\"paragraph\">When you are young the aim is to rise,<br>and not all things need be wise.</div>\n  <div class=\"paragraph\">You can even be artistic and somewhat obscene,<br>chalk London with curse words and make a big scene.</div>\n  <div class=\"paragraph\">So as long as you don't get caught and the chalk comes from the White Cliffs of Dover,<br>you'll become as famous as <span>Banksy<sup>[1]</sup></span> before it is over.</div>\n</div>\n<div class=\"section avoid-break-inside\" style=\"padding-bottom: 2rem;\">\n  <br>\n</div>\n<div class=\"section avoid-break-inside\" style=\"padding-bottom: 2rem;\">\n  <div class=\"paragraph\">Read many books on your way to your middle age,<br>and wisdom will take the center stage.</div>\n  <div class=\"paragraph\">Your beautifully foolish Guerrilla Art,<br>will transform into many things that are very smart.</div>\n  <div class=\"paragraph\">Stay on the trails,<br>and bring back many tales.</div>\n  <div class=\"paragraph\">Pacific Crest Trail is great for growing wise,<br>all those sunsets make for beautiful skies.</div>\n  <div class=\"paragraph\">This is about a strong connection,<br>and a single Human direction.</div>\n  <div class=\"paragraph\">When wisdom fills your middle life,<br>in your golden age, it will cut through questions like a knife.</div>\n</div>\n<div class=\"section avoid-break-inside\" style=\"padding-bottom: 2rem;\">\n  <br>\n</div>\n<div class=\"section avoid-break-inside\" style=\"padding-bottom: 2rem;\">\n  <div class=\"paragraph\">Golden Age is where things get really fun,<br>you have to reverse-shoplift all your books one by one.</div>\n  <div class=\"paragraph\">Visit every big library in Europe to plant your books,..<br>dress like a librarian and blend-in with your good looks.</div>\n  <div class=\"paragraph\">Make sure that you sail most of the seas,<br>and enjoy the fragrant breeze.</div>\n  <div class=\"paragraph\">If I may, eat a fried European flounder on a stick,<br>the salt of the Baltic Sea gives it a fiiine kick.</div>\n</div>\n<div class=\"section avoid-break-inside\" style=\"padding-bottom: 2rem;\">\n  <br>\n</div>\n<div class=\"section avoid-break-inside\" style=\"padding-bottom: 2rem;\">\n  <div class=\"paragraph\">Update the best wisdom of your generation,<br>and help the little ones with cogitation.</div>\n  <div class=\"paragraph\">And please,<br>make sure they know to walk the trials and hit the seas.</div>\n  <div class=\"paragraph\">We have to help the little ones begin at the best places,<br>there must never be an end to smiling faces.</div>\n</div>\n<div class=\"section avoid-break-inside\" style=\"padding-bottom: 2rem;\">\n  <br>\n</div>\n<div class=\"section avoid-break-inside\" style=\"padding-bottom: 2rem;\">\n  <div class=\"paragraph\">We cant just make a rules out of thin air,<br>and then force everyone to care.</div>\n  <div class=\"paragraph\">Pushing young people into work and office, and career and stress,<br>only hurts them and creates a mess.</div>\n  <div class=\"paragraph\">They need time and wisdom to see the world for what it is,<br>life is a big deal, not some multiple answer quiz.</div>\n  <div class=\"paragraph\">Human Beings must be allowed to flourish and transcend,<br>that is how we can guarantee that Humanity never meets its end.</div>\n</div>\n<div class=\"section avoid-break-inside\" style=\"padding-bottom: 2rem;\">\n  <br>\n</div>\n<div class=\"section avoid-break-inside\" style=\"padding-bottom: 2rem;\">\n  <div class=\"paragraph\">A life well lived is marked by Cheerful Creativity, Beautiful Wisdom, and Lasting Greatness,<br>as it all adds up to create Profound Completeness.</div>\n  <div class=\"paragraph\">And what a gift and inspiration a narrated book about such a life,<br>and how precious the wisdom that helps to avoid strife.</div>\n  <div class=\"paragraph\">Surely, this is but one of countless ways to live well,<br>but we mustn't stay in our shell, nor aim for a cubicle or some other cell.</div>\n  <div class=\"paragraph\">Life is meant to be A Beautiful Work Of Art,<br>it is not a machine but a beating heart.</div>\n</div>\n<div class=\"break-after\">&nbsp;</div>\n<div>\n  <div class=\"section\" style=\"padding-bottom: 1rem;\">References</div>\n  <div>[1]: https://www.youtube.com/watch?v=Az9ttLyQe9E</div>\n</div>",
  "text": "In the beginning find your own self,\nremember to be the Elf and not the shelf.\nDon't just instantly run out the door,\ndon't go sky diving, do something you adore.\n\nTry fighting Matadors,\nand tearing open the stable doors.\nSave oppressed creatures,\nmaybe unleash them to become teachers.\nOr, just hit the Appalachian Trail,\nand return with a manuscript of a marvelous tail.\n\nDo things that that you move you,\nthat upon completion expand your view.\nWhen you are young the aim is to rise,\nand not all things need be wise.\nYou can even be artistic and somewhat obscene,\nchalk London with curse words and make a big scene.\nSo as long as you don't get caught and the chalk comes from the White Cliffs of Dover,\nyou'll become as famous as Banksy[1] before it is over.\n\nRead many books on your way to your middle age,\nand wisdom will take the center stage.\nYour beautifully foolish Guerrilla Art,\nwill transform into many things that are very smart.\nStay on the trails,\nand bring back many tales.\nPacific Crest Trail is great for growing wise,\nall those sunsets make for beautiful skies.\nThis is about a strong connection,\nand a single Human direction.\nWhen wisdom fills your middle life,\nin your golden age, it will cut through questions like a knife.\n\nGolden Age is where things get really fun,\nyou have to reverse-shoplift all your books one by one.\nVisit every big library in Europe to plant your books,..\ndress like a librarian and blend-in with your good looks.\nMake sure that you sail most of the seas,\nand enjoy the fragrant breeze.\nIf I may, eat a fried European flounder on a stick,\nthe salt of the Baltic Sea gives it a fiiine kick.\n\nUpdate the best wisdom of your generation,\nand help the little ones with cogitation.\nAnd please,\nmake sure they know to walk the trials and hit the seas.\nWe have to help the little ones begin at the best places,\nthere must never be an end to smiling faces.\n\nWe cant just make a rules out of thin air,\nand then force everyone to care.\nPushing young people into work and office, and career and stress,\nonly hurts them and creates a mess.\nThey need time and wisdom to see the world for what it is,\nlife is a big deal, not some multiple answer quiz.\nHuman Beings must be allowed to flourish and transcend,\nthat is how we can guarantee that Humanity never meets its end.\n\nA life well lived is marked by Cheerful Creativity, Beautiful Wisdom, and Lasting Greatness,\nas it all adds up to create Profound Completeness.\nAnd what a gift and inspiration a narrated book about such a life,\nand how precious the wisdom that helps to avoid strife.\nSurely, this is but one of countless ways to live well,\nbut we mustn't stay in our shell, nor aim for a cubicle or some other cell.\nLife is meant to be A Beautiful Work Of Art,\nit is not a machine but a beating heart.\n \nReferences\n[1]: https://www.youtube.com/watch?v=Az9ttLyQe9E",
  "images": [],
  "links": [
    {
      "title": "Banksy",
      "url": "https://www.youtube.com/watch?v=Az9ttLyQe9E",
      "hostname": "www.youtube.com"
    }
  ]
}