{
  "title": "If by Rudyard Kipling",
  "date": "2020-03-24T15:18:57.286Z",
  "image": "poetry-0011-illustration.jpg",
  "artwork": "https://catpea.com/",
  "id": "furkies-purrkies-poetry-0011",
  "attachments": {},
  "guid": "8ca2a36d-f634-49aa-b74a-c51fab150ff4"
}
