{
  "name": "furkies-purrkies-poetry-0527",
  "id": "furkies-purrkies-poetry-0527",
  "title": "A Note About Education: Why Self Education Should Always Come First",
  "date": "2021-08-09T22:58:51.071Z",
  "image": "poetry-0527-illustration.jpg",
  "artwork": "https://unsplash.com/photos/55bVEzGVnzY",
  "audio": "poetry-0527.mp3",
  "guid": "48b6201f-0744-4bd2-ae5d-2de4294a5c15",
  "html": "<div class=\"section\">\n  <p>The most powerful things,<br>are often attacked with shame.</p>\n  <p>For example,</p>\n  <p>Learning astrophysics on your own, versus going to a fancy university<br>are two very different things, and guess which one you are going to be shamed for.</p>\n  <p>That's right people are going to laugh at you for learning on your own,<br>the teacher is probably going to laugh at you.</p>\n  <p>\"How are you going to learn without grades,<br>without instruction, and who is going to hire you?\"</p>\n  <p>They aren't asking you questions, and they aren't making fun of you,<br>they are attempting to manipulate you to be like they are...</p>\n  <p>Because your independence, is an enormous threat to their fantasy of education,<br>they are of course aware of their own pretending-to-learn.</p>\n  <p>And what is holding it all together,<br>is their hope that it will all come together in the last semester.</p>\n  <p>And when the final semester comes around,<br>they will just be focused on moving on.</p>\n  <p>The whole thing, to a starling degree,<br>is make believe.</p>\n</div>\n<div class=\"section\">\n  <hr>\n</div>\n<div class=\"section\">\n  <p>I think people always bring up Doctors,<br>and medical students at this point.</p>\n  <p>But they may not know that,<br><a href=\"https://www.cnbc.com/2018/02/22/medical-errors-third-leading-cause-of-death-in-america.html\">medical errors are the third-leading cause of death in America</a></p>\n  <p>Between 250,000 and 440,000 people die from medical errors,<br>each year.</p>\n  <p>Medical professionals have the same problem,<br>as all the other students.</p>\n  <p>It is easy to pass the tests by cramming,<br>but that does not mean a person is educated for real.</p>\n  <p>If that was the case, then nobody would have a problem with retaking all the tests,<br>that led to their graduation, that today, serves as the proof of their knowledge.</p>\n</div>\n<div class=\"section\">\n  <hr>\n</div>\n<div class=\"section\">\n  <p>Who would you trust more the self taught professional who studied in as far as that is possible, every step of the way,<br>with great love and dignity, and then went to med school, after they already mastered most things.</p>\n  <p>Or the students that passed the tests,<br>by memorizing everything.</p>\n</div>\n<div class=\"section\">\n  <hr>\n</div>\n<div class=\"section\">\n  <p>Let me repeat that question,<br>who is better?</p>\n  <p>The self taught who has learned for real, out of passion, out of wishing to become a great being,<br>out of wanting to make a difference.</p>\n  <p>Or the kind of a person that is easily swayed by simple things,<br>and gets good at taking tests, and probably a lot of other inauthentic things.</p>\n</div>\n<div class=\"section\">\n  <hr>\n</div>\n<div class=\"section\">\n  <p>When you say I will learn on my own people will laugh at you,<br>because they are terrified, because they know that can't do that, all they can do is pass the tests.</p>\n</div>\n<div class=\"section\">\n  <hr>\n</div>\n<div class=\"section\">\n  <p>If you ever do take to astrophysics,<br><a href=\"https://www.youtube.com/watch?v=ak0BSRqb8Oc\">you are likely to take a long detour into Astrophotography</a>.</p>\n  <p>This is neither a search for supernovae nor a study of anything in particular,<br>the school will call this Extracurricular Activity.</p>\n  <p>Schools are so far detached, that to them the whole point of it,<br>the love of the universe will be silly, amateur, and Extracurricular.</p>\n</div>\n<div class=\"section\">\n  <hr>\n</div>\n<div class=\"section\">\n  <p>This happens everywhere, Learning From Science Popularizes,<br>which is an expression for love of knowledge and sharing science, is seen as trivial and a waste of time.</p>\n  <p>Tracing In Art, which is a way to perfectly love beauty,<br>is seen as cheating, will get you dismissed, maybe thrown out.</p>\n  <p>Proportional Dividers In Sculpture,<br>will have people calling you a fraud.</p>\n  <p>3D Model modification in 3D modeling,<br>instead of sitting there with calipers, will be seen as copying.</p>\n  <p>Sampling In Music, or Hip Hop,<br>is seen as stealing.</p>\n  <p>School is just a narrow channel,<br>it is not capable of teaching you integrated knowledge.</p>\n  <p>I suspect in a lot of schools, even the Dean's is just a way to keep you taking classes,<br>because that 4.0 looks really good in their paperwork and yearly statistics.</p>\n  <p>I remember my first time in College,<br>I asked why do I need all these other classes, when I am trying to expand my Programming knowledge.</p>\n  <p>Her response was instant,<br>\"Balanced Education\", it was rehearsed, it was policy, it is a lie, and for them it is all about everyone keeping their jobs.</p>\n  <p>But in reality, schools should be about real education,<br>not just debt, hard work, memorization, stress and more debt.</p>\n  <p>Real education, to put it simply,<br>is about learning new things that integrate with your existing knowledge, and thus make it better.</p>\n</div>\n<div class=\"section\">\n  <hr>\n</div>\n<div class=\"section\">\n  <p>Learning new things that integrate with your existing knowledge - is how self education works,<br>and that is why it should always come first.</p>\n</div>",
  "bootstrap": "<div class=\"card card-section bg-dark text-warning shadow\">\n  <div class=\"section card-body mb-0 my-2\">\n    <div class=\"paragraph card-text card-stanza my-5 text-center\">The most powerful things,<br>are often attacked with shame.</div>\n    <div class=\"paragraph card-text card-stanza my-5 text-center\">For example,</div>\n    <div class=\"paragraph card-text card-stanza my-5 text-center\">Learning astrophysics on your own, versus going to a fancy university<br>are two very different things, and guess which one you are going to be shamed for.</div>\n    <div class=\"paragraph card-text card-stanza my-5 text-center\">That's right people are going to laugh at you for learning on your own,<br>the teacher is probably going to laugh at you.</div>\n    <div class=\"paragraph card-text card-stanza my-5 text-center\">\"How are you going to learn without grades,<br>without instruction, and who is going to hire you?\"</div>\n    <div class=\"paragraph card-text card-stanza my-5 text-center\">They aren't asking you questions, and they aren't making fun of you,<br>they are attempting to manipulate you to be like they are...</div>\n    <div class=\"paragraph card-text card-stanza my-5 text-center\">Because your independence, is an enormous threat to their fantasy of education,<br>they are of course aware of their own pretending-to-learn.</div>\n    <div class=\"paragraph card-text card-stanza my-5 text-center\">And what is holding it all together,<br>is their hope that it will all come together in the last semester.</div>\n    <div class=\"paragraph card-text card-stanza my-5 text-center\">And when the final semester comes around,<br>they will just be focused on moving on.</div>\n    <div class=\"paragraph card-text card-stanza my-5 text-center\">The whole thing, to a starling degree,<br>is make believe.</div>\n  </div>\n</div>\n<div class=\"mb-5 section-spacer\">&nbsp;</div>\n<div class=\"card card-section bg-dark text-warning shadow\">\n  <div class=\"section card-body mb-0 my-2\">\n    <div class=\"paragraph card-text card-stanza my-5 text-center\">I think people always bring up Doctors,<br>and medical students at this point.</div>\n    <div class=\"paragraph card-text card-stanza my-5 text-center\">But they may not know that,<br><a href=\"https://www.cnbc.com/2018/02/22/medical-errors-third-leading-cause-of-death-in-america.html\">medical errors are the third-leading cause of death in America</a></div>\n    <div class=\"paragraph card-text card-stanza my-5 text-center\">Between 250,000 and 440,000 people die from medical errors,<br>each year.</div>\n    <div class=\"paragraph card-text card-stanza my-5 text-center\">Medical professionals have the same problem,<br>as all the other students.</div>\n    <div class=\"paragraph card-text card-stanza my-5 text-center\">It is easy to pass the tests by cramming,<br>but that does not mean a person is educated for real.</div>\n    <div class=\"paragraph card-text card-stanza my-5 text-center\">If that was the case, then nobody would have a problem with retaking all the tests,<br>that led to their graduation, that today, serves as the proof of their knowledge.</div>\n  </div>\n</div>\n<div class=\"mb-5 section-spacer\">&nbsp;</div>\n<div class=\"card card-section bg-dark text-warning shadow\">\n  <div class=\"section card-body mb-0 my-2\">\n    <div class=\"paragraph card-text card-stanza my-5 text-center\">Who would you trust more the self taught professional who studied in as far as that is possible, every step of the way,<br>with great love and dignity, and then went to med school, after they already mastered most things.</div>\n    <div class=\"paragraph card-text card-stanza my-5 text-center\">Or the students that passed the tests,<br>by memorizing everything.</div>\n  </div>\n</div>\n<div class=\"mb-5 section-spacer\">&nbsp;</div>\n<div class=\"card card-section bg-dark text-warning shadow\">\n  <div class=\"section card-body mb-0 my-2\">\n    <div class=\"paragraph card-text card-stanza my-5 text-center\">Let me repeat that question,<br>who is better?</div>\n    <div class=\"paragraph card-text card-stanza my-5 text-center\">The self taught who has learned for real, out of passion, out of wishing to become a great being,<br>out of wanting to make a difference.</div>\n    <div class=\"paragraph card-text card-stanza my-5 text-center\">Or the kind of a person that is easily swayed by simple things,<br>and gets good at taking tests, and probably a lot of other inauthentic things.</div>\n  </div>\n</div>\n<div class=\"mb-5 section-spacer\">&nbsp;</div>\n<div class=\"card card-section bg-dark text-warning shadow\">\n  <div class=\"section card-body mb-0 my-2\">\n    <div class=\"paragraph card-text card-stanza my-5 text-center\">When you say I will learn on my own people will laugh at you,<br>because they are terrified, because they know that can't do that, all they can do is pass the tests.</div>\n  </div>\n</div>\n<div class=\"mb-5 section-spacer\">&nbsp;</div>\n<div class=\"card card-section bg-dark text-warning shadow\">\n  <div class=\"section card-body mb-0 my-2\">\n    <div class=\"paragraph card-text card-stanza my-5 text-center\">If you ever do take to astrophysics,<br><a href=\"https://www.youtube.com/watch?v=ak0BSRqb8Oc\">you are likely to take a long detour into Astrophotography</a>.</div>\n    <div class=\"paragraph card-text card-stanza my-5 text-center\">This is neither a search for supernovae nor a study of anything in particular,<br>the school will call this Extracurricular Activity.</div>\n    <div class=\"paragraph card-text card-stanza my-5 text-center\">Schools are so far detached, that to them the whole point of it,<br>the love of the universe will be silly, amateur, and Extracurricular.</div>\n  </div>\n</div>\n<div class=\"mb-5 section-spacer\">&nbsp;</div>\n<div class=\"card card-section bg-dark text-warning shadow\">\n  <div class=\"section card-body mb-0 my-2\">\n    <div class=\"paragraph card-text card-stanza my-5 text-center\">This happens everywhere, Learning From Science Popularizes,<br>which is an expression for love of knowledge and sharing science, is seen as trivial and a waste of time.</div>\n    <div class=\"paragraph card-text card-stanza my-5 text-center\">Tracing In Art, which is a way to perfectly love beauty,<br>is seen as cheating, will get you dismissed, maybe thrown out.</div>\n    <div class=\"paragraph card-text card-stanza my-5 text-center\">Proportional Dividers In Sculpture,<br>will have people calling you a fraud.</div>\n    <div class=\"paragraph card-text card-stanza my-5 text-center\">3D Model modification in 3D modeling,<br>instead of sitting there with calipers, will be seen as copying.</div>\n    <div class=\"paragraph card-text card-stanza my-5 text-center\">Sampling In Music, or Hip Hop,<br>is seen as stealing.</div>\n    <div class=\"paragraph card-text card-stanza my-5 text-center\">School is just a narrow channel,<br>it is not capable of teaching you integrated knowledge.</div>\n    <div class=\"paragraph card-text card-stanza my-5 text-center\">I suspect in a lot of schools, even the Dean's is just a way to keep you taking classes,<br>because that 4.0 looks really good in their paperwork and yearly statistics.</div>\n    <div class=\"paragraph card-text card-stanza my-5 text-center\">I remember my first time in College,<br>I asked why do I need all these other classes, when I am trying to expand my Programming knowledge.</div>\n    <div class=\"paragraph card-text card-stanza my-5 text-center\">Her response was instant,<br>\"Balanced Education\", it was rehearsed, it was policy, it is a lie, and for them it is all about everyone keeping their jobs.</div>\n    <div class=\"paragraph card-text card-stanza my-5 text-center\">But in reality, schools should be about real education,<br>not just debt, hard work, memorization, stress and more debt.</div>\n    <div class=\"paragraph card-text card-stanza my-5 text-center\">Real education, to put it simply,<br>is about learning new things that integrate with your existing knowledge, and thus make it better.</div>\n  </div>\n</div>\n<div class=\"mb-5 section-spacer\">&nbsp;</div>\n<div class=\"card card-section bg-dark text-warning shadow\">\n  <div class=\"section card-body mb-0 my-2\">\n    <div class=\"paragraph card-text card-stanza my-5 text-center\">Learning new things that integrate with your existing knowledge - is how self education works,<br>and that is why it should always come first.</div>\n  </div>\n</div>",
  "print": "<div class=\"section avoid-break-inside\" style=\"padding-bottom: 2rem;\">\n  <div class=\"paragraph\">The most powerful things,<br>are often attacked with shame.</div>\n  <div class=\"paragraph\">For example,</div>\n  <div class=\"paragraph\">Learning astrophysics on your own, versus going to a fancy university<br>are two very different things, and guess which one you are going to be shamed for.</div>\n  <div class=\"paragraph\">That's right people are going to laugh at you for learning on your own,<br>the teacher is probably going to laugh at you.</div>\n  <div class=\"paragraph\">\"How are you going to learn without grades,<br>without instruction, and who is going to hire you?\"</div>\n  <div class=\"paragraph\">They aren't asking you questions, and they aren't making fun of you,<br>they are attempting to manipulate you to be like they are...</div>\n  <div class=\"paragraph\">Because your independence, is an enormous threat to their fantasy of education,<br>they are of course aware of their own pretending-to-learn.</div>\n  <div class=\"paragraph\">And what is holding it all together,<br>is their hope that it will all come together in the last semester.</div>\n  <div class=\"paragraph\">And when the final semester comes around,<br>they will just be focused on moving on.</div>\n  <div class=\"paragraph\">The whole thing, to a starling degree,<br>is make believe.</div>\n</div>\n<div class=\"section avoid-break-inside\" style=\"padding-bottom: 2rem;\">\n  <br>\n</div>\n<div class=\"section avoid-break-inside\" style=\"padding-bottom: 2rem;\">\n  <div class=\"paragraph\">I think people always bring up Doctors,<br>and medical students at this point.</div>\n  <div class=\"paragraph\">But they may not know that,<br><span>medical errors are the third-leading cause of death in America<sup>[1]</sup></span></div>\n  <div class=\"paragraph\">Between 250,000 and 440,000 people die from medical errors,<br>each year.</div>\n  <div class=\"paragraph\">Medical professionals have the same problem,<br>as all the other students.</div>\n  <div class=\"paragraph\">It is easy to pass the tests by cramming,<br>but that does not mean a person is educated for real.</div>\n  <div class=\"paragraph\">If that was the case, then nobody would have a problem with retaking all the tests,<br>that led to their graduation, that today, serves as the proof of their knowledge.</div>\n</div>\n<div class=\"section avoid-break-inside\" style=\"padding-bottom: 2rem;\">\n  <br>\n</div>\n<div class=\"section avoid-break-inside\" style=\"padding-bottom: 2rem;\">\n  <div class=\"paragraph\">Who would you trust more the self taught professional who studied in as far as that is possible, every step of the way,<br>with great love and dignity, and then went to med school, after they already mastered most things.</div>\n  <div class=\"paragraph\">Or the students that passed the tests,<br>by memorizing everything.</div>\n</div>\n<div class=\"section avoid-break-inside\" style=\"padding-bottom: 2rem;\">\n  <br>\n</div>\n<div class=\"section avoid-break-inside\" style=\"padding-bottom: 2rem;\">\n  <div class=\"paragraph\">Let me repeat that question,<br>who is better?</div>\n  <div class=\"paragraph\">The self taught who has learned for real, out of passion, out of wishing to become a great being,<br>out of wanting to make a difference.</div>\n  <div class=\"paragraph\">Or the kind of a person that is easily swayed by simple things,<br>and gets good at taking tests, and probably a lot of other inauthentic things.</div>\n</div>\n<div class=\"section avoid-break-inside\" style=\"padding-bottom: 2rem;\">\n  <br>\n</div>\n<div class=\"section avoid-break-inside\" style=\"padding-bottom: 2rem;\">\n  <div class=\"paragraph\">When you say I will learn on my own people will laugh at you,<br>because they are terrified, because they know that can't do that, all they can do is pass the tests.</div>\n</div>\n<div class=\"section avoid-break-inside\" style=\"padding-bottom: 2rem;\">\n  <br>\n</div>\n<div class=\"section avoid-break-inside\" style=\"padding-bottom: 2rem;\">\n  <div class=\"paragraph\">If you ever do take to astrophysics,<br><span>you are likely to take a long detour into Astrophotography<sup>[2]</sup></span>.</div>\n  <div class=\"paragraph\">This is neither a search for supernovae nor a study of anything in particular,<br>the school will call this Extracurricular Activity.</div>\n  <div class=\"paragraph\">Schools are so far detached, that to them the whole point of it,<br>the love of the universe will be silly, amateur, and Extracurricular.</div>\n</div>\n<div class=\"section avoid-break-inside\" style=\"padding-bottom: 2rem;\">\n  <br>\n</div>\n<div class=\"section avoid-break-inside\" style=\"padding-bottom: 2rem;\">\n  <div class=\"paragraph\">This happens everywhere, Learning From Science Popularizes,<br>which is an expression for love of knowledge and sharing science, is seen as trivial and a waste of time.</div>\n  <div class=\"paragraph\">Tracing In Art, which is a way to perfectly love beauty,<br>is seen as cheating, will get you dismissed, maybe thrown out.</div>\n  <div class=\"paragraph\">Proportional Dividers In Sculpture,<br>will have people calling you a fraud.</div>\n  <div class=\"paragraph\">3D Model modification in 3D modeling,<br>instead of sitting there with calipers, will be seen as copying.</div>\n  <div class=\"paragraph\">Sampling In Music, or Hip Hop,<br>is seen as stealing.</div>\n  <div class=\"paragraph\">School is just a narrow channel,<br>it is not capable of teaching you integrated knowledge.</div>\n  <div class=\"paragraph\">I suspect in a lot of schools, even the Dean's is just a way to keep you taking classes,<br>because that 4.0 looks really good in their paperwork and yearly statistics.</div>\n  <div class=\"paragraph\">I remember my first time in College,<br>I asked why do I need all these other classes, when I am trying to expand my Programming knowledge.</div>\n  <div class=\"paragraph\">Her response was instant,<br>\"Balanced Education\", it was rehearsed, it was policy, it is a lie, and for them it is all about everyone keeping their jobs.</div>\n  <div class=\"paragraph\">But in reality, schools should be about real education,<br>not just debt, hard work, memorization, stress and more debt.</div>\n  <div class=\"paragraph\">Real education, to put it simply,<br>is about learning new things that integrate with your existing knowledge, and thus make it better.</div>\n</div>\n<div class=\"section avoid-break-inside\" style=\"padding-bottom: 2rem;\">\n  <br>\n</div>\n<div class=\"section avoid-break-inside\" style=\"padding-bottom: 2rem;\">\n  <div class=\"paragraph\">Learning new things that integrate with your existing knowledge - is how self education works,<br>and that is why it should always come first.</div>\n</div>\n<div class=\"break-after\">&nbsp;</div>\n<div>\n  <div class=\"section\" style=\"padding-bottom: 1rem;\">References</div>\n  <div>[1]: https://www.cnbc.com/2018/02/22/medical-errors-third-leading-cause-of-death-in-america.html</div>\n  <div>[2]: https://www.youtube.com/watch?v=ak0BSRqb8Oc</div>\n</div>",
  "text": "The most powerful things,\nare often attacked with shame.\nFor example,\nLearning astrophysics on your own, versus going to a fancy university\nare two very different things, and guess which one you are going to be shamed for.\nThat's right people are going to laugh at you for learning on your own,\nthe teacher is probably going to laugh at you.\n\"How are you going to learn without grades,\nwithout instruction, and who is going to hire you?\"\nThey aren't asking you questions, and they aren't making fun of you,\nthey are attempting to manipulate you to be like they are...\nBecause your independence, is an enormous threat to their fantasy of education,\nthey are of course aware of their own pretending-to-learn.\nAnd what is holding it all together,\nis their hope that it will all come together in the last semester.\nAnd when the final semester comes around,\nthey will just be focused on moving on.\nThe whole thing, to a starling degree,\nis make believe.\n\nI think people always bring up Doctors,\nand medical students at this point.\nBut they may not know that,\nmedical errors are the third-leading cause of death in America[1]\nBetween 250,000 and 440,000 people die from medical errors,\neach year.\nMedical professionals have the same problem,\nas all the other students.\nIt is easy to pass the tests by cramming,\nbut that does not mean a person is educated for real.\nIf that was the case, then nobody would have a problem with retaking all the tests,\nthat led to their graduation, that today, serves as the proof of their knowledge.\n\nWho would you trust more the self taught professional who studied in as far as that is possible, every step of the way,\nwith great love and dignity, and then went to med school, after they already mastered most things.\nOr the students that passed the tests,\nby memorizing everything.\n\nLet me repeat that question,\nwho is better?\nThe self taught who has learned for real, out of passion, out of wishing to become a great being,\nout of wanting to make a difference.\nOr the kind of a person that is easily swayed by simple things,\nand gets good at taking tests, and probably a lot of other inauthentic things.\n\nWhen you say I will learn on my own people will laugh at you,\nbecause they are terrified, because they know that can't do that, all they can do is pass the tests.\n\nIf you ever do take to astrophysics,\nyou are likely to take a long detour into Astrophotography[2].\nThis is neither a search for supernovae nor a study of anything in particular,\nthe school will call this Extracurricular Activity.\nSchools are so far detached, that to them the whole point of it,\nthe love of the universe will be silly, amateur, and Extracurricular.\n\nThis happens everywhere, Learning From Science Popularizes,\nwhich is an expression for love of knowledge and sharing science, is seen as trivial and a waste of time.\nTracing In Art, which is a way to perfectly love beauty,\nis seen as cheating, will get you dismissed, maybe thrown out.\nProportional Dividers In Sculpture,\nwill have people calling you a fraud.\n3D Model modification in 3D modeling,\ninstead of sitting there with calipers, will be seen as copying.\nSampling In Music, or Hip Hop,\nis seen as stealing.\nSchool is just a narrow channel,\nit is not capable of teaching you integrated knowledge.\nI suspect in a lot of schools, even the Dean's is just a way to keep you taking classes,\nbecause that 4.0 looks really good in their paperwork and yearly statistics.\nI remember my first time in College,\nI asked why do I need all these other classes, when I am trying to expand my Programming knowledge.\nHer response was instant,\n\"Balanced Education\", it was rehearsed, it was policy, it is a lie, and for them it is all about everyone keeping their jobs.\nBut in reality, schools should be about real education,\nnot just debt, hard work, memorization, stress and more debt.\nReal education, to put it simply,\nis about learning new things that integrate with your existing knowledge, and thus make it better.\n\nLearning new things that integrate with your existing knowledge - is how self education works,\nand that is why it should always come first.\n \nReferences\n[1]: https://www.cnbc.com/2018/02/22/medical-errors-third-leading-cause-of-death-in-america.html\n[2]: https://www.youtube.com/watch?v=ak0BSRqb8Oc",
  "images": [],
  "links": [
    {
      "title": "medical errors are the third-leading cause of death in America",
      "url": "https://www.cnbc.com/2018/02/22/medical-errors-third-leading-cause-of-death-in-america.html",
      "hostname": "www.cnbc.com"
    },
    {
      "title": "you are likely to take a long detour into Astrophotography",
      "url": "https://www.youtube.com/watch?v=ak0BSRqb8Oc",
      "hostname": "www.youtube.com"
    }
  ]
}