{
  "id": "furkies-purrkies-poetry-0501",
  "title": "Let Us Become Wise So That We Know What Wisdom Is",
  "date": "2021-07-15T02:48:34.489Z",
  "image": "poetry-0501-illustration.jpg",
  "artwork": "https://unsplash.com/photos/wNRWa5qVBVc",
  "audio": "poetry-0501.mp3",
  "guid": "01b6d9c6-068f-4809-b37e-11957ed54144"
}
