{
  "name": "furkies-purrkies-poetry-0895",
  "id": "furkies-purrkies-poetry-0895",
  "title": "From College To Wilderness",
  "date": "2022-08-13T00:52:56.815Z",
  "image": "poetry-0895-illustration.jpg",
  "artwork": "https://catpea.com",
  "audio": "poetry-0895.mp3",
  "guid": "cd778713-c054-4012-8e93-aff61f7acbc9",
  "html": "<div class=\"section\">\n  <p>I went to College and it was awful,<br>I was really excited about Philosophy.</p>\n  <p>I wanted the teacher,<br>to help me understand Slavoj Žižek.</p>\n  <p>I spent countless hours,<br>listening to his nose issue, and I don't get anything.</p>\n  <p>And I needed help separating Ayn Rand the Philosopher,<br>from Ayn Rand the Politician.</p>\n  <p>Even though Ms. Rand would probably say,<br>it is impossible, I think her mind was too good for Politics.</p>\n</div>\n<div class=\"section\">\n  <hr>\n</div>\n<div class=\"section\">\n  <p>The Philosophy teacher only talked about Descartes,<br>and some trivial Boolean inference.</p>\n  <p>Right before finals a boy got up,<br>and asked who is the Des-carte-s guy (he didn't know how Descartes is spelled).</p>\n  <p>As to the logic, it would be brilliant,<br>to code up a little inference engine.</p>\n  <p>We could all reason about it,<br>extend it and search for flaws.</p>\n  <p>Walking away from a Philosophy class with code for an expert system,<br>is the only way a Philosophy teacher can show class.</p>\n  <p>And that boy, He just does finals,<br>because that is what you do when a school does not teach.</p>\n  <p>Pretending Memorization is Education,<br>and paying $500 bucks for course plus $200 for sh&t-books is a lot worse....</p>\n  <p>Than thinking Descartes and Des-cate-s,<br>are two different people.</p>\n  <p>That was the best class the college had,<br>so I took art to relax and just people watch instead.</p>\n</div>\n<div class=\"section\">\n  <hr>\n</div>\n<div class=\"section\">\n  <p>First time I was painting Mona Lisas,<br>I left some pain on the easel, the main teacher called me a pig behind my back.</p>\n  <p>We had a substitute teacher just come in and linger for a bit,<br>and her and I briefly spoke about education.</p>\n  <p>She said \"Teenagers Are Hormones\" and I realized,<br>teachers are not just ripping us off, they are insulting us behind our backs too - it part of their friendship making.</p>\n  <p>She finally asked about my credentials,<br>I said I was a student once.</p>\n</div>\n<div class=\"section\">\n  <hr>\n</div>\n<div class=\"section\">\n  <p>Second time, when the teacher that called me a pig was going to lecture in a class I signed up for,<br>I told her I had a 4.0 that I wanted to protect...</p>\n  <p>Because I just assumed she was unreliable,<br>and she lit up with the words \"New Assistant\" or something like it, in her eyes.</p>\n  <p>Not bloody likely, but,<br>I taught her how to use a wall projector, and do straight lines with acrylic.</p>\n  <p>The trick to prevent paint getting beneath the painters tape,<br>is to first leak pain t in there on purpose, but of the color that is already there, in order to seal the tape gap.</p>\n  <p>So if you want to paint a yellow square on a blue background,<br>you tape off a square, and then paint it the same color as the background that is already there.</p>\n  <p>The paint is going to leak beneath the tape, but it won't be noticeable,<br>the thing is, your yellow layer won't be able to leak beneath the tape anymore, the blue sealed your tape.</p>\n  <p>So you paint your yellow square, and peal the tape,<br>you will see some fresh blue paint, that leaked under the tape, but no yellow leaks.</p>\n  <p>You will have a square so sharp,<br>that you will wish it was a lite bit crooked as now all your other lines have to be equally as perfect.</p>\n</div>\n<div class=\"section\">\n  <hr>\n</div>\n<div class=\"section\">\n  <p>She did not think to change the way she teaches,<br>even though helping students with proportions would keep them in art forever.</p>\n  <p>Instead she thought the crooked figure was superior,<br>she was pushing untrained students to doodle, and she'd grade that.</p>\n  <p>Where what they needed was <a href=\"https://www.youtube.com/watch?v=bKtURFkwX6k\">help with proportion tools</a>,<br>so that they could move past it, and into tone and color.</p>\n  <p>A crooked untrained figure says title about an artist,<br>but grading it says quite a lot about the teacher.</p>\n  <p>Grids, projectors, Camera Obscura, Vincent van Gogh's Diamond frame,<br>Image References in Krita, semi-transparent layers in other programs - teach.</p>\n  <p>They train the hand and eye,<br>better than any teacher ever, EVER, will.</p>\n</div>\n<div class=\"section\">\n  <hr>\n</div>\n<div class=\"section\">\n  <p>I made the Deans List, or the list of people that make their college look legitimate,<br>and especially those who are most likely to pay for more lectures.</p>\n  <p>So, I packed my backpack and had,<br>extreme adventures at the Nordhouse Wilderness in Michigan.</p>\n  <p>I lived through powerful storms,<br>I made many Raccoon friends, and I named them all Friday.</p>\n  <p>There was a young Philosopher, even,<br>he was bicycling from Maine, to try to deal with tragedy...</p>\n  <p>And figure out what the hell was going on with his neurology,<br>I told him we are not crafted to be perfect - hell, even a computer isn't crafted to be perfect.</p>\n  <p>We are a magnificent burp of the complexity of universe,<br>we are here out of accident and its fundamental principles, I paraphrased GelMann</p>\n  <p>I think his Mom was following him in his incredible adventure, with bicycle parts,<br>trail mix, good advice - but not help, this kid was riding on his own, sleeping in ditches and farmer fields.</p>\n  <p>I saw them talk about what I said slowly turning towards me under shady tree from a distance,<br>maybe they just went home.</p>\n  <p>He had his answer, there was nothing wrong with him,<br>we just need to take good care of our selves, our brains need good care.</p>\n  <p>We are not to live in sorrow and mourning,<br>we are to learn; and rise; and aim to become great beings.</p>\n</div>",
  "bootstrap": "<div class=\"card card-section bg-dark text-warning shadow\">\n  <div class=\"section card-body mb-0 my-2\">\n    <div class=\"paragraph card-text card-stanza my-5 text-center\">I went to College and it was awful,<br>I was really excited about Philosophy.</div>\n    <div class=\"paragraph card-text card-stanza my-5 text-center\">I wanted the teacher,<br>to help me understand Slavoj Žižek.</div>\n    <div class=\"paragraph card-text card-stanza my-5 text-center\">I spent countless hours,<br>listening to his nose issue, and I don't get anything.</div>\n    <div class=\"paragraph card-text card-stanza my-5 text-center\">And I needed help separating Ayn Rand the Philosopher,<br>from Ayn Rand the Politician.</div>\n    <div class=\"paragraph card-text card-stanza my-5 text-center\">Even though Ms. Rand would probably say,<br>it is impossible, I think her mind was too good for Politics.</div>\n  </div>\n</div>\n<div class=\"mb-5 section-spacer\">&nbsp;</div>\n<div class=\"card card-section bg-dark text-warning shadow\">\n  <div class=\"section card-body mb-0 my-2\">\n    <div class=\"paragraph card-text card-stanza my-5 text-center\">The Philosophy teacher only talked about Descartes,<br>and some trivial Boolean inference.</div>\n    <div class=\"paragraph card-text card-stanza my-5 text-center\">Right before finals a boy got up,<br>and asked who is the Des-carte-s guy (he didn't know how Descartes is spelled).</div>\n    <div class=\"paragraph card-text card-stanza my-5 text-center\">As to the logic, it would be brilliant,<br>to code up a little inference engine.</div>\n    <div class=\"paragraph card-text card-stanza my-5 text-center\">We could all reason about it,<br>extend it and search for flaws.</div>\n    <div class=\"paragraph card-text card-stanza my-5 text-center\">Walking away from a Philosophy class with code for an expert system,<br>is the only way a Philosophy teacher can show class.</div>\n    <div class=\"paragraph card-text card-stanza my-5 text-center\">And that boy, He just does finals,<br>because that is what you do when a school does not teach.</div>\n    <div class=\"paragraph card-text card-stanza my-5 text-center\">Pretending Memorization is Education,<br>and paying $500 bucks for course plus $200 for sh&t-books is a lot worse....</div>\n    <div class=\"paragraph card-text card-stanza my-5 text-center\">Than thinking Descartes and Des-cate-s,<br>are two different people.</div>\n    <div class=\"paragraph card-text card-stanza my-5 text-center\">That was the best class the college had,<br>so I took art to relax and just people watch instead.</div>\n  </div>\n</div>\n<div class=\"mb-5 section-spacer\">&nbsp;</div>\n<div class=\"card card-section bg-dark text-warning shadow\">\n  <div class=\"section card-body mb-0 my-2\">\n    <div class=\"paragraph card-text card-stanza my-5 text-center\">First time I was painting Mona Lisas,<br>I left some pain on the easel, the main teacher called me a pig behind my back.</div>\n    <div class=\"paragraph card-text card-stanza my-5 text-center\">We had a substitute teacher just come in and linger for a bit,<br>and her and I briefly spoke about education.</div>\n    <div class=\"paragraph card-text card-stanza my-5 text-center\">She said \"Teenagers Are Hormones\" and I realized,<br>teachers are not just ripping us off, they are insulting us behind our backs too - it part of their friendship making.</div>\n    <div class=\"paragraph card-text card-stanza my-5 text-center\">She finally asked about my credentials,<br>I said I was a student once.</div>\n  </div>\n</div>\n<div class=\"mb-5 section-spacer\">&nbsp;</div>\n<div class=\"card card-section bg-dark text-warning shadow\">\n  <div class=\"section card-body mb-0 my-2\">\n    <div class=\"paragraph card-text card-stanza my-5 text-center\">Second time, when the teacher that called me a pig was going to lecture in a class I signed up for,<br>I told her I had a 4.0 that I wanted to protect...</div>\n    <div class=\"paragraph card-text card-stanza my-5 text-center\">Because I just assumed she was unreliable,<br>and she lit up with the words \"New Assistant\" or something like it, in her eyes.</div>\n    <div class=\"paragraph card-text card-stanza my-5 text-center\">Not bloody likely, but,<br>I taught her how to use a wall projector, and do straight lines with acrylic.</div>\n    <div class=\"paragraph card-text card-stanza my-5 text-center\">The trick to prevent paint getting beneath the painters tape,<br>is to first leak pain t in there on purpose, but of the color that is already there, in order to seal the tape gap.</div>\n    <div class=\"paragraph card-text card-stanza my-5 text-center\">So if you want to paint a yellow square on a blue background,<br>you tape off a square, and then paint it the same color as the background that is already there.</div>\n    <div class=\"paragraph card-text card-stanza my-5 text-center\">The paint is going to leak beneath the tape, but it won't be noticeable,<br>the thing is, your yellow layer won't be able to leak beneath the tape anymore, the blue sealed your tape.</div>\n    <div class=\"paragraph card-text card-stanza my-5 text-center\">So you paint your yellow square, and peal the tape,<br>you will see some fresh blue paint, that leaked under the tape, but no yellow leaks.</div>\n    <div class=\"paragraph card-text card-stanza my-5 text-center\">You will have a square so sharp,<br>that you will wish it was a lite bit crooked as now all your other lines have to be equally as perfect.</div>\n  </div>\n</div>\n<div class=\"mb-5 section-spacer\">&nbsp;</div>\n<div class=\"card card-section bg-dark text-warning shadow\">\n  <div class=\"section card-body mb-0 my-2\">\n    <div class=\"paragraph card-text card-stanza my-5 text-center\">She did not think to change the way she teaches,<br>even though helping students with proportions would keep them in art forever.</div>\n    <div class=\"paragraph card-text card-stanza my-5 text-center\">Instead she thought the crooked figure was superior,<br>she was pushing untrained students to doodle, and she'd grade that.</div>\n    <div class=\"paragraph card-text card-stanza my-5 text-center\">Where what they needed was <a href=\"https://www.youtube.com/watch?v=bKtURFkwX6k\">help with proportion tools</a>,<br>so that they could move past it, and into tone and color.</div>\n    <div class=\"paragraph card-text card-stanza my-5 text-center\">A crooked untrained figure says title about an artist,<br>but grading it says quite a lot about the teacher.</div>\n    <div class=\"paragraph card-text card-stanza my-5 text-center\">Grids, projectors, Camera Obscura, Vincent van Gogh's Diamond frame,<br>Image References in Krita, semi-transparent layers in other programs - teach.</div>\n    <div class=\"paragraph card-text card-stanza my-5 text-center\">They train the hand and eye,<br>better than any teacher ever, EVER, will.</div>\n  </div>\n</div>\n<div class=\"mb-5 section-spacer\">&nbsp;</div>\n<div class=\"card card-section bg-dark text-warning shadow\">\n  <div class=\"section card-body mb-0 my-2\">\n    <div class=\"paragraph card-text card-stanza my-5 text-center\">I made the Deans List, or the list of people that make their college look legitimate,<br>and especially those who are most likely to pay for more lectures.</div>\n    <div class=\"paragraph card-text card-stanza my-5 text-center\">So, I packed my backpack and had,<br>extreme adventures at the Nordhouse Wilderness in Michigan.</div>\n    <div class=\"paragraph card-text card-stanza my-5 text-center\">I lived through powerful storms,<br>I made many Raccoon friends, and I named them all Friday.</div>\n    <div class=\"paragraph card-text card-stanza my-5 text-center\">There was a young Philosopher, even,<br>he was bicycling from Maine, to try to deal with tragedy...</div>\n    <div class=\"paragraph card-text card-stanza my-5 text-center\">And figure out what the hell was going on with his neurology,<br>I told him we are not crafted to be perfect - hell, even a computer isn't crafted to be perfect.</div>\n    <div class=\"paragraph card-text card-stanza my-5 text-center\">We are a magnificent burp of the complexity of universe,<br>we are here out of accident and its fundamental principles, I paraphrased GelMann</div>\n    <div class=\"paragraph card-text card-stanza my-5 text-center\">I think his Mom was following him in his incredible adventure, with bicycle parts,<br>trail mix, good advice - but not help, this kid was riding on his own, sleeping in ditches and farmer fields.</div>\n    <div class=\"paragraph card-text card-stanza my-5 text-center\">I saw them talk about what I said slowly turning towards me under shady tree from a distance,<br>maybe they just went home.</div>\n    <div class=\"paragraph card-text card-stanza my-5 text-center\">He had his answer, there was nothing wrong with him,<br>we just need to take good care of our selves, our brains need good care.</div>\n    <div class=\"paragraph card-text card-stanza my-5 text-center\">We are not to live in sorrow and mourning,<br>we are to learn; and rise; and aim to become great beings.</div>\n  </div>\n</div>",
  "print": "<div class=\"section avoid-break-inside\" style=\"padding-bottom: 2rem;\">\n  <div class=\"paragraph\">I went to College and it was awful,<br>I was really excited about Philosophy.</div>\n  <div class=\"paragraph\">I wanted the teacher,<br>to help me understand Slavoj Žižek.</div>\n  <div class=\"paragraph\">I spent countless hours,<br>listening to his nose issue, and I don't get anything.</div>\n  <div class=\"paragraph\">And I needed help separating Ayn Rand the Philosopher,<br>from Ayn Rand the Politician.</div>\n  <div class=\"paragraph\">Even though Ms. Rand would probably say,<br>it is impossible, I think her mind was too good for Politics.</div>\n</div>\n<div class=\"section avoid-break-inside\" style=\"padding-bottom: 2rem;\">\n  <br>\n</div>\n<div class=\"section avoid-break-inside\" style=\"padding-bottom: 2rem;\">\n  <div class=\"paragraph\">The Philosophy teacher only talked about Descartes,<br>and some trivial Boolean inference.</div>\n  <div class=\"paragraph\">Right before finals a boy got up,<br>and asked who is the Des-carte-s guy (he didn't know how Descartes is spelled).</div>\n  <div class=\"paragraph\">As to the logic, it would be brilliant,<br>to code up a little inference engine.</div>\n  <div class=\"paragraph\">We could all reason about it,<br>extend it and search for flaws.</div>\n  <div class=\"paragraph\">Walking away from a Philosophy class with code for an expert system,<br>is the only way a Philosophy teacher can show class.</div>\n  <div class=\"paragraph\">And that boy, He just does finals,<br>because that is what you do when a school does not teach.</div>\n  <div class=\"paragraph\">Pretending Memorization is Education,<br>and paying $500 bucks for course plus $200 for sh&t-books is a lot worse....</div>\n  <div class=\"paragraph\">Than thinking Descartes and Des-cate-s,<br>are two different people.</div>\n  <div class=\"paragraph\">That was the best class the college had,<br>so I took art to relax and just people watch instead.</div>\n</div>\n<div class=\"section avoid-break-inside\" style=\"padding-bottom: 2rem;\">\n  <br>\n</div>\n<div class=\"section avoid-break-inside\" style=\"padding-bottom: 2rem;\">\n  <div class=\"paragraph\">First time I was painting Mona Lisas,<br>I left some pain on the easel, the main teacher called me a pig behind my back.</div>\n  <div class=\"paragraph\">We had a substitute teacher just come in and linger for a bit,<br>and her and I briefly spoke about education.</div>\n  <div class=\"paragraph\">She said \"Teenagers Are Hormones\" and I realized,<br>teachers are not just ripping us off, they are insulting us behind our backs too - it part of their friendship making.</div>\n  <div class=\"paragraph\">She finally asked about my credentials,<br>I said I was a student once.</div>\n</div>\n<div class=\"section avoid-break-inside\" style=\"padding-bottom: 2rem;\">\n  <br>\n</div>\n<div class=\"section avoid-break-inside\" style=\"padding-bottom: 2rem;\">\n  <div class=\"paragraph\">Second time, when the teacher that called me a pig was going to lecture in a class I signed up for,<br>I told her I had a 4.0 that I wanted to protect...</div>\n  <div class=\"paragraph\">Because I just assumed she was unreliable,<br>and she lit up with the words \"New Assistant\" or something like it, in her eyes.</div>\n  <div class=\"paragraph\">Not bloody likely, but,<br>I taught her how to use a wall projector, and do straight lines with acrylic.</div>\n  <div class=\"paragraph\">The trick to prevent paint getting beneath the painters tape,<br>is to first leak pain t in there on purpose, but of the color that is already there, in order to seal the tape gap.</div>\n  <div class=\"paragraph\">So if you want to paint a yellow square on a blue background,<br>you tape off a square, and then paint it the same color as the background that is already there.</div>\n  <div class=\"paragraph\">The paint is going to leak beneath the tape, but it won't be noticeable,<br>the thing is, your yellow layer won't be able to leak beneath the tape anymore, the blue sealed your tape.</div>\n  <div class=\"paragraph\">So you paint your yellow square, and peal the tape,<br>you will see some fresh blue paint, that leaked under the tape, but no yellow leaks.</div>\n  <div class=\"paragraph\">You will have a square so sharp,<br>that you will wish it was a lite bit crooked as now all your other lines have to be equally as perfect.</div>\n</div>\n<div class=\"section avoid-break-inside\" style=\"padding-bottom: 2rem;\">\n  <br>\n</div>\n<div class=\"section avoid-break-inside\" style=\"padding-bottom: 2rem;\">\n  <div class=\"paragraph\">She did not think to change the way she teaches,<br>even though helping students with proportions would keep them in art forever.</div>\n  <div class=\"paragraph\">Instead she thought the crooked figure was superior,<br>she was pushing untrained students to doodle, and she'd grade that.</div>\n  <div class=\"paragraph\">Where what they needed was <span>help with proportion tools<sup>[1]</sup></span>,<br>so that they could move past it, and into tone and color.</div>\n  <div class=\"paragraph\">A crooked untrained figure says title about an artist,<br>but grading it says quite a lot about the teacher.</div>\n  <div class=\"paragraph\">Grids, projectors, Camera Obscura, Vincent van Gogh's Diamond frame,<br>Image References in Krita, semi-transparent layers in other programs - teach.</div>\n  <div class=\"paragraph\">They train the hand and eye,<br>better than any teacher ever, EVER, will.</div>\n</div>\n<div class=\"section avoid-break-inside\" style=\"padding-bottom: 2rem;\">\n  <br>\n</div>\n<div class=\"section avoid-break-inside\" style=\"padding-bottom: 2rem;\">\n  <div class=\"paragraph\">I made the Deans List, or the list of people that make their college look legitimate,<br>and especially those who are most likely to pay for more lectures.</div>\n  <div class=\"paragraph\">So, I packed my backpack and had,<br>extreme adventures at the Nordhouse Wilderness in Michigan.</div>\n  <div class=\"paragraph\">I lived through powerful storms,<br>I made many Raccoon friends, and I named them all Friday.</div>\n  <div class=\"paragraph\">There was a young Philosopher, even,<br>he was bicycling from Maine, to try to deal with tragedy...</div>\n  <div class=\"paragraph\">And figure out what the hell was going on with his neurology,<br>I told him we are not crafted to be perfect - hell, even a computer isn't crafted to be perfect.</div>\n  <div class=\"paragraph\">We are a magnificent burp of the complexity of universe,<br>we are here out of accident and its fundamental principles, I paraphrased GelMann</div>\n  <div class=\"paragraph\">I think his Mom was following him in his incredible adventure, with bicycle parts,<br>trail mix, good advice - but not help, this kid was riding on his own, sleeping in ditches and farmer fields.</div>\n  <div class=\"paragraph\">I saw them talk about what I said slowly turning towards me under shady tree from a distance,<br>maybe they just went home.</div>\n  <div class=\"paragraph\">He had his answer, there was nothing wrong with him,<br>we just need to take good care of our selves, our brains need good care.</div>\n  <div class=\"paragraph\">We are not to live in sorrow and mourning,<br>we are to learn; and rise; and aim to become great beings.</div>\n</div>\n<div class=\"break-after\">&nbsp;</div>\n<div>\n  <div class=\"section\" style=\"padding-bottom: 1rem;\">References</div>\n  <div>[1]: https://www.youtube.com/watch?v=bKtURFkwX6k</div>\n</div>",
  "text": "I went to College and it was awful,\nI was really excited about Philosophy.\nI wanted the teacher,\nto help me understand Slavoj Žižek.\nI spent countless hours,\nlistening to his nose issue, and I don't get anything.\nAnd I needed help separating Ayn Rand the Philosopher,\nfrom Ayn Rand the Politician.\nEven though Ms. Rand would probably say,\nit is impossible, I think her mind was too good for Politics.\n\nThe Philosophy teacher only talked about Descartes,\nand some trivial Boolean inference.\nRight before finals a boy got up,\nand asked who is the Des-carte-s guy (he didn't know how Descartes is spelled).\nAs to the logic, it would be brilliant,\nto code up a little inference engine.\nWe could all reason about it,\nextend it and search for flaws.\nWalking away from a Philosophy class with code for an expert system,\nis the only way a Philosophy teacher can show class.\nAnd that boy, He just does finals,\nbecause that is what you do when a school does not teach.\nPretending Memorization is Education,\nand paying $500 bucks for course plus $200 for sh&t-books is a lot worse....\nThan thinking Descartes and Des-cate-s,\nare two different people.\nThat was the best class the college had,\nso I took art to relax and just people watch instead.\n\nFirst time I was painting Mona Lisas,\nI left some pain on the easel, the main teacher called me a pig behind my back.\nWe had a substitute teacher just come in and linger for a bit,\nand her and I briefly spoke about education.\nShe said \"Teenagers Are Hormones\" and I realized,\nteachers are not just ripping us off, they are insulting us behind our backs too - it part of their friendship making.\nShe finally asked about my credentials,\nI said I was a student once.\n\nSecond time, when the teacher that called me a pig was going to lecture in a class I signed up for,\nI told her I had a 4.0 that I wanted to protect...\nBecause I just assumed she was unreliable,\nand she lit up with the words \"New Assistant\" or something like it, in her eyes.\nNot bloody likely, but,\nI taught her how to use a wall projector, and do straight lines with acrylic.\nThe trick to prevent paint getting beneath the painters tape,\nis to first leak pain t in there on purpose, but of the color that is already there, in order to seal the tape gap.\nSo if you want to paint a yellow square on a blue background,\nyou tape off a square, and then paint it the same color as the background that is already there.\nThe paint is going to leak beneath the tape, but it won't be noticeable,\nthe thing is, your yellow layer won't be able to leak beneath the tape anymore, the blue sealed your tape.\nSo you paint your yellow square, and peal the tape,\nyou will see some fresh blue paint, that leaked under the tape, but no yellow leaks.\nYou will have a square so sharp,\nthat you will wish it was a lite bit crooked as now all your other lines have to be equally as perfect.\n\nShe did not think to change the way she teaches,\neven though helping students with proportions would keep them in art forever.\nInstead she thought the crooked figure was superior,\nshe was pushing untrained students to doodle, and she'd grade that.\nWhere what they needed was help with proportion tools[1],\nso that they could move past it, and into tone and color.\nA crooked untrained figure says title about an artist,\nbut grading it says quite a lot about the teacher.\nGrids, projectors, Camera Obscura, Vincent van Gogh's Diamond frame,\nImage References in Krita, semi-transparent layers in other programs - teach.\nThey train the hand and eye,\nbetter than any teacher ever, EVER, will.\n\nI made the Deans List, or the list of people that make their college look legitimate,\nand especially those who are most likely to pay for more lectures.\nSo, I packed my backpack and had,\nextreme adventures at the Nordhouse Wilderness in Michigan.\nI lived through powerful storms,\nI made many Raccoon friends, and I named them all Friday.\nThere was a young Philosopher, even,\nhe was bicycling from Maine, to try to deal with tragedy...\nAnd figure out what the hell was going on with his neurology,\nI told him we are not crafted to be perfect - hell, even a computer isn't crafted to be perfect.\nWe are a magnificent burp of the complexity of universe,\nwe are here out of accident and its fundamental principles, I paraphrased GelMann\nI think his Mom was following him in his incredible adventure, with bicycle parts,\ntrail mix, good advice - but not help, this kid was riding on his own, sleeping in ditches and farmer fields.\nI saw them talk about what I said slowly turning towards me under shady tree from a distance,\nmaybe they just went home.\nHe had his answer, there was nothing wrong with him,\nwe just need to take good care of our selves, our brains need good care.\nWe are not to live in sorrow and mourning,\nwe are to learn; and rise; and aim to become great beings.\n \nReferences\n[1]: https://www.youtube.com/watch?v=bKtURFkwX6k",
  "images": [],
  "links": [
    {
      "title": "help with proportion tools",
      "url": "https://www.youtube.com/watch?v=bKtURFkwX6k",
      "hostname": "www.youtube.com"
    }
  ]
}