{
  "name": "furkies-purrkies-poetry-0746",
  "id": "furkies-purrkies-poetry-0746",
  "title": "All The Things And Every Thingamabob",
  "date": "2022-03-17T02:04:39.073Z",
  "image": "poetry-0746-illustration.jpg",
  "artwork": "https://catpea.com",
  "audio": "poetry-0746.mp3",
  "guid": "104c5d33-6225-40d9-87f8-392b81733dd1",
  "html": "<div class=\"section\">\n  <p>Our powers wait for the flame to brighten,<br>so that they may enlighten.</p>\n  <p>We are all as creative and powerful as it gets,<br>but we have to grow so that our elder selves have no regrets.</p>\n</div>\n<div class=\"section\">\n  <hr>\n</div>\n<div class=\"section\">\n  <p>We have to be heroes too,<br>we must always stand strong and true.</p>\n</div>\n<div class=\"section\">\n  <hr>\n</div>\n<div class=\"section\">\n  <p>Heck, we should even worry that a teacher can grade art,<br>or make someone feel like they are not smart.</p>\n  <p>But also by extension,<br>always aim to expand our comprehension.</p>\n  <p>Find wise biographies and great adventure books,<br>to frighten away all the crooks.</p>\n  <p>And gain more insight into the Human Condition,<br>so that you may look at things with a healthy dose of suspicion.</p>\n</div>\n<div class=\"section\">\n  <hr>\n</div>\n<div class=\"section\">\n  <p>It is not just that thinking by subtle analogy,<br>is an important part of our psychology.</p>\n  <p>But that we are born with profound superpowers,<br>and that, they are, truly ours.</p>\n  <p>And the more we expand our imagination,<br>the greater the power of our education.</p>\n</div>\n<div class=\"section\">\n  <hr>\n</div>\n<div class=\"section\">\n  <p>We can all create any and all, kinds of art,<br>we are all extremely intelligent, and equally smart.</p>\n</div>\n<div class=\"section\">\n  <hr>\n</div>\n<div class=\"section\">\n  <p>It is really important that we don't wait to be taught,<br>as teaching-outside-in is not what we thought.</p>\n  <p>We just have to find a comfy thing,<br>be it camping, painting, or learning to sing...</p>\n  <p>And play with it for a while,<br>play with it, so as long as it makes us smile.</p>\n</div>\n<div class=\"section\">\n  <hr>\n</div>\n<div class=\"section\">\n  <p>Our lives are extreeeeeeeemely long,<br>and learning lots of happy things will make us superhero-strong.</p>\n  <p>And each lesson doubles as a tool, so the more we know,<br>the faster we we can go.</p>\n  <p>Life is not about becoming good at one thing, or learning one job,<br>it is good to aim to learn all the things and every thingamabob.</p>\n  <p><a href=\"https://www.reddit.com/r/redditgetsdrawn/comments/tfhkkw/this_is_my_hamster_pixie/\">Title Image Info</a> and <a href=\"https://youtu.be/uOKY9P5FTHM\">Video Time Lapse</a></p>\n</div>",
  "bootstrap": "<div class=\"card card-section bg-dark text-warning shadow\">\n  <div class=\"section card-body mb-0 my-2\">\n    <div class=\"paragraph card-text card-stanza my-5 text-center\">Our powers wait for the flame to brighten,<br>so that they may enlighten.</div>\n    <div class=\"paragraph card-text card-stanza my-5 text-center\">We are all as creative and powerful as it gets,<br>but we have to grow so that our elder selves have no regrets.</div>\n  </div>\n</div>\n<div class=\"mb-5 section-spacer\">&nbsp;</div>\n<div class=\"card card-section bg-dark text-warning shadow\">\n  <div class=\"section card-body mb-0 my-2\">\n    <div class=\"paragraph card-text card-stanza my-5 text-center\">We have to be heroes too,<br>we must always stand strong and true.</div>\n  </div>\n</div>\n<div class=\"mb-5 section-spacer\">&nbsp;</div>\n<div class=\"card card-section bg-dark text-warning shadow\">\n  <div class=\"section card-body mb-0 my-2\">\n    <div class=\"paragraph card-text card-stanza my-5 text-center\">Heck, we should even worry that a teacher can grade art,<br>or make someone feel like they are not smart.</div>\n    <div class=\"paragraph card-text card-stanza my-5 text-center\">But also by extension,<br>always aim to expand our comprehension.</div>\n    <div class=\"paragraph card-text card-stanza my-5 text-center\">Find wise biographies and great adventure books,<br>to frighten away all the crooks.</div>\n    <div class=\"paragraph card-text card-stanza my-5 text-center\">And gain more insight into the Human Condition,<br>so that you may look at things with a healthy dose of suspicion.</div>\n  </div>\n</div>\n<div class=\"mb-5 section-spacer\">&nbsp;</div>\n<div class=\"card card-section bg-dark text-warning shadow\">\n  <div class=\"section card-body mb-0 my-2\">\n    <div class=\"paragraph card-text card-stanza my-5 text-center\">It is not just that thinking by subtle analogy,<br>is an important part of our psychology.</div>\n    <div class=\"paragraph card-text card-stanza my-5 text-center\">But that we are born with profound superpowers,<br>and that, they are, truly ours.</div>\n    <div class=\"paragraph card-text card-stanza my-5 text-center\">And the more we expand our imagination,<br>the greater the power of our education.</div>\n  </div>\n</div>\n<div class=\"mb-5 section-spacer\">&nbsp;</div>\n<div class=\"card card-section bg-dark text-warning shadow\">\n  <div class=\"section card-body mb-0 my-2\">\n    <div class=\"paragraph card-text card-stanza my-5 text-center\">We can all create any and all, kinds of art,<br>we are all extremely intelligent, and equally smart.</div>\n  </div>\n</div>\n<div class=\"mb-5 section-spacer\">&nbsp;</div>\n<div class=\"card card-section bg-dark text-warning shadow\">\n  <div class=\"section card-body mb-0 my-2\">\n    <div class=\"paragraph card-text card-stanza my-5 text-center\">It is really important that we don't wait to be taught,<br>as teaching-outside-in is not what we thought.</div>\n    <div class=\"paragraph card-text card-stanza my-5 text-center\">We just have to find a comfy thing,<br>be it camping, painting, or learning to sing...</div>\n    <div class=\"paragraph card-text card-stanza my-5 text-center\">And play with it for a while,<br>play with it, so as long as it makes us smile.</div>\n  </div>\n</div>\n<div class=\"mb-5 section-spacer\">&nbsp;</div>\n<div class=\"card card-section bg-dark text-warning shadow\">\n  <div class=\"section card-body mb-0 my-2\">\n    <div class=\"paragraph card-text card-stanza my-5 text-center\">Our lives are extreeeeeeeemely long,<br>and learning lots of happy things will make us superhero-strong.</div>\n    <div class=\"paragraph card-text card-stanza my-5 text-center\">And each lesson doubles as a tool, so the more we know,<br>the faster we we can go.</div>\n    <div class=\"paragraph card-text card-stanza my-5 text-center\">Life is not about becoming good at one thing, or learning one job,<br>it is good to aim to learn all the things and every thingamabob.</div>\n    <div class=\"paragraph card-text card-stanza my-5 text-center\"><a href=\"https://www.reddit.com/r/redditgetsdrawn/comments/tfhkkw/this_is_my_hamster_pixie/\">Title Image Info</a> and <a href=\"https://youtu.be/uOKY9P5FTHM\">Video Time Lapse</a></div>\n  </div>\n</div>",
  "print": "<div class=\"section avoid-break-inside\" style=\"padding-bottom: 2rem;\">\n  <div class=\"paragraph\">Our powers wait for the flame to brighten,<br>so that they may enlighten.</div>\n  <div class=\"paragraph\">We are all as creative and powerful as it gets,<br>but we have to grow so that our elder selves have no regrets.</div>\n</div>\n<div class=\"section avoid-break-inside\" style=\"padding-bottom: 2rem;\">\n  <br>\n</div>\n<div class=\"section avoid-break-inside\" style=\"padding-bottom: 2rem;\">\n  <div class=\"paragraph\">We have to be heroes too,<br>we must always stand strong and true.</div>\n</div>\n<div class=\"section avoid-break-inside\" style=\"padding-bottom: 2rem;\">\n  <br>\n</div>\n<div class=\"section avoid-break-inside\" style=\"padding-bottom: 2rem;\">\n  <div class=\"paragraph\">Heck, we should even worry that a teacher can grade art,<br>or make someone feel like they are not smart.</div>\n  <div class=\"paragraph\">But also by extension,<br>always aim to expand our comprehension.</div>\n  <div class=\"paragraph\">Find wise biographies and great adventure books,<br>to frighten away all the crooks.</div>\n  <div class=\"paragraph\">And gain more insight into the Human Condition,<br>so that you may look at things with a healthy dose of suspicion.</div>\n</div>\n<div class=\"section avoid-break-inside\" style=\"padding-bottom: 2rem;\">\n  <br>\n</div>\n<div class=\"section avoid-break-inside\" style=\"padding-bottom: 2rem;\">\n  <div class=\"paragraph\">It is not just that thinking by subtle analogy,<br>is an important part of our psychology.</div>\n  <div class=\"paragraph\">But that we are born with profound superpowers,<br>and that, they are, truly ours.</div>\n  <div class=\"paragraph\">And the more we expand our imagination,<br>the greater the power of our education.</div>\n</div>\n<div class=\"section avoid-break-inside\" style=\"padding-bottom: 2rem;\">\n  <br>\n</div>\n<div class=\"section avoid-break-inside\" style=\"padding-bottom: 2rem;\">\n  <div class=\"paragraph\">We can all create any and all, kinds of art,<br>we are all extremely intelligent, and equally smart.</div>\n</div>\n<div class=\"section avoid-break-inside\" style=\"padding-bottom: 2rem;\">\n  <br>\n</div>\n<div class=\"section avoid-break-inside\" style=\"padding-bottom: 2rem;\">\n  <div class=\"paragraph\">It is really important that we don't wait to be taught,<br>as teaching-outside-in is not what we thought.</div>\n  <div class=\"paragraph\">We just have to find a comfy thing,<br>be it camping, painting, or learning to sing...</div>\n  <div class=\"paragraph\">And play with it for a while,<br>play with it, so as long as it makes us smile.</div>\n</div>\n<div class=\"section avoid-break-inside\" style=\"padding-bottom: 2rem;\">\n  <br>\n</div>\n<div class=\"section avoid-break-inside\" style=\"padding-bottom: 2rem;\">\n  <div class=\"paragraph\">Our lives are extreeeeeeeemely long,<br>and learning lots of happy things will make us superhero-strong.</div>\n  <div class=\"paragraph\">And each lesson doubles as a tool, so the more we know,<br>the faster we we can go.</div>\n  <div class=\"paragraph\">Life is not about becoming good at one thing, or learning one job,<br>it is good to aim to learn all the things and every thingamabob.</div>\n  <div class=\"paragraph\"><span>Title Image Info<sup>[1]</sup></span> and <span>Video Time Lapse<sup>[2]</sup></span></div>\n</div>\n<div class=\"break-after\">&nbsp;</div>\n<div>\n  <div class=\"section\" style=\"padding-bottom: 1rem;\">References</div>\n  <div>[1]: https://www.reddit.com/r/redditgetsdrawn/comments/tfhkkw/this_is_my_hamster_pixie/</div>\n  <div>[2]: https://youtu.be/uOKY9P5FTHM</div>\n</div>",
  "text": "Our powers wait for the flame to brighten,\nso that they may enlighten.\nWe are all as creative and powerful as it gets,\nbut we have to grow so that our elder selves have no regrets.\n\nWe have to be heroes too,\nwe must always stand strong and true.\n\nHeck, we should even worry that a teacher can grade art,\nor make someone feel like they are not smart.\nBut also by extension,\nalways aim to expand our comprehension.\nFind wise biographies and great adventure books,\nto frighten away all the crooks.\nAnd gain more insight into the Human Condition,\nso that you may look at things with a healthy dose of suspicion.\n\nIt is not just that thinking by subtle analogy,\nis an important part of our psychology.\nBut that we are born with profound superpowers,\nand that, they are, truly ours.\nAnd the more we expand our imagination,\nthe greater the power of our education.\n\nWe can all create any and all, kinds of art,\nwe are all extremely intelligent, and equally smart.\n\nIt is really important that we don't wait to be taught,\nas teaching-outside-in is not what we thought.\nWe just have to find a comfy thing,\nbe it camping, painting, or learning to sing...\nAnd play with it for a while,\nplay with it, so as long as it makes us smile.\n\nOur lives are extreeeeeeeemely long,\nand learning lots of happy things will make us superhero-strong.\nAnd each lesson doubles as a tool, so the more we know,\nthe faster we we can go.\nLife is not about becoming good at one thing, or learning one job,\nit is good to aim to learn all the things and every thingamabob.\nTitle Image Info[1] and Video Time Lapse[2]\n \nReferences\n[1]: https://www.reddit.com/r/redditgetsdrawn/comments/tfhkkw/this_is_my_hamster_pixie/\n[2]: https://youtu.be/uOKY9P5FTHM",
  "images": [],
  "links": [
    {
      "title": "Title Image Info",
      "url": "https://www.reddit.com/r/redditgetsdrawn/comments/tfhkkw/this_is_my_hamster_pixie/",
      "hostname": "www.reddit.com"
    },
    {
      "title": "Video Time Lapse",
      "url": "https://youtu.be/uOKY9P5FTHM",
      "hostname": "youtu.be"
    }
  ]
}