{
  "name": "furkies-purrkies-poetry-0592",
  "id": "furkies-purrkies-poetry-0592",
  "title": "Latest Medical Research Breakthrough Reveals That People Become Fancier When They Wear A Tail",
  "date": "2021-10-14T01:28:19.833Z",
  "image": "poetry-0592-illustration.jpg",
  "artwork": "https://unsplash.com/photos/83gB_koMuvA",
  "audio": "poetry-0592.mp3",
  "guid": "f7c36383-f0be-4c20-9c81-e1aab89f2fc0",
  "html": "<div class=\"section\">\n  <p>In a great tragedy 25 million years ago,<br>researches reveals we have lost our tails to great woe.</p>\n  <p>Today we can make or buy a tail at a very low cost,<br>and thus not all has been lost.</p>\n  <p>Living 25 million years without a tail was very tough,<br>but today me must say we've had, enough.</p>\n</div>\n<div class=\"section\">\n  <hr>\n</div>\n<div class=\"section\">\n  <p>Though the researchers are still working out details,<br>it turns out that we become a little bit sad without our tails.</p>\n  <p>However once we start wearing a tail,<br>we become more flexible and many stop being frail.</p>\n  <p>The leading scientist Dr. Meow explains:<br>\"Our tails were connected to our brains\".</p>\n  <p>In deed simulations prove that we used to walk gracefully and nobly,<br>and that today we're all just a little bit wobbly.</p>\n</div>\n<div class=\"section\">\n  <hr>\n</div>\n<div class=\"section\">\n  <p>The good Doctor has proven several times over,<br>that without a tail it is even a bad idea to bend over.</p>\n  <p>As many people never recover from bending down,<br>and have to get out of town.</p>\n</div>\n<div class=\"section\">\n  <hr>\n</div>\n<div class=\"section\">\n  <p>But perhaps the most wonderful and scientifically proven fact,<br>is that having a tail increases kindness, smiles, and eye contact.</p>\n  <p>In a word, those whose tails are puffy,<br>will never act stuffy.</p>\n</div>\n<div class=\"section\">\n  <hr>\n</div>\n<div class=\"section\">\n  <p>In laboratories tails have become such a success somehow,<br>that scientists stopped saying \"Wow\", and now say \"Meow!</p>\n  <p>Furthermore, research shows that those tho wear a tail,<br>are always successful and never fail.</p>\n  <p>In deed \"We are very successful\" scientist say,<br>\"everyone with a tail is making headway\".</p>\n  <p>It turns out even an amateur,<br>can finish a ground breaking project with a purr.</p>\n</div>\n<div class=\"section\">\n  <hr>\n</div>\n<div class=\"section\">\n  <p>It has always been a great mystery,<br>why the cat have been celebrated throughout history.</p>\n  <p>It turned out Witches, Kings of the jungle, gods in Egypt, and doodles everywhere,<br>were only trying to make us aware.</p>\n  <p>That we must all wear a tail as fluffy as it gets,<br>as it will help us get through life without any regrets.</p>\n</div>\n<div class=\"section\">\n  <hr>\n</div>\n<div class=\"section\">\n  <p>Already several nations have instituted what has been called The Fancy Laws,<br>get a tail and consider getting mittens that look like paws.</p>\n  <p>And in England, in a speech given by none other than the Queen,<br>it has been declared that \"Everyday is now Halloween\".</p>\n</div>",
  "bootstrap": "<div class=\"card card-section bg-dark text-warning shadow\">\n  <div class=\"section card-body mb-0 my-2\">\n    <div class=\"paragraph card-text card-stanza my-5 text-center\">In a great tragedy 25 million years ago,<br>researches reveals we have lost our tails to great woe.</div>\n    <div class=\"paragraph card-text card-stanza my-5 text-center\">Today we can make or buy a tail at a very low cost,<br>and thus not all has been lost.</div>\n    <div class=\"paragraph card-text card-stanza my-5 text-center\">Living 25 million years without a tail was very tough,<br>but today me must say we've had, enough.</div>\n  </div>\n</div>\n<div class=\"mb-5 section-spacer\">&nbsp;</div>\n<div class=\"card card-section bg-dark text-warning shadow\">\n  <div class=\"section card-body mb-0 my-2\">\n    <div class=\"paragraph card-text card-stanza my-5 text-center\">Though the researchers are still working out details,<br>it turns out that we become a little bit sad without our tails.</div>\n    <div class=\"paragraph card-text card-stanza my-5 text-center\">However once we start wearing a tail,<br>we become more flexible and many stop being frail.</div>\n    <div class=\"paragraph card-text card-stanza my-5 text-center\">The leading scientist Dr. Meow explains:<br>\"Our tails were connected to our brains\".</div>\n    <div class=\"paragraph card-text card-stanza my-5 text-center\">In deed simulations prove that we used to walk gracefully and nobly,<br>and that today we're all just a little bit wobbly.</div>\n  </div>\n</div>\n<div class=\"mb-5 section-spacer\">&nbsp;</div>\n<div class=\"card card-section bg-dark text-warning shadow\">\n  <div class=\"section card-body mb-0 my-2\">\n    <div class=\"paragraph card-text card-stanza my-5 text-center\">The good Doctor has proven several times over,<br>that without a tail it is even a bad idea to bend over.</div>\n    <div class=\"paragraph card-text card-stanza my-5 text-center\">As many people never recover from bending down,<br>and have to get out of town.</div>\n  </div>\n</div>\n<div class=\"mb-5 section-spacer\">&nbsp;</div>\n<div class=\"card card-section bg-dark text-warning shadow\">\n  <div class=\"section card-body mb-0 my-2\">\n    <div class=\"paragraph card-text card-stanza my-5 text-center\">But perhaps the most wonderful and scientifically proven fact,<br>is that having a tail increases kindness, smiles, and eye contact.</div>\n    <div class=\"paragraph card-text card-stanza my-5 text-center\">In a word, those whose tails are puffy,<br>will never act stuffy.</div>\n  </div>\n</div>\n<div class=\"mb-5 section-spacer\">&nbsp;</div>\n<div class=\"card card-section bg-dark text-warning shadow\">\n  <div class=\"section card-body mb-0 my-2\">\n    <div class=\"paragraph card-text card-stanza my-5 text-center\">In laboratories tails have become such a success somehow,<br>that scientists stopped saying \"Wow\", and now say \"Meow!</div>\n    <div class=\"paragraph card-text card-stanza my-5 text-center\">Furthermore, research shows that those tho wear a tail,<br>are always successful and never fail.</div>\n    <div class=\"paragraph card-text card-stanza my-5 text-center\">In deed \"We are very successful\" scientist say,<br>\"everyone with a tail is making headway\".</div>\n    <div class=\"paragraph card-text card-stanza my-5 text-center\">It turns out even an amateur,<br>can finish a ground breaking project with a purr.</div>\n  </div>\n</div>\n<div class=\"mb-5 section-spacer\">&nbsp;</div>\n<div class=\"card card-section bg-dark text-warning shadow\">\n  <div class=\"section card-body mb-0 my-2\">\n    <div class=\"paragraph card-text card-stanza my-5 text-center\">It has always been a great mystery,<br>why the cat have been celebrated throughout history.</div>\n    <div class=\"paragraph card-text card-stanza my-5 text-center\">It turned out Witches, Kings of the jungle, gods in Egypt, and doodles everywhere,<br>were only trying to make us aware.</div>\n    <div class=\"paragraph card-text card-stanza my-5 text-center\">That we must all wear a tail as fluffy as it gets,<br>as it will help us get through life without any regrets.</div>\n  </div>\n</div>\n<div class=\"mb-5 section-spacer\">&nbsp;</div>\n<div class=\"card card-section bg-dark text-warning shadow\">\n  <div class=\"section card-body mb-0 my-2\">\n    <div class=\"paragraph card-text card-stanza my-5 text-center\">Already several nations have instituted what has been called The Fancy Laws,<br>get a tail and consider getting mittens that look like paws.</div>\n    <div class=\"paragraph card-text card-stanza my-5 text-center\">And in England, in a speech given by none other than the Queen,<br>it has been declared that \"Everyday is now Halloween\".</div>\n  </div>\n</div>",
  "print": "<div class=\"section avoid-break-inside\" style=\"padding-bottom: 2rem;\">\n  <div class=\"paragraph\">In a great tragedy 25 million years ago,<br>researches reveals we have lost our tails to great woe.</div>\n  <div class=\"paragraph\">Today we can make or buy a tail at a very low cost,<br>and thus not all has been lost.</div>\n  <div class=\"paragraph\">Living 25 million years without a tail was very tough,<br>but today me must say we've had, enough.</div>\n</div>\n<div class=\"section avoid-break-inside\" style=\"padding-bottom: 2rem;\">\n  <br>\n</div>\n<div class=\"section avoid-break-inside\" style=\"padding-bottom: 2rem;\">\n  <div class=\"paragraph\">Though the researchers are still working out details,<br>it turns out that we become a little bit sad without our tails.</div>\n  <div class=\"paragraph\">However once we start wearing a tail,<br>we become more flexible and many stop being frail.</div>\n  <div class=\"paragraph\">The leading scientist Dr. Meow explains:<br>\"Our tails were connected to our brains\".</div>\n  <div class=\"paragraph\">In deed simulations prove that we used to walk gracefully and nobly,<br>and that today we're all just a little bit wobbly.</div>\n</div>\n<div class=\"section avoid-break-inside\" style=\"padding-bottom: 2rem;\">\n  <br>\n</div>\n<div class=\"section avoid-break-inside\" style=\"padding-bottom: 2rem;\">\n  <div class=\"paragraph\">The good Doctor has proven several times over,<br>that without a tail it is even a bad idea to bend over.</div>\n  <div class=\"paragraph\">As many people never recover from bending down,<br>and have to get out of town.</div>\n</div>\n<div class=\"section avoid-break-inside\" style=\"padding-bottom: 2rem;\">\n  <br>\n</div>\n<div class=\"section avoid-break-inside\" style=\"padding-bottom: 2rem;\">\n  <div class=\"paragraph\">But perhaps the most wonderful and scientifically proven fact,<br>is that having a tail increases kindness, smiles, and eye contact.</div>\n  <div class=\"paragraph\">In a word, those whose tails are puffy,<br>will never act stuffy.</div>\n</div>\n<div class=\"section avoid-break-inside\" style=\"padding-bottom: 2rem;\">\n  <br>\n</div>\n<div class=\"section avoid-break-inside\" style=\"padding-bottom: 2rem;\">\n  <div class=\"paragraph\">In laboratories tails have become such a success somehow,<br>that scientists stopped saying \"Wow\", and now say \"Meow!</div>\n  <div class=\"paragraph\">Furthermore, research shows that those tho wear a tail,<br>are always successful and never fail.</div>\n  <div class=\"paragraph\">In deed \"We are very successful\" scientist say,<br>\"everyone with a tail is making headway\".</div>\n  <div class=\"paragraph\">It turns out even an amateur,<br>can finish a ground breaking project with a purr.</div>\n</div>\n<div class=\"section avoid-break-inside\" style=\"padding-bottom: 2rem;\">\n  <br>\n</div>\n<div class=\"section avoid-break-inside\" style=\"padding-bottom: 2rem;\">\n  <div class=\"paragraph\">It has always been a great mystery,<br>why the cat have been celebrated throughout history.</div>\n  <div class=\"paragraph\">It turned out Witches, Kings of the jungle, gods in Egypt, and doodles everywhere,<br>were only trying to make us aware.</div>\n  <div class=\"paragraph\">That we must all wear a tail as fluffy as it gets,<br>as it will help us get through life without any regrets.</div>\n</div>\n<div class=\"section avoid-break-inside\" style=\"padding-bottom: 2rem;\">\n  <br>\n</div>\n<div class=\"section avoid-break-inside\" style=\"padding-bottom: 2rem;\">\n  <div class=\"paragraph\">Already several nations have instituted what has been called The Fancy Laws,<br>get a tail and consider getting mittens that look like paws.</div>\n  <div class=\"paragraph\">And in England, in a speech given by none other than the Queen,<br>it has been declared that \"Everyday is now Halloween\".</div>\n</div>",
  "text": "In a great tragedy 25 million years ago,\nresearches reveals we have lost our tails to great woe.\nToday we can make or buy a tail at a very low cost,\nand thus not all has been lost.\nLiving 25 million years without a tail was very tough,\nbut today me must say we've had, enough.\n\nThough the researchers are still working out details,\nit turns out that we become a little bit sad without our tails.\nHowever once we start wearing a tail,\nwe become more flexible and many stop being frail.\nThe leading scientist Dr. Meow explains:\n\"Our tails were connected to our brains\".\nIn deed simulations prove that we used to walk gracefully and nobly,\nand that today we're all just a little bit wobbly.\n\nThe good Doctor has proven several times over,\nthat without a tail it is even a bad idea to bend over.\nAs many people never recover from bending down,\nand have to get out of town.\n\nBut perhaps the most wonderful and scientifically proven fact,\nis that having a tail increases kindness, smiles, and eye contact.\nIn a word, those whose tails are puffy,\nwill never act stuffy.\n\nIn laboratories tails have become such a success somehow,\nthat scientists stopped saying \"Wow\", and now say \"Meow!\nFurthermore, research shows that those tho wear a tail,\nare always successful and never fail.\nIn deed \"We are very successful\" scientist say,\n\"everyone with a tail is making headway\".\nIt turns out even an amateur,\ncan finish a ground breaking project with a purr.\n\nIt has always been a great mystery,\nwhy the cat have been celebrated throughout history.\nIt turned out Witches, Kings of the jungle, gods in Egypt, and doodles everywhere,\nwere only trying to make us aware.\nThat we must all wear a tail as fluffy as it gets,\nas it will help us get through life without any regrets.\n\nAlready several nations have instituted what has been called The Fancy Laws,\nget a tail and consider getting mittens that look like paws.\nAnd in England, in a speech given by none other than the Queen,\nit has been declared that \"Everyday is now Halloween\".",
  "images": [],
  "links": []
}