{
  "name": "furkies-purrkies-poetry-0654",
  "id": "furkies-purrkies-poetry-0654",
  "title": "Pursuit Of Wisdom And Growing Up",
  "date": "2021-12-15T01:46:55.542Z",
  "image": "poetry-0654-illustration.jpg",
  "artwork": "https://unsplash.com/photos/cN-QMLQCxBI",
  "audio": "poetry-0654.mp3",
  "guid": "4d30b717-d61a-4999-842c-d6a1d6feca3e",
  "html": "<div class=\"section\">\n  <p>Wisdom is a multiplier of Knowledge,<br>and you will not learn it in a College.</p>\n  <p>While it is unfair,<br>to compare.</p>\n  <p>A Philosopher needs adventure and thought, not training,<br>while a Doctor must memorize without complaining.</p>\n  <p>Wisdom will help a good Doctor truly see,<br>and help her knowledge grow like a tree.</p>\n  <p>Wisdom is not just about knowing,<br>but learning more and more without ever slowing.</p>\n</div>\n<div class=\"section\">\n  <hr>\n</div>\n<div class=\"section\">\n  <p>Without wisdom people unfortunately make mistakes,<br>so they really need it for their own sake's.</p>\n  <p>And we all need as much wisdom as we can get,<br>pursuit of wisdom is something we can't afford to forget.</p>\n</div>\n<div class=\"section\">\n  <hr>\n</div>\n<div class=\"section\">\n  <p>We have to search for it, for as long as it takes,<br>maybe make an art-form out of avoiding mistakes.</p>\n</div>\n<div class=\"section\">\n  <hr>\n</div>\n<div class=\"section\">\n  <p>When I was frightened in school,<br>I discovered how a bully is just a dull tool.</p>\n  <p>If they only took to books,<br>they wouldn't have ended up becoming crooks.</p>\n  <p>Their mad lives had been played out countless times before,<br>and for naught was their entire war.</p>\n</div>\n<div class=\"section\">\n  <hr>\n</div>\n<div class=\"section\">\n  <p>I think this was why I early on felt that love of wisdom was important for all,<br>it sets us free and lets us all stand tall.</p>\n</div>\n<div class=\"section\">\n  <hr>\n</div>\n<div class=\"section\">\n  <p>Wisdom will also help troubled people convert whatever mistakes they did make,<br>into precious lessons, and finally give them break.</p>\n  <p>In wisdom people know how to fix things without asking how,<br>and that always makes everything right somehow.</p>\n  <p>Wisdom will convert self blame to self love,<br>and show that mistakes are lessons that they shouldn't dispose of.</p>\n  <p>In wisdom the first book they write,<br>will set all the things right.</p>\n</div>\n<div class=\"section\">\n  <hr>\n</div>\n<div class=\"section\">\n  <p>We live in a poverty and and an overwork system,<br>there is nothing in our culture that encourages to wisdom.</p>\n  <p>Just look at how people treat each other in movies and TV,<br>and you will surely agree.</p>\n</div>\n<div class=\"section\">\n  <hr>\n</div>\n<div class=\"section\">\n  <p>Wisdom however can counteract all the bad culture,<br>it will enlighten us and give us nurture.</p>\n  <p>And making a mistake is not the end of the world,<br>we simply have to learn to use wisdom, and not just do as we are told.</p>\n  <p>A lot of mistakes comes from wanting to be other than we really are,<br>following others so that we belong belong, or being played like a guitar.</p>\n  <p>Wisdom helps us grow in our own direction,<br>and will help us see who we really are, through introspection.</p>\n  <p>Just expanding into the magnificent bouquet of flowers that we really are,<br>will take us to our bright and unique star.</p>\n</div>\n<div class=\"section\">\n  <hr>\n</div>\n<div class=\"section\">\n  <p>We should really develop that magnificent thirst,<br>and look for wisdom first.</p>\n  <p>Early on wisdom will help us see,<br>and set our minds free.</p>\n  <p>Show us that teachers are pretending to teach,<br>the lessons they share are of little consequence and reach.</p>\n  <p>That bullies are just victims of abuse,<br>living a life void of the peace that don't even know they can choose.</p>\n  <p>At the same time,<br>wisdom will help us avoid it all, and help us climb.</p>\n  <p>And the heights that we reach,<br>are NOT just a figure of speech.</p>\n  <p>As that is the up in growing up,<br>growing all the way up.</p>\n  <p>Otherwise people are merely aging,<br>putting on some show they are staging.</p>\n</div>\n<div class=\"section\">\n  <hr>\n</div>\n<div class=\"section\">\n  <p>As to a good start,<br>I think adventures and wise biographies speak well to the heart.</p>\n  <p>Reading wise books that make us happy and strong,<br>will teach us class and wisdom, before long.</p>\n</div>",
  "bootstrap": "<div class=\"card card-section bg-dark text-warning shadow\">\n  <div class=\"section card-body mb-0 my-2\">\n    <div class=\"paragraph card-text card-stanza my-5 text-center\">Wisdom is a multiplier of Knowledge,<br>and you will not learn it in a College.</div>\n    <div class=\"paragraph card-text card-stanza my-5 text-center\">While it is unfair,<br>to compare.</div>\n    <div class=\"paragraph card-text card-stanza my-5 text-center\">A Philosopher needs adventure and thought, not training,<br>while a Doctor must memorize without complaining.</div>\n    <div class=\"paragraph card-text card-stanza my-5 text-center\">Wisdom will help a good Doctor truly see,<br>and help her knowledge grow like a tree.</div>\n    <div class=\"paragraph card-text card-stanza my-5 text-center\">Wisdom is not just about knowing,<br>but learning more and more without ever slowing.</div>\n  </div>\n</div>\n<div class=\"mb-5 section-spacer\">&nbsp;</div>\n<div class=\"card card-section bg-dark text-warning shadow\">\n  <div class=\"section card-body mb-0 my-2\">\n    <div class=\"paragraph card-text card-stanza my-5 text-center\">Without wisdom people unfortunately make mistakes,<br>so they really need it for their own sake's.</div>\n    <div class=\"paragraph card-text card-stanza my-5 text-center\">And we all need as much wisdom as we can get,<br>pursuit of wisdom is something we can't afford to forget.</div>\n  </div>\n</div>\n<div class=\"mb-5 section-spacer\">&nbsp;</div>\n<div class=\"card card-section bg-dark text-warning shadow\">\n  <div class=\"section card-body mb-0 my-2\">\n    <div class=\"paragraph card-text card-stanza my-5 text-center\">We have to search for it, for as long as it takes,<br>maybe make an art-form out of avoiding mistakes.</div>\n  </div>\n</div>\n<div class=\"mb-5 section-spacer\">&nbsp;</div>\n<div class=\"card card-section bg-dark text-warning shadow\">\n  <div class=\"section card-body mb-0 my-2\">\n    <div class=\"paragraph card-text card-stanza my-5 text-center\">When I was frightened in school,<br>I discovered how a bully is just a dull tool.</div>\n    <div class=\"paragraph card-text card-stanza my-5 text-center\">If they only took to books,<br>they wouldn't have ended up becoming crooks.</div>\n    <div class=\"paragraph card-text card-stanza my-5 text-center\">Their mad lives had been played out countless times before,<br>and for naught was their entire war.</div>\n  </div>\n</div>\n<div class=\"mb-5 section-spacer\">&nbsp;</div>\n<div class=\"card card-section bg-dark text-warning shadow\">\n  <div class=\"section card-body mb-0 my-2\">\n    <div class=\"paragraph card-text card-stanza my-5 text-center\">I think this was why I early on felt that love of wisdom was important for all,<br>it sets us free and lets us all stand tall.</div>\n  </div>\n</div>\n<div class=\"mb-5 section-spacer\">&nbsp;</div>\n<div class=\"card card-section bg-dark text-warning shadow\">\n  <div class=\"section card-body mb-0 my-2\">\n    <div class=\"paragraph card-text card-stanza my-5 text-center\">Wisdom will also help troubled people convert whatever mistakes they did make,<br>into precious lessons, and finally give them break.</div>\n    <div class=\"paragraph card-text card-stanza my-5 text-center\">In wisdom people know how to fix things without asking how,<br>and that always makes everything right somehow.</div>\n    <div class=\"paragraph card-text card-stanza my-5 text-center\">Wisdom will convert self blame to self love,<br>and show that mistakes are lessons that they shouldn't dispose of.</div>\n    <div class=\"paragraph card-text card-stanza my-5 text-center\">In wisdom the first book they write,<br>will set all the things right.</div>\n  </div>\n</div>\n<div class=\"mb-5 section-spacer\">&nbsp;</div>\n<div class=\"card card-section bg-dark text-warning shadow\">\n  <div class=\"section card-body mb-0 my-2\">\n    <div class=\"paragraph card-text card-stanza my-5 text-center\">We live in a poverty and and an overwork system,<br>there is nothing in our culture that encourages to wisdom.</div>\n    <div class=\"paragraph card-text card-stanza my-5 text-center\">Just look at how people treat each other in movies and TV,<br>and you will surely agree.</div>\n  </div>\n</div>\n<div class=\"mb-5 section-spacer\">&nbsp;</div>\n<div class=\"card card-section bg-dark text-warning shadow\">\n  <div class=\"section card-body mb-0 my-2\">\n    <div class=\"paragraph card-text card-stanza my-5 text-center\">Wisdom however can counteract all the bad culture,<br>it will enlighten us and give us nurture.</div>\n    <div class=\"paragraph card-text card-stanza my-5 text-center\">And making a mistake is not the end of the world,<br>we simply have to learn to use wisdom, and not just do as we are told.</div>\n    <div class=\"paragraph card-text card-stanza my-5 text-center\">A lot of mistakes comes from wanting to be other than we really are,<br>following others so that we belong belong, or being played like a guitar.</div>\n    <div class=\"paragraph card-text card-stanza my-5 text-center\">Wisdom helps us grow in our own direction,<br>and will help us see who we really are, through introspection.</div>\n    <div class=\"paragraph card-text card-stanza my-5 text-center\">Just expanding into the magnificent bouquet of flowers that we really are,<br>will take us to our bright and unique star.</div>\n  </div>\n</div>\n<div class=\"mb-5 section-spacer\">&nbsp;</div>\n<div class=\"card card-section bg-dark text-warning shadow\">\n  <div class=\"section card-body mb-0 my-2\">\n    <div class=\"paragraph card-text card-stanza my-5 text-center\">We should really develop that magnificent thirst,<br>and look for wisdom first.</div>\n    <div class=\"paragraph card-text card-stanza my-5 text-center\">Early on wisdom will help us see,<br>and set our minds free.</div>\n    <div class=\"paragraph card-text card-stanza my-5 text-center\">Show us that teachers are pretending to teach,<br>the lessons they share are of little consequence and reach.</div>\n    <div class=\"paragraph card-text card-stanza my-5 text-center\">That bullies are just victims of abuse,<br>living a life void of the peace that don't even know they can choose.</div>\n    <div class=\"paragraph card-text card-stanza my-5 text-center\">At the same time,<br>wisdom will help us avoid it all, and help us climb.</div>\n    <div class=\"paragraph card-text card-stanza my-5 text-center\">And the heights that we reach,<br>are NOT just a figure of speech.</div>\n    <div class=\"paragraph card-text card-stanza my-5 text-center\">As that is the up in growing up,<br>growing all the way up.</div>\n    <div class=\"paragraph card-text card-stanza my-5 text-center\">Otherwise people are merely aging,<br>putting on some show they are staging.</div>\n  </div>\n</div>\n<div class=\"mb-5 section-spacer\">&nbsp;</div>\n<div class=\"card card-section bg-dark text-warning shadow\">\n  <div class=\"section card-body mb-0 my-2\">\n    <div class=\"paragraph card-text card-stanza my-5 text-center\">As to a good start,<br>I think adventures and wise biographies speak well to the heart.</div>\n    <div class=\"paragraph card-text card-stanza my-5 text-center\">Reading wise books that make us happy and strong,<br>will teach us class and wisdom, before long.</div>\n  </div>\n</div>",
  "print": "<div class=\"section avoid-break-inside\" style=\"padding-bottom: 2rem;\">\n  <div class=\"paragraph\">Wisdom is a multiplier of Knowledge,<br>and you will not learn it in a College.</div>\n  <div class=\"paragraph\">While it is unfair,<br>to compare.</div>\n  <div class=\"paragraph\">A Philosopher needs adventure and thought, not training,<br>while a Doctor must memorize without complaining.</div>\n  <div class=\"paragraph\">Wisdom will help a good Doctor truly see,<br>and help her knowledge grow like a tree.</div>\n  <div class=\"paragraph\">Wisdom is not just about knowing,<br>but learning more and more without ever slowing.</div>\n</div>\n<div class=\"section avoid-break-inside\" style=\"padding-bottom: 2rem;\">\n  <br>\n</div>\n<div class=\"section avoid-break-inside\" style=\"padding-bottom: 2rem;\">\n  <div class=\"paragraph\">Without wisdom people unfortunately make mistakes,<br>so they really need it for their own sake's.</div>\n  <div class=\"paragraph\">And we all need as much wisdom as we can get,<br>pursuit of wisdom is something we can't afford to forget.</div>\n</div>\n<div class=\"section avoid-break-inside\" style=\"padding-bottom: 2rem;\">\n  <br>\n</div>\n<div class=\"section avoid-break-inside\" style=\"padding-bottom: 2rem;\">\n  <div class=\"paragraph\">We have to search for it, for as long as it takes,<br>maybe make an art-form out of avoiding mistakes.</div>\n</div>\n<div class=\"section avoid-break-inside\" style=\"padding-bottom: 2rem;\">\n  <br>\n</div>\n<div class=\"section avoid-break-inside\" style=\"padding-bottom: 2rem;\">\n  <div class=\"paragraph\">When I was frightened in school,<br>I discovered how a bully is just a dull tool.</div>\n  <div class=\"paragraph\">If they only took to books,<br>they wouldn't have ended up becoming crooks.</div>\n  <div class=\"paragraph\">Their mad lives had been played out countless times before,<br>and for naught was their entire war.</div>\n</div>\n<div class=\"section avoid-break-inside\" style=\"padding-bottom: 2rem;\">\n  <br>\n</div>\n<div class=\"section avoid-break-inside\" style=\"padding-bottom: 2rem;\">\n  <div class=\"paragraph\">I think this was why I early on felt that love of wisdom was important for all,<br>it sets us free and lets us all stand tall.</div>\n</div>\n<div class=\"section avoid-break-inside\" style=\"padding-bottom: 2rem;\">\n  <br>\n</div>\n<div class=\"section avoid-break-inside\" style=\"padding-bottom: 2rem;\">\n  <div class=\"paragraph\">Wisdom will also help troubled people convert whatever mistakes they did make,<br>into precious lessons, and finally give them break.</div>\n  <div class=\"paragraph\">In wisdom people know how to fix things without asking how,<br>and that always makes everything right somehow.</div>\n  <div class=\"paragraph\">Wisdom will convert self blame to self love,<br>and show that mistakes are lessons that they shouldn't dispose of.</div>\n  <div class=\"paragraph\">In wisdom the first book they write,<br>will set all the things right.</div>\n</div>\n<div class=\"section avoid-break-inside\" style=\"padding-bottom: 2rem;\">\n  <br>\n</div>\n<div class=\"section avoid-break-inside\" style=\"padding-bottom: 2rem;\">\n  <div class=\"paragraph\">We live in a poverty and and an overwork system,<br>there is nothing in our culture that encourages to wisdom.</div>\n  <div class=\"paragraph\">Just look at how people treat each other in movies and TV,<br>and you will surely agree.</div>\n</div>\n<div class=\"section avoid-break-inside\" style=\"padding-bottom: 2rem;\">\n  <br>\n</div>\n<div class=\"section avoid-break-inside\" style=\"padding-bottom: 2rem;\">\n  <div class=\"paragraph\">Wisdom however can counteract all the bad culture,<br>it will enlighten us and give us nurture.</div>\n  <div class=\"paragraph\">And making a mistake is not the end of the world,<br>we simply have to learn to use wisdom, and not just do as we are told.</div>\n  <div class=\"paragraph\">A lot of mistakes comes from wanting to be other than we really are,<br>following others so that we belong belong, or being played like a guitar.</div>\n  <div class=\"paragraph\">Wisdom helps us grow in our own direction,<br>and will help us see who we really are, through introspection.</div>\n  <div class=\"paragraph\">Just expanding into the magnificent bouquet of flowers that we really are,<br>will take us to our bright and unique star.</div>\n</div>\n<div class=\"section avoid-break-inside\" style=\"padding-bottom: 2rem;\">\n  <br>\n</div>\n<div class=\"section avoid-break-inside\" style=\"padding-bottom: 2rem;\">\n  <div class=\"paragraph\">We should really develop that magnificent thirst,<br>and look for wisdom first.</div>\n  <div class=\"paragraph\">Early on wisdom will help us see,<br>and set our minds free.</div>\n  <div class=\"paragraph\">Show us that teachers are pretending to teach,<br>the lessons they share are of little consequence and reach.</div>\n  <div class=\"paragraph\">That bullies are just victims of abuse,<br>living a life void of the peace that don't even know they can choose.</div>\n  <div class=\"paragraph\">At the same time,<br>wisdom will help us avoid it all, and help us climb.</div>\n  <div class=\"paragraph\">And the heights that we reach,<br>are NOT just a figure of speech.</div>\n  <div class=\"paragraph\">As that is the up in growing up,<br>growing all the way up.</div>\n  <div class=\"paragraph\">Otherwise people are merely aging,<br>putting on some show they are staging.</div>\n</div>\n<div class=\"section avoid-break-inside\" style=\"padding-bottom: 2rem;\">\n  <br>\n</div>\n<div class=\"section avoid-break-inside\" style=\"padding-bottom: 2rem;\">\n  <div class=\"paragraph\">As to a good start,<br>I think adventures and wise biographies speak well to the heart.</div>\n  <div class=\"paragraph\">Reading wise books that make us happy and strong,<br>will teach us class and wisdom, before long.</div>\n</div>",
  "text": "Wisdom is a multiplier of Knowledge,\nand you will not learn it in a College.\nWhile it is unfair,\nto compare.\nA Philosopher needs adventure and thought, not training,\nwhile a Doctor must memorize without complaining.\nWisdom will help a good Doctor truly see,\nand help her knowledge grow like a tree.\nWisdom is not just about knowing,\nbut learning more and more without ever slowing.\n\nWithout wisdom people unfortunately make mistakes,\nso they really need it for their own sake's.\nAnd we all need as much wisdom as we can get,\npursuit of wisdom is something we can't afford to forget.\n\nWe have to search for it, for as long as it takes,\nmaybe make an art-form out of avoiding mistakes.\n\nWhen I was frightened in school,\nI discovered how a bully is just a dull tool.\nIf they only took to books,\nthey wouldn't have ended up becoming crooks.\nTheir mad lives had been played out countless times before,\nand for naught was their entire war.\n\nI think this was why I early on felt that love of wisdom was important for all,\nit sets us free and lets us all stand tall.\n\nWisdom will also help troubled people convert whatever mistakes they did make,\ninto precious lessons, and finally give them break.\nIn wisdom people know how to fix things without asking how,\nand that always makes everything right somehow.\nWisdom will convert self blame to self love,\nand show that mistakes are lessons that they shouldn't dispose of.\nIn wisdom the first book they write,\nwill set all the things right.\n\nWe live in a poverty and and an overwork system,\nthere is nothing in our culture that encourages to wisdom.\nJust look at how people treat each other in movies and TV,\nand you will surely agree.\n\nWisdom however can counteract all the bad culture,\nit will enlighten us and give us nurture.\nAnd making a mistake is not the end of the world,\nwe simply have to learn to use wisdom, and not just do as we are told.\nA lot of mistakes comes from wanting to be other than we really are,\nfollowing others so that we belong belong, or being played like a guitar.\nWisdom helps us grow in our own direction,\nand will help us see who we really are, through introspection.\nJust expanding into the magnificent bouquet of flowers that we really are,\nwill take us to our bright and unique star.\n\nWe should really develop that magnificent thirst,\nand look for wisdom first.\nEarly on wisdom will help us see,\nand set our minds free.\nShow us that teachers are pretending to teach,\nthe lessons they share are of little consequence and reach.\nThat bullies are just victims of abuse,\nliving a life void of the peace that don't even know they can choose.\nAt the same time,\nwisdom will help us avoid it all, and help us climb.\nAnd the heights that we reach,\nare NOT just a figure of speech.\nAs that is the up in growing up,\ngrowing all the way up.\nOtherwise people are merely aging,\nputting on some show they are staging.\n\nAs to a good start,\nI think adventures and wise biographies speak well to the heart.\nReading wise books that make us happy and strong,\nwill teach us class and wisdom, before long.",
  "images": [],
  "links": []
}