{
  "id": "furkies-purrkies-poetry-0723",
  "title": "A Programmer's Poem: ORM, REST, OPSEC, MOO, And A Scary Smelly Grue",
  "date": "2022-02-21T21:00:23.402Z",
  "image": "poetry-0723-illustration.jpg",
  "artwork": "https://unsplash.com/photos/QuP5RL_E5oE",
  "audio": "poetry-0723.mp3",
  "guid": "55f8bb23-7aa7-4071-b6e5-5c0be56e8bdb"
}
