{
  "name": "furkies-purrkies-poetry-0448",
  "title": "Learning For Real",
  "date": "2021-05-23T01:10:20.590Z",
  "image": "poetry-0448-illustration.jpg",
  "audio": "poetry-0448.mp3",
  "artwork": "https://unsplash.com/photos/kcT-7cirBEw",
  "id": "furkies-purrkies-poetry-0448",
  "attachments": {},
  "guid": "b6f7f392-489c-4ae4-b1c1-123f11b34488",
  "html": "<div class=\"section\">\n  <p>Life, in large part is about becoming a noble, dignified, and thus great being;</p>\n  <p>and later, helping the world grow.</p>\n</div>\n\n<div class=\"section\">\n  <hr>\n</div>\n\n<div class=\"section\">\n  <p>I am sure someone, someday will simply explain,</p>\n  <p>why so many things have gone wrong today.</p>\n</div>\n\n<div class=\"section\">\n  <p>It could be that nobody is really in charge,</p>\n  <p>and the liars are keeping everything in a constant state of destruction.</p>\n</div>\n\n<div class=\"section\">\n  <p>It could be because of lack of education,</p>\n  <p>and the thing that is disrupting education is the ongoing-uneducation, and fantasy beliefs and lifestyles.</p>\n</div>\n\n<div class=\"section\">\n  <p>Be it believing a falsehood, or pretending to know something,</p>\n  <p>or having been mislead, it will all have lasting consequences as those things influence our decisions.</p>\n</div>\n\n<div class=\"section\">\n  <p>It isn&apos;t always easy to pull our selves up and above,</p>\n  <p>am I wrong to say; that finding a good book or a good friend; is... kind of a function of luck?</p>\n</div>\n\n<div class=\"section\">\n  <p>The unlucky, may never set themselves free,</p>\n  <p>they may never come across something that is compatible with their mind; that will influence them to keep learning and rising.</p>\n</div>\n\n<div class=\"section\">\n  <hr>\n</div>\n\n<div class=\"section\">\n  <p>Obviously, schools were meant to fix this,</p>\n  <p>they were meant to teach us what is false, what is wrong, what isn&apos;t real, how parents shouldn&apos;t behave.</p>\n</div>\n\n<div class=\"section\">\n  <p>And school - really - should be our Shield and a Place of Wisdom,</p>\n  <p>but it is actually a place of punishment, that frequently will cause parents to punish the student further.</p>\n</div>\n\n<div class=\"section\">\n  <p>This is an example of an interruption to growing up,</p>\n  <p>our natural curiosity would have us do amazing things.</p>\n</div>\n\n<div class=\"section\">\n  <p>Observing <a href=\"https://en.wikipedia.org/wiki/Galileo_Galilei\">Jupiter&apos;s Moons, and Saturn&apos;s Rings</a>,</p>\n  <p>through our own telescope, and that would be just one tiny step away from <a href=\"https://www.youtube.com/watch?v=pXcRKoxTPVg\">taking pictures of the Andromeda Galaxy</a>.</p>\n</div>\n\n<div class=\"section\">\n  <p>We would be <a href=\"https://www.youtube.com/watch?v=0sRvkaxh8EU\">Composing Music</a>,</p>\n  <p>it is unbelievably easy to compose beautiful melodies for the piano with a Digital Audio Workstation like the Open Source <a href=\"https://www.youtube.com/results?search_query=lmms\">lmms</a>.</p>\n</div>\n\n<div class=\"section\">\n  <p>The world of Art would open it self to us as we put our photographs through basic <a href=\"https://www.youtube.com/results?search_query=GIMP+filters+tutorial\">GIMP photo filters</a>,</p>\n  <p>and <a href=\"https://www.youtube.com/watch?v=G1fAWGTTFdY\">project outlines of our art inspirations on walls or canvas</a>.</p>\n</div>\n\n<div class=\"section\">\n  <p>Then our attention would turn to fixing Climate, fixing Politics, making World Peace a reality, ensuring <a href=\"https://www.youtube.com/watch?v=hTlrSYbCbHE\">Human Rights</a>, and Fixing Schools,</p>\n  <p>becoming Great Beings comes naturally to us.</p>\n</div>\n\n<div class=\"section\">\n  <hr>\n</div>\n\n<div class=\"section\">\n  <p>Ba careful,</p>\n  <p>if school is not teaching you for real.</p>\n</div>\n\n<div class=\"section\">\n  <p>If it is interrupting your real education,</p>\n  <p>then it poses a danger.</p>\n</div>\n\n<div class=\"section\">\n  <hr>\n</div>\n\n<div class=\"section\">\n  <p>You have to grow up in a culture where opinions can&apos;t stand up to a facts,</p>\n  <p>where ineffective politics are seen as clear evidence of corruption.</p>\n</div>\n\n<div class=\"section\">\n  <p>You have to grow up in a world,</p>\n  <p>that does not try to trick you into thinking that memorization is education... to make the job of collecting paychecks easier.</p>\n</div>\n\n<div class=\"section\">\n  <p>You have to grow up in a world that cares about the future,</p>\n  <p>and thus consequences of actions that are taking place today.</p>\n</div>\n\n<div class=\"section\">\n  <p>You have to grow up in a world,</p>\n  <p>that will protect you, and empower you to become a great being.</p>\n</div>\n\n<div class=\"section\">\n  <hr>\n</div>\n\n<div class=\"section\">\n  <p>There is a disgusting little saying in the country I come from,</p>\n  <p>&quot;Co wolno wojewodzie, to nie tobie, smrodzie&quot;; it means &quot;A stinking little person can&apos;t do what a governor can.&quot;</p>\n</div>\n\n<div class=\"section\">\n  <p>That is the opposite, of the truth,</p>\n  <p>it is a lie that is meant to belittle and intimidate the younger generations, and it automatically forfeits the authority of the persons spreading it.</p>\n</div>\n\n<div class=\"section\">\n  <p>The truth is, to you; belongs the future,</p>\n  <p>and by the time you get there; all that will be left of those governors, is the unforeseen consequences of their brainless actions.</p>\n</div>\n\n<div class=\"section\">\n  <p>Consequences that in their lack of education, they were unable to foresee,</p>\n  <p>consequences, that they will not be able, to deal with - and they will be too old to care.</p>\n</div>\n\n<div class=\"section\">\n  <p>See the truth is, the future of Human Kind is more important,</p>\n  <p>than any shortsighted vision.</p>\n</div>\n\n<div class=\"section\">\n  <p>All the ongoing mistakes are unmovable,</p>\n  <p>precisely because almost nobody is growing up to face the reality of the Future Human Kind.</p>\n</div>\n\n<div class=\"section\">\n  <p>People are instead taught to deal and make deals,</p>\n  <p>which only complicates problems like Climate Change, or our road to World Peace.</p>\n</div>\n\n<div class=\"section\">\n  <hr>\n</div>\n\n<div class=\"section\">\n  <p>If your school is teaching you to pretend to learn by means of memorization,</p>\n  <p>and to stop caring about the world, because it is not your problem yet.</p>\n</div>\n\n<div class=\"section\">\n  <p>Your first act of greatness is to quietly, and peacefully, resist a fake education,</p>\n  <p>and go get a real one; presumably from Narrated Books that will ease you into complicated subjects.</p>\n</div>\n\n<div class=\"section\">\n  <p>Those who stand in the way of your real education,</p>\n  <p>forfeit their authority over you, <a href=\"https://www.youtube.com/watch?v=fmoor8DwqW4\">as they are simply there to pretend to teach you and get paid</a>.</p>\n</div>\n\n<div class=\"section\">\n  <p>Being your teacher is not just a job, bridging generations with Knowledge and Wisdom, is nothing like a job,</p>\n  <p>and pretending to teach to merely get paid, is not only fraud, but a crime against Humanity, and The Future of Human Kind.</p>\n</div>\n\n<div class=\"section\">\n  <p>Not only do you have to resist fake education and make your way to get a real one on your own,</p>\n  <p>you also have to help the others, prevent their growing up from being interrupted with fake education.</p>\n</div>\n\n<div class=\"section\">\n  <hr>\n</div>\n\n<div class=\"section\">\n  <p><a href=\"https://www.youtube.com/watch?v=lwEFEIxcj4Q\">Do not let the teachers frighten you into memorization</a>,</p>\n  <p>you will lose if you try to stand up to them directly.</p>\n</div>\n\n<div class=\"section\">\n  <p>Move beyond, who is right and wrong, _do not_ waste time on broken things,</p>\n  <p>begin your self education, immediately; and help your classmates if you can.</p>\n</div>\n\n<div class=\"section\">\n  <hr>\n</div>\n\n<div class=\"section\">\n  <p>As to your financial worries, try to learn computers, programming and design,</p>\n  <p>and build a <a href=\"https://www.youtube.com/watch?v=ZoqgAy3h4OM\">series of little companies</a> until you get the hang of things.</p>\n</div>\n\n<div class=\"section\">\n  <p>Start slow, be gentle, you have much to learn, here are a few Authors and real Teachers to get you started,</p>\n  <p>there are thousands of these magnificent individuals, and you will have to understand most of their thoughts and philosophy in order get a real, self balancing, and mutually reinforcing picture of the world.</p>\n</div>\n\n<div class=\"section\">\n  <ul>\n    <li><a href=\"https://www.youtube.com/results?search_query=Greta+Thunberg\">Greta Thunberg</a></li>\n    <li><a href=\"https://www.youtube.com/results?search_query=Sir+Ken+Robinson\">Sir Ken Robinson</a></li>\n    <li><a href=\"https://www.youtube.com/results?search_query=Astra+Taylor\">Astra Taylor</a></li>\n    <li><a href=\"https://www.youtube.com/results?search_query=Jill+Tarter\">Jill Tarter</a></li>\n    <li><a href=\"https://www.youtube.com/results?search_query=Brene+Brown\">Bren&#xE9; Brown</a></li>\n    <li><a href=\"https://www.youtube.com/results?search_query=Richard+Dawkins\">Richard Dawkins</a></li>\n    <li><a href=\"https://www.youtube.com/results?search_query=Ayaan+Hirsi+Ali\">Ayaan Hirsi Ali</a></li>\n    <li><a href=\"https://www.youtube.com/results?search_query=Lord+Martin+Rees\">Lord Martin Rees</a></li>\n    <li><a href=\"https://www.youtube.com/results?search_query=Lawrence+Krauss\">Lawrence Krauss</a></li>\n    <li><a href=\"https://www.youtube.com/results?search_query=Dan+Dennett\">Daniel Dennett</a></li>\n    <li><a href=\"https://www.youtube.com/results?search_query=Sam+Harris\">Sam Harris</a></li>\n    <li><a href=\"https://www.youtube.com/results?search_query=Christopher+Hitchens\">Christopher Hitchens</a></li>\n    <li><a href=\"https://www.youtube.com/results?search_query=Bill+Bryson\">Bill Bryson</a></li>\n    <li><a href=\"https://www.youtube.com/results?search_query=PZ+Myers\">PZ Myers</a></li>\n    <li><a href=\"https://www.youtube.com/results?search_query=Alex+Filippenko\">Alex Filippenko</a></li>\n    <li><a href=\"https://www.youtube.com/results?search_query=Seth+Shostak\">Seth Shostak</a></li>\n    <li><a href=\"https://www.youtube.com/results?search_query=Sean+Carroll\">Sean Carroll</a></li>\n    <li><a href=\"https://www.youtube.com/results?search_query=Jared+Diamond\">Jared Diamond</a></li>\n    <li><a href=\"https://www.youtube.com/results?search_query=Howard+Zinn\">Howard Zinn</a></li>\n    <li><a href=\"https://www.youtube.com/results?search_query=Noam+Chomsky\">Noam Chomsky</a></li>\n  </ul>\n</div>",
  "bootstrap": "<div class=\"card card-section bg-dark text-warning shadow\">\n  <div class=\"section card-body mb-0 my-2\">\n    <div class=\"paragraph card-text card-stanza my-5 text-center\">Life, in large part is about becoming a noble, dignified, and thus great being;</div>\n    <div class=\"paragraph card-text card-stanza my-5 text-center\">and later, helping the world grow.</div>\n  </div>\n</div>\n<div class=\"mb-5 section-spacer\">&nbsp;</div>\n<div class=\"card card-section bg-dark text-warning shadow\">\n  <div class=\"section card-body mb-0 my-2\">\n    <div class=\"paragraph card-text card-stanza my-5 text-center\">I am sure someone, someday will simply explain,</div>\n    <div class=\"paragraph card-text card-stanza my-5 text-center\">why so many things have gone wrong today.</div>\n  </div>\n</div>\n<div class=\"card card-section bg-dark text-warning shadow\">\n  <div class=\"section card-body mb-0 my-2\">\n    <div class=\"paragraph card-text card-stanza my-5 text-center\">It could be that nobody is really in charge,</div>\n    <div class=\"paragraph card-text card-stanza my-5 text-center\">and the liars are keeping everything in a constant state of destruction.</div>\n  </div>\n</div>\n<div class=\"card card-section bg-dark text-warning shadow\">\n  <div class=\"section card-body mb-0 my-2\">\n    <div class=\"paragraph card-text card-stanza my-5 text-center\">It could be because of lack of education,</div>\n    <div class=\"paragraph card-text card-stanza my-5 text-center\">and the thing that is disrupting education is the ongoing-uneducation, and fantasy beliefs and lifestyles.</div>\n  </div>\n</div>\n<div class=\"card card-section bg-dark text-warning shadow\">\n  <div class=\"section card-body mb-0 my-2\">\n    <div class=\"paragraph card-text card-stanza my-5 text-center\">Be it believing a falsehood, or pretending to know something,</div>\n    <div class=\"paragraph card-text card-stanza my-5 text-center\">or having been mislead, it will all have lasting consequences as those things influence our decisions.</div>\n  </div>\n</div>\n<div class=\"card card-section bg-dark text-warning shadow\">\n  <div class=\"section card-body mb-0 my-2\">\n    <div class=\"paragraph card-text card-stanza my-5 text-center\">It isn't always easy to pull our selves up and above,</div>\n    <div class=\"paragraph card-text card-stanza my-5 text-center\">am I wrong to say; that finding a good book or a good friend; is... kind of a function of luck?</div>\n  </div>\n</div>\n<div class=\"card card-section bg-dark text-warning shadow\">\n  <div class=\"section card-body mb-0 my-2\">\n    <div class=\"paragraph card-text card-stanza my-5 text-center\">The unlucky, may never set themselves free,</div>\n    <div class=\"paragraph card-text card-stanza my-5 text-center\">they may never come across something that is compatible with their mind; that will influence them to keep learning and rising.</div>\n  </div>\n</div>\n<div class=\"mb-5 section-spacer\">&nbsp;</div>\n<div class=\"card card-section bg-dark text-warning shadow\">\n  <div class=\"section card-body mb-0 my-2\">\n    <div class=\"paragraph card-text card-stanza my-5 text-center\">Obviously, schools were meant to fix this,</div>\n    <div class=\"paragraph card-text card-stanza my-5 text-center\">they were meant to teach us what is false, what is wrong, what isn't real, how parents shouldn't behave.</div>\n  </div>\n</div>\n<div class=\"card card-section bg-dark text-warning shadow\">\n  <div class=\"section card-body mb-0 my-2\">\n    <div class=\"paragraph card-text card-stanza my-5 text-center\">And school - really - should be our Shield and a Place of Wisdom,</div>\n    <div class=\"paragraph card-text card-stanza my-5 text-center\">but it is actually a place of punishment, that frequently will cause parents to punish the student further.</div>\n  </div>\n</div>\n<div class=\"card card-section bg-dark text-warning shadow\">\n  <div class=\"section card-body mb-0 my-2\">\n    <div class=\"paragraph card-text card-stanza my-5 text-center\">This is an example of an interruption to growing up,</div>\n    <div class=\"paragraph card-text card-stanza my-5 text-center\">our natural curiosity would have us do amazing things.</div>\n  </div>\n</div>\n<div class=\"card card-section bg-dark text-warning shadow\">\n  <div class=\"section card-body mb-0 my-2\">\n    <div class=\"paragraph card-text card-stanza my-5 text-center\">Observing <a href=\"https://en.wikipedia.org/wiki/Galileo_Galilei\">Jupiter's Moons, and Saturn's Rings</a>,</div>\n    <div class=\"paragraph card-text card-stanza my-5 text-center\">through our own telescope, and that would be just one tiny step away from <a href=\"https://www.youtube.com/watch?v=pXcRKoxTPVg\">taking pictures of the Andromeda Galaxy</a>.</div>\n  </div>\n</div>\n<div class=\"card card-section bg-dark text-warning shadow\">\n  <div class=\"section card-body mb-0 my-2\">\n    <div class=\"paragraph card-text card-stanza my-5 text-center\">We would be <a href=\"https://www.youtube.com/watch?v=0sRvkaxh8EU\">Composing Music</a>,</div>\n    <div class=\"paragraph card-text card-stanza my-5 text-center\">it is unbelievably easy to compose beautiful melodies for the piano with a Digital Audio Workstation like the Open Source <a href=\"https://www.youtube.com/results?search_query=lmms\">lmms</a>.</div>\n  </div>\n</div>\n<div class=\"card card-section bg-dark text-warning shadow\">\n  <div class=\"section card-body mb-0 my-2\">\n    <div class=\"paragraph card-text card-stanza my-5 text-center\">The world of Art would open it self to us as we put our photographs through basic <a href=\"https://www.youtube.com/results?search_query=GIMP+filters+tutorial\">GIMP photo filters</a>,</div>\n    <div class=\"paragraph card-text card-stanza my-5 text-center\">and <a href=\"https://www.youtube.com/watch?v=G1fAWGTTFdY\">project outlines of our art inspirations on walls or canvas</a>.</div>\n  </div>\n</div>\n<div class=\"card card-section bg-dark text-warning shadow\">\n  <div class=\"section card-body mb-0 my-2\">\n    <div class=\"paragraph card-text card-stanza my-5 text-center\">Then our attention would turn to fixing Climate, fixing Politics, making World Peace a reality, ensuring <a href=\"https://www.youtube.com/watch?v=hTlrSYbCbHE\">Human Rights</a>, and Fixing Schools,</div>\n    <div class=\"paragraph card-text card-stanza my-5 text-center\">becoming Great Beings comes naturally to us.</div>\n  </div>\n</div>\n<div class=\"mb-5 section-spacer\">&nbsp;</div>\n<div class=\"card card-section bg-dark text-warning shadow\">\n  <div class=\"section card-body mb-0 my-2\">\n    <div class=\"paragraph card-text card-stanza my-5 text-center\">Ba careful,</div>\n    <div class=\"paragraph card-text card-stanza my-5 text-center\">if school is not teaching you for real.</div>\n  </div>\n</div>\n<div class=\"card card-section bg-dark text-warning shadow\">\n  <div class=\"section card-body mb-0 my-2\">\n    <div class=\"paragraph card-text card-stanza my-5 text-center\">If it is interrupting your real education,</div>\n    <div class=\"paragraph card-text card-stanza my-5 text-center\">then it poses a danger.</div>\n  </div>\n</div>\n<div class=\"mb-5 section-spacer\">&nbsp;</div>\n<div class=\"card card-section bg-dark text-warning shadow\">\n  <div class=\"section card-body mb-0 my-2\">\n    <div class=\"paragraph card-text card-stanza my-5 text-center\">You have to grow up in a culture where opinions can't stand up to a facts,</div>\n    <div class=\"paragraph card-text card-stanza my-5 text-center\">where ineffective politics are seen as clear evidence of corruption.</div>\n  </div>\n</div>\n<div class=\"card card-section bg-dark text-warning shadow\">\n  <div class=\"section card-body mb-0 my-2\">\n    <div class=\"paragraph card-text card-stanza my-5 text-center\">You have to grow up in a world,</div>\n    <div class=\"paragraph card-text card-stanza my-5 text-center\">that does not try to trick you into thinking that memorization is education... to make the job of collecting paychecks easier.</div>\n  </div>\n</div>\n<div class=\"card card-section bg-dark text-warning shadow\">\n  <div class=\"section card-body mb-0 my-2\">\n    <div class=\"paragraph card-text card-stanza my-5 text-center\">You have to grow up in a world that cares about the future,</div>\n    <div class=\"paragraph card-text card-stanza my-5 text-center\">and thus consequences of actions that are taking place today.</div>\n  </div>\n</div>\n<div class=\"card card-section bg-dark text-warning shadow\">\n  <div class=\"section card-body mb-0 my-2\">\n    <div class=\"paragraph card-text card-stanza my-5 text-center\">You have to grow up in a world,</div>\n    <div class=\"paragraph card-text card-stanza my-5 text-center\">that will protect you, and empower you to become a great being.</div>\n  </div>\n</div>\n<div class=\"mb-5 section-spacer\">&nbsp;</div>\n<div class=\"card card-section bg-dark text-warning shadow\">\n  <div class=\"section card-body mb-0 my-2\">\n    <div class=\"paragraph card-text card-stanza my-5 text-center\">There is a disgusting little saying in the country I come from,</div>\n    <div class=\"paragraph card-text card-stanza my-5 text-center\">\"Co wolno wojewodzie, to nie tobie, smrodzie\"; it means \"A stinking little person can't do what a governor can.\"</div>\n  </div>\n</div>\n<div class=\"card card-section bg-dark text-warning shadow\">\n  <div class=\"section card-body mb-0 my-2\">\n    <div class=\"paragraph card-text card-stanza my-5 text-center\">That is the opposite, of the truth,</div>\n    <div class=\"paragraph card-text card-stanza my-5 text-center\">it is a lie that is meant to belittle and intimidate the younger generations, and it automatically forfeits the authority of the persons spreading it.</div>\n  </div>\n</div>\n<div class=\"card card-section bg-dark text-warning shadow\">\n  <div class=\"section card-body mb-0 my-2\">\n    <div class=\"paragraph card-text card-stanza my-5 text-center\">The truth is, to you; belongs the future,</div>\n    <div class=\"paragraph card-text card-stanza my-5 text-center\">and by the time you get there; all that will be left of those governors, is the unforeseen consequences of their brainless actions.</div>\n  </div>\n</div>\n<div class=\"card card-section bg-dark text-warning shadow\">\n  <div class=\"section card-body mb-0 my-2\">\n    <div class=\"paragraph card-text card-stanza my-5 text-center\">Consequences that in their lack of education, they were unable to foresee,</div>\n    <div class=\"paragraph card-text card-stanza my-5 text-center\">consequences, that they will not be able, to deal with - and they will be too old to care.</div>\n  </div>\n</div>\n<div class=\"card card-section bg-dark text-warning shadow\">\n  <div class=\"section card-body mb-0 my-2\">\n    <div class=\"paragraph card-text card-stanza my-5 text-center\">See the truth is, the future of Human Kind is more important,</div>\n    <div class=\"paragraph card-text card-stanza my-5 text-center\">than any shortsighted vision.</div>\n  </div>\n</div>\n<div class=\"card card-section bg-dark text-warning shadow\">\n  <div class=\"section card-body mb-0 my-2\">\n    <div class=\"paragraph card-text card-stanza my-5 text-center\">All the ongoing mistakes are unmovable,</div>\n    <div class=\"paragraph card-text card-stanza my-5 text-center\">precisely because almost nobody is growing up to face the reality of the Future Human Kind.</div>\n  </div>\n</div>\n<div class=\"card card-section bg-dark text-warning shadow\">\n  <div class=\"section card-body mb-0 my-2\">\n    <div class=\"paragraph card-text card-stanza my-5 text-center\">People are instead taught to deal and make deals,</div>\n    <div class=\"paragraph card-text card-stanza my-5 text-center\">which only complicates problems like Climate Change, or our road to World Peace.</div>\n  </div>\n</div>\n<div class=\"mb-5 section-spacer\">&nbsp;</div>\n<div class=\"card card-section bg-dark text-warning shadow\">\n  <div class=\"section card-body mb-0 my-2\">\n    <div class=\"paragraph card-text card-stanza my-5 text-center\">If your school is teaching you to pretend to learn by means of memorization,</div>\n    <div class=\"paragraph card-text card-stanza my-5 text-center\">and to stop caring about the world, because it is not your problem yet.</div>\n  </div>\n</div>\n<div class=\"card card-section bg-dark text-warning shadow\">\n  <div class=\"section card-body mb-0 my-2\">\n    <div class=\"paragraph card-text card-stanza my-5 text-center\">Your first act of greatness is to quietly, and peacefully, resist a fake education,</div>\n    <div class=\"paragraph card-text card-stanza my-5 text-center\">and go get a real one; presumably from Narrated Books that will ease you into complicated subjects.</div>\n  </div>\n</div>\n<div class=\"card card-section bg-dark text-warning shadow\">\n  <div class=\"section card-body mb-0 my-2\">\n    <div class=\"paragraph card-text card-stanza my-5 text-center\">Those who stand in the way of your real education,</div>\n    <div class=\"paragraph card-text card-stanza my-5 text-center\">forfeit their authority over you, <a href=\"https://www.youtube.com/watch?v=fmoor8DwqW4\">as they are simply there to pretend to teach you and get paid</a>.</div>\n  </div>\n</div>\n<div class=\"card card-section bg-dark text-warning shadow\">\n  <div class=\"section card-body mb-0 my-2\">\n    <div class=\"paragraph card-text card-stanza my-5 text-center\">Being your teacher is not just a job, bridging generations with Knowledge and Wisdom, is nothing like a job,</div>\n    <div class=\"paragraph card-text card-stanza my-5 text-center\">and pretending to teach to merely get paid, is not only fraud, but a crime against Humanity, and The Future of Human Kind.</div>\n  </div>\n</div>\n<div class=\"card card-section bg-dark text-warning shadow\">\n  <div class=\"section card-body mb-0 my-2\">\n    <div class=\"paragraph card-text card-stanza my-5 text-center\">Not only do you have to resist fake education and make your way to get a real one on your own,</div>\n    <div class=\"paragraph card-text card-stanza my-5 text-center\">you also have to help the others, prevent their growing up from being interrupted with fake education.</div>\n  </div>\n</div>\n<div class=\"mb-5 section-spacer\">&nbsp;</div>\n<div class=\"card card-section bg-dark text-warning shadow\">\n  <div class=\"section card-body mb-0 my-2\">\n    <div class=\"paragraph card-text card-stanza my-5 text-center\"><a href=\"https://www.youtube.com/watch?v=lwEFEIxcj4Q\">Do not let the teachers frighten you into memorization</a>,</div>\n    <div class=\"paragraph card-text card-stanza my-5 text-center\">you will lose if you try to stand up to them directly.</div>\n  </div>\n</div>\n<div class=\"card card-section bg-dark text-warning shadow\">\n  <div class=\"section card-body mb-0 my-2\">\n    <div class=\"paragraph card-text card-stanza my-5 text-center\">Move beyond, who is right and wrong, _do not_ waste time on broken things,</div>\n    <div class=\"paragraph card-text card-stanza my-5 text-center\">begin your self education, immediately; and help your classmates if you can.</div>\n  </div>\n</div>\n<div class=\"mb-5 section-spacer\">&nbsp;</div>\n<div class=\"card card-section bg-dark text-warning shadow\">\n  <div class=\"section card-body mb-0 my-2\">\n    <div class=\"paragraph card-text card-stanza my-5 text-center\">As to your financial worries, try to learn computers, programming and design,</div>\n    <div class=\"paragraph card-text card-stanza my-5 text-center\">and build a <a href=\"https://www.youtube.com/watch?v=ZoqgAy3h4OM\">series of little companies</a> until you get the hang of things.</div>\n  </div>\n</div>\n<div class=\"card card-section bg-dark text-warning shadow\">\n  <div class=\"section card-body mb-0 my-2\">\n    <div class=\"paragraph card-text card-stanza my-5 text-center\">Start slow, be gentle, you have much to learn, here are a few Authors and real Teachers to get you started,</div>\n    <div class=\"paragraph card-text card-stanza my-5 text-center\">there are thousands of these magnificent individuals, and you will have to understand most of their thoughts and philosophy in order get a real, self balancing, and mutually reinforcing picture of the world.</div>\n  </div>\n</div>\n<div class=\"card card-section bg-dark text-warning shadow\">\n  <div class=\"section card-body mb-0 my-2\">\n    <ul>\n      <li><a href=\"https://www.youtube.com/results?search_query=Greta+Thunberg\">Greta Thunberg</a></li>\n      <li><a href=\"https://www.youtube.com/results?search_query=Sir+Ken+Robinson\">Sir Ken Robinson</a></li>\n      <li><a href=\"https://www.youtube.com/results?search_query=Astra+Taylor\">Astra Taylor</a></li>\n      <li><a href=\"https://www.youtube.com/results?search_query=Jill+Tarter\">Jill Tarter</a></li>\n      <li><a href=\"https://www.youtube.com/results?search_query=Brene+Brown\">Brené Brown</a></li>\n      <li><a href=\"https://www.youtube.com/results?search_query=Richard+Dawkins\">Richard Dawkins</a></li>\n      <li><a href=\"https://www.youtube.com/results?search_query=Ayaan+Hirsi+Ali\">Ayaan Hirsi Ali</a></li>\n      <li><a href=\"https://www.youtube.com/results?search_query=Lord+Martin+Rees\">Lord Martin Rees</a></li>\n      <li><a href=\"https://www.youtube.com/results?search_query=Lawrence+Krauss\">Lawrence Krauss</a></li>\n      <li><a href=\"https://www.youtube.com/results?search_query=Dan+Dennett\">Daniel Dennett</a></li>\n      <li><a href=\"https://www.youtube.com/results?search_query=Sam+Harris\">Sam Harris</a></li>\n      <li><a href=\"https://www.youtube.com/results?search_query=Christopher+Hitchens\">Christopher Hitchens</a></li>\n      <li><a href=\"https://www.youtube.com/results?search_query=Bill+Bryson\">Bill Bryson</a></li>\n      <li><a href=\"https://www.youtube.com/results?search_query=PZ+Myers\">PZ Myers</a></li>\n      <li><a href=\"https://www.youtube.com/results?search_query=Alex+Filippenko\">Alex Filippenko</a></li>\n      <li><a href=\"https://www.youtube.com/results?search_query=Seth+Shostak\">Seth Shostak</a></li>\n      <li><a href=\"https://www.youtube.com/results?search_query=Sean+Carroll\">Sean Carroll</a></li>\n      <li><a href=\"https://www.youtube.com/results?search_query=Jared+Diamond\">Jared Diamond</a></li>\n      <li><a href=\"https://www.youtube.com/results?search_query=Howard+Zinn\">Howard Zinn</a></li>\n      <li><a href=\"https://www.youtube.com/results?search_query=Noam+Chomsky\">Noam Chomsky</a></li>\n    </ul>\n  </div>\n</div>",
  "print": "<div class=\"section avoid-break-inside\" style=\"padding-bottom: 2rem;\">\n  <div class=\"paragraph\">Life, in large part is about becoming a noble, dignified, and thus great being;</div>\n  <div class=\"paragraph\">and later, helping the world grow.</div>\n</div>\n<div class=\"section avoid-break-inside\" style=\"padding-bottom: 2rem;\">\n  <br>\n</div>\n<div class=\"section avoid-break-inside\" style=\"padding-bottom: 2rem;\">\n  <div class=\"paragraph\">I am sure someone, someday will simply explain,</div>\n  <div class=\"paragraph\">why so many things have gone wrong today.</div>\n</div>\n<div class=\"section avoid-break-inside\" style=\"padding-bottom: 2rem;\">\n  <div class=\"paragraph\">It could be that nobody is really in charge,</div>\n  <div class=\"paragraph\">and the liars are keeping everything in a constant state of destruction.</div>\n</div>\n<div class=\"section avoid-break-inside\" style=\"padding-bottom: 2rem;\">\n  <div class=\"paragraph\">It could be because of lack of education,</div>\n  <div class=\"paragraph\">and the thing that is disrupting education is the ongoing-uneducation, and fantasy beliefs and lifestyles.</div>\n</div>\n<div class=\"section avoid-break-inside\" style=\"padding-bottom: 2rem;\">\n  <div class=\"paragraph\">Be it believing a falsehood, or pretending to know something,</div>\n  <div class=\"paragraph\">or having been mislead, it will all have lasting consequences as those things influence our decisions.</div>\n</div>\n<div class=\"section avoid-break-inside\" style=\"padding-bottom: 2rem;\">\n  <div class=\"paragraph\">It isn't always easy to pull our selves up and above,</div>\n  <div class=\"paragraph\">am I wrong to say; that finding a good book or a good friend; is... kind of a function of luck?</div>\n</div>\n<div class=\"section avoid-break-inside\" style=\"padding-bottom: 2rem;\">\n  <div class=\"paragraph\">The unlucky, may never set themselves free,</div>\n  <div class=\"paragraph\">they may never come across something that is compatible with their mind; that will influence them to keep learning and rising.</div>\n</div>\n<div class=\"section avoid-break-inside\" style=\"padding-bottom: 2rem;\">\n  <br>\n</div>\n<div class=\"section avoid-break-inside\" style=\"padding-bottom: 2rem;\">\n  <div class=\"paragraph\">Obviously, schools were meant to fix this,</div>\n  <div class=\"paragraph\">they were meant to teach us what is false, what is wrong, what isn't real, how parents shouldn't behave.</div>\n</div>\n<div class=\"section avoid-break-inside\" style=\"padding-bottom: 2rem;\">\n  <div class=\"paragraph\">And school - really - should be our Shield and a Place of Wisdom,</div>\n  <div class=\"paragraph\">but it is actually a place of punishment, that frequently will cause parents to punish the student further.</div>\n</div>\n<div class=\"section avoid-break-inside\" style=\"padding-bottom: 2rem;\">\n  <div class=\"paragraph\">This is an example of an interruption to growing up,</div>\n  <div class=\"paragraph\">our natural curiosity would have us do amazing things.</div>\n</div>\n<div class=\"section avoid-break-inside\" style=\"padding-bottom: 2rem;\">\n  <div class=\"paragraph\">Observing <span>Jupiter's Moons, and Saturn's Rings<sup>[1]</sup></span>,</div>\n  <div class=\"paragraph\">through our own telescope, and that would be just one tiny step away from <span>taking pictures of the Andromeda Galaxy<sup>[2]</sup></span>.</div>\n</div>\n<div class=\"section avoid-break-inside\" style=\"padding-bottom: 2rem;\">\n  <div class=\"paragraph\">We would be <span>Composing Music<sup>[3]</sup></span>,</div>\n  <div class=\"paragraph\">it is unbelievably easy to compose beautiful melodies for the piano with a Digital Audio Workstation like the Open Source <span>lmms<sup>[4]</sup></span>.</div>\n</div>\n<div class=\"section avoid-break-inside\" style=\"padding-bottom: 2rem;\">\n  <div class=\"paragraph\">The world of Art would open it self to us as we put our photographs through basic <span>GIMP photo filters<sup>[5]</sup></span>,</div>\n  <div class=\"paragraph\">and <span>project outlines of our art inspirations on walls or canvas<sup>[6]</sup></span>.</div>\n</div>\n<div class=\"section avoid-break-inside\" style=\"padding-bottom: 2rem;\">\n  <div class=\"paragraph\">Then our attention would turn to fixing Climate, fixing Politics, making World Peace a reality, ensuring <span>Human Rights<sup>[7]</sup></span>, and Fixing Schools,</div>\n  <div class=\"paragraph\">becoming Great Beings comes naturally to us.</div>\n</div>\n<div class=\"section avoid-break-inside\" style=\"padding-bottom: 2rem;\">\n  <br>\n</div>\n<div class=\"section avoid-break-inside\" style=\"padding-bottom: 2rem;\">\n  <div class=\"paragraph\">Ba careful,</div>\n  <div class=\"paragraph\">if school is not teaching you for real.</div>\n</div>\n<div class=\"section avoid-break-inside\" style=\"padding-bottom: 2rem;\">\n  <div class=\"paragraph\">If it is interrupting your real education,</div>\n  <div class=\"paragraph\">then it poses a danger.</div>\n</div>\n<div class=\"section avoid-break-inside\" style=\"padding-bottom: 2rem;\">\n  <br>\n</div>\n<div class=\"section avoid-break-inside\" style=\"padding-bottom: 2rem;\">\n  <div class=\"paragraph\">You have to grow up in a culture where opinions can't stand up to a facts,</div>\n  <div class=\"paragraph\">where ineffective politics are seen as clear evidence of corruption.</div>\n</div>\n<div class=\"section avoid-break-inside\" style=\"padding-bottom: 2rem;\">\n  <div class=\"paragraph\">You have to grow up in a world,</div>\n  <div class=\"paragraph\">that does not try to trick you into thinking that memorization is education... to make the job of collecting paychecks easier.</div>\n</div>\n<div class=\"section avoid-break-inside\" style=\"padding-bottom: 2rem;\">\n  <div class=\"paragraph\">You have to grow up in a world that cares about the future,</div>\n  <div class=\"paragraph\">and thus consequences of actions that are taking place today.</div>\n</div>\n<div class=\"section avoid-break-inside\" style=\"padding-bottom: 2rem;\">\n  <div class=\"paragraph\">You have to grow up in a world,</div>\n  <div class=\"paragraph\">that will protect you, and empower you to become a great being.</div>\n</div>\n<div class=\"section avoid-break-inside\" style=\"padding-bottom: 2rem;\">\n  <br>\n</div>\n<div class=\"section avoid-break-inside\" style=\"padding-bottom: 2rem;\">\n  <div class=\"paragraph\">There is a disgusting little saying in the country I come from,</div>\n  <div class=\"paragraph\">\"Co wolno wojewodzie, to nie tobie, smrodzie\"; it means \"A stinking little person can't do what a governor can.\"</div>\n</div>\n<div class=\"section avoid-break-inside\" style=\"padding-bottom: 2rem;\">\n  <div class=\"paragraph\">That is the opposite, of the truth,</div>\n  <div class=\"paragraph\">it is a lie that is meant to belittle and intimidate the younger generations, and it automatically forfeits the authority of the persons spreading it.</div>\n</div>\n<div class=\"section avoid-break-inside\" style=\"padding-bottom: 2rem;\">\n  <div class=\"paragraph\">The truth is, to you; belongs the future,</div>\n  <div class=\"paragraph\">and by the time you get there; all that will be left of those governors, is the unforeseen consequences of their brainless actions.</div>\n</div>\n<div class=\"section avoid-break-inside\" style=\"padding-bottom: 2rem;\">\n  <div class=\"paragraph\">Consequences that in their lack of education, they were unable to foresee,</div>\n  <div class=\"paragraph\">consequences, that they will not be able, to deal with - and they will be too old to care.</div>\n</div>\n<div class=\"section avoid-break-inside\" style=\"padding-bottom: 2rem;\">\n  <div class=\"paragraph\">See the truth is, the future of Human Kind is more important,</div>\n  <div class=\"paragraph\">than any shortsighted vision.</div>\n</div>\n<div class=\"section avoid-break-inside\" style=\"padding-bottom: 2rem;\">\n  <div class=\"paragraph\">All the ongoing mistakes are unmovable,</div>\n  <div class=\"paragraph\">precisely because almost nobody is growing up to face the reality of the Future Human Kind.</div>\n</div>\n<div class=\"section avoid-break-inside\" style=\"padding-bottom: 2rem;\">\n  <div class=\"paragraph\">People are instead taught to deal and make deals,</div>\n  <div class=\"paragraph\">which only complicates problems like Climate Change, or our road to World Peace.</div>\n</div>\n<div class=\"section avoid-break-inside\" style=\"padding-bottom: 2rem;\">\n  <br>\n</div>\n<div class=\"section avoid-break-inside\" style=\"padding-bottom: 2rem;\">\n  <div class=\"paragraph\">If your school is teaching you to pretend to learn by means of memorization,</div>\n  <div class=\"paragraph\">and to stop caring about the world, because it is not your problem yet.</div>\n</div>\n<div class=\"section avoid-break-inside\" style=\"padding-bottom: 2rem;\">\n  <div class=\"paragraph\">Your first act of greatness is to quietly, and peacefully, resist a fake education,</div>\n  <div class=\"paragraph\">and go get a real one; presumably from Narrated Books that will ease you into complicated subjects.</div>\n</div>\n<div class=\"section avoid-break-inside\" style=\"padding-bottom: 2rem;\">\n  <div class=\"paragraph\">Those who stand in the way of your real education,</div>\n  <div class=\"paragraph\">forfeit their authority over you, <span>as they are simply there to pretend to teach you and get paid<sup>[8]</sup></span>.</div>\n</div>\n<div class=\"section avoid-break-inside\" style=\"padding-bottom: 2rem;\">\n  <div class=\"paragraph\">Being your teacher is not just a job, bridging generations with Knowledge and Wisdom, is nothing like a job,</div>\n  <div class=\"paragraph\">and pretending to teach to merely get paid, is not only fraud, but a crime against Humanity, and The Future of Human Kind.</div>\n</div>\n<div class=\"section avoid-break-inside\" style=\"padding-bottom: 2rem;\">\n  <div class=\"paragraph\">Not only do you have to resist fake education and make your way to get a real one on your own,</div>\n  <div class=\"paragraph\">you also have to help the others, prevent their growing up from being interrupted with fake education.</div>\n</div>\n<div class=\"section avoid-break-inside\" style=\"padding-bottom: 2rem;\">\n  <br>\n</div>\n<div class=\"section avoid-break-inside\" style=\"padding-bottom: 2rem;\">\n  <div class=\"paragraph\"><span>Do not let the teachers frighten you into memorization<sup>[9]</sup></span>,</div>\n  <div class=\"paragraph\">you will lose if you try to stand up to them directly.</div>\n</div>\n<div class=\"section avoid-break-inside\" style=\"padding-bottom: 2rem;\">\n  <div class=\"paragraph\">Move beyond, who is right and wrong, _do not_ waste time on broken things,</div>\n  <div class=\"paragraph\">begin your self education, immediately; and help your classmates if you can.</div>\n</div>\n<div class=\"section avoid-break-inside\" style=\"padding-bottom: 2rem;\">\n  <br>\n</div>\n<div class=\"section avoid-break-inside\" style=\"padding-bottom: 2rem;\">\n  <div class=\"paragraph\">As to your financial worries, try to learn computers, programming and design,</div>\n  <div class=\"paragraph\">and build a <span>series of little companies<sup>[10]</sup></span> until you get the hang of things.</div>\n</div>\n<div class=\"section avoid-break-inside\" style=\"padding-bottom: 2rem;\">\n  <div class=\"paragraph\">Start slow, be gentle, you have much to learn, here are a few Authors and real Teachers to get you started,</div>\n  <div class=\"paragraph\">there are thousands of these magnificent individuals, and you will have to understand most of their thoughts and philosophy in order get a real, self balancing, and mutually reinforcing picture of the world.</div>\n</div>\n<div class=\"section avoid-break-inside\" style=\"padding-bottom: 2rem;\">\n  <ul>\n    <li><span>Greta Thunberg<sup>[11]</sup></span></li>\n    <li><span>Sir Ken Robinson<sup>[12]</sup></span></li>\n    <li><span>Astra Taylor<sup>[13]</sup></span></li>\n    <li><span>Jill Tarter<sup>[14]</sup></span></li>\n    <li><span>Brené Brown<sup>[15]</sup></span></li>\n    <li><span>Richard Dawkins<sup>[16]</sup></span></li>\n    <li><span>Ayaan Hirsi Ali<sup>[17]</sup></span></li>\n    <li><span>Lord Martin Rees<sup>[18]</sup></span></li>\n    <li><span>Lawrence Krauss<sup>[19]</sup></span></li>\n    <li><span>Daniel Dennett<sup>[20]</sup></span></li>\n    <li><span>Sam Harris<sup>[21]</sup></span></li>\n    <li><span>Christopher Hitchens<sup>[22]</sup></span></li>\n    <li><span>Bill Bryson<sup>[23]</sup></span></li>\n    <li><span>PZ Myers<sup>[24]</sup></span></li>\n    <li><span>Alex Filippenko<sup>[25]</sup></span></li>\n    <li><span>Seth Shostak<sup>[26]</sup></span></li>\n    <li><span>Sean Carroll<sup>[27]</sup></span></li>\n    <li><span>Jared Diamond<sup>[28]</sup></span></li>\n    <li><span>Howard Zinn<sup>[29]</sup></span></li>\n    <li><span>Noam Chomsky<sup>[30]</sup></span></li>\n  </ul>\n</div>\n<div class=\"break-after\">&nbsp;</div>\n<div>\n  <div class=\"section\" style=\"padding-bottom: 1rem;\">References</div>\n  <div>[1]: https://en.wikipedia.org/wiki/Galileo_Galilei</div>\n  <div>[2]: https://www.youtube.com/watch?v=pXcRKoxTPVg</div>\n  <div>[3]: https://www.youtube.com/watch?v=0sRvkaxh8EU</div>\n  <div>[4]: https://www.youtube.com/results?search_query=lmms</div>\n  <div>[5]: https://www.youtube.com/results?search_query=GIMP+filters+tutorial</div>\n  <div>[6]: https://www.youtube.com/watch?v=G1fAWGTTFdY</div>\n  <div>[7]: https://www.youtube.com/watch?v=hTlrSYbCbHE</div>\n  <div>[8]: https://www.youtube.com/watch?v=fmoor8DwqW4</div>\n  <div>[9]: https://www.youtube.com/watch?v=lwEFEIxcj4Q</div>\n  <div>[10]: https://www.youtube.com/watch?v=ZoqgAy3h4OM</div>\n  <div>[11]: https://www.youtube.com/results?search_query=Greta+Thunberg</div>\n  <div>[12]: https://www.youtube.com/results?search_query=Sir+Ken+Robinson</div>\n  <div>[13]: https://www.youtube.com/results?search_query=Astra+Taylor</div>\n  <div>[14]: https://www.youtube.com/results?search_query=Jill+Tarter</div>\n  <div>[15]: https://www.youtube.com/results?search_query=Brene+Brown</div>\n  <div>[16]: https://www.youtube.com/results?search_query=Richard+Dawkins</div>\n  <div>[17]: https://www.youtube.com/results?search_query=Ayaan+Hirsi+Ali</div>\n  <div>[18]: https://www.youtube.com/results?search_query=Lord+Martin+Rees</div>\n  <div>[19]: https://www.youtube.com/results?search_query=Lawrence+Krauss</div>\n  <div>[20]: https://www.youtube.com/results?search_query=Dan+Dennett</div>\n  <div>[21]: https://www.youtube.com/results?search_query=Sam+Harris</div>\n  <div>[22]: https://www.youtube.com/results?search_query=Christopher+Hitchens</div>\n  <div>[23]: https://www.youtube.com/results?search_query=Bill+Bryson</div>\n  <div>[24]: https://www.youtube.com/results?search_query=PZ+Myers</div>\n  <div>[25]: https://www.youtube.com/results?search_query=Alex+Filippenko</div>\n  <div>[26]: https://www.youtube.com/results?search_query=Seth+Shostak</div>\n  <div>[27]: https://www.youtube.com/results?search_query=Sean+Carroll</div>\n  <div>[28]: https://www.youtube.com/results?search_query=Jared+Diamond</div>\n  <div>[29]: https://www.youtube.com/results?search_query=Howard+Zinn</div>\n  <div>[30]: https://www.youtube.com/results?search_query=Noam+Chomsky</div>\n</div>",
  "text": "Life, in large part is about becoming a noble, dignified, and thus great being;\nand later, helping the world grow.\n\nI am sure someone, someday will simply explain,\nwhy so many things have gone wrong today.\nIt could be that nobody is really in charge,\nand the liars are keeping everything in a constant state of destruction.\nIt could be because of lack of education,\nand the thing that is disrupting education is the ongoing-uneducation, and fantasy beliefs and lifestyles.\nBe it believing a falsehood, or pretending to know something,\nor having been mislead, it will all have lasting consequences as those things influence our decisions.\nIt isn't always easy to pull our selves up and above,\nam I wrong to say; that finding a good book or a good friend; is... kind of a function of luck?\nThe unlucky, may never set themselves free,\nthey may never come across something that is compatible with their mind; that will influence them to keep learning and rising.\n\nObviously, schools were meant to fix this,\nthey were meant to teach us what is false, what is wrong, what isn't real, how parents shouldn't behave.\nAnd school - really - should be our Shield and a Place of Wisdom,\nbut it is actually a place of punishment, that frequently will cause parents to punish the student further.\nThis is an example of an interruption to growing up,\nour natural curiosity would have us do amazing things.\nObserving Jupiter's Moons, and Saturn's Rings[1],\nthrough our own telescope, and that would be just one tiny step away from taking pictures of the Andromeda Galaxy[2].\nWe would be Composing Music[3],\nit is unbelievably easy to compose beautiful melodies for the piano with a Digital Audio Workstation like the Open Source lmms[4].\nThe world of Art would open it self to us as we put our photographs through basic GIMP photo filters[5],\nand project outlines of our art inspirations on walls or canvas[6].\nThen our attention would turn to fixing Climate, fixing Politics, making World Peace a reality, ensuring Human Rights[7], and Fixing Schools,\nbecoming Great Beings comes naturally to us.\n\nBa careful,\nif school is not teaching you for real.\nIf it is interrupting your real education,\nthen it poses a danger.\n\nYou have to grow up in a culture where opinions can't stand up to a facts,\nwhere ineffective politics are seen as clear evidence of corruption.\nYou have to grow up in a world,\nthat does not try to trick you into thinking that memorization is education... to make the job of collecting paychecks easier.\nYou have to grow up in a world that cares about the future,\nand thus consequences of actions that are taking place today.\nYou have to grow up in a world,\nthat will protect you, and empower you to become a great being.\n\nThere is a disgusting little saying in the country I come from,\n\"Co wolno wojewodzie, to nie tobie, smrodzie\"; it means \"A stinking little person can't do what a governor can.\"\nThat is the opposite, of the truth,\nit is a lie that is meant to belittle and intimidate the younger generations, and it automatically forfeits the authority of the persons spreading it.\nThe truth is, to you; belongs the future,\nand by the time you get there; all that will be left of those governors, is the unforeseen consequences of their brainless actions.\nConsequences that in their lack of education, they were unable to foresee,\nconsequences, that they will not be able, to deal with - and they will be too old to care.\nSee the truth is, the future of Human Kind is more important,\nthan any shortsighted vision.\nAll the ongoing mistakes are unmovable,\nprecisely because almost nobody is growing up to face the reality of the Future Human Kind.\nPeople are instead taught to deal and make deals,\nwhich only complicates problems like Climate Change, or our road to World Peace.\n\nIf your school is teaching you to pretend to learn by means of memorization,\nand to stop caring about the world, because it is not your problem yet.\nYour first act of greatness is to quietly, and peacefully, resist a fake education,\nand go get a real one; presumably from Narrated Books that will ease you into complicated subjects.\nThose who stand in the way of your real education,\nforfeit their authority over you, as they are simply there to pretend to teach you and get paid[8].\nBeing your teacher is not just a job, bridging generations with Knowledge and Wisdom, is nothing like a job,\nand pretending to teach to merely get paid, is not only fraud, but a crime against Humanity, and The Future of Human Kind.\nNot only do you have to resist fake education and make your way to get a real one on your own,\nyou also have to help the others, prevent their growing up from being interrupted with fake education.\n\nDo not let the teachers frighten you into memorization[9],\nyou will lose if you try to stand up to them directly.\nMove beyond, who is right and wrong, _do not_ waste time on broken things,\nbegin your self education, immediately; and help your classmates if you can.\n\nAs to your financial worries, try to learn computers, programming and design,\nand build a series of little companies[10] until you get the hang of things.\nStart slow, be gentle, you have much to learn, here are a few Authors and real Teachers to get you started,\nthere are thousands of these magnificent individuals, and you will have to understand most of their thoughts and philosophy in order get a real, self balancing, and mutually reinforcing picture of the world.\n * Greta Thunberg[11]\n * Sir Ken Robinson[12]\n * Astra Taylor[13]\n * Jill Tarter[14]\n * Brené Brown[15]\n * Richard Dawkins[16]\n * Ayaan Hirsi Ali[17]\n * Lord Martin Rees[18]\n * Lawrence Krauss[19]\n * Daniel Dennett[20]\n * Sam Harris[21]\n * Christopher Hitchens[22]\n * Bill Bryson[23]\n * PZ Myers[24]\n * Alex Filippenko[25]\n * Seth Shostak[26]\n * Sean Carroll[27]\n * Jared Diamond[28]\n * Howard Zinn[29]\n * Noam Chomsky[30]\n\n \nReferences\n[1]: https://en.wikipedia.org/wiki/Galileo_Galilei\n[2]: https://www.youtube.com/watch?v=pXcRKoxTPVg\n[3]: https://www.youtube.com/watch?v=0sRvkaxh8EU\n[4]: https://www.youtube.com/results?search_query=lmms\n[5]: https://www.youtube.com/results?search_query=GIMP+filters+tutorial\n[6]: https://www.youtube.com/watch?v=G1fAWGTTFdY\n[7]: https://www.youtube.com/watch?v=hTlrSYbCbHE\n[8]: https://www.youtube.com/watch?v=fmoor8DwqW4\n[9]: https://www.youtube.com/watch?v=lwEFEIxcj4Q\n[10]: https://www.youtube.com/watch?v=ZoqgAy3h4OM\n[11]: https://www.youtube.com/results?search_query=Greta+Thunberg\n[12]: https://www.youtube.com/results?search_query=Sir+Ken+Robinson\n[13]: https://www.youtube.com/results?search_query=Astra+Taylor\n[14]: https://www.youtube.com/results?search_query=Jill+Tarter\n[15]: https://www.youtube.com/results?search_query=Brene+Brown\n[16]: https://www.youtube.com/results?search_query=Richard+Dawkins\n[17]: https://www.youtube.com/results?search_query=Ayaan+Hirsi+Ali\n[18]: https://www.youtube.com/results?search_query=Lord+Martin+Rees\n[19]: https://www.youtube.com/results?search_query=Lawrence+Krauss\n[20]: https://www.youtube.com/results?search_query=Dan+Dennett\n[21]: https://www.youtube.com/results?search_query=Sam+Harris\n[22]: https://www.youtube.com/results?search_query=Christopher+Hitchens\n[23]: https://www.youtube.com/results?search_query=Bill+Bryson\n[24]: https://www.youtube.com/results?search_query=PZ+Myers\n[25]: https://www.youtube.com/results?search_query=Alex+Filippenko\n[26]: https://www.youtube.com/results?search_query=Seth+Shostak\n[27]: https://www.youtube.com/results?search_query=Sean+Carroll\n[28]: https://www.youtube.com/results?search_query=Jared+Diamond\n[29]: https://www.youtube.com/results?search_query=Howard+Zinn\n[30]: https://www.youtube.com/results?search_query=Noam+Chomsky",
  "images": [],
  "links": [
    {
      "title": "Jupiter's Moons, and Saturn's Rings",
      "url": "https://en.wikipedia.org/wiki/Galileo_Galilei",
      "hostname": "en.wikipedia.org"
    },
    {
      "title": "taking pictures of the Andromeda Galaxy",
      "url": "https://www.youtube.com/watch?v=pXcRKoxTPVg",
      "hostname": "www.youtube.com"
    },
    {
      "title": "Composing Music",
      "url": "https://www.youtube.com/watch?v=0sRvkaxh8EU",
      "hostname": "www.youtube.com"
    },
    {
      "title": "lmms",
      "url": "https://www.youtube.com/results?search_query=lmms",
      "hostname": "www.youtube.com"
    },
    {
      "title": "GIMP photo filters",
      "url": "https://www.youtube.com/results?search_query=GIMP+filters+tutorial",
      "hostname": "www.youtube.com"
    },
    {
      "title": "project outlines of our art inspirations on walls or canvas",
      "url": "https://www.youtube.com/watch?v=G1fAWGTTFdY",
      "hostname": "www.youtube.com"
    },
    {
      "title": "Human Rights",
      "url": "https://www.youtube.com/watch?v=hTlrSYbCbHE",
      "hostname": "www.youtube.com"
    },
    {
      "title": "as they are simply there to pretend to teach you and get paid",
      "url": "https://www.youtube.com/watch?v=fmoor8DwqW4",
      "hostname": "www.youtube.com"
    },
    {
      "title": "Do not let the teachers frighten you into memorization",
      "url": "https://www.youtube.com/watch?v=lwEFEIxcj4Q",
      "hostname": "www.youtube.com"
    },
    {
      "title": "series of little companies",
      "url": "https://www.youtube.com/watch?v=ZoqgAy3h4OM",
      "hostname": "www.youtube.com"
    },
    {
      "title": "Greta Thunberg",
      "url": "https://www.youtube.com/results?search_query=Greta+Thunberg",
      "hostname": "www.youtube.com"
    },
    {
      "title": "Sir Ken Robinson",
      "url": "https://www.youtube.com/results?search_query=Sir+Ken+Robinson",
      "hostname": "www.youtube.com"
    },
    {
      "title": "Astra Taylor",
      "url": "https://www.youtube.com/results?search_query=Astra+Taylor",
      "hostname": "www.youtube.com"
    },
    {
      "title": "Jill Tarter",
      "url": "https://www.youtube.com/results?search_query=Jill+Tarter",
      "hostname": "www.youtube.com"
    },
    {
      "title": "Brené Brown",
      "url": "https://www.youtube.com/results?search_query=Brene+Brown",
      "hostname": "www.youtube.com"
    },
    {
      "title": "Richard Dawkins",
      "url": "https://www.youtube.com/results?search_query=Richard+Dawkins",
      "hostname": "www.youtube.com"
    },
    {
      "title": "Ayaan Hirsi Ali",
      "url": "https://www.youtube.com/results?search_query=Ayaan+Hirsi+Ali",
      "hostname": "www.youtube.com"
    },
    {
      "title": "Lord Martin Rees",
      "url": "https://www.youtube.com/results?search_query=Lord+Martin+Rees",
      "hostname": "www.youtube.com"
    },
    {
      "title": "Lawrence Krauss",
      "url": "https://www.youtube.com/results?search_query=Lawrence+Krauss",
      "hostname": "www.youtube.com"
    },
    {
      "title": "Daniel Dennett",
      "url": "https://www.youtube.com/results?search_query=Dan+Dennett",
      "hostname": "www.youtube.com"
    },
    {
      "title": "Sam Harris",
      "url": "https://www.youtube.com/results?search_query=Sam+Harris",
      "hostname": "www.youtube.com"
    },
    {
      "title": "Christopher Hitchens",
      "url": "https://www.youtube.com/results?search_query=Christopher+Hitchens",
      "hostname": "www.youtube.com"
    },
    {
      "title": "Bill Bryson",
      "url": "https://www.youtube.com/results?search_query=Bill+Bryson",
      "hostname": "www.youtube.com"
    },
    {
      "title": "PZ Myers",
      "url": "https://www.youtube.com/results?search_query=PZ+Myers",
      "hostname": "www.youtube.com"
    },
    {
      "title": "Alex Filippenko",
      "url": "https://www.youtube.com/results?search_query=Alex+Filippenko",
      "hostname": "www.youtube.com"
    },
    {
      "title": "Seth Shostak",
      "url": "https://www.youtube.com/results?search_query=Seth+Shostak",
      "hostname": "www.youtube.com"
    },
    {
      "title": "Sean Carroll",
      "url": "https://www.youtube.com/results?search_query=Sean+Carroll",
      "hostname": "www.youtube.com"
    },
    {
      "title": "Jared Diamond",
      "url": "https://www.youtube.com/results?search_query=Jared+Diamond",
      "hostname": "www.youtube.com"
    },
    {
      "title": "Howard Zinn",
      "url": "https://www.youtube.com/results?search_query=Howard+Zinn",
      "hostname": "www.youtube.com"
    },
    {
      "title": "Noam Chomsky",
      "url": "https://www.youtube.com/results?search_query=Noam+Chomsky",
      "hostname": "www.youtube.com"
    }
  ]
}