{
  "title": "Learning To Learn",
  "date": "2021-04-23T01:44:09.117Z",
  "image": "poetry-0418-illustration.jpg",
  "audio": "poetry-0418.mp3",
  "artwork": "https://unsplash.com/photos/I-SoYkFjVI0",
  "id": "furkies-purrkies-poetry-0418",
  "attachments": {},
  "guid": "a0fdfc78-1227-45d9-93a9-64569de80cd3"
}
