{
  "id": "furkies-purrkies-poetry-0936",
  "guid": "0ab3f39b-25da-4655-8506-c732f130c842",
  "title": "Furkies Purrkies Poetry 0936",
  "date": "2022-09-23T03:13:28.677Z",
  "image": "poetry-0936-illustration.jpg",
  "artwork": "https://example.com",
  "audio": "poetry-0936.mp3"
}