[
  {
    "title": "rockets",
    "url": "https://www.youtube.com/watch?v=AC7Ewmlp9tA",
    "hostname": "www.youtube.com"
  },
  {
    "title": "The kids are making, fun of you, all of you even the bad asses",
    "url": "https://www.youtube.com/c/TOPNOTCHIDIOTS",
    "hostname": "www.youtube.com"
  },
  {
    "title": "they called you out, long ago",
    "url": "https://www.youtube.com/watch?v=C74-f4ZV-ss",
    "hostname": "www.youtube.com"
  },
  {
    "title": "And they laugh, like only a child can",
    "url": "https://www.youtube.com/watch?v=fPJQw-x-xho",
    "hostname": "www.youtube.com"
  }
]