{
  "name": "furkies-purrkies-poetry-0897",
  "id": "furkies-purrkies-poetry-0897",
  "title": "Do Better: A Friendly Reminder For Busy Parents, Teachers, Politicians, And All The Rascals",
  "date": "2022-08-14T21:15:13.734Z",
  "image": "poetry-0897-illustration.jpg",
  "artwork": "https://unsplash.com/photos/U9VENgEj4e4",
  "audio": "poetry-0897.mp3",
  "guid": "0e721354-a5eb-4be6-b029-940914144120",
  "html": "<div class=\"section\">\n  <p>I know it is hard to keep track of things,<br>especially as people age.</p>\n  <p>So this is a quick reminder,<br>the children remember each and every time you lie to them.</p>\n  <p>The way you used to remember,<br>and try to understand why.</p>\n  <p>Except, somehow, the children born to a more connected world,<br>become smarter, they are a lot, smarter than you.</p>\n</div>\n<div class=\"section\">\n  <hr>\n</div>\n<div class=\"section\">\n  <p>Even with all the lies,<br>greed and <a href=\"https://www.youtube.com/watch?v=AC7Ewmlp9tA\">rockets</a>.</p>\n  <p><a href=\"https://www.youtube.com/c/TOPNOTCHIDIOTS\">The kids are making, fun of you, all of you even the bad asses</a>,<br><a href=\"https://www.youtube.com/watch?v=C74-f4ZV-ss\">they called you out, long ago</a>.</p>\n  <p><a href=\"https://www.youtube.com/watch?v=fPJQw-x-xho\">And they laugh, like only a child can</a>,<br>canceling your own civil and human rights, really makes them laugh.</p>\n</div>\n<div class=\"section\">\n  <hr>\n</div>\n<div class=\"section\">\n  <p>Any time you lie to your classroom,<br>or your own children, they know.</p>\n  <p>And if you manage to sneak a lie past them,<br>then that is only because they lack some quantum of experience.</p>\n  <p>They'll call you out,<br>in a mater of days.</p>\n</div>\n<div class=\"section\">\n  <hr>\n</div>\n<div class=\"section\">\n  <p>We know you are tolerating broken schools,<br>because it s convenient for you.</p>\n  <p>And because you have aged, but did not yet become mature enough,<br>to see how horrible that is.</p>\n</div>\n<div class=\"section\">\n  <hr>\n</div>\n<div class=\"section\">\n  <p>Those of you who are teachers,<br>let me remind you, what it was like back in the student days.</p>\n  <p>We didn't come to school to learn,<br>we came to school to test the teachers.</p>\n  <p>To see if you are worthy of teaching us,<br>to see if they have anything worth the while.</p>\n</div>\n<div class=\"section\">\n  <hr>\n</div>\n<div class=\"section\">\n  <p>We were not hormones, or dead ends, or losers,<br>the teachers were always the losers, and the sellouts.</p>\n</div>\n<div class=\"section\">\n  <hr>\n</div>\n<div class=\"section\">\n  <p>In truth, we called you out on everything,<br>and to get what is owed to us, we found ways to self educate and rise.</p>\n  <p>The world does not belong to the ghouls, pill poppers and pretenders,<br>it belongs to the children.</p>\n  <p>The more connected the younger generations become,<br>the faster they will become smarter than you, and by that I mean all of you.</p>\n</div>\n<div class=\"section\">\n  <hr>\n</div>\n<div class=\"section\">\n  <p>The combination of climate change,<br>nuclear threat and increased world connectivity and access to real education.</p>\n  <p>Will make ti so that the children will not let you lie,<br>for much longer.</p>\n</div>\n<div class=\"section\">\n  <hr>\n</div>\n<div class=\"section\">\n  <p>It is true for us all,<br>that we require proper education.</p>\n  <p>Show your children, that you are willing to learn, by taking to audio books...<br>held in high esteem by sane and well educated people.</p>\n  <p>Show your children that you care about their love for you,<br>and add another 30 years to your life by repairing you body - and making your diet and exercise work this time.</p>\n  <p>And for your own sake, think twice,<br>before you lie or manipulate your children again.</p>\n  <p>Because if you are the kind of person, that does not treat children with utmost respect,<br>then they will certainly become the kind of person, that will make you learn form your own mistakes.</p>\n</div>",
  "bootstrap": "<div class=\"card card-section bg-dark text-warning shadow\">\n  <div class=\"section card-body mb-0 my-2\">\n    <div class=\"paragraph card-text card-stanza my-5 text-center\">I know it is hard to keep track of things,<br>especially as people age.</div>\n    <div class=\"paragraph card-text card-stanza my-5 text-center\">So this is a quick reminder,<br>the children remember each and every time you lie to them.</div>\n    <div class=\"paragraph card-text card-stanza my-5 text-center\">The way you used to remember,<br>and try to understand why.</div>\n    <div class=\"paragraph card-text card-stanza my-5 text-center\">Except, somehow, the children born to a more connected world,<br>become smarter, they are a lot, smarter than you.</div>\n  </div>\n</div>\n<div class=\"mb-5 section-spacer\">&nbsp;</div>\n<div class=\"card card-section bg-dark text-warning shadow\">\n  <div class=\"section card-body mb-0 my-2\">\n    <div class=\"paragraph card-text card-stanza my-5 text-center\">Even with all the lies,<br>greed and <a href=\"https://www.youtube.com/watch?v=AC7Ewmlp9tA\">rockets</a>.</div>\n    <div class=\"paragraph card-text card-stanza my-5 text-center\"><a href=\"https://www.youtube.com/c/TOPNOTCHIDIOTS\">The kids are making, fun of you, all of you even the bad asses</a>,<br><a href=\"https://www.youtube.com/watch?v=C74-f4ZV-ss\">they called you out, long ago</a>.</div>\n    <div class=\"paragraph card-text card-stanza my-5 text-center\"><a href=\"https://www.youtube.com/watch?v=fPJQw-x-xho\">And they laugh, like only a child can</a>,<br>canceling your own civil and human rights, really makes them laugh.</div>\n  </div>\n</div>\n<div class=\"mb-5 section-spacer\">&nbsp;</div>\n<div class=\"card card-section bg-dark text-warning shadow\">\n  <div class=\"section card-body mb-0 my-2\">\n    <div class=\"paragraph card-text card-stanza my-5 text-center\">Any time you lie to your classroom,<br>or your own children, they know.</div>\n    <div class=\"paragraph card-text card-stanza my-5 text-center\">And if you manage to sneak a lie past them,<br>then that is only because they lack some quantum of experience.</div>\n    <div class=\"paragraph card-text card-stanza my-5 text-center\">They'll call you out,<br>in a mater of days.</div>\n  </div>\n</div>\n<div class=\"mb-5 section-spacer\">&nbsp;</div>\n<div class=\"card card-section bg-dark text-warning shadow\">\n  <div class=\"section card-body mb-0 my-2\">\n    <div class=\"paragraph card-text card-stanza my-5 text-center\">We know you are tolerating broken schools,<br>because it s convenient for you.</div>\n    <div class=\"paragraph card-text card-stanza my-5 text-center\">And because you have aged, but did not yet become mature enough,<br>to see how horrible that is.</div>\n  </div>\n</div>\n<div class=\"mb-5 section-spacer\">&nbsp;</div>\n<div class=\"card card-section bg-dark text-warning shadow\">\n  <div class=\"section card-body mb-0 my-2\">\n    <div class=\"paragraph card-text card-stanza my-5 text-center\">Those of you who are teachers,<br>let me remind you, what it was like back in the student days.</div>\n    <div class=\"paragraph card-text card-stanza my-5 text-center\">We didn't come to school to learn,<br>we came to school to test the teachers.</div>\n    <div class=\"paragraph card-text card-stanza my-5 text-center\">To see if you are worthy of teaching us,<br>to see if they have anything worth the while.</div>\n  </div>\n</div>\n<div class=\"mb-5 section-spacer\">&nbsp;</div>\n<div class=\"card card-section bg-dark text-warning shadow\">\n  <div class=\"section card-body mb-0 my-2\">\n    <div class=\"paragraph card-text card-stanza my-5 text-center\">We were not hormones, or dead ends, or losers,<br>the teachers were always the losers, and the sellouts.</div>\n  </div>\n</div>\n<div class=\"mb-5 section-spacer\">&nbsp;</div>\n<div class=\"card card-section bg-dark text-warning shadow\">\n  <div class=\"section card-body mb-0 my-2\">\n    <div class=\"paragraph card-text card-stanza my-5 text-center\">In truth, we called you out on everything,<br>and to get what is owed to us, we found ways to self educate and rise.</div>\n    <div class=\"paragraph card-text card-stanza my-5 text-center\">The world does not belong to the ghouls, pill poppers and pretenders,<br>it belongs to the children.</div>\n    <div class=\"paragraph card-text card-stanza my-5 text-center\">The more connected the younger generations become,<br>the faster they will become smarter than you, and by that I mean all of you.</div>\n  </div>\n</div>\n<div class=\"mb-5 section-spacer\">&nbsp;</div>\n<div class=\"card card-section bg-dark text-warning shadow\">\n  <div class=\"section card-body mb-0 my-2\">\n    <div class=\"paragraph card-text card-stanza my-5 text-center\">The combination of climate change,<br>nuclear threat and increased world connectivity and access to real education.</div>\n    <div class=\"paragraph card-text card-stanza my-5 text-center\">Will make ti so that the children will not let you lie,<br>for much longer.</div>\n  </div>\n</div>\n<div class=\"mb-5 section-spacer\">&nbsp;</div>\n<div class=\"card card-section bg-dark text-warning shadow\">\n  <div class=\"section card-body mb-0 my-2\">\n    <div class=\"paragraph card-text card-stanza my-5 text-center\">It is true for us all,<br>that we require proper education.</div>\n    <div class=\"paragraph card-text card-stanza my-5 text-center\">Show your children, that you are willing to learn, by taking to audio books...<br>held in high esteem by sane and well educated people.</div>\n    <div class=\"paragraph card-text card-stanza my-5 text-center\">Show your children that you care about their love for you,<br>and add another 30 years to your life by repairing you body - and making your diet and exercise work this time.</div>\n    <div class=\"paragraph card-text card-stanza my-5 text-center\">And for your own sake, think twice,<br>before you lie or manipulate your children again.</div>\n    <div class=\"paragraph card-text card-stanza my-5 text-center\">Because if you are the kind of person, that does not treat children with utmost respect,<br>then they will certainly become the kind of person, that will make you learn form your own mistakes.</div>\n  </div>\n</div>",
  "print": "<div class=\"section avoid-break-inside\" style=\"padding-bottom: 2rem;\">\n  <div class=\"paragraph\">I know it is hard to keep track of things,<br>especially as people age.</div>\n  <div class=\"paragraph\">So this is a quick reminder,<br>the children remember each and every time you lie to them.</div>\n  <div class=\"paragraph\">The way you used to remember,<br>and try to understand why.</div>\n  <div class=\"paragraph\">Except, somehow, the children born to a more connected world,<br>become smarter, they are a lot, smarter than you.</div>\n</div>\n<div class=\"section avoid-break-inside\" style=\"padding-bottom: 2rem;\">\n  <br>\n</div>\n<div class=\"section avoid-break-inside\" style=\"padding-bottom: 2rem;\">\n  <div class=\"paragraph\">Even with all the lies,<br>greed and <span>rockets<sup>[1]</sup></span>.</div>\n  <div class=\"paragraph\"><span>The kids are making, fun of you, all of you even the bad asses<sup>[2]</sup></span>,<br><span>they called you out, long ago<sup>[3]</sup></span>.</div>\n  <div class=\"paragraph\"><span>And they laugh, like only a child can<sup>[4]</sup></span>,<br>canceling your own civil and human rights, really makes them laugh.</div>\n</div>\n<div class=\"section avoid-break-inside\" style=\"padding-bottom: 2rem;\">\n  <br>\n</div>\n<div class=\"section avoid-break-inside\" style=\"padding-bottom: 2rem;\">\n  <div class=\"paragraph\">Any time you lie to your classroom,<br>or your own children, they know.</div>\n  <div class=\"paragraph\">And if you manage to sneak a lie past them,<br>then that is only because they lack some quantum of experience.</div>\n  <div class=\"paragraph\">They'll call you out,<br>in a mater of days.</div>\n</div>\n<div class=\"section avoid-break-inside\" style=\"padding-bottom: 2rem;\">\n  <br>\n</div>\n<div class=\"section avoid-break-inside\" style=\"padding-bottom: 2rem;\">\n  <div class=\"paragraph\">We know you are tolerating broken schools,<br>because it s convenient for you.</div>\n  <div class=\"paragraph\">And because you have aged, but did not yet become mature enough,<br>to see how horrible that is.</div>\n</div>\n<div class=\"section avoid-break-inside\" style=\"padding-bottom: 2rem;\">\n  <br>\n</div>\n<div class=\"section avoid-break-inside\" style=\"padding-bottom: 2rem;\">\n  <div class=\"paragraph\">Those of you who are teachers,<br>let me remind you, what it was like back in the student days.</div>\n  <div class=\"paragraph\">We didn't come to school to learn,<br>we came to school to test the teachers.</div>\n  <div class=\"paragraph\">To see if you are worthy of teaching us,<br>to see if they have anything worth the while.</div>\n</div>\n<div class=\"section avoid-break-inside\" style=\"padding-bottom: 2rem;\">\n  <br>\n</div>\n<div class=\"section avoid-break-inside\" style=\"padding-bottom: 2rem;\">\n  <div class=\"paragraph\">We were not hormones, or dead ends, or losers,<br>the teachers were always the losers, and the sellouts.</div>\n</div>\n<div class=\"section avoid-break-inside\" style=\"padding-bottom: 2rem;\">\n  <br>\n</div>\n<div class=\"section avoid-break-inside\" style=\"padding-bottom: 2rem;\">\n  <div class=\"paragraph\">In truth, we called you out on everything,<br>and to get what is owed to us, we found ways to self educate and rise.</div>\n  <div class=\"paragraph\">The world does not belong to the ghouls, pill poppers and pretenders,<br>it belongs to the children.</div>\n  <div class=\"paragraph\">The more connected the younger generations become,<br>the faster they will become smarter than you, and by that I mean all of you.</div>\n</div>\n<div class=\"section avoid-break-inside\" style=\"padding-bottom: 2rem;\">\n  <br>\n</div>\n<div class=\"section avoid-break-inside\" style=\"padding-bottom: 2rem;\">\n  <div class=\"paragraph\">The combination of climate change,<br>nuclear threat and increased world connectivity and access to real education.</div>\n  <div class=\"paragraph\">Will make ti so that the children will not let you lie,<br>for much longer.</div>\n</div>\n<div class=\"section avoid-break-inside\" style=\"padding-bottom: 2rem;\">\n  <br>\n</div>\n<div class=\"section avoid-break-inside\" style=\"padding-bottom: 2rem;\">\n  <div class=\"paragraph\">It is true for us all,<br>that we require proper education.</div>\n  <div class=\"paragraph\">Show your children, that you are willing to learn, by taking to audio books...<br>held in high esteem by sane and well educated people.</div>\n  <div class=\"paragraph\">Show your children that you care about their love for you,<br>and add another 30 years to your life by repairing you body - and making your diet and exercise work this time.</div>\n  <div class=\"paragraph\">And for your own sake, think twice,<br>before you lie or manipulate your children again.</div>\n  <div class=\"paragraph\">Because if you are the kind of person, that does not treat children with utmost respect,<br>then they will certainly become the kind of person, that will make you learn form your own mistakes.</div>\n</div>\n<div class=\"break-after\">&nbsp;</div>\n<div>\n  <div class=\"section\" style=\"padding-bottom: 1rem;\">References</div>\n  <div>[1]: https://www.youtube.com/watch?v=AC7Ewmlp9tA</div>\n  <div>[2]: https://www.youtube.com/c/TOPNOTCHIDIOTS</div>\n  <div>[3]: https://www.youtube.com/watch?v=C74-f4ZV-ss</div>\n  <div>[4]: https://www.youtube.com/watch?v=fPJQw-x-xho</div>\n</div>",
  "text": "I know it is hard to keep track of things,\nespecially as people age.\nSo this is a quick reminder,\nthe children remember each and every time you lie to them.\nThe way you used to remember,\nand try to understand why.\nExcept, somehow, the children born to a more connected world,\nbecome smarter, they are a lot, smarter than you.\n\nEven with all the lies,\ngreed and rockets[1].\nThe kids are making, fun of you, all of you even the bad asses[2],\nthey called you out, long ago[3].\nAnd they laugh, like only a child can[4],\ncanceling your own civil and human rights, really makes them laugh.\n\nAny time you lie to your classroom,\nor your own children, they know.\nAnd if you manage to sneak a lie past them,\nthen that is only because they lack some quantum of experience.\nThey'll call you out,\nin a mater of days.\n\nWe know you are tolerating broken schools,\nbecause it s convenient for you.\nAnd because you have aged, but did not yet become mature enough,\nto see how horrible that is.\n\nThose of you who are teachers,\nlet me remind you, what it was like back in the student days.\nWe didn't come to school to learn,\nwe came to school to test the teachers.\nTo see if you are worthy of teaching us,\nto see if they have anything worth the while.\n\nWe were not hormones, or dead ends, or losers,\nthe teachers were always the losers, and the sellouts.\n\nIn truth, we called you out on everything,\nand to get what is owed to us, we found ways to self educate and rise.\nThe world does not belong to the ghouls, pill poppers and pretenders,\nit belongs to the children.\nThe more connected the younger generations become,\nthe faster they will become smarter than you, and by that I mean all of you.\n\nThe combination of climate change,\nnuclear threat and increased world connectivity and access to real education.\nWill make ti so that the children will not let you lie,\nfor much longer.\n\nIt is true for us all,\nthat we require proper education.\nShow your children, that you are willing to learn, by taking to audio books...\nheld in high esteem by sane and well educated people.\nShow your children that you care about their love for you,\nand add another 30 years to your life by repairing you body - and making your diet and exercise work this time.\nAnd for your own sake, think twice,\nbefore you lie or manipulate your children again.\nBecause if you are the kind of person, that does not treat children with utmost respect,\nthen they will certainly become the kind of person, that will make you learn form your own mistakes.\n \nReferences\n[1]: https://www.youtube.com/watch?v=AC7Ewmlp9tA\n[2]: https://www.youtube.com/c/TOPNOTCHIDIOTS\n[3]: https://www.youtube.com/watch?v=C74-f4ZV-ss\n[4]: https://www.youtube.com/watch?v=fPJQw-x-xho",
  "images": [],
  "links": [
    {
      "title": "rockets",
      "url": "https://www.youtube.com/watch?v=AC7Ewmlp9tA",
      "hostname": "www.youtube.com"
    },
    {
      "title": "The kids are making, fun of you, all of you even the bad asses",
      "url": "https://www.youtube.com/c/TOPNOTCHIDIOTS",
      "hostname": "www.youtube.com"
    },
    {
      "title": "they called you out, long ago",
      "url": "https://www.youtube.com/watch?v=C74-f4ZV-ss",
      "hostname": "www.youtube.com"
    },
    {
      "title": "And they laugh, like only a child can",
      "url": "https://www.youtube.com/watch?v=fPJQw-x-xho",
      "hostname": "www.youtube.com"
    }
  ]
}