{
  "id": "furkies-purrkies-poetry-0907",
  "title": "How To Draw And Paint",
  "date": "2022-08-24T23:21:45.653Z",
  "image": "poetry-0907-illustration.jpg",
  "artwork": "https://unsplash.com/photos/Kz1Wr3Ls37Y",
  "audio": "poetry-0907.mp3",
  "guid": "0cbe2a02-4a0d-4b8e-9464-7f6459e122db"
}
