{
  "title": "Cheerfully Becoming Mighty And Wise",
  "date": "2020-07-22T01:31:46.872Z",
  "image": "poetry-0143-illustration.jpg",
  "audio": "poetry-0143.mp3",
  "id": "furkies-purrkies-poetry-0143",
  "attachments": {},
  "guid": "f283a438-09d2-4939-89e0-db4c3e922bbb"
}
