{
  "name": "furkies-purrkies-poetry-0544",
  "id": "furkies-purrkies-poetry-0544",
  "title": "My Little Adventure In 3D Modeling",
  "date": "2021-08-27T02:09:50.220Z",
  "image": "poetry-0544-illustration.jpg",
  "artwork": "https://example.com",
  "audio": "poetry-0544.mp3",
  "guid": "c8f60ce8-96d7-4fcd-8c24-41a517b80020",
  "html": "<div class=\"section\">\n  <p>Well, 3D modeling turned out to be magical,<br>but it requires a 3D printer.</p>\n  <p>It is not good to just learn 3D modeling,<br>without anything to take to a printer in the evening.</p>\n  <p>My favorite internet tutorial video is:<br>“<a href=\"https://www.youtube.com/watch?v=9xAumJRKV6A\">MODELLING For Absolute Beginners | Blender Human Tutorial</a>”</p>\n  <p>It is a 30 minute tutorial that shows how 3D artists think,<br>and how they operate.</p>\n  <p>It is so easy,<br>I stopped writing down the shortcuts, and just started shaking my head.</p>\n  <p>Seeing the progression of Cutting, Extruding, Scaling, and Beveling,<br>and the power of Mirroring, and see a little human sculpted out of a cube...</p>\n  <p>Shows the workflow,<br>for everything else.</p>\n</div>\n<div class=\"section\">\n  <hr>\n</div>\n<div class=\"section\">\n  <p>I created a new wallet, <a href=\"https://www.tinkercad.com/things/gFvd955zp2z\">The Saturn 1.0</a>,<br>with things pointing upwards for a change, and it looks great.</p>\n  <p>I have been creating new wallet designs almost every day,<br>it has been a fantastic experience.</p>\n</div>\n<div class=\"section\">\n  <hr>\n</div>\n<div class=\"section\">\n  <p>I even identifies the main ways,<br>to connect wallet face plates together:</p>\n  <p>Side teeth that can hold para-cord, or even hairbands,<br>that also create a proper pocket with zero chance of anything falling out.</p>\n  <p>Elongated holes for elastic bands, about inch in width,<br>here the elastic is fed in up and down until it locks in, much like a book bag strap.</p>\n  <p>A t-shaped protrusion, often inset, that accepts o-rings, basically rubber washers,<br>this creates fantastic looking hinges, that look nothing like rubber washers.</p>\n  <p>A single elongated hole, on one face plate and an elongated protrusion at a small angle, on the other, to create a latch, for o rings, or even standard paracord.</p>\n  <p>And of course plain holes for string, elastic shoelace, or para-cord,<br>the string is looped up and down to keep the plates together.</p>\n</div>\n<div class=\"section\">\n  <hr>\n</div>\n<div class=\"section\">\n  <p>I think with just a tiny bit more practice I can begin modeling,<br>a variety of hinges, and locking mechanisms.</p>\n  <p>At this point I will be able to add my second project,<br>which is miniature computer cases for the Raspberry PI, including the tiny Zero model.</p>\n</div>\n<div class=\"section\">\n  <hr>\n</div>\n<div class=\"section\">\n  <p>When I started learning modeling,<br>the single most important thing for me was perfect precision.</p>\n  <p>Blender allows that, by presenting a confirmation box for every action,<br>where once can change values.</p>\n  <p>But now, especially with the mirroring feature, which takes care of the sides of my wallets,<br>I no longer pay that much attention to dimensions.</p>\n  <p>Rather than mathematical perfection,<br>I just make sure that things look interesting.</p>\n  <p>I still sometimes adjust dimensions,<br>just now I indented a side of a para-cord guide by .5 millimeters so that it does not slide off.</p>\n  <p>The only thing that requires perfect dimensions,<br>is a credit card/id template so that I know everything fits.</p>\n</div>\n<div class=\"section\">\n  <hr>\n</div>\n<div class=\"section\">\n  <p>As with mathematics, learning mathematics for mathematics's sake,<br>is very difficult.</p>\n  <p>Learning 3D modeling, just to be able to make a little human as in the tutorial I mention,<br>this is not easy.</p>\n  <p>But if you get a 3D printer,<br>Ender 3, version 2, and a $30 roll of white PLA - then everything changes.</p>\n  <p>Because at that point,<br>you are no longer learning modeling, or how to use a program.</p>\n  <p>You become a Product Designer,<br>it can be wallets, but there is nothing wrong with printing small sculptures, or organic looking products, or jewelry.</p>\n  <p>Jewelry is going to be my third project,<br>an Ender printer can’t print very small things.</p>\n  <p>But it can print enlarged models,<br>during prototyping.</p>\n  <p>The bronze/silver/gold properly sized versions have to be ordered via <a href=\"https://www.shapeways.com/getting-started/jewelry\">Shapeways</a> or similar<br>but, they only get printed when someone actually makes a purchase.</p>\n  <p>They are printed on demand,<br>when a sale is made and in case of Shapeways this can be done through their online store.</p>\n  <p>But there are several methods that can be used in jewelery making,<br>you can search the internet for “<a href=\"https://www.youtube.com/results?search_query=3d+printed+jewelery+tutorial\">3d printed jewelery tutorial</a>”</p>\n</div>\n<div class=\"section\">\n  <hr>\n</div>\n<div class=\"section\">\n  <p>In closing I just want to say, if you need proof that you really are a genius,<br>just watch the 3D modeling tutorial.</p>\n  <p>School grades are only meant for state testing and getting funding,<br>we are all equally intelligent, all you have to do is find a hobby that interests you...</p>\n  <p>And call it, self education,<br>learn at your of pace, in your own sequence, and and have fun.</p>\n  <p>Integrated self paced education, that produces real results,<br>it is the best kind of education.</p>\n</div>",
  "bootstrap": "<div class=\"card card-section bg-dark text-warning shadow\">\n  <div class=\"section card-body mb-0 my-2\">\n    <div class=\"paragraph card-text card-stanza my-5 text-center\">Well, 3D modeling turned out to be magical,<br>but it requires a 3D printer.</div>\n    <div class=\"paragraph card-text card-stanza my-5 text-center\">It is not good to just learn 3D modeling,<br>without anything to take to a printer in the evening.</div>\n    <div class=\"paragraph card-text card-stanza my-5 text-center\">My favorite internet tutorial video is:<br>“<a href=\"https://www.youtube.com/watch?v=9xAumJRKV6A\">MODELLING For Absolute Beginners | Blender Human Tutorial</a>”</div>\n    <div class=\"paragraph card-text card-stanza my-5 text-center\">It is a 30 minute tutorial that shows how 3D artists think,<br>and how they operate.</div>\n    <div class=\"paragraph card-text card-stanza my-5 text-center\">It is so easy,<br>I stopped writing down the shortcuts, and just started shaking my head.</div>\n    <div class=\"paragraph card-text card-stanza my-5 text-center\">Seeing the progression of Cutting, Extruding, Scaling, and Beveling,<br>and the power of Mirroring, and see a little human sculpted out of a cube...</div>\n    <div class=\"paragraph card-text card-stanza my-5 text-center\">Shows the workflow,<br>for everything else.</div>\n  </div>\n</div>\n<div class=\"mb-5 section-spacer\">&nbsp;</div>\n<div class=\"card card-section bg-dark text-warning shadow\">\n  <div class=\"section card-body mb-0 my-2\">\n    <div class=\"paragraph card-text card-stanza my-5 text-center\">I created a new wallet, <a href=\"https://www.tinkercad.com/things/gFvd955zp2z\">The Saturn 1.0</a>,<br>with things pointing upwards for a change, and it looks great.</div>\n    <div class=\"paragraph card-text card-stanza my-5 text-center\">I have been creating new wallet designs almost every day,<br>it has been a fantastic experience.</div>\n  </div>\n</div>\n<div class=\"mb-5 section-spacer\">&nbsp;</div>\n<div class=\"card card-section bg-dark text-warning shadow\">\n  <div class=\"section card-body mb-0 my-2\">\n    <div class=\"paragraph card-text card-stanza my-5 text-center\">I even identifies the main ways,<br>to connect wallet face plates together:</div>\n    <div class=\"paragraph card-text card-stanza my-5 text-center\">Side teeth that can hold para-cord, or even hairbands,<br>that also create a proper pocket with zero chance of anything falling out.</div>\n    <div class=\"paragraph card-text card-stanza my-5 text-center\">Elongated holes for elastic bands, about inch in width,<br>here the elastic is fed in up and down until it locks in, much like a book bag strap.</div>\n    <div class=\"paragraph card-text card-stanza my-5 text-center\">A t-shaped protrusion, often inset, that accepts o-rings, basically rubber washers,<br>this creates fantastic looking hinges, that look nothing like rubber washers.</div>\n    <div class=\"paragraph card-text card-stanza my-5 text-center\">A single elongated hole, on one face plate and an elongated protrusion at a small angle, on the other, to create a latch, for o rings, or even standard paracord.</div>\n    <div class=\"paragraph card-text card-stanza my-5 text-center\">And of course plain holes for string, elastic shoelace, or para-cord,<br>the string is looped up and down to keep the plates together.</div>\n  </div>\n</div>\n<div class=\"mb-5 section-spacer\">&nbsp;</div>\n<div class=\"card card-section bg-dark text-warning shadow\">\n  <div class=\"section card-body mb-0 my-2\">\n    <div class=\"paragraph card-text card-stanza my-5 text-center\">I think with just a tiny bit more practice I can begin modeling,<br>a variety of hinges, and locking mechanisms.</div>\n    <div class=\"paragraph card-text card-stanza my-5 text-center\">At this point I will be able to add my second project,<br>which is miniature computer cases for the Raspberry PI, including the tiny Zero model.</div>\n  </div>\n</div>\n<div class=\"mb-5 section-spacer\">&nbsp;</div>\n<div class=\"card card-section bg-dark text-warning shadow\">\n  <div class=\"section card-body mb-0 my-2\">\n    <div class=\"paragraph card-text card-stanza my-5 text-center\">When I started learning modeling,<br>the single most important thing for me was perfect precision.</div>\n    <div class=\"paragraph card-text card-stanza my-5 text-center\">Blender allows that, by presenting a confirmation box for every action,<br>where once can change values.</div>\n    <div class=\"paragraph card-text card-stanza my-5 text-center\">But now, especially with the mirroring feature, which takes care of the sides of my wallets,<br>I no longer pay that much attention to dimensions.</div>\n    <div class=\"paragraph card-text card-stanza my-5 text-center\">Rather than mathematical perfection,<br>I just make sure that things look interesting.</div>\n    <div class=\"paragraph card-text card-stanza my-5 text-center\">I still sometimes adjust dimensions,<br>just now I indented a side of a para-cord guide by .5 millimeters so that it does not slide off.</div>\n    <div class=\"paragraph card-text card-stanza my-5 text-center\">The only thing that requires perfect dimensions,<br>is a credit card/id template so that I know everything fits.</div>\n  </div>\n</div>\n<div class=\"mb-5 section-spacer\">&nbsp;</div>\n<div class=\"card card-section bg-dark text-warning shadow\">\n  <div class=\"section card-body mb-0 my-2\">\n    <div class=\"paragraph card-text card-stanza my-5 text-center\">As with mathematics, learning mathematics for mathematics's sake,<br>is very difficult.</div>\n    <div class=\"paragraph card-text card-stanza my-5 text-center\">Learning 3D modeling, just to be able to make a little human as in the tutorial I mention,<br>this is not easy.</div>\n    <div class=\"paragraph card-text card-stanza my-5 text-center\">But if you get a 3D printer,<br>Ender 3, version 2, and a $30 roll of white PLA - then everything changes.</div>\n    <div class=\"paragraph card-text card-stanza my-5 text-center\">Because at that point,<br>you are no longer learning modeling, or how to use a program.</div>\n    <div class=\"paragraph card-text card-stanza my-5 text-center\">You become a Product Designer,<br>it can be wallets, but there is nothing wrong with printing small sculptures, or organic looking products, or jewelry.</div>\n    <div class=\"paragraph card-text card-stanza my-5 text-center\">Jewelry is going to be my third project,<br>an Ender printer can’t print very small things.</div>\n    <div class=\"paragraph card-text card-stanza my-5 text-center\">But it can print enlarged models,<br>during prototyping.</div>\n    <div class=\"paragraph card-text card-stanza my-5 text-center\">The bronze/silver/gold properly sized versions have to be ordered via <a href=\"https://www.shapeways.com/getting-started/jewelry\">Shapeways</a> or similar<br>but, they only get printed when someone actually makes a purchase.</div>\n    <div class=\"paragraph card-text card-stanza my-5 text-center\">They are printed on demand,<br>when a sale is made and in case of Shapeways this can be done through their online store.</div>\n    <div class=\"paragraph card-text card-stanza my-5 text-center\">But there are several methods that can be used in jewelery making,<br>you can search the internet for “<a href=\"https://www.youtube.com/results?search_query=3d+printed+jewelery+tutorial\">3d printed jewelery tutorial</a>”</div>\n  </div>\n</div>\n<div class=\"mb-5 section-spacer\">&nbsp;</div>\n<div class=\"card card-section bg-dark text-warning shadow\">\n  <div class=\"section card-body mb-0 my-2\">\n    <div class=\"paragraph card-text card-stanza my-5 text-center\">In closing I just want to say, if you need proof that you really are a genius,<br>just watch the 3D modeling tutorial.</div>\n    <div class=\"paragraph card-text card-stanza my-5 text-center\">School grades are only meant for state testing and getting funding,<br>we are all equally intelligent, all you have to do is find a hobby that interests you...</div>\n    <div class=\"paragraph card-text card-stanza my-5 text-center\">And call it, self education,<br>learn at your of pace, in your own sequence, and and have fun.</div>\n    <div class=\"paragraph card-text card-stanza my-5 text-center\">Integrated self paced education, that produces real results,<br>it is the best kind of education.</div>\n  </div>\n</div>",
  "print": "<div class=\"section avoid-break-inside\" style=\"padding-bottom: 2rem;\">\n  <div class=\"paragraph\">Well, 3D modeling turned out to be magical,<br>but it requires a 3D printer.</div>\n  <div class=\"paragraph\">It is not good to just learn 3D modeling,<br>without anything to take to a printer in the evening.</div>\n  <div class=\"paragraph\">My favorite internet tutorial video is:<br>“<span>MODELLING For Absolute Beginners | Blender Human Tutorial<sup>[1]</sup></span>”</div>\n  <div class=\"paragraph\">It is a 30 minute tutorial that shows how 3D artists think,<br>and how they operate.</div>\n  <div class=\"paragraph\">It is so easy,<br>I stopped writing down the shortcuts, and just started shaking my head.</div>\n  <div class=\"paragraph\">Seeing the progression of Cutting, Extruding, Scaling, and Beveling,<br>and the power of Mirroring, and see a little human sculpted out of a cube...</div>\n  <div class=\"paragraph\">Shows the workflow,<br>for everything else.</div>\n</div>\n<div class=\"section avoid-break-inside\" style=\"padding-bottom: 2rem;\">\n  <br>\n</div>\n<div class=\"section avoid-break-inside\" style=\"padding-bottom: 2rem;\">\n  <div class=\"paragraph\">I created a new wallet, <span>The Saturn 1.0<sup>[2]</sup></span>,<br>with things pointing upwards for a change, and it looks great.</div>\n  <div class=\"paragraph\">I have been creating new wallet designs almost every day,<br>it has been a fantastic experience.</div>\n</div>\n<div class=\"section avoid-break-inside\" style=\"padding-bottom: 2rem;\">\n  <br>\n</div>\n<div class=\"section avoid-break-inside\" style=\"padding-bottom: 2rem;\">\n  <div class=\"paragraph\">I even identifies the main ways,<br>to connect wallet face plates together:</div>\n  <div class=\"paragraph\">Side teeth that can hold para-cord, or even hairbands,<br>that also create a proper pocket with zero chance of anything falling out.</div>\n  <div class=\"paragraph\">Elongated holes for elastic bands, about inch in width,<br>here the elastic is fed in up and down until it locks in, much like a book bag strap.</div>\n  <div class=\"paragraph\">A t-shaped protrusion, often inset, that accepts o-rings, basically rubber washers,<br>this creates fantastic looking hinges, that look nothing like rubber washers.</div>\n  <div class=\"paragraph\">A single elongated hole, on one face plate and an elongated protrusion at a small angle, on the other, to create a latch, for o rings, or even standard paracord.</div>\n  <div class=\"paragraph\">And of course plain holes for string, elastic shoelace, or para-cord,<br>the string is looped up and down to keep the plates together.</div>\n</div>\n<div class=\"section avoid-break-inside\" style=\"padding-bottom: 2rem;\">\n  <br>\n</div>\n<div class=\"section avoid-break-inside\" style=\"padding-bottom: 2rem;\">\n  <div class=\"paragraph\">I think with just a tiny bit more practice I can begin modeling,<br>a variety of hinges, and locking mechanisms.</div>\n  <div class=\"paragraph\">At this point I will be able to add my second project,<br>which is miniature computer cases for the Raspberry PI, including the tiny Zero model.</div>\n</div>\n<div class=\"section avoid-break-inside\" style=\"padding-bottom: 2rem;\">\n  <br>\n</div>\n<div class=\"section avoid-break-inside\" style=\"padding-bottom: 2rem;\">\n  <div class=\"paragraph\">When I started learning modeling,<br>the single most important thing for me was perfect precision.</div>\n  <div class=\"paragraph\">Blender allows that, by presenting a confirmation box for every action,<br>where once can change values.</div>\n  <div class=\"paragraph\">But now, especially with the mirroring feature, which takes care of the sides of my wallets,<br>I no longer pay that much attention to dimensions.</div>\n  <div class=\"paragraph\">Rather than mathematical perfection,<br>I just make sure that things look interesting.</div>\n  <div class=\"paragraph\">I still sometimes adjust dimensions,<br>just now I indented a side of a para-cord guide by .5 millimeters so that it does not slide off.</div>\n  <div class=\"paragraph\">The only thing that requires perfect dimensions,<br>is a credit card/id template so that I know everything fits.</div>\n</div>\n<div class=\"section avoid-break-inside\" style=\"padding-bottom: 2rem;\">\n  <br>\n</div>\n<div class=\"section avoid-break-inside\" style=\"padding-bottom: 2rem;\">\n  <div class=\"paragraph\">As with mathematics, learning mathematics for mathematics's sake,<br>is very difficult.</div>\n  <div class=\"paragraph\">Learning 3D modeling, just to be able to make a little human as in the tutorial I mention,<br>this is not easy.</div>\n  <div class=\"paragraph\">But if you get a 3D printer,<br>Ender 3, version 2, and a $30 roll of white PLA - then everything changes.</div>\n  <div class=\"paragraph\">Because at that point,<br>you are no longer learning modeling, or how to use a program.</div>\n  <div class=\"paragraph\">You become a Product Designer,<br>it can be wallets, but there is nothing wrong with printing small sculptures, or organic looking products, or jewelry.</div>\n  <div class=\"paragraph\">Jewelry is going to be my third project,<br>an Ender printer can’t print very small things.</div>\n  <div class=\"paragraph\">But it can print enlarged models,<br>during prototyping.</div>\n  <div class=\"paragraph\">The bronze/silver/gold properly sized versions have to be ordered via <span>Shapeways<sup>[3]</sup></span> or similar<br>but, they only get printed when someone actually makes a purchase.</div>\n  <div class=\"paragraph\">They are printed on demand,<br>when a sale is made and in case of Shapeways this can be done through their online store.</div>\n  <div class=\"paragraph\">But there are several methods that can be used in jewelery making,<br>you can search the internet for “<span>3d printed jewelery tutorial<sup>[4]</sup></span>”</div>\n</div>\n<div class=\"section avoid-break-inside\" style=\"padding-bottom: 2rem;\">\n  <br>\n</div>\n<div class=\"section avoid-break-inside\" style=\"padding-bottom: 2rem;\">\n  <div class=\"paragraph\">In closing I just want to say, if you need proof that you really are a genius,<br>just watch the 3D modeling tutorial.</div>\n  <div class=\"paragraph\">School grades are only meant for state testing and getting funding,<br>we are all equally intelligent, all you have to do is find a hobby that interests you...</div>\n  <div class=\"paragraph\">And call it, self education,<br>learn at your of pace, in your own sequence, and and have fun.</div>\n  <div class=\"paragraph\">Integrated self paced education, that produces real results,<br>it is the best kind of education.</div>\n</div>\n<div class=\"break-after\">&nbsp;</div>\n<div>\n  <div class=\"section\" style=\"padding-bottom: 1rem;\">References</div>\n  <div>[1]: https://www.youtube.com/watch?v=9xAumJRKV6A</div>\n  <div>[2]: https://www.tinkercad.com/things/gFvd955zp2z</div>\n  <div>[3]: https://www.shapeways.com/getting-started/jewelry</div>\n  <div>[4]: https://www.youtube.com/results?search_query=3d+printed+jewelery+tutorial</div>\n</div>",
  "text": "Well, 3D modeling turned out to be magical,\nbut it requires a 3D printer.\nIt is not good to just learn 3D modeling,\nwithout anything to take to a printer in the evening.\nMy favorite internet tutorial video is:\n“MODELLING For Absolute Beginners | Blender Human Tutorial[1]”\nIt is a 30 minute tutorial that shows how 3D artists think,\nand how they operate.\nIt is so easy,\nI stopped writing down the shortcuts, and just started shaking my head.\nSeeing the progression of Cutting, Extruding, Scaling, and Beveling,\nand the power of Mirroring, and see a little human sculpted out of a cube...\nShows the workflow,\nfor everything else.\n\nI created a new wallet, The Saturn 1.0[2],\nwith things pointing upwards for a change, and it looks great.\nI have been creating new wallet designs almost every day,\nit has been a fantastic experience.\n\nI even identifies the main ways,\nto connect wallet face plates together:\nSide teeth that can hold para-cord, or even hairbands,\nthat also create a proper pocket with zero chance of anything falling out.\nElongated holes for elastic bands, about inch in width,\nhere the elastic is fed in up and down until it locks in, much like a book bag strap.\nA t-shaped protrusion, often inset, that accepts o-rings, basically rubber washers,\nthis creates fantastic looking hinges, that look nothing like rubber washers.\nA single elongated hole, on one face plate and an elongated protrusion at a small angle, on the other, to create a latch, for o rings, or even standard paracord.\nAnd of course plain holes for string, elastic shoelace, or para-cord,\nthe string is looped up and down to keep the plates together.\n\nI think with just a tiny bit more practice I can begin modeling,\na variety of hinges, and locking mechanisms.\nAt this point I will be able to add my second project,\nwhich is miniature computer cases for the Raspberry PI, including the tiny Zero model.\n\nWhen I started learning modeling,\nthe single most important thing for me was perfect precision.\nBlender allows that, by presenting a confirmation box for every action,\nwhere once can change values.\nBut now, especially with the mirroring feature, which takes care of the sides of my wallets,\nI no longer pay that much attention to dimensions.\nRather than mathematical perfection,\nI just make sure that things look interesting.\nI still sometimes adjust dimensions,\njust now I indented a side of a para-cord guide by .5 millimeters so that it does not slide off.\nThe only thing that requires perfect dimensions,\nis a credit card/id template so that I know everything fits.\n\nAs with mathematics, learning mathematics for mathematics's sake,\nis very difficult.\nLearning 3D modeling, just to be able to make a little human as in the tutorial I mention,\nthis is not easy.\nBut if you get a 3D printer,\nEnder 3, version 2, and a $30 roll of white PLA - then everything changes.\nBecause at that point,\nyou are no longer learning modeling, or how to use a program.\nYou become a Product Designer,\nit can be wallets, but there is nothing wrong with printing small sculptures, or organic looking products, or jewelry.\nJewelry is going to be my third project,\nan Ender printer can’t print very small things.\nBut it can print enlarged models,\nduring prototyping.\nThe bronze/silver/gold properly sized versions have to be ordered via Shapeways[3] or similar\nbut, they only get printed when someone actually makes a purchase.\nThey are printed on demand,\nwhen a sale is made and in case of Shapeways this can be done through their online store.\nBut there are several methods that can be used in jewelery making,\nyou can search the internet for “3d printed jewelery tutorial[4]”\n\nIn closing I just want to say, if you need proof that you really are a genius,\njust watch the 3D modeling tutorial.\nSchool grades are only meant for state testing and getting funding,\nwe are all equally intelligent, all you have to do is find a hobby that interests you...\nAnd call it, self education,\nlearn at your of pace, in your own sequence, and and have fun.\nIntegrated self paced education, that produces real results,\nit is the best kind of education.\n \nReferences\n[1]: https://www.youtube.com/watch?v=9xAumJRKV6A\n[2]: https://www.tinkercad.com/things/gFvd955zp2z\n[3]: https://www.shapeways.com/getting-started/jewelry\n[4]: https://www.youtube.com/results?search_query=3d+printed+jewelery+tutorial",
  "images": [],
  "links": [
    {
      "title": "MODELLING For Absolute Beginners | Blender Human Tutorial",
      "url": "https://www.youtube.com/watch?v=9xAumJRKV6A",
      "hostname": "www.youtube.com"
    },
    {
      "title": "The Saturn 1.0",
      "url": "https://www.tinkercad.com/things/gFvd955zp2z",
      "hostname": "www.tinkercad.com"
    },
    {
      "title": "Shapeways",
      "url": "https://www.shapeways.com/getting-started/jewelry",
      "hostname": "www.shapeways.com"
    },
    {
      "title": "3d printed jewelery tutorial",
      "url": "https://www.youtube.com/results?search_query=3d+printed+jewelery+tutorial",
      "hostname": "www.youtube.com"
    }
  ]
}