{
  "title": "Rising Above",
  "date": "2021-05-30T00:00:40.345Z",
  "image": "poetry-0455-illustration.jpg",
  "audio": "poetry-0455.mp3",
  "artwork": "https://unsplash.com/photos/MoaLwVf_0ho",
  "id": "furkies-purrkies-poetry-0455",
  "attachments": {},
  "guid": "bc5c1e4a-1a00-4907-a955-b8ad774c9a0c"
}
