{
  "title": "Her Wisdom and World Peace",
  "date": "2020-09-17T23:52:13.367Z",
  "image": "poetry-0201-illustration.jpg",
  "audio": "poetry-0201.mp3",
  "artwork": "https://unsplash.com/photos/oUyfE8l8sRI",
  "id": "furkies-purrkies-poetry-0201",
  "attachments": {},
  "guid": "8bcd61fb-1e17-4dfd-98cd-09ad0353a919"
}
