{
  "id": "furkies-purrkies-poetry-0577",
  "title": "The Genius Within Us All",
  "date": "2021-09-28T23:32:54.886Z",
  "image": "poetry-0577-illustration.jpg",
  "artwork": "https://unsplash.com/photos/FqdfVIdgR98",
  "audio": "poetry-0577.mp3",
  "guid": "5c253c65-1aef-4903-ac3b-2f06ac93c849"
}
