{
  "name": "furkies-purrkies-poetry-0268",
  "title": "Growing Up In Wisdom",
  "date": "2020-11-24T01:08:08.246Z",
  "image": "poetry-0268-illustration.jpg",
  "audio": "poetry-0268.mp3",
  "artwork": "https://unsplash.com/photos/1VqHRwxcCCw",
  "id": "furkies-purrkies-poetry-0268",
  "attachments": {},
  "guid": "ca2c17ad-fbdc-425d-8463-423d790b1415",
  "html": "<div class=\"section\">\n  <p>Lack of education must be recognized as the highest threat,</p>\n  <p>to the security of our world.</p>\n</div>\n<div class=\"section\">\n  <p>We are not to force children into poverty,</p>\n  <p>by selling a mere impression of knowledge.</p>\n</div>\n<div class=\"section\">\n  <p>Privacy is to be recognized,</p>\n  <p>as a Basic Human right.</p>\n</div>\n<div class=\"section\">\n  <p>And those of you who hate, or just laugh,</p>\n  <p>know in no uncertain terms, that you will be forgotten.</p>\n</div>\n<div class=\"section\">\n  <hr>\n</div>\n<div class=\"section\">\n  <p>The younger generations are sacred,</p>\n  <p>and they are to be honored by free and effective education.</p>\n</div>\n<div class=\"section\">\n  <p>They are to be granted privacy,</p>\n  <p>free acres to any and all educational materials and all books, including audio books.</p>\n</div>\n<div class=\"section\">\n  <p>Those of you who are looking to turn a profit,</p>\n  <p>by dangling education as a carrot, will be forgotten in disgrace.</p>\n</div>\n<div class=\"section\">\n  <hr>\n</div>\n<div class=\"section\">\n  <p>Rest of my note,</p>\n  <p>is for the Children.</p>\n</div>\n<div class=\"section\">\n  <hr>\n</div>\n<div class=\"section\">\n  <p>Know that parents are often victims to their cognitive biases,</p>\n  <p>out of lack of education, out of never having met a real teacher.</p>\n</div>\n<div class=\"section\">\n  <p>Know, with all certainty that borders are wrong,</p>\n  <p>they are a symptom of poison that our biases drive into us when unchecked.</p>\n</div>\n<div class=\"section\">\n  <p>The effects of our cognitive biases burn brightest and spread fastest,</p>\n  <p>when fueled by lack of education; poverty of mind and wallet.</p>\n</div>\n<div class=\"section\">\n  <p>The world of today is choking on chaos born from lack of education and wisdom,</p>\n  <p>prestigious positions are taken up by lying pretenders whose only aim is to fake it until they make it.</p>\n</div>\n<div class=\"section\">\n  <p>They are unaware of their lack of education,</p>\n  <p>they do not know what wisdom is, most of them just want to feed to no end.</p>\n</div>\n<div class=\"section\">\n  <p>Only in wisdom can the world become what it is mean to be,</p>\n  <p>one home, for us all, our entire family.</p>\n</div>\n<div class=\"section\">\n  <p>We are only divided by levels of education,</p>\n  <p>in Wisdom we are one, and we are each Unique and Infinitely Beautiful.</p>\n</div>\n<div class=\"section\">\n  <hr>\n</div>\n<div class=\"section\">\n  <p>You are not so serve, you are the future,</p>\n  <p>you are to lead the world to unity and wisdom.</p>\n</div>\n<div class=\"section\">\n  <p>In poverty certain imaginary things spread in our minds like viruses,</p>\n  <p>they are fueled by fear, darkness, uncertainty and lack of education.</p>\n</div>\n<div class=\"section\">\n  <p>They become a beacon to those who like to frighten,</p>\n  <p>and take enlightenment away with threats punishment for no other reason than to tower and feed.</p>\n</div>\n<div class=\"section\">\n  <p>It your great responsibility to set yourself free,</p>\n  <p>do not be a slave to a cult.</p>\n</div>\n<div class=\"section\">\n  <p>You are meant to become a Wise Being by listening to and reading books,</p>\n  <p>and you are meant to become a Great Being by helping your loved ones and even some of your enemies towards enlightenment and freedom.</p>\n</div>\n<div class=\"section\">\n  <hr>\n</div>\n<div class=\"section\">\n  <p>If a school is not teaching you,</p>\n  <p>then it is not a school, and you have to find a real one.</p>\n</div>\n<div class=\"section\">\n  <p>Do not become tricked by a mere impression of education,</p>\n  <p>you don&apos;t need a job, you need to be a business owner, and a leader.</p>\n</div>\n<div class=\"section\">\n  <p>We need you to stand as competition to overpriced medicine and companies that violate human rights for profit,</p>\n  <p>to corporations that cannot have hearts and slick talking psychopaths, who will never see value in helping you.</p>\n</div>\n<div class=\"section\">\n  <p>Especially those who announce themselves with,</p>\n  <p>with bite sized lies.</p>\n</div>\n<div class=\"section\">\n  <p>Build you own schools out of books,</p>\n  <p>may you share libraries.</p>\n</div>\n<div class=\"section\">\n  <p>May you build schools free of shame, judgment, pressure to cheat, and threat punishment,</p>\n  <p>or prison - which is what being held back is.</p>\n</div>\n<div class=\"section\">\n  <p>Share your wisdom amongst each other,</p>\n  <p>tell the world about your parents in audiobooks and torrents of videos.</p>\n</div>\n<div class=\"section\">\n  <p>Question poverty, question profit maximization,</p>\n  <p>and the betrayals of privacy, leadership, and even organized education.</p>\n</div>\n<div class=\"section\">\n  <hr>\n</div>\n<div class=\"section\">\n  <p>The internet is for you to connect and see that we are all the same,</p>\n  <p>we all love your humor, and relish in and learn much your insults.</p>\n</div>\n<div class=\"section\">\n  <p>The internet will remain in place as we all wait for you to connect the world together,</p>\n  <p>we built it for you and we will protect it until you make the borders that divide humanity, irrelevant.</p>\n</div>\n<div class=\"section\">\n  <p>We fill and re-fill libraries with inspiration and wisdom to help you grow faster,</p>\n  <p>to help you gain visions with clarity that is not available to us - and it is working.</p>\n</div>\n<div class=\"section\">\n  <p>Always reject status quo and question authority,</p>\n  <p>especially their biases and down to their marrow until all they have left to speak is, that ounce of truth they do know.</p>\n</div>\n<div class=\"section\">\n  <p>Without wisdom, desperate men can only blindly-and-automatically, repeat history&apos;s mistakes,</p>\n  <p>those who have no wisdom have no authority over you, YOU ARE THE FUTURE.</p>\n</div>\n<div class=\"section\">\n  <p>We are to make Audio Books out of Love,</p>\n  <p>not wars out of incompetence, fear and hate.</p>\n</div>\n<div class=\"section\">\n  <hr>\n</div>\n<div class=\"section\">\n  <p>Happiness is not something you can pursue, that&apos;s impossible,</p>\n  <p>nor life is a journey to some imaginary destination, we can only return to the nothingness we emerged from.</p>\n</div>\n<div class=\"section\">\n  <p>Happiness must ensue, and it will only appear in lives of wisdom,</p>\n  <p>it is not a feeling can capture and hold, it is a gravity that will overwhelm and lovingly crush you every day, forever.</p>\n</div>\n<div class=\"section\">\n  <p>The road ahead of you, is extremely long,</p>\n  <p>and requires hundreds of years of work.</p>\n</div>\n<div class=\"section\">\n  <p>But the future is beautiful,</p>\n  <p>it is more beautiful than any of us alive today can imagine.</p>\n</div>\n<div class=\"section\">\n  <hr>\n</div>\n<div class=\"section\">\n  <p>Take to audio books on the subjects of Adventure, Philosophy, Wisdom, Science, Greatness and Growing Up, immediately,</p>\n  <p>and take what you learn to school, do not let teachers trick you into cramming and blame it on you.</p>\n</div>\n<div class=\"section\">\n  <p>The world is standing still, the sooner you stand up for Wisdom and deliver,</p>\n  <p>the sooner the future will come.\n  </p>\n</div>\n<div class=\"section\">\n  <p>You are the teachers now.</p>\n</div>",
  "bootstrap": "<div class=\"card card-section bg-dark text-warning shadow\">\n  <div class=\"section card-body mb-0 my-2\">\n    <div class=\"paragraph card-text card-stanza my-5 text-center\">Lack of education must be recognized as the highest threat,</div>\n    <div class=\"paragraph card-text card-stanza my-5 text-center\">to the security of our world.</div>\n  </div>\n</div>\n<div class=\"card card-section bg-dark text-warning shadow\">\n  <div class=\"section card-body mb-0 my-2\">\n    <div class=\"paragraph card-text card-stanza my-5 text-center\">We are not to force children into poverty,</div>\n    <div class=\"paragraph card-text card-stanza my-5 text-center\">by selling a mere impression of knowledge.</div>\n  </div>\n</div>\n<div class=\"card card-section bg-dark text-warning shadow\">\n  <div class=\"section card-body mb-0 my-2\">\n    <div class=\"paragraph card-text card-stanza my-5 text-center\">Privacy is to be recognized,</div>\n    <div class=\"paragraph card-text card-stanza my-5 text-center\">as a Basic Human right.</div>\n  </div>\n</div>\n<div class=\"card card-section bg-dark text-warning shadow\">\n  <div class=\"section card-body mb-0 my-2\">\n    <div class=\"paragraph card-text card-stanza my-5 text-center\">And those of you who hate, or just laugh,</div>\n    <div class=\"paragraph card-text card-stanza my-5 text-center\">know in no uncertain terms, that you will be forgotten.</div>\n  </div>\n</div>\n<div class=\"mb-5 section-spacer\">&nbsp;</div>\n<div class=\"card card-section bg-dark text-warning shadow\">\n  <div class=\"section card-body mb-0 my-2\">\n    <div class=\"paragraph card-text card-stanza my-5 text-center\">The younger generations are sacred,</div>\n    <div class=\"paragraph card-text card-stanza my-5 text-center\">and they are to be honored by free and effective education.</div>\n  </div>\n</div>\n<div class=\"card card-section bg-dark text-warning shadow\">\n  <div class=\"section card-body mb-0 my-2\">\n    <div class=\"paragraph card-text card-stanza my-5 text-center\">They are to be granted privacy,</div>\n    <div class=\"paragraph card-text card-stanza my-5 text-center\">free acres to any and all educational materials and all books, including audio books.</div>\n  </div>\n</div>\n<div class=\"card card-section bg-dark text-warning shadow\">\n  <div class=\"section card-body mb-0 my-2\">\n    <div class=\"paragraph card-text card-stanza my-5 text-center\">Those of you who are looking to turn a profit,</div>\n    <div class=\"paragraph card-text card-stanza my-5 text-center\">by dangling education as a carrot, will be forgotten in disgrace.</div>\n  </div>\n</div>\n<div class=\"mb-5 section-spacer\">&nbsp;</div>\n<div class=\"card card-section bg-dark text-warning shadow\">\n  <div class=\"section card-body mb-0 my-2\">\n    <div class=\"paragraph card-text card-stanza my-5 text-center\">Rest of my note,</div>\n    <div class=\"paragraph card-text card-stanza my-5 text-center\">is for the Children.</div>\n  </div>\n</div>\n<div class=\"mb-5 section-spacer\">&nbsp;</div>\n<div class=\"card card-section bg-dark text-warning shadow\">\n  <div class=\"section card-body mb-0 my-2\">\n    <div class=\"paragraph card-text card-stanza my-5 text-center\">Know that parents are often victims to their cognitive biases,</div>\n    <div class=\"paragraph card-text card-stanza my-5 text-center\">out of lack of education, out of never having met a real teacher.</div>\n  </div>\n</div>\n<div class=\"card card-section bg-dark text-warning shadow\">\n  <div class=\"section card-body mb-0 my-2\">\n    <div class=\"paragraph card-text card-stanza my-5 text-center\">Know, with all certainty that borders are wrong,</div>\n    <div class=\"paragraph card-text card-stanza my-5 text-center\">they are a symptom of poison that our biases drive into us when unchecked.</div>\n  </div>\n</div>\n<div class=\"card card-section bg-dark text-warning shadow\">\n  <div class=\"section card-body mb-0 my-2\">\n    <div class=\"paragraph card-text card-stanza my-5 text-center\">The effects of our cognitive biases burn brightest and spread fastest,</div>\n    <div class=\"paragraph card-text card-stanza my-5 text-center\">when fueled by lack of education; poverty of mind and wallet.</div>\n  </div>\n</div>\n<div class=\"card card-section bg-dark text-warning shadow\">\n  <div class=\"section card-body mb-0 my-2\">\n    <div class=\"paragraph card-text card-stanza my-5 text-center\">The world of today is choking on chaos born from lack of education and wisdom,</div>\n    <div class=\"paragraph card-text card-stanza my-5 text-center\">prestigious positions are taken up by lying pretenders whose only aim is to fake it until they make it.</div>\n  </div>\n</div>\n<div class=\"card card-section bg-dark text-warning shadow\">\n  <div class=\"section card-body mb-0 my-2\">\n    <div class=\"paragraph card-text card-stanza my-5 text-center\">They are unaware of their lack of education,</div>\n    <div class=\"paragraph card-text card-stanza my-5 text-center\">they do not know what wisdom is, most of them just want to feed to no end.</div>\n  </div>\n</div>\n<div class=\"card card-section bg-dark text-warning shadow\">\n  <div class=\"section card-body mb-0 my-2\">\n    <div class=\"paragraph card-text card-stanza my-5 text-center\">Only in wisdom can the world become what it is mean to be,</div>\n    <div class=\"paragraph card-text card-stanza my-5 text-center\">one home, for us all, our entire family.</div>\n  </div>\n</div>\n<div class=\"card card-section bg-dark text-warning shadow\">\n  <div class=\"section card-body mb-0 my-2\">\n    <div class=\"paragraph card-text card-stanza my-5 text-center\">We are only divided by levels of education,</div>\n    <div class=\"paragraph card-text card-stanza my-5 text-center\">in Wisdom we are one, and we are each Unique and Infinitely Beautiful.</div>\n  </div>\n</div>\n<div class=\"mb-5 section-spacer\">&nbsp;</div>\n<div class=\"card card-section bg-dark text-warning shadow\">\n  <div class=\"section card-body mb-0 my-2\">\n    <div class=\"paragraph card-text card-stanza my-5 text-center\">You are not so serve, you are the future,</div>\n    <div class=\"paragraph card-text card-stanza my-5 text-center\">you are to lead the world to unity and wisdom.</div>\n  </div>\n</div>\n<div class=\"card card-section bg-dark text-warning shadow\">\n  <div class=\"section card-body mb-0 my-2\">\n    <div class=\"paragraph card-text card-stanza my-5 text-center\">In poverty certain imaginary things spread in our minds like viruses,</div>\n    <div class=\"paragraph card-text card-stanza my-5 text-center\">they are fueled by fear, darkness, uncertainty and lack of education.</div>\n  </div>\n</div>\n<div class=\"card card-section bg-dark text-warning shadow\">\n  <div class=\"section card-body mb-0 my-2\">\n    <div class=\"paragraph card-text card-stanza my-5 text-center\">They become a beacon to those who like to frighten,</div>\n    <div class=\"paragraph card-text card-stanza my-5 text-center\">and take enlightenment away with threats punishment for no other reason than to tower and feed.</div>\n  </div>\n</div>\n<div class=\"card card-section bg-dark text-warning shadow\">\n  <div class=\"section card-body mb-0 my-2\">\n    <div class=\"paragraph card-text card-stanza my-5 text-center\">It your great responsibility to set yourself free,</div>\n    <div class=\"paragraph card-text card-stanza my-5 text-center\">do not be a slave to a cult.</div>\n  </div>\n</div>\n<div class=\"card card-section bg-dark text-warning shadow\">\n  <div class=\"section card-body mb-0 my-2\">\n    <div class=\"paragraph card-text card-stanza my-5 text-center\">You are meant to become a Wise Being by listening to and reading books,</div>\n    <div class=\"paragraph card-text card-stanza my-5 text-center\">and you are meant to become a Great Being by helping your loved ones and even some of your enemies towards enlightenment and freedom.</div>\n  </div>\n</div>\n<div class=\"mb-5 section-spacer\">&nbsp;</div>\n<div class=\"card card-section bg-dark text-warning shadow\">\n  <div class=\"section card-body mb-0 my-2\">\n    <div class=\"paragraph card-text card-stanza my-5 text-center\">If a school is not teaching you,</div>\n    <div class=\"paragraph card-text card-stanza my-5 text-center\">then it is not a school, and you have to find a real one.</div>\n  </div>\n</div>\n<div class=\"card card-section bg-dark text-warning shadow\">\n  <div class=\"section card-body mb-0 my-2\">\n    <div class=\"paragraph card-text card-stanza my-5 text-center\">Do not become tricked by a mere impression of education,</div>\n    <div class=\"paragraph card-text card-stanza my-5 text-center\">you don't need a job, you need to be a business owner, and a leader.</div>\n  </div>\n</div>\n<div class=\"card card-section bg-dark text-warning shadow\">\n  <div class=\"section card-body mb-0 my-2\">\n    <div class=\"paragraph card-text card-stanza my-5 text-center\">We need you to stand as competition to overpriced medicine and companies that violate human rights for profit,</div>\n    <div class=\"paragraph card-text card-stanza my-5 text-center\">to corporations that cannot have hearts and slick talking psychopaths, who will never see value in helping you.</div>\n  </div>\n</div>\n<div class=\"card card-section bg-dark text-warning shadow\">\n  <div class=\"section card-body mb-0 my-2\">\n    <div class=\"paragraph card-text card-stanza my-5 text-center\">Especially those who announce themselves with,</div>\n    <div class=\"paragraph card-text card-stanza my-5 text-center\">with bite sized lies.</div>\n  </div>\n</div>\n<div class=\"card card-section bg-dark text-warning shadow\">\n  <div class=\"section card-body mb-0 my-2\">\n    <div class=\"paragraph card-text card-stanza my-5 text-center\">Build you own schools out of books,</div>\n    <div class=\"paragraph card-text card-stanza my-5 text-center\">may you share libraries.</div>\n  </div>\n</div>\n<div class=\"card card-section bg-dark text-warning shadow\">\n  <div class=\"section card-body mb-0 my-2\">\n    <div class=\"paragraph card-text card-stanza my-5 text-center\">May you build schools free of shame, judgment, pressure to cheat, and threat punishment,</div>\n    <div class=\"paragraph card-text card-stanza my-5 text-center\">or prison - which is what being held back is.</div>\n  </div>\n</div>\n<div class=\"card card-section bg-dark text-warning shadow\">\n  <div class=\"section card-body mb-0 my-2\">\n    <div class=\"paragraph card-text card-stanza my-5 text-center\">Share your wisdom amongst each other,</div>\n    <div class=\"paragraph card-text card-stanza my-5 text-center\">tell the world about your parents in audiobooks and torrents of videos.</div>\n  </div>\n</div>\n<div class=\"card card-section bg-dark text-warning shadow\">\n  <div class=\"section card-body mb-0 my-2\">\n    <div class=\"paragraph card-text card-stanza my-5 text-center\">Question poverty, question profit maximization,</div>\n    <div class=\"paragraph card-text card-stanza my-5 text-center\">and the betrayals of privacy, leadership, and even organized education.</div>\n  </div>\n</div>\n<div class=\"mb-5 section-spacer\">&nbsp;</div>\n<div class=\"card card-section bg-dark text-warning shadow\">\n  <div class=\"section card-body mb-0 my-2\">\n    <div class=\"paragraph card-text card-stanza my-5 text-center\">The internet is for you to connect and see that we are all the same,</div>\n    <div class=\"paragraph card-text card-stanza my-5 text-center\">we all love your humor, and relish in and learn much your insults.</div>\n  </div>\n</div>\n<div class=\"card card-section bg-dark text-warning shadow\">\n  <div class=\"section card-body mb-0 my-2\">\n    <div class=\"paragraph card-text card-stanza my-5 text-center\">The internet will remain in place as we all wait for you to connect the world together,</div>\n    <div class=\"paragraph card-text card-stanza my-5 text-center\">we built it for you and we will protect it until you make the borders that divide humanity, irrelevant.</div>\n  </div>\n</div>\n<div class=\"card card-section bg-dark text-warning shadow\">\n  <div class=\"section card-body mb-0 my-2\">\n    <div class=\"paragraph card-text card-stanza my-5 text-center\">We fill and re-fill libraries with inspiration and wisdom to help you grow faster,</div>\n    <div class=\"paragraph card-text card-stanza my-5 text-center\">to help you gain visions with clarity that is not available to us - and it is working.</div>\n  </div>\n</div>\n<div class=\"card card-section bg-dark text-warning shadow\">\n  <div class=\"section card-body mb-0 my-2\">\n    <div class=\"paragraph card-text card-stanza my-5 text-center\">Always reject status quo and question authority,</div>\n    <div class=\"paragraph card-text card-stanza my-5 text-center\">especially their biases and down to their marrow until all they have left to speak is, that ounce of truth they do know.</div>\n  </div>\n</div>\n<div class=\"card card-section bg-dark text-warning shadow\">\n  <div class=\"section card-body mb-0 my-2\">\n    <div class=\"paragraph card-text card-stanza my-5 text-center\">Without wisdom, desperate men can only blindly-and-automatically, repeat history's mistakes,</div>\n    <div class=\"paragraph card-text card-stanza my-5 text-center\">those who have no wisdom have no authority over you, YOU ARE THE FUTURE.</div>\n  </div>\n</div>\n<div class=\"card card-section bg-dark text-warning shadow\">\n  <div class=\"section card-body mb-0 my-2\">\n    <div class=\"paragraph card-text card-stanza my-5 text-center\">We are to make Audio Books out of Love,</div>\n    <div class=\"paragraph card-text card-stanza my-5 text-center\">not wars out of incompetence, fear and hate.</div>\n  </div>\n</div>\n<div class=\"mb-5 section-spacer\">&nbsp;</div>\n<div class=\"card card-section bg-dark text-warning shadow\">\n  <div class=\"section card-body mb-0 my-2\">\n    <div class=\"paragraph card-text card-stanza my-5 text-center\">Happiness is not something you can pursue, that's impossible,</div>\n    <div class=\"paragraph card-text card-stanza my-5 text-center\">nor life is a journey to some imaginary destination, we can only return to the nothingness we emerged from.</div>\n  </div>\n</div>\n<div class=\"card card-section bg-dark text-warning shadow\">\n  <div class=\"section card-body mb-0 my-2\">\n    <div class=\"paragraph card-text card-stanza my-5 text-center\">Happiness must ensue, and it will only appear in lives of wisdom,</div>\n    <div class=\"paragraph card-text card-stanza my-5 text-center\">it is not a feeling can capture and hold, it is a gravity that will overwhelm and lovingly crush you every day, forever.</div>\n  </div>\n</div>\n<div class=\"card card-section bg-dark text-warning shadow\">\n  <div class=\"section card-body mb-0 my-2\">\n    <div class=\"paragraph card-text card-stanza my-5 text-center\">The road ahead of you, is extremely long,</div>\n    <div class=\"paragraph card-text card-stanza my-5 text-center\">and requires hundreds of years of work.</div>\n  </div>\n</div>\n<div class=\"card card-section bg-dark text-warning shadow\">\n  <div class=\"section card-body mb-0 my-2\">\n    <div class=\"paragraph card-text card-stanza my-5 text-center\">But the future is beautiful,</div>\n    <div class=\"paragraph card-text card-stanza my-5 text-center\">it is more beautiful than any of us alive today can imagine.</div>\n  </div>\n</div>\n<div class=\"mb-5 section-spacer\">&nbsp;</div>\n<div class=\"card card-section bg-dark text-warning shadow\">\n  <div class=\"section card-body mb-0 my-2\">\n    <div class=\"paragraph card-text card-stanza my-5 text-center\">Take to audio books on the subjects of Adventure, Philosophy, Wisdom, Science, Greatness and Growing Up, immediately,</div>\n    <div class=\"paragraph card-text card-stanza my-5 text-center\">and take what you learn to school, do not let teachers trick you into cramming and blame it on you.</div>\n  </div>\n</div>\n<div class=\"card card-section bg-dark text-warning shadow\">\n  <div class=\"section card-body mb-0 my-2\">\n    <div class=\"paragraph card-text card-stanza my-5 text-center\">The world is standing still, the sooner you stand up for Wisdom and deliver,</div>\n    <div class=\"paragraph card-text card-stanza my-5 text-center\">the sooner the future will come.\n    </div>\n  </div>\n</div>\n<div class=\"card card-section bg-dark text-warning shadow\">\n  <div class=\"section card-body mb-0 my-2\">\n    <div class=\"paragraph card-text card-stanza my-5 text-center\">You are the teachers now.</div>\n  </div>\n</div>",
  "print": "<div class=\"section avoid-break-inside\" style=\"padding-bottom: 2rem;\">\n  <div class=\"paragraph\">Lack of education must be recognized as the highest threat,</div>\n  <div class=\"paragraph\">to the security of our world.</div>\n</div>\n<div class=\"section avoid-break-inside\" style=\"padding-bottom: 2rem;\">\n  <div class=\"paragraph\">We are not to force children into poverty,</div>\n  <div class=\"paragraph\">by selling a mere impression of knowledge.</div>\n</div>\n<div class=\"section avoid-break-inside\" style=\"padding-bottom: 2rem;\">\n  <div class=\"paragraph\">Privacy is to be recognized,</div>\n  <div class=\"paragraph\">as a Basic Human right.</div>\n</div>\n<div class=\"section avoid-break-inside\" style=\"padding-bottom: 2rem;\">\n  <div class=\"paragraph\">And those of you who hate, or just laugh,</div>\n  <div class=\"paragraph\">know in no uncertain terms, that you will be forgotten.</div>\n</div>\n<div class=\"section avoid-break-inside\" style=\"padding-bottom: 2rem;\">\n  <br>\n</div>\n<div class=\"section avoid-break-inside\" style=\"padding-bottom: 2rem;\">\n  <div class=\"paragraph\">The younger generations are sacred,</div>\n  <div class=\"paragraph\">and they are to be honored by free and effective education.</div>\n</div>\n<div class=\"section avoid-break-inside\" style=\"padding-bottom: 2rem;\">\n  <div class=\"paragraph\">They are to be granted privacy,</div>\n  <div class=\"paragraph\">free acres to any and all educational materials and all books, including audio books.</div>\n</div>\n<div class=\"section avoid-break-inside\" style=\"padding-bottom: 2rem;\">\n  <div class=\"paragraph\">Those of you who are looking to turn a profit,</div>\n  <div class=\"paragraph\">by dangling education as a carrot, will be forgotten in disgrace.</div>\n</div>\n<div class=\"section avoid-break-inside\" style=\"padding-bottom: 2rem;\">\n  <br>\n</div>\n<div class=\"section avoid-break-inside\" style=\"padding-bottom: 2rem;\">\n  <div class=\"paragraph\">Rest of my note,</div>\n  <div class=\"paragraph\">is for the Children.</div>\n</div>\n<div class=\"section avoid-break-inside\" style=\"padding-bottom: 2rem;\">\n  <br>\n</div>\n<div class=\"section avoid-break-inside\" style=\"padding-bottom: 2rem;\">\n  <div class=\"paragraph\">Know that parents are often victims to their cognitive biases,</div>\n  <div class=\"paragraph\">out of lack of education, out of never having met a real teacher.</div>\n</div>\n<div class=\"section avoid-break-inside\" style=\"padding-bottom: 2rem;\">\n  <div class=\"paragraph\">Know, with all certainty that borders are wrong,</div>\n  <div class=\"paragraph\">they are a symptom of poison that our biases drive into us when unchecked.</div>\n</div>\n<div class=\"section avoid-break-inside\" style=\"padding-bottom: 2rem;\">\n  <div class=\"paragraph\">The effects of our cognitive biases burn brightest and spread fastest,</div>\n  <div class=\"paragraph\">when fueled by lack of education; poverty of mind and wallet.</div>\n</div>\n<div class=\"section avoid-break-inside\" style=\"padding-bottom: 2rem;\">\n  <div class=\"paragraph\">The world of today is choking on chaos born from lack of education and wisdom,</div>\n  <div class=\"paragraph\">prestigious positions are taken up by lying pretenders whose only aim is to fake it until they make it.</div>\n</div>\n<div class=\"section avoid-break-inside\" style=\"padding-bottom: 2rem;\">\n  <div class=\"paragraph\">They are unaware of their lack of education,</div>\n  <div class=\"paragraph\">they do not know what wisdom is, most of them just want to feed to no end.</div>\n</div>\n<div class=\"section avoid-break-inside\" style=\"padding-bottom: 2rem;\">\n  <div class=\"paragraph\">Only in wisdom can the world become what it is mean to be,</div>\n  <div class=\"paragraph\">one home, for us all, our entire family.</div>\n</div>\n<div class=\"section avoid-break-inside\" style=\"padding-bottom: 2rem;\">\n  <div class=\"paragraph\">We are only divided by levels of education,</div>\n  <div class=\"paragraph\">in Wisdom we are one, and we are each Unique and Infinitely Beautiful.</div>\n</div>\n<div class=\"section avoid-break-inside\" style=\"padding-bottom: 2rem;\">\n  <br>\n</div>\n<div class=\"section avoid-break-inside\" style=\"padding-bottom: 2rem;\">\n  <div class=\"paragraph\">You are not so serve, you are the future,</div>\n  <div class=\"paragraph\">you are to lead the world to unity and wisdom.</div>\n</div>\n<div class=\"section avoid-break-inside\" style=\"padding-bottom: 2rem;\">\n  <div class=\"paragraph\">In poverty certain imaginary things spread in our minds like viruses,</div>\n  <div class=\"paragraph\">they are fueled by fear, darkness, uncertainty and lack of education.</div>\n</div>\n<div class=\"section avoid-break-inside\" style=\"padding-bottom: 2rem;\">\n  <div class=\"paragraph\">They become a beacon to those who like to frighten,</div>\n  <div class=\"paragraph\">and take enlightenment away with threats punishment for no other reason than to tower and feed.</div>\n</div>\n<div class=\"section avoid-break-inside\" style=\"padding-bottom: 2rem;\">\n  <div class=\"paragraph\">It your great responsibility to set yourself free,</div>\n  <div class=\"paragraph\">do not be a slave to a cult.</div>\n</div>\n<div class=\"section avoid-break-inside\" style=\"padding-bottom: 2rem;\">\n  <div class=\"paragraph\">You are meant to become a Wise Being by listening to and reading books,</div>\n  <div class=\"paragraph\">and you are meant to become a Great Being by helping your loved ones and even some of your enemies towards enlightenment and freedom.</div>\n</div>\n<div class=\"section avoid-break-inside\" style=\"padding-bottom: 2rem;\">\n  <br>\n</div>\n<div class=\"section avoid-break-inside\" style=\"padding-bottom: 2rem;\">\n  <div class=\"paragraph\">If a school is not teaching you,</div>\n  <div class=\"paragraph\">then it is not a school, and you have to find a real one.</div>\n</div>\n<div class=\"section avoid-break-inside\" style=\"padding-bottom: 2rem;\">\n  <div class=\"paragraph\">Do not become tricked by a mere impression of education,</div>\n  <div class=\"paragraph\">you don't need a job, you need to be a business owner, and a leader.</div>\n</div>\n<div class=\"section avoid-break-inside\" style=\"padding-bottom: 2rem;\">\n  <div class=\"paragraph\">We need you to stand as competition to overpriced medicine and companies that violate human rights for profit,</div>\n  <div class=\"paragraph\">to corporations that cannot have hearts and slick talking psychopaths, who will never see value in helping you.</div>\n</div>\n<div class=\"section avoid-break-inside\" style=\"padding-bottom: 2rem;\">\n  <div class=\"paragraph\">Especially those who announce themselves with,</div>\n  <div class=\"paragraph\">with bite sized lies.</div>\n</div>\n<div class=\"section avoid-break-inside\" style=\"padding-bottom: 2rem;\">\n  <div class=\"paragraph\">Build you own schools out of books,</div>\n  <div class=\"paragraph\">may you share libraries.</div>\n</div>\n<div class=\"section avoid-break-inside\" style=\"padding-bottom: 2rem;\">\n  <div class=\"paragraph\">May you build schools free of shame, judgment, pressure to cheat, and threat punishment,</div>\n  <div class=\"paragraph\">or prison - which is what being held back is.</div>\n</div>\n<div class=\"section avoid-break-inside\" style=\"padding-bottom: 2rem;\">\n  <div class=\"paragraph\">Share your wisdom amongst each other,</div>\n  <div class=\"paragraph\">tell the world about your parents in audiobooks and torrents of videos.</div>\n</div>\n<div class=\"section avoid-break-inside\" style=\"padding-bottom: 2rem;\">\n  <div class=\"paragraph\">Question poverty, question profit maximization,</div>\n  <div class=\"paragraph\">and the betrayals of privacy, leadership, and even organized education.</div>\n</div>\n<div class=\"section avoid-break-inside\" style=\"padding-bottom: 2rem;\">\n  <br>\n</div>\n<div class=\"section avoid-break-inside\" style=\"padding-bottom: 2rem;\">\n  <div class=\"paragraph\">The internet is for you to connect and see that we are all the same,</div>\n  <div class=\"paragraph\">we all love your humor, and relish in and learn much your insults.</div>\n</div>\n<div class=\"section avoid-break-inside\" style=\"padding-bottom: 2rem;\">\n  <div class=\"paragraph\">The internet will remain in place as we all wait for you to connect the world together,</div>\n  <div class=\"paragraph\">we built it for you and we will protect it until you make the borders that divide humanity, irrelevant.</div>\n</div>\n<div class=\"section avoid-break-inside\" style=\"padding-bottom: 2rem;\">\n  <div class=\"paragraph\">We fill and re-fill libraries with inspiration and wisdom to help you grow faster,</div>\n  <div class=\"paragraph\">to help you gain visions with clarity that is not available to us - and it is working.</div>\n</div>\n<div class=\"section avoid-break-inside\" style=\"padding-bottom: 2rem;\">\n  <div class=\"paragraph\">Always reject status quo and question authority,</div>\n  <div class=\"paragraph\">especially their biases and down to their marrow until all they have left to speak is, that ounce of truth they do know.</div>\n</div>\n<div class=\"section avoid-break-inside\" style=\"padding-bottom: 2rem;\">\n  <div class=\"paragraph\">Without wisdom, desperate men can only blindly-and-automatically, repeat history's mistakes,</div>\n  <div class=\"paragraph\">those who have no wisdom have no authority over you, YOU ARE THE FUTURE.</div>\n</div>\n<div class=\"section avoid-break-inside\" style=\"padding-bottom: 2rem;\">\n  <div class=\"paragraph\">We are to make Audio Books out of Love,</div>\n  <div class=\"paragraph\">not wars out of incompetence, fear and hate.</div>\n</div>\n<div class=\"section avoid-break-inside\" style=\"padding-bottom: 2rem;\">\n  <br>\n</div>\n<div class=\"section avoid-break-inside\" style=\"padding-bottom: 2rem;\">\n  <div class=\"paragraph\">Happiness is not something you can pursue, that's impossible,</div>\n  <div class=\"paragraph\">nor life is a journey to some imaginary destination, we can only return to the nothingness we emerged from.</div>\n</div>\n<div class=\"section avoid-break-inside\" style=\"padding-bottom: 2rem;\">\n  <div class=\"paragraph\">Happiness must ensue, and it will only appear in lives of wisdom,</div>\n  <div class=\"paragraph\">it is not a feeling can capture and hold, it is a gravity that will overwhelm and lovingly crush you every day, forever.</div>\n</div>\n<div class=\"section avoid-break-inside\" style=\"padding-bottom: 2rem;\">\n  <div class=\"paragraph\">The road ahead of you, is extremely long,</div>\n  <div class=\"paragraph\">and requires hundreds of years of work.</div>\n</div>\n<div class=\"section avoid-break-inside\" style=\"padding-bottom: 2rem;\">\n  <div class=\"paragraph\">But the future is beautiful,</div>\n  <div class=\"paragraph\">it is more beautiful than any of us alive today can imagine.</div>\n</div>\n<div class=\"section avoid-break-inside\" style=\"padding-bottom: 2rem;\">\n  <br>\n</div>\n<div class=\"section avoid-break-inside\" style=\"padding-bottom: 2rem;\">\n  <div class=\"paragraph\">Take to audio books on the subjects of Adventure, Philosophy, Wisdom, Science, Greatness and Growing Up, immediately,</div>\n  <div class=\"paragraph\">and take what you learn to school, do not let teachers trick you into cramming and blame it on you.</div>\n</div>\n<div class=\"section avoid-break-inside\" style=\"padding-bottom: 2rem;\">\n  <div class=\"paragraph\">The world is standing still, the sooner you stand up for Wisdom and deliver,</div>\n  <div class=\"paragraph\">the sooner the future will come.\n  </div>\n</div>\n<div class=\"section avoid-break-inside\" style=\"padding-bottom: 2rem;\">\n  <div class=\"paragraph\">You are the teachers now.</div>\n</div>",
  "text": "Lack of education must be recognized as the highest threat,\nto the security of our world.\nWe are not to force children into poverty,\nby selling a mere impression of knowledge.\nPrivacy is to be recognized,\nas a Basic Human right.\nAnd those of you who hate, or just laugh,\nknow in no uncertain terms, that you will be forgotten.\n\nThe younger generations are sacred,\nand they are to be honored by free and effective education.\nThey are to be granted privacy,\nfree acres to any and all educational materials and all books, including audio books.\nThose of you who are looking to turn a profit,\nby dangling education as a carrot, will be forgotten in disgrace.\n\nRest of my note,\nis for the Children.\n\nKnow that parents are often victims to their cognitive biases,\nout of lack of education, out of never having met a real teacher.\nKnow, with all certainty that borders are wrong,\nthey are a symptom of poison that our biases drive into us when unchecked.\nThe effects of our cognitive biases burn brightest and spread fastest,\nwhen fueled by lack of education; poverty of mind and wallet.\nThe world of today is choking on chaos born from lack of education and wisdom,\nprestigious positions are taken up by lying pretenders whose only aim is to fake it until they make it.\nThey are unaware of their lack of education,\nthey do not know what wisdom is, most of them just want to feed to no end.\nOnly in wisdom can the world become what it is mean to be,\none home, for us all, our entire family.\nWe are only divided by levels of education,\nin Wisdom we are one, and we are each Unique and Infinitely Beautiful.\n\nYou are not so serve, you are the future,\nyou are to lead the world to unity and wisdom.\nIn poverty certain imaginary things spread in our minds like viruses,\nthey are fueled by fear, darkness, uncertainty and lack of education.\nThey become a beacon to those who like to frighten,\nand take enlightenment away with threats punishment for no other reason than to tower and feed.\nIt your great responsibility to set yourself free,\ndo not be a slave to a cult.\nYou are meant to become a Wise Being by listening to and reading books,\nand you are meant to become a Great Being by helping your loved ones and even some of your enemies towards enlightenment and freedom.\n\nIf a school is not teaching you,\nthen it is not a school, and you have to find a real one.\nDo not become tricked by a mere impression of education,\nyou don't need a job, you need to be a business owner, and a leader.\nWe need you to stand as competition to overpriced medicine and companies that violate human rights for profit,\nto corporations that cannot have hearts and slick talking psychopaths, who will never see value in helping you.\nEspecially those who announce themselves with,\nwith bite sized lies.\nBuild you own schools out of books,\nmay you share libraries.\nMay you build schools free of shame, judgment, pressure to cheat, and threat punishment,\nor prison - which is what being held back is.\nShare your wisdom amongst each other,\ntell the world about your parents in audiobooks and torrents of videos.\nQuestion poverty, question profit maximization,\nand the betrayals of privacy, leadership, and even organized education.\n\nThe internet is for you to connect and see that we are all the same,\nwe all love your humor, and relish in and learn much your insults.\nThe internet will remain in place as we all wait for you to connect the world together,\nwe built it for you and we will protect it until you make the borders that divide humanity, irrelevant.\nWe fill and re-fill libraries with inspiration and wisdom to help you grow faster,\nto help you gain visions with clarity that is not available to us - and it is working.\nAlways reject status quo and question authority,\nespecially their biases and down to their marrow until all they have left to speak is, that ounce of truth they do know.\nWithout wisdom, desperate men can only blindly-and-automatically, repeat history's mistakes,\nthose who have no wisdom have no authority over you, YOU ARE THE FUTURE.\nWe are to make Audio Books out of Love,\nnot wars out of incompetence, fear and hate.\n\nHappiness is not something you can pursue, that's impossible,\nnor life is a journey to some imaginary destination, we can only return to the nothingness we emerged from.\nHappiness must ensue, and it will only appear in lives of wisdom,\nit is not a feeling can capture and hold, it is a gravity that will overwhelm and lovingly crush you every day, forever.\nThe road ahead of you, is extremely long,\nand requires hundreds of years of work.\nBut the future is beautiful,\nit is more beautiful than any of us alive today can imagine.\n\nTake to audio books on the subjects of Adventure, Philosophy, Wisdom, Science, Greatness and Growing Up, immediately,\nand take what you learn to school, do not let teachers trick you into cramming and blame it on you.\nThe world is standing still, the sooner you stand up for Wisdom and deliver,\nthe sooner the future will come.\nYou are the teachers now.",
  "images": [],
  "links": []
}