{
  "name": "furkies-purrkies-poetry-0292",
  "title": "Real Education",
  "date": "2020-12-18T01:38:02.697Z",
  "image": "poetry-0292-illustration.jpg",
  "audio": "poetry-0292.mp3",
  "artwork": "https://unsplash.com/photos/elHKkgom1VU",
  "id": "furkies-purrkies-poetry-0292",
  "attachments": {},
  "guid": "b0aee2d0-316a-4296-9e00-6a634be3e157",
  "html": "<div class=\"section\">\n  <p>Mistakes and Misunderstandings divide Humanity today,</p>\n  <p>noting can be done because varying levels of education interfere with unity.</p>\n</div>\n<div class=\"section\">\n  <p>One of the biggest mistakes is ineffective education</p>\n  <p>tricking students into believing that they are educated.</p>\n</div>\n<div class=\"section\">\n  <p>Mis-education, fake education, ineffective education makes us blind,</p>\n  <p>truths and facts are drowned in an ocean of conflicting and equally wrong opinions.</p>\n</div>\n<div class=\"section\">\n  <p>Real education, is the key to unity, to a common grasp on reality,</p>\n  <p>but all the roads there are obscured by confused and confusing chatter.</p>\n</div>\n<div class=\"section\">\n  <p>It is not until we accept the responsibility for our own education,</p>\n  <p>that we will start learning, for real.</p>\n</div>\n<div class=\"section\">\n  <hr>\n</div>\n<div class=\"section\">\n  <p>The biggest mistake is borders,</p>\n  <p>groups of wealthy uneducated people coming together to decide the futures of their nations.</p>\n</div>\n<div class=\"section\">\n  <p>These men claim greatness,</p>\n  <p>and hold up their experience as their proof.</p>\n</div>\n<div class=\"section\">\n  <p>But experience is no substitute for wisdom,</p>\n  <p>on the surface experience makes a person indistinguishable from a wise one.</p>\n</div>\n<div class=\"section\">\n  <p>The first clue to distinguish the two, is found in length of vision,</p>\n  <p>when they get around to speaking of problems of today, they will give excuses that they know - from experience - will hold up.</p>\n</div>\n<div class=\"section\">\n  <p>But they will dismiss the future entirely,</p>\n  <p>because to speak of the future; a person needs a direction, a vision, an objective, a purpose, a wisdom.</p>\n</div>\n<div class=\"section\">\n  <p>Men of experience, are too small minded, too blind and limited, to shallow, to fragile,</p>\n  <p>to see into things that have no impact on them.</p>\n</div>\n<div class=\"section\">\n  <p>Our levels of education are insufficient to directly address the problems that we face today,</p>\n  <p>there are too few well educated, knowledgeable and wise beings to repair anything right now.</p>\n</div>\n<div class=\"section\">\n  <p>An uneducated voting majority is all to easily swayed and misled,</p>\n  <p>and our poverty will prevent our generation from re-learning.</p>\n</div>\n<div class=\"section\">\n  <p>One of the worst things about general poverty,</p>\n  <p>is that it induces a poverty of mind, out of lack of time, out of stress, fear, and discomfort.</p>\n</div>\n<div class=\"section\">\n  <hr>\n</div>\n<div class=\"section\">\n  <p>Reality, has no borders, as climate change and pandemics show us,</p>\n  <p>in reality we are one human family.</p>\n</div>\n<div class=\"section\">\n  <p>And in reality, poverty is tearing the world apart,</p>\n  <p>it is keeping us weak.</p>\n</div>\n<div class=\"section\">\n  <p>In reality, a teenager in a dictatorship on the other side of the world,</p>\n  <p>is your friend, they would love you if you sent them popular snacks from your city, some photos and music.</p>\n</div>\n<div class=\"section\">\n  <p>They are family,</p>\n  <p>there are people out there who would be genuinely kinder to you than some of your own family.</p>\n</div>\n<div class=\"section\">\n  <p>It is sooooo sad that we label each other with the names of our nations,</p>\n  <p>and return to tend to whatever poverty we are facing at the moment.</p>\n</div>\n<div class=\"section\">\n  <p>Internet, student exchange, programs like Peace Corps,</p>\n  <p>and documents like the Universal Declaration of Human Rights help us see in our confused state.</p>\n</div>\n<div class=\"section\">\n  <p>But it is just a tiny sliver of light,</p>\n  <p>poverty of mind alone is almost unaffected by it.</p>\n</div>\n<div class=\"section\">\n  <p>United Nations has its hands tied,</p>\n  <p>without an appropriate level of education General Assembly will stand in a constant state of disagreement.</p>\n</div>\n<div class=\"section\">\n  <hr>\n</div>\n<div class=\"section\">\n  <p>Without a plan to unite, and eliminate poverty,</p>\n  <p>we are all equally wrong.</p>\n</div>\n<div class=\"section\">\n  <p>And we can&apos;t have Unity and Prosperity without Knowledge and Wisdom,</p>\n  <p>liars would instantly invent something that they stand to lose, and tear the world right up.</p>\n</div>\n<div class=\"section\">\n  <p>Do you hear me, do you see what I am saying,</p>\n  <p>we are one, it is all of us, or none.</p>\n</div>\n<div class=\"section\">\n  <hr>\n</div>\n<div class=\"section\">\n  <p>The way to fix it,</p>\n  <p>is by inventing educational programs that really help children to knowledge, wisdom and greatness.</p>\n</div>\n<div class=\"section\">\n  <p>Because until we hold long term visions fueled by Knowledge and Wisdom,</p>\n  <p>the only thing we can agree on, is what the liars want us to believe in.</p>\n</div>\n<div class=\"section\">\n  <p>Real education is the thing that leads us to have thoughts independent to what is on TV and in News Papers,</p>\n  <p>it helps us see who the liars, and mark my words for this sorry year, even when they assume a pleasing shape.</p>\n</div>\n<div class=\"section\">\n  <p>Real Education grants us Intellectual Independence,</p>\n  <p>where audio book by book we all independently gain a valid grasp on reality.</p>\n</div>\n<div class=\"section\">\n  <hr>\n</div>\n<div class=\"section\">\n  <p>Organized education will always bend under the threat of being defunded or kept in poverty,</p>\n  <p>it will help to invent brand name institutions that are only better in the name, but all equally ineffective.</p>\n</div>\n<div class=\"section\">\n  <p>Organized education will rip talent out of children, it will sand it down until they are all equally lost,</p>\n  <p>mixed with poverty most parents won&apos;t even be granted the ability to care about what is happening to the minds of their children, because the babysitting is good.</p>\n</div>\n<div class=\"section\">\n  <p>Organized education ends up causing harm to children&apos;s intellectual development,</p>\n  <p>it holds them back and causes so much stress that it is impossible to learn.</p>\n</div>\n<div class=\"section\">\n  <p>Organized education is such a problem, that even the best minds of our generations,</p>\n  <p>are still thinking about &quot;Free College&quot; - about paying those fraudulent institutions - instead of funding ones that are capable of Real Education.</p>\n</div>\n<div class=\"section\">\n  <hr>\n</div>\n<div class=\"section\">\n  <p>Things are pretty bad, thankfully, we are infinite in our capacity to deal with real dangers,</p>\n  <p>especially the ones that tear tear our family apart.</p>\n</div>\n<div class=\"section\">\n  <hr>\n</div>\n<div class=\"section\">\n  <p>Real education is based on students&apos; predispositions,</p>\n  <p>and curiosities.</p>\n</div>\n<div class=\"section\">\n  <p>For example, when someone is interested in the moon or stars at night,</p>\n  <p>that marks an entry point into Science Fiction, Astrophysics, Astrography and if they continue to care, Optics, Mathematics, Physics, Writing and so on.</p>\n</div>\n<div class=\"section\">\n  <p>Most children won&apos;t care for stars very long, because they are interested in exploring all of the universe,</p>\n  <p>and that is even better because then there is a multitude of passage ways they can use to walk through the sciences.</p>\n</div>\n<div class=\"section\">\n  <p>But it has to be their own walking, their own direction, and at their own pace,</p>\n  <p>we have to honor their predispositions and curiosities, the students are the future.</p>\n</div>\n<div class=\"section\">\n  <p>We have to remove grades, tests, graduation, class rooms, time divisions, subject divisions, rows of seats, groupings of any kind be it age or area of study,</p>\n  <p>we have to replace the teacher with personalized learning and tutors.</p>\n</div>\n<div class=\"section\">\n  <p>And we have to give the students what they need, a telescope, a fast single board computer with all the sensors and servos they could ever need,</p>\n  <p>they need the ability to launch satellites, to operate small remotely operated submarines and small drones, they need access to things they are curious about.</p>\n</div>\n<div class=\"section\">\n  <hr>\n</div>\n<div class=\"section\">\n  <p>If a student is walking the wrong path, then it is a path that has been been walked many times before, they are asking a question, and they need powerful answers,</p>\n  <p>they have to see what war is like, what prisons are like, what concentration camps are like - and what love is like - and they will learn.</p>\n</div>\n<div class=\"section\">\n  <p>At the time of writing this in 2020, I realized that there are three nations that operate concentrations camps,</p>\n  <p>which is probably to say, that there are many; and they need to see that too.</p>\n</div>\n<div class=\"section\">\n  <p>They need to see gang violence, and if they are still around then meet up with Father Gregory Boyle&apos;s boys,</p>\n  <p>for they have surely become Great Beings.</p>\n</div>\n<div class=\"section\">\n  <hr>\n</div>\n<div class=\"section\">\n  <p>Nothing goes wrong in real education,</p>\n  <p>real education is about reality, about really growing up, and really being human.</p>\n</div>\n<div class=\"section\">\n  <p>And when these students grow up, become voters, Senators and Congresswomen and Congressmen,</p>\n  <p>then the liars, and pretenders, will lose their hold on humanity.</p>\n</div>\n<div class=\"section\">\n  <p>And then the members of General Assembly of United nations,</p>\n  <p>can finally have their day, in agreement and unity.</p>\n</div>\n<div class=\"section\">\n  <hr>\n</div>\n<div class=\"section\">\n  <p>My friends,</p>\n  <p>never lose hope.</p>\n</div>\n<div class=\"section\">\n  <p>If something important can&apos;t happen today,</p>\n  <p>it only means that you are to begin building the bridge, for others to eventually get there.</p>\n</div>\n<div class=\"section\">\n  <p>Real Education is the first step,</p>\n  <p>the second is actually many overlapping steps that will happen all at once, all around the world.</p>\n</div>\n<div class=\"section\">\n  <hr>\n</div>\n<div class=\"section\">\n  <p>What you have to do is make sure that the students get to own or hold in their own hands the many tools that they need,</p>\n  <p>to learn, and explore the Human Condition, and The Sciences, and The World, and The Stars; as those are their countless bookmarks and the steppingstones to their boundless steps.</p>\n</div>\n<div class=\"section\">\n  <p>The children want to learn,</p>\n  <p>and that is all the hope Humanity will ever need.</p>\n</div>",
  "bootstrap": "<div class=\"card card-section bg-dark text-warning shadow\">\n  <div class=\"section card-body mb-0 my-2\">\n    <div class=\"paragraph card-text card-stanza my-5 text-center\">Mistakes and Misunderstandings divide Humanity today,</div>\n    <div class=\"paragraph card-text card-stanza my-5 text-center\">noting can be done because varying levels of education interfere with unity.</div>\n  </div>\n</div>\n<div class=\"card card-section bg-dark text-warning shadow\">\n  <div class=\"section card-body mb-0 my-2\">\n    <div class=\"paragraph card-text card-stanza my-5 text-center\">One of the biggest mistakes is ineffective education</div>\n    <div class=\"paragraph card-text card-stanza my-5 text-center\">tricking students into believing that they are educated.</div>\n  </div>\n</div>\n<div class=\"card card-section bg-dark text-warning shadow\">\n  <div class=\"section card-body mb-0 my-2\">\n    <div class=\"paragraph card-text card-stanza my-5 text-center\">Mis-education, fake education, ineffective education makes us blind,</div>\n    <div class=\"paragraph card-text card-stanza my-5 text-center\">truths and facts are drowned in an ocean of conflicting and equally wrong opinions.</div>\n  </div>\n</div>\n<div class=\"card card-section bg-dark text-warning shadow\">\n  <div class=\"section card-body mb-0 my-2\">\n    <div class=\"paragraph card-text card-stanza my-5 text-center\">Real education, is the key to unity, to a common grasp on reality,</div>\n    <div class=\"paragraph card-text card-stanza my-5 text-center\">but all the roads there are obscured by confused and confusing chatter.</div>\n  </div>\n</div>\n<div class=\"card card-section bg-dark text-warning shadow\">\n  <div class=\"section card-body mb-0 my-2\">\n    <div class=\"paragraph card-text card-stanza my-5 text-center\">It is not until we accept the responsibility for our own education,</div>\n    <div class=\"paragraph card-text card-stanza my-5 text-center\">that we will start learning, for real.</div>\n  </div>\n</div>\n<div class=\"mb-5 section-spacer\">&nbsp;</div>\n<div class=\"card card-section bg-dark text-warning shadow\">\n  <div class=\"section card-body mb-0 my-2\">\n    <div class=\"paragraph card-text card-stanza my-5 text-center\">The biggest mistake is borders,</div>\n    <div class=\"paragraph card-text card-stanza my-5 text-center\">groups of wealthy uneducated people coming together to decide the futures of their nations.</div>\n  </div>\n</div>\n<div class=\"card card-section bg-dark text-warning shadow\">\n  <div class=\"section card-body mb-0 my-2\">\n    <div class=\"paragraph card-text card-stanza my-5 text-center\">These men claim greatness,</div>\n    <div class=\"paragraph card-text card-stanza my-5 text-center\">and hold up their experience as their proof.</div>\n  </div>\n</div>\n<div class=\"card card-section bg-dark text-warning shadow\">\n  <div class=\"section card-body mb-0 my-2\">\n    <div class=\"paragraph card-text card-stanza my-5 text-center\">But experience is no substitute for wisdom,</div>\n    <div class=\"paragraph card-text card-stanza my-5 text-center\">on the surface experience makes a person indistinguishable from a wise one.</div>\n  </div>\n</div>\n<div class=\"card card-section bg-dark text-warning shadow\">\n  <div class=\"section card-body mb-0 my-2\">\n    <div class=\"paragraph card-text card-stanza my-5 text-center\">The first clue to distinguish the two, is found in length of vision,</div>\n    <div class=\"paragraph card-text card-stanza my-5 text-center\">when they get around to speaking of problems of today, they will give excuses that they know - from experience - will hold up.</div>\n  </div>\n</div>\n<div class=\"card card-section bg-dark text-warning shadow\">\n  <div class=\"section card-body mb-0 my-2\">\n    <div class=\"paragraph card-text card-stanza my-5 text-center\">But they will dismiss the future entirely,</div>\n    <div class=\"paragraph card-text card-stanza my-5 text-center\">because to speak of the future; a person needs a direction, a vision, an objective, a purpose, a wisdom.</div>\n  </div>\n</div>\n<div class=\"card card-section bg-dark text-warning shadow\">\n  <div class=\"section card-body mb-0 my-2\">\n    <div class=\"paragraph card-text card-stanza my-5 text-center\">Men of experience, are too small minded, too blind and limited, to shallow, to fragile,</div>\n    <div class=\"paragraph card-text card-stanza my-5 text-center\">to see into things that have no impact on them.</div>\n  </div>\n</div>\n<div class=\"card card-section bg-dark text-warning shadow\">\n  <div class=\"section card-body mb-0 my-2\">\n    <div class=\"paragraph card-text card-stanza my-5 text-center\">Our levels of education are insufficient to directly address the problems that we face today,</div>\n    <div class=\"paragraph card-text card-stanza my-5 text-center\">there are too few well educated, knowledgeable and wise beings to repair anything right now.</div>\n  </div>\n</div>\n<div class=\"card card-section bg-dark text-warning shadow\">\n  <div class=\"section card-body mb-0 my-2\">\n    <div class=\"paragraph card-text card-stanza my-5 text-center\">An uneducated voting majority is all to easily swayed and misled,</div>\n    <div class=\"paragraph card-text card-stanza my-5 text-center\">and our poverty will prevent our generation from re-learning.</div>\n  </div>\n</div>\n<div class=\"card card-section bg-dark text-warning shadow\">\n  <div class=\"section card-body mb-0 my-2\">\n    <div class=\"paragraph card-text card-stanza my-5 text-center\">One of the worst things about general poverty,</div>\n    <div class=\"paragraph card-text card-stanza my-5 text-center\">is that it induces a poverty of mind, out of lack of time, out of stress, fear, and discomfort.</div>\n  </div>\n</div>\n<div class=\"mb-5 section-spacer\">&nbsp;</div>\n<div class=\"card card-section bg-dark text-warning shadow\">\n  <div class=\"section card-body mb-0 my-2\">\n    <div class=\"paragraph card-text card-stanza my-5 text-center\">Reality, has no borders, as climate change and pandemics show us,</div>\n    <div class=\"paragraph card-text card-stanza my-5 text-center\">in reality we are one human family.</div>\n  </div>\n</div>\n<div class=\"card card-section bg-dark text-warning shadow\">\n  <div class=\"section card-body mb-0 my-2\">\n    <div class=\"paragraph card-text card-stanza my-5 text-center\">And in reality, poverty is tearing the world apart,</div>\n    <div class=\"paragraph card-text card-stanza my-5 text-center\">it is keeping us weak.</div>\n  </div>\n</div>\n<div class=\"card card-section bg-dark text-warning shadow\">\n  <div class=\"section card-body mb-0 my-2\">\n    <div class=\"paragraph card-text card-stanza my-5 text-center\">In reality, a teenager in a dictatorship on the other side of the world,</div>\n    <div class=\"paragraph card-text card-stanza my-5 text-center\">is your friend, they would love you if you sent them popular snacks from your city, some photos and music.</div>\n  </div>\n</div>\n<div class=\"card card-section bg-dark text-warning shadow\">\n  <div class=\"section card-body mb-0 my-2\">\n    <div class=\"paragraph card-text card-stanza my-5 text-center\">They are family,</div>\n    <div class=\"paragraph card-text card-stanza my-5 text-center\">there are people out there who would be genuinely kinder to you than some of your own family.</div>\n  </div>\n</div>\n<div class=\"card card-section bg-dark text-warning shadow\">\n  <div class=\"section card-body mb-0 my-2\">\n    <div class=\"paragraph card-text card-stanza my-5 text-center\">It is sooooo sad that we label each other with the names of our nations,</div>\n    <div class=\"paragraph card-text card-stanza my-5 text-center\">and return to tend to whatever poverty we are facing at the moment.</div>\n  </div>\n</div>\n<div class=\"card card-section bg-dark text-warning shadow\">\n  <div class=\"section card-body mb-0 my-2\">\n    <div class=\"paragraph card-text card-stanza my-5 text-center\">Internet, student exchange, programs like Peace Corps,</div>\n    <div class=\"paragraph card-text card-stanza my-5 text-center\">and documents like the Universal Declaration of Human Rights help us see in our confused state.</div>\n  </div>\n</div>\n<div class=\"card card-section bg-dark text-warning shadow\">\n  <div class=\"section card-body mb-0 my-2\">\n    <div class=\"paragraph card-text card-stanza my-5 text-center\">But it is just a tiny sliver of light,</div>\n    <div class=\"paragraph card-text card-stanza my-5 text-center\">poverty of mind alone is almost unaffected by it.</div>\n  </div>\n</div>\n<div class=\"card card-section bg-dark text-warning shadow\">\n  <div class=\"section card-body mb-0 my-2\">\n    <div class=\"paragraph card-text card-stanza my-5 text-center\">United Nations has its hands tied,</div>\n    <div class=\"paragraph card-text card-stanza my-5 text-center\">without an appropriate level of education General Assembly will stand in a constant state of disagreement.</div>\n  </div>\n</div>\n<div class=\"mb-5 section-spacer\">&nbsp;</div>\n<div class=\"card card-section bg-dark text-warning shadow\">\n  <div class=\"section card-body mb-0 my-2\">\n    <div class=\"paragraph card-text card-stanza my-5 text-center\">Without a plan to unite, and eliminate poverty,</div>\n    <div class=\"paragraph card-text card-stanza my-5 text-center\">we are all equally wrong.</div>\n  </div>\n</div>\n<div class=\"card card-section bg-dark text-warning shadow\">\n  <div class=\"section card-body mb-0 my-2\">\n    <div class=\"paragraph card-text card-stanza my-5 text-center\">And we can't have Unity and Prosperity without Knowledge and Wisdom,</div>\n    <div class=\"paragraph card-text card-stanza my-5 text-center\">liars would instantly invent something that they stand to lose, and tear the world right up.</div>\n  </div>\n</div>\n<div class=\"card card-section bg-dark text-warning shadow\">\n  <div class=\"section card-body mb-0 my-2\">\n    <div class=\"paragraph card-text card-stanza my-5 text-center\">Do you hear me, do you see what I am saying,</div>\n    <div class=\"paragraph card-text card-stanza my-5 text-center\">we are one, it is all of us, or none.</div>\n  </div>\n</div>\n<div class=\"mb-5 section-spacer\">&nbsp;</div>\n<div class=\"card card-section bg-dark text-warning shadow\">\n  <div class=\"section card-body mb-0 my-2\">\n    <div class=\"paragraph card-text card-stanza my-5 text-center\">The way to fix it,</div>\n    <div class=\"paragraph card-text card-stanza my-5 text-center\">is by inventing educational programs that really help children to knowledge, wisdom and greatness.</div>\n  </div>\n</div>\n<div class=\"card card-section bg-dark text-warning shadow\">\n  <div class=\"section card-body mb-0 my-2\">\n    <div class=\"paragraph card-text card-stanza my-5 text-center\">Because until we hold long term visions fueled by Knowledge and Wisdom,</div>\n    <div class=\"paragraph card-text card-stanza my-5 text-center\">the only thing we can agree on, is what the liars want us to believe in.</div>\n  </div>\n</div>\n<div class=\"card card-section bg-dark text-warning shadow\">\n  <div class=\"section card-body mb-0 my-2\">\n    <div class=\"paragraph card-text card-stanza my-5 text-center\">Real education is the thing that leads us to have thoughts independent to what is on TV and in News Papers,</div>\n    <div class=\"paragraph card-text card-stanza my-5 text-center\">it helps us see who the liars, and mark my words for this sorry year, even when they assume a pleasing shape.</div>\n  </div>\n</div>\n<div class=\"card card-section bg-dark text-warning shadow\">\n  <div class=\"section card-body mb-0 my-2\">\n    <div class=\"paragraph card-text card-stanza my-5 text-center\">Real Education grants us Intellectual Independence,</div>\n    <div class=\"paragraph card-text card-stanza my-5 text-center\">where audio book by book we all independently gain a valid grasp on reality.</div>\n  </div>\n</div>\n<div class=\"mb-5 section-spacer\">&nbsp;</div>\n<div class=\"card card-section bg-dark text-warning shadow\">\n  <div class=\"section card-body mb-0 my-2\">\n    <div class=\"paragraph card-text card-stanza my-5 text-center\">Organized education will always bend under the threat of being defunded or kept in poverty,</div>\n    <div class=\"paragraph card-text card-stanza my-5 text-center\">it will help to invent brand name institutions that are only better in the name, but all equally ineffective.</div>\n  </div>\n</div>\n<div class=\"card card-section bg-dark text-warning shadow\">\n  <div class=\"section card-body mb-0 my-2\">\n    <div class=\"paragraph card-text card-stanza my-5 text-center\">Organized education will rip talent out of children, it will sand it down until they are all equally lost,</div>\n    <div class=\"paragraph card-text card-stanza my-5 text-center\">mixed with poverty most parents won't even be granted the ability to care about what is happening to the minds of their children, because the babysitting is good.</div>\n  </div>\n</div>\n<div class=\"card card-section bg-dark text-warning shadow\">\n  <div class=\"section card-body mb-0 my-2\">\n    <div class=\"paragraph card-text card-stanza my-5 text-center\">Organized education ends up causing harm to children's intellectual development,</div>\n    <div class=\"paragraph card-text card-stanza my-5 text-center\">it holds them back and causes so much stress that it is impossible to learn.</div>\n  </div>\n</div>\n<div class=\"card card-section bg-dark text-warning shadow\">\n  <div class=\"section card-body mb-0 my-2\">\n    <div class=\"paragraph card-text card-stanza my-5 text-center\">Organized education is such a problem, that even the best minds of our generations,</div>\n    <div class=\"paragraph card-text card-stanza my-5 text-center\">are still thinking about \"Free College\" - about paying those fraudulent institutions - instead of funding ones that are capable of Real Education.</div>\n  </div>\n</div>\n<div class=\"mb-5 section-spacer\">&nbsp;</div>\n<div class=\"card card-section bg-dark text-warning shadow\">\n  <div class=\"section card-body mb-0 my-2\">\n    <div class=\"paragraph card-text card-stanza my-5 text-center\">Things are pretty bad, thankfully, we are infinite in our capacity to deal with real dangers,</div>\n    <div class=\"paragraph card-text card-stanza my-5 text-center\">especially the ones that tear tear our family apart.</div>\n  </div>\n</div>\n<div class=\"mb-5 section-spacer\">&nbsp;</div>\n<div class=\"card card-section bg-dark text-warning shadow\">\n  <div class=\"section card-body mb-0 my-2\">\n    <div class=\"paragraph card-text card-stanza my-5 text-center\">Real education is based on students' predispositions,</div>\n    <div class=\"paragraph card-text card-stanza my-5 text-center\">and curiosities.</div>\n  </div>\n</div>\n<div class=\"card card-section bg-dark text-warning shadow\">\n  <div class=\"section card-body mb-0 my-2\">\n    <div class=\"paragraph card-text card-stanza my-5 text-center\">For example, when someone is interested in the moon or stars at night,</div>\n    <div class=\"paragraph card-text card-stanza my-5 text-center\">that marks an entry point into Science Fiction, Astrophysics, Astrography and if they continue to care, Optics, Mathematics, Physics, Writing and so on.</div>\n  </div>\n</div>\n<div class=\"card card-section bg-dark text-warning shadow\">\n  <div class=\"section card-body mb-0 my-2\">\n    <div class=\"paragraph card-text card-stanza my-5 text-center\">Most children won't care for stars very long, because they are interested in exploring all of the universe,</div>\n    <div class=\"paragraph card-text card-stanza my-5 text-center\">and that is even better because then there is a multitude of passage ways they can use to walk through the sciences.</div>\n  </div>\n</div>\n<div class=\"card card-section bg-dark text-warning shadow\">\n  <div class=\"section card-body mb-0 my-2\">\n    <div class=\"paragraph card-text card-stanza my-5 text-center\">But it has to be their own walking, their own direction, and at their own pace,</div>\n    <div class=\"paragraph card-text card-stanza my-5 text-center\">we have to honor their predispositions and curiosities, the students are the future.</div>\n  </div>\n</div>\n<div class=\"card card-section bg-dark text-warning shadow\">\n  <div class=\"section card-body mb-0 my-2\">\n    <div class=\"paragraph card-text card-stanza my-5 text-center\">We have to remove grades, tests, graduation, class rooms, time divisions, subject divisions, rows of seats, groupings of any kind be it age or area of study,</div>\n    <div class=\"paragraph card-text card-stanza my-5 text-center\">we have to replace the teacher with personalized learning and tutors.</div>\n  </div>\n</div>\n<div class=\"card card-section bg-dark text-warning shadow\">\n  <div class=\"section card-body mb-0 my-2\">\n    <div class=\"paragraph card-text card-stanza my-5 text-center\">And we have to give the students what they need, a telescope, a fast single board computer with all the sensors and servos they could ever need,</div>\n    <div class=\"paragraph card-text card-stanza my-5 text-center\">they need the ability to launch satellites, to operate small remotely operated submarines and small drones, they need access to things they are curious about.</div>\n  </div>\n</div>\n<div class=\"mb-5 section-spacer\">&nbsp;</div>\n<div class=\"card card-section bg-dark text-warning shadow\">\n  <div class=\"section card-body mb-0 my-2\">\n    <div class=\"paragraph card-text card-stanza my-5 text-center\">If a student is walking the wrong path, then it is a path that has been been walked many times before, they are asking a question, and they need powerful answers,</div>\n    <div class=\"paragraph card-text card-stanza my-5 text-center\">they have to see what war is like, what prisons are like, what concentration camps are like - and what love is like - and they will learn.</div>\n  </div>\n</div>\n<div class=\"card card-section bg-dark text-warning shadow\">\n  <div class=\"section card-body mb-0 my-2\">\n    <div class=\"paragraph card-text card-stanza my-5 text-center\">At the time of writing this in 2020, I realized that there are three nations that operate concentrations camps,</div>\n    <div class=\"paragraph card-text card-stanza my-5 text-center\">which is probably to say, that there are many; and they need to see that too.</div>\n  </div>\n</div>\n<div class=\"card card-section bg-dark text-warning shadow\">\n  <div class=\"section card-body mb-0 my-2\">\n    <div class=\"paragraph card-text card-stanza my-5 text-center\">They need to see gang violence, and if they are still around then meet up with Father Gregory Boyle's boys,</div>\n    <div class=\"paragraph card-text card-stanza my-5 text-center\">for they have surely become Great Beings.</div>\n  </div>\n</div>\n<div class=\"mb-5 section-spacer\">&nbsp;</div>\n<div class=\"card card-section bg-dark text-warning shadow\">\n  <div class=\"section card-body mb-0 my-2\">\n    <div class=\"paragraph card-text card-stanza my-5 text-center\">Nothing goes wrong in real education,</div>\n    <div class=\"paragraph card-text card-stanza my-5 text-center\">real education is about reality, about really growing up, and really being human.</div>\n  </div>\n</div>\n<div class=\"card card-section bg-dark text-warning shadow\">\n  <div class=\"section card-body mb-0 my-2\">\n    <div class=\"paragraph card-text card-stanza my-5 text-center\">And when these students grow up, become voters, Senators and Congresswomen and Congressmen,</div>\n    <div class=\"paragraph card-text card-stanza my-5 text-center\">then the liars, and pretenders, will lose their hold on humanity.</div>\n  </div>\n</div>\n<div class=\"card card-section bg-dark text-warning shadow\">\n  <div class=\"section card-body mb-0 my-2\">\n    <div class=\"paragraph card-text card-stanza my-5 text-center\">And then the members of General Assembly of United nations,</div>\n    <div class=\"paragraph card-text card-stanza my-5 text-center\">can finally have their day, in agreement and unity.</div>\n  </div>\n</div>\n<div class=\"mb-5 section-spacer\">&nbsp;</div>\n<div class=\"card card-section bg-dark text-warning shadow\">\n  <div class=\"section card-body mb-0 my-2\">\n    <div class=\"paragraph card-text card-stanza my-5 text-center\">My friends,</div>\n    <div class=\"paragraph card-text card-stanza my-5 text-center\">never lose hope.</div>\n  </div>\n</div>\n<div class=\"card card-section bg-dark text-warning shadow\">\n  <div class=\"section card-body mb-0 my-2\">\n    <div class=\"paragraph card-text card-stanza my-5 text-center\">If something important can't happen today,</div>\n    <div class=\"paragraph card-text card-stanza my-5 text-center\">it only means that you are to begin building the bridge, for others to eventually get there.</div>\n  </div>\n</div>\n<div class=\"card card-section bg-dark text-warning shadow\">\n  <div class=\"section card-body mb-0 my-2\">\n    <div class=\"paragraph card-text card-stanza my-5 text-center\">Real Education is the first step,</div>\n    <div class=\"paragraph card-text card-stanza my-5 text-center\">the second is actually many overlapping steps that will happen all at once, all around the world.</div>\n  </div>\n</div>\n<div class=\"mb-5 section-spacer\">&nbsp;</div>\n<div class=\"card card-section bg-dark text-warning shadow\">\n  <div class=\"section card-body mb-0 my-2\">\n    <div class=\"paragraph card-text card-stanza my-5 text-center\">What you have to do is make sure that the students get to own or hold in their own hands the many tools that they need,</div>\n    <div class=\"paragraph card-text card-stanza my-5 text-center\">to learn, and explore the Human Condition, and The Sciences, and The World, and The Stars; as those are their countless bookmarks and the steppingstones to their boundless steps.</div>\n  </div>\n</div>\n<div class=\"card card-section bg-dark text-warning shadow\">\n  <div class=\"section card-body mb-0 my-2\">\n    <div class=\"paragraph card-text card-stanza my-5 text-center\">The children want to learn,</div>\n    <div class=\"paragraph card-text card-stanza my-5 text-center\">and that is all the hope Humanity will ever need.</div>\n  </div>\n</div>",
  "print": "<div class=\"section avoid-break-inside\" style=\"padding-bottom: 2rem;\">\n  <div class=\"paragraph\">Mistakes and Misunderstandings divide Humanity today,</div>\n  <div class=\"paragraph\">noting can be done because varying levels of education interfere with unity.</div>\n</div>\n<div class=\"section avoid-break-inside\" style=\"padding-bottom: 2rem;\">\n  <div class=\"paragraph\">One of the biggest mistakes is ineffective education</div>\n  <div class=\"paragraph\">tricking students into believing that they are educated.</div>\n</div>\n<div class=\"section avoid-break-inside\" style=\"padding-bottom: 2rem;\">\n  <div class=\"paragraph\">Mis-education, fake education, ineffective education makes us blind,</div>\n  <div class=\"paragraph\">truths and facts are drowned in an ocean of conflicting and equally wrong opinions.</div>\n</div>\n<div class=\"section avoid-break-inside\" style=\"padding-bottom: 2rem;\">\n  <div class=\"paragraph\">Real education, is the key to unity, to a common grasp on reality,</div>\n  <div class=\"paragraph\">but all the roads there are obscured by confused and confusing chatter.</div>\n</div>\n<div class=\"section avoid-break-inside\" style=\"padding-bottom: 2rem;\">\n  <div class=\"paragraph\">It is not until we accept the responsibility for our own education,</div>\n  <div class=\"paragraph\">that we will start learning, for real.</div>\n</div>\n<div class=\"section avoid-break-inside\" style=\"padding-bottom: 2rem;\">\n  <br>\n</div>\n<div class=\"section avoid-break-inside\" style=\"padding-bottom: 2rem;\">\n  <div class=\"paragraph\">The biggest mistake is borders,</div>\n  <div class=\"paragraph\">groups of wealthy uneducated people coming together to decide the futures of their nations.</div>\n</div>\n<div class=\"section avoid-break-inside\" style=\"padding-bottom: 2rem;\">\n  <div class=\"paragraph\">These men claim greatness,</div>\n  <div class=\"paragraph\">and hold up their experience as their proof.</div>\n</div>\n<div class=\"section avoid-break-inside\" style=\"padding-bottom: 2rem;\">\n  <div class=\"paragraph\">But experience is no substitute for wisdom,</div>\n  <div class=\"paragraph\">on the surface experience makes a person indistinguishable from a wise one.</div>\n</div>\n<div class=\"section avoid-break-inside\" style=\"padding-bottom: 2rem;\">\n  <div class=\"paragraph\">The first clue to distinguish the two, is found in length of vision,</div>\n  <div class=\"paragraph\">when they get around to speaking of problems of today, they will give excuses that they know - from experience - will hold up.</div>\n</div>\n<div class=\"section avoid-break-inside\" style=\"padding-bottom: 2rem;\">\n  <div class=\"paragraph\">But they will dismiss the future entirely,</div>\n  <div class=\"paragraph\">because to speak of the future; a person needs a direction, a vision, an objective, a purpose, a wisdom.</div>\n</div>\n<div class=\"section avoid-break-inside\" style=\"padding-bottom: 2rem;\">\n  <div class=\"paragraph\">Men of experience, are too small minded, too blind and limited, to shallow, to fragile,</div>\n  <div class=\"paragraph\">to see into things that have no impact on them.</div>\n</div>\n<div class=\"section avoid-break-inside\" style=\"padding-bottom: 2rem;\">\n  <div class=\"paragraph\">Our levels of education are insufficient to directly address the problems that we face today,</div>\n  <div class=\"paragraph\">there are too few well educated, knowledgeable and wise beings to repair anything right now.</div>\n</div>\n<div class=\"section avoid-break-inside\" style=\"padding-bottom: 2rem;\">\n  <div class=\"paragraph\">An uneducated voting majority is all to easily swayed and misled,</div>\n  <div class=\"paragraph\">and our poverty will prevent our generation from re-learning.</div>\n</div>\n<div class=\"section avoid-break-inside\" style=\"padding-bottom: 2rem;\">\n  <div class=\"paragraph\">One of the worst things about general poverty,</div>\n  <div class=\"paragraph\">is that it induces a poverty of mind, out of lack of time, out of stress, fear, and discomfort.</div>\n</div>\n<div class=\"section avoid-break-inside\" style=\"padding-bottom: 2rem;\">\n  <br>\n</div>\n<div class=\"section avoid-break-inside\" style=\"padding-bottom: 2rem;\">\n  <div class=\"paragraph\">Reality, has no borders, as climate change and pandemics show us,</div>\n  <div class=\"paragraph\">in reality we are one human family.</div>\n</div>\n<div class=\"section avoid-break-inside\" style=\"padding-bottom: 2rem;\">\n  <div class=\"paragraph\">And in reality, poverty is tearing the world apart,</div>\n  <div class=\"paragraph\">it is keeping us weak.</div>\n</div>\n<div class=\"section avoid-break-inside\" style=\"padding-bottom: 2rem;\">\n  <div class=\"paragraph\">In reality, a teenager in a dictatorship on the other side of the world,</div>\n  <div class=\"paragraph\">is your friend, they would love you if you sent them popular snacks from your city, some photos and music.</div>\n</div>\n<div class=\"section avoid-break-inside\" style=\"padding-bottom: 2rem;\">\n  <div class=\"paragraph\">They are family,</div>\n  <div class=\"paragraph\">there are people out there who would be genuinely kinder to you than some of your own family.</div>\n</div>\n<div class=\"section avoid-break-inside\" style=\"padding-bottom: 2rem;\">\n  <div class=\"paragraph\">It is sooooo sad that we label each other with the names of our nations,</div>\n  <div class=\"paragraph\">and return to tend to whatever poverty we are facing at the moment.</div>\n</div>\n<div class=\"section avoid-break-inside\" style=\"padding-bottom: 2rem;\">\n  <div class=\"paragraph\">Internet, student exchange, programs like Peace Corps,</div>\n  <div class=\"paragraph\">and documents like the Universal Declaration of Human Rights help us see in our confused state.</div>\n</div>\n<div class=\"section avoid-break-inside\" style=\"padding-bottom: 2rem;\">\n  <div class=\"paragraph\">But it is just a tiny sliver of light,</div>\n  <div class=\"paragraph\">poverty of mind alone is almost unaffected by it.</div>\n</div>\n<div class=\"section avoid-break-inside\" style=\"padding-bottom: 2rem;\">\n  <div class=\"paragraph\">United Nations has its hands tied,</div>\n  <div class=\"paragraph\">without an appropriate level of education General Assembly will stand in a constant state of disagreement.</div>\n</div>\n<div class=\"section avoid-break-inside\" style=\"padding-bottom: 2rem;\">\n  <br>\n</div>\n<div class=\"section avoid-break-inside\" style=\"padding-bottom: 2rem;\">\n  <div class=\"paragraph\">Without a plan to unite, and eliminate poverty,</div>\n  <div class=\"paragraph\">we are all equally wrong.</div>\n</div>\n<div class=\"section avoid-break-inside\" style=\"padding-bottom: 2rem;\">\n  <div class=\"paragraph\">And we can't have Unity and Prosperity without Knowledge and Wisdom,</div>\n  <div class=\"paragraph\">liars would instantly invent something that they stand to lose, and tear the world right up.</div>\n</div>\n<div class=\"section avoid-break-inside\" style=\"padding-bottom: 2rem;\">\n  <div class=\"paragraph\">Do you hear me, do you see what I am saying,</div>\n  <div class=\"paragraph\">we are one, it is all of us, or none.</div>\n</div>\n<div class=\"section avoid-break-inside\" style=\"padding-bottom: 2rem;\">\n  <br>\n</div>\n<div class=\"section avoid-break-inside\" style=\"padding-bottom: 2rem;\">\n  <div class=\"paragraph\">The way to fix it,</div>\n  <div class=\"paragraph\">is by inventing educational programs that really help children to knowledge, wisdom and greatness.</div>\n</div>\n<div class=\"section avoid-break-inside\" style=\"padding-bottom: 2rem;\">\n  <div class=\"paragraph\">Because until we hold long term visions fueled by Knowledge and Wisdom,</div>\n  <div class=\"paragraph\">the only thing we can agree on, is what the liars want us to believe in.</div>\n</div>\n<div class=\"section avoid-break-inside\" style=\"padding-bottom: 2rem;\">\n  <div class=\"paragraph\">Real education is the thing that leads us to have thoughts independent to what is on TV and in News Papers,</div>\n  <div class=\"paragraph\">it helps us see who the liars, and mark my words for this sorry year, even when they assume a pleasing shape.</div>\n</div>\n<div class=\"section avoid-break-inside\" style=\"padding-bottom: 2rem;\">\n  <div class=\"paragraph\">Real Education grants us Intellectual Independence,</div>\n  <div class=\"paragraph\">where audio book by book we all independently gain a valid grasp on reality.</div>\n</div>\n<div class=\"section avoid-break-inside\" style=\"padding-bottom: 2rem;\">\n  <br>\n</div>\n<div class=\"section avoid-break-inside\" style=\"padding-bottom: 2rem;\">\n  <div class=\"paragraph\">Organized education will always bend under the threat of being defunded or kept in poverty,</div>\n  <div class=\"paragraph\">it will help to invent brand name institutions that are only better in the name, but all equally ineffective.</div>\n</div>\n<div class=\"section avoid-break-inside\" style=\"padding-bottom: 2rem;\">\n  <div class=\"paragraph\">Organized education will rip talent out of children, it will sand it down until they are all equally lost,</div>\n  <div class=\"paragraph\">mixed with poverty most parents won't even be granted the ability to care about what is happening to the minds of their children, because the babysitting is good.</div>\n</div>\n<div class=\"section avoid-break-inside\" style=\"padding-bottom: 2rem;\">\n  <div class=\"paragraph\">Organized education ends up causing harm to children's intellectual development,</div>\n  <div class=\"paragraph\">it holds them back and causes so much stress that it is impossible to learn.</div>\n</div>\n<div class=\"section avoid-break-inside\" style=\"padding-bottom: 2rem;\">\n  <div class=\"paragraph\">Organized education is such a problem, that even the best minds of our generations,</div>\n  <div class=\"paragraph\">are still thinking about \"Free College\" - about paying those fraudulent institutions - instead of funding ones that are capable of Real Education.</div>\n</div>\n<div class=\"section avoid-break-inside\" style=\"padding-bottom: 2rem;\">\n  <br>\n</div>\n<div class=\"section avoid-break-inside\" style=\"padding-bottom: 2rem;\">\n  <div class=\"paragraph\">Things are pretty bad, thankfully, we are infinite in our capacity to deal with real dangers,</div>\n  <div class=\"paragraph\">especially the ones that tear tear our family apart.</div>\n</div>\n<div class=\"section avoid-break-inside\" style=\"padding-bottom: 2rem;\">\n  <br>\n</div>\n<div class=\"section avoid-break-inside\" style=\"padding-bottom: 2rem;\">\n  <div class=\"paragraph\">Real education is based on students' predispositions,</div>\n  <div class=\"paragraph\">and curiosities.</div>\n</div>\n<div class=\"section avoid-break-inside\" style=\"padding-bottom: 2rem;\">\n  <div class=\"paragraph\">For example, when someone is interested in the moon or stars at night,</div>\n  <div class=\"paragraph\">that marks an entry point into Science Fiction, Astrophysics, Astrography and if they continue to care, Optics, Mathematics, Physics, Writing and so on.</div>\n</div>\n<div class=\"section avoid-break-inside\" style=\"padding-bottom: 2rem;\">\n  <div class=\"paragraph\">Most children won't care for stars very long, because they are interested in exploring all of the universe,</div>\n  <div class=\"paragraph\">and that is even better because then there is a multitude of passage ways they can use to walk through the sciences.</div>\n</div>\n<div class=\"section avoid-break-inside\" style=\"padding-bottom: 2rem;\">\n  <div class=\"paragraph\">But it has to be their own walking, their own direction, and at their own pace,</div>\n  <div class=\"paragraph\">we have to honor their predispositions and curiosities, the students are the future.</div>\n</div>\n<div class=\"section avoid-break-inside\" style=\"padding-bottom: 2rem;\">\n  <div class=\"paragraph\">We have to remove grades, tests, graduation, class rooms, time divisions, subject divisions, rows of seats, groupings of any kind be it age or area of study,</div>\n  <div class=\"paragraph\">we have to replace the teacher with personalized learning and tutors.</div>\n</div>\n<div class=\"section avoid-break-inside\" style=\"padding-bottom: 2rem;\">\n  <div class=\"paragraph\">And we have to give the students what they need, a telescope, a fast single board computer with all the sensors and servos they could ever need,</div>\n  <div class=\"paragraph\">they need the ability to launch satellites, to operate small remotely operated submarines and small drones, they need access to things they are curious about.</div>\n</div>\n<div class=\"section avoid-break-inside\" style=\"padding-bottom: 2rem;\">\n  <br>\n</div>\n<div class=\"section avoid-break-inside\" style=\"padding-bottom: 2rem;\">\n  <div class=\"paragraph\">If a student is walking the wrong path, then it is a path that has been been walked many times before, they are asking a question, and they need powerful answers,</div>\n  <div class=\"paragraph\">they have to see what war is like, what prisons are like, what concentration camps are like - and what love is like - and they will learn.</div>\n</div>\n<div class=\"section avoid-break-inside\" style=\"padding-bottom: 2rem;\">\n  <div class=\"paragraph\">At the time of writing this in 2020, I realized that there are three nations that operate concentrations camps,</div>\n  <div class=\"paragraph\">which is probably to say, that there are many; and they need to see that too.</div>\n</div>\n<div class=\"section avoid-break-inside\" style=\"padding-bottom: 2rem;\">\n  <div class=\"paragraph\">They need to see gang violence, and if they are still around then meet up with Father Gregory Boyle's boys,</div>\n  <div class=\"paragraph\">for they have surely become Great Beings.</div>\n</div>\n<div class=\"section avoid-break-inside\" style=\"padding-bottom: 2rem;\">\n  <br>\n</div>\n<div class=\"section avoid-break-inside\" style=\"padding-bottom: 2rem;\">\n  <div class=\"paragraph\">Nothing goes wrong in real education,</div>\n  <div class=\"paragraph\">real education is about reality, about really growing up, and really being human.</div>\n</div>\n<div class=\"section avoid-break-inside\" style=\"padding-bottom: 2rem;\">\n  <div class=\"paragraph\">And when these students grow up, become voters, Senators and Congresswomen and Congressmen,</div>\n  <div class=\"paragraph\">then the liars, and pretenders, will lose their hold on humanity.</div>\n</div>\n<div class=\"section avoid-break-inside\" style=\"padding-bottom: 2rem;\">\n  <div class=\"paragraph\">And then the members of General Assembly of United nations,</div>\n  <div class=\"paragraph\">can finally have their day, in agreement and unity.</div>\n</div>\n<div class=\"section avoid-break-inside\" style=\"padding-bottom: 2rem;\">\n  <br>\n</div>\n<div class=\"section avoid-break-inside\" style=\"padding-bottom: 2rem;\">\n  <div class=\"paragraph\">My friends,</div>\n  <div class=\"paragraph\">never lose hope.</div>\n</div>\n<div class=\"section avoid-break-inside\" style=\"padding-bottom: 2rem;\">\n  <div class=\"paragraph\">If something important can't happen today,</div>\n  <div class=\"paragraph\">it only means that you are to begin building the bridge, for others to eventually get there.</div>\n</div>\n<div class=\"section avoid-break-inside\" style=\"padding-bottom: 2rem;\">\n  <div class=\"paragraph\">Real Education is the first step,</div>\n  <div class=\"paragraph\">the second is actually many overlapping steps that will happen all at once, all around the world.</div>\n</div>\n<div class=\"section avoid-break-inside\" style=\"padding-bottom: 2rem;\">\n  <br>\n</div>\n<div class=\"section avoid-break-inside\" style=\"padding-bottom: 2rem;\">\n  <div class=\"paragraph\">What you have to do is make sure that the students get to own or hold in their own hands the many tools that they need,</div>\n  <div class=\"paragraph\">to learn, and explore the Human Condition, and The Sciences, and The World, and The Stars; as those are their countless bookmarks and the steppingstones to their boundless steps.</div>\n</div>\n<div class=\"section avoid-break-inside\" style=\"padding-bottom: 2rem;\">\n  <div class=\"paragraph\">The children want to learn,</div>\n  <div class=\"paragraph\">and that is all the hope Humanity will ever need.</div>\n</div>",
  "text": "Mistakes and Misunderstandings divide Humanity today,\nnoting can be done because varying levels of education interfere with unity.\nOne of the biggest mistakes is ineffective education\ntricking students into believing that they are educated.\nMis-education, fake education, ineffective education makes us blind,\ntruths and facts are drowned in an ocean of conflicting and equally wrong opinions.\nReal education, is the key to unity, to a common grasp on reality,\nbut all the roads there are obscured by confused and confusing chatter.\nIt is not until we accept the responsibility for our own education,\nthat we will start learning, for real.\n\nThe biggest mistake is borders,\ngroups of wealthy uneducated people coming together to decide the futures of their nations.\nThese men claim greatness,\nand hold up their experience as their proof.\nBut experience is no substitute for wisdom,\non the surface experience makes a person indistinguishable from a wise one.\nThe first clue to distinguish the two, is found in length of vision,\nwhen they get around to speaking of problems of today, they will give excuses that they know - from experience - will hold up.\nBut they will dismiss the future entirely,\nbecause to speak of the future; a person needs a direction, a vision, an objective, a purpose, a wisdom.\nMen of experience, are too small minded, too blind and limited, to shallow, to fragile,\nto see into things that have no impact on them.\nOur levels of education are insufficient to directly address the problems that we face today,\nthere are too few well educated, knowledgeable and wise beings to repair anything right now.\nAn uneducated voting majority is all to easily swayed and misled,\nand our poverty will prevent our generation from re-learning.\nOne of the worst things about general poverty,\nis that it induces a poverty of mind, out of lack of time, out of stress, fear, and discomfort.\n\nReality, has no borders, as climate change and pandemics show us,\nin reality we are one human family.\nAnd in reality, poverty is tearing the world apart,\nit is keeping us weak.\nIn reality, a teenager in a dictatorship on the other side of the world,\nis your friend, they would love you if you sent them popular snacks from your city, some photos and music.\nThey are family,\nthere are people out there who would be genuinely kinder to you than some of your own family.\nIt is sooooo sad that we label each other with the names of our nations,\nand return to tend to whatever poverty we are facing at the moment.\nInternet, student exchange, programs like Peace Corps,\nand documents like the Universal Declaration of Human Rights help us see in our confused state.\nBut it is just a tiny sliver of light,\npoverty of mind alone is almost unaffected by it.\nUnited Nations has its hands tied,\nwithout an appropriate level of education General Assembly will stand in a constant state of disagreement.\n\nWithout a plan to unite, and eliminate poverty,\nwe are all equally wrong.\nAnd we can't have Unity and Prosperity without Knowledge and Wisdom,\nliars would instantly invent something that they stand to lose, and tear the world right up.\nDo you hear me, do you see what I am saying,\nwe are one, it is all of us, or none.\n\nThe way to fix it,\nis by inventing educational programs that really help children to knowledge, wisdom and greatness.\nBecause until we hold long term visions fueled by Knowledge and Wisdom,\nthe only thing we can agree on, is what the liars want us to believe in.\nReal education is the thing that leads us to have thoughts independent to what is on TV and in News Papers,\nit helps us see who the liars, and mark my words for this sorry year, even when they assume a pleasing shape.\nReal Education grants us Intellectual Independence,\nwhere audio book by book we all independently gain a valid grasp on reality.\n\nOrganized education will always bend under the threat of being defunded or kept in poverty,\nit will help to invent brand name institutions that are only better in the name, but all equally ineffective.\nOrganized education will rip talent out of children, it will sand it down until they are all equally lost,\nmixed with poverty most parents won't even be granted the ability to care about what is happening to the minds of their children, because the babysitting is good.\nOrganized education ends up causing harm to children's intellectual development,\nit holds them back and causes so much stress that it is impossible to learn.\nOrganized education is such a problem, that even the best minds of our generations,\nare still thinking about \"Free College\" - about paying those fraudulent institutions - instead of funding ones that are capable of Real Education.\n\nThings are pretty bad, thankfully, we are infinite in our capacity to deal with real dangers,\nespecially the ones that tear tear our family apart.\n\nReal education is based on students' predispositions,\nand curiosities.\nFor example, when someone is interested in the moon or stars at night,\nthat marks an entry point into Science Fiction, Astrophysics, Astrography and if they continue to care, Optics, Mathematics, Physics, Writing and so on.\nMost children won't care for stars very long, because they are interested in exploring all of the universe,\nand that is even better because then there is a multitude of passage ways they can use to walk through the sciences.\nBut it has to be their own walking, their own direction, and at their own pace,\nwe have to honor their predispositions and curiosities, the students are the future.\nWe have to remove grades, tests, graduation, class rooms, time divisions, subject divisions, rows of seats, groupings of any kind be it age or area of study,\nwe have to replace the teacher with personalized learning and tutors.\nAnd we have to give the students what they need, a telescope, a fast single board computer with all the sensors and servos they could ever need,\nthey need the ability to launch satellites, to operate small remotely operated submarines and small drones, they need access to things they are curious about.\n\nIf a student is walking the wrong path, then it is a path that has been been walked many times before, they are asking a question, and they need powerful answers,\nthey have to see what war is like, what prisons are like, what concentration camps are like - and what love is like - and they will learn.\nAt the time of writing this in 2020, I realized that there are three nations that operate concentrations camps,\nwhich is probably to say, that there are many; and they need to see that too.\nThey need to see gang violence, and if they are still around then meet up with Father Gregory Boyle's boys,\nfor they have surely become Great Beings.\n\nNothing goes wrong in real education,\nreal education is about reality, about really growing up, and really being human.\nAnd when these students grow up, become voters, Senators and Congresswomen and Congressmen,\nthen the liars, and pretenders, will lose their hold on humanity.\nAnd then the members of General Assembly of United nations,\ncan finally have their day, in agreement and unity.\n\nMy friends,\nnever lose hope.\nIf something important can't happen today,\nit only means that you are to begin building the bridge, for others to eventually get there.\nReal Education is the first step,\nthe second is actually many overlapping steps that will happen all at once, all around the world.\n\nWhat you have to do is make sure that the students get to own or hold in their own hands the many tools that they need,\nto learn, and explore the Human Condition, and The Sciences, and The World, and The Stars; as those are their countless bookmarks and the steppingstones to their boundless steps.\nThe children want to learn,\nand that is all the hope Humanity will ever need.",
  "images": [],
  "links": []
}