{
  "id": "furkies-purrkies-poetry-0712",
  "title": "Caricatures!",
  "date": "2022-02-11T01:42:05.122Z",
  "image": "poetry-0712-illustration.jpg",
  "artwork": "https://catpea.com",
  "audio": "poetry-0712.mp3",
  "guid": "8562cd72-d258-423d-a5c7-17d300c415c3"
}
