{
  "id": "furkies-purrkies-poetry-0515",
  "title": "Programming A Remote Controlled Portable Raspberry Pi Audio Player",
  "date": "2021-07-29T02:21:03.215Z",
  "image": "poetry-0515-illustration.jpg",
  "artwork": "https://unsplash.com/photos/NN15NFflk90",
  "audio": "poetry-0515.mp3",
  "guid": "5b9fb4f8-228d-42f2-b0c7-89e0752963e3"
}
