{
  "id": "furkies-purrkies-poetry-0622",
  "title": "The Firewall: A Fine Internet Business Idea For High School Students",
  "date": "2021-11-12T22:21:56.516Z",
  "image": "poetry-0622-illustration.jpg",
  "artwork": "https://unsplash.com/photos/ZKHksse8tUU",
  "audio": "poetry-0622.mp3",
  "guid": "b5919586-94f1-47af-9cfe-a38cbdb6fa65"
}
