{
  "title": "Learning For Real",
  "date": "2021-05-23T01:10:20.590Z",
  "image": "poetry-0448-illustration.jpg",
  "audio": "poetry-0448.mp3",
  "artwork": "https://unsplash.com/photos/kcT-7cirBEw",
  "id": "furkies-purrkies-poetry-0448",
  "attachments": {},
  "guid": "b6f7f392-489c-4ae4-b1c1-123f11b34488"
}
