{
  "title": "No University",
  "date": "2020-09-03T22:16:50.207Z",
  "image": "poetry-0187-illustration.jpg",
  "audio": "poetry-0187.mp3",
  "id": "furkies-purrkies-poetry-0187",
  "attachments": {},
  "guid": "b4761cba-a09f-4613-b57f-e0be85aa72f5"
}
