{
  "name": "furkies-purrkies-poetry-0725",
  "id": "furkies-purrkies-poetry-0725",
  "title": "Beyond The Photo",
  "date": "2022-02-24T01:30:44.240Z",
  "image": "poetry-0725-illustration.jpg",
  "artwork": "https://unsplash.com/photos/VknfrXRRrIc",
  "audio": "poetry-0725.mp3",
  "guid": "5f7aba86-1e77-4860-bed9-46b4f45f5a5c",
  "html": "<div class=\"section\">\n  <p>I think the first step should always be an Art Portfolio,<br>because businesses that sell art online for you, will ask to see it.</p>\n  <p>And I think it should be consistent in some way,<br>it should say: \"This is what you can expect from me.\"</p>\n  <p>You should start simple,<br>but you don't have to <strong>keep</strong> it simple.</p>\n</div>\n<div class=\"section\">\n  <hr>\n</div>\n<div class=\"section\">\n  <p>Start with 3 self portraits,<br>in impressions style.</p>\n  <p>Do 3 pieces,<br>in photo realism.</p>\n  <p>And three illustrations,<br>simple, cute caricatures.</p>\n</div>\n<div class=\"section\">\n  <hr>\n</div>\n<div class=\"section\">\n  <p>I love Pop Surrealism,<br>so I would make photo realistic caricatures.</p>\n  <p>But you can do any technique,<br>though you may need to do 3 works per technique.</p>\n  <p><a href=\"https://dribbble.com/search/face-illustration\">Search Dribbble for face illustration</a><br>to get an overview of different styles.</p>\n</div>\n<div class=\"section\">\n  <hr>\n</div>\n<div class=\"section\">\n  <p><a href=\"https://www.qwant.com/?client=opensearch&q=best+art+portfolios+online&t=web\">Search the internet for best art portfolios</a>,<br>to see what other artists are up to.</p>\n  <p>Art is a culture,<br>and looking over other people's work helps you join in.</p>\n  <p>And know that you will want to change things in the future,<br>so you'll probably end up uploading files again somewhere.</p>\n</div>\n<div class=\"section\">\n  <hr>\n</div>\n<div class=\"section\">\n  <p>The portfolio is a pretty crazy thing,<br>because once you set it up, you'll never fall lower.</p>\n  <p>Whatever your future holds,<br>you will always start as an artist.</p>\n  <p>Well into your future, your portfolio will make your heart smile,<br>and maybe cry, as you teleport yourself back to your youth for a moment.</p>\n</div>\n<div class=\"section\">\n  <hr>\n</div>\n<div class=\"section\">\n  <p>Beyond the basics, <a href=\"https://unsplash.com/s/photos/frame\">search for frame on Unsplash</a> or maybe <a href=\"https://unsplash.com/s/photos/billboard\">billboard</a> or <a href=\"https://unsplash.com/s/photos/advertisement\">advertisement</a>,<br>and slide your artwork in there.</p>\n  <p>And you can also try different things on the subject end,<br>rather than using your own portrait or \"<a href=\"https://www.reddit.com/r/redditgetsdrawn/\">Reddit Gets Drawn</a>\"...</p>\n  <p><a href=\"https://dribbble.com/search/plasticine-polymer-sculptey-clay-sculpture\">Get some flesh colored polymer clay and rough out some characters</a>,<br>take the photo and use it as shape and color reference in krita.</p>\n</div>\n<div class=\"section\">\n  <hr>\n</div>\n<div class=\"section\">\n  <p>Although portraits are probably the quickest way,<br>to show how realistic your art is.</p>\n  <p>Urban life scenes, Nature and Still life photography,<br>are also a great source of color and shape for your paintings.</p>\n  <p>And you can grab an <a href=\"https://www.amazon.com/s?k=Action+Figure+Drawing+Model\">Action Figure Drawing Model</a>,<br>to use as reference as well.</p>\n</div>\n<div class=\"section\">\n  <hr>\n</div>\n<div class=\"section\">\n  <p>The standard wooden mannequin and hand,<br>actually go together, you pose the mannequin first...</p>\n  <p>And once you ready for hand details; you pose the hand to fit your mannequin pose,<br>take a bunch of photos and splice a unique scene together with tone and shape reference.</p>\n  <p>Learning blender, or 3D modeling in general is another source of tone or shadow,<br>and programs like MakeHuman will help you with posing your characters.</p>\n</div>\n<div class=\"section\">\n  <hr>\n</div>\n<div class=\"section\">\n  <p>Overall, whatever you will focus on,<br>will teach you how to do it well in no time.</p>\n  <p>Painting faces with the aid of Krita's Image Reference tool, and reference images covering the entire canvas,<br>will teach you the features of a face in a way no teacher can.</p>\n  <p>Digital painting is extremely advanced,<br>not many artists get it yet.</p>\n</div>\n<div class=\"section\">\n  <hr>\n</div>\n<div class=\"section\">\n  <p>If becoming a professional artist is the aim,<br>using reference tools will enhance the quality of your work.</p>\n  <p>It will protect you from ever getting stuck,<br>and help you get all the details right; the first time.</p>\n  <p>You can use a grid to transfer photo onto a real canvas,<br>but using a grid on your computer, is just adding extra steps to a simple process.</p>\n</div>\n<div class=\"section\">\n  <hr>\n</div>\n<div class=\"section\">\n  <p>Digital art it helps you with color and shape,<br>so that you can innovate beyond it.</p>\n  <p>So that you can do things that would be too difficult or impossible,<br>on a standard canvas.</p>\n  <p>There are so many directions you can choose that it is impossible to make useful recommendations,<br>move slowly and take to things that call to you; and you'll invent a whole new universe, in no time.</p>\n</div>",
  "bootstrap": "<div class=\"card card-section bg-dark text-warning shadow\">\n  <div class=\"section card-body mb-0 my-2\">\n    <div class=\"paragraph card-text card-stanza my-5 text-center\">I think the first step should always be an Art Portfolio,<br>because businesses that sell art online for you, will ask to see it.</div>\n    <div class=\"paragraph card-text card-stanza my-5 text-center\">And I think it should be consistent in some way,<br>it should say: \"This is what you can expect from me.\"</div>\n    <div class=\"paragraph card-text card-stanza my-5 text-center\">You should start simple,<br>but you don't have to <strong>keep</strong> it simple.</div>\n  </div>\n</div>\n<div class=\"mb-5 section-spacer\">&nbsp;</div>\n<div class=\"card card-section bg-dark text-warning shadow\">\n  <div class=\"section card-body mb-0 my-2\">\n    <div class=\"paragraph card-text card-stanza my-5 text-center\">Start with 3 self portraits,<br>in impressions style.</div>\n    <div class=\"paragraph card-text card-stanza my-5 text-center\">Do 3 pieces,<br>in photo realism.</div>\n    <div class=\"paragraph card-text card-stanza my-5 text-center\">And three illustrations,<br>simple, cute caricatures.</div>\n  </div>\n</div>\n<div class=\"mb-5 section-spacer\">&nbsp;</div>\n<div class=\"card card-section bg-dark text-warning shadow\">\n  <div class=\"section card-body mb-0 my-2\">\n    <div class=\"paragraph card-text card-stanza my-5 text-center\">I love Pop Surrealism,<br>so I would make photo realistic caricatures.</div>\n    <div class=\"paragraph card-text card-stanza my-5 text-center\">But you can do any technique,<br>though you may need to do 3 works per technique.</div>\n    <div class=\"paragraph card-text card-stanza my-5 text-center\"><a href=\"https://dribbble.com/search/face-illustration\">Search Dribbble for face illustration</a><br>to get an overview of different styles.</div>\n  </div>\n</div>\n<div class=\"mb-5 section-spacer\">&nbsp;</div>\n<div class=\"card card-section bg-dark text-warning shadow\">\n  <div class=\"section card-body mb-0 my-2\">\n    <div class=\"paragraph card-text card-stanza my-5 text-center\"><a href=\"https://www.qwant.com/?client=opensearch&q=best+art+portfolios+online&t=web\">Search the internet for best art portfolios</a>,<br>to see what other artists are up to.</div>\n    <div class=\"paragraph card-text card-stanza my-5 text-center\">Art is a culture,<br>and looking over other people's work helps you join in.</div>\n    <div class=\"paragraph card-text card-stanza my-5 text-center\">And know that you will want to change things in the future,<br>so you'll probably end up uploading files again somewhere.</div>\n  </div>\n</div>\n<div class=\"mb-5 section-spacer\">&nbsp;</div>\n<div class=\"card card-section bg-dark text-warning shadow\">\n  <div class=\"section card-body mb-0 my-2\">\n    <div class=\"paragraph card-text card-stanza my-5 text-center\">The portfolio is a pretty crazy thing,<br>because once you set it up, you'll never fall lower.</div>\n    <div class=\"paragraph card-text card-stanza my-5 text-center\">Whatever your future holds,<br>you will always start as an artist.</div>\n    <div class=\"paragraph card-text card-stanza my-5 text-center\">Well into your future, your portfolio will make your heart smile,<br>and maybe cry, as you teleport yourself back to your youth for a moment.</div>\n  </div>\n</div>\n<div class=\"mb-5 section-spacer\">&nbsp;</div>\n<div class=\"card card-section bg-dark text-warning shadow\">\n  <div class=\"section card-body mb-0 my-2\">\n    <div class=\"paragraph card-text card-stanza my-5 text-center\">Beyond the basics, <a href=\"https://unsplash.com/s/photos/frame\">search for frame on Unsplash</a> or maybe <a href=\"https://unsplash.com/s/photos/billboard\">billboard</a> or <a href=\"https://unsplash.com/s/photos/advertisement\">advertisement</a>,<br>and slide your artwork in there.</div>\n    <div class=\"paragraph card-text card-stanza my-5 text-center\">And you can also try different things on the subject end,<br>rather than using your own portrait or \"<a href=\"https://www.reddit.com/r/redditgetsdrawn/\">Reddit Gets Drawn</a>\"...</div>\n    <div class=\"paragraph card-text card-stanza my-5 text-center\"><a href=\"https://dribbble.com/search/plasticine-polymer-sculptey-clay-sculpture\">Get some flesh colored polymer clay and rough out some characters</a>,<br>take the photo and use it as shape and color reference in krita.</div>\n  </div>\n</div>\n<div class=\"mb-5 section-spacer\">&nbsp;</div>\n<div class=\"card card-section bg-dark text-warning shadow\">\n  <div class=\"section card-body mb-0 my-2\">\n    <div class=\"paragraph card-text card-stanza my-5 text-center\">Although portraits are probably the quickest way,<br>to show how realistic your art is.</div>\n    <div class=\"paragraph card-text card-stanza my-5 text-center\">Urban life scenes, Nature and Still life photography,<br>are also a great source of color and shape for your paintings.</div>\n    <div class=\"paragraph card-text card-stanza my-5 text-center\">And you can grab an <a href=\"https://www.amazon.com/s?k=Action+Figure+Drawing+Model\">Action Figure Drawing Model</a>,<br>to use as reference as well.</div>\n  </div>\n</div>\n<div class=\"mb-5 section-spacer\">&nbsp;</div>\n<div class=\"card card-section bg-dark text-warning shadow\">\n  <div class=\"section card-body mb-0 my-2\">\n    <div class=\"paragraph card-text card-stanza my-5 text-center\">The standard wooden mannequin and hand,<br>actually go together, you pose the mannequin first...</div>\n    <div class=\"paragraph card-text card-stanza my-5 text-center\">And once you ready for hand details; you pose the hand to fit your mannequin pose,<br>take a bunch of photos and splice a unique scene together with tone and shape reference.</div>\n    <div class=\"paragraph card-text card-stanza my-5 text-center\">Learning blender, or 3D modeling in general is another source of tone or shadow,<br>and programs like MakeHuman will help you with posing your characters.</div>\n  </div>\n</div>\n<div class=\"mb-5 section-spacer\">&nbsp;</div>\n<div class=\"card card-section bg-dark text-warning shadow\">\n  <div class=\"section card-body mb-0 my-2\">\n    <div class=\"paragraph card-text card-stanza my-5 text-center\">Overall, whatever you will focus on,<br>will teach you how to do it well in no time.</div>\n    <div class=\"paragraph card-text card-stanza my-5 text-center\">Painting faces with the aid of Krita's Image Reference tool, and reference images covering the entire canvas,<br>will teach you the features of a face in a way no teacher can.</div>\n    <div class=\"paragraph card-text card-stanza my-5 text-center\">Digital painting is extremely advanced,<br>not many artists get it yet.</div>\n  </div>\n</div>\n<div class=\"mb-5 section-spacer\">&nbsp;</div>\n<div class=\"card card-section bg-dark text-warning shadow\">\n  <div class=\"section card-body mb-0 my-2\">\n    <div class=\"paragraph card-text card-stanza my-5 text-center\">If becoming a professional artist is the aim,<br>using reference tools will enhance the quality of your work.</div>\n    <div class=\"paragraph card-text card-stanza my-5 text-center\">It will protect you from ever getting stuck,<br>and help you get all the details right; the first time.</div>\n    <div class=\"paragraph card-text card-stanza my-5 text-center\">You can use a grid to transfer photo onto a real canvas,<br>but using a grid on your computer, is just adding extra steps to a simple process.</div>\n  </div>\n</div>\n<div class=\"mb-5 section-spacer\">&nbsp;</div>\n<div class=\"card card-section bg-dark text-warning shadow\">\n  <div class=\"section card-body mb-0 my-2\">\n    <div class=\"paragraph card-text card-stanza my-5 text-center\">Digital art it helps you with color and shape,<br>so that you can innovate beyond it.</div>\n    <div class=\"paragraph card-text card-stanza my-5 text-center\">So that you can do things that would be too difficult or impossible,<br>on a standard canvas.</div>\n    <div class=\"paragraph card-text card-stanza my-5 text-center\">There are so many directions you can choose that it is impossible to make useful recommendations,<br>move slowly and take to things that call to you; and you'll invent a whole new universe, in no time.</div>\n  </div>\n</div>",
  "print": "<div class=\"section avoid-break-inside\" style=\"padding-bottom: 2rem;\">\n  <div class=\"paragraph\">I think the first step should always be an Art Portfolio,<br>because businesses that sell art online for you, will ask to see it.</div>\n  <div class=\"paragraph\">And I think it should be consistent in some way,<br>it should say: \"This is what you can expect from me.\"</div>\n  <div class=\"paragraph\">You should start simple,<br>but you don't have to <strong>keep</strong> it simple.</div>\n</div>\n<div class=\"section avoid-break-inside\" style=\"padding-bottom: 2rem;\">\n  <br>\n</div>\n<div class=\"section avoid-break-inside\" style=\"padding-bottom: 2rem;\">\n  <div class=\"paragraph\">Start with 3 self portraits,<br>in impressions style.</div>\n  <div class=\"paragraph\">Do 3 pieces,<br>in photo realism.</div>\n  <div class=\"paragraph\">And three illustrations,<br>simple, cute caricatures.</div>\n</div>\n<div class=\"section avoid-break-inside\" style=\"padding-bottom: 2rem;\">\n  <br>\n</div>\n<div class=\"section avoid-break-inside\" style=\"padding-bottom: 2rem;\">\n  <div class=\"paragraph\">I love Pop Surrealism,<br>so I would make photo realistic caricatures.</div>\n  <div class=\"paragraph\">But you can do any technique,<br>though you may need to do 3 works per technique.</div>\n  <div class=\"paragraph\"><span>Search Dribbble for face illustration<sup>[1]</sup></span><br>to get an overview of different styles.</div>\n</div>\n<div class=\"section avoid-break-inside\" style=\"padding-bottom: 2rem;\">\n  <br>\n</div>\n<div class=\"section avoid-break-inside\" style=\"padding-bottom: 2rem;\">\n  <div class=\"paragraph\"><span>Search the internet for best art portfolios<sup>[2]</sup></span>,<br>to see what other artists are up to.</div>\n  <div class=\"paragraph\">Art is a culture,<br>and looking over other people's work helps you join in.</div>\n  <div class=\"paragraph\">And know that you will want to change things in the future,<br>so you'll probably end up uploading files again somewhere.</div>\n</div>\n<div class=\"section avoid-break-inside\" style=\"padding-bottom: 2rem;\">\n  <br>\n</div>\n<div class=\"section avoid-break-inside\" style=\"padding-bottom: 2rem;\">\n  <div class=\"paragraph\">The portfolio is a pretty crazy thing,<br>because once you set it up, you'll never fall lower.</div>\n  <div class=\"paragraph\">Whatever your future holds,<br>you will always start as an artist.</div>\n  <div class=\"paragraph\">Well into your future, your portfolio will make your heart smile,<br>and maybe cry, as you teleport yourself back to your youth for a moment.</div>\n</div>\n<div class=\"section avoid-break-inside\" style=\"padding-bottom: 2rem;\">\n  <br>\n</div>\n<div class=\"section avoid-break-inside\" style=\"padding-bottom: 2rem;\">\n  <div class=\"paragraph\">Beyond the basics, <span>search for frame on Unsplash<sup>[3]</sup></span> or maybe <span>billboard<sup>[4]</sup></span> or <span>advertisement<sup>[5]</sup></span>,<br>and slide your artwork in there.</div>\n  <div class=\"paragraph\">And you can also try different things on the subject end,<br>rather than using your own portrait or \"<span>Reddit Gets Drawn<sup>[6]</sup></span>\"...</div>\n  <div class=\"paragraph\"><span>Get some flesh colored polymer clay and rough out some characters<sup>[7]</sup></span>,<br>take the photo and use it as shape and color reference in krita.</div>\n</div>\n<div class=\"section avoid-break-inside\" style=\"padding-bottom: 2rem;\">\n  <br>\n</div>\n<div class=\"section avoid-break-inside\" style=\"padding-bottom: 2rem;\">\n  <div class=\"paragraph\">Although portraits are probably the quickest way,<br>to show how realistic your art is.</div>\n  <div class=\"paragraph\">Urban life scenes, Nature and Still life photography,<br>are also a great source of color and shape for your paintings.</div>\n  <div class=\"paragraph\">And you can grab an <span>Action Figure Drawing Model<sup>[8]</sup></span>,<br>to use as reference as well.</div>\n</div>\n<div class=\"section avoid-break-inside\" style=\"padding-bottom: 2rem;\">\n  <br>\n</div>\n<div class=\"section avoid-break-inside\" style=\"padding-bottom: 2rem;\">\n  <div class=\"paragraph\">The standard wooden mannequin and hand,<br>actually go together, you pose the mannequin first...</div>\n  <div class=\"paragraph\">And once you ready for hand details; you pose the hand to fit your mannequin pose,<br>take a bunch of photos and splice a unique scene together with tone and shape reference.</div>\n  <div class=\"paragraph\">Learning blender, or 3D modeling in general is another source of tone or shadow,<br>and programs like MakeHuman will help you with posing your characters.</div>\n</div>\n<div class=\"section avoid-break-inside\" style=\"padding-bottom: 2rem;\">\n  <br>\n</div>\n<div class=\"section avoid-break-inside\" style=\"padding-bottom: 2rem;\">\n  <div class=\"paragraph\">Overall, whatever you will focus on,<br>will teach you how to do it well in no time.</div>\n  <div class=\"paragraph\">Painting faces with the aid of Krita's Image Reference tool, and reference images covering the entire canvas,<br>will teach you the features of a face in a way no teacher can.</div>\n  <div class=\"paragraph\">Digital painting is extremely advanced,<br>not many artists get it yet.</div>\n</div>\n<div class=\"section avoid-break-inside\" style=\"padding-bottom: 2rem;\">\n  <br>\n</div>\n<div class=\"section avoid-break-inside\" style=\"padding-bottom: 2rem;\">\n  <div class=\"paragraph\">If becoming a professional artist is the aim,<br>using reference tools will enhance the quality of your work.</div>\n  <div class=\"paragraph\">It will protect you from ever getting stuck,<br>and help you get all the details right; the first time.</div>\n  <div class=\"paragraph\">You can use a grid to transfer photo onto a real canvas,<br>but using a grid on your computer, is just adding extra steps to a simple process.</div>\n</div>\n<div class=\"section avoid-break-inside\" style=\"padding-bottom: 2rem;\">\n  <br>\n</div>\n<div class=\"section avoid-break-inside\" style=\"padding-bottom: 2rem;\">\n  <div class=\"paragraph\">Digital art it helps you with color and shape,<br>so that you can innovate beyond it.</div>\n  <div class=\"paragraph\">So that you can do things that would be too difficult or impossible,<br>on a standard canvas.</div>\n  <div class=\"paragraph\">There are so many directions you can choose that it is impossible to make useful recommendations,<br>move slowly and take to things that call to you; and you'll invent a whole new universe, in no time.</div>\n</div>\n<div class=\"break-after\">&nbsp;</div>\n<div>\n  <div class=\"section\" style=\"padding-bottom: 1rem;\">References</div>\n  <div>[1]: https://dribbble.com/search/face-illustration</div>\n  <div>[2]: https://www.qwant.com/?client=opensearch&q=best+art+portfolios+online&t=web</div>\n  <div>[3]: https://unsplash.com/s/photos/frame</div>\n  <div>[4]: https://unsplash.com/s/photos/billboard</div>\n  <div>[5]: https://unsplash.com/s/photos/advertisement</div>\n  <div>[6]: https://www.reddit.com/r/redditgetsdrawn/</div>\n  <div>[7]: https://dribbble.com/search/plasticine-polymer-sculptey-clay-sculpture</div>\n  <div>[8]: https://www.amazon.com/s?k=Action+Figure+Drawing+Model</div>\n</div>",
  "text": "I think the first step should always be an Art Portfolio,\nbecause businesses that sell art online for you, will ask to see it.\nAnd I think it should be consistent in some way,\nit should say: \"This is what you can expect from me.\"\nYou should start simple,\nbut you don't have to keep it simple.\n\nStart with 3 self portraits,\nin impressions style.\nDo 3 pieces,\nin photo realism.\nAnd three illustrations,\nsimple, cute caricatures.\n\nI love Pop Surrealism,\nso I would make photo realistic caricatures.\nBut you can do any technique,\nthough you may need to do 3 works per technique.\nSearch Dribbble for face illustration[1]\nto get an overview of different styles.\n\nSearch the internet for best art portfolios[2],\nto see what other artists are up to.\nArt is a culture,\nand looking over other people's work helps you join in.\nAnd know that you will want to change things in the future,\nso you'll probably end up uploading files again somewhere.\n\nThe portfolio is a pretty crazy thing,\nbecause once you set it up, you'll never fall lower.\nWhatever your future holds,\nyou will always start as an artist.\nWell into your future, your portfolio will make your heart smile,\nand maybe cry, as you teleport yourself back to your youth for a moment.\n\nBeyond the basics, search for frame on Unsplash[3] or maybe billboard[4] or advertisement[5],\nand slide your artwork in there.\nAnd you can also try different things on the subject end,\nrather than using your own portrait or \"Reddit Gets Drawn[6]\"...\nGet some flesh colored polymer clay and rough out some characters[7],\ntake the photo and use it as shape and color reference in krita.\n\nAlthough portraits are probably the quickest way,\nto show how realistic your art is.\nUrban life scenes, Nature and Still life photography,\nare also a great source of color and shape for your paintings.\nAnd you can grab an Action Figure Drawing Model[8],\nto use as reference as well.\n\nThe standard wooden mannequin and hand,\nactually go together, you pose the mannequin first...\nAnd once you ready for hand details; you pose the hand to fit your mannequin pose,\ntake a bunch of photos and splice a unique scene together with tone and shape reference.\nLearning blender, or 3D modeling in general is another source of tone or shadow,\nand programs like MakeHuman will help you with posing your characters.\n\nOverall, whatever you will focus on,\nwill teach you how to do it well in no time.\nPainting faces with the aid of Krita's Image Reference tool, and reference images covering the entire canvas,\nwill teach you the features of a face in a way no teacher can.\nDigital painting is extremely advanced,\nnot many artists get it yet.\n\nIf becoming a professional artist is the aim,\nusing reference tools will enhance the quality of your work.\nIt will protect you from ever getting stuck,\nand help you get all the details right; the first time.\nYou can use a grid to transfer photo onto a real canvas,\nbut using a grid on your computer, is just adding extra steps to a simple process.\n\nDigital art it helps you with color and shape,\nso that you can innovate beyond it.\nSo that you can do things that would be too difficult or impossible,\non a standard canvas.\nThere are so many directions you can choose that it is impossible to make useful recommendations,\nmove slowly and take to things that call to you; and you'll invent a whole new universe, in no time.\n \nReferences\n[1]: https://dribbble.com/search/face-illustration\n[2]: https://www.qwant.com/?client=opensearch&q=best+art+portfolios+online&t=web\n[3]: https://unsplash.com/s/photos/frame\n[4]: https://unsplash.com/s/photos/billboard\n[5]: https://unsplash.com/s/photos/advertisement\n[6]: https://www.reddit.com/r/redditgetsdrawn/\n[7]: https://dribbble.com/search/plasticine-polymer-sculptey-clay-sculpture\n[8]: https://www.amazon.com/s?k=Action+Figure+Drawing+Model",
  "images": [],
  "links": [
    {
      "title": "Search Dribbble for face illustration",
      "url": "https://dribbble.com/search/face-illustration",
      "hostname": "dribbble.com"
    },
    {
      "title": "Search the internet for best art portfolios",
      "url": "https://www.qwant.com/?client=opensearch&q=best+art+portfolios+online&t=web",
      "hostname": "www.qwant.com"
    },
    {
      "title": "search for frame on Unsplash",
      "url": "https://unsplash.com/s/photos/frame",
      "hostname": "unsplash.com"
    },
    {
      "title": "billboard",
      "url": "https://unsplash.com/s/photos/billboard",
      "hostname": "unsplash.com"
    },
    {
      "title": "advertisement",
      "url": "https://unsplash.com/s/photos/advertisement",
      "hostname": "unsplash.com"
    },
    {
      "title": "Reddit Gets Drawn",
      "url": "https://www.reddit.com/r/redditgetsdrawn/",
      "hostname": "www.reddit.com"
    },
    {
      "title": "Get some flesh colored polymer clay and rough out some characters",
      "url": "https://dribbble.com/search/plasticine-polymer-sculptey-clay-sculpture",
      "hostname": "dribbble.com"
    },
    {
      "title": "Action Figure Drawing Model",
      "url": "https://www.amazon.com/s?k=Action+Figure+Drawing+Model",
      "hostname": "www.amazon.com"
    }
  ]
}