{
  "name": "furkies-purrkies-poetry-0361",
  "title": "For Contributions To Human Kind",
  "date": "2021-02-24T22:25:53.907Z",
  "image": "poetry-0361-illustration.jpg",
  "audio": "poetry-0361.mp3",
  "artwork": "https://unsplash.com/photos/bpGg5wH7d08",
  "id": "furkies-purrkies-poetry-0361",
  "attachments": {},
  "guid": "88dfeeb6-aeb4-4df7-8366-d3ee4ef2ea8d",
  "html": "<div class=\"section\">\n  <p>First of all, I want you to know, that you could win that Prize.</p>\n  <p>bestowed upon those who made the greatest contributions to humankind.</p>\n</div>\n\n<div class=\"section\">\n  <p>And that there are multiple pathways,</p>\n  <p>so as long as you are in the right place, somewhere out on the edge.</p>\n</div>\n\n<div class=\"section\">\n  <p>It is hard to say a bad thing about it,</p>\n  <p>but the road there is not perfect.</p>\n</div>\n\n<div class=\"section\">\n  <p><a href=\"https://www.youtube.com/watch?v=Ti9ZsP4wa0Q\">The schools are not working</a> for one,</p>\n  <p>and as always there will be troublemakers and liars along the way.</p>\n</div>\n\n<div class=\"section\">\n  <hr>\n</div>\n\n<div class=\"section\">\n  <p>You will be forced to learn strange and ultimately meaningless things to get into a brand name college,</p>\n  <p>tested by an outdated ever-being-phased-out process, and you need the full 1600 score, to send a message.</p>\n</div>\n\n<div class=\"section\">\n  <p>You need to <a href=\"https://www.youtube.com/watch?v=M2A0aOqVn3E\">start preparing for the SAT years ahead of graduating high school</a>,</p>\n  <p>at first your entire education must be structured to unhinge the SAT patterns.</p>\n</div>\n\n<div class=\"section\">\n  <p>Apply to all the expensive colleges,,</p>\n  <p>and <a href=\"https://www.youtube.com/watch?v=9aNp6bJCAhU\">learn to relax but keep moving, fast.</a>.</p>\n</div>\n\n<div class=\"section\">\n  <p>You are not going to give the Senior Orator speech,</p>\n  <p>because to get at the Prize you will not have the time to follow all instructions.</p>\n</div>\n\n<div class=\"section\">\n  <p>Then you will need to find a lab that is doing cutting edge research,</p>\n  <p>and begin scanning the unknown for anomalies, don&apos;t focus on what seems interesting, so much as what is anomalous and unexplored.</p>\n</div>\n\n<div class=\"section\">\n  <hr>\n</div>\n\n<div class=\"section\">\n  <p>You will become a World Class Scientist, you will become a force of science, you will be huge, a perfect expert in your field,</p>\n  <p>and with a touch of luck easily find something, maybe in anti-aging, or DNA recombination, computer integration.</p>\n</div>\n\n<div class=\"section\">\n  <p>That will nearly guarantee you the Prize,</p>\n  <p>it will be a great accomplishment.</p>\n</div>\n\n<div class=\"section\">\n  <p>Worse comes to worst, it may just be that the Prize Committee is not going to be as forward in their thinking as they should be,</p>\n  <p>but that will be just as good as the prize, you will know it, the history books will know it.</p>\n</div>\n\n<div class=\"section\">\n  <hr>\n</div>\n\n<div class=\"section\">\n  <p>There is a lot of forks in the road, yes,</p>\n  <p>and the correct paths rely on luck, yes, but you can make your own luck by standing at the fork long enough.</p>\n</div>\n\n<div class=\"section\">\n  <hr>\n</div>\n\n<div class=\"section\">\n  <p>Once you get into the university, <a href=\"https://www.youtube.com/watch?v=jONxkm62aDI\">the outsider-teacher will say the truth: they don&apos;t know if the grades and classes and guidance, will help you at all</a>,</p>\n  <p>they are teaching blind, and throwing these blind tests at your feet, which is more like interference than help, isn&apos;t it?</p>\n</div>\n\n\n<div class=\"section\">\n  <p>There will be bumps in the road,</p>\n  <p>unfairness along the way.</p>\n</div>\n\n<div class=\"section\">\n  <p>What happened to <a href=\"https://www.youtube.com/watch?v=BIP0lYrdirI\">Rosalind Franklin</a>,</p>\n  <p>is beyond heartbreaking.</p>\n</div>\n\n<div class=\"section\">\n  <hr>\n</div>\n\n<div class=\"section\">\n  <p>I think, I want you to have more than a prize,</p>\n  <p>I don&apos;t want anybody to fight things that should honor them, be it school or whichever company you care to work at.</p>\n</div>\n\n<div class=\"section\">\n  <p>If the schools were working,</p>\n  <p>if you didn&apos;t need to fight odds.</p>\n</div>\n\n<div class=\"section\">\n  <p>If you could start in High School,</p>\n  <p>not a lab at 40, then this could be balanced with life.</p>\n</div>\n\n<div class=\"section\">\n  <hr>\n</div>\n\n<div class=\"section\">\n  <p>We are not machines, we aren&apos;t meant to bend odds that are against us out of stupidity, greed, inauthenticity, shortsightedness, or whether or not our parents work in that lab,</p>\n  <p>we shouldn&apos;t need to sacrifice on our way towards that kind of greatness.</p>\n</div>\n\n<div class=\"section\">\n  <p>Rosalind Franklin... Elsie was fighting the same fight that stands in your way,</p>\n  <p>and liars are cunning, and evil, and they drain us of energy.</p>\n</div>\n\n<div class=\"section\">\n  <p>What the hell does a Dean at a Brand Name University know about what it takes to be like Elsie,</p>\n  <p>the things claiming to help you will be attacking you if not downright stalking you out of debt, greed, jealousy, the same damn nonsense that has always held humanity back.</p>\n</div>\n\n<div class=\"section\">\n  <hr>\n</div>\n\n<div class=\"section\">\n  <p>Remember Sun Tzu?</p>\n  <p>&quot;Victorious warriors win first and then go to war, while defeated warriors go to war first and then seek to win.&quot;</p>\n</div>\n\n<div class=\"section\">\n  <p>It may be that the world isn&apos;t good enough to appreciate the many sacrifices that you will surely make along the way,</p>\n  <p>I want you to choose living a healthy and balanced life, where DNA recombination is something you do as a second thought with the person that you will end up sharing the rest of your very long and very happy life with.</p>\n</div>\n\n<div class=\"section\">\n  <p>I don&apos;t want you to fight the odds,</p>\n  <p>the odds should always be on your side, and every step of your journey to make lasting contributions to Human Kind should be Honored, even before you get your Prize.</p>\n</div>\n\n<div class=\"section\">\n  <p>I want the world to work for you,</p>\n  <p>not against you.</p>\n</div>\n\n<div class=\"section\">\n  <p>And I don&apos;t want you to be alone like Elsie,</p>\n  <p>and the countless many whose names we don&apos;t yet know, or may never know.</p>\n</div>\n\n<div class=\"section\">\n  <hr>\n</div>\n\n<div class=\"section\">\n  <p>I know that there are people who will help you along the way,</p>\n  <p>people who monitor those who aim the highest, and help them graduate, and get the job, and the lab, and all they need.</p>\n</div>\n\n<div class=\"section\">\n  <hr>\n</div>\n\n<div class=\"section\">\n  <p>But maybe before you set of for that kind of greatness,</p>\n  <p>you should consider Wisdom, Books and Adventure, Art and Music.</p>\n</div>\n\n<div class=\"section\">\n  <p>Become Wise first,</p>\n  <p>and then see what your aims are, then.</p>\n</div>\n\n<div class=\"section\">\n  <p>Maybe you won&apos;t need to take that test,</p>\n  <p>it&apos;s not like it is a real test of real knowledge.</p>\n</div>\n\n\n<div class=\"section\">\n  <p>And if you still need a lab,</p>\n  <p>then why not build one, both for you and those brilliant many who discovered the odds against them to be too overwhelming.</p>\n</div>\n\n<div class=\"section\">\n  <p>For you and Elsie,</p>\n  <p>pure research, pure madness, raw talent.</p>\n</div>\n\n<div class=\"section\">\n  <p>Sometimes, when something stands in your way,</p>\n  <p>it is a signal that you should build the path you wish you had, for others to walk it.</p>\n</div>\n\n<div class=\"section\">\n  <p>Maybe the honest school,</p>\n  <p>we all once needed?</p>\n</div>\n\n<div class=\"section\">\n  <hr>\n</div>\n\n<div class=\"section\">\n  <p>There is a man in a video entitled &quot;<a href=\"https://www.youtube.com/watch?v=hPSvdKTEZug\">What is the Appalachian Trail?</a>&quot;,</p>\n  <p>who at 6 minutes and 27 seconds says:</p>\n</div>\n\n<div class=\"section\">\n  <p>&quot;<a href=\"https://www.youtube.com/watch?v=hPSvdKTEZug&amp;t=380\">By the world standards I don&apos;t have anything, but I stand before you now and tell you, I&apos;m the richest man there is.</a>&quot;</p>\n</div>\n\n<div class=\"section\">\n  <p>I think it maybe best that each Human Being should find their Wisdom and Enlightenment,</p>\n  <p>before, setting their aims.</p>\n</div>\n\n<div class=\"section\">\n  <p>Rise First, and then help the world grow, and in a way that comes naturally to you, that completes you,</p>\n  <p>where the path before you isn&apos;t against odds, but matches your unique predispositions for greatness.</p>\n</div>\n\n<div class=\"section\">\n  <hr>\n</div>\n\n<div class=\"section\">\n  <p>It isn&apos;t really about that particular prize,</p>\n  <p>is it?</p>\n</div>\n\n<div class=\"section\">\n  <p>It is a call to greatness,</p>\n  <p>it is a call directly to you.</p>\n</div>\n\n<div class=\"section\">\n  <p>It is meant to be answered in a way that fits you best,</p>\n  <p>that makes you better and stronger.</p>\n</div>\n\n<div class=\"section\">\n  <p>Here you need not worry about odds,</p>\n  <p>or interference from schools or labs meant to help you.</p>\n</div>\n\n<div class=\"section\">\n  <p>And you get to read or listen to books that you pick,</p>\n  <p>and not ones that are picked for you by strangers who can&apos;t even tell if any of it will be useful to you.</p>\n</div>\n\n<div class=\"section\">\n  <p>I say,</p>\n  <p>dream even bigger.</p>\n</div>\n\n<div class=\"section\">\n  <p>And if you must, then remember it is not just Physics, Chemistry, Physiology or Medicine,</p>\n  <p>it is also Literature, and Peace.</p>\n</div>",
  "bootstrap": "<div class=\"card card-section bg-dark text-warning shadow\">\n  <div class=\"section card-body mb-0 my-2\">\n    <div class=\"paragraph card-text card-stanza my-5 text-center\">First of all, I want you to know, that you could win that Prize.</div>\n    <div class=\"paragraph card-text card-stanza my-5 text-center\">bestowed upon those who made the greatest contributions to humankind.</div>\n  </div>\n</div>\n<div class=\"card card-section bg-dark text-warning shadow\">\n  <div class=\"section card-body mb-0 my-2\">\n    <div class=\"paragraph card-text card-stanza my-5 text-center\">And that there are multiple pathways,</div>\n    <div class=\"paragraph card-text card-stanza my-5 text-center\">so as long as you are in the right place, somewhere out on the edge.</div>\n  </div>\n</div>\n<div class=\"card card-section bg-dark text-warning shadow\">\n  <div class=\"section card-body mb-0 my-2\">\n    <div class=\"paragraph card-text card-stanza my-5 text-center\">It is hard to say a bad thing about it,</div>\n    <div class=\"paragraph card-text card-stanza my-5 text-center\">but the road there is not perfect.</div>\n  </div>\n</div>\n<div class=\"card card-section bg-dark text-warning shadow\">\n  <div class=\"section card-body mb-0 my-2\">\n    <div class=\"paragraph card-text card-stanza my-5 text-center\"><a href=\"https://www.youtube.com/watch?v=Ti9ZsP4wa0Q\">The schools are not working</a> for one,</div>\n    <div class=\"paragraph card-text card-stanza my-5 text-center\">and as always there will be troublemakers and liars along the way.</div>\n  </div>\n</div>\n<div class=\"mb-5 section-spacer\">&nbsp;</div>\n<div class=\"card card-section bg-dark text-warning shadow\">\n  <div class=\"section card-body mb-0 my-2\">\n    <div class=\"paragraph card-text card-stanza my-5 text-center\">You will be forced to learn strange and ultimately meaningless things to get into a brand name college,</div>\n    <div class=\"paragraph card-text card-stanza my-5 text-center\">tested by an outdated ever-being-phased-out process, and you need the full 1600 score, to send a message.</div>\n  </div>\n</div>\n<div class=\"card card-section bg-dark text-warning shadow\">\n  <div class=\"section card-body mb-0 my-2\">\n    <div class=\"paragraph card-text card-stanza my-5 text-center\">You need to <a href=\"https://www.youtube.com/watch?v=M2A0aOqVn3E\">start preparing for the SAT years ahead of graduating high school</a>,</div>\n    <div class=\"paragraph card-text card-stanza my-5 text-center\">at first your entire education must be structured to unhinge the SAT patterns.</div>\n  </div>\n</div>\n<div class=\"card card-section bg-dark text-warning shadow\">\n  <div class=\"section card-body mb-0 my-2\">\n    <div class=\"paragraph card-text card-stanza my-5 text-center\">Apply to all the expensive colleges,,</div>\n    <div class=\"paragraph card-text card-stanza my-5 text-center\">and <a href=\"https://www.youtube.com/watch?v=9aNp6bJCAhU\">learn to relax but keep moving, fast.</a>.</div>\n  </div>\n</div>\n<div class=\"card card-section bg-dark text-warning shadow\">\n  <div class=\"section card-body mb-0 my-2\">\n    <div class=\"paragraph card-text card-stanza my-5 text-center\">You are not going to give the Senior Orator speech,</div>\n    <div class=\"paragraph card-text card-stanza my-5 text-center\">because to get at the Prize you will not have the time to follow all instructions.</div>\n  </div>\n</div>\n<div class=\"card card-section bg-dark text-warning shadow\">\n  <div class=\"section card-body mb-0 my-2\">\n    <div class=\"paragraph card-text card-stanza my-5 text-center\">Then you will need to find a lab that is doing cutting edge research,</div>\n    <div class=\"paragraph card-text card-stanza my-5 text-center\">and begin scanning the unknown for anomalies, don't focus on what seems interesting, so much as what is anomalous and unexplored.</div>\n  </div>\n</div>\n<div class=\"mb-5 section-spacer\">&nbsp;</div>\n<div class=\"card card-section bg-dark text-warning shadow\">\n  <div class=\"section card-body mb-0 my-2\">\n    <div class=\"paragraph card-text card-stanza my-5 text-center\">You will become a World Class Scientist, you will become a force of science, you will be huge, a perfect expert in your field,</div>\n    <div class=\"paragraph card-text card-stanza my-5 text-center\">and with a touch of luck easily find something, maybe in anti-aging, or DNA recombination, computer integration.</div>\n  </div>\n</div>\n<div class=\"card card-section bg-dark text-warning shadow\">\n  <div class=\"section card-body mb-0 my-2\">\n    <div class=\"paragraph card-text card-stanza my-5 text-center\">That will nearly guarantee you the Prize,</div>\n    <div class=\"paragraph card-text card-stanza my-5 text-center\">it will be a great accomplishment.</div>\n  </div>\n</div>\n<div class=\"card card-section bg-dark text-warning shadow\">\n  <div class=\"section card-body mb-0 my-2\">\n    <div class=\"paragraph card-text card-stanza my-5 text-center\">Worse comes to worst, it may just be that the Prize Committee is not going to be as forward in their thinking as they should be,</div>\n    <div class=\"paragraph card-text card-stanza my-5 text-center\">but that will be just as good as the prize, you will know it, the history books will know it.</div>\n  </div>\n</div>\n<div class=\"mb-5 section-spacer\">&nbsp;</div>\n<div class=\"card card-section bg-dark text-warning shadow\">\n  <div class=\"section card-body mb-0 my-2\">\n    <div class=\"paragraph card-text card-stanza my-5 text-center\">There is a lot of forks in the road, yes,</div>\n    <div class=\"paragraph card-text card-stanza my-5 text-center\">and the correct paths rely on luck, yes, but you can make your own luck by standing at the fork long enough.</div>\n  </div>\n</div>\n<div class=\"mb-5 section-spacer\">&nbsp;</div>\n<div class=\"card card-section bg-dark text-warning shadow\">\n  <div class=\"section card-body mb-0 my-2\">\n    <div class=\"paragraph card-text card-stanza my-5 text-center\">Once you get into the university, <a href=\"https://www.youtube.com/watch?v=jONxkm62aDI\">the outsider-teacher will say the truth: they don't know if the grades and classes and guidance, will help you at all</a>,</div>\n    <div class=\"paragraph card-text card-stanza my-5 text-center\">they are teaching blind, and throwing these blind tests at your feet, which is more like interference than help, isn't it?</div>\n  </div>\n</div>\n<div class=\"card card-section bg-dark text-warning shadow\">\n  <div class=\"section card-body mb-0 my-2\">\n    <div class=\"paragraph card-text card-stanza my-5 text-center\">There will be bumps in the road,</div>\n    <div class=\"paragraph card-text card-stanza my-5 text-center\">unfairness along the way.</div>\n  </div>\n</div>\n<div class=\"card card-section bg-dark text-warning shadow\">\n  <div class=\"section card-body mb-0 my-2\">\n    <div class=\"paragraph card-text card-stanza my-5 text-center\">What happened to <a href=\"https://www.youtube.com/watch?v=BIP0lYrdirI\">Rosalind Franklin</a>,</div>\n    <div class=\"paragraph card-text card-stanza my-5 text-center\">is beyond heartbreaking.</div>\n  </div>\n</div>\n<div class=\"mb-5 section-spacer\">&nbsp;</div>\n<div class=\"card card-section bg-dark text-warning shadow\">\n  <div class=\"section card-body mb-0 my-2\">\n    <div class=\"paragraph card-text card-stanza my-5 text-center\">I think, I want you to have more than a prize,</div>\n    <div class=\"paragraph card-text card-stanza my-5 text-center\">I don't want anybody to fight things that should honor them, be it school or whichever company you care to work at.</div>\n  </div>\n</div>\n<div class=\"card card-section bg-dark text-warning shadow\">\n  <div class=\"section card-body mb-0 my-2\">\n    <div class=\"paragraph card-text card-stanza my-5 text-center\">If the schools were working,</div>\n    <div class=\"paragraph card-text card-stanza my-5 text-center\">if you didn't need to fight odds.</div>\n  </div>\n</div>\n<div class=\"card card-section bg-dark text-warning shadow\">\n  <div class=\"section card-body mb-0 my-2\">\n    <div class=\"paragraph card-text card-stanza my-5 text-center\">If you could start in High School,</div>\n    <div class=\"paragraph card-text card-stanza my-5 text-center\">not a lab at 40, then this could be balanced with life.</div>\n  </div>\n</div>\n<div class=\"mb-5 section-spacer\">&nbsp;</div>\n<div class=\"card card-section bg-dark text-warning shadow\">\n  <div class=\"section card-body mb-0 my-2\">\n    <div class=\"paragraph card-text card-stanza my-5 text-center\">We are not machines, we aren't meant to bend odds that are against us out of stupidity, greed, inauthenticity, shortsightedness, or whether or not our parents work in that lab,</div>\n    <div class=\"paragraph card-text card-stanza my-5 text-center\">we shouldn't need to sacrifice on our way towards that kind of greatness.</div>\n  </div>\n</div>\n<div class=\"card card-section bg-dark text-warning shadow\">\n  <div class=\"section card-body mb-0 my-2\">\n    <div class=\"paragraph card-text card-stanza my-5 text-center\">Rosalind Franklin... Elsie was fighting the same fight that stands in your way,</div>\n    <div class=\"paragraph card-text card-stanza my-5 text-center\">and liars are cunning, and evil, and they drain us of energy.</div>\n  </div>\n</div>\n<div class=\"card card-section bg-dark text-warning shadow\">\n  <div class=\"section card-body mb-0 my-2\">\n    <div class=\"paragraph card-text card-stanza my-5 text-center\">What the hell does a Dean at a Brand Name University know about what it takes to be like Elsie,</div>\n    <div class=\"paragraph card-text card-stanza my-5 text-center\">the things claiming to help you will be attacking you if not downright stalking you out of debt, greed, jealousy, the same damn nonsense that has always held humanity back.</div>\n  </div>\n</div>\n<div class=\"mb-5 section-spacer\">&nbsp;</div>\n<div class=\"card card-section bg-dark text-warning shadow\">\n  <div class=\"section card-body mb-0 my-2\">\n    <div class=\"paragraph card-text card-stanza my-5 text-center\">Remember Sun Tzu?</div>\n    <div class=\"paragraph card-text card-stanza my-5 text-center\">\"Victorious warriors win first and then go to war, while defeated warriors go to war first and then seek to win.\"</div>\n  </div>\n</div>\n<div class=\"card card-section bg-dark text-warning shadow\">\n  <div class=\"section card-body mb-0 my-2\">\n    <div class=\"paragraph card-text card-stanza my-5 text-center\">It may be that the world isn't good enough to appreciate the many sacrifices that you will surely make along the way,</div>\n    <div class=\"paragraph card-text card-stanza my-5 text-center\">I want you to choose living a healthy and balanced life, where DNA recombination is something you do as a second thought with the person that you will end up sharing the rest of your very long and very happy life with.</div>\n  </div>\n</div>\n<div class=\"card card-section bg-dark text-warning shadow\">\n  <div class=\"section card-body mb-0 my-2\">\n    <div class=\"paragraph card-text card-stanza my-5 text-center\">I don't want you to fight the odds,</div>\n    <div class=\"paragraph card-text card-stanza my-5 text-center\">the odds should always be on your side, and every step of your journey to make lasting contributions to Human Kind should be Honored, even before you get your Prize.</div>\n  </div>\n</div>\n<div class=\"card card-section bg-dark text-warning shadow\">\n  <div class=\"section card-body mb-0 my-2\">\n    <div class=\"paragraph card-text card-stanza my-5 text-center\">I want the world to work for you,</div>\n    <div class=\"paragraph card-text card-stanza my-5 text-center\">not against you.</div>\n  </div>\n</div>\n<div class=\"card card-section bg-dark text-warning shadow\">\n  <div class=\"section card-body mb-0 my-2\">\n    <div class=\"paragraph card-text card-stanza my-5 text-center\">And I don't want you to be alone like Elsie,</div>\n    <div class=\"paragraph card-text card-stanza my-5 text-center\">and the countless many whose names we don't yet know, or may never know.</div>\n  </div>\n</div>\n<div class=\"mb-5 section-spacer\">&nbsp;</div>\n<div class=\"card card-section bg-dark text-warning shadow\">\n  <div class=\"section card-body mb-0 my-2\">\n    <div class=\"paragraph card-text card-stanza my-5 text-center\">I know that there are people who will help you along the way,</div>\n    <div class=\"paragraph card-text card-stanza my-5 text-center\">people who monitor those who aim the highest, and help them graduate, and get the job, and the lab, and all they need.</div>\n  </div>\n</div>\n<div class=\"mb-5 section-spacer\">&nbsp;</div>\n<div class=\"card card-section bg-dark text-warning shadow\">\n  <div class=\"section card-body mb-0 my-2\">\n    <div class=\"paragraph card-text card-stanza my-5 text-center\">But maybe before you set of for that kind of greatness,</div>\n    <div class=\"paragraph card-text card-stanza my-5 text-center\">you should consider Wisdom, Books and Adventure, Art and Music.</div>\n  </div>\n</div>\n<div class=\"card card-section bg-dark text-warning shadow\">\n  <div class=\"section card-body mb-0 my-2\">\n    <div class=\"paragraph card-text card-stanza my-5 text-center\">Become Wise first,</div>\n    <div class=\"paragraph card-text card-stanza my-5 text-center\">and then see what your aims are, then.</div>\n  </div>\n</div>\n<div class=\"card card-section bg-dark text-warning shadow\">\n  <div class=\"section card-body mb-0 my-2\">\n    <div class=\"paragraph card-text card-stanza my-5 text-center\">Maybe you won't need to take that test,</div>\n    <div class=\"paragraph card-text card-stanza my-5 text-center\">it's not like it is a real test of real knowledge.</div>\n  </div>\n</div>\n<div class=\"card card-section bg-dark text-warning shadow\">\n  <div class=\"section card-body mb-0 my-2\">\n    <div class=\"paragraph card-text card-stanza my-5 text-center\">And if you still need a lab,</div>\n    <div class=\"paragraph card-text card-stanza my-5 text-center\">then why not build one, both for you and those brilliant many who discovered the odds against them to be too overwhelming.</div>\n  </div>\n</div>\n<div class=\"card card-section bg-dark text-warning shadow\">\n  <div class=\"section card-body mb-0 my-2\">\n    <div class=\"paragraph card-text card-stanza my-5 text-center\">For you and Elsie,</div>\n    <div class=\"paragraph card-text card-stanza my-5 text-center\">pure research, pure madness, raw talent.</div>\n  </div>\n</div>\n<div class=\"card card-section bg-dark text-warning shadow\">\n  <div class=\"section card-body mb-0 my-2\">\n    <div class=\"paragraph card-text card-stanza my-5 text-center\">Sometimes, when something stands in your way,</div>\n    <div class=\"paragraph card-text card-stanza my-5 text-center\">it is a signal that you should build the path you wish you had, for others to walk it.</div>\n  </div>\n</div>\n<div class=\"card card-section bg-dark text-warning shadow\">\n  <div class=\"section card-body mb-0 my-2\">\n    <div class=\"paragraph card-text card-stanza my-5 text-center\">Maybe the honest school,</div>\n    <div class=\"paragraph card-text card-stanza my-5 text-center\">we all once needed?</div>\n  </div>\n</div>\n<div class=\"mb-5 section-spacer\">&nbsp;</div>\n<div class=\"card card-section bg-dark text-warning shadow\">\n  <div class=\"section card-body mb-0 my-2\">\n    <div class=\"paragraph card-text card-stanza my-5 text-center\">There is a man in a video entitled \"<a href=\"https://www.youtube.com/watch?v=hPSvdKTEZug\">What is the Appalachian Trail?</a>\",</div>\n    <div class=\"paragraph card-text card-stanza my-5 text-center\">who at 6 minutes and 27 seconds says:</div>\n  </div>\n</div>\n<div class=\"card card-section bg-dark text-warning shadow\">\n  <div class=\"section card-body mb-0 my-2\">\n    <div class=\"paragraph card-text card-stanza my-5 text-center\">\"<a href=\"https://www.youtube.com/watch?v=hPSvdKTEZug&t=380\">By the world standards I don't have anything, but I stand before you now and tell you, I'm the richest man there is.</a>\"</div>\n  </div>\n</div>\n<div class=\"card card-section bg-dark text-warning shadow\">\n  <div class=\"section card-body mb-0 my-2\">\n    <div class=\"paragraph card-text card-stanza my-5 text-center\">I think it maybe best that each Human Being should find their Wisdom and Enlightenment,</div>\n    <div class=\"paragraph card-text card-stanza my-5 text-center\">before, setting their aims.</div>\n  </div>\n</div>\n<div class=\"card card-section bg-dark text-warning shadow\">\n  <div class=\"section card-body mb-0 my-2\">\n    <div class=\"paragraph card-text card-stanza my-5 text-center\">Rise First, and then help the world grow, and in a way that comes naturally to you, that completes you,</div>\n    <div class=\"paragraph card-text card-stanza my-5 text-center\">where the path before you isn't against odds, but matches your unique predispositions for greatness.</div>\n  </div>\n</div>\n<div class=\"mb-5 section-spacer\">&nbsp;</div>\n<div class=\"card card-section bg-dark text-warning shadow\">\n  <div class=\"section card-body mb-0 my-2\">\n    <div class=\"paragraph card-text card-stanza my-5 text-center\">It isn't really about that particular prize,</div>\n    <div class=\"paragraph card-text card-stanza my-5 text-center\">is it?</div>\n  </div>\n</div>\n<div class=\"card card-section bg-dark text-warning shadow\">\n  <div class=\"section card-body mb-0 my-2\">\n    <div class=\"paragraph card-text card-stanza my-5 text-center\">It is a call to greatness,</div>\n    <div class=\"paragraph card-text card-stanza my-5 text-center\">it is a call directly to you.</div>\n  </div>\n</div>\n<div class=\"card card-section bg-dark text-warning shadow\">\n  <div class=\"section card-body mb-0 my-2\">\n    <div class=\"paragraph card-text card-stanza my-5 text-center\">It is meant to be answered in a way that fits you best,</div>\n    <div class=\"paragraph card-text card-stanza my-5 text-center\">that makes you better and stronger.</div>\n  </div>\n</div>\n<div class=\"card card-section bg-dark text-warning shadow\">\n  <div class=\"section card-body mb-0 my-2\">\n    <div class=\"paragraph card-text card-stanza my-5 text-center\">Here you need not worry about odds,</div>\n    <div class=\"paragraph card-text card-stanza my-5 text-center\">or interference from schools or labs meant to help you.</div>\n  </div>\n</div>\n<div class=\"card card-section bg-dark text-warning shadow\">\n  <div class=\"section card-body mb-0 my-2\">\n    <div class=\"paragraph card-text card-stanza my-5 text-center\">And you get to read or listen to books that you pick,</div>\n    <div class=\"paragraph card-text card-stanza my-5 text-center\">and not ones that are picked for you by strangers who can't even tell if any of it will be useful to you.</div>\n  </div>\n</div>\n<div class=\"card card-section bg-dark text-warning shadow\">\n  <div class=\"section card-body mb-0 my-2\">\n    <div class=\"paragraph card-text card-stanza my-5 text-center\">I say,</div>\n    <div class=\"paragraph card-text card-stanza my-5 text-center\">dream even bigger.</div>\n  </div>\n</div>\n<div class=\"card card-section bg-dark text-warning shadow\">\n  <div class=\"section card-body mb-0 my-2\">\n    <div class=\"paragraph card-text card-stanza my-5 text-center\">And if you must, then remember it is not just Physics, Chemistry, Physiology or Medicine,</div>\n    <div class=\"paragraph card-text card-stanza my-5 text-center\">it is also Literature, and Peace.</div>\n  </div>\n</div>",
  "print": "<div class=\"section avoid-break-inside\" style=\"padding-bottom: 2rem;\">\n  <div class=\"paragraph\">First of all, I want you to know, that you could win that Prize.</div>\n  <div class=\"paragraph\">bestowed upon those who made the greatest contributions to humankind.</div>\n</div>\n<div class=\"section avoid-break-inside\" style=\"padding-bottom: 2rem;\">\n  <div class=\"paragraph\">And that there are multiple pathways,</div>\n  <div class=\"paragraph\">so as long as you are in the right place, somewhere out on the edge.</div>\n</div>\n<div class=\"section avoid-break-inside\" style=\"padding-bottom: 2rem;\">\n  <div class=\"paragraph\">It is hard to say a bad thing about it,</div>\n  <div class=\"paragraph\">but the road there is not perfect.</div>\n</div>\n<div class=\"section avoid-break-inside\" style=\"padding-bottom: 2rem;\">\n  <div class=\"paragraph\"><span>The schools are not working<sup>[1]</sup></span> for one,</div>\n  <div class=\"paragraph\">and as always there will be troublemakers and liars along the way.</div>\n</div>\n<div class=\"section avoid-break-inside\" style=\"padding-bottom: 2rem;\">\n  <br>\n</div>\n<div class=\"section avoid-break-inside\" style=\"padding-bottom: 2rem;\">\n  <div class=\"paragraph\">You will be forced to learn strange and ultimately meaningless things to get into a brand name college,</div>\n  <div class=\"paragraph\">tested by an outdated ever-being-phased-out process, and you need the full 1600 score, to send a message.</div>\n</div>\n<div class=\"section avoid-break-inside\" style=\"padding-bottom: 2rem;\">\n  <div class=\"paragraph\">You need to <span>start preparing for the SAT years ahead of graduating high school<sup>[2]</sup></span>,</div>\n  <div class=\"paragraph\">at first your entire education must be structured to unhinge the SAT patterns.</div>\n</div>\n<div class=\"section avoid-break-inside\" style=\"padding-bottom: 2rem;\">\n  <div class=\"paragraph\">Apply to all the expensive colleges,,</div>\n  <div class=\"paragraph\">and <span>learn to relax but keep moving, fast.<sup>[3]</sup></span>.</div>\n</div>\n<div class=\"section avoid-break-inside\" style=\"padding-bottom: 2rem;\">\n  <div class=\"paragraph\">You are not going to give the Senior Orator speech,</div>\n  <div class=\"paragraph\">because to get at the Prize you will not have the time to follow all instructions.</div>\n</div>\n<div class=\"section avoid-break-inside\" style=\"padding-bottom: 2rem;\">\n  <div class=\"paragraph\">Then you will need to find a lab that is doing cutting edge research,</div>\n  <div class=\"paragraph\">and begin scanning the unknown for anomalies, don't focus on what seems interesting, so much as what is anomalous and unexplored.</div>\n</div>\n<div class=\"section avoid-break-inside\" style=\"padding-bottom: 2rem;\">\n  <br>\n</div>\n<div class=\"section avoid-break-inside\" style=\"padding-bottom: 2rem;\">\n  <div class=\"paragraph\">You will become a World Class Scientist, you will become a force of science, you will be huge, a perfect expert in your field,</div>\n  <div class=\"paragraph\">and with a touch of luck easily find something, maybe in anti-aging, or DNA recombination, computer integration.</div>\n</div>\n<div class=\"section avoid-break-inside\" style=\"padding-bottom: 2rem;\">\n  <div class=\"paragraph\">That will nearly guarantee you the Prize,</div>\n  <div class=\"paragraph\">it will be a great accomplishment.</div>\n</div>\n<div class=\"section avoid-break-inside\" style=\"padding-bottom: 2rem;\">\n  <div class=\"paragraph\">Worse comes to worst, it may just be that the Prize Committee is not going to be as forward in their thinking as they should be,</div>\n  <div class=\"paragraph\">but that will be just as good as the prize, you will know it, the history books will know it.</div>\n</div>\n<div class=\"section avoid-break-inside\" style=\"padding-bottom: 2rem;\">\n  <br>\n</div>\n<div class=\"section avoid-break-inside\" style=\"padding-bottom: 2rem;\">\n  <div class=\"paragraph\">There is a lot of forks in the road, yes,</div>\n  <div class=\"paragraph\">and the correct paths rely on luck, yes, but you can make your own luck by standing at the fork long enough.</div>\n</div>\n<div class=\"section avoid-break-inside\" style=\"padding-bottom: 2rem;\">\n  <br>\n</div>\n<div class=\"section avoid-break-inside\" style=\"padding-bottom: 2rem;\">\n  <div class=\"paragraph\">Once you get into the university, <span>the outsider-teacher will say the truth: they don't know if the grades and classes and guidance, will help you at all<sup>[4]</sup></span>,</div>\n  <div class=\"paragraph\">they are teaching blind, and throwing these blind tests at your feet, which is more like interference than help, isn't it?</div>\n</div>\n<div class=\"section avoid-break-inside\" style=\"padding-bottom: 2rem;\">\n  <div class=\"paragraph\">There will be bumps in the road,</div>\n  <div class=\"paragraph\">unfairness along the way.</div>\n</div>\n<div class=\"section avoid-break-inside\" style=\"padding-bottom: 2rem;\">\n  <div class=\"paragraph\">What happened to <span>Rosalind Franklin<sup>[5]</sup></span>,</div>\n  <div class=\"paragraph\">is beyond heartbreaking.</div>\n</div>\n<div class=\"section avoid-break-inside\" style=\"padding-bottom: 2rem;\">\n  <br>\n</div>\n<div class=\"section avoid-break-inside\" style=\"padding-bottom: 2rem;\">\n  <div class=\"paragraph\">I think, I want you to have more than a prize,</div>\n  <div class=\"paragraph\">I don't want anybody to fight things that should honor them, be it school or whichever company you care to work at.</div>\n</div>\n<div class=\"section avoid-break-inside\" style=\"padding-bottom: 2rem;\">\n  <div class=\"paragraph\">If the schools were working,</div>\n  <div class=\"paragraph\">if you didn't need to fight odds.</div>\n</div>\n<div class=\"section avoid-break-inside\" style=\"padding-bottom: 2rem;\">\n  <div class=\"paragraph\">If you could start in High School,</div>\n  <div class=\"paragraph\">not a lab at 40, then this could be balanced with life.</div>\n</div>\n<div class=\"section avoid-break-inside\" style=\"padding-bottom: 2rem;\">\n  <br>\n</div>\n<div class=\"section avoid-break-inside\" style=\"padding-bottom: 2rem;\">\n  <div class=\"paragraph\">We are not machines, we aren't meant to bend odds that are against us out of stupidity, greed, inauthenticity, shortsightedness, or whether or not our parents work in that lab,</div>\n  <div class=\"paragraph\">we shouldn't need to sacrifice on our way towards that kind of greatness.</div>\n</div>\n<div class=\"section avoid-break-inside\" style=\"padding-bottom: 2rem;\">\n  <div class=\"paragraph\">Rosalind Franklin... Elsie was fighting the same fight that stands in your way,</div>\n  <div class=\"paragraph\">and liars are cunning, and evil, and they drain us of energy.</div>\n</div>\n<div class=\"section avoid-break-inside\" style=\"padding-bottom: 2rem;\">\n  <div class=\"paragraph\">What the hell does a Dean at a Brand Name University know about what it takes to be like Elsie,</div>\n  <div class=\"paragraph\">the things claiming to help you will be attacking you if not downright stalking you out of debt, greed, jealousy, the same damn nonsense that has always held humanity back.</div>\n</div>\n<div class=\"section avoid-break-inside\" style=\"padding-bottom: 2rem;\">\n  <br>\n</div>\n<div class=\"section avoid-break-inside\" style=\"padding-bottom: 2rem;\">\n  <div class=\"paragraph\">Remember Sun Tzu?</div>\n  <div class=\"paragraph\">\"Victorious warriors win first and then go to war, while defeated warriors go to war first and then seek to win.\"</div>\n</div>\n<div class=\"section avoid-break-inside\" style=\"padding-bottom: 2rem;\">\n  <div class=\"paragraph\">It may be that the world isn't good enough to appreciate the many sacrifices that you will surely make along the way,</div>\n  <div class=\"paragraph\">I want you to choose living a healthy and balanced life, where DNA recombination is something you do as a second thought with the person that you will end up sharing the rest of your very long and very happy life with.</div>\n</div>\n<div class=\"section avoid-break-inside\" style=\"padding-bottom: 2rem;\">\n  <div class=\"paragraph\">I don't want you to fight the odds,</div>\n  <div class=\"paragraph\">the odds should always be on your side, and every step of your journey to make lasting contributions to Human Kind should be Honored, even before you get your Prize.</div>\n</div>\n<div class=\"section avoid-break-inside\" style=\"padding-bottom: 2rem;\">\n  <div class=\"paragraph\">I want the world to work for you,</div>\n  <div class=\"paragraph\">not against you.</div>\n</div>\n<div class=\"section avoid-break-inside\" style=\"padding-bottom: 2rem;\">\n  <div class=\"paragraph\">And I don't want you to be alone like Elsie,</div>\n  <div class=\"paragraph\">and the countless many whose names we don't yet know, or may never know.</div>\n</div>\n<div class=\"section avoid-break-inside\" style=\"padding-bottom: 2rem;\">\n  <br>\n</div>\n<div class=\"section avoid-break-inside\" style=\"padding-bottom: 2rem;\">\n  <div class=\"paragraph\">I know that there are people who will help you along the way,</div>\n  <div class=\"paragraph\">people who monitor those who aim the highest, and help them graduate, and get the job, and the lab, and all they need.</div>\n</div>\n<div class=\"section avoid-break-inside\" style=\"padding-bottom: 2rem;\">\n  <br>\n</div>\n<div class=\"section avoid-break-inside\" style=\"padding-bottom: 2rem;\">\n  <div class=\"paragraph\">But maybe before you set of for that kind of greatness,</div>\n  <div class=\"paragraph\">you should consider Wisdom, Books and Adventure, Art and Music.</div>\n</div>\n<div class=\"section avoid-break-inside\" style=\"padding-bottom: 2rem;\">\n  <div class=\"paragraph\">Become Wise first,</div>\n  <div class=\"paragraph\">and then see what your aims are, then.</div>\n</div>\n<div class=\"section avoid-break-inside\" style=\"padding-bottom: 2rem;\">\n  <div class=\"paragraph\">Maybe you won't need to take that test,</div>\n  <div class=\"paragraph\">it's not like it is a real test of real knowledge.</div>\n</div>\n<div class=\"section avoid-break-inside\" style=\"padding-bottom: 2rem;\">\n  <div class=\"paragraph\">And if you still need a lab,</div>\n  <div class=\"paragraph\">then why not build one, both for you and those brilliant many who discovered the odds against them to be too overwhelming.</div>\n</div>\n<div class=\"section avoid-break-inside\" style=\"padding-bottom: 2rem;\">\n  <div class=\"paragraph\">For you and Elsie,</div>\n  <div class=\"paragraph\">pure research, pure madness, raw talent.</div>\n</div>\n<div class=\"section avoid-break-inside\" style=\"padding-bottom: 2rem;\">\n  <div class=\"paragraph\">Sometimes, when something stands in your way,</div>\n  <div class=\"paragraph\">it is a signal that you should build the path you wish you had, for others to walk it.</div>\n</div>\n<div class=\"section avoid-break-inside\" style=\"padding-bottom: 2rem;\">\n  <div class=\"paragraph\">Maybe the honest school,</div>\n  <div class=\"paragraph\">we all once needed?</div>\n</div>\n<div class=\"section avoid-break-inside\" style=\"padding-bottom: 2rem;\">\n  <br>\n</div>\n<div class=\"section avoid-break-inside\" style=\"padding-bottom: 2rem;\">\n  <div class=\"paragraph\">There is a man in a video entitled \"<span>What is the Appalachian Trail?<sup>[6]</sup></span>\",</div>\n  <div class=\"paragraph\">who at 6 minutes and 27 seconds says:</div>\n</div>\n<div class=\"section avoid-break-inside\" style=\"padding-bottom: 2rem;\">\n  <div class=\"paragraph\">\"<span>By the world standards I don't have anything, but I stand before you now and tell you, I'm the richest man there is.<sup>[7]</sup></span>\"</div>\n</div>\n<div class=\"section avoid-break-inside\" style=\"padding-bottom: 2rem;\">\n  <div class=\"paragraph\">I think it maybe best that each Human Being should find their Wisdom and Enlightenment,</div>\n  <div class=\"paragraph\">before, setting their aims.</div>\n</div>\n<div class=\"section avoid-break-inside\" style=\"padding-bottom: 2rem;\">\n  <div class=\"paragraph\">Rise First, and then help the world grow, and in a way that comes naturally to you, that completes you,</div>\n  <div class=\"paragraph\">where the path before you isn't against odds, but matches your unique predispositions for greatness.</div>\n</div>\n<div class=\"section avoid-break-inside\" style=\"padding-bottom: 2rem;\">\n  <br>\n</div>\n<div class=\"section avoid-break-inside\" style=\"padding-bottom: 2rem;\">\n  <div class=\"paragraph\">It isn't really about that particular prize,</div>\n  <div class=\"paragraph\">is it?</div>\n</div>\n<div class=\"section avoid-break-inside\" style=\"padding-bottom: 2rem;\">\n  <div class=\"paragraph\">It is a call to greatness,</div>\n  <div class=\"paragraph\">it is a call directly to you.</div>\n</div>\n<div class=\"section avoid-break-inside\" style=\"padding-bottom: 2rem;\">\n  <div class=\"paragraph\">It is meant to be answered in a way that fits you best,</div>\n  <div class=\"paragraph\">that makes you better and stronger.</div>\n</div>\n<div class=\"section avoid-break-inside\" style=\"padding-bottom: 2rem;\">\n  <div class=\"paragraph\">Here you need not worry about odds,</div>\n  <div class=\"paragraph\">or interference from schools or labs meant to help you.</div>\n</div>\n<div class=\"section avoid-break-inside\" style=\"padding-bottom: 2rem;\">\n  <div class=\"paragraph\">And you get to read or listen to books that you pick,</div>\n  <div class=\"paragraph\">and not ones that are picked for you by strangers who can't even tell if any of it will be useful to you.</div>\n</div>\n<div class=\"section avoid-break-inside\" style=\"padding-bottom: 2rem;\">\n  <div class=\"paragraph\">I say,</div>\n  <div class=\"paragraph\">dream even bigger.</div>\n</div>\n<div class=\"section avoid-break-inside\" style=\"padding-bottom: 2rem;\">\n  <div class=\"paragraph\">And if you must, then remember it is not just Physics, Chemistry, Physiology or Medicine,</div>\n  <div class=\"paragraph\">it is also Literature, and Peace.</div>\n</div>\n<div class=\"break-after\">&nbsp;</div>\n<div>\n  <div class=\"section\" style=\"padding-bottom: 1rem;\">References</div>\n  <div>[1]: https://www.youtube.com/watch?v=Ti9ZsP4wa0Q</div>\n  <div>[2]: https://www.youtube.com/watch?v=M2A0aOqVn3E</div>\n  <div>[3]: https://www.youtube.com/watch?v=9aNp6bJCAhU</div>\n  <div>[4]: https://www.youtube.com/watch?v=jONxkm62aDI</div>\n  <div>[5]: https://www.youtube.com/watch?v=BIP0lYrdirI</div>\n  <div>[6]: https://www.youtube.com/watch?v=hPSvdKTEZug</div>\n  <div>[7]: https://www.youtube.com/watch?v=hPSvdKTEZug&t=380</div>\n</div>",
  "text": "First of all, I want you to know, that you could win that Prize.\nbestowed upon those who made the greatest contributions to humankind.\nAnd that there are multiple pathways,\nso as long as you are in the right place, somewhere out on the edge.\nIt is hard to say a bad thing about it,\nbut the road there is not perfect.\nThe schools are not working[1] for one,\nand as always there will be troublemakers and liars along the way.\n\nYou will be forced to learn strange and ultimately meaningless things to get into a brand name college,\ntested by an outdated ever-being-phased-out process, and you need the full 1600 score, to send a message.\nYou need to start preparing for the SAT years ahead of graduating high school[2],\nat first your entire education must be structured to unhinge the SAT patterns.\nApply to all the expensive colleges,,\nand learn to relax but keep moving, fast.[3].\nYou are not going to give the Senior Orator speech,\nbecause to get at the Prize you will not have the time to follow all instructions.\nThen you will need to find a lab that is doing cutting edge research,\nand begin scanning the unknown for anomalies, don't focus on what seems interesting, so much as what is anomalous and unexplored.\n\nYou will become a World Class Scientist, you will become a force of science, you will be huge, a perfect expert in your field,\nand with a touch of luck easily find something, maybe in anti-aging, or DNA recombination, computer integration.\nThat will nearly guarantee you the Prize,\nit will be a great accomplishment.\nWorse comes to worst, it may just be that the Prize Committee is not going to be as forward in their thinking as they should be,\nbut that will be just as good as the prize, you will know it, the history books will know it.\n\nThere is a lot of forks in the road, yes,\nand the correct paths rely on luck, yes, but you can make your own luck by standing at the fork long enough.\n\nOnce you get into the university, the outsider-teacher will say the truth: they don't know if the grades and classes and guidance, will help you at all[4],\nthey are teaching blind, and throwing these blind tests at your feet, which is more like interference than help, isn't it?\nThere will be bumps in the road,\nunfairness along the way.\nWhat happened to Rosalind Franklin[5],\nis beyond heartbreaking.\n\nI think, I want you to have more than a prize,\nI don't want anybody to fight things that should honor them, be it school or whichever company you care to work at.\nIf the schools were working,\nif you didn't need to fight odds.\nIf you could start in High School,\nnot a lab at 40, then this could be balanced with life.\n\nWe are not machines, we aren't meant to bend odds that are against us out of stupidity, greed, inauthenticity, shortsightedness, or whether or not our parents work in that lab,\nwe shouldn't need to sacrifice on our way towards that kind of greatness.\nRosalind Franklin... Elsie was fighting the same fight that stands in your way,\nand liars are cunning, and evil, and they drain us of energy.\nWhat the hell does a Dean at a Brand Name University know about what it takes to be like Elsie,\nthe things claiming to help you will be attacking you if not downright stalking you out of debt, greed, jealousy, the same damn nonsense that has always held humanity back.\n\nRemember Sun Tzu?\n\"Victorious warriors win first and then go to war, while defeated warriors go to war first and then seek to win.\"\nIt may be that the world isn't good enough to appreciate the many sacrifices that you will surely make along the way,\nI want you to choose living a healthy and balanced life, where DNA recombination is something you do as a second thought with the person that you will end up sharing the rest of your very long and very happy life with.\nI don't want you to fight the odds,\nthe odds should always be on your side, and every step of your journey to make lasting contributions to Human Kind should be Honored, even before you get your Prize.\nI want the world to work for you,\nnot against you.\nAnd I don't want you to be alone like Elsie,\nand the countless many whose names we don't yet know, or may never know.\n\nI know that there are people who will help you along the way,\npeople who monitor those who aim the highest, and help them graduate, and get the job, and the lab, and all they need.\n\nBut maybe before you set of for that kind of greatness,\nyou should consider Wisdom, Books and Adventure, Art and Music.\nBecome Wise first,\nand then see what your aims are, then.\nMaybe you won't need to take that test,\nit's not like it is a real test of real knowledge.\nAnd if you still need a lab,\nthen why not build one, both for you and those brilliant many who discovered the odds against them to be too overwhelming.\nFor you and Elsie,\npure research, pure madness, raw talent.\nSometimes, when something stands in your way,\nit is a signal that you should build the path you wish you had, for others to walk it.\nMaybe the honest school,\nwe all once needed?\n\nThere is a man in a video entitled \"What is the Appalachian Trail?[6]\",\nwho at 6 minutes and 27 seconds says:\n\"By the world standards I don't have anything, but I stand before you now and tell you, I'm the richest man there is.[7]\"\nI think it maybe best that each Human Being should find their Wisdom and Enlightenment,\nbefore, setting their aims.\nRise First, and then help the world grow, and in a way that comes naturally to you, that completes you,\nwhere the path before you isn't against odds, but matches your unique predispositions for greatness.\n\nIt isn't really about that particular prize,\nis it?\nIt is a call to greatness,\nit is a call directly to you.\nIt is meant to be answered in a way that fits you best,\nthat makes you better and stronger.\nHere you need not worry about odds,\nor interference from schools or labs meant to help you.\nAnd you get to read or listen to books that you pick,\nand not ones that are picked for you by strangers who can't even tell if any of it will be useful to you.\nI say,\ndream even bigger.\nAnd if you must, then remember it is not just Physics, Chemistry, Physiology or Medicine,\nit is also Literature, and Peace.\n \nReferences\n[1]: https://www.youtube.com/watch?v=Ti9ZsP4wa0Q\n[2]: https://www.youtube.com/watch?v=M2A0aOqVn3E\n[3]: https://www.youtube.com/watch?v=9aNp6bJCAhU\n[4]: https://www.youtube.com/watch?v=jONxkm62aDI\n[5]: https://www.youtube.com/watch?v=BIP0lYrdirI\n[6]: https://www.youtube.com/watch?v=hPSvdKTEZug\n[7]: https://www.youtube.com/watch?v=hPSvdKTEZug&t=380",
  "images": [],
  "links": [
    {
      "title": "The schools are not working",
      "url": "https://www.youtube.com/watch?v=Ti9ZsP4wa0Q",
      "hostname": "www.youtube.com"
    },
    {
      "title": "start preparing for the SAT years ahead of graduating high school",
      "url": "https://www.youtube.com/watch?v=M2A0aOqVn3E",
      "hostname": "www.youtube.com"
    },
    {
      "title": "learn to relax but keep moving, fast.",
      "url": "https://www.youtube.com/watch?v=9aNp6bJCAhU",
      "hostname": "www.youtube.com"
    },
    {
      "title": "the outsider-teacher will say the truth: they don't know if the grades and classes and guidance, will help you at all",
      "url": "https://www.youtube.com/watch?v=jONxkm62aDI",
      "hostname": "www.youtube.com"
    },
    {
      "title": "Rosalind Franklin",
      "url": "https://www.youtube.com/watch?v=BIP0lYrdirI",
      "hostname": "www.youtube.com"
    },
    {
      "title": "What is the Appalachian Trail?",
      "url": "https://www.youtube.com/watch?v=hPSvdKTEZug",
      "hostname": "www.youtube.com"
    },
    {
      "title": "By the world standards I don't have anything, but I stand before you now and tell you, I'm the richest man there is.",
      "url": "https://www.youtube.com/watch?v=hPSvdKTEZug&t=380",
      "hostname": "www.youtube.com"
    }
  ]
}