{
  "name": "furkies-purrkies-poetry-0024",
  "title": "All Things Special",
  "date": "2020-04-05T01:04:04.832Z",
  "image": "poetry-0024-illustration.jpg",
  "artwork": "https://catpea.com/",
  "id": "furkies-purrkies-poetry-0024",
  "attachments": {},
  "guid": "5ffd4f83-7877-420a-be06-2a10a8a1a579",
  "html": "<div class=\"section\">\n  <p>Captain&apos;s Log: Day Nineteen of Quarantine.</p>\n</div>\n<div class=\"section\">\n  <p>Tomorrow, day twenty may have rhyme a plenty,</p>\n</div>\n<div class=\"section\">\n  <p>but it won&apos;t rhyme with quarantine, and that was unforeseen.</p>\n</div>\n<div class=\"section\">\n  <p>I waited all day to write,</p>\n</div>\n<div class=\"section\">\n  <p>to see if something interesting may bite.</p>\n</div>\n<div class=\"section\">\n  <p>I wanted to draw and paint, and dance and prance,</p>\n</div>\n<div class=\"section\">\n  <p>but ended up discovering a new <a href=\"https://www.youtube.com/watch?v=k6_QUhUPrF4\">poem about taking chance</a>.</p>\n</div>\n<div class=\"section\">\n  <p>I ended up programming, music and art,</p>\n</div>\n<div class=\"section\">\n  <p>I aimed to do something relaxing, but smart.</p>\n</div>\n<div class=\"section\">\n  <p>Such are meow days, and had been forever and more,</p>\n</div>\n<div class=\"section\">\n  <p>searching for all things special and all the things I adore.</p>\n</div>\n<div class=\"section\">\n  <p>Now, I am finishing today&apos;s poem, one foot already in bed,</p>\n</div>\n<div class=\"section\">\n  <p>Though I already had my salad, I wonder if I should make some bread.</p>\n</div>\n<div class=\"section\">\n  <p>That&apos;s sounds about right,</p>\n</div>\n<div class=\"section\">\n  <p>I&apos;ll waddle downstairs and grab a bite.</p>\n</div>\n<div class=\"section\">\n  <p>Goodnight.</p>\n</div>",
  "bootstrap": "<div class=\"card card-section bg-dark text-warning shadow\">\n  <div class=\"section card-body mb-0 my-2\">\n    <div class=\"paragraph card-text card-stanza my-5 text-center\">Captain's Log: Day Nineteen of Quarantine.</div>\n  </div>\n</div>\n<div class=\"card card-section bg-dark text-warning shadow\">\n  <div class=\"section card-body mb-0 my-2\">\n    <div class=\"paragraph card-text card-stanza my-5 text-center\">Tomorrow, day twenty may have rhyme a plenty,</div>\n  </div>\n</div>\n<div class=\"card card-section bg-dark text-warning shadow\">\n  <div class=\"section card-body mb-0 my-2\">\n    <div class=\"paragraph card-text card-stanza my-5 text-center\">but it won't rhyme with quarantine, and that was unforeseen.</div>\n  </div>\n</div>\n<div class=\"card card-section bg-dark text-warning shadow\">\n  <div class=\"section card-body mb-0 my-2\">\n    <div class=\"paragraph card-text card-stanza my-5 text-center\">I waited all day to write,</div>\n  </div>\n</div>\n<div class=\"card card-section bg-dark text-warning shadow\">\n  <div class=\"section card-body mb-0 my-2\">\n    <div class=\"paragraph card-text card-stanza my-5 text-center\">to see if something interesting may bite.</div>\n  </div>\n</div>\n<div class=\"card card-section bg-dark text-warning shadow\">\n  <div class=\"section card-body mb-0 my-2\">\n    <div class=\"paragraph card-text card-stanza my-5 text-center\">I wanted to draw and paint, and dance and prance,</div>\n  </div>\n</div>\n<div class=\"card card-section bg-dark text-warning shadow\">\n  <div class=\"section card-body mb-0 my-2\">\n    <div class=\"paragraph card-text card-stanza my-5 text-center\">but ended up discovering a new <a href=\"https://www.youtube.com/watch?v=k6_QUhUPrF4\">poem about taking chance</a>.</div>\n  </div>\n</div>\n<div class=\"card card-section bg-dark text-warning shadow\">\n  <div class=\"section card-body mb-0 my-2\">\n    <div class=\"paragraph card-text card-stanza my-5 text-center\">I ended up programming, music and art,</div>\n  </div>\n</div>\n<div class=\"card card-section bg-dark text-warning shadow\">\n  <div class=\"section card-body mb-0 my-2\">\n    <div class=\"paragraph card-text card-stanza my-5 text-center\">I aimed to do something relaxing, but smart.</div>\n  </div>\n</div>\n<div class=\"card card-section bg-dark text-warning shadow\">\n  <div class=\"section card-body mb-0 my-2\">\n    <div class=\"paragraph card-text card-stanza my-5 text-center\">Such are meow days, and had been forever and more,</div>\n  </div>\n</div>\n<div class=\"card card-section bg-dark text-warning shadow\">\n  <div class=\"section card-body mb-0 my-2\">\n    <div class=\"paragraph card-text card-stanza my-5 text-center\">searching for all things special and all the things I adore.</div>\n  </div>\n</div>\n<div class=\"card card-section bg-dark text-warning shadow\">\n  <div class=\"section card-body mb-0 my-2\">\n    <div class=\"paragraph card-text card-stanza my-5 text-center\">Now, I am finishing today's poem, one foot already in bed,</div>\n  </div>\n</div>\n<div class=\"card card-section bg-dark text-warning shadow\">\n  <div class=\"section card-body mb-0 my-2\">\n    <div class=\"paragraph card-text card-stanza my-5 text-center\">Though I already had my salad, I wonder if I should make some bread.</div>\n  </div>\n</div>\n<div class=\"card card-section bg-dark text-warning shadow\">\n  <div class=\"section card-body mb-0 my-2\">\n    <div class=\"paragraph card-text card-stanza my-5 text-center\">That's sounds about right,</div>\n  </div>\n</div>\n<div class=\"card card-section bg-dark text-warning shadow\">\n  <div class=\"section card-body mb-0 my-2\">\n    <div class=\"paragraph card-text card-stanza my-5 text-center\">I'll waddle downstairs and grab a bite.</div>\n  </div>\n</div>\n<div class=\"card card-section bg-dark text-warning shadow\">\n  <div class=\"section card-body mb-0 my-2\">\n    <div class=\"paragraph card-text card-stanza my-5 text-center\">Goodnight.</div>\n  </div>\n</div>",
  "print": "<div class=\"section avoid-break-inside\" style=\"padding-bottom: 2rem;\">\n  <div class=\"paragraph\">Captain's Log: Day Nineteen of Quarantine.</div>\n</div>\n<div class=\"section avoid-break-inside\" style=\"padding-bottom: 2rem;\">\n  <div class=\"paragraph\">Tomorrow, day twenty may have rhyme a plenty,</div>\n</div>\n<div class=\"section avoid-break-inside\" style=\"padding-bottom: 2rem;\">\n  <div class=\"paragraph\">but it won't rhyme with quarantine, and that was unforeseen.</div>\n</div>\n<div class=\"section avoid-break-inside\" style=\"padding-bottom: 2rem;\">\n  <div class=\"paragraph\">I waited all day to write,</div>\n</div>\n<div class=\"section avoid-break-inside\" style=\"padding-bottom: 2rem;\">\n  <div class=\"paragraph\">to see if something interesting may bite.</div>\n</div>\n<div class=\"section avoid-break-inside\" style=\"padding-bottom: 2rem;\">\n  <div class=\"paragraph\">I wanted to draw and paint, and dance and prance,</div>\n</div>\n<div class=\"section avoid-break-inside\" style=\"padding-bottom: 2rem;\">\n  <div class=\"paragraph\">but ended up discovering a new <span>poem about taking chance<sup>[1]</sup></span>.</div>\n</div>\n<div class=\"section avoid-break-inside\" style=\"padding-bottom: 2rem;\">\n  <div class=\"paragraph\">I ended up programming, music and art,</div>\n</div>\n<div class=\"section avoid-break-inside\" style=\"padding-bottom: 2rem;\">\n  <div class=\"paragraph\">I aimed to do something relaxing, but smart.</div>\n</div>\n<div class=\"section avoid-break-inside\" style=\"padding-bottom: 2rem;\">\n  <div class=\"paragraph\">Such are meow days, and had been forever and more,</div>\n</div>\n<div class=\"section avoid-break-inside\" style=\"padding-bottom: 2rem;\">\n  <div class=\"paragraph\">searching for all things special and all the things I adore.</div>\n</div>\n<div class=\"section avoid-break-inside\" style=\"padding-bottom: 2rem;\">\n  <div class=\"paragraph\">Now, I am finishing today's poem, one foot already in bed,</div>\n</div>\n<div class=\"section avoid-break-inside\" style=\"padding-bottom: 2rem;\">\n  <div class=\"paragraph\">Though I already had my salad, I wonder if I should make some bread.</div>\n</div>\n<div class=\"section avoid-break-inside\" style=\"padding-bottom: 2rem;\">\n  <div class=\"paragraph\">That's sounds about right,</div>\n</div>\n<div class=\"section avoid-break-inside\" style=\"padding-bottom: 2rem;\">\n  <div class=\"paragraph\">I'll waddle downstairs and grab a bite.</div>\n</div>\n<div class=\"section avoid-break-inside\" style=\"padding-bottom: 2rem;\">\n  <div class=\"paragraph\">Goodnight.</div>\n</div>\n<div class=\"break-after\">&nbsp;</div>\n<div>\n  <div class=\"section\" style=\"padding-bottom: 1rem;\">References</div>\n  <div>[1]: https://www.youtube.com/watch?v=k6_QUhUPrF4</div>\n</div>",
  "text": "Captain's Log: Day Nineteen of Quarantine.\nTomorrow, day twenty may have rhyme a plenty,\nbut it won't rhyme with quarantine, and that was unforeseen.\nI waited all day to write,\nto see if something interesting may bite.\nI wanted to draw and paint, and dance and prance,\nbut ended up discovering a new poem about taking chance[1].\nI ended up programming, music and art,\nI aimed to do something relaxing, but smart.\nSuch are meow days, and had been forever and more,\nsearching for all things special and all the things I adore.\nNow, I am finishing today's poem, one foot already in bed,\nThough I already had my salad, I wonder if I should make some bread.\nThat's sounds about right,\nI'll waddle downstairs and grab a bite.\nGoodnight.\n \nReferences\n[1]: https://www.youtube.com/watch?v=k6_QUhUPrF4",
  "images": [],
  "links": [
    {
      "title": "poem about taking chance",
      "url": "https://www.youtube.com/watch?v=k6_QUhUPrF4",
      "hostname": "www.youtube.com"
    }
  ]
}