{
  "name": "furkies-purrkies-poetry-0785",
  "id": "furkies-purrkies-poetry-0785",
  "title": "Of Poses And Worlds",
  "date": "2022-04-24T21:38:13.278Z",
  "image": "poetry-0785-illustration.jpg",
  "artwork": "https://catpea.com",
  "audio": "poetry-0785.mp3",
  "guid": "c202881d-ee6d-42e0-a800-89c20123bd72",
  "html": "<div class=\"section\">\n  <p>There actually is,<br>a good use for drawing <a href=\"https://www.youtube.com/watch?v=_ZlqtNmMICQ\">simplified models</a>.</p>\n  <p>Where you draw a face model on your source image,<br>mark all the distances, and make all the relative measurements.</p>\n  <p>And then repaint the super-simplified model again,<br>but this time on your empty canvas.</p>\n  <p>This technique also works for the body,<br>there you will mark knees and joints and shoulders.</p>\n  <p>And again repaint the model you drew over the photo,<br>on a blank canvas.</p>\n  <p>If all you have is a photo,<br>canvas and traditional brushes.</p>\n  <p>Turn your photo into a line-reference model,<br>and draw the same geometric contraption on your canvas to get started.</p>\n</div>\n<div class=\"section\">\n  <hr>\n</div>\n<div class=\"section\">\n  <p>If I ever had a portrait pained of me,<br>I would ask the artist not to do that.</p>\n  <p>I would like them to use their good judgment on a silly and fascinating warp transform,<br>and then use that as use direct reference.</p>\n  <p>Slightly warped or not, I would like to see my <a href=\"https://www.youtube.com/watch?v=tnd4CtXmQTE\">real face</a> not something that is a try,<br>I want them to get it right, and have fun while painting.</p>\n  <p>And why would I want them to draw little line models, first,<br>that will only cause unnecessary distortion.</p>\n</div>\n<div class=\"section\">\n  <hr>\n</div>\n<div class=\"section\">\n  <p>We can't forget that a proper or perfect likeness,<br>is a <a href=\"https://www.youtube.com/watch?v=d58P2hSxbEk\">small potato</a> in relation to all the other things that should be going on in the painting.</p>\n  <p>An artist may already begin by taking over the eyes,<br>and making them glow.</p>\n  <p>Then move on to a Suit of Armor,<br>and weapons, a battle, a star ship, mars, wings, something... something interesting.</p>\n  <p>Though I am not sure if I would ever request a portrait,<br>I like things that I create on my own.</p>\n</div>\n<div class=\"section\">\n  <hr>\n</div>\n<div class=\"section\">\n  <p>Portraits are special because <a href=\"https://en.wikipedia.org/wiki/Lady_with_an_Ermine\">Lady with an Ermine</a>,<br>was the first work of art that I understood as such, wham I was little.</p>\n  <p>But I think I am a fan of big scenes,<br>and painting those has also benefited from modern technologies.</p>\n  <p><a href=\"https://www.youtube.com/watch?v=9xAumJRKV6A\">3D Modeling</a>,<br>is a wonderful way to map out a complex scene.</p>\n  <p>I would really enjoy building a world,<br>with architecture and characters, maybe a fancy monster, or a dragon, up close.</p>\n  <p>All the while tracking the one angle,<br>that I would paint this world from.</p>\n  <p>A 3D printed world is a neat companion for a painting,<br>that displays all the action and emotion.</p>\n</div>",
  "bootstrap": "<div class=\"card card-section bg-dark text-warning shadow\">\n  <div class=\"section card-body mb-0 my-2\">\n    <div class=\"paragraph card-text card-stanza my-5 text-center\">There actually is,<br>a good use for drawing <a href=\"https://www.youtube.com/watch?v=_ZlqtNmMICQ\">simplified models</a>.</div>\n    <div class=\"paragraph card-text card-stanza my-5 text-center\">Where you draw a face model on your source image,<br>mark all the distances, and make all the relative measurements.</div>\n    <div class=\"paragraph card-text card-stanza my-5 text-center\">And then repaint the super-simplified model again,<br>but this time on your empty canvas.</div>\n    <div class=\"paragraph card-text card-stanza my-5 text-center\">This technique also works for the body,<br>there you will mark knees and joints and shoulders.</div>\n    <div class=\"paragraph card-text card-stanza my-5 text-center\">And again repaint the model you drew over the photo,<br>on a blank canvas.</div>\n    <div class=\"paragraph card-text card-stanza my-5 text-center\">If all you have is a photo,<br>canvas and traditional brushes.</div>\n    <div class=\"paragraph card-text card-stanza my-5 text-center\">Turn your photo into a line-reference model,<br>and draw the same geometric contraption on your canvas to get started.</div>\n  </div>\n</div>\n<div class=\"mb-5 section-spacer\">&nbsp;</div>\n<div class=\"card card-section bg-dark text-warning shadow\">\n  <div class=\"section card-body mb-0 my-2\">\n    <div class=\"paragraph card-text card-stanza my-5 text-center\">If I ever had a portrait pained of me,<br>I would ask the artist not to do that.</div>\n    <div class=\"paragraph card-text card-stanza my-5 text-center\">I would like them to use their good judgment on a silly and fascinating warp transform,<br>and then use that as use direct reference.</div>\n    <div class=\"paragraph card-text card-stanza my-5 text-center\">Slightly warped or not, I would like to see my <a href=\"https://www.youtube.com/watch?v=tnd4CtXmQTE\">real face</a> not something that is a try,<br>I want them to get it right, and have fun while painting.</div>\n    <div class=\"paragraph card-text card-stanza my-5 text-center\">And why would I want them to draw little line models, first,<br>that will only cause unnecessary distortion.</div>\n  </div>\n</div>\n<div class=\"mb-5 section-spacer\">&nbsp;</div>\n<div class=\"card card-section bg-dark text-warning shadow\">\n  <div class=\"section card-body mb-0 my-2\">\n    <div class=\"paragraph card-text card-stanza my-5 text-center\">We can't forget that a proper or perfect likeness,<br>is a <a href=\"https://www.youtube.com/watch?v=d58P2hSxbEk\">small potato</a> in relation to all the other things that should be going on in the painting.</div>\n    <div class=\"paragraph card-text card-stanza my-5 text-center\">An artist may already begin by taking over the eyes,<br>and making them glow.</div>\n    <div class=\"paragraph card-text card-stanza my-5 text-center\">Then move on to a Suit of Armor,<br>and weapons, a battle, a star ship, mars, wings, something... something interesting.</div>\n    <div class=\"paragraph card-text card-stanza my-5 text-center\">Though I am not sure if I would ever request a portrait,<br>I like things that I create on my own.</div>\n  </div>\n</div>\n<div class=\"mb-5 section-spacer\">&nbsp;</div>\n<div class=\"card card-section bg-dark text-warning shadow\">\n  <div class=\"section card-body mb-0 my-2\">\n    <div class=\"paragraph card-text card-stanza my-5 text-center\">Portraits are special because <a href=\"https://en.wikipedia.org/wiki/Lady_with_an_Ermine\">Lady with an Ermine</a>,<br>was the first work of art that I understood as such, wham I was little.</div>\n    <div class=\"paragraph card-text card-stanza my-5 text-center\">But I think I am a fan of big scenes,<br>and painting those has also benefited from modern technologies.</div>\n    <div class=\"paragraph card-text card-stanza my-5 text-center\"><a href=\"https://www.youtube.com/watch?v=9xAumJRKV6A\">3D Modeling</a>,<br>is a wonderful way to map out a complex scene.</div>\n    <div class=\"paragraph card-text card-stanza my-5 text-center\">I would really enjoy building a world,<br>with architecture and characters, maybe a fancy monster, or a dragon, up close.</div>\n    <div class=\"paragraph card-text card-stanza my-5 text-center\">All the while tracking the one angle,<br>that I would paint this world from.</div>\n    <div class=\"paragraph card-text card-stanza my-5 text-center\">A 3D printed world is a neat companion for a painting,<br>that displays all the action and emotion.</div>\n  </div>\n</div>",
  "print": "<div class=\"section avoid-break-inside\" style=\"padding-bottom: 2rem;\">\n  <div class=\"paragraph\">There actually is,<br>a good use for drawing <span>simplified models<sup>[1]</sup></span>.</div>\n  <div class=\"paragraph\">Where you draw a face model on your source image,<br>mark all the distances, and make all the relative measurements.</div>\n  <div class=\"paragraph\">And then repaint the super-simplified model again,<br>but this time on your empty canvas.</div>\n  <div class=\"paragraph\">This technique also works for the body,<br>there you will mark knees and joints and shoulders.</div>\n  <div class=\"paragraph\">And again repaint the model you drew over the photo,<br>on a blank canvas.</div>\n  <div class=\"paragraph\">If all you have is a photo,<br>canvas and traditional brushes.</div>\n  <div class=\"paragraph\">Turn your photo into a line-reference model,<br>and draw the same geometric contraption on your canvas to get started.</div>\n</div>\n<div class=\"section avoid-break-inside\" style=\"padding-bottom: 2rem;\">\n  <br>\n</div>\n<div class=\"section avoid-break-inside\" style=\"padding-bottom: 2rem;\">\n  <div class=\"paragraph\">If I ever had a portrait pained of me,<br>I would ask the artist not to do that.</div>\n  <div class=\"paragraph\">I would like them to use their good judgment on a silly and fascinating warp transform,<br>and then use that as use direct reference.</div>\n  <div class=\"paragraph\">Slightly warped or not, I would like to see my <span>real face<sup>[2]</sup></span> not something that is a try,<br>I want them to get it right, and have fun while painting.</div>\n  <div class=\"paragraph\">And why would I want them to draw little line models, first,<br>that will only cause unnecessary distortion.</div>\n</div>\n<div class=\"section avoid-break-inside\" style=\"padding-bottom: 2rem;\">\n  <br>\n</div>\n<div class=\"section avoid-break-inside\" style=\"padding-bottom: 2rem;\">\n  <div class=\"paragraph\">We can't forget that a proper or perfect likeness,<br>is a <span>small potato<sup>[3]</sup></span> in relation to all the other things that should be going on in the painting.</div>\n  <div class=\"paragraph\">An artist may already begin by taking over the eyes,<br>and making them glow.</div>\n  <div class=\"paragraph\">Then move on to a Suit of Armor,<br>and weapons, a battle, a star ship, mars, wings, something... something interesting.</div>\n  <div class=\"paragraph\">Though I am not sure if I would ever request a portrait,<br>I like things that I create on my own.</div>\n</div>\n<div class=\"section avoid-break-inside\" style=\"padding-bottom: 2rem;\">\n  <br>\n</div>\n<div class=\"section avoid-break-inside\" style=\"padding-bottom: 2rem;\">\n  <div class=\"paragraph\">Portraits are special because <span>Lady with an Ermine<sup>[4]</sup></span>,<br>was the first work of art that I understood as such, wham I was little.</div>\n  <div class=\"paragraph\">But I think I am a fan of big scenes,<br>and painting those has also benefited from modern technologies.</div>\n  <div class=\"paragraph\"><span>3D Modeling<sup>[5]</sup></span>,<br>is a wonderful way to map out a complex scene.</div>\n  <div class=\"paragraph\">I would really enjoy building a world,<br>with architecture and characters, maybe a fancy monster, or a dragon, up close.</div>\n  <div class=\"paragraph\">All the while tracking the one angle,<br>that I would paint this world from.</div>\n  <div class=\"paragraph\">A 3D printed world is a neat companion for a painting,<br>that displays all the action and emotion.</div>\n</div>\n<div class=\"break-after\">&nbsp;</div>\n<div>\n  <div class=\"section\" style=\"padding-bottom: 1rem;\">References</div>\n  <div>[1]: https://www.youtube.com/watch?v=_ZlqtNmMICQ</div>\n  <div>[2]: https://www.youtube.com/watch?v=tnd4CtXmQTE</div>\n  <div>[3]: https://www.youtube.com/watch?v=d58P2hSxbEk</div>\n  <div>[4]: https://en.wikipedia.org/wiki/Lady_with_an_Ermine</div>\n  <div>[5]: https://www.youtube.com/watch?v=9xAumJRKV6A</div>\n</div>",
  "text": "There actually is,\na good use for drawing simplified models[1].\nWhere you draw a face model on your source image,\nmark all the distances, and make all the relative measurements.\nAnd then repaint the super-simplified model again,\nbut this time on your empty canvas.\nThis technique also works for the body,\nthere you will mark knees and joints and shoulders.\nAnd again repaint the model you drew over the photo,\non a blank canvas.\nIf all you have is a photo,\ncanvas and traditional brushes.\nTurn your photo into a line-reference model,\nand draw the same geometric contraption on your canvas to get started.\n\nIf I ever had a portrait pained of me,\nI would ask the artist not to do that.\nI would like them to use their good judgment on a silly and fascinating warp transform,\nand then use that as use direct reference.\nSlightly warped or not, I would like to see my real face[2] not something that is a try,\nI want them to get it right, and have fun while painting.\nAnd why would I want them to draw little line models, first,\nthat will only cause unnecessary distortion.\n\nWe can't forget that a proper or perfect likeness,\nis a small potato[3] in relation to all the other things that should be going on in the painting.\nAn artist may already begin by taking over the eyes,\nand making them glow.\nThen move on to a Suit of Armor,\nand weapons, a battle, a star ship, mars, wings, something... something interesting.\nThough I am not sure if I would ever request a portrait,\nI like things that I create on my own.\n\nPortraits are special because Lady with an Ermine[4],\nwas the first work of art that I understood as such, wham I was little.\nBut I think I am a fan of big scenes,\nand painting those has also benefited from modern technologies.\n3D Modeling[5],\nis a wonderful way to map out a complex scene.\nI would really enjoy building a world,\nwith architecture and characters, maybe a fancy monster, or a dragon, up close.\nAll the while tracking the one angle,\nthat I would paint this world from.\nA 3D printed world is a neat companion for a painting,\nthat displays all the action and emotion.\n \nReferences\n[1]: https://www.youtube.com/watch?v=_ZlqtNmMICQ\n[2]: https://www.youtube.com/watch?v=tnd4CtXmQTE\n[3]: https://www.youtube.com/watch?v=d58P2hSxbEk\n[4]: https://en.wikipedia.org/wiki/Lady_with_an_Ermine\n[5]: https://www.youtube.com/watch?v=9xAumJRKV6A",
  "images": [],
  "links": [
    {
      "title": "simplified models",
      "url": "https://www.youtube.com/watch?v=_ZlqtNmMICQ",
      "hostname": "www.youtube.com"
    },
    {
      "title": "real face",
      "url": "https://www.youtube.com/watch?v=tnd4CtXmQTE",
      "hostname": "www.youtube.com"
    },
    {
      "title": "small potato",
      "url": "https://www.youtube.com/watch?v=d58P2hSxbEk",
      "hostname": "www.youtube.com"
    },
    {
      "title": "Lady with an Ermine",
      "url": "https://en.wikipedia.org/wiki/Lady_with_an_Ermine",
      "hostname": "en.wikipedia.org"
    },
    {
      "title": "3D Modeling",
      "url": "https://www.youtube.com/watch?v=9xAumJRKV6A",
      "hostname": "www.youtube.com"
    }
  ]
}