{
  "name": "furkies-purrkies-poetry-0315",
  "title": "Strong",
  "date": "2021-01-10T03:26:05.966Z",
  "image": "poetry-0315-illustration.jpg",
  "audio": "poetry-0315.mp3",
  "artwork": "https://unsplash.com/photos/Qu0kvRIK5hc",
  "id": "furkies-purrkies-poetry-0315",
  "attachments": {},
  "guid": "c35ac59b-d2ea-4798-9d91-21304492dc9c",
  "html": "<div class=\"section\">\n  <p>Each Human Being,</p>\n  <p>Must Become Wise.</p>\n</div>\n\n<div class=\"section\">\n  <p>You are a Child of the Universe first,</p>\n  <p>and within you is a unique constellation of thoughts.</p>\n</div>\n\n<div class=\"section\">\n  <p>Our world needs those thoughts to evolve into a nebula of wisdom,</p>\n  <p>so that Humanity may progress forward without repeating simple mistakes.</p>\n</div>\n\n<div class=\"section\">\n  <hr>\n</div>\n\n<div class=\"section\">\n  <p>Your growing up is sacred,</p>\n  <p>you must not be interrupted.</p>\n</div>\n\n<div class=\"section\">\n  <p>If people come to hurt your mind,</p>\n  <p>you must rise and protect yourself.</p>\n</div>\n\n<div class=\"section\">\n  <p>It matters not, if they are misguided,</p>\n  <p>or if their harm is deliberate.</p>\n</div>\n\n<div class=\"section\">\n  <p>Your mind must grow,</p>\n  <p>your decision-making must improve daily.</p>\n</div>\n\n<div class=\"section\">\n  <p>You have to learn about Life, and Universe,</p>\n  <p>about what it means to be Human.</p>\n</div>\n\n<div class=\"section\">\n  <hr>\n</div>\n\n<div class=\"section\">\n  <p>We are one family,</p>\n  <p>each a child of the universe, deserving freedom, justice, equality, dignity, knowledge, and wisdom, and greatness.</p>\n</div>\n\n<div class=\"section\">\n  <p>No one is to belittle you,</p>\n  <p>treat them as a danger, and keep your mind safe.</p>\n</div>\n\n<div class=\"section\">\n  <p>When something goes wrong in your community, or school, or even group of friends,</p>\n  <p>leave them, you are not going to be able to change their minds, and you have your own path to walk.</p>\n</div>\n\n<div class=\"section\">\n  <p>No one being is better than the next,</p>\n  <p>you are not to compare the value of your own life against others, nor is anybody else allowed to make that comparison.</p>\n</div>\n\n<div class=\"section\">\n  <p>You have to find a place where you are safe, where you can put your journals away,</p>\n  <p>where you can dream and let your imagination roam free.</p>\n</div>\n\n<div class=\"section\">\n  <p>No one is allowed to push you around,</p>\n  <p>your path is sacred, and you can only walk your own.</p>\n</div>\n\n<div class=\"section\">\n  <p>You must continue growing up, and never stop for any reason,</p>\n  <p>because the less you know the easier it is to trick or mislead you.</p>\n</div>\n\n<div class=\"section\">\n  <p>No one is allowed to make you think that you are not smart,</p>\n  <p>especially not teachers who are tricking you into thinking memorization has anything to do with learning.</p>\n</div>\n\n<div class=\"section\">\n  <p>You are not to be manipulated into mistakes,</p>\n  <p>so that someone can prove to you how correct they are, and how you should listen to them.</p>\n</div>\n\n<div class=\"section\">\n  <p>No one is allowed to make an example out of you,</p>\n  <p>as your life, body and mind is just as sacred as everybody else&apos;s.</p>\n</div>\n\n<div class=\"section\">\n  <p>You have to understand the way Humanity progresses, and regresses,</p>\n  <p>and see what you can do to help them along.</p>\n</div>\n\n<div class=\"section\">\n  <p>No one is allowed to lie to you, for any reason,</p>\n  <p>not mom, not dad, neither leaders nor fools.</p>\n</div>\n\n<div class=\"section\">\n  <p>You are not to give away anything precious, from smiles to love,</p>\n  <p>because everything that matters to you, is so precious that it must be earned.</p>\n</div>\n\n<div class=\"section\">\n  <p>No one is to use chores as a way to control you,</p>\n  <p>it is your choice to help, or not.</p>\n</div>\n\n<div class=\"section\">\n  <p>You are free, and no one is allowed to take that freedom away,</p>\n  <p>you must always be treated with dignity, especially if you feel you don&apos;t deserve it.</p>\n</div>\n\n<div class=\"section\">\n  <p>No one is allowed to make you feel unwell, or scared, or small,</p>\n  <p>the world needs you to grow uninterrupted.</p>\n</div>\n\n<div class=\"section\">\n  <p>And you should connect with Nature, and Nature Trails, so that they may slow you down,</p>\n  <p>you should own a backpack and a tent, and every once in a while sleep under the stars.</p>\n</div>\n\n<div class=\"section\">\n  <hr>\n</div>\n\n<div class=\"section\">\n  <p>You are not alone, not are you at any disadvantage,</p>\n  <p>nor will you miss something, that you will later regret.</p>\n</div>\n\n<div class=\"section\">\n  <p>You are not the first person to be uncomfortable with the world around you,</p>\n  <p>in fact most of the beautiful things that you like, are created by those who did not give up their mind, who did not give in.</p>\n</div>\n\n<div class=\"section\">\n  <p>There are many quiet little paces and things that can help you grow,</p>\n  <p>things like audio books, free libraries, college art classes, and even poetry slams, long adventure trails, and hacker, and maker spaces.</p>\n</div>\n\n<div class=\"section\">\n  <p>Begin listening to all audio books you can find,</p>\n  <p>do not let anybody stress you into inaction.</p>\n</div>\n\n<div class=\"section\">\n  <p>Just avoid them, there is no communicating with people who will dismiss everything you say,</p>\n  <p>no matter what it is.</p>\n</div>\n\n<div class=\"section\">\n  <p>It is all happening to you, because the world is full of people who think they are grown-ups, but have actually fallen behind on growing up,</p>\n  <p>they are what would happen to you if you never had another beautiful thought, and never read a book, only aged to look like an adult.</p>\n</div>\n\n<div class=\"section\">\n  <p>Take good care care of yourself,</p>\n  <p>become a poet, a writer, artist, musician, dancer, trail runner, athlete, adventurer, intellectual, humanitarian, philosopher... a visionary, a human, and a great being.</p>\n</div>",
  "bootstrap": "<div class=\"card card-section bg-dark text-warning shadow\">\n  <div class=\"section card-body mb-0 my-2\">\n    <div class=\"paragraph card-text card-stanza my-5 text-center\">Each Human Being,</div>\n    <div class=\"paragraph card-text card-stanza my-5 text-center\">Must Become Wise.</div>\n  </div>\n</div>\n<div class=\"card card-section bg-dark text-warning shadow\">\n  <div class=\"section card-body mb-0 my-2\">\n    <div class=\"paragraph card-text card-stanza my-5 text-center\">You are a Child of the Universe first,</div>\n    <div class=\"paragraph card-text card-stanza my-5 text-center\">and within you is a unique constellation of thoughts.</div>\n  </div>\n</div>\n<div class=\"card card-section bg-dark text-warning shadow\">\n  <div class=\"section card-body mb-0 my-2\">\n    <div class=\"paragraph card-text card-stanza my-5 text-center\">Our world needs those thoughts to evolve into a nebula of wisdom,</div>\n    <div class=\"paragraph card-text card-stanza my-5 text-center\">so that Humanity may progress forward without repeating simple mistakes.</div>\n  </div>\n</div>\n<div class=\"mb-5 section-spacer\">&nbsp;</div>\n<div class=\"card card-section bg-dark text-warning shadow\">\n  <div class=\"section card-body mb-0 my-2\">\n    <div class=\"paragraph card-text card-stanza my-5 text-center\">Your growing up is sacred,</div>\n    <div class=\"paragraph card-text card-stanza my-5 text-center\">you must not be interrupted.</div>\n  </div>\n</div>\n<div class=\"card card-section bg-dark text-warning shadow\">\n  <div class=\"section card-body mb-0 my-2\">\n    <div class=\"paragraph card-text card-stanza my-5 text-center\">If people come to hurt your mind,</div>\n    <div class=\"paragraph card-text card-stanza my-5 text-center\">you must rise and protect yourself.</div>\n  </div>\n</div>\n<div class=\"card card-section bg-dark text-warning shadow\">\n  <div class=\"section card-body mb-0 my-2\">\n    <div class=\"paragraph card-text card-stanza my-5 text-center\">It matters not, if they are misguided,</div>\n    <div class=\"paragraph card-text card-stanza my-5 text-center\">or if their harm is deliberate.</div>\n  </div>\n</div>\n<div class=\"card card-section bg-dark text-warning shadow\">\n  <div class=\"section card-body mb-0 my-2\">\n    <div class=\"paragraph card-text card-stanza my-5 text-center\">Your mind must grow,</div>\n    <div class=\"paragraph card-text card-stanza my-5 text-center\">your decision-making must improve daily.</div>\n  </div>\n</div>\n<div class=\"card card-section bg-dark text-warning shadow\">\n  <div class=\"section card-body mb-0 my-2\">\n    <div class=\"paragraph card-text card-stanza my-5 text-center\">You have to learn about Life, and Universe,</div>\n    <div class=\"paragraph card-text card-stanza my-5 text-center\">about what it means to be Human.</div>\n  </div>\n</div>\n<div class=\"mb-5 section-spacer\">&nbsp;</div>\n<div class=\"card card-section bg-dark text-warning shadow\">\n  <div class=\"section card-body mb-0 my-2\">\n    <div class=\"paragraph card-text card-stanza my-5 text-center\">We are one family,</div>\n    <div class=\"paragraph card-text card-stanza my-5 text-center\">each a child of the universe, deserving freedom, justice, equality, dignity, knowledge, and wisdom, and greatness.</div>\n  </div>\n</div>\n<div class=\"card card-section bg-dark text-warning shadow\">\n  <div class=\"section card-body mb-0 my-2\">\n    <div class=\"paragraph card-text card-stanza my-5 text-center\">No one is to belittle you,</div>\n    <div class=\"paragraph card-text card-stanza my-5 text-center\">treat them as a danger, and keep your mind safe.</div>\n  </div>\n</div>\n<div class=\"card card-section bg-dark text-warning shadow\">\n  <div class=\"section card-body mb-0 my-2\">\n    <div class=\"paragraph card-text card-stanza my-5 text-center\">When something goes wrong in your community, or school, or even group of friends,</div>\n    <div class=\"paragraph card-text card-stanza my-5 text-center\">leave them, you are not going to be able to change their minds, and you have your own path to walk.</div>\n  </div>\n</div>\n<div class=\"card card-section bg-dark text-warning shadow\">\n  <div class=\"section card-body mb-0 my-2\">\n    <div class=\"paragraph card-text card-stanza my-5 text-center\">No one being is better than the next,</div>\n    <div class=\"paragraph card-text card-stanza my-5 text-center\">you are not to compare the value of your own life against others, nor is anybody else allowed to make that comparison.</div>\n  </div>\n</div>\n<div class=\"card card-section bg-dark text-warning shadow\">\n  <div class=\"section card-body mb-0 my-2\">\n    <div class=\"paragraph card-text card-stanza my-5 text-center\">You have to find a place where you are safe, where you can put your journals away,</div>\n    <div class=\"paragraph card-text card-stanza my-5 text-center\">where you can dream and let your imagination roam free.</div>\n  </div>\n</div>\n<div class=\"card card-section bg-dark text-warning shadow\">\n  <div class=\"section card-body mb-0 my-2\">\n    <div class=\"paragraph card-text card-stanza my-5 text-center\">No one is allowed to push you around,</div>\n    <div class=\"paragraph card-text card-stanza my-5 text-center\">your path is sacred, and you can only walk your own.</div>\n  </div>\n</div>\n<div class=\"card card-section bg-dark text-warning shadow\">\n  <div class=\"section card-body mb-0 my-2\">\n    <div class=\"paragraph card-text card-stanza my-5 text-center\">You must continue growing up, and never stop for any reason,</div>\n    <div class=\"paragraph card-text card-stanza my-5 text-center\">because the less you know the easier it is to trick or mislead you.</div>\n  </div>\n</div>\n<div class=\"card card-section bg-dark text-warning shadow\">\n  <div class=\"section card-body mb-0 my-2\">\n    <div class=\"paragraph card-text card-stanza my-5 text-center\">No one is allowed to make you think that you are not smart,</div>\n    <div class=\"paragraph card-text card-stanza my-5 text-center\">especially not teachers who are tricking you into thinking memorization has anything to do with learning.</div>\n  </div>\n</div>\n<div class=\"card card-section bg-dark text-warning shadow\">\n  <div class=\"section card-body mb-0 my-2\">\n    <div class=\"paragraph card-text card-stanza my-5 text-center\">You are not to be manipulated into mistakes,</div>\n    <div class=\"paragraph card-text card-stanza my-5 text-center\">so that someone can prove to you how correct they are, and how you should listen to them.</div>\n  </div>\n</div>\n<div class=\"card card-section bg-dark text-warning shadow\">\n  <div class=\"section card-body mb-0 my-2\">\n    <div class=\"paragraph card-text card-stanza my-5 text-center\">No one is allowed to make an example out of you,</div>\n    <div class=\"paragraph card-text card-stanza my-5 text-center\">as your life, body and mind is just as sacred as everybody else's.</div>\n  </div>\n</div>\n<div class=\"card card-section bg-dark text-warning shadow\">\n  <div class=\"section card-body mb-0 my-2\">\n    <div class=\"paragraph card-text card-stanza my-5 text-center\">You have to understand the way Humanity progresses, and regresses,</div>\n    <div class=\"paragraph card-text card-stanza my-5 text-center\">and see what you can do to help them along.</div>\n  </div>\n</div>\n<div class=\"card card-section bg-dark text-warning shadow\">\n  <div class=\"section card-body mb-0 my-2\">\n    <div class=\"paragraph card-text card-stanza my-5 text-center\">No one is allowed to lie to you, for any reason,</div>\n    <div class=\"paragraph card-text card-stanza my-5 text-center\">not mom, not dad, neither leaders nor fools.</div>\n  </div>\n</div>\n<div class=\"card card-section bg-dark text-warning shadow\">\n  <div class=\"section card-body mb-0 my-2\">\n    <div class=\"paragraph card-text card-stanza my-5 text-center\">You are not to give away anything precious, from smiles to love,</div>\n    <div class=\"paragraph card-text card-stanza my-5 text-center\">because everything that matters to you, is so precious that it must be earned.</div>\n  </div>\n</div>\n<div class=\"card card-section bg-dark text-warning shadow\">\n  <div class=\"section card-body mb-0 my-2\">\n    <div class=\"paragraph card-text card-stanza my-5 text-center\">No one is to use chores as a way to control you,</div>\n    <div class=\"paragraph card-text card-stanza my-5 text-center\">it is your choice to help, or not.</div>\n  </div>\n</div>\n<div class=\"card card-section bg-dark text-warning shadow\">\n  <div class=\"section card-body mb-0 my-2\">\n    <div class=\"paragraph card-text card-stanza my-5 text-center\">You are free, and no one is allowed to take that freedom away,</div>\n    <div class=\"paragraph card-text card-stanza my-5 text-center\">you must always be treated with dignity, especially if you feel you don't deserve it.</div>\n  </div>\n</div>\n<div class=\"card card-section bg-dark text-warning shadow\">\n  <div class=\"section card-body mb-0 my-2\">\n    <div class=\"paragraph card-text card-stanza my-5 text-center\">No one is allowed to make you feel unwell, or scared, or small,</div>\n    <div class=\"paragraph card-text card-stanza my-5 text-center\">the world needs you to grow uninterrupted.</div>\n  </div>\n</div>\n<div class=\"card card-section bg-dark text-warning shadow\">\n  <div class=\"section card-body mb-0 my-2\">\n    <div class=\"paragraph card-text card-stanza my-5 text-center\">And you should connect with Nature, and Nature Trails, so that they may slow you down,</div>\n    <div class=\"paragraph card-text card-stanza my-5 text-center\">you should own a backpack and a tent, and every once in a while sleep under the stars.</div>\n  </div>\n</div>\n<div class=\"mb-5 section-spacer\">&nbsp;</div>\n<div class=\"card card-section bg-dark text-warning shadow\">\n  <div class=\"section card-body mb-0 my-2\">\n    <div class=\"paragraph card-text card-stanza my-5 text-center\">You are not alone, not are you at any disadvantage,</div>\n    <div class=\"paragraph card-text card-stanza my-5 text-center\">nor will you miss something, that you will later regret.</div>\n  </div>\n</div>\n<div class=\"card card-section bg-dark text-warning shadow\">\n  <div class=\"section card-body mb-0 my-2\">\n    <div class=\"paragraph card-text card-stanza my-5 text-center\">You are not the first person to be uncomfortable with the world around you,</div>\n    <div class=\"paragraph card-text card-stanza my-5 text-center\">in fact most of the beautiful things that you like, are created by those who did not give up their mind, who did not give in.</div>\n  </div>\n</div>\n<div class=\"card card-section bg-dark text-warning shadow\">\n  <div class=\"section card-body mb-0 my-2\">\n    <div class=\"paragraph card-text card-stanza my-5 text-center\">There are many quiet little paces and things that can help you grow,</div>\n    <div class=\"paragraph card-text card-stanza my-5 text-center\">things like audio books, free libraries, college art classes, and even poetry slams, long adventure trails, and hacker, and maker spaces.</div>\n  </div>\n</div>\n<div class=\"card card-section bg-dark text-warning shadow\">\n  <div class=\"section card-body mb-0 my-2\">\n    <div class=\"paragraph card-text card-stanza my-5 text-center\">Begin listening to all audio books you can find,</div>\n    <div class=\"paragraph card-text card-stanza my-5 text-center\">do not let anybody stress you into inaction.</div>\n  </div>\n</div>\n<div class=\"card card-section bg-dark text-warning shadow\">\n  <div class=\"section card-body mb-0 my-2\">\n    <div class=\"paragraph card-text card-stanza my-5 text-center\">Just avoid them, there is no communicating with people who will dismiss everything you say,</div>\n    <div class=\"paragraph card-text card-stanza my-5 text-center\">no matter what it is.</div>\n  </div>\n</div>\n<div class=\"card card-section bg-dark text-warning shadow\">\n  <div class=\"section card-body mb-0 my-2\">\n    <div class=\"paragraph card-text card-stanza my-5 text-center\">It is all happening to you, because the world is full of people who think they are grown-ups, but have actually fallen behind on growing up,</div>\n    <div class=\"paragraph card-text card-stanza my-5 text-center\">they are what would happen to you if you never had another beautiful thought, and never read a book, only aged to look like an adult.</div>\n  </div>\n</div>\n<div class=\"card card-section bg-dark text-warning shadow\">\n  <div class=\"section card-body mb-0 my-2\">\n    <div class=\"paragraph card-text card-stanza my-5 text-center\">Take good care care of yourself,</div>\n    <div class=\"paragraph card-text card-stanza my-5 text-center\">become a poet, a writer, artist, musician, dancer, trail runner, athlete, adventurer, intellectual, humanitarian, philosopher... a visionary, a human, and a great being.</div>\n  </div>\n</div>",
  "print": "<div class=\"section avoid-break-inside\" style=\"padding-bottom: 2rem;\">\n  <div class=\"paragraph\">Each Human Being,</div>\n  <div class=\"paragraph\">Must Become Wise.</div>\n</div>\n<div class=\"section avoid-break-inside\" style=\"padding-bottom: 2rem;\">\n  <div class=\"paragraph\">You are a Child of the Universe first,</div>\n  <div class=\"paragraph\">and within you is a unique constellation of thoughts.</div>\n</div>\n<div class=\"section avoid-break-inside\" style=\"padding-bottom: 2rem;\">\n  <div class=\"paragraph\">Our world needs those thoughts to evolve into a nebula of wisdom,</div>\n  <div class=\"paragraph\">so that Humanity may progress forward without repeating simple mistakes.</div>\n</div>\n<div class=\"section avoid-break-inside\" style=\"padding-bottom: 2rem;\">\n  <br>\n</div>\n<div class=\"section avoid-break-inside\" style=\"padding-bottom: 2rem;\">\n  <div class=\"paragraph\">Your growing up is sacred,</div>\n  <div class=\"paragraph\">you must not be interrupted.</div>\n</div>\n<div class=\"section avoid-break-inside\" style=\"padding-bottom: 2rem;\">\n  <div class=\"paragraph\">If people come to hurt your mind,</div>\n  <div class=\"paragraph\">you must rise and protect yourself.</div>\n</div>\n<div class=\"section avoid-break-inside\" style=\"padding-bottom: 2rem;\">\n  <div class=\"paragraph\">It matters not, if they are misguided,</div>\n  <div class=\"paragraph\">or if their harm is deliberate.</div>\n</div>\n<div class=\"section avoid-break-inside\" style=\"padding-bottom: 2rem;\">\n  <div class=\"paragraph\">Your mind must grow,</div>\n  <div class=\"paragraph\">your decision-making must improve daily.</div>\n</div>\n<div class=\"section avoid-break-inside\" style=\"padding-bottom: 2rem;\">\n  <div class=\"paragraph\">You have to learn about Life, and Universe,</div>\n  <div class=\"paragraph\">about what it means to be Human.</div>\n</div>\n<div class=\"section avoid-break-inside\" style=\"padding-bottom: 2rem;\">\n  <br>\n</div>\n<div class=\"section avoid-break-inside\" style=\"padding-bottom: 2rem;\">\n  <div class=\"paragraph\">We are one family,</div>\n  <div class=\"paragraph\">each a child of the universe, deserving freedom, justice, equality, dignity, knowledge, and wisdom, and greatness.</div>\n</div>\n<div class=\"section avoid-break-inside\" style=\"padding-bottom: 2rem;\">\n  <div class=\"paragraph\">No one is to belittle you,</div>\n  <div class=\"paragraph\">treat them as a danger, and keep your mind safe.</div>\n</div>\n<div class=\"section avoid-break-inside\" style=\"padding-bottom: 2rem;\">\n  <div class=\"paragraph\">When something goes wrong in your community, or school, or even group of friends,</div>\n  <div class=\"paragraph\">leave them, you are not going to be able to change their minds, and you have your own path to walk.</div>\n</div>\n<div class=\"section avoid-break-inside\" style=\"padding-bottom: 2rem;\">\n  <div class=\"paragraph\">No one being is better than the next,</div>\n  <div class=\"paragraph\">you are not to compare the value of your own life against others, nor is anybody else allowed to make that comparison.</div>\n</div>\n<div class=\"section avoid-break-inside\" style=\"padding-bottom: 2rem;\">\n  <div class=\"paragraph\">You have to find a place where you are safe, where you can put your journals away,</div>\n  <div class=\"paragraph\">where you can dream and let your imagination roam free.</div>\n</div>\n<div class=\"section avoid-break-inside\" style=\"padding-bottom: 2rem;\">\n  <div class=\"paragraph\">No one is allowed to push you around,</div>\n  <div class=\"paragraph\">your path is sacred, and you can only walk your own.</div>\n</div>\n<div class=\"section avoid-break-inside\" style=\"padding-bottom: 2rem;\">\n  <div class=\"paragraph\">You must continue growing up, and never stop for any reason,</div>\n  <div class=\"paragraph\">because the less you know the easier it is to trick or mislead you.</div>\n</div>\n<div class=\"section avoid-break-inside\" style=\"padding-bottom: 2rem;\">\n  <div class=\"paragraph\">No one is allowed to make you think that you are not smart,</div>\n  <div class=\"paragraph\">especially not teachers who are tricking you into thinking memorization has anything to do with learning.</div>\n</div>\n<div class=\"section avoid-break-inside\" style=\"padding-bottom: 2rem;\">\n  <div class=\"paragraph\">You are not to be manipulated into mistakes,</div>\n  <div class=\"paragraph\">so that someone can prove to you how correct they are, and how you should listen to them.</div>\n</div>\n<div class=\"section avoid-break-inside\" style=\"padding-bottom: 2rem;\">\n  <div class=\"paragraph\">No one is allowed to make an example out of you,</div>\n  <div class=\"paragraph\">as your life, body and mind is just as sacred as everybody else's.</div>\n</div>\n<div class=\"section avoid-break-inside\" style=\"padding-bottom: 2rem;\">\n  <div class=\"paragraph\">You have to understand the way Humanity progresses, and regresses,</div>\n  <div class=\"paragraph\">and see what you can do to help them along.</div>\n</div>\n<div class=\"section avoid-break-inside\" style=\"padding-bottom: 2rem;\">\n  <div class=\"paragraph\">No one is allowed to lie to you, for any reason,</div>\n  <div class=\"paragraph\">not mom, not dad, neither leaders nor fools.</div>\n</div>\n<div class=\"section avoid-break-inside\" style=\"padding-bottom: 2rem;\">\n  <div class=\"paragraph\">You are not to give away anything precious, from smiles to love,</div>\n  <div class=\"paragraph\">because everything that matters to you, is so precious that it must be earned.</div>\n</div>\n<div class=\"section avoid-break-inside\" style=\"padding-bottom: 2rem;\">\n  <div class=\"paragraph\">No one is to use chores as a way to control you,</div>\n  <div class=\"paragraph\">it is your choice to help, or not.</div>\n</div>\n<div class=\"section avoid-break-inside\" style=\"padding-bottom: 2rem;\">\n  <div class=\"paragraph\">You are free, and no one is allowed to take that freedom away,</div>\n  <div class=\"paragraph\">you must always be treated with dignity, especially if you feel you don't deserve it.</div>\n</div>\n<div class=\"section avoid-break-inside\" style=\"padding-bottom: 2rem;\">\n  <div class=\"paragraph\">No one is allowed to make you feel unwell, or scared, or small,</div>\n  <div class=\"paragraph\">the world needs you to grow uninterrupted.</div>\n</div>\n<div class=\"section avoid-break-inside\" style=\"padding-bottom: 2rem;\">\n  <div class=\"paragraph\">And you should connect with Nature, and Nature Trails, so that they may slow you down,</div>\n  <div class=\"paragraph\">you should own a backpack and a tent, and every once in a while sleep under the stars.</div>\n</div>\n<div class=\"section avoid-break-inside\" style=\"padding-bottom: 2rem;\">\n  <br>\n</div>\n<div class=\"section avoid-break-inside\" style=\"padding-bottom: 2rem;\">\n  <div class=\"paragraph\">You are not alone, not are you at any disadvantage,</div>\n  <div class=\"paragraph\">nor will you miss something, that you will later regret.</div>\n</div>\n<div class=\"section avoid-break-inside\" style=\"padding-bottom: 2rem;\">\n  <div class=\"paragraph\">You are not the first person to be uncomfortable with the world around you,</div>\n  <div class=\"paragraph\">in fact most of the beautiful things that you like, are created by those who did not give up their mind, who did not give in.</div>\n</div>\n<div class=\"section avoid-break-inside\" style=\"padding-bottom: 2rem;\">\n  <div class=\"paragraph\">There are many quiet little paces and things that can help you grow,</div>\n  <div class=\"paragraph\">things like audio books, free libraries, college art classes, and even poetry slams, long adventure trails, and hacker, and maker spaces.</div>\n</div>\n<div class=\"section avoid-break-inside\" style=\"padding-bottom: 2rem;\">\n  <div class=\"paragraph\">Begin listening to all audio books you can find,</div>\n  <div class=\"paragraph\">do not let anybody stress you into inaction.</div>\n</div>\n<div class=\"section avoid-break-inside\" style=\"padding-bottom: 2rem;\">\n  <div class=\"paragraph\">Just avoid them, there is no communicating with people who will dismiss everything you say,</div>\n  <div class=\"paragraph\">no matter what it is.</div>\n</div>\n<div class=\"section avoid-break-inside\" style=\"padding-bottom: 2rem;\">\n  <div class=\"paragraph\">It is all happening to you, because the world is full of people who think they are grown-ups, but have actually fallen behind on growing up,</div>\n  <div class=\"paragraph\">they are what would happen to you if you never had another beautiful thought, and never read a book, only aged to look like an adult.</div>\n</div>\n<div class=\"section avoid-break-inside\" style=\"padding-bottom: 2rem;\">\n  <div class=\"paragraph\">Take good care care of yourself,</div>\n  <div class=\"paragraph\">become a poet, a writer, artist, musician, dancer, trail runner, athlete, adventurer, intellectual, humanitarian, philosopher... a visionary, a human, and a great being.</div>\n</div>",
  "text": "Each Human Being,\nMust Become Wise.\nYou are a Child of the Universe first,\nand within you is a unique constellation of thoughts.\nOur world needs those thoughts to evolve into a nebula of wisdom,\nso that Humanity may progress forward without repeating simple mistakes.\n\nYour growing up is sacred,\nyou must not be interrupted.\nIf people come to hurt your mind,\nyou must rise and protect yourself.\nIt matters not, if they are misguided,\nor if their harm is deliberate.\nYour mind must grow,\nyour decision-making must improve daily.\nYou have to learn about Life, and Universe,\nabout what it means to be Human.\n\nWe are one family,\neach a child of the universe, deserving freedom, justice, equality, dignity, knowledge, and wisdom, and greatness.\nNo one is to belittle you,\ntreat them as a danger, and keep your mind safe.\nWhen something goes wrong in your community, or school, or even group of friends,\nleave them, you are not going to be able to change their minds, and you have your own path to walk.\nNo one being is better than the next,\nyou are not to compare the value of your own life against others, nor is anybody else allowed to make that comparison.\nYou have to find a place where you are safe, where you can put your journals away,\nwhere you can dream and let your imagination roam free.\nNo one is allowed to push you around,\nyour path is sacred, and you can only walk your own.\nYou must continue growing up, and never stop for any reason,\nbecause the less you know the easier it is to trick or mislead you.\nNo one is allowed to make you think that you are not smart,\nespecially not teachers who are tricking you into thinking memorization has anything to do with learning.\nYou are not to be manipulated into mistakes,\nso that someone can prove to you how correct they are, and how you should listen to them.\nNo one is allowed to make an example out of you,\nas your life, body and mind is just as sacred as everybody else's.\nYou have to understand the way Humanity progresses, and regresses,\nand see what you can do to help them along.\nNo one is allowed to lie to you, for any reason,\nnot mom, not dad, neither leaders nor fools.\nYou are not to give away anything precious, from smiles to love,\nbecause everything that matters to you, is so precious that it must be earned.\nNo one is to use chores as a way to control you,\nit is your choice to help, or not.\nYou are free, and no one is allowed to take that freedom away,\nyou must always be treated with dignity, especially if you feel you don't deserve it.\nNo one is allowed to make you feel unwell, or scared, or small,\nthe world needs you to grow uninterrupted.\nAnd you should connect with Nature, and Nature Trails, so that they may slow you down,\nyou should own a backpack and a tent, and every once in a while sleep under the stars.\n\nYou are not alone, not are you at any disadvantage,\nnor will you miss something, that you will later regret.\nYou are not the first person to be uncomfortable with the world around you,\nin fact most of the beautiful things that you like, are created by those who did not give up their mind, who did not give in.\nThere are many quiet little paces and things that can help you grow,\nthings like audio books, free libraries, college art classes, and even poetry slams, long adventure trails, and hacker, and maker spaces.\nBegin listening to all audio books you can find,\ndo not let anybody stress you into inaction.\nJust avoid them, there is no communicating with people who will dismiss everything you say,\nno matter what it is.\nIt is all happening to you, because the world is full of people who think they are grown-ups, but have actually fallen behind on growing up,\nthey are what would happen to you if you never had another beautiful thought, and never read a book, only aged to look like an adult.\nTake good care care of yourself,\nbecome a poet, a writer, artist, musician, dancer, trail runner, athlete, adventurer, intellectual, humanitarian, philosopher... a visionary, a human, and a great being.",
  "images": [],
  "links": []
}