{
  "name": "furkies-purrkies-poetry-0310",
  "title": "Books",
  "date": "2021-01-05T03:37:57.346Z",
  "image": "poetry-0310-illustration.jpg",
  "audio": "poetry-0310.mp3",
  "artwork": "https://pixabay.com/photos/glass-wall-people-woman-girl-hair-2557577/",
  "id": "furkies-purrkies-poetry-0310",
  "attachments": {},
  "guid": "aa0b11b0-d300-4849-bf39-7cc279b4fc36",
  "html": "<div class=\"section\">\n  <p>If you don&apos;t like Audio Books, then you are going too fast through life,</p>\n  <p>you have to slow down, all the way down until your Heart begins calling for wisdom.</p>\n</div>\n<div class=\"section\">\n  <p>Look, whatever we think we know, is almost certainly incomplete without books,</p>\n  <p>and it takes just a few months to love your way through a hundred of them.</p>\n</div>\n<div class=\"section\">\n  <hr>\n</div>\n<div class=\"section\">\n  <p>Books are always about connection, they will either show you that you are not alone,</p>\n  <p>or they will sing to you in such a way that you will leap over several of your next plateaus.</p>\n</div>\n<div class=\"section\">\n  <p>Books will make you stronger, more resilient, more courageous,</p>\n  <p>more insightful, they will help you see into many of your futures.</p>\n</div>\n<div class=\"section\">\n  <p>The only thing they can&apos;t give you is the things you already have,</p>\n  <p>like beauty, intelligence, creativity, and majesty.</p>\n</div>\n<div class=\"section\">\n  <hr>\n</div>\n<div class=\"section\">\n  <p>Even though you did not live the lives you inherited from within books,</p>\n  <p>you know that they are solid, that the conclusions you draw from them are valid.</p>\n</div>\n<div class=\"section\">\n  <p>It is not just about some memories from a book you once read,</p>\n  <p>it is about the kingdom of knowledge within you, an actual city full of roads and libraries.</p>\n</div>\n<div class=\"section\">\n  <p>Each time you read, and re-read as you learn to learn more,</p>\n  <p>you grow in your modes of thinking, you expand your inner-navigation capabilities.</p>\n</div>\n<div class=\"section\">\n  <hr>\n</div>\n<div class=\"section\">\n  <p>We are really good navigation, be in on the outside, or within out body of knowledge,</p>\n  <p>but what is a navigator in a tiny city of a few buildings.</p>\n</div>\n<div class=\"section\">\n  <p>The more we expand our city, the more we begin to excel at navigation of greater and greater things,</p>\n  <p>be it our personal decision making, or how we relate to other people and the places we aim, to go towards, in life.</p>\n</div>\n<div class=\"section\">\n  <hr>\n</div>\n<div class=\"section\">\n  <p>The bigger our body of knowledge,</p>\n  <p>the more we can see into the future, the more is the future that unfolds before us connected to us.</p>\n</div>\n<div class=\"section\">\n  <p>Knowledge is is the thunderstorm that backs freedom, that prevents us from being permanently misled,</p>\n  <p>it is the tool that unravels all those things that are inauthentic.</p>\n</div>\n<div class=\"section\">\n  <p>I hope you can make room for wise stories from other lives,</p>\n  <p>it makes a world of difference.</p>\n</div>\n<div class=\"section\">\n  <p>May you discover all the world&apos;s most beautiful adventures,</p>\n  <p>and treasures, day dreams and inspirations - and grow, to no end.</p>\n</div>",
  "bootstrap": "<div class=\"card card-section bg-dark text-warning shadow\">\n  <div class=\"section card-body mb-0 my-2\">\n    <div class=\"paragraph card-text card-stanza my-5 text-center\">If you don't like Audio Books, then you are going too fast through life,</div>\n    <div class=\"paragraph card-text card-stanza my-5 text-center\">you have to slow down, all the way down until your Heart begins calling for wisdom.</div>\n  </div>\n</div>\n<div class=\"card card-section bg-dark text-warning shadow\">\n  <div class=\"section card-body mb-0 my-2\">\n    <div class=\"paragraph card-text card-stanza my-5 text-center\">Look, whatever we think we know, is almost certainly incomplete without books,</div>\n    <div class=\"paragraph card-text card-stanza my-5 text-center\">and it takes just a few months to love your way through a hundred of them.</div>\n  </div>\n</div>\n<div class=\"mb-5 section-spacer\">&nbsp;</div>\n<div class=\"card card-section bg-dark text-warning shadow\">\n  <div class=\"section card-body mb-0 my-2\">\n    <div class=\"paragraph card-text card-stanza my-5 text-center\">Books are always about connection, they will either show you that you are not alone,</div>\n    <div class=\"paragraph card-text card-stanza my-5 text-center\">or they will sing to you in such a way that you will leap over several of your next plateaus.</div>\n  </div>\n</div>\n<div class=\"card card-section bg-dark text-warning shadow\">\n  <div class=\"section card-body mb-0 my-2\">\n    <div class=\"paragraph card-text card-stanza my-5 text-center\">Books will make you stronger, more resilient, more courageous,</div>\n    <div class=\"paragraph card-text card-stanza my-5 text-center\">more insightful, they will help you see into many of your futures.</div>\n  </div>\n</div>\n<div class=\"card card-section bg-dark text-warning shadow\">\n  <div class=\"section card-body mb-0 my-2\">\n    <div class=\"paragraph card-text card-stanza my-5 text-center\">The only thing they can't give you is the things you already have,</div>\n    <div class=\"paragraph card-text card-stanza my-5 text-center\">like beauty, intelligence, creativity, and majesty.</div>\n  </div>\n</div>\n<div class=\"mb-5 section-spacer\">&nbsp;</div>\n<div class=\"card card-section bg-dark text-warning shadow\">\n  <div class=\"section card-body mb-0 my-2\">\n    <div class=\"paragraph card-text card-stanza my-5 text-center\">Even though you did not live the lives you inherited from within books,</div>\n    <div class=\"paragraph card-text card-stanza my-5 text-center\">you know that they are solid, that the conclusions you draw from them are valid.</div>\n  </div>\n</div>\n<div class=\"card card-section bg-dark text-warning shadow\">\n  <div class=\"section card-body mb-0 my-2\">\n    <div class=\"paragraph card-text card-stanza my-5 text-center\">It is not just about some memories from a book you once read,</div>\n    <div class=\"paragraph card-text card-stanza my-5 text-center\">it is about the kingdom of knowledge within you, an actual city full of roads and libraries.</div>\n  </div>\n</div>\n<div class=\"card card-section bg-dark text-warning shadow\">\n  <div class=\"section card-body mb-0 my-2\">\n    <div class=\"paragraph card-text card-stanza my-5 text-center\">Each time you read, and re-read as you learn to learn more,</div>\n    <div class=\"paragraph card-text card-stanza my-5 text-center\">you grow in your modes of thinking, you expand your inner-navigation capabilities.</div>\n  </div>\n</div>\n<div class=\"mb-5 section-spacer\">&nbsp;</div>\n<div class=\"card card-section bg-dark text-warning shadow\">\n  <div class=\"section card-body mb-0 my-2\">\n    <div class=\"paragraph card-text card-stanza my-5 text-center\">We are really good navigation, be in on the outside, or within out body of knowledge,</div>\n    <div class=\"paragraph card-text card-stanza my-5 text-center\">but what is a navigator in a tiny city of a few buildings.</div>\n  </div>\n</div>\n<div class=\"card card-section bg-dark text-warning shadow\">\n  <div class=\"section card-body mb-0 my-2\">\n    <div class=\"paragraph card-text card-stanza my-5 text-center\">The more we expand our city, the more we begin to excel at navigation of greater and greater things,</div>\n    <div class=\"paragraph card-text card-stanza my-5 text-center\">be it our personal decision making, or how we relate to other people and the places we aim, to go towards, in life.</div>\n  </div>\n</div>\n<div class=\"mb-5 section-spacer\">&nbsp;</div>\n<div class=\"card card-section bg-dark text-warning shadow\">\n  <div class=\"section card-body mb-0 my-2\">\n    <div class=\"paragraph card-text card-stanza my-5 text-center\">The bigger our body of knowledge,</div>\n    <div class=\"paragraph card-text card-stanza my-5 text-center\">the more we can see into the future, the more is the future that unfolds before us connected to us.</div>\n  </div>\n</div>\n<div class=\"card card-section bg-dark text-warning shadow\">\n  <div class=\"section card-body mb-0 my-2\">\n    <div class=\"paragraph card-text card-stanza my-5 text-center\">Knowledge is is the thunderstorm that backs freedom, that prevents us from being permanently misled,</div>\n    <div class=\"paragraph card-text card-stanza my-5 text-center\">it is the tool that unravels all those things that are inauthentic.</div>\n  </div>\n</div>\n<div class=\"card card-section bg-dark text-warning shadow\">\n  <div class=\"section card-body mb-0 my-2\">\n    <div class=\"paragraph card-text card-stanza my-5 text-center\">I hope you can make room for wise stories from other lives,</div>\n    <div class=\"paragraph card-text card-stanza my-5 text-center\">it makes a world of difference.</div>\n  </div>\n</div>\n<div class=\"card card-section bg-dark text-warning shadow\">\n  <div class=\"section card-body mb-0 my-2\">\n    <div class=\"paragraph card-text card-stanza my-5 text-center\">May you discover all the world's most beautiful adventures,</div>\n    <div class=\"paragraph card-text card-stanza my-5 text-center\">and treasures, day dreams and inspirations - and grow, to no end.</div>\n  </div>\n</div>",
  "print": "<div class=\"section avoid-break-inside\" style=\"padding-bottom: 2rem;\">\n  <div class=\"paragraph\">If you don't like Audio Books, then you are going too fast through life,</div>\n  <div class=\"paragraph\">you have to slow down, all the way down until your Heart begins calling for wisdom.</div>\n</div>\n<div class=\"section avoid-break-inside\" style=\"padding-bottom: 2rem;\">\n  <div class=\"paragraph\">Look, whatever we think we know, is almost certainly incomplete without books,</div>\n  <div class=\"paragraph\">and it takes just a few months to love your way through a hundred of them.</div>\n</div>\n<div class=\"section avoid-break-inside\" style=\"padding-bottom: 2rem;\">\n  <br>\n</div>\n<div class=\"section avoid-break-inside\" style=\"padding-bottom: 2rem;\">\n  <div class=\"paragraph\">Books are always about connection, they will either show you that you are not alone,</div>\n  <div class=\"paragraph\">or they will sing to you in such a way that you will leap over several of your next plateaus.</div>\n</div>\n<div class=\"section avoid-break-inside\" style=\"padding-bottom: 2rem;\">\n  <div class=\"paragraph\">Books will make you stronger, more resilient, more courageous,</div>\n  <div class=\"paragraph\">more insightful, they will help you see into many of your futures.</div>\n</div>\n<div class=\"section avoid-break-inside\" style=\"padding-bottom: 2rem;\">\n  <div class=\"paragraph\">The only thing they can't give you is the things you already have,</div>\n  <div class=\"paragraph\">like beauty, intelligence, creativity, and majesty.</div>\n</div>\n<div class=\"section avoid-break-inside\" style=\"padding-bottom: 2rem;\">\n  <br>\n</div>\n<div class=\"section avoid-break-inside\" style=\"padding-bottom: 2rem;\">\n  <div class=\"paragraph\">Even though you did not live the lives you inherited from within books,</div>\n  <div class=\"paragraph\">you know that they are solid, that the conclusions you draw from them are valid.</div>\n</div>\n<div class=\"section avoid-break-inside\" style=\"padding-bottom: 2rem;\">\n  <div class=\"paragraph\">It is not just about some memories from a book you once read,</div>\n  <div class=\"paragraph\">it is about the kingdom of knowledge within you, an actual city full of roads and libraries.</div>\n</div>\n<div class=\"section avoid-break-inside\" style=\"padding-bottom: 2rem;\">\n  <div class=\"paragraph\">Each time you read, and re-read as you learn to learn more,</div>\n  <div class=\"paragraph\">you grow in your modes of thinking, you expand your inner-navigation capabilities.</div>\n</div>\n<div class=\"section avoid-break-inside\" style=\"padding-bottom: 2rem;\">\n  <br>\n</div>\n<div class=\"section avoid-break-inside\" style=\"padding-bottom: 2rem;\">\n  <div class=\"paragraph\">We are really good navigation, be in on the outside, or within out body of knowledge,</div>\n  <div class=\"paragraph\">but what is a navigator in a tiny city of a few buildings.</div>\n</div>\n<div class=\"section avoid-break-inside\" style=\"padding-bottom: 2rem;\">\n  <div class=\"paragraph\">The more we expand our city, the more we begin to excel at navigation of greater and greater things,</div>\n  <div class=\"paragraph\">be it our personal decision making, or how we relate to other people and the places we aim, to go towards, in life.</div>\n</div>\n<div class=\"section avoid-break-inside\" style=\"padding-bottom: 2rem;\">\n  <br>\n</div>\n<div class=\"section avoid-break-inside\" style=\"padding-bottom: 2rem;\">\n  <div class=\"paragraph\">The bigger our body of knowledge,</div>\n  <div class=\"paragraph\">the more we can see into the future, the more is the future that unfolds before us connected to us.</div>\n</div>\n<div class=\"section avoid-break-inside\" style=\"padding-bottom: 2rem;\">\n  <div class=\"paragraph\">Knowledge is is the thunderstorm that backs freedom, that prevents us from being permanently misled,</div>\n  <div class=\"paragraph\">it is the tool that unravels all those things that are inauthentic.</div>\n</div>\n<div class=\"section avoid-break-inside\" style=\"padding-bottom: 2rem;\">\n  <div class=\"paragraph\">I hope you can make room for wise stories from other lives,</div>\n  <div class=\"paragraph\">it makes a world of difference.</div>\n</div>\n<div class=\"section avoid-break-inside\" style=\"padding-bottom: 2rem;\">\n  <div class=\"paragraph\">May you discover all the world's most beautiful adventures,</div>\n  <div class=\"paragraph\">and treasures, day dreams and inspirations - and grow, to no end.</div>\n</div>",
  "text": "If you don't like Audio Books, then you are going too fast through life,\nyou have to slow down, all the way down until your Heart begins calling for wisdom.\nLook, whatever we think we know, is almost certainly incomplete without books,\nand it takes just a few months to love your way through a hundred of them.\n\nBooks are always about connection, they will either show you that you are not alone,\nor they will sing to you in such a way that you will leap over several of your next plateaus.\nBooks will make you stronger, more resilient, more courageous,\nmore insightful, they will help you see into many of your futures.\nThe only thing they can't give you is the things you already have,\nlike beauty, intelligence, creativity, and majesty.\n\nEven though you did not live the lives you inherited from within books,\nyou know that they are solid, that the conclusions you draw from them are valid.\nIt is not just about some memories from a book you once read,\nit is about the kingdom of knowledge within you, an actual city full of roads and libraries.\nEach time you read, and re-read as you learn to learn more,\nyou grow in your modes of thinking, you expand your inner-navigation capabilities.\n\nWe are really good navigation, be in on the outside, or within out body of knowledge,\nbut what is a navigator in a tiny city of a few buildings.\nThe more we expand our city, the more we begin to excel at navigation of greater and greater things,\nbe it our personal decision making, or how we relate to other people and the places we aim, to go towards, in life.\n\nThe bigger our body of knowledge,\nthe more we can see into the future, the more is the future that unfolds before us connected to us.\nKnowledge is is the thunderstorm that backs freedom, that prevents us from being permanently misled,\nit is the tool that unravels all those things that are inauthentic.\nI hope you can make room for wise stories from other lives,\nit makes a world of difference.\nMay you discover all the world's most beautiful adventures,\nand treasures, day dreams and inspirations - and grow, to no end.",
  "images": [],
  "links": []
}