{
  "title": "Do Not Let Schools Trick You, You Are Very Smart",
  "date": "2021-03-07T00:36:56.119Z",
  "image": "poetry-0371-illustration.jpg",
  "audio": "poetry-0371.mp3",
  "artwork": "https://unsplash.com/photos/rAXFt2G3ICM",
  "id": "furkies-purrkies-poetry-0371",
  "attachments": {},
  "guid": "e71354cd-de7c-47b0-b236-1eb07f9ab325"
}
