{
  "id": "furkies-purrkies-poetry-0709",
  "title": "Education As A Quest For New Talents",
  "date": "2022-02-07T20:38:25.969Z",
  "image": "poetry-0709-illustration.jpg",
  "artwork": "https://unsplash.com/photos/_fGmDeUQ2SM",
  "audio": "poetry-0709.mp3",
  "guid": "756eabeb-04c3-4659-abb8-deb9c5a84550"
}
