{
  "id": "furkies-purrkies-poetry-0560",
  "title": "Making Self Education More Pleasant By Remembering to Lower The On-ramps",
  "date": "2021-09-12T01:54:50.187Z",
  "image": "poetry-0560-illustration.jpg",
  "artwork": "https://unsplash.com/photos/pIdteYOzGFY",
  "audio": "poetry-0560.mp3",
  "guid": "153f4cc9-c4fe-47ac-9aef-c76bb3c851ce"
}
