{
  "name": "furkies-purrkies-poetry-0557",
  "id": "furkies-purrkies-poetry-0557",
  "title": "The Real Schools",
  "date": "2021-09-09T00:41:03.960Z",
  "image": "poetry-0557-illustration.jpg",
  "artwork": "https://commons.wikimedia.org/wiki/File:Test-986769_640.jpg",
  "audio": "poetry-0557.mp3",
  "guid": "43aa3254-50a3-414b-a5ae-a09963cbed67",
  "html": "<div class=\"section\">\n  <p><a href=\"https://www.youtube.com/watch?v=Wi2nmx7XqB0\">Teachers can be pushed to perform at maximum</a>,<br>but that does nothing to make education real.</p>\n  <p>The biggest problem is the content, structure and aim of lectures,<br>that is where the really real results are.</p>\n  <p>If the lectures themselves are broken,<br>then increasing teacher performance is of little consequence.</p>\n</div>\n<div class=\"section\">\n  <hr>\n</div>\n<div class=\"section\">\n  <p>Humanity has invented the concept of money and put all of the world into poverty,<br>if we want students to learn for real, we have to help them towards financial independence.</p>\n  <p>Here, the students will learn how to build small companies first,<br>they will be expected to run several, and graduate when they begin supporting themselves.</p>\n  <p>This is not a money school, not a business school, or start-up incubator,<br>this is an educational strategy that creates a reason for going to school.</p>\n  <p>And a reason for learning programming, or soldering, or 3D modeling, or even marketing,<br>which will create a very real and powerful need, for mathematics, physics, chemistry, language, literature, etc.</p>\n</div>\n<div class=\"section\">\n  <hr>\n</div>\n<div class=\"section\">\n  <p>Math poses such a challenge, because it is not a subject,<br>it is a collection of tools and observations that should not be taught without a need.</p>\n  <p>Forcing a student to memorize mathematics,<br>without context or desire for it is a mistake, to say the least.</p>\n  <p>Math can be easily taught with just two simple things,<br>a through list of mathematical topics along with an explanation for what they are useful for, and something that is interesting to the student, that will create a need for these topics.</p>\n  <p>Interesting things that can teach math are Computer Games, Programmatic 3D Modeling, Generative Art, Screensavers, Sound Synthesis, Programming Robots, Programming Drones, and programming Drones for race or battle in the air.</p>\n  <p><a href=\"https://www.youtube.com/watch?v=FHk5PEZAyMA\">Drones can be made in the classroom</a>, this would create a need for knowledge of electronics, and minor programming.</p>\n  <p>I repeat, teaching subjects without a need for them,<br>is a mistake.</p>\n</div>\n<div class=\"section\">\n  <hr>\n</div>\n<div class=\"section\">\n  <p>Similarly, Physics, although much more practical than Math,<br>is still not meant to be approached without a real need.</p>\n  <p>Note that hose who enjoy the study of physics will find it easier to learn math from within-physics by reinventing calculus or strange attractors,<br>this is an example of approaching math indirectly, as a library of useful things.</p>\n  <p>There are countless ways to make physics interesting to students,<br>for example, due to the ease with which we learn to compose music, sound synthesizers make for a great introduction.</p>\n  <p>Perhaps the best introduction, is to get the students to build an array of radio telescopes,<br>and begin listening to the skies.</p>\n  <p>Satellites, radio bursts, strange anomalies, perhaps participation in SETI, and certainly radio communication, will invite great many students.</p>\n  <p>Other ideas are working with inexpensive SBC’s like the Raspberry PI, and building 3D printers from scratch, making custom digital cameras.</p>\n</div>\n<div class=\"section\">\n  <hr>\n</div>\n<div class=\"section\">\n  <p>BUT! the subject division as we have it now,<br>in great part contributes to the destruction of education.</p>\n  <p>Even this lovely Physics Class that I have described,<br>though a step in the right direction, is the wrong approach.</p>\n</div>\n<div class=\"section\">\n  <hr>\n</div>\n<div class=\"section\">\n  <p>The students need help with financial independence, first,<br>and that is the correct way to structure a real educational system.</p>\n  <p>All the classes should represent very small companies,<br>and although they will not be able to reliably make money.</p>\n  <p>A student will have many such little businesses,<br>all put together, they will add up to create a stable source of income.</p>\n  <p>A lot of these little companies will have multiple co-founders,<br>often, the more co-founders, the stronger the company.</p>\n</div>\n<div class=\"section\">\n  <hr>\n</div>\n<div class=\"section\">\n  <p>Right now, all the subject divisions must be set aside to create a library of good ideas,<br>and each school should re-structure their classes as lectures in preparation of launching small businesses.</p>\n</div>\n<div class=\"section\">\n  <hr>\n</div>\n<div class=\"section\">\n  <p>Fake education is marked by teaching irrelevant things,<br>in ways that force the students to pretend to learn them, by simply memorizing them,</p>\n  <p>They are taught that the diploma is needed to get a job,<br>this is a lie, that only a fraudulent institution would perpetuate.</p>\n</div>\n<div class=\"section\">\n  <hr>\n</div>\n<div class=\"section\">\n  <p>Real education, provides real results, not by measuring test scores,<br>but by measuring student success.</p>\n  <p>Real education puts the student in context of real things,<br>a small business, a need for high level lectures, such as Industrial Design, and then low level skills such as being able to translate mathematical functions into a programming language.</p>\n</div>\n<div class=\"section\">\n  <hr>\n</div>\n<div class=\"section\">\n  <p>We force the children to use money,<br>we will now help them to financial independence.</p>\n</div>\n<div class=\"section\">\n  <hr>\n</div>\n<div class=\"section\">\n  <p>Fix schools, now,<br>or the students will build their own and never forgive you for what you have done.</p>\n</div>\n<div class=\"section\">\n  <hr>\n</div>\n<div class=\"section\">\n  <p>Let the renaissance,<br>begin.</p>\n</div>",
  "bootstrap": "<div class=\"card card-section bg-dark text-warning shadow\">\n  <div class=\"section card-body mb-0 my-2\">\n    <div class=\"paragraph card-text card-stanza my-5 text-center\"><a href=\"https://www.youtube.com/watch?v=Wi2nmx7XqB0\">Teachers can be pushed to perform at maximum</a>,<br>but that does nothing to make education real.</div>\n    <div class=\"paragraph card-text card-stanza my-5 text-center\">The biggest problem is the content, structure and aim of lectures,<br>that is where the really real results are.</div>\n    <div class=\"paragraph card-text card-stanza my-5 text-center\">If the lectures themselves are broken,<br>then increasing teacher performance is of little consequence.</div>\n  </div>\n</div>\n<div class=\"mb-5 section-spacer\">&nbsp;</div>\n<div class=\"card card-section bg-dark text-warning shadow\">\n  <div class=\"section card-body mb-0 my-2\">\n    <div class=\"paragraph card-text card-stanza my-5 text-center\">Humanity has invented the concept of money and put all of the world into poverty,<br>if we want students to learn for real, we have to help them towards financial independence.</div>\n    <div class=\"paragraph card-text card-stanza my-5 text-center\">Here, the students will learn how to build small companies first,<br>they will be expected to run several, and graduate when they begin supporting themselves.</div>\n    <div class=\"paragraph card-text card-stanza my-5 text-center\">This is not a money school, not a business school, or start-up incubator,<br>this is an educational strategy that creates a reason for going to school.</div>\n    <div class=\"paragraph card-text card-stanza my-5 text-center\">And a reason for learning programming, or soldering, or 3D modeling, or even marketing,<br>which will create a very real and powerful need, for mathematics, physics, chemistry, language, literature, etc.</div>\n  </div>\n</div>\n<div class=\"mb-5 section-spacer\">&nbsp;</div>\n<div class=\"card card-section bg-dark text-warning shadow\">\n  <div class=\"section card-body mb-0 my-2\">\n    <div class=\"paragraph card-text card-stanza my-5 text-center\">Math poses such a challenge, because it is not a subject,<br>it is a collection of tools and observations that should not be taught without a need.</div>\n    <div class=\"paragraph card-text card-stanza my-5 text-center\">Forcing a student to memorize mathematics,<br>without context or desire for it is a mistake, to say the least.</div>\n    <div class=\"paragraph card-text card-stanza my-5 text-center\">Math can be easily taught with just two simple things,<br>a through list of mathematical topics along with an explanation for what they are useful for, and something that is interesting to the student, that will create a need for these topics.</div>\n    <div class=\"paragraph card-text card-stanza my-5 text-center\">Interesting things that can teach math are Computer Games, Programmatic 3D Modeling, Generative Art, Screensavers, Sound Synthesis, Programming Robots, Programming Drones, and programming Drones for race or battle in the air.</div>\n    <div class=\"paragraph card-text card-stanza my-5 text-center\"><a href=\"https://www.youtube.com/watch?v=FHk5PEZAyMA\">Drones can be made in the classroom</a>, this would create a need for knowledge of electronics, and minor programming.</div>\n    <div class=\"paragraph card-text card-stanza my-5 text-center\">I repeat, teaching subjects without a need for them,<br>is a mistake.</div>\n  </div>\n</div>\n<div class=\"mb-5 section-spacer\">&nbsp;</div>\n<div class=\"card card-section bg-dark text-warning shadow\">\n  <div class=\"section card-body mb-0 my-2\">\n    <div class=\"paragraph card-text card-stanza my-5 text-center\">Similarly, Physics, although much more practical than Math,<br>is still not meant to be approached without a real need.</div>\n    <div class=\"paragraph card-text card-stanza my-5 text-center\">Note that hose who enjoy the study of physics will find it easier to learn math from within-physics by reinventing calculus or strange attractors,<br>this is an example of approaching math indirectly, as a library of useful things.</div>\n    <div class=\"paragraph card-text card-stanza my-5 text-center\">There are countless ways to make physics interesting to students,<br>for example, due to the ease with which we learn to compose music, sound synthesizers make for a great introduction.</div>\n    <div class=\"paragraph card-text card-stanza my-5 text-center\">Perhaps the best introduction, is to get the students to build an array of radio telescopes,<br>and begin listening to the skies.</div>\n    <div class=\"paragraph card-text card-stanza my-5 text-center\">Satellites, radio bursts, strange anomalies, perhaps participation in SETI, and certainly radio communication, will invite great many students.</div>\n    <div class=\"paragraph card-text card-stanza my-5 text-center\">Other ideas are working with inexpensive SBC’s like the Raspberry PI, and building 3D printers from scratch, making custom digital cameras.</div>\n  </div>\n</div>\n<div class=\"mb-5 section-spacer\">&nbsp;</div>\n<div class=\"card card-section bg-dark text-warning shadow\">\n  <div class=\"section card-body mb-0 my-2\">\n    <div class=\"paragraph card-text card-stanza my-5 text-center\">BUT! the subject division as we have it now,<br>in great part contributes to the destruction of education.</div>\n    <div class=\"paragraph card-text card-stanza my-5 text-center\">Even this lovely Physics Class that I have described,<br>though a step in the right direction, is the wrong approach.</div>\n  </div>\n</div>\n<div class=\"mb-5 section-spacer\">&nbsp;</div>\n<div class=\"card card-section bg-dark text-warning shadow\">\n  <div class=\"section card-body mb-0 my-2\">\n    <div class=\"paragraph card-text card-stanza my-5 text-center\">The students need help with financial independence, first,<br>and that is the correct way to structure a real educational system.</div>\n    <div class=\"paragraph card-text card-stanza my-5 text-center\">All the classes should represent very small companies,<br>and although they will not be able to reliably make money.</div>\n    <div class=\"paragraph card-text card-stanza my-5 text-center\">A student will have many such little businesses,<br>all put together, they will add up to create a stable source of income.</div>\n    <div class=\"paragraph card-text card-stanza my-5 text-center\">A lot of these little companies will have multiple co-founders,<br>often, the more co-founders, the stronger the company.</div>\n  </div>\n</div>\n<div class=\"mb-5 section-spacer\">&nbsp;</div>\n<div class=\"card card-section bg-dark text-warning shadow\">\n  <div class=\"section card-body mb-0 my-2\">\n    <div class=\"paragraph card-text card-stanza my-5 text-center\">Right now, all the subject divisions must be set aside to create a library of good ideas,<br>and each school should re-structure their classes as lectures in preparation of launching small businesses.</div>\n  </div>\n</div>\n<div class=\"mb-5 section-spacer\">&nbsp;</div>\n<div class=\"card card-section bg-dark text-warning shadow\">\n  <div class=\"section card-body mb-0 my-2\">\n    <div class=\"paragraph card-text card-stanza my-5 text-center\">Fake education is marked by teaching irrelevant things,<br>in ways that force the students to pretend to learn them, by simply memorizing them,</div>\n    <div class=\"paragraph card-text card-stanza my-5 text-center\">They are taught that the diploma is needed to get a job,<br>this is a lie, that only a fraudulent institution would perpetuate.</div>\n  </div>\n</div>\n<div class=\"mb-5 section-spacer\">&nbsp;</div>\n<div class=\"card card-section bg-dark text-warning shadow\">\n  <div class=\"section card-body mb-0 my-2\">\n    <div class=\"paragraph card-text card-stanza my-5 text-center\">Real education, provides real results, not by measuring test scores,<br>but by measuring student success.</div>\n    <div class=\"paragraph card-text card-stanza my-5 text-center\">Real education puts the student in context of real things,<br>a small business, a need for high level lectures, such as Industrial Design, and then low level skills such as being able to translate mathematical functions into a programming language.</div>\n  </div>\n</div>\n<div class=\"mb-5 section-spacer\">&nbsp;</div>\n<div class=\"card card-section bg-dark text-warning shadow\">\n  <div class=\"section card-body mb-0 my-2\">\n    <div class=\"paragraph card-text card-stanza my-5 text-center\">We force the children to use money,<br>we will now help them to financial independence.</div>\n  </div>\n</div>\n<div class=\"mb-5 section-spacer\">&nbsp;</div>\n<div class=\"card card-section bg-dark text-warning shadow\">\n  <div class=\"section card-body mb-0 my-2\">\n    <div class=\"paragraph card-text card-stanza my-5 text-center\">Fix schools, now,<br>or the students will build their own and never forgive you for what you have done.</div>\n  </div>\n</div>\n<div class=\"mb-5 section-spacer\">&nbsp;</div>\n<div class=\"card card-section bg-dark text-warning shadow\">\n  <div class=\"section card-body mb-0 my-2\">\n    <div class=\"paragraph card-text card-stanza my-5 text-center\">Let the renaissance,<br>begin.</div>\n  </div>\n</div>",
  "print": "<div class=\"section avoid-break-inside\" style=\"padding-bottom: 2rem;\">\n  <div class=\"paragraph\"><span>Teachers can be pushed to perform at maximum<sup>[1]</sup></span>,<br>but that does nothing to make education real.</div>\n  <div class=\"paragraph\">The biggest problem is the content, structure and aim of lectures,<br>that is where the really real results are.</div>\n  <div class=\"paragraph\">If the lectures themselves are broken,<br>then increasing teacher performance is of little consequence.</div>\n</div>\n<div class=\"section avoid-break-inside\" style=\"padding-bottom: 2rem;\">\n  <br>\n</div>\n<div class=\"section avoid-break-inside\" style=\"padding-bottom: 2rem;\">\n  <div class=\"paragraph\">Humanity has invented the concept of money and put all of the world into poverty,<br>if we want students to learn for real, we have to help them towards financial independence.</div>\n  <div class=\"paragraph\">Here, the students will learn how to build small companies first,<br>they will be expected to run several, and graduate when they begin supporting themselves.</div>\n  <div class=\"paragraph\">This is not a money school, not a business school, or start-up incubator,<br>this is an educational strategy that creates a reason for going to school.</div>\n  <div class=\"paragraph\">And a reason for learning programming, or soldering, or 3D modeling, or even marketing,<br>which will create a very real and powerful need, for mathematics, physics, chemistry, language, literature, etc.</div>\n</div>\n<div class=\"section avoid-break-inside\" style=\"padding-bottom: 2rem;\">\n  <br>\n</div>\n<div class=\"section avoid-break-inside\" style=\"padding-bottom: 2rem;\">\n  <div class=\"paragraph\">Math poses such a challenge, because it is not a subject,<br>it is a collection of tools and observations that should not be taught without a need.</div>\n  <div class=\"paragraph\">Forcing a student to memorize mathematics,<br>without context or desire for it is a mistake, to say the least.</div>\n  <div class=\"paragraph\">Math can be easily taught with just two simple things,<br>a through list of mathematical topics along with an explanation for what they are useful for, and something that is interesting to the student, that will create a need for these topics.</div>\n  <div class=\"paragraph\">Interesting things that can teach math are Computer Games, Programmatic 3D Modeling, Generative Art, Screensavers, Sound Synthesis, Programming Robots, Programming Drones, and programming Drones for race or battle in the air.</div>\n  <div class=\"paragraph\"><span>Drones can be made in the classroom<sup>[2]</sup></span>, this would create a need for knowledge of electronics, and minor programming.</div>\n  <div class=\"paragraph\">I repeat, teaching subjects without a need for them,<br>is a mistake.</div>\n</div>\n<div class=\"section avoid-break-inside\" style=\"padding-bottom: 2rem;\">\n  <br>\n</div>\n<div class=\"section avoid-break-inside\" style=\"padding-bottom: 2rem;\">\n  <div class=\"paragraph\">Similarly, Physics, although much more practical than Math,<br>is still not meant to be approached without a real need.</div>\n  <div class=\"paragraph\">Note that hose who enjoy the study of physics will find it easier to learn math from within-physics by reinventing calculus or strange attractors,<br>this is an example of approaching math indirectly, as a library of useful things.</div>\n  <div class=\"paragraph\">There are countless ways to make physics interesting to students,<br>for example, due to the ease with which we learn to compose music, sound synthesizers make for a great introduction.</div>\n  <div class=\"paragraph\">Perhaps the best introduction, is to get the students to build an array of radio telescopes,<br>and begin listening to the skies.</div>\n  <div class=\"paragraph\">Satellites, radio bursts, strange anomalies, perhaps participation in SETI, and certainly radio communication, will invite great many students.</div>\n  <div class=\"paragraph\">Other ideas are working with inexpensive SBC’s like the Raspberry PI, and building 3D printers from scratch, making custom digital cameras.</div>\n</div>\n<div class=\"section avoid-break-inside\" style=\"padding-bottom: 2rem;\">\n  <br>\n</div>\n<div class=\"section avoid-break-inside\" style=\"padding-bottom: 2rem;\">\n  <div class=\"paragraph\">BUT! the subject division as we have it now,<br>in great part contributes to the destruction of education.</div>\n  <div class=\"paragraph\">Even this lovely Physics Class that I have described,<br>though a step in the right direction, is the wrong approach.</div>\n</div>\n<div class=\"section avoid-break-inside\" style=\"padding-bottom: 2rem;\">\n  <br>\n</div>\n<div class=\"section avoid-break-inside\" style=\"padding-bottom: 2rem;\">\n  <div class=\"paragraph\">The students need help with financial independence, first,<br>and that is the correct way to structure a real educational system.</div>\n  <div class=\"paragraph\">All the classes should represent very small companies,<br>and although they will not be able to reliably make money.</div>\n  <div class=\"paragraph\">A student will have many such little businesses,<br>all put together, they will add up to create a stable source of income.</div>\n  <div class=\"paragraph\">A lot of these little companies will have multiple co-founders,<br>often, the more co-founders, the stronger the company.</div>\n</div>\n<div class=\"section avoid-break-inside\" style=\"padding-bottom: 2rem;\">\n  <br>\n</div>\n<div class=\"section avoid-break-inside\" style=\"padding-bottom: 2rem;\">\n  <div class=\"paragraph\">Right now, all the subject divisions must be set aside to create a library of good ideas,<br>and each school should re-structure their classes as lectures in preparation of launching small businesses.</div>\n</div>\n<div class=\"section avoid-break-inside\" style=\"padding-bottom: 2rem;\">\n  <br>\n</div>\n<div class=\"section avoid-break-inside\" style=\"padding-bottom: 2rem;\">\n  <div class=\"paragraph\">Fake education is marked by teaching irrelevant things,<br>in ways that force the students to pretend to learn them, by simply memorizing them,</div>\n  <div class=\"paragraph\">They are taught that the diploma is needed to get a job,<br>this is a lie, that only a fraudulent institution would perpetuate.</div>\n</div>\n<div class=\"section avoid-break-inside\" style=\"padding-bottom: 2rem;\">\n  <br>\n</div>\n<div class=\"section avoid-break-inside\" style=\"padding-bottom: 2rem;\">\n  <div class=\"paragraph\">Real education, provides real results, not by measuring test scores,<br>but by measuring student success.</div>\n  <div class=\"paragraph\">Real education puts the student in context of real things,<br>a small business, a need for high level lectures, such as Industrial Design, and then low level skills such as being able to translate mathematical functions into a programming language.</div>\n</div>\n<div class=\"section avoid-break-inside\" style=\"padding-bottom: 2rem;\">\n  <br>\n</div>\n<div class=\"section avoid-break-inside\" style=\"padding-bottom: 2rem;\">\n  <div class=\"paragraph\">We force the children to use money,<br>we will now help them to financial independence.</div>\n</div>\n<div class=\"section avoid-break-inside\" style=\"padding-bottom: 2rem;\">\n  <br>\n</div>\n<div class=\"section avoid-break-inside\" style=\"padding-bottom: 2rem;\">\n  <div class=\"paragraph\">Fix schools, now,<br>or the students will build their own and never forgive you for what you have done.</div>\n</div>\n<div class=\"section avoid-break-inside\" style=\"padding-bottom: 2rem;\">\n  <br>\n</div>\n<div class=\"section avoid-break-inside\" style=\"padding-bottom: 2rem;\">\n  <div class=\"paragraph\">Let the renaissance,<br>begin.</div>\n</div>\n<div class=\"break-after\">&nbsp;</div>\n<div>\n  <div class=\"section\" style=\"padding-bottom: 1rem;\">References</div>\n  <div>[1]: https://www.youtube.com/watch?v=Wi2nmx7XqB0</div>\n  <div>[2]: https://www.youtube.com/watch?v=FHk5PEZAyMA</div>\n</div>",
  "text": "Teachers can be pushed to perform at maximum[1],\nbut that does nothing to make education real.\nThe biggest problem is the content, structure and aim of lectures,\nthat is where the really real results are.\nIf the lectures themselves are broken,\nthen increasing teacher performance is of little consequence.\n\nHumanity has invented the concept of money and put all of the world into poverty,\nif we want students to learn for real, we have to help them towards financial independence.\nHere, the students will learn how to build small companies first,\nthey will be expected to run several, and graduate when they begin supporting themselves.\nThis is not a money school, not a business school, or start-up incubator,\nthis is an educational strategy that creates a reason for going to school.\nAnd a reason for learning programming, or soldering, or 3D modeling, or even marketing,\nwhich will create a very real and powerful need, for mathematics, physics, chemistry, language, literature, etc.\n\nMath poses such a challenge, because it is not a subject,\nit is a collection of tools and observations that should not be taught without a need.\nForcing a student to memorize mathematics,\nwithout context or desire for it is a mistake, to say the least.\nMath can be easily taught with just two simple things,\na through list of mathematical topics along with an explanation for what they are useful for, and something that is interesting to the student, that will create a need for these topics.\nInteresting things that can teach math are Computer Games, Programmatic 3D Modeling, Generative Art, Screensavers, Sound Synthesis, Programming Robots, Programming Drones, and programming Drones for race or battle in the air.\nDrones can be made in the classroom[2], this would create a need for knowledge of electronics, and minor programming.\nI repeat, teaching subjects without a need for them,\nis a mistake.\n\nSimilarly, Physics, although much more practical than Math,\nis still not meant to be approached without a real need.\nNote that hose who enjoy the study of physics will find it easier to learn math from within-physics by reinventing calculus or strange attractors,\nthis is an example of approaching math indirectly, as a library of useful things.\nThere are countless ways to make physics interesting to students,\nfor example, due to the ease with which we learn to compose music, sound synthesizers make for a great introduction.\nPerhaps the best introduction, is to get the students to build an array of radio telescopes,\nand begin listening to the skies.\nSatellites, radio bursts, strange anomalies, perhaps participation in SETI, and certainly radio communication, will invite great many students.\nOther ideas are working with inexpensive SBC’s like the Raspberry PI, and building 3D printers from scratch, making custom digital cameras.\n\nBUT! the subject division as we have it now,\nin great part contributes to the destruction of education.\nEven this lovely Physics Class that I have described,\nthough a step in the right direction, is the wrong approach.\n\nThe students need help with financial independence, first,\nand that is the correct way to structure a real educational system.\nAll the classes should represent very small companies,\nand although they will not be able to reliably make money.\nA student will have many such little businesses,\nall put together, they will add up to create a stable source of income.\nA lot of these little companies will have multiple co-founders,\noften, the more co-founders, the stronger the company.\n\nRight now, all the subject divisions must be set aside to create a library of good ideas,\nand each school should re-structure their classes as lectures in preparation of launching small businesses.\n\nFake education is marked by teaching irrelevant things,\nin ways that force the students to pretend to learn them, by simply memorizing them,\nThey are taught that the diploma is needed to get a job,\nthis is a lie, that only a fraudulent institution would perpetuate.\n\nReal education, provides real results, not by measuring test scores,\nbut by measuring student success.\nReal education puts the student in context of real things,\na small business, a need for high level lectures, such as Industrial Design, and then low level skills such as being able to translate mathematical functions into a programming language.\n\nWe force the children to use money,\nwe will now help them to financial independence.\n\nFix schools, now,\nor the students will build their own and never forgive you for what you have done.\n\nLet the renaissance,\nbegin.\n \nReferences\n[1]: https://www.youtube.com/watch?v=Wi2nmx7XqB0\n[2]: https://www.youtube.com/watch?v=FHk5PEZAyMA",
  "images": [],
  "links": [
    {
      "title": "Teachers can be pushed to perform at maximum",
      "url": "https://www.youtube.com/watch?v=Wi2nmx7XqB0",
      "hostname": "www.youtube.com"
    },
    {
      "title": "Drones can be made in the classroom",
      "url": "https://www.youtube.com/watch?v=FHk5PEZAyMA",
      "hostname": "www.youtube.com"
    }
  ]
}