{
  "id": "furkies-purrkies-poetry-0579",
  "title": "Authorities Serve Not Their Nations But The Future Generations",
  "date": "2021-10-01T00:49:10.556Z",
  "image": "poetry-0579-illustration.jpg",
  "artwork": "https://unsplash.com/photos/Tq7lbAeF9BQ",
  "audio": "poetry-0579.mp3",
  "guid": "83e16309-3613-4e40-ac75-df1f63f1f58a"
}
