{
  "title": "The Terrible Truth Behind Piano Keys, Scales, Schools and Uneducated Politicians",
  "date": "2021-02-21T01:11:53.020Z",
  "image": "poetry-0357-illustration.jpg",
  "audio": "poetry-0357.mp3",
  "artwork": "https://unsplash.com/photos/bHiugl8H-MQ",
  "id": "furkies-purrkies-poetry-0357",
  "attachments": {},
  "guid": "c519ed2d-8021-453b-80aa-0579958b17e2"
}
