{
  "title": "All Things Special",
  "date": "2020-04-05T01:04:04.832Z",
  "image": "poetry-0024-illustration.jpg",
  "artwork": "https://catpea.com/",
  "id": "furkies-purrkies-poetry-0024",
  "attachments": {},
  "guid": "5ffd4f83-7877-420a-be06-2a10a8a1a579"
}
