{
  "id": "furkies-purrkies-poetry-0782",
  "title": "A Tiny Little Introduction To Digital Paining (Recap And Lecture Practice)",
  "date": "2022-04-21T22:37:16.386Z",
  "image": "poetry-0782-illustration.jpg",
  "artwork": "https://catpea.com",
  "audio": "poetry-0782.mp3",
  "guid": "595edd76-64bb-4f5f-9a34-db5836111fa2"
}
