{
  "title": "My Greatest Archaeological Discovery, That Belonged In A Museum!",
  "date": "2021-03-31T01:09:09.153Z",
  "image": "poetry-0395-illustration.jpg",
  "audio": "poetry-0395.mp3",
  "artwork": "https://catpea.com/",
  "id": "furkies-purrkies-poetry-0395",
  "attachments": {},
  "guid": "af5aed38-7b28-4984-88bc-ee279e0c9cf4"
}
