{
  "title": "In The Eyes Of The Future Generations",
  "date": "2020-07-19T03:12:28.354Z",
  "image": "poetry-0141-illustration.jpg",
  "audio": "poetry-0141.mp3",
  "id": "furkies-purrkies-poetry-0141",
  "attachments": {},
  "guid": "71196e8f-9f25-401a-aed2-d79ba745ebff"
}
