{
  "title": "Chopping Wood, Moose, and Beaver, Gol Dang It!",
  "date": "2020-10-17T17:37:03.026Z",
  "image": "poetry-0231-illustration.jpg",
  "audio": "poetry-0231.mp3",
  "artwork": "https://catpea.com/",
  "id": "furkies-purrkies-poetry-0231",
  "attachments": {},
  "guid": "ee6aefa3-7a74-4266-ae4f-8c3fcc3ca82e"
}
