{
  "name": "furkies-purrkies-poetry-0672",
  "id": "furkies-purrkies-poetry-0672",
  "title": "Shuffling In The Snow",
  "date": "2022-01-02T02:31:44.520Z",
  "image": "poetry-0672-illustration.jpg",
  "artwork": "https://catpea.com",
  "audio": "poetry-0672.mp3",
  "guid": "fd47d695-7388-418f-8faa-32f977841f7f",
  "html": "<div class=\"section\">\n  <p>Shuffling is a bit like jogging but slow,<br>it is like walking fast with a touch of go!</p>\n  <p>And there is something you should know,<br>about shuffling <strong>in</strong> the snow.</p>\n</div>\n<div class=\"section\">\n  <hr>\n</div>\n<div class=\"section\">\n  <p>So as long as you dress up like an Eskimo.<br>it is an amazing exercise no matter the tempo.</p>\n  <p>Especially when you hit a plateau,<br>and start feeling like a big po-ta-toe.</p>\n  <p>An it does not matter how fast you go,<br>so as long as you don't go toooo slow.</p>\n</div>\n<div class=\"section\">\n  <hr>\n</div>\n<div class=\"section\">\n  <p>You are sure to gain powerful muscle like a buffalo,<br>and look like a snow commando.</p>\n  <p>It is a very good workout to undergo,<br>and if you got snow on the ground, you should start tomorrow.</p>\n  <p>You shouldn't forget your hat and mittens though,<br>as that is a very important combo.</p>\n</div>\n<div class=\"section\">\n  <hr>\n</div>\n<div class=\"section\">\n  <p>Plus, no matter how far you go,<br>you should definitely bring a thermos of hot coco.</p>\n  <p>Call a friend, and alert them about shuffling in the snow.<br>and see, if they too, can go.</p>\n  <p>Or just grab a friend by an elbow,<br>and tell them the first time is really slow.</p>\n</div>\n<div class=\"section\">\n  <hr>\n</div>\n<div class=\"section\">\n  <p>For a more advanced workout, buy a sled, or borrow,<br>and then ask someone if they want a tow.</p>\n  <p>This is very powerful, although,<br>you should make sure you are having fun in the snow.</p>\n  <p>A workout must flow,<br>that is the only way your muscles will grow.</p>\n</div>\n<div class=\"section\">\n  <hr>\n</div>\n<div class=\"section\">\n  <p>And if nobody wants to go,<br>don't worry it is easy to shuffle in the snow.</p>\n  <p>In snow everything has a beautiful glow,<br>even ordinary things look like a Broadway show.</p>\n  <p>Plus, you can listen to an interesting book as you go,<br>maybe even get <a href=\"https://librivox.org/walden-by-henry-david-thoreau\">Walden by Thoreau</a>.</p>\n</div>\n<div class=\"section\">\n  <hr>\n</div>\n<div class=\"section\">\n  <p>Shuffling keeps you fit, but also warm a you go,<br>even if it is zero or below.</p>\n  <p>The most important thing, though,<br>know that it is also a celebration of Winter and Snow.</p>\n</div>",
  "bootstrap": "<div class=\"card card-section bg-dark text-warning shadow\">\n  <div class=\"section card-body mb-0 my-2\">\n    <div class=\"paragraph card-text card-stanza my-5 text-center\">Shuffling is a bit like jogging but slow,<br>it is like walking fast with a touch of go!</div>\n    <div class=\"paragraph card-text card-stanza my-5 text-center\">And there is something you should know,<br>about shuffling <strong>in</strong> the snow.</div>\n  </div>\n</div>\n<div class=\"mb-5 section-spacer\">&nbsp;</div>\n<div class=\"card card-section bg-dark text-warning shadow\">\n  <div class=\"section card-body mb-0 my-2\">\n    <div class=\"paragraph card-text card-stanza my-5 text-center\">So as long as you dress up like an Eskimo.<br>it is an amazing exercise no matter the tempo.</div>\n    <div class=\"paragraph card-text card-stanza my-5 text-center\">Especially when you hit a plateau,<br>and start feeling like a big po-ta-toe.</div>\n    <div class=\"paragraph card-text card-stanza my-5 text-center\">An it does not matter how fast you go,<br>so as long as you don't go toooo slow.</div>\n  </div>\n</div>\n<div class=\"mb-5 section-spacer\">&nbsp;</div>\n<div class=\"card card-section bg-dark text-warning shadow\">\n  <div class=\"section card-body mb-0 my-2\">\n    <div class=\"paragraph card-text card-stanza my-5 text-center\">You are sure to gain powerful muscle like a buffalo,<br>and look like a snow commando.</div>\n    <div class=\"paragraph card-text card-stanza my-5 text-center\">It is a very good workout to undergo,<br>and if you got snow on the ground, you should start tomorrow.</div>\n    <div class=\"paragraph card-text card-stanza my-5 text-center\">You shouldn't forget your hat and mittens though,<br>as that is a very important combo.</div>\n  </div>\n</div>\n<div class=\"mb-5 section-spacer\">&nbsp;</div>\n<div class=\"card card-section bg-dark text-warning shadow\">\n  <div class=\"section card-body mb-0 my-2\">\n    <div class=\"paragraph card-text card-stanza my-5 text-center\">Plus, no matter how far you go,<br>you should definitely bring a thermos of hot coco.</div>\n    <div class=\"paragraph card-text card-stanza my-5 text-center\">Call a friend, and alert them about shuffling in the snow.<br>and see, if they too, can go.</div>\n    <div class=\"paragraph card-text card-stanza my-5 text-center\">Or just grab a friend by an elbow,<br>and tell them the first time is really slow.</div>\n  </div>\n</div>\n<div class=\"mb-5 section-spacer\">&nbsp;</div>\n<div class=\"card card-section bg-dark text-warning shadow\">\n  <div class=\"section card-body mb-0 my-2\">\n    <div class=\"paragraph card-text card-stanza my-5 text-center\">For a more advanced workout, buy a sled, or borrow,<br>and then ask someone if they want a tow.</div>\n    <div class=\"paragraph card-text card-stanza my-5 text-center\">This is very powerful, although,<br>you should make sure you are having fun in the snow.</div>\n    <div class=\"paragraph card-text card-stanza my-5 text-center\">A workout must flow,<br>that is the only way your muscles will grow.</div>\n  </div>\n</div>\n<div class=\"mb-5 section-spacer\">&nbsp;</div>\n<div class=\"card card-section bg-dark text-warning shadow\">\n  <div class=\"section card-body mb-0 my-2\">\n    <div class=\"paragraph card-text card-stanza my-5 text-center\">And if nobody wants to go,<br>don't worry it is easy to shuffle in the snow.</div>\n    <div class=\"paragraph card-text card-stanza my-5 text-center\">In snow everything has a beautiful glow,<br>even ordinary things look like a Broadway show.</div>\n    <div class=\"paragraph card-text card-stanza my-5 text-center\">Plus, you can listen to an interesting book as you go,<br>maybe even get <a href=\"https://librivox.org/walden-by-henry-david-thoreau\">Walden by Thoreau</a>.</div>\n  </div>\n</div>\n<div class=\"mb-5 section-spacer\">&nbsp;</div>\n<div class=\"card card-section bg-dark text-warning shadow\">\n  <div class=\"section card-body mb-0 my-2\">\n    <div class=\"paragraph card-text card-stanza my-5 text-center\">Shuffling keeps you fit, but also warm a you go,<br>even if it is zero or below.</div>\n    <div class=\"paragraph card-text card-stanza my-5 text-center\">The most important thing, though,<br>know that it is also a celebration of Winter and Snow.</div>\n  </div>\n</div>",
  "print": "<div class=\"section avoid-break-inside\" style=\"padding-bottom: 2rem;\">\n  <div class=\"paragraph\">Shuffling is a bit like jogging but slow,<br>it is like walking fast with a touch of go!</div>\n  <div class=\"paragraph\">And there is something you should know,<br>about shuffling <strong>in</strong> the snow.</div>\n</div>\n<div class=\"section avoid-break-inside\" style=\"padding-bottom: 2rem;\">\n  <br>\n</div>\n<div class=\"section avoid-break-inside\" style=\"padding-bottom: 2rem;\">\n  <div class=\"paragraph\">So as long as you dress up like an Eskimo.<br>it is an amazing exercise no matter the tempo.</div>\n  <div class=\"paragraph\">Especially when you hit a plateau,<br>and start feeling like a big po-ta-toe.</div>\n  <div class=\"paragraph\">An it does not matter how fast you go,<br>so as long as you don't go toooo slow.</div>\n</div>\n<div class=\"section avoid-break-inside\" style=\"padding-bottom: 2rem;\">\n  <br>\n</div>\n<div class=\"section avoid-break-inside\" style=\"padding-bottom: 2rem;\">\n  <div class=\"paragraph\">You are sure to gain powerful muscle like a buffalo,<br>and look like a snow commando.</div>\n  <div class=\"paragraph\">It is a very good workout to undergo,<br>and if you got snow on the ground, you should start tomorrow.</div>\n  <div class=\"paragraph\">You shouldn't forget your hat and mittens though,<br>as that is a very important combo.</div>\n</div>\n<div class=\"section avoid-break-inside\" style=\"padding-bottom: 2rem;\">\n  <br>\n</div>\n<div class=\"section avoid-break-inside\" style=\"padding-bottom: 2rem;\">\n  <div class=\"paragraph\">Plus, no matter how far you go,<br>you should definitely bring a thermos of hot coco.</div>\n  <div class=\"paragraph\">Call a friend, and alert them about shuffling in the snow.<br>and see, if they too, can go.</div>\n  <div class=\"paragraph\">Or just grab a friend by an elbow,<br>and tell them the first time is really slow.</div>\n</div>\n<div class=\"section avoid-break-inside\" style=\"padding-bottom: 2rem;\">\n  <br>\n</div>\n<div class=\"section avoid-break-inside\" style=\"padding-bottom: 2rem;\">\n  <div class=\"paragraph\">For a more advanced workout, buy a sled, or borrow,<br>and then ask someone if they want a tow.</div>\n  <div class=\"paragraph\">This is very powerful, although,<br>you should make sure you are having fun in the snow.</div>\n  <div class=\"paragraph\">A workout must flow,<br>that is the only way your muscles will grow.</div>\n</div>\n<div class=\"section avoid-break-inside\" style=\"padding-bottom: 2rem;\">\n  <br>\n</div>\n<div class=\"section avoid-break-inside\" style=\"padding-bottom: 2rem;\">\n  <div class=\"paragraph\">And if nobody wants to go,<br>don't worry it is easy to shuffle in the snow.</div>\n  <div class=\"paragraph\">In snow everything has a beautiful glow,<br>even ordinary things look like a Broadway show.</div>\n  <div class=\"paragraph\">Plus, you can listen to an interesting book as you go,<br>maybe even get <span>Walden by Thoreau<sup>[1]</sup></span>.</div>\n</div>\n<div class=\"section avoid-break-inside\" style=\"padding-bottom: 2rem;\">\n  <br>\n</div>\n<div class=\"section avoid-break-inside\" style=\"padding-bottom: 2rem;\">\n  <div class=\"paragraph\">Shuffling keeps you fit, but also warm a you go,<br>even if it is zero or below.</div>\n  <div class=\"paragraph\">The most important thing, though,<br>know that it is also a celebration of Winter and Snow.</div>\n</div>\n<div class=\"break-after\">&nbsp;</div>\n<div>\n  <div class=\"section\" style=\"padding-bottom: 1rem;\">References</div>\n  <div>[1]: https://librivox.org/walden-by-henry-david-thoreau</div>\n</div>",
  "text": "Shuffling is a bit like jogging but slow,\nit is like walking fast with a touch of go!\nAnd there is something you should know,\nabout shuffling in the snow.\n\nSo as long as you dress up like an Eskimo.\nit is an amazing exercise no matter the tempo.\nEspecially when you hit a plateau,\nand start feeling like a big po-ta-toe.\nAn it does not matter how fast you go,\nso as long as you don't go toooo slow.\n\nYou are sure to gain powerful muscle like a buffalo,\nand look like a snow commando.\nIt is a very good workout to undergo,\nand if you got snow on the ground, you should start tomorrow.\nYou shouldn't forget your hat and mittens though,\nas that is a very important combo.\n\nPlus, no matter how far you go,\nyou should definitely bring a thermos of hot coco.\nCall a friend, and alert them about shuffling in the snow.\nand see, if they too, can go.\nOr just grab a friend by an elbow,\nand tell them the first time is really slow.\n\nFor a more advanced workout, buy a sled, or borrow,\nand then ask someone if they want a tow.\nThis is very powerful, although,\nyou should make sure you are having fun in the snow.\nA workout must flow,\nthat is the only way your muscles will grow.\n\nAnd if nobody wants to go,\ndon't worry it is easy to shuffle in the snow.\nIn snow everything has a beautiful glow,\neven ordinary things look like a Broadway show.\nPlus, you can listen to an interesting book as you go,\nmaybe even get Walden by Thoreau[1].\n\nShuffling keeps you fit, but also warm a you go,\neven if it is zero or below.\nThe most important thing, though,\nknow that it is also a celebration of Winter and Snow.\n \nReferences\n[1]: https://librivox.org/walden-by-henry-david-thoreau",
  "images": [],
  "links": [
    {
      "title": "Walden by Thoreau",
      "url": "https://librivox.org/walden-by-henry-david-thoreau",
      "hostname": "librivox.org"
    }
  ]
}