{
  "name": "furkies-purrkies-poetry-0858",
  "id": "furkies-purrkies-poetry-0858",
  "title": "Real School And Subject Divisions",
  "date": "2022-07-06T19:23:13.372Z",
  "image": "poetry-0858-illustration.jpg",
  "artwork": "https://unsplash.com/photos/qTV6c2pjbBo",
  "audio": "poetry-0858.mp3",
  "guid": "a53cf6dd-6857-4913-b97a-b40aaffab6c1",
  "html": "<div class=\"section\">\n  <p>As you probably have figured out all the subject divisions are wrong,<br>they exist for the school not for the student.</p>\n  <p>And we need a real-world,<br>source of subjects.</p>\n  <p>Both to adopt it,<br>and expand the list by subtle analogy to existing items.</p>\n  <p><a href=\"https://www.ycombinator.com/rfs\">YCombinator Request For Startups</a>,<br>is an a-OK start.</p>\n  <p>It contains items such as Education, Software, Virtual and Augmented Reality,<br>and Artificial Intelligence, Healthcare and Government 2.0.</p>\n  <p>And I would add, Nature & Adventure, Art , Design, Music, and Music Composition,<br>Web and Application Programming, 3D Modeling and Printing, Open Source Operating Systems, and a few others.</p>\n  <p>It is easy to think of these as majors, but student minds don’t work like that,<br>these are just doors to step through and revisit.</p>\n  <p>The structure of the school is just a tree,<br>students are presented with many branches, and pick one.</p>\n  <p>After they fill their curiosity, they are presented with all the unopened doors,<br>and allowed to revisit subjects they already explored to learn more about them.</p>\n</div>\n<div class=\"section\">\n  <hr>\n</div>\n<div class=\"section\">\n  <p>The ultimate measuring stick to define a proper class,<br>is sad, and unfortunate, as it relates to the development level of our civilization.</p>\n  <p>And in case you didn’t know, schools are fake, money is misused to choke the world,<br>and some severely stupid people think war is just good entertainment to be had from time to time.</p>\n  <p>Make no mistake, dictators do not just wage war to hide their economic failure,<br>they do it because it entertains them and tightens the bonds with all the equally stupid yes-men.</p>\n  <p>There is no question that schools need instant repair,<br>but that repair must also be on point, or relative to where humanity stand.</p>\n  <p>So in sadness, I declare that subjects are to - ultimately - to be divided,<br>in a way that helps the student exit poverty.</p>\n  <p>And those who head for politics will have to adapt the world,<br>to Universal Income, $100 US dollars per day in 2020 money, reset to 100 every midnight.</p>\n  <p>You will not believe what the students heading for politics,<br>will teach you about inflation as they come closer and closer to unchaining the world.</p>\n</div>\n<div class=\"section\">\n  <hr>\n</div>\n<div class=\"section\">\n  <p>To be clear, students will no longer be taught mathematics,<br>because that never worked.</p>\n  <p>Instead, they will learn mathematics, by wanting to learn mathematics,<br>to increase the chances of their little companies making more money.</p>\n  <p>A computer artist hoping to sell their enormous and enormously complex Generative Art,<br>will want to learn math, and it will take them weeks of self education, and not years of no education.</p>\n  <p>What is important to notice here, that math is alive and well, thriving more than ever,<br>but it is not presented in the context of something that is useful to the students.</p>\n  <p>More than that, some of the new subject divisions are quite startling,<br>for example Jewelry creation or generation by means of <a href=\"https://www.youtube.com/watch?v=PLA8VPRRi6A\">JSCAD</a> and 3D printing.</p>\n  <p>Once the initial list of subjects is expanded,<br>everyone will find something fascinating.</p>\n  <p>Students will spend countless minutes looking for new topics,<br>for new ways to use their existing knowledge.</p>\n  <p>And above all for new things to learn,<br>that will allow them to progress to the subjects that are few steps removed, but now closer than ever.</p>\n</div>\n<div class=\"section\">\n  <hr>\n</div>\n<div class=\"section\">\n  <p>The definition of a worthy subject, is a smallest possible cluster of topics,<br>that come together to help the student out of poverty.</p>\n  <p>To help them pay for an apartment, for food,<br>for travel and new inventions.</p>\n  <p>From the students perspective, the most important perspective,<br>a subject is defined as something that they feel passionate about.</p>\n  <p>That is delivered to them in a way that feels like Poetry,<br>it is presented in the best way possible.</p>\n</div>\n<div class=\"section\">\n  <hr>\n</div>\n<div class=\"section\">\n  <p>Finally, there are no grades, there is no graduation, the doors are always open for more,<br>there is no punishment, no getting kicked out.</p>\n  <p>It is understood that the misguided, are just that, victims of warped cultures and lack of knowledge,<br>this school will repair that.</p>\n  <p>This school is like the universal income that the students will eventually turn to reality,<br>it cannot be take away from anybody - not from a horrible criminal, not from a being who may afford something better - it may not be taken away for any reason.</p>\n  <p>The real school, and the real education it brings to the world,<br>it is a gift that will never be taken back.</p>\n</div>",
  "bootstrap": "<div class=\"card card-section bg-dark text-warning shadow\">\n  <div class=\"section card-body mb-0 my-2\">\n    <div class=\"paragraph card-text card-stanza my-5 text-center\">As you probably have figured out all the subject divisions are wrong,<br>they exist for the school not for the student.</div>\n    <div class=\"paragraph card-text card-stanza my-5 text-center\">And we need a real-world,<br>source of subjects.</div>\n    <div class=\"paragraph card-text card-stanza my-5 text-center\">Both to adopt it,<br>and expand the list by subtle analogy to existing items.</div>\n    <div class=\"paragraph card-text card-stanza my-5 text-center\"><a href=\"https://www.ycombinator.com/rfs\">YCombinator Request For Startups</a>,<br>is an a-OK start.</div>\n    <div class=\"paragraph card-text card-stanza my-5 text-center\">It contains items such as Education, Software, Virtual and Augmented Reality,<br>and Artificial Intelligence, Healthcare and Government 2.0.</div>\n    <div class=\"paragraph card-text card-stanza my-5 text-center\">And I would add, Nature & Adventure, Art , Design, Music, and Music Composition,<br>Web and Application Programming, 3D Modeling and Printing, Open Source Operating Systems, and a few others.</div>\n    <div class=\"paragraph card-text card-stanza my-5 text-center\">It is easy to think of these as majors, but student minds don’t work like that,<br>these are just doors to step through and revisit.</div>\n    <div class=\"paragraph card-text card-stanza my-5 text-center\">The structure of the school is just a tree,<br>students are presented with many branches, and pick one.</div>\n    <div class=\"paragraph card-text card-stanza my-5 text-center\">After they fill their curiosity, they are presented with all the unopened doors,<br>and allowed to revisit subjects they already explored to learn more about them.</div>\n  </div>\n</div>\n<div class=\"mb-5 section-spacer\">&nbsp;</div>\n<div class=\"card card-section bg-dark text-warning shadow\">\n  <div class=\"section card-body mb-0 my-2\">\n    <div class=\"paragraph card-text card-stanza my-5 text-center\">The ultimate measuring stick to define a proper class,<br>is sad, and unfortunate, as it relates to the development level of our civilization.</div>\n    <div class=\"paragraph card-text card-stanza my-5 text-center\">And in case you didn’t know, schools are fake, money is misused to choke the world,<br>and some severely stupid people think war is just good entertainment to be had from time to time.</div>\n    <div class=\"paragraph card-text card-stanza my-5 text-center\">Make no mistake, dictators do not just wage war to hide their economic failure,<br>they do it because it entertains them and tightens the bonds with all the equally stupid yes-men.</div>\n    <div class=\"paragraph card-text card-stanza my-5 text-center\">There is no question that schools need instant repair,<br>but that repair must also be on point, or relative to where humanity stand.</div>\n    <div class=\"paragraph card-text card-stanza my-5 text-center\">So in sadness, I declare that subjects are to - ultimately - to be divided,<br>in a way that helps the student exit poverty.</div>\n    <div class=\"paragraph card-text card-stanza my-5 text-center\">And those who head for politics will have to adapt the world,<br>to Universal Income, $100 US dollars per day in 2020 money, reset to 100 every midnight.</div>\n    <div class=\"paragraph card-text card-stanza my-5 text-center\">You will not believe what the students heading for politics,<br>will teach you about inflation as they come closer and closer to unchaining the world.</div>\n  </div>\n</div>\n<div class=\"mb-5 section-spacer\">&nbsp;</div>\n<div class=\"card card-section bg-dark text-warning shadow\">\n  <div class=\"section card-body mb-0 my-2\">\n    <div class=\"paragraph card-text card-stanza my-5 text-center\">To be clear, students will no longer be taught mathematics,<br>because that never worked.</div>\n    <div class=\"paragraph card-text card-stanza my-5 text-center\">Instead, they will learn mathematics, by wanting to learn mathematics,<br>to increase the chances of their little companies making more money.</div>\n    <div class=\"paragraph card-text card-stanza my-5 text-center\">A computer artist hoping to sell their enormous and enormously complex Generative Art,<br>will want to learn math, and it will take them weeks of self education, and not years of no education.</div>\n    <div class=\"paragraph card-text card-stanza my-5 text-center\">What is important to notice here, that math is alive and well, thriving more than ever,<br>but it is not presented in the context of something that is useful to the students.</div>\n    <div class=\"paragraph card-text card-stanza my-5 text-center\">More than that, some of the new subject divisions are quite startling,<br>for example Jewelry creation or generation by means of <a href=\"https://www.youtube.com/watch?v=PLA8VPRRi6A\">JSCAD</a> and 3D printing.</div>\n    <div class=\"paragraph card-text card-stanza my-5 text-center\">Once the initial list of subjects is expanded,<br>everyone will find something fascinating.</div>\n    <div class=\"paragraph card-text card-stanza my-5 text-center\">Students will spend countless minutes looking for new topics,<br>for new ways to use their existing knowledge.</div>\n    <div class=\"paragraph card-text card-stanza my-5 text-center\">And above all for new things to learn,<br>that will allow them to progress to the subjects that are few steps removed, but now closer than ever.</div>\n  </div>\n</div>\n<div class=\"mb-5 section-spacer\">&nbsp;</div>\n<div class=\"card card-section bg-dark text-warning shadow\">\n  <div class=\"section card-body mb-0 my-2\">\n    <div class=\"paragraph card-text card-stanza my-5 text-center\">The definition of a worthy subject, is a smallest possible cluster of topics,<br>that come together to help the student out of poverty.</div>\n    <div class=\"paragraph card-text card-stanza my-5 text-center\">To help them pay for an apartment, for food,<br>for travel and new inventions.</div>\n    <div class=\"paragraph card-text card-stanza my-5 text-center\">From the students perspective, the most important perspective,<br>a subject is defined as something that they feel passionate about.</div>\n    <div class=\"paragraph card-text card-stanza my-5 text-center\">That is delivered to them in a way that feels like Poetry,<br>it is presented in the best way possible.</div>\n  </div>\n</div>\n<div class=\"mb-5 section-spacer\">&nbsp;</div>\n<div class=\"card card-section bg-dark text-warning shadow\">\n  <div class=\"section card-body mb-0 my-2\">\n    <div class=\"paragraph card-text card-stanza my-5 text-center\">Finally, there are no grades, there is no graduation, the doors are always open for more,<br>there is no punishment, no getting kicked out.</div>\n    <div class=\"paragraph card-text card-stanza my-5 text-center\">It is understood that the misguided, are just that, victims of warped cultures and lack of knowledge,<br>this school will repair that.</div>\n    <div class=\"paragraph card-text card-stanza my-5 text-center\">This school is like the universal income that the students will eventually turn to reality,<br>it cannot be take away from anybody - not from a horrible criminal, not from a being who may afford something better - it may not be taken away for any reason.</div>\n    <div class=\"paragraph card-text card-stanza my-5 text-center\">The real school, and the real education it brings to the world,<br>it is a gift that will never be taken back.</div>\n  </div>\n</div>",
  "print": "<div class=\"section avoid-break-inside\" style=\"padding-bottom: 2rem;\">\n  <div class=\"paragraph\">As you probably have figured out all the subject divisions are wrong,<br>they exist for the school not for the student.</div>\n  <div class=\"paragraph\">And we need a real-world,<br>source of subjects.</div>\n  <div class=\"paragraph\">Both to adopt it,<br>and expand the list by subtle analogy to existing items.</div>\n  <div class=\"paragraph\"><span>YCombinator Request For Startups<sup>[1]</sup></span>,<br>is an a-OK start.</div>\n  <div class=\"paragraph\">It contains items such as Education, Software, Virtual and Augmented Reality,<br>and Artificial Intelligence, Healthcare and Government 2.0.</div>\n  <div class=\"paragraph\">And I would add, Nature & Adventure, Art , Design, Music, and Music Composition,<br>Web and Application Programming, 3D Modeling and Printing, Open Source Operating Systems, and a few others.</div>\n  <div class=\"paragraph\">It is easy to think of these as majors, but student minds don’t work like that,<br>these are just doors to step through and revisit.</div>\n  <div class=\"paragraph\">The structure of the school is just a tree,<br>students are presented with many branches, and pick one.</div>\n  <div class=\"paragraph\">After they fill their curiosity, they are presented with all the unopened doors,<br>and allowed to revisit subjects they already explored to learn more about them.</div>\n</div>\n<div class=\"section avoid-break-inside\" style=\"padding-bottom: 2rem;\">\n  <br>\n</div>\n<div class=\"section avoid-break-inside\" style=\"padding-bottom: 2rem;\">\n  <div class=\"paragraph\">The ultimate measuring stick to define a proper class,<br>is sad, and unfortunate, as it relates to the development level of our civilization.</div>\n  <div class=\"paragraph\">And in case you didn’t know, schools are fake, money is misused to choke the world,<br>and some severely stupid people think war is just good entertainment to be had from time to time.</div>\n  <div class=\"paragraph\">Make no mistake, dictators do not just wage war to hide their economic failure,<br>they do it because it entertains them and tightens the bonds with all the equally stupid yes-men.</div>\n  <div class=\"paragraph\">There is no question that schools need instant repair,<br>but that repair must also be on point, or relative to where humanity stand.</div>\n  <div class=\"paragraph\">So in sadness, I declare that subjects are to - ultimately - to be divided,<br>in a way that helps the student exit poverty.</div>\n  <div class=\"paragraph\">And those who head for politics will have to adapt the world,<br>to Universal Income, $100 US dollars per day in 2020 money, reset to 100 every midnight.</div>\n  <div class=\"paragraph\">You will not believe what the students heading for politics,<br>will teach you about inflation as they come closer and closer to unchaining the world.</div>\n</div>\n<div class=\"section avoid-break-inside\" style=\"padding-bottom: 2rem;\">\n  <br>\n</div>\n<div class=\"section avoid-break-inside\" style=\"padding-bottom: 2rem;\">\n  <div class=\"paragraph\">To be clear, students will no longer be taught mathematics,<br>because that never worked.</div>\n  <div class=\"paragraph\">Instead, they will learn mathematics, by wanting to learn mathematics,<br>to increase the chances of their little companies making more money.</div>\n  <div class=\"paragraph\">A computer artist hoping to sell their enormous and enormously complex Generative Art,<br>will want to learn math, and it will take them weeks of self education, and not years of no education.</div>\n  <div class=\"paragraph\">What is important to notice here, that math is alive and well, thriving more than ever,<br>but it is not presented in the context of something that is useful to the students.</div>\n  <div class=\"paragraph\">More than that, some of the new subject divisions are quite startling,<br>for example Jewelry creation or generation by means of <span>JSCAD<sup>[2]</sup></span> and 3D printing.</div>\n  <div class=\"paragraph\">Once the initial list of subjects is expanded,<br>everyone will find something fascinating.</div>\n  <div class=\"paragraph\">Students will spend countless minutes looking for new topics,<br>for new ways to use their existing knowledge.</div>\n  <div class=\"paragraph\">And above all for new things to learn,<br>that will allow them to progress to the subjects that are few steps removed, but now closer than ever.</div>\n</div>\n<div class=\"section avoid-break-inside\" style=\"padding-bottom: 2rem;\">\n  <br>\n</div>\n<div class=\"section avoid-break-inside\" style=\"padding-bottom: 2rem;\">\n  <div class=\"paragraph\">The definition of a worthy subject, is a smallest possible cluster of topics,<br>that come together to help the student out of poverty.</div>\n  <div class=\"paragraph\">To help them pay for an apartment, for food,<br>for travel and new inventions.</div>\n  <div class=\"paragraph\">From the students perspective, the most important perspective,<br>a subject is defined as something that they feel passionate about.</div>\n  <div class=\"paragraph\">That is delivered to them in a way that feels like Poetry,<br>it is presented in the best way possible.</div>\n</div>\n<div class=\"section avoid-break-inside\" style=\"padding-bottom: 2rem;\">\n  <br>\n</div>\n<div class=\"section avoid-break-inside\" style=\"padding-bottom: 2rem;\">\n  <div class=\"paragraph\">Finally, there are no grades, there is no graduation, the doors are always open for more,<br>there is no punishment, no getting kicked out.</div>\n  <div class=\"paragraph\">It is understood that the misguided, are just that, victims of warped cultures and lack of knowledge,<br>this school will repair that.</div>\n  <div class=\"paragraph\">This school is like the universal income that the students will eventually turn to reality,<br>it cannot be take away from anybody - not from a horrible criminal, not from a being who may afford something better - it may not be taken away for any reason.</div>\n  <div class=\"paragraph\">The real school, and the real education it brings to the world,<br>it is a gift that will never be taken back.</div>\n</div>\n<div class=\"break-after\">&nbsp;</div>\n<div>\n  <div class=\"section\" style=\"padding-bottom: 1rem;\">References</div>\n  <div>[1]: https://www.ycombinator.com/rfs</div>\n  <div>[2]: https://www.youtube.com/watch?v=PLA8VPRRi6A</div>\n</div>",
  "text": "As you probably have figured out all the subject divisions are wrong,\nthey exist for the school not for the student.\nAnd we need a real-world,\nsource of subjects.\nBoth to adopt it,\nand expand the list by subtle analogy to existing items.\nYCombinator Request For Startups[1],\nis an a-OK start.\nIt contains items such as Education, Software, Virtual and Augmented Reality,\nand Artificial Intelligence, Healthcare and Government 2.0.\nAnd I would add, Nature & Adventure, Art , Design, Music, and Music Composition,\nWeb and Application Programming, 3D Modeling and Printing, Open Source Operating Systems, and a few others.\nIt is easy to think of these as majors, but student minds don’t work like that,\nthese are just doors to step through and revisit.\nThe structure of the school is just a tree,\nstudents are presented with many branches, and pick one.\nAfter they fill their curiosity, they are presented with all the unopened doors,\nand allowed to revisit subjects they already explored to learn more about them.\n\nThe ultimate measuring stick to define a proper class,\nis sad, and unfortunate, as it relates to the development level of our civilization.\nAnd in case you didn’t know, schools are fake, money is misused to choke the world,\nand some severely stupid people think war is just good entertainment to be had from time to time.\nMake no mistake, dictators do not just wage war to hide their economic failure,\nthey do it because it entertains them and tightens the bonds with all the equally stupid yes-men.\nThere is no question that schools need instant repair,\nbut that repair must also be on point, or relative to where humanity stand.\nSo in sadness, I declare that subjects are to - ultimately - to be divided,\nin a way that helps the student exit poverty.\nAnd those who head for politics will have to adapt the world,\nto Universal Income, $100 US dollars per day in 2020 money, reset to 100 every midnight.\nYou will not believe what the students heading for politics,\nwill teach you about inflation as they come closer and closer to unchaining the world.\n\nTo be clear, students will no longer be taught mathematics,\nbecause that never worked.\nInstead, they will learn mathematics, by wanting to learn mathematics,\nto increase the chances of their little companies making more money.\nA computer artist hoping to sell their enormous and enormously complex Generative Art,\nwill want to learn math, and it will take them weeks of self education, and not years of no education.\nWhat is important to notice here, that math is alive and well, thriving more than ever,\nbut it is not presented in the context of something that is useful to the students.\nMore than that, some of the new subject divisions are quite startling,\nfor example Jewelry creation or generation by means of JSCAD[2] and 3D printing.\nOnce the initial list of subjects is expanded,\neveryone will find something fascinating.\nStudents will spend countless minutes looking for new topics,\nfor new ways to use their existing knowledge.\nAnd above all for new things to learn,\nthat will allow them to progress to the subjects that are few steps removed, but now closer than ever.\n\nThe definition of a worthy subject, is a smallest possible cluster of topics,\nthat come together to help the student out of poverty.\nTo help them pay for an apartment, for food,\nfor travel and new inventions.\nFrom the students perspective, the most important perspective,\na subject is defined as something that they feel passionate about.\nThat is delivered to them in a way that feels like Poetry,\nit is presented in the best way possible.\n\nFinally, there are no grades, there is no graduation, the doors are always open for more,\nthere is no punishment, no getting kicked out.\nIt is understood that the misguided, are just that, victims of warped cultures and lack of knowledge,\nthis school will repair that.\nThis school is like the universal income that the students will eventually turn to reality,\nit cannot be take away from anybody - not from a horrible criminal, not from a being who may afford something better - it may not be taken away for any reason.\nThe real school, and the real education it brings to the world,\nit is a gift that will never be taken back.\n \nReferences\n[1]: https://www.ycombinator.com/rfs\n[2]: https://www.youtube.com/watch?v=PLA8VPRRi6A",
  "images": [],
  "links": [
    {
      "title": "YCombinator Request For Startups",
      "url": "https://www.ycombinator.com/rfs",
      "hostname": "www.ycombinator.com"
    },
    {
      "title": "JSCAD",
      "url": "https://www.youtube.com/watch?v=PLA8VPRRi6A",
      "hostname": "www.youtube.com"
    }
  ]
}