{
  "name": "furkies-purrkies-poetry-0384",
  "title": "A Priceless Education That Costs Nothing: Reading Source Code and Writing Programs",
  "date": "2021-03-19T23:08:28.977Z",
  "image": "poetry-0384-illustration.jpg",
  "audio": "poetry-0384.mp3",
  "artwork": "https://unsplash.com/photos/F_m44ut3XTw",
  "id": "furkies-purrkies-poetry-0384",
  "attachments": {},
  "guid": "bb06eec2-2445-493a-ac00-b195600cd55d",
  "html": "<div class=\"section\">\n  <p>Developing quality custom software will help you show off some of your work,</p>\n  <p>and proudly point to interesting solutions.</p>\n</div>\n\n<div class=\"section\">\n  <p>A proper and respectful interview that doesn&apos;t ask idiotic and incompetent questions,</p>\n  <p>will only ask you to explain the programs you created.</p>\n</div>\n\n<div class=\"section\">\n  <p>You will get to talk about challenges you faced,</p>\n  <p>and proudly explain solutions you implemented or invented.</p>\n</div>\n\n<div class=\"section\">\n  <p>A real resume does not feature boilerplate clams,</p>\n  <p>of how you deliver &quot;on time and under budget&quot;.</p>\n</div>\n\n<div class=\"section\">\n  <p>And you probably shouldn&apos;t mention that you went to school to learn,</p>\n  <p>if you need someone to push you along to learn, then you will probably need someone to push you along to work.</p>\n</div>\n\n<div class=\"section\">\n  <p>A real resume is just a list of programs you created,</p>\n  <p>with a short description about the brilliant ideas within.</p>\n</div>\n\n<div class=\"section\">\n  <p>This also protects you from toxic environments that will destroy your creativity,</p>\n  <p>a company that looks for a cookie cutter resume, is full of cookie cutter people, which is terrifying.</p>\n</div>\n\n<div class=\"section\">\n  <p>This is a big and in some cases controversial subject,</p>\n  <p>so let me give you a real world case.</p>\n</div>\n\n<div class=\"section\">\n  <p>Eric Steven Raymond, the person behind the <a href=\"http://catb.org/jargon/\">Jargon File</a>, a Hacker&apos;s Dictionary,</p>\n  <p>states the following in the Education Section of his <a href=\"http://www.catb.org/~esr/resume.html\" title=\"Resume of Eric Steven Raymond\">Resume</a>:</p>\n</div>\n\n<div class=\"section\">\n  <p>&quot;Education</p>\n  <p>Undergraduate studies (including some graduate-level courses) in mathematics and philosophy at the University of Pennsylvania.</p>\n  <p>I have never taken any courses in computer science or software engineering.&quot;</p>\n</div>\n\n<div class=\"section\">\n  <p>Part of the reason why he says that,</p>\n  <p>is to protect his hard work, he doesn&apos;t want people to think that he got his education from some mediocre minimum viable lowest-common-denominator classroom, and a teacher with little real-world experience.</p>\n</div>\n\n<div class=\"section\">\n  <hr>\n</div>\n\n<div class=\"section\">\n  <p>The fact schools don&apos;t work very well, if at all, is not a secret,</p>\n  <p>it is in fact the reason behind insulting and idiotic interview questions.</p>\n</div>\n\n<div class=\"section\">\n  <p>The fact that we are each extremely intelligent, and that we are each perfectly capable of becoming a humble Polymath,</p>\n  <p>is inescapable.</p>\n</div>\n\n\n<div class=\"section\">\n  <p>And that is what a competent employer would look for,</p>\n  <p>a balanced view of the world born from being a jack of all trades and a master of those that are interesting.</p>\n</div>\n\n<div class=\"section\">\n  <hr>\n</div>\n\n<div class=\"section\">\n  <p>So,</p>\n  <p>How do you become good on your own...</p>\n</div>\n\n<div class=\"section\">\n  <hr>\n</div>\n\n<div class=\"section\">\n  <p>You look at the top existing programs,</p>\n  <p>and try to make smaller versions.</p>\n</div>\n\n<div class=\"section\">\n  <p>This will help you establish a baseline,</p>\n  <p>the baseline is the common industry standard, and in this day and age it means use a popular framework or the bare-bones, that whatever system you are working with is handing you.</p>\n</div>\n\n<div class=\"section\">\n  <p>For example, <a href=\"https://www.youtube.com/watch?v=FMFm9GxB_Eo\">Bootstrap</a> the Graphic User Interface library I use,</p>\n  <p>used to rely on <a href=\"https://www.youtube.com/watch?v=JjIvF0yikGU\">jQuery</a> when jQuery was popular and necessary, <a href=\"https://www.youtube.com/watch?v=RdRMNT-98Oo&amp;t=159s\">but as browsers became more sophisticated, they rejected using jQuery and other frameworks</a>, and just used the bare bones of the browser.</p>\n</div>\n\n<div class=\"section\">\n  <p>They are a fair baseline for industry standard web interface design,</p>\n  <p>and they hold all the answers as far as a basic standard web interface is concerned.</p>\n</div>\n\n<div class=\"section\">\n  <p>To lean from them,</p>\n  <p>means to create a tiny clone of their work, your own take on Bootstrap.</p>\n</div>\n\n<div class=\"section\">\n  <p>Each time you get stuck,</p>\n  <p>you go to their website and look up how they did it.</p>\n</div>\n\n<div class=\"section\">\n  <p>Since both of you at this point are working on the same thing,</p>\n  <p>they have answers to all your questions.</p>\n</div>\n\n<div class=\"section\">\n  <p>You can make your version perfect,</p>\n  <p>creating a Sandalstrap, a more lightweight version of Bootstrap, and that would be one of the items on your resume.</p>\n</div>\n\n<div class=\"section\">\n  <p>Or you can make a messy version,</p>\n  <p>where you purely go for the meat of the system, so your program will barely work, but as you file it away to some dusty git repository in hopes of never receiving a bug fix request, you walk away perfectly knowledgeable.</p>\n</div>\n\n<div class=\"section\">\n  <p>And then you go a step higher,</p>\n  <p>you search around for people who used a modern framework to enhance the modernized Bootstrap.</p>\n</div>\n\n<div class=\"section\">\n  <p>One such project is the <a href=\"https://www.youtube.com/watch?v=-DyKeMa5tYY&amp;t=74s\">BootstrapVue</a>,</p>\n  <p>which relies on <a href=\"https://www.youtube.com/watch?v=JK6F5GGldPM\">Vue.js</a> for enhancing Bootstrap.</p>\n</div>\n\n<div class=\"section\">\n  <p>Another is <a href=\"https://www.youtube.com/watch?v=t3J1qTQ7kC8\">Sveltestrap</a>,</p>\n  <p>which relies on <a href=\"https://www.youtube.com/watch?v=ws97Etvs-Qs\">Svelte</a>.</p>\n</div>\n\n<div class=\"section\">\n  <p>Programming with Vue.js, Svelte, React, Angular, will give the ability to create web-application,</p>\n  <p>and between knowing bare-bones, and the large modern framework, you cannot help but to become good.</p>\n</div>\n\n<div class=\"section\">\n  <p>You are likely to end up with several simple and beautiful applications,</p>\n  <p>maybe tiny websites that bring in a few dollars, and this then becomes an item on your resume.</p>\n</div>\n\n<div class=\"section\">\n  <p>Imagine an interview where instead of answering stupid and incompetent questions,</p>\n  <p>you demo your favorite applications and give an overview of several more.</p>\n</div>\n\n<div class=\"section\">\n  <p>You learn the bare bones by making your own little versions,</p>\n  <p>and you learn the high end, by working with those frameworks to make interesting little apps.</p>\n</div>\n\n<div class=\"section\">\n  <p>Now imagine how useful it would be if you had a Video Version of you demoing your apps,</p>\n  <p>that you could attach to your resume-portfolio.</p>\n</div>\n\n<div class=\"section\">\n  <p>Nobody is going to ask you if you know OOP, or if you can doodle a user interface layout system media query extravaganza on the white board,</p>\n  <p>when it is already something that you cover in your video, and clearly feel passionate about.</p>\n</div>\n\n<div class=\"section\">\n  <hr>\n</div>\n\n<div class=\"section\">\n  <p>It takes a long time to figure all this out,</p>\n  <p>and you are learning so many subjects subjects at the same time, that school at this point seems like a joke.</p>\n</div>\n\n<div class=\"section\">\n  <p>You would need a couple of decades worth of classes moving at a snail pace,</p>\n  <p>and even the programs at prestigious universities are off, where they still mention things that are irrelevant and would actually make your software slow had you employed them.</p>\n</div>\n\n<div class=\"section\">\n  <p><a href=\"https://www.youtube.com/watch?v=k3M8O83n254\">Healthcare website launch problems in 2013</a> were not just about politics and bureaucracy,</p>\n  <p>but useless and outdated technologies and methods, probably the stuff they teach in school.</p>\n</div>\n\n<div class=\"section\">\n  <p>Just the fact alone that many files were being loaded by the browser on launch day,</p>\n  <p>instead of organized into one or two compressed and bundled extras, reveals inexperienced programmers.</p>\n</div>\n\n<div class=\"section\">\n  <p>These lessons can&apos;t be emphasized correctly in a school environment,</p>\n  <p>they come precisely from places like the Bootstrap code base.</p>\n</div>\n\n<div class=\"section\">\n  <p>It takes 10 minutes to figure it out,</p>\n  <p>and a few hours to start using mini-fication in all your programs.</p>\n</div>\n\n<div class=\"section\">\n  <p>And that is it,</p>\n  <p>there is no lecture, no test here, it just becomes obvious and useful.</p>\n</div>\n\n<div class=\"section\">\n  <p>When you care about learning,</p>\n  <p>which is what happens when you are learning things you like, you never need to memorize, or put mini-fication on a todo, you just accept it as reality, and a great idea.</p>\n</div>\n\n<div class=\"section\">\n  <p>I mention the failure of the 2013 Healthcare website,</p>\n  <p>because it shows that a college education, and working for prestigious companies, on prestigious projects means nothing.</p>\n</div>\n\n<div class=\"section\">\n  <p>Reality makes it so that fake education,</p>\n  <p>can only lead to failure.</p>\n</div>\n\n<div class=\"section\">\n  <p>There isn&apos;t a textbook, or a teacher that can emphasize the important things enough,</p>\n  <p>it has to be practice.</p>\n</div>\n\n<div class=\"section\">\n  <p>This is why Eric Raymond stands up for his Self Education,</p>\n  <p>it is the difference between Real Education and Fantasy Education.</p>\n</div>\n\n<div class=\"section\">\n  <p>Reading and learning from source code and then writing your own programs,</p>\n  <p>is the only realistic way to learn programming for real.</p>\n</div>\n\n<div class=\"section\">\n  <p><a href=\"https://www.youtube.com/watch?v=mQPEZdBTOeE\">And you are genius level smart, we all are, but you have to start with baby steps</a>,</p>\n  <p>it has to be a very comfortable on-ramp, don&apos;t start by learning CSS nobody does that, start with what you like and then look at other projects to see how you can make it better.</p>\n</div>\n\n<div class=\"section\">\n  <hr>\n</div>\n\n<div class=\"section\">\n  <p>If you ever get stuck, or are unsure where to go next, or aren&apos;t sure where to begin,</p>\n  <p>then go to a video search box type in the thing that interests you the most followed by the word tutorial.</p>\n</div>\n\n<div class=\"section\">\n  <p>Seeing and hearing many different perspectives from different people will help you balance your understanding,</p>\n  <p>and find your next step.</p>\n</div>\n\n<div class=\"section\">\n  <p>Search for tutorials,</p>\n  <p>do it, it will be amazing!</p>\n</div>",
  "bootstrap": "<div class=\"card card-section bg-dark text-warning shadow\">\n  <div class=\"section card-body mb-0 my-2\">\n    <div class=\"paragraph card-text card-stanza my-5 text-center\">Developing quality custom software will help you show off some of your work,</div>\n    <div class=\"paragraph card-text card-stanza my-5 text-center\">and proudly point to interesting solutions.</div>\n  </div>\n</div>\n<div class=\"card card-section bg-dark text-warning shadow\">\n  <div class=\"section card-body mb-0 my-2\">\n    <div class=\"paragraph card-text card-stanza my-5 text-center\">A proper and respectful interview that doesn't ask idiotic and incompetent questions,</div>\n    <div class=\"paragraph card-text card-stanza my-5 text-center\">will only ask you to explain the programs you created.</div>\n  </div>\n</div>\n<div class=\"card card-section bg-dark text-warning shadow\">\n  <div class=\"section card-body mb-0 my-2\">\n    <div class=\"paragraph card-text card-stanza my-5 text-center\">You will get to talk about challenges you faced,</div>\n    <div class=\"paragraph card-text card-stanza my-5 text-center\">and proudly explain solutions you implemented or invented.</div>\n  </div>\n</div>\n<div class=\"card card-section bg-dark text-warning shadow\">\n  <div class=\"section card-body mb-0 my-2\">\n    <div class=\"paragraph card-text card-stanza my-5 text-center\">A real resume does not feature boilerplate clams,</div>\n    <div class=\"paragraph card-text card-stanza my-5 text-center\">of how you deliver \"on time and under budget\".</div>\n  </div>\n</div>\n<div class=\"card card-section bg-dark text-warning shadow\">\n  <div class=\"section card-body mb-0 my-2\">\n    <div class=\"paragraph card-text card-stanza my-5 text-center\">And you probably shouldn't mention that you went to school to learn,</div>\n    <div class=\"paragraph card-text card-stanza my-5 text-center\">if you need someone to push you along to learn, then you will probably need someone to push you along to work.</div>\n  </div>\n</div>\n<div class=\"card card-section bg-dark text-warning shadow\">\n  <div class=\"section card-body mb-0 my-2\">\n    <div class=\"paragraph card-text card-stanza my-5 text-center\">A real resume is just a list of programs you created,</div>\n    <div class=\"paragraph card-text card-stanza my-5 text-center\">with a short description about the brilliant ideas within.</div>\n  </div>\n</div>\n<div class=\"card card-section bg-dark text-warning shadow\">\n  <div class=\"section card-body mb-0 my-2\">\n    <div class=\"paragraph card-text card-stanza my-5 text-center\">This also protects you from toxic environments that will destroy your creativity,</div>\n    <div class=\"paragraph card-text card-stanza my-5 text-center\">a company that looks for a cookie cutter resume, is full of cookie cutter people, which is terrifying.</div>\n  </div>\n</div>\n<div class=\"card card-section bg-dark text-warning shadow\">\n  <div class=\"section card-body mb-0 my-2\">\n    <div class=\"paragraph card-text card-stanza my-5 text-center\">This is a big and in some cases controversial subject,</div>\n    <div class=\"paragraph card-text card-stanza my-5 text-center\">so let me give you a real world case.</div>\n  </div>\n</div>\n<div class=\"card card-section bg-dark text-warning shadow\">\n  <div class=\"section card-body mb-0 my-2\">\n    <div class=\"paragraph card-text card-stanza my-5 text-center\">Eric Steven Raymond, the person behind the <a href=\"http://catb.org/jargon/\">Jargon File</a>, a Hacker's Dictionary,</div>\n    <div class=\"paragraph card-text card-stanza my-5 text-center\">states the following in the Education Section of his <a href=\"http://www.catb.org/~esr/resume.html\" title=\"Resume of Eric Steven Raymond\">Resume</a>:</div>\n  </div>\n</div>\n<div class=\"card card-section bg-dark text-warning shadow\">\n  <div class=\"section card-body mb-0 my-2\">\n    <div class=\"paragraph card-text card-stanza my-5 text-center\">\"Education</div>\n    <div class=\"paragraph card-text card-stanza my-5 text-center\">Undergraduate studies (including some graduate-level courses) in mathematics and philosophy at the University of Pennsylvania.</div>\n    <div class=\"paragraph card-text card-stanza my-5 text-center\">I have never taken any courses in computer science or software engineering.\"</div>\n  </div>\n</div>\n<div class=\"card card-section bg-dark text-warning shadow\">\n  <div class=\"section card-body mb-0 my-2\">\n    <div class=\"paragraph card-text card-stanza my-5 text-center\">Part of the reason why he says that,</div>\n    <div class=\"paragraph card-text card-stanza my-5 text-center\">is to protect his hard work, he doesn't want people to think that he got his education from some mediocre minimum viable lowest-common-denominator classroom, and a teacher with little real-world experience.</div>\n  </div>\n</div>\n<div class=\"mb-5 section-spacer\">&nbsp;</div>\n<div class=\"card card-section bg-dark text-warning shadow\">\n  <div class=\"section card-body mb-0 my-2\">\n    <div class=\"paragraph card-text card-stanza my-5 text-center\">The fact schools don't work very well, if at all, is not a secret,</div>\n    <div class=\"paragraph card-text card-stanza my-5 text-center\">it is in fact the reason behind insulting and idiotic interview questions.</div>\n  </div>\n</div>\n<div class=\"card card-section bg-dark text-warning shadow\">\n  <div class=\"section card-body mb-0 my-2\">\n    <div class=\"paragraph card-text card-stanza my-5 text-center\">The fact that we are each extremely intelligent, and that we are each perfectly capable of becoming a humble Polymath,</div>\n    <div class=\"paragraph card-text card-stanza my-5 text-center\">is inescapable.</div>\n  </div>\n</div>\n<div class=\"card card-section bg-dark text-warning shadow\">\n  <div class=\"section card-body mb-0 my-2\">\n    <div class=\"paragraph card-text card-stanza my-5 text-center\">And that is what a competent employer would look for,</div>\n    <div class=\"paragraph card-text card-stanza my-5 text-center\">a balanced view of the world born from being a jack of all trades and a master of those that are interesting.</div>\n  </div>\n</div>\n<div class=\"mb-5 section-spacer\">&nbsp;</div>\n<div class=\"card card-section bg-dark text-warning shadow\">\n  <div class=\"section card-body mb-0 my-2\">\n    <div class=\"paragraph card-text card-stanza my-5 text-center\">So,</div>\n    <div class=\"paragraph card-text card-stanza my-5 text-center\">How do you become good on your own...</div>\n  </div>\n</div>\n<div class=\"mb-5 section-spacer\">&nbsp;</div>\n<div class=\"card card-section bg-dark text-warning shadow\">\n  <div class=\"section card-body mb-0 my-2\">\n    <div class=\"paragraph card-text card-stanza my-5 text-center\">You look at the top existing programs,</div>\n    <div class=\"paragraph card-text card-stanza my-5 text-center\">and try to make smaller versions.</div>\n  </div>\n</div>\n<div class=\"card card-section bg-dark text-warning shadow\">\n  <div class=\"section card-body mb-0 my-2\">\n    <div class=\"paragraph card-text card-stanza my-5 text-center\">This will help you establish a baseline,</div>\n    <div class=\"paragraph card-text card-stanza my-5 text-center\">the baseline is the common industry standard, and in this day and age it means use a popular framework or the bare-bones, that whatever system you are working with is handing you.</div>\n  </div>\n</div>\n<div class=\"card card-section bg-dark text-warning shadow\">\n  <div class=\"section card-body mb-0 my-2\">\n    <div class=\"paragraph card-text card-stanza my-5 text-center\">For example, <a href=\"https://www.youtube.com/watch?v=FMFm9GxB_Eo\">Bootstrap</a> the Graphic User Interface library I use,</div>\n    <div class=\"paragraph card-text card-stanza my-5 text-center\">used to rely on <a href=\"https://www.youtube.com/watch?v=JjIvF0yikGU\">jQuery</a> when jQuery was popular and necessary, <a href=\"https://www.youtube.com/watch?v=RdRMNT-98Oo&t=159s\">but as browsers became more sophisticated, they rejected using jQuery and other frameworks</a>, and just used the bare bones of the browser.</div>\n  </div>\n</div>\n<div class=\"card card-section bg-dark text-warning shadow\">\n  <div class=\"section card-body mb-0 my-2\">\n    <div class=\"paragraph card-text card-stanza my-5 text-center\">They are a fair baseline for industry standard web interface design,</div>\n    <div class=\"paragraph card-text card-stanza my-5 text-center\">and they hold all the answers as far as a basic standard web interface is concerned.</div>\n  </div>\n</div>\n<div class=\"card card-section bg-dark text-warning shadow\">\n  <div class=\"section card-body mb-0 my-2\">\n    <div class=\"paragraph card-text card-stanza my-5 text-center\">To lean from them,</div>\n    <div class=\"paragraph card-text card-stanza my-5 text-center\">means to create a tiny clone of their work, your own take on Bootstrap.</div>\n  </div>\n</div>\n<div class=\"card card-section bg-dark text-warning shadow\">\n  <div class=\"section card-body mb-0 my-2\">\n    <div class=\"paragraph card-text card-stanza my-5 text-center\">Each time you get stuck,</div>\n    <div class=\"paragraph card-text card-stanza my-5 text-center\">you go to their website and look up how they did it.</div>\n  </div>\n</div>\n<div class=\"card card-section bg-dark text-warning shadow\">\n  <div class=\"section card-body mb-0 my-2\">\n    <div class=\"paragraph card-text card-stanza my-5 text-center\">Since both of you at this point are working on the same thing,</div>\n    <div class=\"paragraph card-text card-stanza my-5 text-center\">they have answers to all your questions.</div>\n  </div>\n</div>\n<div class=\"card card-section bg-dark text-warning shadow\">\n  <div class=\"section card-body mb-0 my-2\">\n    <div class=\"paragraph card-text card-stanza my-5 text-center\">You can make your version perfect,</div>\n    <div class=\"paragraph card-text card-stanza my-5 text-center\">creating a Sandalstrap, a more lightweight version of Bootstrap, and that would be one of the items on your resume.</div>\n  </div>\n</div>\n<div class=\"card card-section bg-dark text-warning shadow\">\n  <div class=\"section card-body mb-0 my-2\">\n    <div class=\"paragraph card-text card-stanza my-5 text-center\">Or you can make a messy version,</div>\n    <div class=\"paragraph card-text card-stanza my-5 text-center\">where you purely go for the meat of the system, so your program will barely work, but as you file it away to some dusty git repository in hopes of never receiving a bug fix request, you walk away perfectly knowledgeable.</div>\n  </div>\n</div>\n<div class=\"card card-section bg-dark text-warning shadow\">\n  <div class=\"section card-body mb-0 my-2\">\n    <div class=\"paragraph card-text card-stanza my-5 text-center\">And then you go a step higher,</div>\n    <div class=\"paragraph card-text card-stanza my-5 text-center\">you search around for people who used a modern framework to enhance the modernized Bootstrap.</div>\n  </div>\n</div>\n<div class=\"card card-section bg-dark text-warning shadow\">\n  <div class=\"section card-body mb-0 my-2\">\n    <div class=\"paragraph card-text card-stanza my-5 text-center\">One such project is the <a href=\"https://www.youtube.com/watch?v=-DyKeMa5tYY&t=74s\">BootstrapVue</a>,</div>\n    <div class=\"paragraph card-text card-stanza my-5 text-center\">which relies on <a href=\"https://www.youtube.com/watch?v=JK6F5GGldPM\">Vue.js</a> for enhancing Bootstrap.</div>\n  </div>\n</div>\n<div class=\"card card-section bg-dark text-warning shadow\">\n  <div class=\"section card-body mb-0 my-2\">\n    <div class=\"paragraph card-text card-stanza my-5 text-center\">Another is <a href=\"https://www.youtube.com/watch?v=t3J1qTQ7kC8\">Sveltestrap</a>,</div>\n    <div class=\"paragraph card-text card-stanza my-5 text-center\">which relies on <a href=\"https://www.youtube.com/watch?v=ws97Etvs-Qs\">Svelte</a>.</div>\n  </div>\n</div>\n<div class=\"card card-section bg-dark text-warning shadow\">\n  <div class=\"section card-body mb-0 my-2\">\n    <div class=\"paragraph card-text card-stanza my-5 text-center\">Programming with Vue.js, Svelte, React, Angular, will give the ability to create web-application,</div>\n    <div class=\"paragraph card-text card-stanza my-5 text-center\">and between knowing bare-bones, and the large modern framework, you cannot help but to become good.</div>\n  </div>\n</div>\n<div class=\"card card-section bg-dark text-warning shadow\">\n  <div class=\"section card-body mb-0 my-2\">\n    <div class=\"paragraph card-text card-stanza my-5 text-center\">You are likely to end up with several simple and beautiful applications,</div>\n    <div class=\"paragraph card-text card-stanza my-5 text-center\">maybe tiny websites that bring in a few dollars, and this then becomes an item on your resume.</div>\n  </div>\n</div>\n<div class=\"card card-section bg-dark text-warning shadow\">\n  <div class=\"section card-body mb-0 my-2\">\n    <div class=\"paragraph card-text card-stanza my-5 text-center\">Imagine an interview where instead of answering stupid and incompetent questions,</div>\n    <div class=\"paragraph card-text card-stanza my-5 text-center\">you demo your favorite applications and give an overview of several more.</div>\n  </div>\n</div>\n<div class=\"card card-section bg-dark text-warning shadow\">\n  <div class=\"section card-body mb-0 my-2\">\n    <div class=\"paragraph card-text card-stanza my-5 text-center\">You learn the bare bones by making your own little versions,</div>\n    <div class=\"paragraph card-text card-stanza my-5 text-center\">and you learn the high end, by working with those frameworks to make interesting little apps.</div>\n  </div>\n</div>\n<div class=\"card card-section bg-dark text-warning shadow\">\n  <div class=\"section card-body mb-0 my-2\">\n    <div class=\"paragraph card-text card-stanza my-5 text-center\">Now imagine how useful it would be if you had a Video Version of you demoing your apps,</div>\n    <div class=\"paragraph card-text card-stanza my-5 text-center\">that you could attach to your resume-portfolio.</div>\n  </div>\n</div>\n<div class=\"card card-section bg-dark text-warning shadow\">\n  <div class=\"section card-body mb-0 my-2\">\n    <div class=\"paragraph card-text card-stanza my-5 text-center\">Nobody is going to ask you if you know OOP, or if you can doodle a user interface layout system media query extravaganza on the white board,</div>\n    <div class=\"paragraph card-text card-stanza my-5 text-center\">when it is already something that you cover in your video, and clearly feel passionate about.</div>\n  </div>\n</div>\n<div class=\"mb-5 section-spacer\">&nbsp;</div>\n<div class=\"card card-section bg-dark text-warning shadow\">\n  <div class=\"section card-body mb-0 my-2\">\n    <div class=\"paragraph card-text card-stanza my-5 text-center\">It takes a long time to figure all this out,</div>\n    <div class=\"paragraph card-text card-stanza my-5 text-center\">and you are learning so many subjects subjects at the same time, that school at this point seems like a joke.</div>\n  </div>\n</div>\n<div class=\"card card-section bg-dark text-warning shadow\">\n  <div class=\"section card-body mb-0 my-2\">\n    <div class=\"paragraph card-text card-stanza my-5 text-center\">You would need a couple of decades worth of classes moving at a snail pace,</div>\n    <div class=\"paragraph card-text card-stanza my-5 text-center\">and even the programs at prestigious universities are off, where they still mention things that are irrelevant and would actually make your software slow had you employed them.</div>\n  </div>\n</div>\n<div class=\"card card-section bg-dark text-warning shadow\">\n  <div class=\"section card-body mb-0 my-2\">\n    <div class=\"paragraph card-text card-stanza my-5 text-center\"><a href=\"https://www.youtube.com/watch?v=k3M8O83n254\">Healthcare website launch problems in 2013</a> were not just about politics and bureaucracy,</div>\n    <div class=\"paragraph card-text card-stanza my-5 text-center\">but useless and outdated technologies and methods, probably the stuff they teach in school.</div>\n  </div>\n</div>\n<div class=\"card card-section bg-dark text-warning shadow\">\n  <div class=\"section card-body mb-0 my-2\">\n    <div class=\"paragraph card-text card-stanza my-5 text-center\">Just the fact alone that many files were being loaded by the browser on launch day,</div>\n    <div class=\"paragraph card-text card-stanza my-5 text-center\">instead of organized into one or two compressed and bundled extras, reveals inexperienced programmers.</div>\n  </div>\n</div>\n<div class=\"card card-section bg-dark text-warning shadow\">\n  <div class=\"section card-body mb-0 my-2\">\n    <div class=\"paragraph card-text card-stanza my-5 text-center\">These lessons can't be emphasized correctly in a school environment,</div>\n    <div class=\"paragraph card-text card-stanza my-5 text-center\">they come precisely from places like the Bootstrap code base.</div>\n  </div>\n</div>\n<div class=\"card card-section bg-dark text-warning shadow\">\n  <div class=\"section card-body mb-0 my-2\">\n    <div class=\"paragraph card-text card-stanza my-5 text-center\">It takes 10 minutes to figure it out,</div>\n    <div class=\"paragraph card-text card-stanza my-5 text-center\">and a few hours to start using mini-fication in all your programs.</div>\n  </div>\n</div>\n<div class=\"card card-section bg-dark text-warning shadow\">\n  <div class=\"section card-body mb-0 my-2\">\n    <div class=\"paragraph card-text card-stanza my-5 text-center\">And that is it,</div>\n    <div class=\"paragraph card-text card-stanza my-5 text-center\">there is no lecture, no test here, it just becomes obvious and useful.</div>\n  </div>\n</div>\n<div class=\"card card-section bg-dark text-warning shadow\">\n  <div class=\"section card-body mb-0 my-2\">\n    <div class=\"paragraph card-text card-stanza my-5 text-center\">When you care about learning,</div>\n    <div class=\"paragraph card-text card-stanza my-5 text-center\">which is what happens when you are learning things you like, you never need to memorize, or put mini-fication on a todo, you just accept it as reality, and a great idea.</div>\n  </div>\n</div>\n<div class=\"card card-section bg-dark text-warning shadow\">\n  <div class=\"section card-body mb-0 my-2\">\n    <div class=\"paragraph card-text card-stanza my-5 text-center\">I mention the failure of the 2013 Healthcare website,</div>\n    <div class=\"paragraph card-text card-stanza my-5 text-center\">because it shows that a college education, and working for prestigious companies, on prestigious projects means nothing.</div>\n  </div>\n</div>\n<div class=\"card card-section bg-dark text-warning shadow\">\n  <div class=\"section card-body mb-0 my-2\">\n    <div class=\"paragraph card-text card-stanza my-5 text-center\">Reality makes it so that fake education,</div>\n    <div class=\"paragraph card-text card-stanza my-5 text-center\">can only lead to failure.</div>\n  </div>\n</div>\n<div class=\"card card-section bg-dark text-warning shadow\">\n  <div class=\"section card-body mb-0 my-2\">\n    <div class=\"paragraph card-text card-stanza my-5 text-center\">There isn't a textbook, or a teacher that can emphasize the important things enough,</div>\n    <div class=\"paragraph card-text card-stanza my-5 text-center\">it has to be practice.</div>\n  </div>\n</div>\n<div class=\"card card-section bg-dark text-warning shadow\">\n  <div class=\"section card-body mb-0 my-2\">\n    <div class=\"paragraph card-text card-stanza my-5 text-center\">This is why Eric Raymond stands up for his Self Education,</div>\n    <div class=\"paragraph card-text card-stanza my-5 text-center\">it is the difference between Real Education and Fantasy Education.</div>\n  </div>\n</div>\n<div class=\"card card-section bg-dark text-warning shadow\">\n  <div class=\"section card-body mb-0 my-2\">\n    <div class=\"paragraph card-text card-stanza my-5 text-center\">Reading and learning from source code and then writing your own programs,</div>\n    <div class=\"paragraph card-text card-stanza my-5 text-center\">is the only realistic way to learn programming for real.</div>\n  </div>\n</div>\n<div class=\"card card-section bg-dark text-warning shadow\">\n  <div class=\"section card-body mb-0 my-2\">\n    <div class=\"paragraph card-text card-stanza my-5 text-center\"><a href=\"https://www.youtube.com/watch?v=mQPEZdBTOeE\">And you are genius level smart, we all are, but you have to start with baby steps</a>,</div>\n    <div class=\"paragraph card-text card-stanza my-5 text-center\">it has to be a very comfortable on-ramp, don't start by learning CSS nobody does that, start with what you like and then look at other projects to see how you can make it better.</div>\n  </div>\n</div>\n<div class=\"mb-5 section-spacer\">&nbsp;</div>\n<div class=\"card card-section bg-dark text-warning shadow\">\n  <div class=\"section card-body mb-0 my-2\">\n    <div class=\"paragraph card-text card-stanza my-5 text-center\">If you ever get stuck, or are unsure where to go next, or aren't sure where to begin,</div>\n    <div class=\"paragraph card-text card-stanza my-5 text-center\">then go to a video search box type in the thing that interests you the most followed by the word tutorial.</div>\n  </div>\n</div>\n<div class=\"card card-section bg-dark text-warning shadow\">\n  <div class=\"section card-body mb-0 my-2\">\n    <div class=\"paragraph card-text card-stanza my-5 text-center\">Seeing and hearing many different perspectives from different people will help you balance your understanding,</div>\n    <div class=\"paragraph card-text card-stanza my-5 text-center\">and find your next step.</div>\n  </div>\n</div>\n<div class=\"card card-section bg-dark text-warning shadow\">\n  <div class=\"section card-body mb-0 my-2\">\n    <div class=\"paragraph card-text card-stanza my-5 text-center\">Search for tutorials,</div>\n    <div class=\"paragraph card-text card-stanza my-5 text-center\">do it, it will be amazing!</div>\n  </div>\n</div>",
  "print": "<div class=\"section avoid-break-inside\" style=\"padding-bottom: 2rem;\">\n  <div class=\"paragraph\">Developing quality custom software will help you show off some of your work,</div>\n  <div class=\"paragraph\">and proudly point to interesting solutions.</div>\n</div>\n<div class=\"section avoid-break-inside\" style=\"padding-bottom: 2rem;\">\n  <div class=\"paragraph\">A proper and respectful interview that doesn't ask idiotic and incompetent questions,</div>\n  <div class=\"paragraph\">will only ask you to explain the programs you created.</div>\n</div>\n<div class=\"section avoid-break-inside\" style=\"padding-bottom: 2rem;\">\n  <div class=\"paragraph\">You will get to talk about challenges you faced,</div>\n  <div class=\"paragraph\">and proudly explain solutions you implemented or invented.</div>\n</div>\n<div class=\"section avoid-break-inside\" style=\"padding-bottom: 2rem;\">\n  <div class=\"paragraph\">A real resume does not feature boilerplate clams,</div>\n  <div class=\"paragraph\">of how you deliver \"on time and under budget\".</div>\n</div>\n<div class=\"section avoid-break-inside\" style=\"padding-bottom: 2rem;\">\n  <div class=\"paragraph\">And you probably shouldn't mention that you went to school to learn,</div>\n  <div class=\"paragraph\">if you need someone to push you along to learn, then you will probably need someone to push you along to work.</div>\n</div>\n<div class=\"section avoid-break-inside\" style=\"padding-bottom: 2rem;\">\n  <div class=\"paragraph\">A real resume is just a list of programs you created,</div>\n  <div class=\"paragraph\">with a short description about the brilliant ideas within.</div>\n</div>\n<div class=\"section avoid-break-inside\" style=\"padding-bottom: 2rem;\">\n  <div class=\"paragraph\">This also protects you from toxic environments that will destroy your creativity,</div>\n  <div class=\"paragraph\">a company that looks for a cookie cutter resume, is full of cookie cutter people, which is terrifying.</div>\n</div>\n<div class=\"section avoid-break-inside\" style=\"padding-bottom: 2rem;\">\n  <div class=\"paragraph\">This is a big and in some cases controversial subject,</div>\n  <div class=\"paragraph\">so let me give you a real world case.</div>\n</div>\n<div class=\"section avoid-break-inside\" style=\"padding-bottom: 2rem;\">\n  <div class=\"paragraph\">Eric Steven Raymond, the person behind the <span>Jargon File<sup>[1]</sup></span>, a Hacker's Dictionary,</div>\n  <div class=\"paragraph\">states the following in the Education Section of his <span>Resume<sup>[2]</sup></span>:</div>\n</div>\n<div class=\"section avoid-break-inside\" style=\"padding-bottom: 2rem;\">\n  <div class=\"paragraph\">\"Education</div>\n  <div class=\"paragraph\">Undergraduate studies (including some graduate-level courses) in mathematics and philosophy at the University of Pennsylvania.</div>\n  <div class=\"paragraph\">I have never taken any courses in computer science or software engineering.\"</div>\n</div>\n<div class=\"section avoid-break-inside\" style=\"padding-bottom: 2rem;\">\n  <div class=\"paragraph\">Part of the reason why he says that,</div>\n  <div class=\"paragraph\">is to protect his hard work, he doesn't want people to think that he got his education from some mediocre minimum viable lowest-common-denominator classroom, and a teacher with little real-world experience.</div>\n</div>\n<div class=\"section avoid-break-inside\" style=\"padding-bottom: 2rem;\">\n  <br>\n</div>\n<div class=\"section avoid-break-inside\" style=\"padding-bottom: 2rem;\">\n  <div class=\"paragraph\">The fact schools don't work very well, if at all, is not a secret,</div>\n  <div class=\"paragraph\">it is in fact the reason behind insulting and idiotic interview questions.</div>\n</div>\n<div class=\"section avoid-break-inside\" style=\"padding-bottom: 2rem;\">\n  <div class=\"paragraph\">The fact that we are each extremely intelligent, and that we are each perfectly capable of becoming a humble Polymath,</div>\n  <div class=\"paragraph\">is inescapable.</div>\n</div>\n<div class=\"section avoid-break-inside\" style=\"padding-bottom: 2rem;\">\n  <div class=\"paragraph\">And that is what a competent employer would look for,</div>\n  <div class=\"paragraph\">a balanced view of the world born from being a jack of all trades and a master of those that are interesting.</div>\n</div>\n<div class=\"section avoid-break-inside\" style=\"padding-bottom: 2rem;\">\n  <br>\n</div>\n<div class=\"section avoid-break-inside\" style=\"padding-bottom: 2rem;\">\n  <div class=\"paragraph\">So,</div>\n  <div class=\"paragraph\">How do you become good on your own...</div>\n</div>\n<div class=\"section avoid-break-inside\" style=\"padding-bottom: 2rem;\">\n  <br>\n</div>\n<div class=\"section avoid-break-inside\" style=\"padding-bottom: 2rem;\">\n  <div class=\"paragraph\">You look at the top existing programs,</div>\n  <div class=\"paragraph\">and try to make smaller versions.</div>\n</div>\n<div class=\"section avoid-break-inside\" style=\"padding-bottom: 2rem;\">\n  <div class=\"paragraph\">This will help you establish a baseline,</div>\n  <div class=\"paragraph\">the baseline is the common industry standard, and in this day and age it means use a popular framework or the bare-bones, that whatever system you are working with is handing you.</div>\n</div>\n<div class=\"section avoid-break-inside\" style=\"padding-bottom: 2rem;\">\n  <div class=\"paragraph\">For example, <span>Bootstrap<sup>[3]</sup></span> the Graphic User Interface library I use,</div>\n  <div class=\"paragraph\">used to rely on <span>jQuery<sup>[4]</sup></span> when jQuery was popular and necessary, <span>but as browsers became more sophisticated, they rejected using jQuery and other frameworks<sup>[5]</sup></span>, and just used the bare bones of the browser.</div>\n</div>\n<div class=\"section avoid-break-inside\" style=\"padding-bottom: 2rem;\">\n  <div class=\"paragraph\">They are a fair baseline for industry standard web interface design,</div>\n  <div class=\"paragraph\">and they hold all the answers as far as a basic standard web interface is concerned.</div>\n</div>\n<div class=\"section avoid-break-inside\" style=\"padding-bottom: 2rem;\">\n  <div class=\"paragraph\">To lean from them,</div>\n  <div class=\"paragraph\">means to create a tiny clone of their work, your own take on Bootstrap.</div>\n</div>\n<div class=\"section avoid-break-inside\" style=\"padding-bottom: 2rem;\">\n  <div class=\"paragraph\">Each time you get stuck,</div>\n  <div class=\"paragraph\">you go to their website and look up how they did it.</div>\n</div>\n<div class=\"section avoid-break-inside\" style=\"padding-bottom: 2rem;\">\n  <div class=\"paragraph\">Since both of you at this point are working on the same thing,</div>\n  <div class=\"paragraph\">they have answers to all your questions.</div>\n</div>\n<div class=\"section avoid-break-inside\" style=\"padding-bottom: 2rem;\">\n  <div class=\"paragraph\">You can make your version perfect,</div>\n  <div class=\"paragraph\">creating a Sandalstrap, a more lightweight version of Bootstrap, and that would be one of the items on your resume.</div>\n</div>\n<div class=\"section avoid-break-inside\" style=\"padding-bottom: 2rem;\">\n  <div class=\"paragraph\">Or you can make a messy version,</div>\n  <div class=\"paragraph\">where you purely go for the meat of the system, so your program will barely work, but as you file it away to some dusty git repository in hopes of never receiving a bug fix request, you walk away perfectly knowledgeable.</div>\n</div>\n<div class=\"section avoid-break-inside\" style=\"padding-bottom: 2rem;\">\n  <div class=\"paragraph\">And then you go a step higher,</div>\n  <div class=\"paragraph\">you search around for people who used a modern framework to enhance the modernized Bootstrap.</div>\n</div>\n<div class=\"section avoid-break-inside\" style=\"padding-bottom: 2rem;\">\n  <div class=\"paragraph\">One such project is the <span>BootstrapVue<sup>[6]</sup></span>,</div>\n  <div class=\"paragraph\">which relies on <span>Vue.js<sup>[7]</sup></span> for enhancing Bootstrap.</div>\n</div>\n<div class=\"section avoid-break-inside\" style=\"padding-bottom: 2rem;\">\n  <div class=\"paragraph\">Another is <span>Sveltestrap<sup>[8]</sup></span>,</div>\n  <div class=\"paragraph\">which relies on <span>Svelte<sup>[9]</sup></span>.</div>\n</div>\n<div class=\"section avoid-break-inside\" style=\"padding-bottom: 2rem;\">\n  <div class=\"paragraph\">Programming with Vue.js, Svelte, React, Angular, will give the ability to create web-application,</div>\n  <div class=\"paragraph\">and between knowing bare-bones, and the large modern framework, you cannot help but to become good.</div>\n</div>\n<div class=\"section avoid-break-inside\" style=\"padding-bottom: 2rem;\">\n  <div class=\"paragraph\">You are likely to end up with several simple and beautiful applications,</div>\n  <div class=\"paragraph\">maybe tiny websites that bring in a few dollars, and this then becomes an item on your resume.</div>\n</div>\n<div class=\"section avoid-break-inside\" style=\"padding-bottom: 2rem;\">\n  <div class=\"paragraph\">Imagine an interview where instead of answering stupid and incompetent questions,</div>\n  <div class=\"paragraph\">you demo your favorite applications and give an overview of several more.</div>\n</div>\n<div class=\"section avoid-break-inside\" style=\"padding-bottom: 2rem;\">\n  <div class=\"paragraph\">You learn the bare bones by making your own little versions,</div>\n  <div class=\"paragraph\">and you learn the high end, by working with those frameworks to make interesting little apps.</div>\n</div>\n<div class=\"section avoid-break-inside\" style=\"padding-bottom: 2rem;\">\n  <div class=\"paragraph\">Now imagine how useful it would be if you had a Video Version of you demoing your apps,</div>\n  <div class=\"paragraph\">that you could attach to your resume-portfolio.</div>\n</div>\n<div class=\"section avoid-break-inside\" style=\"padding-bottom: 2rem;\">\n  <div class=\"paragraph\">Nobody is going to ask you if you know OOP, or if you can doodle a user interface layout system media query extravaganza on the white board,</div>\n  <div class=\"paragraph\">when it is already something that you cover in your video, and clearly feel passionate about.</div>\n</div>\n<div class=\"section avoid-break-inside\" style=\"padding-bottom: 2rem;\">\n  <br>\n</div>\n<div class=\"section avoid-break-inside\" style=\"padding-bottom: 2rem;\">\n  <div class=\"paragraph\">It takes a long time to figure all this out,</div>\n  <div class=\"paragraph\">and you are learning so many subjects subjects at the same time, that school at this point seems like a joke.</div>\n</div>\n<div class=\"section avoid-break-inside\" style=\"padding-bottom: 2rem;\">\n  <div class=\"paragraph\">You would need a couple of decades worth of classes moving at a snail pace,</div>\n  <div class=\"paragraph\">and even the programs at prestigious universities are off, where they still mention things that are irrelevant and would actually make your software slow had you employed them.</div>\n</div>\n<div class=\"section avoid-break-inside\" style=\"padding-bottom: 2rem;\">\n  <div class=\"paragraph\"><span>Healthcare website launch problems in 2013<sup>[10]</sup></span> were not just about politics and bureaucracy,</div>\n  <div class=\"paragraph\">but useless and outdated technologies and methods, probably the stuff they teach in school.</div>\n</div>\n<div class=\"section avoid-break-inside\" style=\"padding-bottom: 2rem;\">\n  <div class=\"paragraph\">Just the fact alone that many files were being loaded by the browser on launch day,</div>\n  <div class=\"paragraph\">instead of organized into one or two compressed and bundled extras, reveals inexperienced programmers.</div>\n</div>\n<div class=\"section avoid-break-inside\" style=\"padding-bottom: 2rem;\">\n  <div class=\"paragraph\">These lessons can't be emphasized correctly in a school environment,</div>\n  <div class=\"paragraph\">they come precisely from places like the Bootstrap code base.</div>\n</div>\n<div class=\"section avoid-break-inside\" style=\"padding-bottom: 2rem;\">\n  <div class=\"paragraph\">It takes 10 minutes to figure it out,</div>\n  <div class=\"paragraph\">and a few hours to start using mini-fication in all your programs.</div>\n</div>\n<div class=\"section avoid-break-inside\" style=\"padding-bottom: 2rem;\">\n  <div class=\"paragraph\">And that is it,</div>\n  <div class=\"paragraph\">there is no lecture, no test here, it just becomes obvious and useful.</div>\n</div>\n<div class=\"section avoid-break-inside\" style=\"padding-bottom: 2rem;\">\n  <div class=\"paragraph\">When you care about learning,</div>\n  <div class=\"paragraph\">which is what happens when you are learning things you like, you never need to memorize, or put mini-fication on a todo, you just accept it as reality, and a great idea.</div>\n</div>\n<div class=\"section avoid-break-inside\" style=\"padding-bottom: 2rem;\">\n  <div class=\"paragraph\">I mention the failure of the 2013 Healthcare website,</div>\n  <div class=\"paragraph\">because it shows that a college education, and working for prestigious companies, on prestigious projects means nothing.</div>\n</div>\n<div class=\"section avoid-break-inside\" style=\"padding-bottom: 2rem;\">\n  <div class=\"paragraph\">Reality makes it so that fake education,</div>\n  <div class=\"paragraph\">can only lead to failure.</div>\n</div>\n<div class=\"section avoid-break-inside\" style=\"padding-bottom: 2rem;\">\n  <div class=\"paragraph\">There isn't a textbook, or a teacher that can emphasize the important things enough,</div>\n  <div class=\"paragraph\">it has to be practice.</div>\n</div>\n<div class=\"section avoid-break-inside\" style=\"padding-bottom: 2rem;\">\n  <div class=\"paragraph\">This is why Eric Raymond stands up for his Self Education,</div>\n  <div class=\"paragraph\">it is the difference between Real Education and Fantasy Education.</div>\n</div>\n<div class=\"section avoid-break-inside\" style=\"padding-bottom: 2rem;\">\n  <div class=\"paragraph\">Reading and learning from source code and then writing your own programs,</div>\n  <div class=\"paragraph\">is the only realistic way to learn programming for real.</div>\n</div>\n<div class=\"section avoid-break-inside\" style=\"padding-bottom: 2rem;\">\n  <div class=\"paragraph\"><span>And you are genius level smart, we all are, but you have to start with baby steps<sup>[11]</sup></span>,</div>\n  <div class=\"paragraph\">it has to be a very comfortable on-ramp, don't start by learning CSS nobody does that, start with what you like and then look at other projects to see how you can make it better.</div>\n</div>\n<div class=\"section avoid-break-inside\" style=\"padding-bottom: 2rem;\">\n  <br>\n</div>\n<div class=\"section avoid-break-inside\" style=\"padding-bottom: 2rem;\">\n  <div class=\"paragraph\">If you ever get stuck, or are unsure where to go next, or aren't sure where to begin,</div>\n  <div class=\"paragraph\">then go to a video search box type in the thing that interests you the most followed by the word tutorial.</div>\n</div>\n<div class=\"section avoid-break-inside\" style=\"padding-bottom: 2rem;\">\n  <div class=\"paragraph\">Seeing and hearing many different perspectives from different people will help you balance your understanding,</div>\n  <div class=\"paragraph\">and find your next step.</div>\n</div>\n<div class=\"section avoid-break-inside\" style=\"padding-bottom: 2rem;\">\n  <div class=\"paragraph\">Search for tutorials,</div>\n  <div class=\"paragraph\">do it, it will be amazing!</div>\n</div>\n<div class=\"break-after\">&nbsp;</div>\n<div>\n  <div class=\"section\" style=\"padding-bottom: 1rem;\">References</div>\n  <div>[1]: http://catb.org/jargon/</div>\n  <div>[2]: http://www.catb.org/~esr/resume.html</div>\n  <div>[3]: https://www.youtube.com/watch?v=FMFm9GxB_Eo</div>\n  <div>[4]: https://www.youtube.com/watch?v=JjIvF0yikGU</div>\n  <div>[5]: https://www.youtube.com/watch?v=RdRMNT-98Oo&t=159s</div>\n  <div>[6]: https://www.youtube.com/watch?v=-DyKeMa5tYY&t=74s</div>\n  <div>[7]: https://www.youtube.com/watch?v=JK6F5GGldPM</div>\n  <div>[8]: https://www.youtube.com/watch?v=t3J1qTQ7kC8</div>\n  <div>[9]: https://www.youtube.com/watch?v=ws97Etvs-Qs</div>\n  <div>[10]: https://www.youtube.com/watch?v=k3M8O83n254</div>\n  <div>[11]: https://www.youtube.com/watch?v=mQPEZdBTOeE</div>\n</div>",
  "text": "Developing quality custom software will help you show off some of your work,\nand proudly point to interesting solutions.\nA proper and respectful interview that doesn't ask idiotic and incompetent questions,\nwill only ask you to explain the programs you created.\nYou will get to talk about challenges you faced,\nand proudly explain solutions you implemented or invented.\nA real resume does not feature boilerplate clams,\nof how you deliver \"on time and under budget\".\nAnd you probably shouldn't mention that you went to school to learn,\nif you need someone to push you along to learn, then you will probably need someone to push you along to work.\nA real resume is just a list of programs you created,\nwith a short description about the brilliant ideas within.\nThis also protects you from toxic environments that will destroy your creativity,\na company that looks for a cookie cutter resume, is full of cookie cutter people, which is terrifying.\nThis is a big and in some cases controversial subject,\nso let me give you a real world case.\nEric Steven Raymond, the person behind the Jargon File[1], a Hacker's Dictionary,\nstates the following in the Education Section of his Resume[2]:\n\"Education\nUndergraduate studies (including some graduate-level courses) in mathematics and philosophy at the University of Pennsylvania.\nI have never taken any courses in computer science or software engineering.\"\nPart of the reason why he says that,\nis to protect his hard work, he doesn't want people to think that he got his education from some mediocre minimum viable lowest-common-denominator classroom, and a teacher with little real-world experience.\n\nThe fact schools don't work very well, if at all, is not a secret,\nit is in fact the reason behind insulting and idiotic interview questions.\nThe fact that we are each extremely intelligent, and that we are each perfectly capable of becoming a humble Polymath,\nis inescapable.\nAnd that is what a competent employer would look for,\na balanced view of the world born from being a jack of all trades and a master of those that are interesting.\n\nSo,\nHow do you become good on your own...\n\nYou look at the top existing programs,\nand try to make smaller versions.\nThis will help you establish a baseline,\nthe baseline is the common industry standard, and in this day and age it means use a popular framework or the bare-bones, that whatever system you are working with is handing you.\nFor example, Bootstrap[3] the Graphic User Interface library I use,\nused to rely on jQuery[4] when jQuery was popular and necessary, but as browsers became more sophisticated, they rejected using jQuery and other frameworks[5], and just used the bare bones of the browser.\nThey are a fair baseline for industry standard web interface design,\nand they hold all the answers as far as a basic standard web interface is concerned.\nTo lean from them,\nmeans to create a tiny clone of their work, your own take on Bootstrap.\nEach time you get stuck,\nyou go to their website and look up how they did it.\nSince both of you at this point are working on the same thing,\nthey have answers to all your questions.\nYou can make your version perfect,\ncreating a Sandalstrap, a more lightweight version of Bootstrap, and that would be one of the items on your resume.\nOr you can make a messy version,\nwhere you purely go for the meat of the system, so your program will barely work, but as you file it away to some dusty git repository in hopes of never receiving a bug fix request, you walk away perfectly knowledgeable.\nAnd then you go a step higher,\nyou search around for people who used a modern framework to enhance the modernized Bootstrap.\nOne such project is the BootstrapVue[6],\nwhich relies on Vue.js[7] for enhancing Bootstrap.\nAnother is Sveltestrap[8],\nwhich relies on Svelte[9].\nProgramming with Vue.js, Svelte, React, Angular, will give the ability to create web-application,\nand between knowing bare-bones, and the large modern framework, you cannot help but to become good.\nYou are likely to end up with several simple and beautiful applications,\nmaybe tiny websites that bring in a few dollars, and this then becomes an item on your resume.\nImagine an interview where instead of answering stupid and incompetent questions,\nyou demo your favorite applications and give an overview of several more.\nYou learn the bare bones by making your own little versions,\nand you learn the high end, by working with those frameworks to make interesting little apps.\nNow imagine how useful it would be if you had a Video Version of you demoing your apps,\nthat you could attach to your resume-portfolio.\nNobody is going to ask you if you know OOP, or if you can doodle a user interface layout system media query extravaganza on the white board,\nwhen it is already something that you cover in your video, and clearly feel passionate about.\n\nIt takes a long time to figure all this out,\nand you are learning so many subjects subjects at the same time, that school at this point seems like a joke.\nYou would need a couple of decades worth of classes moving at a snail pace,\nand even the programs at prestigious universities are off, where they still mention things that are irrelevant and would actually make your software slow had you employed them.\nHealthcare website launch problems in 2013[10] were not just about politics and bureaucracy,\nbut useless and outdated technologies and methods, probably the stuff they teach in school.\nJust the fact alone that many files were being loaded by the browser on launch day,\ninstead of organized into one or two compressed and bundled extras, reveals inexperienced programmers.\nThese lessons can't be emphasized correctly in a school environment,\nthey come precisely from places like the Bootstrap code base.\nIt takes 10 minutes to figure it out,\nand a few hours to start using mini-fication in all your programs.\nAnd that is it,\nthere is no lecture, no test here, it just becomes obvious and useful.\nWhen you care about learning,\nwhich is what happens when you are learning things you like, you never need to memorize, or put mini-fication on a todo, you just accept it as reality, and a great idea.\nI mention the failure of the 2013 Healthcare website,\nbecause it shows that a college education, and working for prestigious companies, on prestigious projects means nothing.\nReality makes it so that fake education,\ncan only lead to failure.\nThere isn't a textbook, or a teacher that can emphasize the important things enough,\nit has to be practice.\nThis is why Eric Raymond stands up for his Self Education,\nit is the difference between Real Education and Fantasy Education.\nReading and learning from source code and then writing your own programs,\nis the only realistic way to learn programming for real.\nAnd you are genius level smart, we all are, but you have to start with baby steps[11],\nit has to be a very comfortable on-ramp, don't start by learning CSS nobody does that, start with what you like and then look at other projects to see how you can make it better.\n\nIf you ever get stuck, or are unsure where to go next, or aren't sure where to begin,\nthen go to a video search box type in the thing that interests you the most followed by the word tutorial.\nSeeing and hearing many different perspectives from different people will help you balance your understanding,\nand find your next step.\nSearch for tutorials,\ndo it, it will be amazing!\n \nReferences\n[1]: http://catb.org/jargon/\n[2]: http://www.catb.org/~esr/resume.html\n[3]: https://www.youtube.com/watch?v=FMFm9GxB_Eo\n[4]: https://www.youtube.com/watch?v=JjIvF0yikGU\n[5]: https://www.youtube.com/watch?v=RdRMNT-98Oo&t=159s\n[6]: https://www.youtube.com/watch?v=-DyKeMa5tYY&t=74s\n[7]: https://www.youtube.com/watch?v=JK6F5GGldPM\n[8]: https://www.youtube.com/watch?v=t3J1qTQ7kC8\n[9]: https://www.youtube.com/watch?v=ws97Etvs-Qs\n[10]: https://www.youtube.com/watch?v=k3M8O83n254\n[11]: https://www.youtube.com/watch?v=mQPEZdBTOeE",
  "images": [],
  "links": [
    {
      "title": "Jargon File",
      "url": "http://catb.org/jargon/",
      "hostname": "catb.org"
    },
    {
      "title": "Resume of Eric Steven Raymond",
      "url": "http://www.catb.org/~esr/resume.html",
      "hostname": "www.catb.org"
    },
    {
      "title": "Bootstrap",
      "url": "https://www.youtube.com/watch?v=FMFm9GxB_Eo",
      "hostname": "www.youtube.com"
    },
    {
      "title": "jQuery",
      "url": "https://www.youtube.com/watch?v=JjIvF0yikGU",
      "hostname": "www.youtube.com"
    },
    {
      "title": "but as browsers became more sophisticated, they rejected using jQuery and other frameworks",
      "url": "https://www.youtube.com/watch?v=RdRMNT-98Oo&t=159s",
      "hostname": "www.youtube.com"
    },
    {
      "title": "BootstrapVue",
      "url": "https://www.youtube.com/watch?v=-DyKeMa5tYY&t=74s",
      "hostname": "www.youtube.com"
    },
    {
      "title": "Vue.js",
      "url": "https://www.youtube.com/watch?v=JK6F5GGldPM",
      "hostname": "www.youtube.com"
    },
    {
      "title": "Sveltestrap",
      "url": "https://www.youtube.com/watch?v=t3J1qTQ7kC8",
      "hostname": "www.youtube.com"
    },
    {
      "title": "Svelte",
      "url": "https://www.youtube.com/watch?v=ws97Etvs-Qs",
      "hostname": "www.youtube.com"
    },
    {
      "title": "Healthcare website launch problems in 2013",
      "url": "https://www.youtube.com/watch?v=k3M8O83n254",
      "hostname": "www.youtube.com"
    },
    {
      "title": "And you are genius level smart, we all are, but you have to start with baby steps",
      "url": "https://www.youtube.com/watch?v=mQPEZdBTOeE",
      "hostname": "www.youtube.com"
    }
  ]
}