{
  "name": "furkies-purrkies-poetry-0702",
  "id": "furkies-purrkies-poetry-0702",
  "title": "Mona Lisa's Eyes",
  "date": "2022-01-31T23:02:45.138Z",
  "image": "poetry-0702-illustration.jpg",
  "artwork": "https://catpea.com",
  "audio": "poetry-0702.mp3",
  "guid": "9e36f08b-f335-459a-8373-f901b8c3de24",
  "html": "<div class=\"section\">\n  <p>Mona Lisa is a great teacher,<br>the portrait is very simple and friendly.</p>\n  <p>Leonardo does a great job showing us,<br>the essentials without sacrificing beauty.</p>\n  <p>The more time you spend with Mona,<br>the more inviting copying her will seem.</p>\n</div>\n<div class=\"section\">\n  <hr>\n</div>\n<div class=\"section\">\n  <p>As the saying goes,<br>eyes are windows to the soul.</p>\n  <p>And that should be the first thing you learn,<br>Mona's eyes are a dream to learn from.</p>\n  <p>But also an invitation,<br>to more complex arrangements.</p>\n  <p>Today those can be found by searching for,<br>\"<a href=\"https://www.qwant.com/?client=opensearch&q=eye+painting+tutorial&t=images\">eye painting tutorial</a>\" on an image search engine.</p>\n  <p>This is one of the rare few cases,<br>where a video tutorial <strong>may not</strong> be better.</p>\n  <p>A still image that shows all the steps,<br>gives you more time to master the details.</p>\n</div>\n<div class=\"section\">\n  <hr>\n</div>\n<div class=\"section\">\n  <p>While it is tempting to draw the eyes,<br>by just drawing until they are done.</p>\n  <p>It is faster and more reliable,<br>to create a little system of four or eight steps.</p>\n  <p>In most cases you probably won't need the extra detail,<br>and you maybe able to skip some steps.</p>\n  <p>But be mindful of your portfolio,<br>the extra details make for a wonderful presentation of your abilities.</p>\n</div>\n<div class=\"section\">\n  <hr>\n</div>\n<div class=\"section\">\n  <p>Even though Mona Lisa is magically simple,<br>all the details are still there, and you decide how far you want to go.</p>\n  <p>Beyond that,<br>you can change the style of eyes.</p>\n  <p>I like Pop Surrealism so I make my bigger,<br>and more colorful.</p>\n</div>\n<div class=\"section\">\n  <hr>\n</div>\n<div class=\"section\">\n  <p>If you are using Krita hit the \"M\" key from time to time,<br>to see a mirrored version of your painting.</p>\n  <p>Our eyes fill in blanks,<br>it is really good to see the portrait from a different side.</p>\n  <p>Take good care of your layers, name them well,<br>and always keep the ones you are not using locked, at least at first.</p>\n  <p>Try to change hue of your reference image to a more skin-like tone,<br>there is no end to the lessons she can teach.</p>\n</div>\n<div class=\"section\">\n  <hr>\n</div>\n<div class=\"section\">\n  <p>It is OK not to like computers,<br>and paint on canvas or wooden panels.</p>\n  <p>But you should still try learning Krita, or GIMP,<br>and take all the time and tutorials in the world.</p>\n</div>\n<div class=\"section\">\n  <hr>\n</div>\n<div class=\"section\">\n  <p>Once you set your first painting as your phone background,<br>everything will change.</p>\n  <p>You will have no doubt about your artistic abilities,<br>and what art is for.</p>\n  <p>Once you get to your first exhibition,<br>be sure to print out many strikes, key-chains, posters, and paint some shoes as well.</p>\n  <p>And Art is a kind of class,<br>in which you create your own style, rather than just buying copy at the store.</p>\n  <p>By subtle analogy to art,<br>we learn to create all kinds of other things.</p>\n  <p>And we discover that there are no limits to what we can learn on our own,<br>so as long as it is interesting to us.</p>\n</div>",
  "bootstrap": "<div class=\"card card-section bg-dark text-warning shadow\">\n  <div class=\"section card-body mb-0 my-2\">\n    <div class=\"paragraph card-text card-stanza my-5 text-center\">Mona Lisa is a great teacher,<br>the portrait is very simple and friendly.</div>\n    <div class=\"paragraph card-text card-stanza my-5 text-center\">Leonardo does a great job showing us,<br>the essentials without sacrificing beauty.</div>\n    <div class=\"paragraph card-text card-stanza my-5 text-center\">The more time you spend with Mona,<br>the more inviting copying her will seem.</div>\n  </div>\n</div>\n<div class=\"mb-5 section-spacer\">&nbsp;</div>\n<div class=\"card card-section bg-dark text-warning shadow\">\n  <div class=\"section card-body mb-0 my-2\">\n    <div class=\"paragraph card-text card-stanza my-5 text-center\">As the saying goes,<br>eyes are windows to the soul.</div>\n    <div class=\"paragraph card-text card-stanza my-5 text-center\">And that should be the first thing you learn,<br>Mona's eyes are a dream to learn from.</div>\n    <div class=\"paragraph card-text card-stanza my-5 text-center\">But also an invitation,<br>to more complex arrangements.</div>\n    <div class=\"paragraph card-text card-stanza my-5 text-center\">Today those can be found by searching for,<br>\"<a href=\"https://www.qwant.com/?client=opensearch&q=eye+painting+tutorial&t=images\">eye painting tutorial</a>\" on an image search engine.</div>\n    <div class=\"paragraph card-text card-stanza my-5 text-center\">This is one of the rare few cases,<br>where a video tutorial <strong>may not</strong> be better.</div>\n    <div class=\"paragraph card-text card-stanza my-5 text-center\">A still image that shows all the steps,<br>gives you more time to master the details.</div>\n  </div>\n</div>\n<div class=\"mb-5 section-spacer\">&nbsp;</div>\n<div class=\"card card-section bg-dark text-warning shadow\">\n  <div class=\"section card-body mb-0 my-2\">\n    <div class=\"paragraph card-text card-stanza my-5 text-center\">While it is tempting to draw the eyes,<br>by just drawing until they are done.</div>\n    <div class=\"paragraph card-text card-stanza my-5 text-center\">It is faster and more reliable,<br>to create a little system of four or eight steps.</div>\n    <div class=\"paragraph card-text card-stanza my-5 text-center\">In most cases you probably won't need the extra detail,<br>and you maybe able to skip some steps.</div>\n    <div class=\"paragraph card-text card-stanza my-5 text-center\">But be mindful of your portfolio,<br>the extra details make for a wonderful presentation of your abilities.</div>\n  </div>\n</div>\n<div class=\"mb-5 section-spacer\">&nbsp;</div>\n<div class=\"card card-section bg-dark text-warning shadow\">\n  <div class=\"section card-body mb-0 my-2\">\n    <div class=\"paragraph card-text card-stanza my-5 text-center\">Even though Mona Lisa is magically simple,<br>all the details are still there, and you decide how far you want to go.</div>\n    <div class=\"paragraph card-text card-stanza my-5 text-center\">Beyond that,<br>you can change the style of eyes.</div>\n    <div class=\"paragraph card-text card-stanza my-5 text-center\">I like Pop Surrealism so I make my bigger,<br>and more colorful.</div>\n  </div>\n</div>\n<div class=\"mb-5 section-spacer\">&nbsp;</div>\n<div class=\"card card-section bg-dark text-warning shadow\">\n  <div class=\"section card-body mb-0 my-2\">\n    <div class=\"paragraph card-text card-stanza my-5 text-center\">If you are using Krita hit the \"M\" key from time to time,<br>to see a mirrored version of your painting.</div>\n    <div class=\"paragraph card-text card-stanza my-5 text-center\">Our eyes fill in blanks,<br>it is really good to see the portrait from a different side.</div>\n    <div class=\"paragraph card-text card-stanza my-5 text-center\">Take good care of your layers, name them well,<br>and always keep the ones you are not using locked, at least at first.</div>\n    <div class=\"paragraph card-text card-stanza my-5 text-center\">Try to change hue of your reference image to a more skin-like tone,<br>there is no end to the lessons she can teach.</div>\n  </div>\n</div>\n<div class=\"mb-5 section-spacer\">&nbsp;</div>\n<div class=\"card card-section bg-dark text-warning shadow\">\n  <div class=\"section card-body mb-0 my-2\">\n    <div class=\"paragraph card-text card-stanza my-5 text-center\">It is OK not to like computers,<br>and paint on canvas or wooden panels.</div>\n    <div class=\"paragraph card-text card-stanza my-5 text-center\">But you should still try learning Krita, or GIMP,<br>and take all the time and tutorials in the world.</div>\n  </div>\n</div>\n<div class=\"mb-5 section-spacer\">&nbsp;</div>\n<div class=\"card card-section bg-dark text-warning shadow\">\n  <div class=\"section card-body mb-0 my-2\">\n    <div class=\"paragraph card-text card-stanza my-5 text-center\">Once you set your first painting as your phone background,<br>everything will change.</div>\n    <div class=\"paragraph card-text card-stanza my-5 text-center\">You will have no doubt about your artistic abilities,<br>and what art is for.</div>\n    <div class=\"paragraph card-text card-stanza my-5 text-center\">Once you get to your first exhibition,<br>be sure to print out many strikes, key-chains, posters, and paint some shoes as well.</div>\n    <div class=\"paragraph card-text card-stanza my-5 text-center\">And Art is a kind of class,<br>in which you create your own style, rather than just buying copy at the store.</div>\n    <div class=\"paragraph card-text card-stanza my-5 text-center\">By subtle analogy to art,<br>we learn to create all kinds of other things.</div>\n    <div class=\"paragraph card-text card-stanza my-5 text-center\">And we discover that there are no limits to what we can learn on our own,<br>so as long as it is interesting to us.</div>\n  </div>\n</div>",
  "print": "<div class=\"section avoid-break-inside\" style=\"padding-bottom: 2rem;\">\n  <div class=\"paragraph\">Mona Lisa is a great teacher,<br>the portrait is very simple and friendly.</div>\n  <div class=\"paragraph\">Leonardo does a great job showing us,<br>the essentials without sacrificing beauty.</div>\n  <div class=\"paragraph\">The more time you spend with Mona,<br>the more inviting copying her will seem.</div>\n</div>\n<div class=\"section avoid-break-inside\" style=\"padding-bottom: 2rem;\">\n  <br>\n</div>\n<div class=\"section avoid-break-inside\" style=\"padding-bottom: 2rem;\">\n  <div class=\"paragraph\">As the saying goes,<br>eyes are windows to the soul.</div>\n  <div class=\"paragraph\">And that should be the first thing you learn,<br>Mona's eyes are a dream to learn from.</div>\n  <div class=\"paragraph\">But also an invitation,<br>to more complex arrangements.</div>\n  <div class=\"paragraph\">Today those can be found by searching for,<br>\"<span>eye painting tutorial<sup>[1]</sup></span>\" on an image search engine.</div>\n  <div class=\"paragraph\">This is one of the rare few cases,<br>where a video tutorial <strong>may not</strong> be better.</div>\n  <div class=\"paragraph\">A still image that shows all the steps,<br>gives you more time to master the details.</div>\n</div>\n<div class=\"section avoid-break-inside\" style=\"padding-bottom: 2rem;\">\n  <br>\n</div>\n<div class=\"section avoid-break-inside\" style=\"padding-bottom: 2rem;\">\n  <div class=\"paragraph\">While it is tempting to draw the eyes,<br>by just drawing until they are done.</div>\n  <div class=\"paragraph\">It is faster and more reliable,<br>to create a little system of four or eight steps.</div>\n  <div class=\"paragraph\">In most cases you probably won't need the extra detail,<br>and you maybe able to skip some steps.</div>\n  <div class=\"paragraph\">But be mindful of your portfolio,<br>the extra details make for a wonderful presentation of your abilities.</div>\n</div>\n<div class=\"section avoid-break-inside\" style=\"padding-bottom: 2rem;\">\n  <br>\n</div>\n<div class=\"section avoid-break-inside\" style=\"padding-bottom: 2rem;\">\n  <div class=\"paragraph\">Even though Mona Lisa is magically simple,<br>all the details are still there, and you decide how far you want to go.</div>\n  <div class=\"paragraph\">Beyond that,<br>you can change the style of eyes.</div>\n  <div class=\"paragraph\">I like Pop Surrealism so I make my bigger,<br>and more colorful.</div>\n</div>\n<div class=\"section avoid-break-inside\" style=\"padding-bottom: 2rem;\">\n  <br>\n</div>\n<div class=\"section avoid-break-inside\" style=\"padding-bottom: 2rem;\">\n  <div class=\"paragraph\">If you are using Krita hit the \"M\" key from time to time,<br>to see a mirrored version of your painting.</div>\n  <div class=\"paragraph\">Our eyes fill in blanks,<br>it is really good to see the portrait from a different side.</div>\n  <div class=\"paragraph\">Take good care of your layers, name them well,<br>and always keep the ones you are not using locked, at least at first.</div>\n  <div class=\"paragraph\">Try to change hue of your reference image to a more skin-like tone,<br>there is no end to the lessons she can teach.</div>\n</div>\n<div class=\"section avoid-break-inside\" style=\"padding-bottom: 2rem;\">\n  <br>\n</div>\n<div class=\"section avoid-break-inside\" style=\"padding-bottom: 2rem;\">\n  <div class=\"paragraph\">It is OK not to like computers,<br>and paint on canvas or wooden panels.</div>\n  <div class=\"paragraph\">But you should still try learning Krita, or GIMP,<br>and take all the time and tutorials in the world.</div>\n</div>\n<div class=\"section avoid-break-inside\" style=\"padding-bottom: 2rem;\">\n  <br>\n</div>\n<div class=\"section avoid-break-inside\" style=\"padding-bottom: 2rem;\">\n  <div class=\"paragraph\">Once you set your first painting as your phone background,<br>everything will change.</div>\n  <div class=\"paragraph\">You will have no doubt about your artistic abilities,<br>and what art is for.</div>\n  <div class=\"paragraph\">Once you get to your first exhibition,<br>be sure to print out many strikes, key-chains, posters, and paint some shoes as well.</div>\n  <div class=\"paragraph\">And Art is a kind of class,<br>in which you create your own style, rather than just buying copy at the store.</div>\n  <div class=\"paragraph\">By subtle analogy to art,<br>we learn to create all kinds of other things.</div>\n  <div class=\"paragraph\">And we discover that there are no limits to what we can learn on our own,<br>so as long as it is interesting to us.</div>\n</div>\n<div class=\"break-after\">&nbsp;</div>\n<div>\n  <div class=\"section\" style=\"padding-bottom: 1rem;\">References</div>\n  <div>[1]: https://www.qwant.com/?client=opensearch&q=eye+painting+tutorial&t=images</div>\n</div>",
  "text": "Mona Lisa is a great teacher,\nthe portrait is very simple and friendly.\nLeonardo does a great job showing us,\nthe essentials without sacrificing beauty.\nThe more time you spend with Mona,\nthe more inviting copying her will seem.\n\nAs the saying goes,\neyes are windows to the soul.\nAnd that should be the first thing you learn,\nMona's eyes are a dream to learn from.\nBut also an invitation,\nto more complex arrangements.\nToday those can be found by searching for,\n\"eye painting tutorial[1]\" on an image search engine.\nThis is one of the rare few cases,\nwhere a video tutorial may not be better.\nA still image that shows all the steps,\ngives you more time to master the details.\n\nWhile it is tempting to draw the eyes,\nby just drawing until they are done.\nIt is faster and more reliable,\nto create a little system of four or eight steps.\nIn most cases you probably won't need the extra detail,\nand you maybe able to skip some steps.\nBut be mindful of your portfolio,\nthe extra details make for a wonderful presentation of your abilities.\n\nEven though Mona Lisa is magically simple,\nall the details are still there, and you decide how far you want to go.\nBeyond that,\nyou can change the style of eyes.\nI like Pop Surrealism so I make my bigger,\nand more colorful.\n\nIf you are using Krita hit the \"M\" key from time to time,\nto see a mirrored version of your painting.\nOur eyes fill in blanks,\nit is really good to see the portrait from a different side.\nTake good care of your layers, name them well,\nand always keep the ones you are not using locked, at least at first.\nTry to change hue of your reference image to a more skin-like tone,\nthere is no end to the lessons she can teach.\n\nIt is OK not to like computers,\nand paint on canvas or wooden panels.\nBut you should still try learning Krita, or GIMP,\nand take all the time and tutorials in the world.\n\nOnce you set your first painting as your phone background,\neverything will change.\nYou will have no doubt about your artistic abilities,\nand what art is for.\nOnce you get to your first exhibition,\nbe sure to print out many strikes, key-chains, posters, and paint some shoes as well.\nAnd Art is a kind of class,\nin which you create your own style, rather than just buying copy at the store.\nBy subtle analogy to art,\nwe learn to create all kinds of other things.\nAnd we discover that there are no limits to what we can learn on our own,\nso as long as it is interesting to us.\n \nReferences\n[1]: https://www.qwant.com/?client=opensearch&q=eye+painting+tutorial&t=images",
  "images": [],
  "links": [
    {
      "title": "eye painting tutorial",
      "url": "https://www.qwant.com/?client=opensearch&q=eye+painting+tutorial&t=images",
      "hostname": "www.qwant.com"
    }
  ]
}