{
  "name": "furkies-purrkies-poetry-0400",
  "title": "Every Human Being",
  "date": "2021-04-04T23:34:18.513Z",
  "image": "poetry-0400-illustration.jpg",
  "audio": "poetry-0400.mp3",
  "artwork": "https://unsplash.com/photos/Ppckx1ce6SM",
  "id": "furkies-purrkies-poetry-0400",
  "attachments": {},
  "guid": "49e7acce-2691-4fb3-a67f-984194a56ba4",
  "html": "<div class=\"section\">\n  <p>Every Human Being,</p>\n  <p>is responsible for helping the world grow.</p>\n</div>\n\n<div class=\"section\">\n  <p>By continuing to support,</p>\n  <p>or creating new things that hold us back.</p>\n</div>\n\n<div class=\"section\">\n  <p>We cause suffering of the worst kind,</p>\n  <p>a suffering that has no meaning.</p>\n</div>\n\n<div class=\"section\">\n  <hr>\n</div>\n\n<div class=\"section\">\n  <p>Think about the things that hold you back,</p>\n  <p>and begin thinking your way around them.</p>\n</div>\n\n<div class=\"section\">\n  <p>The only force that can help you,</p>\n  <p>are the other human beings who share in this endeavor.</p>\n</div>\n\n<div class=\"section\">\n  <hr>\n</div>\n\n<div class=\"section\">\n  <p>Humanity is your family,</p>\n  <p>all those who strive for Knowledge and Wisdom, and share in the dreams of a Loving World.</p>\n</div>\n\n<div class=\"section\">\n  <p>Those who profit from indoctrination, bondage, blindness, status-quo, or meaningless suffering,</p>\n  <p>have failed to grow up and entered a strange empty-minded parasitic or predatory state.</p>\n</div>\n\n<div class=\"section\">\n  <p>The propagators of misery who have warped every nation on earth,</p>\n  <p>are neither leaders, friends, nor family.</p>\n</div>\n\n<div class=\"section\">\n  <hr>\n</div>\n\n<div class=\"section\">\n  <p>For Humanity to advance forward we must build quickly,</p>\n  <p>erecting lightweight systems that are vulnerable to attacks.</p>\n</div>\n\n<div class=\"section\">\n  <p>We cannot hope to advance by building armored bridges,</p>\n  <p>because a liar will dig until they win their mindless games.</p>\n</div>\n\n<div class=\"section\">\n  <hr>\n</div>\n\n<div class=\"section\">\n  <p>For Humanity to grow in safety,</p>\n  <p>we must each accept the responsibility for our own self education.</p>\n</div>\n\n<div class=\"section\">\n  <p>We have to prevent each other from entering strange empty states,</p>\n  <p>and help each other grow toward wisdom and greatness.</p>\n</div>\n\n<div class=\"section\">\n  <p>It is either all of us, the entire family becoming Wise,</p>\n  <p>or none, as mindless parasites gnaw, erode and destroy the foundations.</p>\n</div>\n\n<div class=\"section\">\n  <hr>\n</div>\n\n<div class=\"section\">\n  <p>You must accept the responsibility that you once associated with Great Beings,</p>\n  <p>a Great being is just a grown up, it is the aim and hope of each and every one of us.</p>\n</div>\n\n<div class=\"section\">\n  <p>You cannot stand by as the world is held back by lack of vision or greed, or exploitation,</p>\n  <p>this is your world.</p>\n</div>\n\n<div class=\"section\">\n  <hr>\n</div>\n\n<div class=\"section\">\n  <p>There is no room for revenge and punishment, prisons and cages, and legal slavery in our world,</p>\n  <p>the fracturing of minds must be prevented by a Wise, Loving and Understanding Humanity.</p>\n</div>\n\n<div class=\"section\">\n  <p>Homelessness, poverty, and desperation must be prevented right now,</p>\n  <p>grant every newborn a free home, a free real and effective education, and a birthday gift of enough money to last a lifetime.</p>\n</div>\n\n<div class=\"section\">\n  <p>Who are we to push children into desperation, fake education, and poverty,</p>\n  <p>and pretend we know what we are talking about when we say a fair start is a bad idea?</p>\n</div>\n\n<div class=\"section\">\n  <hr>\n</div>\n\n<div class=\"section\">\n  <p>Books, Narrated Books especially,</p>\n  <p>will help you grow to see all the wrong that we are tricked into tolerating.</p>\n</div>\n\n<div class=\"section\">\n  <p>Push past those who will laugh at you for listening to books,</p>\n  <p>they are just ill and scared, and weak, and secretly hate the world.</p>\n</div>\n\n<div class=\"section\">\n  <hr>\n</div>\n\n<div class=\"section\">\n  <p>Do not just make decisions based on experience, observations and majority,</p>\n  <p>inherit hundreds or thousands of lifetimes from narrated books.</p>\n</div>\n\n<div class=\"section\">\n  <p>Before making decisions that dictate the life ahead of you,</p>\n  <p>build an independent and impeccable understanding of the world, so that you are not mislead.</p>\n</div>\n\n<div class=\"section\">\n  <p>In the privacy of your beautiful life,</p>\n  <p>learn about other struggles, and noble aims, and histories.</p>\n</div>\n\n<div class=\"section\">\n  <hr>\n</div>\n\n<div class=\"section\">\n  <p>We are one family, look beyond your nation to the entire world, to every city and every village,</p>\n  <p>and find a way to encourage the vulnerable to real and life changing education.</p>\n</div>\n\n<div class=\"section\">\n  <p>Stand up for Human Rights all across the world,</p>\n  <p>reject prisons, reject poverty; no child should ever need to face poverty.</p>\n</div>\n\n<div class=\"section\">\n  <hr>\n</div>\n\n<div class=\"section\">\n  <p>Stand up for Earth, because the same thing that puts children into poverty,</p>\n  <p>puts the future of earth into jeopardy, money must only be used for good and never for evil or wrong doing.</p>\n</div>\n\n<div class=\"section\">\n  <p>Disarmament, complete disarmament is possible so as long as we build real schools,</p>\n  <p>and help children learn for real, and meaningful and life changing paths and ideas, wars are rooted in lack of education and warped ideas.</p>\n</div>\n\n<div class=\"section\">\n  <p>We are one family, one people, we all have many different reasons to admire each other,</p>\n  <p>but we all need a common education, one that helps us grow in reality, and grow wise, and opens gateways to greatness.</p>\n</div>\n\n<div class=\"section\">\n  <hr>\n</div>\n\n<div class=\"section\">\n  <p>In a world where we unite in Knowledge and Hope, Peace and Wisdom, Foresight and Greatness,</p>\n  <p>our civilization will be free to flourish and grow, no longer held back by small minded ideas.</p>\n</div>\n\n<div class=\"section\">\n  <p>Together, we must build a wise and loving world,</p>\n  <p>a wise and loving future.</p>\n</div>",
  "bootstrap": "<div class=\"card card-section bg-dark text-warning shadow\">\n  <div class=\"section card-body mb-0 my-2\">\n    <div class=\"paragraph card-text card-stanza my-5 text-center\">Every Human Being,</div>\n    <div class=\"paragraph card-text card-stanza my-5 text-center\">is responsible for helping the world grow.</div>\n  </div>\n</div>\n<div class=\"card card-section bg-dark text-warning shadow\">\n  <div class=\"section card-body mb-0 my-2\">\n    <div class=\"paragraph card-text card-stanza my-5 text-center\">By continuing to support,</div>\n    <div class=\"paragraph card-text card-stanza my-5 text-center\">or creating new things that hold us back.</div>\n  </div>\n</div>\n<div class=\"card card-section bg-dark text-warning shadow\">\n  <div class=\"section card-body mb-0 my-2\">\n    <div class=\"paragraph card-text card-stanza my-5 text-center\">We cause suffering of the worst kind,</div>\n    <div class=\"paragraph card-text card-stanza my-5 text-center\">a suffering that has no meaning.</div>\n  </div>\n</div>\n<div class=\"mb-5 section-spacer\">&nbsp;</div>\n<div class=\"card card-section bg-dark text-warning shadow\">\n  <div class=\"section card-body mb-0 my-2\">\n    <div class=\"paragraph card-text card-stanza my-5 text-center\">Think about the things that hold you back,</div>\n    <div class=\"paragraph card-text card-stanza my-5 text-center\">and begin thinking your way around them.</div>\n  </div>\n</div>\n<div class=\"card card-section bg-dark text-warning shadow\">\n  <div class=\"section card-body mb-0 my-2\">\n    <div class=\"paragraph card-text card-stanza my-5 text-center\">The only force that can help you,</div>\n    <div class=\"paragraph card-text card-stanza my-5 text-center\">are the other human beings who share in this endeavor.</div>\n  </div>\n</div>\n<div class=\"mb-5 section-spacer\">&nbsp;</div>\n<div class=\"card card-section bg-dark text-warning shadow\">\n  <div class=\"section card-body mb-0 my-2\">\n    <div class=\"paragraph card-text card-stanza my-5 text-center\">Humanity is your family,</div>\n    <div class=\"paragraph card-text card-stanza my-5 text-center\">all those who strive for Knowledge and Wisdom, and share in the dreams of a Loving World.</div>\n  </div>\n</div>\n<div class=\"card card-section bg-dark text-warning shadow\">\n  <div class=\"section card-body mb-0 my-2\">\n    <div class=\"paragraph card-text card-stanza my-5 text-center\">Those who profit from indoctrination, bondage, blindness, status-quo, or meaningless suffering,</div>\n    <div class=\"paragraph card-text card-stanza my-5 text-center\">have failed to grow up and entered a strange empty-minded parasitic or predatory state.</div>\n  </div>\n</div>\n<div class=\"card card-section bg-dark text-warning shadow\">\n  <div class=\"section card-body mb-0 my-2\">\n    <div class=\"paragraph card-text card-stanza my-5 text-center\">The propagators of misery who have warped every nation on earth,</div>\n    <div class=\"paragraph card-text card-stanza my-5 text-center\">are neither leaders, friends, nor family.</div>\n  </div>\n</div>\n<div class=\"mb-5 section-spacer\">&nbsp;</div>\n<div class=\"card card-section bg-dark text-warning shadow\">\n  <div class=\"section card-body mb-0 my-2\">\n    <div class=\"paragraph card-text card-stanza my-5 text-center\">For Humanity to advance forward we must build quickly,</div>\n    <div class=\"paragraph card-text card-stanza my-5 text-center\">erecting lightweight systems that are vulnerable to attacks.</div>\n  </div>\n</div>\n<div class=\"card card-section bg-dark text-warning shadow\">\n  <div class=\"section card-body mb-0 my-2\">\n    <div class=\"paragraph card-text card-stanza my-5 text-center\">We cannot hope to advance by building armored bridges,</div>\n    <div class=\"paragraph card-text card-stanza my-5 text-center\">because a liar will dig until they win their mindless games.</div>\n  </div>\n</div>\n<div class=\"mb-5 section-spacer\">&nbsp;</div>\n<div class=\"card card-section bg-dark text-warning shadow\">\n  <div class=\"section card-body mb-0 my-2\">\n    <div class=\"paragraph card-text card-stanza my-5 text-center\">For Humanity to grow in safety,</div>\n    <div class=\"paragraph card-text card-stanza my-5 text-center\">we must each accept the responsibility for our own self education.</div>\n  </div>\n</div>\n<div class=\"card card-section bg-dark text-warning shadow\">\n  <div class=\"section card-body mb-0 my-2\">\n    <div class=\"paragraph card-text card-stanza my-5 text-center\">We have to prevent each other from entering strange empty states,</div>\n    <div class=\"paragraph card-text card-stanza my-5 text-center\">and help each other grow toward wisdom and greatness.</div>\n  </div>\n</div>\n<div class=\"card card-section bg-dark text-warning shadow\">\n  <div class=\"section card-body mb-0 my-2\">\n    <div class=\"paragraph card-text card-stanza my-5 text-center\">It is either all of us, the entire family becoming Wise,</div>\n    <div class=\"paragraph card-text card-stanza my-5 text-center\">or none, as mindless parasites gnaw, erode and destroy the foundations.</div>\n  </div>\n</div>\n<div class=\"mb-5 section-spacer\">&nbsp;</div>\n<div class=\"card card-section bg-dark text-warning shadow\">\n  <div class=\"section card-body mb-0 my-2\">\n    <div class=\"paragraph card-text card-stanza my-5 text-center\">You must accept the responsibility that you once associated with Great Beings,</div>\n    <div class=\"paragraph card-text card-stanza my-5 text-center\">a Great being is just a grown up, it is the aim and hope of each and every one of us.</div>\n  </div>\n</div>\n<div class=\"card card-section bg-dark text-warning shadow\">\n  <div class=\"section card-body mb-0 my-2\">\n    <div class=\"paragraph card-text card-stanza my-5 text-center\">You cannot stand by as the world is held back by lack of vision or greed, or exploitation,</div>\n    <div class=\"paragraph card-text card-stanza my-5 text-center\">this is your world.</div>\n  </div>\n</div>\n<div class=\"mb-5 section-spacer\">&nbsp;</div>\n<div class=\"card card-section bg-dark text-warning shadow\">\n  <div class=\"section card-body mb-0 my-2\">\n    <div class=\"paragraph card-text card-stanza my-5 text-center\">There is no room for revenge and punishment, prisons and cages, and legal slavery in our world,</div>\n    <div class=\"paragraph card-text card-stanza my-5 text-center\">the fracturing of minds must be prevented by a Wise, Loving and Understanding Humanity.</div>\n  </div>\n</div>\n<div class=\"card card-section bg-dark text-warning shadow\">\n  <div class=\"section card-body mb-0 my-2\">\n    <div class=\"paragraph card-text card-stanza my-5 text-center\">Homelessness, poverty, and desperation must be prevented right now,</div>\n    <div class=\"paragraph card-text card-stanza my-5 text-center\">grant every newborn a free home, a free real and effective education, and a birthday gift of enough money to last a lifetime.</div>\n  </div>\n</div>\n<div class=\"card card-section bg-dark text-warning shadow\">\n  <div class=\"section card-body mb-0 my-2\">\n    <div class=\"paragraph card-text card-stanza my-5 text-center\">Who are we to push children into desperation, fake education, and poverty,</div>\n    <div class=\"paragraph card-text card-stanza my-5 text-center\">and pretend we know what we are talking about when we say a fair start is a bad idea?</div>\n  </div>\n</div>\n<div class=\"mb-5 section-spacer\">&nbsp;</div>\n<div class=\"card card-section bg-dark text-warning shadow\">\n  <div class=\"section card-body mb-0 my-2\">\n    <div class=\"paragraph card-text card-stanza my-5 text-center\">Books, Narrated Books especially,</div>\n    <div class=\"paragraph card-text card-stanza my-5 text-center\">will help you grow to see all the wrong that we are tricked into tolerating.</div>\n  </div>\n</div>\n<div class=\"card card-section bg-dark text-warning shadow\">\n  <div class=\"section card-body mb-0 my-2\">\n    <div class=\"paragraph card-text card-stanza my-5 text-center\">Push past those who will laugh at you for listening to books,</div>\n    <div class=\"paragraph card-text card-stanza my-5 text-center\">they are just ill and scared, and weak, and secretly hate the world.</div>\n  </div>\n</div>\n<div class=\"mb-5 section-spacer\">&nbsp;</div>\n<div class=\"card card-section bg-dark text-warning shadow\">\n  <div class=\"section card-body mb-0 my-2\">\n    <div class=\"paragraph card-text card-stanza my-5 text-center\">Do not just make decisions based on experience, observations and majority,</div>\n    <div class=\"paragraph card-text card-stanza my-5 text-center\">inherit hundreds or thousands of lifetimes from narrated books.</div>\n  </div>\n</div>\n<div class=\"card card-section bg-dark text-warning shadow\">\n  <div class=\"section card-body mb-0 my-2\">\n    <div class=\"paragraph card-text card-stanza my-5 text-center\">Before making decisions that dictate the life ahead of you,</div>\n    <div class=\"paragraph card-text card-stanza my-5 text-center\">build an independent and impeccable understanding of the world, so that you are not mislead.</div>\n  </div>\n</div>\n<div class=\"card card-section bg-dark text-warning shadow\">\n  <div class=\"section card-body mb-0 my-2\">\n    <div class=\"paragraph card-text card-stanza my-5 text-center\">In the privacy of your beautiful life,</div>\n    <div class=\"paragraph card-text card-stanza my-5 text-center\">learn about other struggles, and noble aims, and histories.</div>\n  </div>\n</div>\n<div class=\"mb-5 section-spacer\">&nbsp;</div>\n<div class=\"card card-section bg-dark text-warning shadow\">\n  <div class=\"section card-body mb-0 my-2\">\n    <div class=\"paragraph card-text card-stanza my-5 text-center\">We are one family, look beyond your nation to the entire world, to every city and every village,</div>\n    <div class=\"paragraph card-text card-stanza my-5 text-center\">and find a way to encourage the vulnerable to real and life changing education.</div>\n  </div>\n</div>\n<div class=\"card card-section bg-dark text-warning shadow\">\n  <div class=\"section card-body mb-0 my-2\">\n    <div class=\"paragraph card-text card-stanza my-5 text-center\">Stand up for Human Rights all across the world,</div>\n    <div class=\"paragraph card-text card-stanza my-5 text-center\">reject prisons, reject poverty; no child should ever need to face poverty.</div>\n  </div>\n</div>\n<div class=\"mb-5 section-spacer\">&nbsp;</div>\n<div class=\"card card-section bg-dark text-warning shadow\">\n  <div class=\"section card-body mb-0 my-2\">\n    <div class=\"paragraph card-text card-stanza my-5 text-center\">Stand up for Earth, because the same thing that puts children into poverty,</div>\n    <div class=\"paragraph card-text card-stanza my-5 text-center\">puts the future of earth into jeopardy, money must only be used for good and never for evil or wrong doing.</div>\n  </div>\n</div>\n<div class=\"card card-section bg-dark text-warning shadow\">\n  <div class=\"section card-body mb-0 my-2\">\n    <div class=\"paragraph card-text card-stanza my-5 text-center\">Disarmament, complete disarmament is possible so as long as we build real schools,</div>\n    <div class=\"paragraph card-text card-stanza my-5 text-center\">and help children learn for real, and meaningful and life changing paths and ideas, wars are rooted in lack of education and warped ideas.</div>\n  </div>\n</div>\n<div class=\"card card-section bg-dark text-warning shadow\">\n  <div class=\"section card-body mb-0 my-2\">\n    <div class=\"paragraph card-text card-stanza my-5 text-center\">We are one family, one people, we all have many different reasons to admire each other,</div>\n    <div class=\"paragraph card-text card-stanza my-5 text-center\">but we all need a common education, one that helps us grow in reality, and grow wise, and opens gateways to greatness.</div>\n  </div>\n</div>\n<div class=\"mb-5 section-spacer\">&nbsp;</div>\n<div class=\"card card-section bg-dark text-warning shadow\">\n  <div class=\"section card-body mb-0 my-2\">\n    <div class=\"paragraph card-text card-stanza my-5 text-center\">In a world where we unite in Knowledge and Hope, Peace and Wisdom, Foresight and Greatness,</div>\n    <div class=\"paragraph card-text card-stanza my-5 text-center\">our civilization will be free to flourish and grow, no longer held back by small minded ideas.</div>\n  </div>\n</div>\n<div class=\"card card-section bg-dark text-warning shadow\">\n  <div class=\"section card-body mb-0 my-2\">\n    <div class=\"paragraph card-text card-stanza my-5 text-center\">Together, we must build a wise and loving world,</div>\n    <div class=\"paragraph card-text card-stanza my-5 text-center\">a wise and loving future.</div>\n  </div>\n</div>",
  "print": "<div class=\"section avoid-break-inside\" style=\"padding-bottom: 2rem;\">\n  <div class=\"paragraph\">Every Human Being,</div>\n  <div class=\"paragraph\">is responsible for helping the world grow.</div>\n</div>\n<div class=\"section avoid-break-inside\" style=\"padding-bottom: 2rem;\">\n  <div class=\"paragraph\">By continuing to support,</div>\n  <div class=\"paragraph\">or creating new things that hold us back.</div>\n</div>\n<div class=\"section avoid-break-inside\" style=\"padding-bottom: 2rem;\">\n  <div class=\"paragraph\">We cause suffering of the worst kind,</div>\n  <div class=\"paragraph\">a suffering that has no meaning.</div>\n</div>\n<div class=\"section avoid-break-inside\" style=\"padding-bottom: 2rem;\">\n  <br>\n</div>\n<div class=\"section avoid-break-inside\" style=\"padding-bottom: 2rem;\">\n  <div class=\"paragraph\">Think about the things that hold you back,</div>\n  <div class=\"paragraph\">and begin thinking your way around them.</div>\n</div>\n<div class=\"section avoid-break-inside\" style=\"padding-bottom: 2rem;\">\n  <div class=\"paragraph\">The only force that can help you,</div>\n  <div class=\"paragraph\">are the other human beings who share in this endeavor.</div>\n</div>\n<div class=\"section avoid-break-inside\" style=\"padding-bottom: 2rem;\">\n  <br>\n</div>\n<div class=\"section avoid-break-inside\" style=\"padding-bottom: 2rem;\">\n  <div class=\"paragraph\">Humanity is your family,</div>\n  <div class=\"paragraph\">all those who strive for Knowledge and Wisdom, and share in the dreams of a Loving World.</div>\n</div>\n<div class=\"section avoid-break-inside\" style=\"padding-bottom: 2rem;\">\n  <div class=\"paragraph\">Those who profit from indoctrination, bondage, blindness, status-quo, or meaningless suffering,</div>\n  <div class=\"paragraph\">have failed to grow up and entered a strange empty-minded parasitic or predatory state.</div>\n</div>\n<div class=\"section avoid-break-inside\" style=\"padding-bottom: 2rem;\">\n  <div class=\"paragraph\">The propagators of misery who have warped every nation on earth,</div>\n  <div class=\"paragraph\">are neither leaders, friends, nor family.</div>\n</div>\n<div class=\"section avoid-break-inside\" style=\"padding-bottom: 2rem;\">\n  <br>\n</div>\n<div class=\"section avoid-break-inside\" style=\"padding-bottom: 2rem;\">\n  <div class=\"paragraph\">For Humanity to advance forward we must build quickly,</div>\n  <div class=\"paragraph\">erecting lightweight systems that are vulnerable to attacks.</div>\n</div>\n<div class=\"section avoid-break-inside\" style=\"padding-bottom: 2rem;\">\n  <div class=\"paragraph\">We cannot hope to advance by building armored bridges,</div>\n  <div class=\"paragraph\">because a liar will dig until they win their mindless games.</div>\n</div>\n<div class=\"section avoid-break-inside\" style=\"padding-bottom: 2rem;\">\n  <br>\n</div>\n<div class=\"section avoid-break-inside\" style=\"padding-bottom: 2rem;\">\n  <div class=\"paragraph\">For Humanity to grow in safety,</div>\n  <div class=\"paragraph\">we must each accept the responsibility for our own self education.</div>\n</div>\n<div class=\"section avoid-break-inside\" style=\"padding-bottom: 2rem;\">\n  <div class=\"paragraph\">We have to prevent each other from entering strange empty states,</div>\n  <div class=\"paragraph\">and help each other grow toward wisdom and greatness.</div>\n</div>\n<div class=\"section avoid-break-inside\" style=\"padding-bottom: 2rem;\">\n  <div class=\"paragraph\">It is either all of us, the entire family becoming Wise,</div>\n  <div class=\"paragraph\">or none, as mindless parasites gnaw, erode and destroy the foundations.</div>\n</div>\n<div class=\"section avoid-break-inside\" style=\"padding-bottom: 2rem;\">\n  <br>\n</div>\n<div class=\"section avoid-break-inside\" style=\"padding-bottom: 2rem;\">\n  <div class=\"paragraph\">You must accept the responsibility that you once associated with Great Beings,</div>\n  <div class=\"paragraph\">a Great being is just a grown up, it is the aim and hope of each and every one of us.</div>\n</div>\n<div class=\"section avoid-break-inside\" style=\"padding-bottom: 2rem;\">\n  <div class=\"paragraph\">You cannot stand by as the world is held back by lack of vision or greed, or exploitation,</div>\n  <div class=\"paragraph\">this is your world.</div>\n</div>\n<div class=\"section avoid-break-inside\" style=\"padding-bottom: 2rem;\">\n  <br>\n</div>\n<div class=\"section avoid-break-inside\" style=\"padding-bottom: 2rem;\">\n  <div class=\"paragraph\">There is no room for revenge and punishment, prisons and cages, and legal slavery in our world,</div>\n  <div class=\"paragraph\">the fracturing of minds must be prevented by a Wise, Loving and Understanding Humanity.</div>\n</div>\n<div class=\"section avoid-break-inside\" style=\"padding-bottom: 2rem;\">\n  <div class=\"paragraph\">Homelessness, poverty, and desperation must be prevented right now,</div>\n  <div class=\"paragraph\">grant every newborn a free home, a free real and effective education, and a birthday gift of enough money to last a lifetime.</div>\n</div>\n<div class=\"section avoid-break-inside\" style=\"padding-bottom: 2rem;\">\n  <div class=\"paragraph\">Who are we to push children into desperation, fake education, and poverty,</div>\n  <div class=\"paragraph\">and pretend we know what we are talking about when we say a fair start is a bad idea?</div>\n</div>\n<div class=\"section avoid-break-inside\" style=\"padding-bottom: 2rem;\">\n  <br>\n</div>\n<div class=\"section avoid-break-inside\" style=\"padding-bottom: 2rem;\">\n  <div class=\"paragraph\">Books, Narrated Books especially,</div>\n  <div class=\"paragraph\">will help you grow to see all the wrong that we are tricked into tolerating.</div>\n</div>\n<div class=\"section avoid-break-inside\" style=\"padding-bottom: 2rem;\">\n  <div class=\"paragraph\">Push past those who will laugh at you for listening to books,</div>\n  <div class=\"paragraph\">they are just ill and scared, and weak, and secretly hate the world.</div>\n</div>\n<div class=\"section avoid-break-inside\" style=\"padding-bottom: 2rem;\">\n  <br>\n</div>\n<div class=\"section avoid-break-inside\" style=\"padding-bottom: 2rem;\">\n  <div class=\"paragraph\">Do not just make decisions based on experience, observations and majority,</div>\n  <div class=\"paragraph\">inherit hundreds or thousands of lifetimes from narrated books.</div>\n</div>\n<div class=\"section avoid-break-inside\" style=\"padding-bottom: 2rem;\">\n  <div class=\"paragraph\">Before making decisions that dictate the life ahead of you,</div>\n  <div class=\"paragraph\">build an independent and impeccable understanding of the world, so that you are not mislead.</div>\n</div>\n<div class=\"section avoid-break-inside\" style=\"padding-bottom: 2rem;\">\n  <div class=\"paragraph\">In the privacy of your beautiful life,</div>\n  <div class=\"paragraph\">learn about other struggles, and noble aims, and histories.</div>\n</div>\n<div class=\"section avoid-break-inside\" style=\"padding-bottom: 2rem;\">\n  <br>\n</div>\n<div class=\"section avoid-break-inside\" style=\"padding-bottom: 2rem;\">\n  <div class=\"paragraph\">We are one family, look beyond your nation to the entire world, to every city and every village,</div>\n  <div class=\"paragraph\">and find a way to encourage the vulnerable to real and life changing education.</div>\n</div>\n<div class=\"section avoid-break-inside\" style=\"padding-bottom: 2rem;\">\n  <div class=\"paragraph\">Stand up for Human Rights all across the world,</div>\n  <div class=\"paragraph\">reject prisons, reject poverty; no child should ever need to face poverty.</div>\n</div>\n<div class=\"section avoid-break-inside\" style=\"padding-bottom: 2rem;\">\n  <br>\n</div>\n<div class=\"section avoid-break-inside\" style=\"padding-bottom: 2rem;\">\n  <div class=\"paragraph\">Stand up for Earth, because the same thing that puts children into poverty,</div>\n  <div class=\"paragraph\">puts the future of earth into jeopardy, money must only be used for good and never for evil or wrong doing.</div>\n</div>\n<div class=\"section avoid-break-inside\" style=\"padding-bottom: 2rem;\">\n  <div class=\"paragraph\">Disarmament, complete disarmament is possible so as long as we build real schools,</div>\n  <div class=\"paragraph\">and help children learn for real, and meaningful and life changing paths and ideas, wars are rooted in lack of education and warped ideas.</div>\n</div>\n<div class=\"section avoid-break-inside\" style=\"padding-bottom: 2rem;\">\n  <div class=\"paragraph\">We are one family, one people, we all have many different reasons to admire each other,</div>\n  <div class=\"paragraph\">but we all need a common education, one that helps us grow in reality, and grow wise, and opens gateways to greatness.</div>\n</div>\n<div class=\"section avoid-break-inside\" style=\"padding-bottom: 2rem;\">\n  <br>\n</div>\n<div class=\"section avoid-break-inside\" style=\"padding-bottom: 2rem;\">\n  <div class=\"paragraph\">In a world where we unite in Knowledge and Hope, Peace and Wisdom, Foresight and Greatness,</div>\n  <div class=\"paragraph\">our civilization will be free to flourish and grow, no longer held back by small minded ideas.</div>\n</div>\n<div class=\"section avoid-break-inside\" style=\"padding-bottom: 2rem;\">\n  <div class=\"paragraph\">Together, we must build a wise and loving world,</div>\n  <div class=\"paragraph\">a wise and loving future.</div>\n</div>",
  "text": "Every Human Being,\nis responsible for helping the world grow.\nBy continuing to support,\nor creating new things that hold us back.\nWe cause suffering of the worst kind,\na suffering that has no meaning.\n\nThink about the things that hold you back,\nand begin thinking your way around them.\nThe only force that can help you,\nare the other human beings who share in this endeavor.\n\nHumanity is your family,\nall those who strive for Knowledge and Wisdom, and share in the dreams of a Loving World.\nThose who profit from indoctrination, bondage, blindness, status-quo, or meaningless suffering,\nhave failed to grow up and entered a strange empty-minded parasitic or predatory state.\nThe propagators of misery who have warped every nation on earth,\nare neither leaders, friends, nor family.\n\nFor Humanity to advance forward we must build quickly,\nerecting lightweight systems that are vulnerable to attacks.\nWe cannot hope to advance by building armored bridges,\nbecause a liar will dig until they win their mindless games.\n\nFor Humanity to grow in safety,\nwe must each accept the responsibility for our own self education.\nWe have to prevent each other from entering strange empty states,\nand help each other grow toward wisdom and greatness.\nIt is either all of us, the entire family becoming Wise,\nor none, as mindless parasites gnaw, erode and destroy the foundations.\n\nYou must accept the responsibility that you once associated with Great Beings,\na Great being is just a grown up, it is the aim and hope of each and every one of us.\nYou cannot stand by as the world is held back by lack of vision or greed, or exploitation,\nthis is your world.\n\nThere is no room for revenge and punishment, prisons and cages, and legal slavery in our world,\nthe fracturing of minds must be prevented by a Wise, Loving and Understanding Humanity.\nHomelessness, poverty, and desperation must be prevented right now,\ngrant every newborn a free home, a free real and effective education, and a birthday gift of enough money to last a lifetime.\nWho are we to push children into desperation, fake education, and poverty,\nand pretend we know what we are talking about when we say a fair start is a bad idea?\n\nBooks, Narrated Books especially,\nwill help you grow to see all the wrong that we are tricked into tolerating.\nPush past those who will laugh at you for listening to books,\nthey are just ill and scared, and weak, and secretly hate the world.\n\nDo not just make decisions based on experience, observations and majority,\ninherit hundreds or thousands of lifetimes from narrated books.\nBefore making decisions that dictate the life ahead of you,\nbuild an independent and impeccable understanding of the world, so that you are not mislead.\nIn the privacy of your beautiful life,\nlearn about other struggles, and noble aims, and histories.\n\nWe are one family, look beyond your nation to the entire world, to every city and every village,\nand find a way to encourage the vulnerable to real and life changing education.\nStand up for Human Rights all across the world,\nreject prisons, reject poverty; no child should ever need to face poverty.\n\nStand up for Earth, because the same thing that puts children into poverty,\nputs the future of earth into jeopardy, money must only be used for good and never for evil or wrong doing.\nDisarmament, complete disarmament is possible so as long as we build real schools,\nand help children learn for real, and meaningful and life changing paths and ideas, wars are rooted in lack of education and warped ideas.\nWe are one family, one people, we all have many different reasons to admire each other,\nbut we all need a common education, one that helps us grow in reality, and grow wise, and opens gateways to greatness.\n\nIn a world where we unite in Knowledge and Hope, Peace and Wisdom, Foresight and Greatness,\nour civilization will be free to flourish and grow, no longer held back by small minded ideas.\nTogether, we must build a wise and loving world,\na wise and loving future.",
  "images": [],
  "links": []
}