{
  "name": "furkies-purrkies-poetry-0757",
  "id": "furkies-purrkies-poetry-0757",
  "title": "A Wiser World And A Better View",
  "date": "2022-03-28T01:05:31.071Z",
  "image": "poetry-0757-illustration.jpg",
  "artwork": "https://unsplash.com/photos/YNestQrvx80",
  "audio": "poetry-0757.mp3",
  "guid": "ed04326b-7fb2-4989-ae01-1c3278eac55c",
  "html": "<div class=\"section\">\n  <p>Teachers could teach for real,<br>but that's just not the deal.</p>\n  <p>They are there to follow,<br>slowly turning hollow.</p>\n  <p>Selling out for perks,<br>that is how the world works.</p>\n</div>\n<div class=\"section\">\n  <hr>\n</div>\n<div class=\"section\">\n  <p>Teenagers shouldn't tolerate this,<br>or they’ll end up in the same abyss.</p>\n  <p>Nor should new teachers cheat,<br>or even take a back seat.</p>\n</div>\n<div class=\"section\">\n  <hr>\n</div>\n<div class=\"section\">\n  <p>Medicine is priced for profit,<br>as high as CEO’s see fit.</p>\n  <p>Bank systems keep us poor,<br>dictators tell their prisoners to endure.</p>\n  <p>Teenagers are shipped to war,<br>because of some oath they swore.</p>\n  <p>Weapons are created to fight,<br>and never for doing what is right.</p>\n  <p>News is always spun with a slant,<br>little more than a rant.</p>\n  <p>Governments are staffed by lairs,<br>who only aim to light fires.</p>\n  <p>And the broken school,<br>only aims to sell you as a tool.</p>\n</div>\n<div class=\"section\">\n  <hr>\n</div>\n<div class=\"section\">\n  <p>All of this works like a chain,<br>where every link propagates pain.</p>\n  <p>We pretend everything is fine,<br>but we have long ago crossed the line.</p>\n  <p>This cycle of mindlessness must end,<br>as we can no longer pretend.</p>\n</div>\n<div class=\"section\">\n  <hr>\n</div>\n<div class=\"section\">\n  <p>You need real knowledge and explanation,<br>not a fake education.</p>\n  <p>Face the boogie man in school,<br>do not let them think you are a fool.</p>\n  <p>Don’t memorize, don’t pretend,<br>that does not lead to a very good end.</p>\n  <p>Hand in the tests blank,<br>tell them it is not a prank.</p>\n  <p>Tell them you need a real education,<br>and the madness will end with your generation.</p>\n  <p>Until you have real teachers,<br>and not just zombie preachers.</p>\n  <p>Read hundreds life changing books,<br>and you’ll do well standing up to all the crooks.</p>\n  <p>Help others your age,<br>make sure you’re all on the same page.</p>\n  <p>In the absence of teachers,<br>you become the teachers.</p>\n  <p>In the absence of peace and security,<br>you have to rise sooner to your maturity.</p>\n  <p>Generations younger to you,<br>deserve a wiser world and a better view.</p>\n</div>",
  "bootstrap": "<div class=\"card card-section bg-dark text-warning shadow\">\n  <div class=\"section card-body mb-0 my-2\">\n    <div class=\"paragraph card-text card-stanza my-5 text-center\">Teachers could teach for real,<br>but that's just not the deal.</div>\n    <div class=\"paragraph card-text card-stanza my-5 text-center\">They are there to follow,<br>slowly turning hollow.</div>\n    <div class=\"paragraph card-text card-stanza my-5 text-center\">Selling out for perks,<br>that is how the world works.</div>\n  </div>\n</div>\n<div class=\"mb-5 section-spacer\">&nbsp;</div>\n<div class=\"card card-section bg-dark text-warning shadow\">\n  <div class=\"section card-body mb-0 my-2\">\n    <div class=\"paragraph card-text card-stanza my-5 text-center\">Teenagers shouldn't tolerate this,<br>or they’ll end up in the same abyss.</div>\n    <div class=\"paragraph card-text card-stanza my-5 text-center\">Nor should new teachers cheat,<br>or even take a back seat.</div>\n  </div>\n</div>\n<div class=\"mb-5 section-spacer\">&nbsp;</div>\n<div class=\"card card-section bg-dark text-warning shadow\">\n  <div class=\"section card-body mb-0 my-2\">\n    <div class=\"paragraph card-text card-stanza my-5 text-center\">Medicine is priced for profit,<br>as high as CEO’s see fit.</div>\n    <div class=\"paragraph card-text card-stanza my-5 text-center\">Bank systems keep us poor,<br>dictators tell their prisoners to endure.</div>\n    <div class=\"paragraph card-text card-stanza my-5 text-center\">Teenagers are shipped to war,<br>because of some oath they swore.</div>\n    <div class=\"paragraph card-text card-stanza my-5 text-center\">Weapons are created to fight,<br>and never for doing what is right.</div>\n    <div class=\"paragraph card-text card-stanza my-5 text-center\">News is always spun with a slant,<br>little more than a rant.</div>\n    <div class=\"paragraph card-text card-stanza my-5 text-center\">Governments are staffed by lairs,<br>who only aim to light fires.</div>\n    <div class=\"paragraph card-text card-stanza my-5 text-center\">And the broken school,<br>only aims to sell you as a tool.</div>\n  </div>\n</div>\n<div class=\"mb-5 section-spacer\">&nbsp;</div>\n<div class=\"card card-section bg-dark text-warning shadow\">\n  <div class=\"section card-body mb-0 my-2\">\n    <div class=\"paragraph card-text card-stanza my-5 text-center\">All of this works like a chain,<br>where every link propagates pain.</div>\n    <div class=\"paragraph card-text card-stanza my-5 text-center\">We pretend everything is fine,<br>but we have long ago crossed the line.</div>\n    <div class=\"paragraph card-text card-stanza my-5 text-center\">This cycle of mindlessness must end,<br>as we can no longer pretend.</div>\n  </div>\n</div>\n<div class=\"mb-5 section-spacer\">&nbsp;</div>\n<div class=\"card card-section bg-dark text-warning shadow\">\n  <div class=\"section card-body mb-0 my-2\">\n    <div class=\"paragraph card-text card-stanza my-5 text-center\">You need real knowledge and explanation,<br>not a fake education.</div>\n    <div class=\"paragraph card-text card-stanza my-5 text-center\">Face the boogie man in school,<br>do not let them think you are a fool.</div>\n    <div class=\"paragraph card-text card-stanza my-5 text-center\">Don’t memorize, don’t pretend,<br>that does not lead to a very good end.</div>\n    <div class=\"paragraph card-text card-stanza my-5 text-center\">Hand in the tests blank,<br>tell them it is not a prank.</div>\n    <div class=\"paragraph card-text card-stanza my-5 text-center\">Tell them you need a real education,<br>and the madness will end with your generation.</div>\n    <div class=\"paragraph card-text card-stanza my-5 text-center\">Until you have real teachers,<br>and not just zombie preachers.</div>\n    <div class=\"paragraph card-text card-stanza my-5 text-center\">Read hundreds life changing books,<br>and you’ll do well standing up to all the crooks.</div>\n    <div class=\"paragraph card-text card-stanza my-5 text-center\">Help others your age,<br>make sure you’re all on the same page.</div>\n    <div class=\"paragraph card-text card-stanza my-5 text-center\">In the absence of teachers,<br>you become the teachers.</div>\n    <div class=\"paragraph card-text card-stanza my-5 text-center\">In the absence of peace and security,<br>you have to rise sooner to your maturity.</div>\n    <div class=\"paragraph card-text card-stanza my-5 text-center\">Generations younger to you,<br>deserve a wiser world and a better view.</div>\n  </div>\n</div>",
  "print": "<div class=\"section avoid-break-inside\" style=\"padding-bottom: 2rem;\">\n  <div class=\"paragraph\">Teachers could teach for real,<br>but that's just not the deal.</div>\n  <div class=\"paragraph\">They are there to follow,<br>slowly turning hollow.</div>\n  <div class=\"paragraph\">Selling out for perks,<br>that is how the world works.</div>\n</div>\n<div class=\"section avoid-break-inside\" style=\"padding-bottom: 2rem;\">\n  <br>\n</div>\n<div class=\"section avoid-break-inside\" style=\"padding-bottom: 2rem;\">\n  <div class=\"paragraph\">Teenagers shouldn't tolerate this,<br>or they’ll end up in the same abyss.</div>\n  <div class=\"paragraph\">Nor should new teachers cheat,<br>or even take a back seat.</div>\n</div>\n<div class=\"section avoid-break-inside\" style=\"padding-bottom: 2rem;\">\n  <br>\n</div>\n<div class=\"section avoid-break-inside\" style=\"padding-bottom: 2rem;\">\n  <div class=\"paragraph\">Medicine is priced for profit,<br>as high as CEO’s see fit.</div>\n  <div class=\"paragraph\">Bank systems keep us poor,<br>dictators tell their prisoners to endure.</div>\n  <div class=\"paragraph\">Teenagers are shipped to war,<br>because of some oath they swore.</div>\n  <div class=\"paragraph\">Weapons are created to fight,<br>and never for doing what is right.</div>\n  <div class=\"paragraph\">News is always spun with a slant,<br>little more than a rant.</div>\n  <div class=\"paragraph\">Governments are staffed by lairs,<br>who only aim to light fires.</div>\n  <div class=\"paragraph\">And the broken school,<br>only aims to sell you as a tool.</div>\n</div>\n<div class=\"section avoid-break-inside\" style=\"padding-bottom: 2rem;\">\n  <br>\n</div>\n<div class=\"section avoid-break-inside\" style=\"padding-bottom: 2rem;\">\n  <div class=\"paragraph\">All of this works like a chain,<br>where every link propagates pain.</div>\n  <div class=\"paragraph\">We pretend everything is fine,<br>but we have long ago crossed the line.</div>\n  <div class=\"paragraph\">This cycle of mindlessness must end,<br>as we can no longer pretend.</div>\n</div>\n<div class=\"section avoid-break-inside\" style=\"padding-bottom: 2rem;\">\n  <br>\n</div>\n<div class=\"section avoid-break-inside\" style=\"padding-bottom: 2rem;\">\n  <div class=\"paragraph\">You need real knowledge and explanation,<br>not a fake education.</div>\n  <div class=\"paragraph\">Face the boogie man in school,<br>do not let them think you are a fool.</div>\n  <div class=\"paragraph\">Don’t memorize, don’t pretend,<br>that does not lead to a very good end.</div>\n  <div class=\"paragraph\">Hand in the tests blank,<br>tell them it is not a prank.</div>\n  <div class=\"paragraph\">Tell them you need a real education,<br>and the madness will end with your generation.</div>\n  <div class=\"paragraph\">Until you have real teachers,<br>and not just zombie preachers.</div>\n  <div class=\"paragraph\">Read hundreds life changing books,<br>and you’ll do well standing up to all the crooks.</div>\n  <div class=\"paragraph\">Help others your age,<br>make sure you’re all on the same page.</div>\n  <div class=\"paragraph\">In the absence of teachers,<br>you become the teachers.</div>\n  <div class=\"paragraph\">In the absence of peace and security,<br>you have to rise sooner to your maturity.</div>\n  <div class=\"paragraph\">Generations younger to you,<br>deserve a wiser world and a better view.</div>\n</div>",
  "text": "Teachers could teach for real,\nbut that's just not the deal.\nThey are there to follow,\nslowly turning hollow.\nSelling out for perks,\nthat is how the world works.\n\nTeenagers shouldn't tolerate this,\nor they’ll end up in the same abyss.\nNor should new teachers cheat,\nor even take a back seat.\n\nMedicine is priced for profit,\nas high as CEO’s see fit.\nBank systems keep us poor,\ndictators tell their prisoners to endure.\nTeenagers are shipped to war,\nbecause of some oath they swore.\nWeapons are created to fight,\nand never for doing what is right.\nNews is always spun with a slant,\nlittle more than a rant.\nGovernments are staffed by lairs,\nwho only aim to light fires.\nAnd the broken school,\nonly aims to sell you as a tool.\n\nAll of this works like a chain,\nwhere every link propagates pain.\nWe pretend everything is fine,\nbut we have long ago crossed the line.\nThis cycle of mindlessness must end,\nas we can no longer pretend.\n\nYou need real knowledge and explanation,\nnot a fake education.\nFace the boogie man in school,\ndo not let them think you are a fool.\nDon’t memorize, don’t pretend,\nthat does not lead to a very good end.\nHand in the tests blank,\ntell them it is not a prank.\nTell them you need a real education,\nand the madness will end with your generation.\nUntil you have real teachers,\nand not just zombie preachers.\nRead hundreds life changing books,\nand you’ll do well standing up to all the crooks.\nHelp others your age,\nmake sure you’re all on the same page.\nIn the absence of teachers,\nyou become the teachers.\nIn the absence of peace and security,\nyou have to rise sooner to your maturity.\nGenerations younger to you,\ndeserve a wiser world and a better view.",
  "images": [],
  "links": []
}