{
  "title": "You Have No Limits",
  "date": "2020-11-05T04:37:58.643Z",
  "image": "poetry-0249-illustration.jpg",
  "audio": "poetry-0249.mp3",
  "artwork": "https://unsplash.com/photos/M5xVtIv1Lo8",
  "id": "furkies-purrkies-poetry-0249",
  "attachments": {},
  "guid": "15c677e7-d62d-4787-9d2d-cb487da3956d"
}
