{
  "name": "furkies-purrkies-poetry-0056",
  "title": "Harold and Wally",
  "date": "2020-05-04T02:34:27.184Z",
  "image": "poetry-0056-illustration.jpg",
  "audio": "poetry-0056.mp3",
  "id": "furkies-purrkies-poetry-0056",
  "attachments": {},
  "guid": "c77c5e17-2a23-4408-a410-038de3955f30",
  "html": "<div class=\"section\">\n  <p>Bicycling some years ago, out thirty miles away,</p>\n  <p>along a road, and an ancient highway.</p>\n</div>\n<div class=\"section\">\n  <p>I found an overpass where I could perch upon,</p>\n  <p>and I discovered I wasn&apos;t really alone.</p>\n</div>\n<div class=\"section\">\n  <p>I figured it was the a huge love story,</p>\n  <p>about a boy named Harold and a girl named Wally.</p>\n</div>\n<div class=\"section\">\n  <p>She was a Book Worm, a Hero, and a Graffiti Artist,</p>\n  <p>and Harold loved her because she was the Smartest!</p>\n</div>\n<div class=\"section\">\n  <p>Wally fell in love with Harold,</p>\n  <p>as she knew he was a Poet with a Heart of Gold.</p>\n</div>\n<div class=\"section\">\n  <p>In 1980 some 40 years ago,</p>\n  <p>the two adventurers gave it ago.</p>\n</div>\n<div class=\"section\">\n  <p>They set off for Center State,</p>\n  <p>and that became their Longest Date!</p>\n</div>\n<div class=\"section\">\n  <p>It all their walking, it never rained,</p>\n  <p>and it never too sunny, neither complained.</p>\n</div>\n<div class=\"section\">\n  <p>They waked holding hands together for a hundred miles,</p>\n  <p>their adventure was amazing, nothing but smiles.</p>\n</div>\n<div class=\"section\">\n  <p>When they finally arrived at Mount Pleasant,</p>\n  <p>Harold quietly gave Wally her present.</p>\n</div>\n<div class=\"section\">\n  <p>It was a little book of foolish rhyme,</p>\n  <p>that Harold wrote over a long stretch of time.</p>\n</div>\n<div class=\"section\">\n  <p>They both just happily turned 57,</p>\n  <p>their life together is pure Heaven.</p>\n</div>\n<div class=\"section\">\n  <p>Both are super smart, extremely young, and very strong,</p>\n  <p>their sweet love for each other, is lifelong.</p>\n</div>\n<div class=\"section\">\n  <p>They still do their Mount Pleasant walk,</p>\n  <p>holding hands for days, sleeping-in until nine o&apos;clock.</p>\n</div>\n<div class=\"section\">\n  <p>Harold makes really, really good Vegan Lettuce Wraps,</p>\n  <p>and Wally is a master at reading Maps.</p>\n</div>\n<div class=\"section\">\n  <p>They&apos;ve been to all kinds of interesting places,</p>\n  <p>and they always arrive with beaming and smiling faces.</p>\n</div>\n<div class=\"section\">\n  <p><a href=\"https://goo.gl/maps/U6ei19ABd6xffTcr6\">Here</a> is where I took the <a href=\"https://goo.gl/maps/kkGAfW13PLsA6H3D8\">photo</a> few years ago,</p>\n  <p>just in case any of you guys want to go.</p>\n</div>",
  "bootstrap": "<div class=\"card card-section bg-dark text-warning shadow\">\n  <div class=\"section card-body mb-0 my-2\">\n    <div class=\"paragraph card-text card-stanza my-5 text-center\">Bicycling some years ago, out thirty miles away,</div>\n    <div class=\"paragraph card-text card-stanza my-5 text-center\">along a road, and an ancient highway.</div>\n  </div>\n</div>\n<div class=\"card card-section bg-dark text-warning shadow\">\n  <div class=\"section card-body mb-0 my-2\">\n    <div class=\"paragraph card-text card-stanza my-5 text-center\">I found an overpass where I could perch upon,</div>\n    <div class=\"paragraph card-text card-stanza my-5 text-center\">and I discovered I wasn't really alone.</div>\n  </div>\n</div>\n<div class=\"card card-section bg-dark text-warning shadow\">\n  <div class=\"section card-body mb-0 my-2\">\n    <div class=\"paragraph card-text card-stanza my-5 text-center\">I figured it was the a huge love story,</div>\n    <div class=\"paragraph card-text card-stanza my-5 text-center\">about a boy named Harold and a girl named Wally.</div>\n  </div>\n</div>\n<div class=\"card card-section bg-dark text-warning shadow\">\n  <div class=\"section card-body mb-0 my-2\">\n    <div class=\"paragraph card-text card-stanza my-5 text-center\">She was a Book Worm, a Hero, and a Graffiti Artist,</div>\n    <div class=\"paragraph card-text card-stanza my-5 text-center\">and Harold loved her because she was the Smartest!</div>\n  </div>\n</div>\n<div class=\"card card-section bg-dark text-warning shadow\">\n  <div class=\"section card-body mb-0 my-2\">\n    <div class=\"paragraph card-text card-stanza my-5 text-center\">Wally fell in love with Harold,</div>\n    <div class=\"paragraph card-text card-stanza my-5 text-center\">as she knew he was a Poet with a Heart of Gold.</div>\n  </div>\n</div>\n<div class=\"card card-section bg-dark text-warning shadow\">\n  <div class=\"section card-body mb-0 my-2\">\n    <div class=\"paragraph card-text card-stanza my-5 text-center\">In 1980 some 40 years ago,</div>\n    <div class=\"paragraph card-text card-stanza my-5 text-center\">the two adventurers gave it ago.</div>\n  </div>\n</div>\n<div class=\"card card-section bg-dark text-warning shadow\">\n  <div class=\"section card-body mb-0 my-2\">\n    <div class=\"paragraph card-text card-stanza my-5 text-center\">They set off for Center State,</div>\n    <div class=\"paragraph card-text card-stanza my-5 text-center\">and that became their Longest Date!</div>\n  </div>\n</div>\n<div class=\"card card-section bg-dark text-warning shadow\">\n  <div class=\"section card-body mb-0 my-2\">\n    <div class=\"paragraph card-text card-stanza my-5 text-center\">It all their walking, it never rained,</div>\n    <div class=\"paragraph card-text card-stanza my-5 text-center\">and it never too sunny, neither complained.</div>\n  </div>\n</div>\n<div class=\"card card-section bg-dark text-warning shadow\">\n  <div class=\"section card-body mb-0 my-2\">\n    <div class=\"paragraph card-text card-stanza my-5 text-center\">They waked holding hands together for a hundred miles,</div>\n    <div class=\"paragraph card-text card-stanza my-5 text-center\">their adventure was amazing, nothing but smiles.</div>\n  </div>\n</div>\n<div class=\"card card-section bg-dark text-warning shadow\">\n  <div class=\"section card-body mb-0 my-2\">\n    <div class=\"paragraph card-text card-stanza my-5 text-center\">When they finally arrived at Mount Pleasant,</div>\n    <div class=\"paragraph card-text card-stanza my-5 text-center\">Harold quietly gave Wally her present.</div>\n  </div>\n</div>\n<div class=\"card card-section bg-dark text-warning shadow\">\n  <div class=\"section card-body mb-0 my-2\">\n    <div class=\"paragraph card-text card-stanza my-5 text-center\">It was a little book of foolish rhyme,</div>\n    <div class=\"paragraph card-text card-stanza my-5 text-center\">that Harold wrote over a long stretch of time.</div>\n  </div>\n</div>\n<div class=\"card card-section bg-dark text-warning shadow\">\n  <div class=\"section card-body mb-0 my-2\">\n    <div class=\"paragraph card-text card-stanza my-5 text-center\">They both just happily turned 57,</div>\n    <div class=\"paragraph card-text card-stanza my-5 text-center\">their life together is pure Heaven.</div>\n  </div>\n</div>\n<div class=\"card card-section bg-dark text-warning shadow\">\n  <div class=\"section card-body mb-0 my-2\">\n    <div class=\"paragraph card-text card-stanza my-5 text-center\">Both are super smart, extremely young, and very strong,</div>\n    <div class=\"paragraph card-text card-stanza my-5 text-center\">their sweet love for each other, is lifelong.</div>\n  </div>\n</div>\n<div class=\"card card-section bg-dark text-warning shadow\">\n  <div class=\"section card-body mb-0 my-2\">\n    <div class=\"paragraph card-text card-stanza my-5 text-center\">They still do their Mount Pleasant walk,</div>\n    <div class=\"paragraph card-text card-stanza my-5 text-center\">holding hands for days, sleeping-in until nine o'clock.</div>\n  </div>\n</div>\n<div class=\"card card-section bg-dark text-warning shadow\">\n  <div class=\"section card-body mb-0 my-2\">\n    <div class=\"paragraph card-text card-stanza my-5 text-center\">Harold makes really, really good Vegan Lettuce Wraps,</div>\n    <div class=\"paragraph card-text card-stanza my-5 text-center\">and Wally is a master at reading Maps.</div>\n  </div>\n</div>\n<div class=\"card card-section bg-dark text-warning shadow\">\n  <div class=\"section card-body mb-0 my-2\">\n    <div class=\"paragraph card-text card-stanza my-5 text-center\">They've been to all kinds of interesting places,</div>\n    <div class=\"paragraph card-text card-stanza my-5 text-center\">and they always arrive with beaming and smiling faces.</div>\n  </div>\n</div>\n<div class=\"card card-section bg-dark text-warning shadow\">\n  <div class=\"section card-body mb-0 my-2\">\n    <div class=\"paragraph card-text card-stanza my-5 text-center\"><a href=\"https://goo.gl/maps/U6ei19ABd6xffTcr6\">Here</a> is where I took the <a href=\"https://goo.gl/maps/kkGAfW13PLsA6H3D8\">photo</a> few years ago,</div>\n    <div class=\"paragraph card-text card-stanza my-5 text-center\">just in case any of you guys want to go.</div>\n  </div>\n</div>",
  "print": "<div class=\"section avoid-break-inside\" style=\"padding-bottom: 2rem;\">\n  <div class=\"paragraph\">Bicycling some years ago, out thirty miles away,</div>\n  <div class=\"paragraph\">along a road, and an ancient highway.</div>\n</div>\n<div class=\"section avoid-break-inside\" style=\"padding-bottom: 2rem;\">\n  <div class=\"paragraph\">I found an overpass where I could perch upon,</div>\n  <div class=\"paragraph\">and I discovered I wasn't really alone.</div>\n</div>\n<div class=\"section avoid-break-inside\" style=\"padding-bottom: 2rem;\">\n  <div class=\"paragraph\">I figured it was the a huge love story,</div>\n  <div class=\"paragraph\">about a boy named Harold and a girl named Wally.</div>\n</div>\n<div class=\"section avoid-break-inside\" style=\"padding-bottom: 2rem;\">\n  <div class=\"paragraph\">She was a Book Worm, a Hero, and a Graffiti Artist,</div>\n  <div class=\"paragraph\">and Harold loved her because she was the Smartest!</div>\n</div>\n<div class=\"section avoid-break-inside\" style=\"padding-bottom: 2rem;\">\n  <div class=\"paragraph\">Wally fell in love with Harold,</div>\n  <div class=\"paragraph\">as she knew he was a Poet with a Heart of Gold.</div>\n</div>\n<div class=\"section avoid-break-inside\" style=\"padding-bottom: 2rem;\">\n  <div class=\"paragraph\">In 1980 some 40 years ago,</div>\n  <div class=\"paragraph\">the two adventurers gave it ago.</div>\n</div>\n<div class=\"section avoid-break-inside\" style=\"padding-bottom: 2rem;\">\n  <div class=\"paragraph\">They set off for Center State,</div>\n  <div class=\"paragraph\">and that became their Longest Date!</div>\n</div>\n<div class=\"section avoid-break-inside\" style=\"padding-bottom: 2rem;\">\n  <div class=\"paragraph\">It all their walking, it never rained,</div>\n  <div class=\"paragraph\">and it never too sunny, neither complained.</div>\n</div>\n<div class=\"section avoid-break-inside\" style=\"padding-bottom: 2rem;\">\n  <div class=\"paragraph\">They waked holding hands together for a hundred miles,</div>\n  <div class=\"paragraph\">their adventure was amazing, nothing but smiles.</div>\n</div>\n<div class=\"section avoid-break-inside\" style=\"padding-bottom: 2rem;\">\n  <div class=\"paragraph\">When they finally arrived at Mount Pleasant,</div>\n  <div class=\"paragraph\">Harold quietly gave Wally her present.</div>\n</div>\n<div class=\"section avoid-break-inside\" style=\"padding-bottom: 2rem;\">\n  <div class=\"paragraph\">It was a little book of foolish rhyme,</div>\n  <div class=\"paragraph\">that Harold wrote over a long stretch of time.</div>\n</div>\n<div class=\"section avoid-break-inside\" style=\"padding-bottom: 2rem;\">\n  <div class=\"paragraph\">They both just happily turned 57,</div>\n  <div class=\"paragraph\">their life together is pure Heaven.</div>\n</div>\n<div class=\"section avoid-break-inside\" style=\"padding-bottom: 2rem;\">\n  <div class=\"paragraph\">Both are super smart, extremely young, and very strong,</div>\n  <div class=\"paragraph\">their sweet love for each other, is lifelong.</div>\n</div>\n<div class=\"section avoid-break-inside\" style=\"padding-bottom: 2rem;\">\n  <div class=\"paragraph\">They still do their Mount Pleasant walk,</div>\n  <div class=\"paragraph\">holding hands for days, sleeping-in until nine o'clock.</div>\n</div>\n<div class=\"section avoid-break-inside\" style=\"padding-bottom: 2rem;\">\n  <div class=\"paragraph\">Harold makes really, really good Vegan Lettuce Wraps,</div>\n  <div class=\"paragraph\">and Wally is a master at reading Maps.</div>\n</div>\n<div class=\"section avoid-break-inside\" style=\"padding-bottom: 2rem;\">\n  <div class=\"paragraph\">They've been to all kinds of interesting places,</div>\n  <div class=\"paragraph\">and they always arrive with beaming and smiling faces.</div>\n</div>\n<div class=\"section avoid-break-inside\" style=\"padding-bottom: 2rem;\">\n  <div class=\"paragraph\"><span>Here<sup>[1]</sup></span> is where I took the <span>photo<sup>[2]</sup></span> few years ago,</div>\n  <div class=\"paragraph\">just in case any of you guys want to go.</div>\n</div>\n<div class=\"break-after\">&nbsp;</div>\n<div>\n  <div class=\"section\" style=\"padding-bottom: 1rem;\">References</div>\n  <div>[1]: https://goo.gl/maps/U6ei19ABd6xffTcr6</div>\n  <div>[2]: https://goo.gl/maps/kkGAfW13PLsA6H3D8</div>\n</div>",
  "text": "Bicycling some years ago, out thirty miles away,\nalong a road, and an ancient highway.\nI found an overpass where I could perch upon,\nand I discovered I wasn't really alone.\nI figured it was the a huge love story,\nabout a boy named Harold and a girl named Wally.\nShe was a Book Worm, a Hero, and a Graffiti Artist,\nand Harold loved her because she was the Smartest!\nWally fell in love with Harold,\nas she knew he was a Poet with a Heart of Gold.\nIn 1980 some 40 years ago,\nthe two adventurers gave it ago.\nThey set off for Center State,\nand that became their Longest Date!\nIt all their walking, it never rained,\nand it never too sunny, neither complained.\nThey waked holding hands together for a hundred miles,\ntheir adventure was amazing, nothing but smiles.\nWhen they finally arrived at Mount Pleasant,\nHarold quietly gave Wally her present.\nIt was a little book of foolish rhyme,\nthat Harold wrote over a long stretch of time.\nThey both just happily turned 57,\ntheir life together is pure Heaven.\nBoth are super smart, extremely young, and very strong,\ntheir sweet love for each other, is lifelong.\nThey still do their Mount Pleasant walk,\nholding hands for days, sleeping-in until nine o'clock.\nHarold makes really, really good Vegan Lettuce Wraps,\nand Wally is a master at reading Maps.\nThey've been to all kinds of interesting places,\nand they always arrive with beaming and smiling faces.\nHere[1] is where I took the photo[2] few years ago,\njust in case any of you guys want to go.\n \nReferences\n[1]: https://goo.gl/maps/U6ei19ABd6xffTcr6\n[2]: https://goo.gl/maps/kkGAfW13PLsA6H3D8",
  "images": [],
  "links": [
    {
      "title": "Here",
      "url": "https://goo.gl/maps/U6ei19ABd6xffTcr6",
      "hostname": "goo.gl"
    },
    {
      "title": "photo",
      "url": "https://goo.gl/maps/kkGAfW13PLsA6H3D8",
      "hostname": "goo.gl"
    }
  ]
}