{
  "name": "furkies-purrkies-poetry-0111",
  "title": "A Couple Of Sandwiches Shy Of A Picnic",
  "date": "2020-06-19T03:11:39.159Z",
  "image": "poetry-0111-illustration.jpg",
  "audio": "poetry-0111.mp3",
  "id": "furkies-purrkies-poetry-0111",
  "attachments": {},
  "guid": "e5ef7f8d-8ab0-4fc9-9567-857038eb3ce6",
  "html": "<div class=\"section\">\n  <p>There cannot be jogging without acting crazy,</p>\n  <p>if you&apos;re not snarling and spitting you&apos;re just being lazy.</p>\n</div>\n<div class=\"section\">\n  <p>Not to mention that its discussing to swallow those little files,</p>\n  <p>you&apos;re not supposed to <strong>keep</strong> them, they&apos;re not your prize.</p>\n</div>\n<div class=\"section\">\n  <p>Ultimately, it makes no difference what race it may be,</p>\n  <p>manners go out the window, the moment you bend your knee.</p>\n</div>\n<div class=\"section\">\n  <hr>\n</div>\n<div class=\"section\">\n  <p>Plus, nobody really runs to win the race,</p>\n  <p>we just set the correct pace and run to find our place in Space.</p>\n</div>\n<div class=\"section\">\n  <p>The physical challenge is found in taking each step,</p>\n  <p>and not stopping until the last rep.</p>\n</div>\n<div class=\"section\">\n  <p>But that&apos;s easy, it is the simplest thing about it all,</p>\n  <p>your body just gets used to it, and has a ball.</p>\n</div>\n<div class=\"section\">\n  <hr>\n</div>\n<div class=\"section\">\n  <p>Jogging is mostly a little reminder that we are to turn our life to Art,</p>\n  <p>that we are to overcome our limits, and become super smart.</p>\n</div>\n<div class=\"section\">\n  <p>The actual achievement is found in finishing what we start,</p>\n  <p>and the thousand other things we finish, by <em>subtle analogy</em> to this odd Art.</p>\n</div>\n<div class=\"section\">\n  <p>In a word, we jog for our future selves,</p>\n  <p>so that they may become <strong>proud</strong> of themselves.</p>\n</div>",
  "bootstrap": "<div class=\"card card-section bg-dark text-warning shadow\">\n  <div class=\"section card-body mb-0 my-2\">\n    <div class=\"paragraph card-text card-stanza my-5 text-center\">There cannot be jogging without acting crazy,</div>\n    <div class=\"paragraph card-text card-stanza my-5 text-center\">if you're not snarling and spitting you're just being lazy.</div>\n  </div>\n</div>\n<div class=\"card card-section bg-dark text-warning shadow\">\n  <div class=\"section card-body mb-0 my-2\">\n    <div class=\"paragraph card-text card-stanza my-5 text-center\">Not to mention that its discussing to swallow those little files,</div>\n    <div class=\"paragraph card-text card-stanza my-5 text-center\">you're not supposed to <strong>keep</strong> them, they're not your prize.</div>\n  </div>\n</div>\n<div class=\"card card-section bg-dark text-warning shadow\">\n  <div class=\"section card-body mb-0 my-2\">\n    <div class=\"paragraph card-text card-stanza my-5 text-center\">Ultimately, it makes no difference what race it may be,</div>\n    <div class=\"paragraph card-text card-stanza my-5 text-center\">manners go out the window, the moment you bend your knee.</div>\n  </div>\n</div>\n<div class=\"mb-5 section-spacer\">&nbsp;</div>\n<div class=\"card card-section bg-dark text-warning shadow\">\n  <div class=\"section card-body mb-0 my-2\">\n    <div class=\"paragraph card-text card-stanza my-5 text-center\">Plus, nobody really runs to win the race,</div>\n    <div class=\"paragraph card-text card-stanza my-5 text-center\">we just set the correct pace and run to find our place in Space.</div>\n  </div>\n</div>\n<div class=\"card card-section bg-dark text-warning shadow\">\n  <div class=\"section card-body mb-0 my-2\">\n    <div class=\"paragraph card-text card-stanza my-5 text-center\">The physical challenge is found in taking each step,</div>\n    <div class=\"paragraph card-text card-stanza my-5 text-center\">and not stopping until the last rep.</div>\n  </div>\n</div>\n<div class=\"card card-section bg-dark text-warning shadow\">\n  <div class=\"section card-body mb-0 my-2\">\n    <div class=\"paragraph card-text card-stanza my-5 text-center\">But that's easy, it is the simplest thing about it all,</div>\n    <div class=\"paragraph card-text card-stanza my-5 text-center\">your body just gets used to it, and has a ball.</div>\n  </div>\n</div>\n<div class=\"mb-5 section-spacer\">&nbsp;</div>\n<div class=\"card card-section bg-dark text-warning shadow\">\n  <div class=\"section card-body mb-0 my-2\">\n    <div class=\"paragraph card-text card-stanza my-5 text-center\">Jogging is mostly a little reminder that we are to turn our life to Art,</div>\n    <div class=\"paragraph card-text card-stanza my-5 text-center\">that we are to overcome our limits, and become super smart.</div>\n  </div>\n</div>\n<div class=\"card card-section bg-dark text-warning shadow\">\n  <div class=\"section card-body mb-0 my-2\">\n    <div class=\"paragraph card-text card-stanza my-5 text-center\">The actual achievement is found in finishing what we start,</div>\n    <div class=\"paragraph card-text card-stanza my-5 text-center\">and the thousand other things we finish, by <em>subtle analogy</em> to this odd Art.</div>\n  </div>\n</div>\n<div class=\"card card-section bg-dark text-warning shadow\">\n  <div class=\"section card-body mb-0 my-2\">\n    <div class=\"paragraph card-text card-stanza my-5 text-center\">In a word, we jog for our future selves,</div>\n    <div class=\"paragraph card-text card-stanza my-5 text-center\">so that they may become <strong>proud</strong> of themselves.</div>\n  </div>\n</div>",
  "print": "<div class=\"section avoid-break-inside\" style=\"padding-bottom: 2rem;\">\n  <div class=\"paragraph\">There cannot be jogging without acting crazy,</div>\n  <div class=\"paragraph\">if you're not snarling and spitting you're just being lazy.</div>\n</div>\n<div class=\"section avoid-break-inside\" style=\"padding-bottom: 2rem;\">\n  <div class=\"paragraph\">Not to mention that its discussing to swallow those little files,</div>\n  <div class=\"paragraph\">you're not supposed to <strong>keep</strong> them, they're not your prize.</div>\n</div>\n<div class=\"section avoid-break-inside\" style=\"padding-bottom: 2rem;\">\n  <div class=\"paragraph\">Ultimately, it makes no difference what race it may be,</div>\n  <div class=\"paragraph\">manners go out the window, the moment you bend your knee.</div>\n</div>\n<div class=\"section avoid-break-inside\" style=\"padding-bottom: 2rem;\">\n  <br>\n</div>\n<div class=\"section avoid-break-inside\" style=\"padding-bottom: 2rem;\">\n  <div class=\"paragraph\">Plus, nobody really runs to win the race,</div>\n  <div class=\"paragraph\">we just set the correct pace and run to find our place in Space.</div>\n</div>\n<div class=\"section avoid-break-inside\" style=\"padding-bottom: 2rem;\">\n  <div class=\"paragraph\">The physical challenge is found in taking each step,</div>\n  <div class=\"paragraph\">and not stopping until the last rep.</div>\n</div>\n<div class=\"section avoid-break-inside\" style=\"padding-bottom: 2rem;\">\n  <div class=\"paragraph\">But that's easy, it is the simplest thing about it all,</div>\n  <div class=\"paragraph\">your body just gets used to it, and has a ball.</div>\n</div>\n<div class=\"section avoid-break-inside\" style=\"padding-bottom: 2rem;\">\n  <br>\n</div>\n<div class=\"section avoid-break-inside\" style=\"padding-bottom: 2rem;\">\n  <div class=\"paragraph\">Jogging is mostly a little reminder that we are to turn our life to Art,</div>\n  <div class=\"paragraph\">that we are to overcome our limits, and become super smart.</div>\n</div>\n<div class=\"section avoid-break-inside\" style=\"padding-bottom: 2rem;\">\n  <div class=\"paragraph\">The actual achievement is found in finishing what we start,</div>\n  <div class=\"paragraph\">and the thousand other things we finish, by <em>subtle analogy</em> to this odd Art.</div>\n</div>\n<div class=\"section avoid-break-inside\" style=\"padding-bottom: 2rem;\">\n  <div class=\"paragraph\">In a word, we jog for our future selves,</div>\n  <div class=\"paragraph\">so that they may become <strong>proud</strong> of themselves.</div>\n</div>",
  "text": "There cannot be jogging without acting crazy,\nif you're not snarling and spitting you're just being lazy.\nNot to mention that its discussing to swallow those little files,\nyou're not supposed to keep them, they're not your prize.\nUltimately, it makes no difference what race it may be,\nmanners go out the window, the moment you bend your knee.\n\nPlus, nobody really runs to win the race,\nwe just set the correct pace and run to find our place in Space.\nThe physical challenge is found in taking each step,\nand not stopping until the last rep.\nBut that's easy, it is the simplest thing about it all,\nyour body just gets used to it, and has a ball.\n\nJogging is mostly a little reminder that we are to turn our life to Art,\nthat we are to overcome our limits, and become super smart.\nThe actual achievement is found in finishing what we start,\nand the thousand other things we finish, by subtle analogy to this odd Art.\nIn a word, we jog for our future selves,\nso that they may become proud of themselves.",
  "images": [],
  "links": []
}