{
  "name": "furkies-purrkies-poetry-0519",
  "id": "furkies-purrkies-poetry-0519",
  "title": "The Journal Of Colors: The Selection Of Color For Your Art Is An Art In It Self",
  "date": "2021-08-02T02:09:46.884Z",
  "image": "poetry-0519-illustration.jpg",
  "artwork": "https://unsplash.com/photos/Mm2mqnBoJ1U",
  "audio": "poetry-0519.mp3",
  "guid": "6da2e491-fe16-4760-b14c-f1263ca4b2c5",
  "html": "<div class=\"section\">\n  <p>Here I will ask you to slow down where it comes to color,<br>but I also present an obvious shortcut in the end, both ways will have you learning in a jiffy.</p>\n  <p>Color combinations are all around you,<br>but you need to discover and catalog them.</p>\n  <p>And then create your artworks in harmony,<br>with the colors that speak the most.</p>\n  <p>One of the horrible tragedies of school,<br>are those cheap pre-mixed paints, they speak nothing.</p>\n  <p>They attack art,<br>they hurt it.</p>\n</div>\n<div class=\"section\">\n  <hr>\n</div>\n<div class=\"section\">\n  <p>Long before you move beyond Graphite and<br>coloring with the gentle beauty of Coffee and Tea.</p>\n  <p>You need to begin keeping a journal of colors,<br>don't make difficult mixtures.</p>\n  <p>Make sure that you dot next to your color,<br>what you have mixed, so that you can re-create the colors, without guessing.</p>\n  <p>As you go through your day,<br>pay attention to color combinations around you.</p>\n  <p>If you find something interesting try capturing it in your color journal,<br>you buy a mini watercolor kit with all the classical colors and keep it near by.</p>\n</div>\n<div class=\"section\">\n  <hr>\n</div>\n<div class=\"section\">\n  <p>Alas, speed they slowly towards color,<br>the world of mixing color is a world of poetry.</p>\n  <p>Worlds of poetry can not be hurried,<br>they have to come to you.</p>\n  <p>If you are not sure which colors go where,<br>then don't paint, yet, just let the under-painting be.</p>\n</div>\n<div class=\"section\">\n  <hr>\n</div>\n<div class=\"section\">\n  <p>Note that colors are best added, slowly and in layers,<br>so that you can keep watching your art develop.</p>\n  <p>Watercolors for example are a high precision instrument,<br>because you create the color semi-transparent layer by semi-transparent layer.</p>\n  <p>You don't paint with the color you need,<br>you apply transparent layers of color until they stack up to give you the color you wanted.</p>\n</div>\n<div class=\"section\">\n  <hr>\n</div>\n<div class=\"section\">\n  <p>Moreover, there are these impossibly beautiful color combinations,<br>Purple & Orange Gold, White Pearl & Raging Red, Shining Gold & Scarlet, Green Pea & Leaf Brown, Sad Teal and Lost Pink.</p>\n  <p>And when you create your portrait around those colors,<br>the colors will have their own say.</p>\n  <p>They will add a harmony,<br>that delivers your art.</p>\n  <p>There are colors that make no sense,<br>they may go together, they may be the colors in your reference or subject, but they speak, nothing.</p>\n  <p>And I hate to say it,<br>but they should be avoided.</p>\n  <p>Don't use colors that have nothing to add to your art,<br>or have no reason to be in your art, use only those combinations that go together</p>\n</div>\n<div class=\"section\">\n  <hr>\n</div>\n<div class=\"section\">\n  <p>The people that know color well, are the <a href=\"https://unsplash.com/s/photos/graffiti\">Graffiti Artists</a>,<br><a href=\"https://cgsociety.org/hall-of-fame/editorpicks\">3D Graphic Designers</a>, and <a href=\"https://dribbble.com/\">Computer Art Designers</a>.</p>\n  <p>You can see different artists, and unique artworks,<br>reusing the same color combinations.</p>\n  <p>Precisely, because,<br>the selection of color is an art in it self.</p>\n  <p>Before you use color in your art,<br>you have to learn to observe it.</p>\n  <p>Perhaps, create a catalog of color,<br>which maybe you could share with the world - and what a beautiful poster that would make.</p>\n  <p>By the time you discover you are ready,<br>you won't need to think of primary colors and opposites for mixing.</p>\n  <p>You'll have your own,<br>much more precise ways that make you colors glow.</p>\n</div>\n<div class=\"section\">\n  <hr>\n</div>\n<div class=\"section\">\n  <p>But is is also OK to hurry,<br>so as long as you stand on the shoulders of giants.</p>\n  <p>And that is my shortcut,<br>copy colors of artists that speak well with them.</p>\n  <p>So as long as you know that color selection is an art,<br>and that your combinations have to be meaningful.</p>\n  <p>So as long as you don't get stuck,<br>just picking whatever colors your models wore, or subjects were painted with, you'll be OK.</p>\n  <p>Another way to think about it is,<br>this:</p>\n  <p>When you find something you like,<br>don't pay attention to the color it has...</p>\n  <p>But instead ask, which of the precious color combinations that I love,<br>would make this portrait or painting even better.</p>\n  <p>And then make a dozen little miniatures and sketches,<br>and just try them out, your sketches, also become a work of art.</p>\n  <p>Consider framing your sketches,<br>or maybe just sketch on a large poster, that then can hang at the gallery next to your painting.</p>\n  <p>You search for subject and color harmony,<br>is sure to tell a beautiful story.</p>\n  <p>Finally, once you find the harmony of subject & color,<br>then you are well on your way to a new masterpiece.</p>\n</div>",
  "bootstrap": "<div class=\"card card-section bg-dark text-warning shadow\">\n  <div class=\"section card-body mb-0 my-2\">\n    <div class=\"paragraph card-text card-stanza my-5 text-center\">Here I will ask you to slow down where it comes to color,<br>but I also present an obvious shortcut in the end, both ways will have you learning in a jiffy.</div>\n    <div class=\"paragraph card-text card-stanza my-5 text-center\">Color combinations are all around you,<br>but you need to discover and catalog them.</div>\n    <div class=\"paragraph card-text card-stanza my-5 text-center\">And then create your artworks in harmony,<br>with the colors that speak the most.</div>\n    <div class=\"paragraph card-text card-stanza my-5 text-center\">One of the horrible tragedies of school,<br>are those cheap pre-mixed paints, they speak nothing.</div>\n    <div class=\"paragraph card-text card-stanza my-5 text-center\">They attack art,<br>they hurt it.</div>\n  </div>\n</div>\n<div class=\"mb-5 section-spacer\">&nbsp;</div>\n<div class=\"card card-section bg-dark text-warning shadow\">\n  <div class=\"section card-body mb-0 my-2\">\n    <div class=\"paragraph card-text card-stanza my-5 text-center\">Long before you move beyond Graphite and<br>coloring with the gentle beauty of Coffee and Tea.</div>\n    <div class=\"paragraph card-text card-stanza my-5 text-center\">You need to begin keeping a journal of colors,<br>don't make difficult mixtures.</div>\n    <div class=\"paragraph card-text card-stanza my-5 text-center\">Make sure that you dot next to your color,<br>what you have mixed, so that you can re-create the colors, without guessing.</div>\n    <div class=\"paragraph card-text card-stanza my-5 text-center\">As you go through your day,<br>pay attention to color combinations around you.</div>\n    <div class=\"paragraph card-text card-stanza my-5 text-center\">If you find something interesting try capturing it in your color journal,<br>you buy a mini watercolor kit with all the classical colors and keep it near by.</div>\n  </div>\n</div>\n<div class=\"mb-5 section-spacer\">&nbsp;</div>\n<div class=\"card card-section bg-dark text-warning shadow\">\n  <div class=\"section card-body mb-0 my-2\">\n    <div class=\"paragraph card-text card-stanza my-5 text-center\">Alas, speed they slowly towards color,<br>the world of mixing color is a world of poetry.</div>\n    <div class=\"paragraph card-text card-stanza my-5 text-center\">Worlds of poetry can not be hurried,<br>they have to come to you.</div>\n    <div class=\"paragraph card-text card-stanza my-5 text-center\">If you are not sure which colors go where,<br>then don't paint, yet, just let the under-painting be.</div>\n  </div>\n</div>\n<div class=\"mb-5 section-spacer\">&nbsp;</div>\n<div class=\"card card-section bg-dark text-warning shadow\">\n  <div class=\"section card-body mb-0 my-2\">\n    <div class=\"paragraph card-text card-stanza my-5 text-center\">Note that colors are best added, slowly and in layers,<br>so that you can keep watching your art develop.</div>\n    <div class=\"paragraph card-text card-stanza my-5 text-center\">Watercolors for example are a high precision instrument,<br>because you create the color semi-transparent layer by semi-transparent layer.</div>\n    <div class=\"paragraph card-text card-stanza my-5 text-center\">You don't paint with the color you need,<br>you apply transparent layers of color until they stack up to give you the color you wanted.</div>\n  </div>\n</div>\n<div class=\"mb-5 section-spacer\">&nbsp;</div>\n<div class=\"card card-section bg-dark text-warning shadow\">\n  <div class=\"section card-body mb-0 my-2\">\n    <div class=\"paragraph card-text card-stanza my-5 text-center\">Moreover, there are these impossibly beautiful color combinations,<br>Purple & Orange Gold, White Pearl & Raging Red, Shining Gold & Scarlet, Green Pea & Leaf Brown, Sad Teal and Lost Pink.</div>\n    <div class=\"paragraph card-text card-stanza my-5 text-center\">And when you create your portrait around those colors,<br>the colors will have their own say.</div>\n    <div class=\"paragraph card-text card-stanza my-5 text-center\">They will add a harmony,<br>that delivers your art.</div>\n    <div class=\"paragraph card-text card-stanza my-5 text-center\">There are colors that make no sense,<br>they may go together, they may be the colors in your reference or subject, but they speak, nothing.</div>\n    <div class=\"paragraph card-text card-stanza my-5 text-center\">And I hate to say it,<br>but they should be avoided.</div>\n    <div class=\"paragraph card-text card-stanza my-5 text-center\">Don't use colors that have nothing to add to your art,<br>or have no reason to be in your art, use only those combinations that go together</div>\n  </div>\n</div>\n<div class=\"mb-5 section-spacer\">&nbsp;</div>\n<div class=\"card card-section bg-dark text-warning shadow\">\n  <div class=\"section card-body mb-0 my-2\">\n    <div class=\"paragraph card-text card-stanza my-5 text-center\">The people that know color well, are the <a href=\"https://unsplash.com/s/photos/graffiti\">Graffiti Artists</a>,<br><a href=\"https://cgsociety.org/hall-of-fame/editorpicks\">3D Graphic Designers</a>, and <a href=\"https://dribbble.com/\">Computer Art Designers</a>.</div>\n    <div class=\"paragraph card-text card-stanza my-5 text-center\">You can see different artists, and unique artworks,<br>reusing the same color combinations.</div>\n    <div class=\"paragraph card-text card-stanza my-5 text-center\">Precisely, because,<br>the selection of color is an art in it self.</div>\n    <div class=\"paragraph card-text card-stanza my-5 text-center\">Before you use color in your art,<br>you have to learn to observe it.</div>\n    <div class=\"paragraph card-text card-stanza my-5 text-center\">Perhaps, create a catalog of color,<br>which maybe you could share with the world - and what a beautiful poster that would make.</div>\n    <div class=\"paragraph card-text card-stanza my-5 text-center\">By the time you discover you are ready,<br>you won't need to think of primary colors and opposites for mixing.</div>\n    <div class=\"paragraph card-text card-stanza my-5 text-center\">You'll have your own,<br>much more precise ways that make you colors glow.</div>\n  </div>\n</div>\n<div class=\"mb-5 section-spacer\">&nbsp;</div>\n<div class=\"card card-section bg-dark text-warning shadow\">\n  <div class=\"section card-body mb-0 my-2\">\n    <div class=\"paragraph card-text card-stanza my-5 text-center\">But is is also OK to hurry,<br>so as long as you stand on the shoulders of giants.</div>\n    <div class=\"paragraph card-text card-stanza my-5 text-center\">And that is my shortcut,<br>copy colors of artists that speak well with them.</div>\n    <div class=\"paragraph card-text card-stanza my-5 text-center\">So as long as you know that color selection is an art,<br>and that your combinations have to be meaningful.</div>\n    <div class=\"paragraph card-text card-stanza my-5 text-center\">So as long as you don't get stuck,<br>just picking whatever colors your models wore, or subjects were painted with, you'll be OK.</div>\n    <div class=\"paragraph card-text card-stanza my-5 text-center\">Another way to think about it is,<br>this:</div>\n    <div class=\"paragraph card-text card-stanza my-5 text-center\">When you find something you like,<br>don't pay attention to the color it has...</div>\n    <div class=\"paragraph card-text card-stanza my-5 text-center\">But instead ask, which of the precious color combinations that I love,<br>would make this portrait or painting even better.</div>\n    <div class=\"paragraph card-text card-stanza my-5 text-center\">And then make a dozen little miniatures and sketches,<br>and just try them out, your sketches, also become a work of art.</div>\n    <div class=\"paragraph card-text card-stanza my-5 text-center\">Consider framing your sketches,<br>or maybe just sketch on a large poster, that then can hang at the gallery next to your painting.</div>\n    <div class=\"paragraph card-text card-stanza my-5 text-center\">You search for subject and color harmony,<br>is sure to tell a beautiful story.</div>\n    <div class=\"paragraph card-text card-stanza my-5 text-center\">Finally, once you find the harmony of subject & color,<br>then you are well on your way to a new masterpiece.</div>\n  </div>\n</div>",
  "print": "<div class=\"section avoid-break-inside\" style=\"padding-bottom: 2rem;\">\n  <div class=\"paragraph\">Here I will ask you to slow down where it comes to color,<br>but I also present an obvious shortcut in the end, both ways will have you learning in a jiffy.</div>\n  <div class=\"paragraph\">Color combinations are all around you,<br>but you need to discover and catalog them.</div>\n  <div class=\"paragraph\">And then create your artworks in harmony,<br>with the colors that speak the most.</div>\n  <div class=\"paragraph\">One of the horrible tragedies of school,<br>are those cheap pre-mixed paints, they speak nothing.</div>\n  <div class=\"paragraph\">They attack art,<br>they hurt it.</div>\n</div>\n<div class=\"section avoid-break-inside\" style=\"padding-bottom: 2rem;\">\n  <br>\n</div>\n<div class=\"section avoid-break-inside\" style=\"padding-bottom: 2rem;\">\n  <div class=\"paragraph\">Long before you move beyond Graphite and<br>coloring with the gentle beauty of Coffee and Tea.</div>\n  <div class=\"paragraph\">You need to begin keeping a journal of colors,<br>don't make difficult mixtures.</div>\n  <div class=\"paragraph\">Make sure that you dot next to your color,<br>what you have mixed, so that you can re-create the colors, without guessing.</div>\n  <div class=\"paragraph\">As you go through your day,<br>pay attention to color combinations around you.</div>\n  <div class=\"paragraph\">If you find something interesting try capturing it in your color journal,<br>you buy a mini watercolor kit with all the classical colors and keep it near by.</div>\n</div>\n<div class=\"section avoid-break-inside\" style=\"padding-bottom: 2rem;\">\n  <br>\n</div>\n<div class=\"section avoid-break-inside\" style=\"padding-bottom: 2rem;\">\n  <div class=\"paragraph\">Alas, speed they slowly towards color,<br>the world of mixing color is a world of poetry.</div>\n  <div class=\"paragraph\">Worlds of poetry can not be hurried,<br>they have to come to you.</div>\n  <div class=\"paragraph\">If you are not sure which colors go where,<br>then don't paint, yet, just let the under-painting be.</div>\n</div>\n<div class=\"section avoid-break-inside\" style=\"padding-bottom: 2rem;\">\n  <br>\n</div>\n<div class=\"section avoid-break-inside\" style=\"padding-bottom: 2rem;\">\n  <div class=\"paragraph\">Note that colors are best added, slowly and in layers,<br>so that you can keep watching your art develop.</div>\n  <div class=\"paragraph\">Watercolors for example are a high precision instrument,<br>because you create the color semi-transparent layer by semi-transparent layer.</div>\n  <div class=\"paragraph\">You don't paint with the color you need,<br>you apply transparent layers of color until they stack up to give you the color you wanted.</div>\n</div>\n<div class=\"section avoid-break-inside\" style=\"padding-bottom: 2rem;\">\n  <br>\n</div>\n<div class=\"section avoid-break-inside\" style=\"padding-bottom: 2rem;\">\n  <div class=\"paragraph\">Moreover, there are these impossibly beautiful color combinations,<br>Purple & Orange Gold, White Pearl & Raging Red, Shining Gold & Scarlet, Green Pea & Leaf Brown, Sad Teal and Lost Pink.</div>\n  <div class=\"paragraph\">And when you create your portrait around those colors,<br>the colors will have their own say.</div>\n  <div class=\"paragraph\">They will add a harmony,<br>that delivers your art.</div>\n  <div class=\"paragraph\">There are colors that make no sense,<br>they may go together, they may be the colors in your reference or subject, but they speak, nothing.</div>\n  <div class=\"paragraph\">And I hate to say it,<br>but they should be avoided.</div>\n  <div class=\"paragraph\">Don't use colors that have nothing to add to your art,<br>or have no reason to be in your art, use only those combinations that go together</div>\n</div>\n<div class=\"section avoid-break-inside\" style=\"padding-bottom: 2rem;\">\n  <br>\n</div>\n<div class=\"section avoid-break-inside\" style=\"padding-bottom: 2rem;\">\n  <div class=\"paragraph\">The people that know color well, are the <span>Graffiti Artists<sup>[1]</sup></span>,<br><span>3D Graphic Designers<sup>[2]</sup></span>, and <span>Computer Art Designers<sup>[3]</sup></span>.</div>\n  <div class=\"paragraph\">You can see different artists, and unique artworks,<br>reusing the same color combinations.</div>\n  <div class=\"paragraph\">Precisely, because,<br>the selection of color is an art in it self.</div>\n  <div class=\"paragraph\">Before you use color in your art,<br>you have to learn to observe it.</div>\n  <div class=\"paragraph\">Perhaps, create a catalog of color,<br>which maybe you could share with the world - and what a beautiful poster that would make.</div>\n  <div class=\"paragraph\">By the time you discover you are ready,<br>you won't need to think of primary colors and opposites for mixing.</div>\n  <div class=\"paragraph\">You'll have your own,<br>much more precise ways that make you colors glow.</div>\n</div>\n<div class=\"section avoid-break-inside\" style=\"padding-bottom: 2rem;\">\n  <br>\n</div>\n<div class=\"section avoid-break-inside\" style=\"padding-bottom: 2rem;\">\n  <div class=\"paragraph\">But is is also OK to hurry,<br>so as long as you stand on the shoulders of giants.</div>\n  <div class=\"paragraph\">And that is my shortcut,<br>copy colors of artists that speak well with them.</div>\n  <div class=\"paragraph\">So as long as you know that color selection is an art,<br>and that your combinations have to be meaningful.</div>\n  <div class=\"paragraph\">So as long as you don't get stuck,<br>just picking whatever colors your models wore, or subjects were painted with, you'll be OK.</div>\n  <div class=\"paragraph\">Another way to think about it is,<br>this:</div>\n  <div class=\"paragraph\">When you find something you like,<br>don't pay attention to the color it has...</div>\n  <div class=\"paragraph\">But instead ask, which of the precious color combinations that I love,<br>would make this portrait or painting even better.</div>\n  <div class=\"paragraph\">And then make a dozen little miniatures and sketches,<br>and just try them out, your sketches, also become a work of art.</div>\n  <div class=\"paragraph\">Consider framing your sketches,<br>or maybe just sketch on a large poster, that then can hang at the gallery next to your painting.</div>\n  <div class=\"paragraph\">You search for subject and color harmony,<br>is sure to tell a beautiful story.</div>\n  <div class=\"paragraph\">Finally, once you find the harmony of subject & color,<br>then you are well on your way to a new masterpiece.</div>\n</div>\n<div class=\"break-after\">&nbsp;</div>\n<div>\n  <div class=\"section\" style=\"padding-bottom: 1rem;\">References</div>\n  <div>[1]: https://unsplash.com/s/photos/graffiti</div>\n  <div>[2]: https://cgsociety.org/hall-of-fame/editorpicks</div>\n  <div>[3]: https://dribbble.com/</div>\n</div>",
  "text": "Here I will ask you to slow down where it comes to color,\nbut I also present an obvious shortcut in the end, both ways will have you learning in a jiffy.\nColor combinations are all around you,\nbut you need to discover and catalog them.\nAnd then create your artworks in harmony,\nwith the colors that speak the most.\nOne of the horrible tragedies of school,\nare those cheap pre-mixed paints, they speak nothing.\nThey attack art,\nthey hurt it.\n\nLong before you move beyond Graphite and\ncoloring with the gentle beauty of Coffee and Tea.\nYou need to begin keeping a journal of colors,\ndon't make difficult mixtures.\nMake sure that you dot next to your color,\nwhat you have mixed, so that you can re-create the colors, without guessing.\nAs you go through your day,\npay attention to color combinations around you.\nIf you find something interesting try capturing it in your color journal,\nyou buy a mini watercolor kit with all the classical colors and keep it near by.\n\nAlas, speed they slowly towards color,\nthe world of mixing color is a world of poetry.\nWorlds of poetry can not be hurried,\nthey have to come to you.\nIf you are not sure which colors go where,\nthen don't paint, yet, just let the under-painting be.\n\nNote that colors are best added, slowly and in layers,\nso that you can keep watching your art develop.\nWatercolors for example are a high precision instrument,\nbecause you create the color semi-transparent layer by semi-transparent layer.\nYou don't paint with the color you need,\nyou apply transparent layers of color until they stack up to give you the color you wanted.\n\nMoreover, there are these impossibly beautiful color combinations,\nPurple & Orange Gold, White Pearl & Raging Red, Shining Gold & Scarlet, Green Pea & Leaf Brown, Sad Teal and Lost Pink.\nAnd when you create your portrait around those colors,\nthe colors will have their own say.\nThey will add a harmony,\nthat delivers your art.\nThere are colors that make no sense,\nthey may go together, they may be the colors in your reference or subject, but they speak, nothing.\nAnd I hate to say it,\nbut they should be avoided.\nDon't use colors that have nothing to add to your art,\nor have no reason to be in your art, use only those combinations that go together\n\nThe people that know color well, are the Graffiti Artists[1],\n3D Graphic Designers[2], and Computer Art Designers[3].\nYou can see different artists, and unique artworks,\nreusing the same color combinations.\nPrecisely, because,\nthe selection of color is an art in it self.\nBefore you use color in your art,\nyou have to learn to observe it.\nPerhaps, create a catalog of color,\nwhich maybe you could share with the world - and what a beautiful poster that would make.\nBy the time you discover you are ready,\nyou won't need to think of primary colors and opposites for mixing.\nYou'll have your own,\nmuch more precise ways that make you colors glow.\n\nBut is is also OK to hurry,\nso as long as you stand on the shoulders of giants.\nAnd that is my shortcut,\ncopy colors of artists that speak well with them.\nSo as long as you know that color selection is an art,\nand that your combinations have to be meaningful.\nSo as long as you don't get stuck,\njust picking whatever colors your models wore, or subjects were painted with, you'll be OK.\nAnother way to think about it is,\nthis:\nWhen you find something you like,\ndon't pay attention to the color it has...\nBut instead ask, which of the precious color combinations that I love,\nwould make this portrait or painting even better.\nAnd then make a dozen little miniatures and sketches,\nand just try them out, your sketches, also become a work of art.\nConsider framing your sketches,\nor maybe just sketch on a large poster, that then can hang at the gallery next to your painting.\nYou search for subject and color harmony,\nis sure to tell a beautiful story.\nFinally, once you find the harmony of subject & color,\nthen you are well on your way to a new masterpiece.\n \nReferences\n[1]: https://unsplash.com/s/photos/graffiti\n[2]: https://cgsociety.org/hall-of-fame/editorpicks\n[3]: https://dribbble.com/",
  "images": [],
  "links": [
    {
      "title": "Graffiti Artists",
      "url": "https://unsplash.com/s/photos/graffiti",
      "hostname": "unsplash.com"
    },
    {
      "title": "3D Graphic Designers",
      "url": "https://cgsociety.org/hall-of-fame/editorpicks",
      "hostname": "cgsociety.org"
    },
    {
      "title": "Computer Art Designers",
      "url": "https://dribbble.com/",
      "hostname": "dribbble.com"
    }
  ]
}