{
  "name": "furkies-purrkies-poetry-0871",
  "id": "furkies-purrkies-poetry-0871",
  "title": "Rise And Protect Knowledge",
  "date": "2022-07-19T21:43:43.612Z",
  "image": "poetry-0871-illustration.jpg",
  "artwork": "https://unsplash.com/photos/dunnqE0fcfY",
  "audio": "poetry-0871.mp3",
  "guid": "b73e13fa-eade-440b-907d-404fbd3eed09",
  "html": "<div class=\"section\">\n  <p>You can't just learn one thing,<br>that's impossible.</p>\n  <p>Not only is everything connected,<br>you will connect it in a unique way.</p>\n  <p>People say that Newton,<br>had this powerful learning method.</p>\n  <p>But,<br>he didn't.</p>\n  <p>It looked difficult and powerful to strangers,<br>but in his mind...</p>\n  <p>He wasn't even merely following his curiosities,<br>he was just having fun.</p>\n</div>\n<div class=\"section\">\n  <hr>\n</div>\n<div class=\"section\">\n  <p>Real education,<br>is about having fun.</p>\n  <p>In fact,<br>jack of all trades and a master of none.</p>\n  <p>Is an uneducated and jealous person's description,<br>of someone who is spiraling upwards in self education.</p>\n  <p>I think it is true for all that,<br>that nobody sticks with a subject for long.</p>\n  <p>Because some weeks into it,<br>they will begin missing some other talent.</p>\n</div>\n<div class=\"section\">\n  <hr>\n</div>\n<div class=\"section\">\n  <p>For example a person programming may miss art,<br>and a painter may miss composing music after a while.</p>\n  <p>There comes a point is ready to switch,<br>and they do, and they continue having fun.</p>\n  <p>T o someone shallow that will seem like failure,<br>but it is actually like a growth spur.</p>\n  <p>When a self educated person switches subject,<br>they don't just resume where they left off.</p>\n  <p>They approach the subject they were longing for,<br>on a whole new level.</p>\n</div>\n<div class=\"section\">\n  <hr>\n</div>\n<div class=\"section\">\n  <p>You can see how different this is,<br>from standardized schools.</p>\n  <p>Standardized education,<br>is an uneducated person's idea of education.</p>\n  <p>They send you through steps,<br>and you come out smarter.</p>\n  <p>The truth is you were smarter all along,<br>but they just wasted years of your life.</p>\n  <p>In most cases,<br>they tricked people out of real education.</p>\n  <p>The students that graduate with more knowledge,<br>know more, not because they received an education.</p>\n  <p>But because they allowed the teachers,<br>to force them into learning.</p>\n  <p>For praise, good grades,<br>promise of some career.</p>\n  <p>But it was the worst kind of learning,<br>out of sequence, all cut up, and void of joy.</p>\n</div>\n<div class=\"section\">\n  <hr>\n</div>\n<div class=\"section\">\n  <p>Standardized education is like telling an artist,<br>when to paint, what to paint, and when to finish.</p>\n  <p>And under the threat of prison, and ridicule,<br>of being held back one year, and permanently marked as delayed.</p>\n  <p>Teachers pretending to teach to get paychecks, and Students pretending to learn by memorizing to get out of there,<br>and because education is what separates us from cavemen, or war and slavery.</p>\n  <p>Fake or ineffective education is as dangerous as ignoring climate change,<br>or watching population grow by 7 billion in the span of a single lifetime.</p>\n</div>\n<div class=\"section\">\n  <hr>\n</div>\n<div class=\"section\">\n  <p>But let's set dark imaginings aside,<br>you are as brilliant and as capable as any genius.</p>\n  <p>Above all you are a Citizen Of The World,<br>and you belong to no nation, or cult.</p>\n  <p>Go to the library, find your first audio book... if you haven't already,<br>maybe Bill Bryson, or Randall Munroe, Carl Sagan or Neil deGrasse Tyson.</p>\n  <p>Begin your upward cycle of self education,<br>and go all the way up - until you become a great being.</p>\n</div>",
  "bootstrap": "<div class=\"card card-section bg-dark text-warning shadow\">\n  <div class=\"section card-body mb-0 my-2\">\n    <div class=\"paragraph card-text card-stanza my-5 text-center\">You can't just learn one thing,<br>that's impossible.</div>\n    <div class=\"paragraph card-text card-stanza my-5 text-center\">Not only is everything connected,<br>you will connect it in a unique way.</div>\n    <div class=\"paragraph card-text card-stanza my-5 text-center\">People say that Newton,<br>had this powerful learning method.</div>\n    <div class=\"paragraph card-text card-stanza my-5 text-center\">But,<br>he didn't.</div>\n    <div class=\"paragraph card-text card-stanza my-5 text-center\">It looked difficult and powerful to strangers,<br>but in his mind...</div>\n    <div class=\"paragraph card-text card-stanza my-5 text-center\">He wasn't even merely following his curiosities,<br>he was just having fun.</div>\n  </div>\n</div>\n<div class=\"mb-5 section-spacer\">&nbsp;</div>\n<div class=\"card card-section bg-dark text-warning shadow\">\n  <div class=\"section card-body mb-0 my-2\">\n    <div class=\"paragraph card-text card-stanza my-5 text-center\">Real education,<br>is about having fun.</div>\n    <div class=\"paragraph card-text card-stanza my-5 text-center\">In fact,<br>jack of all trades and a master of none.</div>\n    <div class=\"paragraph card-text card-stanza my-5 text-center\">Is an uneducated and jealous person's description,<br>of someone who is spiraling upwards in self education.</div>\n    <div class=\"paragraph card-text card-stanza my-5 text-center\">I think it is true for all that,<br>that nobody sticks with a subject for long.</div>\n    <div class=\"paragraph card-text card-stanza my-5 text-center\">Because some weeks into it,<br>they will begin missing some other talent.</div>\n  </div>\n</div>\n<div class=\"mb-5 section-spacer\">&nbsp;</div>\n<div class=\"card card-section bg-dark text-warning shadow\">\n  <div class=\"section card-body mb-0 my-2\">\n    <div class=\"paragraph card-text card-stanza my-5 text-center\">For example a person programming may miss art,<br>and a painter may miss composing music after a while.</div>\n    <div class=\"paragraph card-text card-stanza my-5 text-center\">There comes a point is ready to switch,<br>and they do, and they continue having fun.</div>\n    <div class=\"paragraph card-text card-stanza my-5 text-center\">T o someone shallow that will seem like failure,<br>but it is actually like a growth spur.</div>\n    <div class=\"paragraph card-text card-stanza my-5 text-center\">When a self educated person switches subject,<br>they don't just resume where they left off.</div>\n    <div class=\"paragraph card-text card-stanza my-5 text-center\">They approach the subject they were longing for,<br>on a whole new level.</div>\n  </div>\n</div>\n<div class=\"mb-5 section-spacer\">&nbsp;</div>\n<div class=\"card card-section bg-dark text-warning shadow\">\n  <div class=\"section card-body mb-0 my-2\">\n    <div class=\"paragraph card-text card-stanza my-5 text-center\">You can see how different this is,<br>from standardized schools.</div>\n    <div class=\"paragraph card-text card-stanza my-5 text-center\">Standardized education,<br>is an uneducated person's idea of education.</div>\n    <div class=\"paragraph card-text card-stanza my-5 text-center\">They send you through steps,<br>and you come out smarter.</div>\n    <div class=\"paragraph card-text card-stanza my-5 text-center\">The truth is you were smarter all along,<br>but they just wasted years of your life.</div>\n    <div class=\"paragraph card-text card-stanza my-5 text-center\">In most cases,<br>they tricked people out of real education.</div>\n    <div class=\"paragraph card-text card-stanza my-5 text-center\">The students that graduate with more knowledge,<br>know more, not because they received an education.</div>\n    <div class=\"paragraph card-text card-stanza my-5 text-center\">But because they allowed the teachers,<br>to force them into learning.</div>\n    <div class=\"paragraph card-text card-stanza my-5 text-center\">For praise, good grades,<br>promise of some career.</div>\n    <div class=\"paragraph card-text card-stanza my-5 text-center\">But it was the worst kind of learning,<br>out of sequence, all cut up, and void of joy.</div>\n  </div>\n</div>\n<div class=\"mb-5 section-spacer\">&nbsp;</div>\n<div class=\"card card-section bg-dark text-warning shadow\">\n  <div class=\"section card-body mb-0 my-2\">\n    <div class=\"paragraph card-text card-stanza my-5 text-center\">Standardized education is like telling an artist,<br>when to paint, what to paint, and when to finish.</div>\n    <div class=\"paragraph card-text card-stanza my-5 text-center\">And under the threat of prison, and ridicule,<br>of being held back one year, and permanently marked as delayed.</div>\n    <div class=\"paragraph card-text card-stanza my-5 text-center\">Teachers pretending to teach to get paychecks, and Students pretending to learn by memorizing to get out of there,<br>and because education is what separates us from cavemen, or war and slavery.</div>\n    <div class=\"paragraph card-text card-stanza my-5 text-center\">Fake or ineffective education is as dangerous as ignoring climate change,<br>or watching population grow by 7 billion in the span of a single lifetime.</div>\n  </div>\n</div>\n<div class=\"mb-5 section-spacer\">&nbsp;</div>\n<div class=\"card card-section bg-dark text-warning shadow\">\n  <div class=\"section card-body mb-0 my-2\">\n    <div class=\"paragraph card-text card-stanza my-5 text-center\">But let's set dark imaginings aside,<br>you are as brilliant and as capable as any genius.</div>\n    <div class=\"paragraph card-text card-stanza my-5 text-center\">Above all you are a Citizen Of The World,<br>and you belong to no nation, or cult.</div>\n    <div class=\"paragraph card-text card-stanza my-5 text-center\">Go to the library, find your first audio book... if you haven't already,<br>maybe Bill Bryson, or Randall Munroe, Carl Sagan or Neil deGrasse Tyson.</div>\n    <div class=\"paragraph card-text card-stanza my-5 text-center\">Begin your upward cycle of self education,<br>and go all the way up - until you become a great being.</div>\n  </div>\n</div>",
  "print": "<div class=\"section avoid-break-inside\" style=\"padding-bottom: 2rem;\">\n  <div class=\"paragraph\">You can't just learn one thing,<br>that's impossible.</div>\n  <div class=\"paragraph\">Not only is everything connected,<br>you will connect it in a unique way.</div>\n  <div class=\"paragraph\">People say that Newton,<br>had this powerful learning method.</div>\n  <div class=\"paragraph\">But,<br>he didn't.</div>\n  <div class=\"paragraph\">It looked difficult and powerful to strangers,<br>but in his mind...</div>\n  <div class=\"paragraph\">He wasn't even merely following his curiosities,<br>he was just having fun.</div>\n</div>\n<div class=\"section avoid-break-inside\" style=\"padding-bottom: 2rem;\">\n  <br>\n</div>\n<div class=\"section avoid-break-inside\" style=\"padding-bottom: 2rem;\">\n  <div class=\"paragraph\">Real education,<br>is about having fun.</div>\n  <div class=\"paragraph\">In fact,<br>jack of all trades and a master of none.</div>\n  <div class=\"paragraph\">Is an uneducated and jealous person's description,<br>of someone who is spiraling upwards in self education.</div>\n  <div class=\"paragraph\">I think it is true for all that,<br>that nobody sticks with a subject for long.</div>\n  <div class=\"paragraph\">Because some weeks into it,<br>they will begin missing some other talent.</div>\n</div>\n<div class=\"section avoid-break-inside\" style=\"padding-bottom: 2rem;\">\n  <br>\n</div>\n<div class=\"section avoid-break-inside\" style=\"padding-bottom: 2rem;\">\n  <div class=\"paragraph\">For example a person programming may miss art,<br>and a painter may miss composing music after a while.</div>\n  <div class=\"paragraph\">There comes a point is ready to switch,<br>and they do, and they continue having fun.</div>\n  <div class=\"paragraph\">T o someone shallow that will seem like failure,<br>but it is actually like a growth spur.</div>\n  <div class=\"paragraph\">When a self educated person switches subject,<br>they don't just resume where they left off.</div>\n  <div class=\"paragraph\">They approach the subject they were longing for,<br>on a whole new level.</div>\n</div>\n<div class=\"section avoid-break-inside\" style=\"padding-bottom: 2rem;\">\n  <br>\n</div>\n<div class=\"section avoid-break-inside\" style=\"padding-bottom: 2rem;\">\n  <div class=\"paragraph\">You can see how different this is,<br>from standardized schools.</div>\n  <div class=\"paragraph\">Standardized education,<br>is an uneducated person's idea of education.</div>\n  <div class=\"paragraph\">They send you through steps,<br>and you come out smarter.</div>\n  <div class=\"paragraph\">The truth is you were smarter all along,<br>but they just wasted years of your life.</div>\n  <div class=\"paragraph\">In most cases,<br>they tricked people out of real education.</div>\n  <div class=\"paragraph\">The students that graduate with more knowledge,<br>know more, not because they received an education.</div>\n  <div class=\"paragraph\">But because they allowed the teachers,<br>to force them into learning.</div>\n  <div class=\"paragraph\">For praise, good grades,<br>promise of some career.</div>\n  <div class=\"paragraph\">But it was the worst kind of learning,<br>out of sequence, all cut up, and void of joy.</div>\n</div>\n<div class=\"section avoid-break-inside\" style=\"padding-bottom: 2rem;\">\n  <br>\n</div>\n<div class=\"section avoid-break-inside\" style=\"padding-bottom: 2rem;\">\n  <div class=\"paragraph\">Standardized education is like telling an artist,<br>when to paint, what to paint, and when to finish.</div>\n  <div class=\"paragraph\">And under the threat of prison, and ridicule,<br>of being held back one year, and permanently marked as delayed.</div>\n  <div class=\"paragraph\">Teachers pretending to teach to get paychecks, and Students pretending to learn by memorizing to get out of there,<br>and because education is what separates us from cavemen, or war and slavery.</div>\n  <div class=\"paragraph\">Fake or ineffective education is as dangerous as ignoring climate change,<br>or watching population grow by 7 billion in the span of a single lifetime.</div>\n</div>\n<div class=\"section avoid-break-inside\" style=\"padding-bottom: 2rem;\">\n  <br>\n</div>\n<div class=\"section avoid-break-inside\" style=\"padding-bottom: 2rem;\">\n  <div class=\"paragraph\">But let's set dark imaginings aside,<br>you are as brilliant and as capable as any genius.</div>\n  <div class=\"paragraph\">Above all you are a Citizen Of The World,<br>and you belong to no nation, or cult.</div>\n  <div class=\"paragraph\">Go to the library, find your first audio book... if you haven't already,<br>maybe Bill Bryson, or Randall Munroe, Carl Sagan or Neil deGrasse Tyson.</div>\n  <div class=\"paragraph\">Begin your upward cycle of self education,<br>and go all the way up - until you become a great being.</div>\n</div>",
  "text": "You can't just learn one thing,\nthat's impossible.\nNot only is everything connected,\nyou will connect it in a unique way.\nPeople say that Newton,\nhad this powerful learning method.\nBut,\nhe didn't.\nIt looked difficult and powerful to strangers,\nbut in his mind...\nHe wasn't even merely following his curiosities,\nhe was just having fun.\n\nReal education,\nis about having fun.\nIn fact,\njack of all trades and a master of none.\nIs an uneducated and jealous person's description,\nof someone who is spiraling upwards in self education.\nI think it is true for all that,\nthat nobody sticks with a subject for long.\nBecause some weeks into it,\nthey will begin missing some other talent.\n\nFor example a person programming may miss art,\nand a painter may miss composing music after a while.\nThere comes a point is ready to switch,\nand they do, and they continue having fun.\nT o someone shallow that will seem like failure,\nbut it is actually like a growth spur.\nWhen a self educated person switches subject,\nthey don't just resume where they left off.\nThey approach the subject they were longing for,\non a whole new level.\n\nYou can see how different this is,\nfrom standardized schools.\nStandardized education,\nis an uneducated person's idea of education.\nThey send you through steps,\nand you come out smarter.\nThe truth is you were smarter all along,\nbut they just wasted years of your life.\nIn most cases,\nthey tricked people out of real education.\nThe students that graduate with more knowledge,\nknow more, not because they received an education.\nBut because they allowed the teachers,\nto force them into learning.\nFor praise, good grades,\npromise of some career.\nBut it was the worst kind of learning,\nout of sequence, all cut up, and void of joy.\n\nStandardized education is like telling an artist,\nwhen to paint, what to paint, and when to finish.\nAnd under the threat of prison, and ridicule,\nof being held back one year, and permanently marked as delayed.\nTeachers pretending to teach to get paychecks, and Students pretending to learn by memorizing to get out of there,\nand because education is what separates us from cavemen, or war and slavery.\nFake or ineffective education is as dangerous as ignoring climate change,\nor watching population grow by 7 billion in the span of a single lifetime.\n\nBut let's set dark imaginings aside,\nyou are as brilliant and as capable as any genius.\nAbove all you are a Citizen Of The World,\nand you belong to no nation, or cult.\nGo to the library, find your first audio book... if you haven't already,\nmaybe Bill Bryson, or Randall Munroe, Carl Sagan or Neil deGrasse Tyson.\nBegin your upward cycle of self education,\nand go all the way up - until you become a great being.",
  "images": [],
  "links": []
}