{
  "title": "Point of Convergence",
  "date": "2020-06-17T22:52:28.265Z",
  "image": "poetry-0110-illustration.jpg",
  "audio": "poetry-0110.mp3",
  "id": "furkies-purrkies-poetry-0110",
  "attachments": {},
  "guid": "4cd4b929-c905-445e-a9ad-d92eec55edef"
}
