{
  "name": "furkies-purrkies-poetry-0681",
  "id": "furkies-purrkies-poetry-0681",
  "title": "Don't Ignore Problems With Education",
  "date": "2022-01-11T02:53:46.978Z",
  "image": "poetry-0681-illustration.jpg",
  "artwork": "https://unsplash.com/photos/WA_O4UAUfxc",
  "audio": "poetry-0681.mp3",
  "guid": "f5ae6eef-387b-4a08-9bd9-1c76733261c4",
  "html": "<div class=\"section\">\n  <p>Your parents should not think of school as a babysitter,<br>they need to care about you learning for real.</p>\n  <p>They should care,<br>if school is working of not.</p>\n  <p>Merely getting through it,<br>will rob you of knowledge.</p>\n  <p><a href=\"https://www.youtube.com/watch?v=JhCHb6xtqeY\">You can't really graduate from a broken school</a>,<br>real graduation requires real knowledge.</p>\n  <p>If the teachers aren't teaching,<br>then like every other person in the world, they can't get paid.</p>\n  <p>Cramming is not something you invented,<br>it is something you got manipulated into.</p>\n  <p>Cramming, or any kind of memorization,<br>is not education, it is a trick.</p>\n  <p>To know something, requires that you comprehend it,<br><a href=\"https://www.youtube.com/watch?v=sZJj6DwCqSU\">that you are able to navigate through the knowledge network within</a>.</p>\n</div>\n<div class=\"section\">\n  <hr>\n</div>\n<div class=\"section\">\n  <p>This isn't something,<br>that you can sort out later.</p>\n  <p>People are selling you out for paychecks,<br>they are taking advantage of your lack of experience in life.</p>\n  <p>The teachers are the men who sold the world,<br>one crappy paycheck at a time.</p>\n  <p>This crime is not without consequence,<br><a href=\"https://www.youtube.com/watch?v=kCQWvfUoFwc\">Vaccine Hesitancy</a>, <a href=\"https://www.youtube.com/watch?v=C1Jud3zOcL4\">Loss Of Species</a>, <a href=\"https://www.youtube.com/watch?v=SAZAKPUQMw0\">Loss of The Amazon</a>...</p>\n  <p><a href=\"https://www.youtube.com/watch?v=oQeok_5j2So\">Climate Change</a>,<br>and even <a href=\"https://www.youtube.com/watch?v=SQ6H-Mz6hgw\">Mass Incarceration</a> are the result.</p>\n</div>\n<div class=\"section\">\n  <hr>\n</div>\n<div class=\"section\">\n  <p>Until the world is ready to see that schools are not working,<br>you need to take the responsibility for your own education.</p>\n  <p>It has never been more pleasant,<br>Narrated Books, quality Lectures, and enlightening Internet Videos make self education easy.</p>\n  <p>But you really need to push for it,<br>you need to break away from the Standardized Curriculum.</p>\n  <p>You have to build your own educational path,<br>in the sequence that matches you best, at the right pace, and driven by your greatest questions.</p>\n  <p>That is how you build Knowledge Networks,<br>and they function the same way as Memory Palaces.</p>\n  <p>When you learn things that are relevant to you,<br>to the best version of your elder self, it stays with you for life.</p>\n  <p>Not only that,<br>but the things you learn for real also teach you <strong>how</strong> to think.</p>\n  <p>How to spot liars and manipulators, how to be strong,<br>and how to think like the Great Beings and Authors you admire.</p>\n</div>\n<div class=\"section\">\n  <hr>\n</div>\n<div class=\"section\">\n  <p>When you learn for real you don't just walk away with a formula,<br>you make friends across history, you reinvent-along with them in a way.</p>\n  <p>The gravity of theft of real knowledge and proper comprehension,<br>is greater than all the other disaster combined.</p>\n  <p>Because fake education is an attack,<br>an attack that aims to disable you.</p>\n</div>\n<div class=\"section\">\n  <hr>\n</div>\n<div class=\"section\">\n  <p>There is no conspiracy,<br>the teachers aren't fully aware of what they are doing, their education is fake too.</p>\n  <p>If you were to gather all the teachers and principals one in a room,<br>and show them the consequences of their fraud.</p>\n  <p>All they could say, is,<br>\"How were we supposed to know?\"</p>\n  <p>They won't even suspect that poverty fractured them,<br>they will swear by their education and paychecks, and experience.</p>\n  <p>Without real education the world can't even see,<br>the invisible toxic prison walls of poverty.</p>\n  <p>Without real education,<br>We can't grow out of our mistakes.</p>\n  <p>The World is asking you,<br>and your generation to become Great Beings.</p>\n  <p>Help the world learn for real,<br>and understand, and comprehend.</p>\n  <p>In the absence of teachers,<br>you must become a teacher.</p>\n</div>",
  "bootstrap": "<div class=\"card card-section bg-dark text-warning shadow\">\n  <div class=\"section card-body mb-0 my-2\">\n    <div class=\"paragraph card-text card-stanza my-5 text-center\">Your parents should not think of school as a babysitter,<br>they need to care about you learning for real.</div>\n    <div class=\"paragraph card-text card-stanza my-5 text-center\">They should care,<br>if school is working of not.</div>\n    <div class=\"paragraph card-text card-stanza my-5 text-center\">Merely getting through it,<br>will rob you of knowledge.</div>\n    <div class=\"paragraph card-text card-stanza my-5 text-center\"><a href=\"https://www.youtube.com/watch?v=JhCHb6xtqeY\">You can't really graduate from a broken school</a>,<br>real graduation requires real knowledge.</div>\n    <div class=\"paragraph card-text card-stanza my-5 text-center\">If the teachers aren't teaching,<br>then like every other person in the world, they can't get paid.</div>\n    <div class=\"paragraph card-text card-stanza my-5 text-center\">Cramming is not something you invented,<br>it is something you got manipulated into.</div>\n    <div class=\"paragraph card-text card-stanza my-5 text-center\">Cramming, or any kind of memorization,<br>is not education, it is a trick.</div>\n    <div class=\"paragraph card-text card-stanza my-5 text-center\">To know something, requires that you comprehend it,<br><a href=\"https://www.youtube.com/watch?v=sZJj6DwCqSU\">that you are able to navigate through the knowledge network within</a>.</div>\n  </div>\n</div>\n<div class=\"mb-5 section-spacer\">&nbsp;</div>\n<div class=\"card card-section bg-dark text-warning shadow\">\n  <div class=\"section card-body mb-0 my-2\">\n    <div class=\"paragraph card-text card-stanza my-5 text-center\">This isn't something,<br>that you can sort out later.</div>\n    <div class=\"paragraph card-text card-stanza my-5 text-center\">People are selling you out for paychecks,<br>they are taking advantage of your lack of experience in life.</div>\n    <div class=\"paragraph card-text card-stanza my-5 text-center\">The teachers are the men who sold the world,<br>one crappy paycheck at a time.</div>\n    <div class=\"paragraph card-text card-stanza my-5 text-center\">This crime is not without consequence,<br><a href=\"https://www.youtube.com/watch?v=kCQWvfUoFwc\">Vaccine Hesitancy</a>, <a href=\"https://www.youtube.com/watch?v=C1Jud3zOcL4\">Loss Of Species</a>, <a href=\"https://www.youtube.com/watch?v=SAZAKPUQMw0\">Loss of The Amazon</a>...</div>\n    <div class=\"paragraph card-text card-stanza my-5 text-center\"><a href=\"https://www.youtube.com/watch?v=oQeok_5j2So\">Climate Change</a>,<br>and even <a href=\"https://www.youtube.com/watch?v=SQ6H-Mz6hgw\">Mass Incarceration</a> are the result.</div>\n  </div>\n</div>\n<div class=\"mb-5 section-spacer\">&nbsp;</div>\n<div class=\"card card-section bg-dark text-warning shadow\">\n  <div class=\"section card-body mb-0 my-2\">\n    <div class=\"paragraph card-text card-stanza my-5 text-center\">Until the world is ready to see that schools are not working,<br>you need to take the responsibility for your own education.</div>\n    <div class=\"paragraph card-text card-stanza my-5 text-center\">It has never been more pleasant,<br>Narrated Books, quality Lectures, and enlightening Internet Videos make self education easy.</div>\n    <div class=\"paragraph card-text card-stanza my-5 text-center\">But you really need to push for it,<br>you need to break away from the Standardized Curriculum.</div>\n    <div class=\"paragraph card-text card-stanza my-5 text-center\">You have to build your own educational path,<br>in the sequence that matches you best, at the right pace, and driven by your greatest questions.</div>\n    <div class=\"paragraph card-text card-stanza my-5 text-center\">That is how you build Knowledge Networks,<br>and they function the same way as Memory Palaces.</div>\n    <div class=\"paragraph card-text card-stanza my-5 text-center\">When you learn things that are relevant to you,<br>to the best version of your elder self, it stays with you for life.</div>\n    <div class=\"paragraph card-text card-stanza my-5 text-center\">Not only that,<br>but the things you learn for real also teach you <strong>how</strong> to think.</div>\n    <div class=\"paragraph card-text card-stanza my-5 text-center\">How to spot liars and manipulators, how to be strong,<br>and how to think like the Great Beings and Authors you admire.</div>\n  </div>\n</div>\n<div class=\"mb-5 section-spacer\">&nbsp;</div>\n<div class=\"card card-section bg-dark text-warning shadow\">\n  <div class=\"section card-body mb-0 my-2\">\n    <div class=\"paragraph card-text card-stanza my-5 text-center\">When you learn for real you don't just walk away with a formula,<br>you make friends across history, you reinvent-along with them in a way.</div>\n    <div class=\"paragraph card-text card-stanza my-5 text-center\">The gravity of theft of real knowledge and proper comprehension,<br>is greater than all the other disaster combined.</div>\n    <div class=\"paragraph card-text card-stanza my-5 text-center\">Because fake education is an attack,<br>an attack that aims to disable you.</div>\n  </div>\n</div>\n<div class=\"mb-5 section-spacer\">&nbsp;</div>\n<div class=\"card card-section bg-dark text-warning shadow\">\n  <div class=\"section card-body mb-0 my-2\">\n    <div class=\"paragraph card-text card-stanza my-5 text-center\">There is no conspiracy,<br>the teachers aren't fully aware of what they are doing, their education is fake too.</div>\n    <div class=\"paragraph card-text card-stanza my-5 text-center\">If you were to gather all the teachers and principals one in a room,<br>and show them the consequences of their fraud.</div>\n    <div class=\"paragraph card-text card-stanza my-5 text-center\">All they could say, is,<br>\"How were we supposed to know?\"</div>\n    <div class=\"paragraph card-text card-stanza my-5 text-center\">They won't even suspect that poverty fractured them,<br>they will swear by their education and paychecks, and experience.</div>\n    <div class=\"paragraph card-text card-stanza my-5 text-center\">Without real education the world can't even see,<br>the invisible toxic prison walls of poverty.</div>\n    <div class=\"paragraph card-text card-stanza my-5 text-center\">Without real education,<br>We can't grow out of our mistakes.</div>\n    <div class=\"paragraph card-text card-stanza my-5 text-center\">The World is asking you,<br>and your generation to become Great Beings.</div>\n    <div class=\"paragraph card-text card-stanza my-5 text-center\">Help the world learn for real,<br>and understand, and comprehend.</div>\n    <div class=\"paragraph card-text card-stanza my-5 text-center\">In the absence of teachers,<br>you must become a teacher.</div>\n  </div>\n</div>",
  "print": "<div class=\"section avoid-break-inside\" style=\"padding-bottom: 2rem;\">\n  <div class=\"paragraph\">Your parents should not think of school as a babysitter,<br>they need to care about you learning for real.</div>\n  <div class=\"paragraph\">They should care,<br>if school is working of not.</div>\n  <div class=\"paragraph\">Merely getting through it,<br>will rob you of knowledge.</div>\n  <div class=\"paragraph\"><span>You can't really graduate from a broken school<sup>[1]</sup></span>,<br>real graduation requires real knowledge.</div>\n  <div class=\"paragraph\">If the teachers aren't teaching,<br>then like every other person in the world, they can't get paid.</div>\n  <div class=\"paragraph\">Cramming is not something you invented,<br>it is something you got manipulated into.</div>\n  <div class=\"paragraph\">Cramming, or any kind of memorization,<br>is not education, it is a trick.</div>\n  <div class=\"paragraph\">To know something, requires that you comprehend it,<br><span>that you are able to navigate through the knowledge network within<sup>[2]</sup></span>.</div>\n</div>\n<div class=\"section avoid-break-inside\" style=\"padding-bottom: 2rem;\">\n  <br>\n</div>\n<div class=\"section avoid-break-inside\" style=\"padding-bottom: 2rem;\">\n  <div class=\"paragraph\">This isn't something,<br>that you can sort out later.</div>\n  <div class=\"paragraph\">People are selling you out for paychecks,<br>they are taking advantage of your lack of experience in life.</div>\n  <div class=\"paragraph\">The teachers are the men who sold the world,<br>one crappy paycheck at a time.</div>\n  <div class=\"paragraph\">This crime is not without consequence,<br><span>Vaccine Hesitancy<sup>[3]</sup></span>, <span>Loss Of Species<sup>[4]</sup></span>, <span>Loss of The Amazon<sup>[5]</sup></span>...</div>\n  <div class=\"paragraph\"><span>Climate Change<sup>[6]</sup></span>,<br>and even <span>Mass Incarceration<sup>[7]</sup></span> are the result.</div>\n</div>\n<div class=\"section avoid-break-inside\" style=\"padding-bottom: 2rem;\">\n  <br>\n</div>\n<div class=\"section avoid-break-inside\" style=\"padding-bottom: 2rem;\">\n  <div class=\"paragraph\">Until the world is ready to see that schools are not working,<br>you need to take the responsibility for your own education.</div>\n  <div class=\"paragraph\">It has never been more pleasant,<br>Narrated Books, quality Lectures, and enlightening Internet Videos make self education easy.</div>\n  <div class=\"paragraph\">But you really need to push for it,<br>you need to break away from the Standardized Curriculum.</div>\n  <div class=\"paragraph\">You have to build your own educational path,<br>in the sequence that matches you best, at the right pace, and driven by your greatest questions.</div>\n  <div class=\"paragraph\">That is how you build Knowledge Networks,<br>and they function the same way as Memory Palaces.</div>\n  <div class=\"paragraph\">When you learn things that are relevant to you,<br>to the best version of your elder self, it stays with you for life.</div>\n  <div class=\"paragraph\">Not only that,<br>but the things you learn for real also teach you <strong>how</strong> to think.</div>\n  <div class=\"paragraph\">How to spot liars and manipulators, how to be strong,<br>and how to think like the Great Beings and Authors you admire.</div>\n</div>\n<div class=\"section avoid-break-inside\" style=\"padding-bottom: 2rem;\">\n  <br>\n</div>\n<div class=\"section avoid-break-inside\" style=\"padding-bottom: 2rem;\">\n  <div class=\"paragraph\">When you learn for real you don't just walk away with a formula,<br>you make friends across history, you reinvent-along with them in a way.</div>\n  <div class=\"paragraph\">The gravity of theft of real knowledge and proper comprehension,<br>is greater than all the other disaster combined.</div>\n  <div class=\"paragraph\">Because fake education is an attack,<br>an attack that aims to disable you.</div>\n</div>\n<div class=\"section avoid-break-inside\" style=\"padding-bottom: 2rem;\">\n  <br>\n</div>\n<div class=\"section avoid-break-inside\" style=\"padding-bottom: 2rem;\">\n  <div class=\"paragraph\">There is no conspiracy,<br>the teachers aren't fully aware of what they are doing, their education is fake too.</div>\n  <div class=\"paragraph\">If you were to gather all the teachers and principals one in a room,<br>and show them the consequences of their fraud.</div>\n  <div class=\"paragraph\">All they could say, is,<br>\"How were we supposed to know?\"</div>\n  <div class=\"paragraph\">They won't even suspect that poverty fractured them,<br>they will swear by their education and paychecks, and experience.</div>\n  <div class=\"paragraph\">Without real education the world can't even see,<br>the invisible toxic prison walls of poverty.</div>\n  <div class=\"paragraph\">Without real education,<br>We can't grow out of our mistakes.</div>\n  <div class=\"paragraph\">The World is asking you,<br>and your generation to become Great Beings.</div>\n  <div class=\"paragraph\">Help the world learn for real,<br>and understand, and comprehend.</div>\n  <div class=\"paragraph\">In the absence of teachers,<br>you must become a teacher.</div>\n</div>\n<div class=\"break-after\">&nbsp;</div>\n<div>\n  <div class=\"section\" style=\"padding-bottom: 1rem;\">References</div>\n  <div>[1]: https://www.youtube.com/watch?v=JhCHb6xtqeY</div>\n  <div>[2]: https://www.youtube.com/watch?v=sZJj6DwCqSU</div>\n  <div>[3]: https://www.youtube.com/watch?v=kCQWvfUoFwc</div>\n  <div>[4]: https://www.youtube.com/watch?v=C1Jud3zOcL4</div>\n  <div>[5]: https://www.youtube.com/watch?v=SAZAKPUQMw0</div>\n  <div>[6]: https://www.youtube.com/watch?v=oQeok_5j2So</div>\n  <div>[7]: https://www.youtube.com/watch?v=SQ6H-Mz6hgw</div>\n</div>",
  "text": "Your parents should not think of school as a babysitter,\nthey need to care about you learning for real.\nThey should care,\nif school is working of not.\nMerely getting through it,\nwill rob you of knowledge.\nYou can't really graduate from a broken school[1],\nreal graduation requires real knowledge.\nIf the teachers aren't teaching,\nthen like every other person in the world, they can't get paid.\nCramming is not something you invented,\nit is something you got manipulated into.\nCramming, or any kind of memorization,\nis not education, it is a trick.\nTo know something, requires that you comprehend it,\nthat you are able to navigate through the knowledge network within[2].\n\nThis isn't something,\nthat you can sort out later.\nPeople are selling you out for paychecks,\nthey are taking advantage of your lack of experience in life.\nThe teachers are the men who sold the world,\none crappy paycheck at a time.\nThis crime is not without consequence,\nVaccine Hesitancy[3], Loss Of Species[4], Loss of The Amazon[5]...\nClimate Change[6],\nand even Mass Incarceration[7] are the result.\n\nUntil the world is ready to see that schools are not working,\nyou need to take the responsibility for your own education.\nIt has never been more pleasant,\nNarrated Books, quality Lectures, and enlightening Internet Videos make self education easy.\nBut you really need to push for it,\nyou need to break away from the Standardized Curriculum.\nYou have to build your own educational path,\nin the sequence that matches you best, at the right pace, and driven by your greatest questions.\nThat is how you build Knowledge Networks,\nand they function the same way as Memory Palaces.\nWhen you learn things that are relevant to you,\nto the best version of your elder self, it stays with you for life.\nNot only that,\nbut the things you learn for real also teach you how to think.\nHow to spot liars and manipulators, how to be strong,\nand how to think like the Great Beings and Authors you admire.\n\nWhen you learn for real you don't just walk away with a formula,\nyou make friends across history, you reinvent-along with them in a way.\nThe gravity of theft of real knowledge and proper comprehension,\nis greater than all the other disaster combined.\nBecause fake education is an attack,\nan attack that aims to disable you.\n\nThere is no conspiracy,\nthe teachers aren't fully aware of what they are doing, their education is fake too.\nIf you were to gather all the teachers and principals one in a room,\nand show them the consequences of their fraud.\nAll they could say, is,\n\"How were we supposed to know?\"\nThey won't even suspect that poverty fractured them,\nthey will swear by their education and paychecks, and experience.\nWithout real education the world can't even see,\nthe invisible toxic prison walls of poverty.\nWithout real education,\nWe can't grow out of our mistakes.\nThe World is asking you,\nand your generation to become Great Beings.\nHelp the world learn for real,\nand understand, and comprehend.\nIn the absence of teachers,\nyou must become a teacher.\n \nReferences\n[1]: https://www.youtube.com/watch?v=JhCHb6xtqeY\n[2]: https://www.youtube.com/watch?v=sZJj6DwCqSU\n[3]: https://www.youtube.com/watch?v=kCQWvfUoFwc\n[4]: https://www.youtube.com/watch?v=C1Jud3zOcL4\n[5]: https://www.youtube.com/watch?v=SAZAKPUQMw0\n[6]: https://www.youtube.com/watch?v=oQeok_5j2So\n[7]: https://www.youtube.com/watch?v=SQ6H-Mz6hgw",
  "images": [],
  "links": [
    {
      "title": "You can't really graduate from a broken school",
      "url": "https://www.youtube.com/watch?v=JhCHb6xtqeY",
      "hostname": "www.youtube.com"
    },
    {
      "title": "that you are able to navigate through the knowledge network within",
      "url": "https://www.youtube.com/watch?v=sZJj6DwCqSU",
      "hostname": "www.youtube.com"
    },
    {
      "title": "Vaccine Hesitancy",
      "url": "https://www.youtube.com/watch?v=kCQWvfUoFwc",
      "hostname": "www.youtube.com"
    },
    {
      "title": "Loss Of Species",
      "url": "https://www.youtube.com/watch?v=C1Jud3zOcL4",
      "hostname": "www.youtube.com"
    },
    {
      "title": "Loss of The Amazon",
      "url": "https://www.youtube.com/watch?v=SAZAKPUQMw0",
      "hostname": "www.youtube.com"
    },
    {
      "title": "Climate Change",
      "url": "https://www.youtube.com/watch?v=oQeok_5j2So",
      "hostname": "www.youtube.com"
    },
    {
      "title": "Mass Incarceration",
      "url": "https://www.youtube.com/watch?v=SQ6H-Mz6hgw",
      "hostname": "www.youtube.com"
    }
  ]
}