{
  "name": "furkies-purrkies-poetry-0399",
  "title": "Everywhen",
  "date": "2021-04-04T02:02:06.432Z",
  "image": "poetry-0399-illustration.jpg",
  "audio": "poetry-0399.mp3",
  "artwork": "https://unsplash.com/photos/X8Vljv7UMzw",
  "id": "furkies-purrkies-poetry-0399",
  "attachments": {},
  "guid": "8fce0004-3bf6-45b8-bec4-ff48725da0b8",
  "html": "<div class=\"section\">\n  <p>All the imaginary stories tend to have some truth mechanic to them,</p>\n  <p>and it is not always the point of a story, sometimes it is its diving force.</p>\n</div>\n\n<div class=\"section\">\n  <p>In our modem society,</p>\n  <p>we must look to modern things to capture that.</p>\n</div>\n\n<div class=\"section\">\n  <p>In older cultures, things aren&apos;t that much different,</p>\n  <p>I mean Galahad or King Arthur, is just Iron Man and Superman.</p>\n</div>\n\n<div class=\"section\">\n  <p>If a hero needed a weakens back then, it would be witchcraft,</p>\n  <p>having been put under a spell.</p>\n</div>\n\n<div class=\"section\">\n  <p>Today our culture has evolved and we have Kryptonite, Nanobots,</p>\n  <p>and whatever makes the story go.</p>\n</div>\n\n<div class=\"section\">\n  <p>And ancient stories,</p>\n  <p>are not an exception at all.</p>\n</div>\n\n<div class=\"section\">\n  <p>Tn Australian Aboriginal Culture, The Dreaming or Dreamtime, sometimes best though of as everywhen,</p>\n  <p>represents, a time when Heroes with Supernatural abilities walked the earth.</p>\n</div>\n\n<div class=\"section\">\n  <hr>\n</div>\n\n<div class=\"section\">\n  <p>The reason why these things emerge across cultures,</p>\n  <p>because we experience Heroic transformations ourselves.</p>\n</div>\n\n<div class=\"section\">\n  <p>We hardly even think about it,</p>\n  <p>as ten year old we look back to when we were five, and we see that we are more.</p>\n</div>\n\n<div class=\"section\">\n  <p>In our mid-teens we look back to the kids we were,</p>\n  <p>when we were only ten.</p>\n</div>\n\n<div class=\"section\">\n  <p>The way we comprehend our growth,</p>\n  <p>is as transformation.</p>\n</div>\n\n<div class=\"section\">\n  <p>Be it, the transformation into a Superhero,</p>\n  <p>or the transformation of a stranger like Kal-El into a Human boy.</p>\n</div>\n\n<div class=\"section\">\n  <p>Or the secret wish to be like the heroes that used to walk the earth,</p>\n  <p>and have these mighty supernatural powers.</p>\n</div>\n\n<div class=\"section\">\n  <p>It is a dream rooted,</p>\n  <p>in our own experience of growing up.</p>\n</div>\n\n<div class=\"section\">\n  <p>It is Human,</p>\n  <p>All too Human.</p>\n</div>\n\n<div class=\"section\">\n  <hr>\n</div>\n\n<div class=\"section\">\n  <p>Now, our early transformations come from our brain developing,</p>\n  <p>and <a href=\"https://www.youtube.com/watch?v=_KxRAfXEzIQ\">our brain keeps developing into our 30&apos;s, and beyond</a>.</p>\n</div>\n\n<div class=\"section\">\n  <p>But as we mature, as we learn more, we get good at abstracting things,</p>\n  <p>summarizing what we need, and throwing away the stuff that does not yet make sense, such as Biotechnology or Neurology, or Combinatorial Genomics.</p>\n</div>\n\n<div class=\"section\">\n  <p>Which is part of the reason why, we should only read or listen-to books that we love,</p>\n  <p>because we will need to return to them dozens of times.</p>\n</div>\n\n<div class=\"section\">\n  <p>As a young person you may think that Nanobots are the technology of the future,</p>\n  <p>but that has been done, that&apos;s Biotech, technology that is even more relevant to us, because it is what powers us.</p>\n</div>\n\n<div class=\"section\">\n  <p>But it is really, really, really, good to start with,</p>\n  <p><a href=\"https://www.youtube.com/watch?v=CjpXj2BqJBY\">Tony Stark&apos;s more primitive and simpler technology, his Nano Tech Iron Man armor</a>.</p>\n</div>\n\n<div class=\"section\">\n  <p>Those of us who are interested in tiny robots, will actually transform interests from cartoon technology and simple robots,</p>\n  <p>over to Biotechnology and perhaps Combinatorial Genomics.</p>\n</div>\n\n<div class=\"section\">\n  <p>It is good to start with simple dreams,</p>\n  <p>so as long as we keep going.</p>\n</div>\n\n<div class=\"section\">\n  <hr>\n</div>\n\n<div class=\"section\">\n  <p>And here we arrive at the force behind the transformations,</p>\n  <p>it is a force that enhances our brains, our decision making, our abstract thinking, and our Dreaming.</p>\n</div>\n\n<div class=\"section\">\n  <p>Knowledge.</p>\n</div>\n\n<div class=\"section\">\n  <hr>\n</div>\n\n<div class=\"section\">\n  <p><a href=\"https://www.youtube.com/watch?v=BzRR3Mo4noU\">There are Beautiful Great Beings out there that spark or fuel transformations</a>,</p>\n  <p>that <a href=\"https://www.youtube.com/watch?v=iCvmsMzlF7o\">awaken adults</a> even and <a href=\"https://www.youtube.com/watch?v=hPSvdKTEZug\">from decades long slumber</a>.</p>\n</div>\n\n<div class=\"section\">\n  <p>The act of awakening is much simpler,</p>\n  <p>then what it takes to trick people away from education, or force them to read just one book.</p>\n</div>\n\n<div class=\"section\">\n  <p>This is because transformations call to us,</p>\n  <p>and transformations are always for better.</p>\n</div>\n\n<div class=\"section\">\n  <p>Some are fascinated by Technology or Biology,</p>\n  <p>others will be fascinated by Philosophy, by search for, and love of, wisdom.</p>\n</div>\n\n<div class=\"section\">\n  <p>But they all go higher,</p>\n  <p>and that age old transformation is not just about a path to their own enlightenment.</p>\n</div>\n\n<div class=\"section\">\n  <p>Eventually Great Thinkers begin speaking out,</p>\n  <p>begin <a href=\"https://www.youtube.com/watch?v=EWPFmdAWRZ0\">influencing the world for the better</a>, <a href=\"https://www.youtube.com/watch?v=Lp-3CQ6ZD4k\">healing the world</a>, and <a href=\"https://www.youtube.com/watch?v=QHIocNOHd7A\">advancing the world</a>.</p>\n</div>\n\n<div class=\"section\">\n  <hr>\n</div>\n\n<div class=\"section\">\n  <p>The transformations we find in imaginary stories are pretty silly,</p>\n  <p>when compared to the Knowledge and Wisdom driven transformations that Great Beings go through.</p>\n</div>\n\n<div class=\"section\">\n  <p>The world that is in the background of a made up hero,</p>\n  <p>is a tiny world.</p>\n</div>\n\n<div class=\"section\">\n  <p>Real heroes rise in the Real World,</p>\n  <p>a world of Nine Billion Voices.</p>\n</div>\n\n<div class=\"section\">\n  <p>They understand that their greatest superpower is the power of of explanation and inspiration,</p>\n  <p>the power to help other grow all the way up so that they may become Great Beings.</p>\n</div>\n\n<div class=\"section\">\n  <hr>\n</div>\n\n<div class=\"section\">\n  <p>Clearly, the day the World becomes United in Peace,</p>\n  <p>is the day when all Human Beings recognize that they must grow all the way up until they become Wise and Great Beings.</p>\n</div>",
  "bootstrap": "<div class=\"card card-section bg-dark text-warning shadow\">\n  <div class=\"section card-body mb-0 my-2\">\n    <div class=\"paragraph card-text card-stanza my-5 text-center\">All the imaginary stories tend to have some truth mechanic to them,</div>\n    <div class=\"paragraph card-text card-stanza my-5 text-center\">and it is not always the point of a story, sometimes it is its diving force.</div>\n  </div>\n</div>\n<div class=\"card card-section bg-dark text-warning shadow\">\n  <div class=\"section card-body mb-0 my-2\">\n    <div class=\"paragraph card-text card-stanza my-5 text-center\">In our modem society,</div>\n    <div class=\"paragraph card-text card-stanza my-5 text-center\">we must look to modern things to capture that.</div>\n  </div>\n</div>\n<div class=\"card card-section bg-dark text-warning shadow\">\n  <div class=\"section card-body mb-0 my-2\">\n    <div class=\"paragraph card-text card-stanza my-5 text-center\">In older cultures, things aren't that much different,</div>\n    <div class=\"paragraph card-text card-stanza my-5 text-center\">I mean Galahad or King Arthur, is just Iron Man and Superman.</div>\n  </div>\n</div>\n<div class=\"card card-section bg-dark text-warning shadow\">\n  <div class=\"section card-body mb-0 my-2\">\n    <div class=\"paragraph card-text card-stanza my-5 text-center\">If a hero needed a weakens back then, it would be witchcraft,</div>\n    <div class=\"paragraph card-text card-stanza my-5 text-center\">having been put under a spell.</div>\n  </div>\n</div>\n<div class=\"card card-section bg-dark text-warning shadow\">\n  <div class=\"section card-body mb-0 my-2\">\n    <div class=\"paragraph card-text card-stanza my-5 text-center\">Today our culture has evolved and we have Kryptonite, Nanobots,</div>\n    <div class=\"paragraph card-text card-stanza my-5 text-center\">and whatever makes the story go.</div>\n  </div>\n</div>\n<div class=\"card card-section bg-dark text-warning shadow\">\n  <div class=\"section card-body mb-0 my-2\">\n    <div class=\"paragraph card-text card-stanza my-5 text-center\">And ancient stories,</div>\n    <div class=\"paragraph card-text card-stanza my-5 text-center\">are not an exception at all.</div>\n  </div>\n</div>\n<div class=\"card card-section bg-dark text-warning shadow\">\n  <div class=\"section card-body mb-0 my-2\">\n    <div class=\"paragraph card-text card-stanza my-5 text-center\">Tn Australian Aboriginal Culture, The Dreaming or Dreamtime, sometimes best though of as everywhen,</div>\n    <div class=\"paragraph card-text card-stanza my-5 text-center\">represents, a time when Heroes with Supernatural abilities walked the earth.</div>\n  </div>\n</div>\n<div class=\"mb-5 section-spacer\">&nbsp;</div>\n<div class=\"card card-section bg-dark text-warning shadow\">\n  <div class=\"section card-body mb-0 my-2\">\n    <div class=\"paragraph card-text card-stanza my-5 text-center\">The reason why these things emerge across cultures,</div>\n    <div class=\"paragraph card-text card-stanza my-5 text-center\">because we experience Heroic transformations ourselves.</div>\n  </div>\n</div>\n<div class=\"card card-section bg-dark text-warning shadow\">\n  <div class=\"section card-body mb-0 my-2\">\n    <div class=\"paragraph card-text card-stanza my-5 text-center\">We hardly even think about it,</div>\n    <div class=\"paragraph card-text card-stanza my-5 text-center\">as ten year old we look back to when we were five, and we see that we are more.</div>\n  </div>\n</div>\n<div class=\"card card-section bg-dark text-warning shadow\">\n  <div class=\"section card-body mb-0 my-2\">\n    <div class=\"paragraph card-text card-stanza my-5 text-center\">In our mid-teens we look back to the kids we were,</div>\n    <div class=\"paragraph card-text card-stanza my-5 text-center\">when we were only ten.</div>\n  </div>\n</div>\n<div class=\"card card-section bg-dark text-warning shadow\">\n  <div class=\"section card-body mb-0 my-2\">\n    <div class=\"paragraph card-text card-stanza my-5 text-center\">The way we comprehend our growth,</div>\n    <div class=\"paragraph card-text card-stanza my-5 text-center\">is as transformation.</div>\n  </div>\n</div>\n<div class=\"card card-section bg-dark text-warning shadow\">\n  <div class=\"section card-body mb-0 my-2\">\n    <div class=\"paragraph card-text card-stanza my-5 text-center\">Be it, the transformation into a Superhero,</div>\n    <div class=\"paragraph card-text card-stanza my-5 text-center\">or the transformation of a stranger like Kal-El into a Human boy.</div>\n  </div>\n</div>\n<div class=\"card card-section bg-dark text-warning shadow\">\n  <div class=\"section card-body mb-0 my-2\">\n    <div class=\"paragraph card-text card-stanza my-5 text-center\">Or the secret wish to be like the heroes that used to walk the earth,</div>\n    <div class=\"paragraph card-text card-stanza my-5 text-center\">and have these mighty supernatural powers.</div>\n  </div>\n</div>\n<div class=\"card card-section bg-dark text-warning shadow\">\n  <div class=\"section card-body mb-0 my-2\">\n    <div class=\"paragraph card-text card-stanza my-5 text-center\">It is a dream rooted,</div>\n    <div class=\"paragraph card-text card-stanza my-5 text-center\">in our own experience of growing up.</div>\n  </div>\n</div>\n<div class=\"card card-section bg-dark text-warning shadow\">\n  <div class=\"section card-body mb-0 my-2\">\n    <div class=\"paragraph card-text card-stanza my-5 text-center\">It is Human,</div>\n    <div class=\"paragraph card-text card-stanza my-5 text-center\">All too Human.</div>\n  </div>\n</div>\n<div class=\"mb-5 section-spacer\">&nbsp;</div>\n<div class=\"card card-section bg-dark text-warning shadow\">\n  <div class=\"section card-body mb-0 my-2\">\n    <div class=\"paragraph card-text card-stanza my-5 text-center\">Now, our early transformations come from our brain developing,</div>\n    <div class=\"paragraph card-text card-stanza my-5 text-center\">and <a href=\"https://www.youtube.com/watch?v=_KxRAfXEzIQ\">our brain keeps developing into our 30's, and beyond</a>.</div>\n  </div>\n</div>\n<div class=\"card card-section bg-dark text-warning shadow\">\n  <div class=\"section card-body mb-0 my-2\">\n    <div class=\"paragraph card-text card-stanza my-5 text-center\">But as we mature, as we learn more, we get good at abstracting things,</div>\n    <div class=\"paragraph card-text card-stanza my-5 text-center\">summarizing what we need, and throwing away the stuff that does not yet make sense, such as Biotechnology or Neurology, or Combinatorial Genomics.</div>\n  </div>\n</div>\n<div class=\"card card-section bg-dark text-warning shadow\">\n  <div class=\"section card-body mb-0 my-2\">\n    <div class=\"paragraph card-text card-stanza my-5 text-center\">Which is part of the reason why, we should only read or listen-to books that we love,</div>\n    <div class=\"paragraph card-text card-stanza my-5 text-center\">because we will need to return to them dozens of times.</div>\n  </div>\n</div>\n<div class=\"card card-section bg-dark text-warning shadow\">\n  <div class=\"section card-body mb-0 my-2\">\n    <div class=\"paragraph card-text card-stanza my-5 text-center\">As a young person you may think that Nanobots are the technology of the future,</div>\n    <div class=\"paragraph card-text card-stanza my-5 text-center\">but that has been done, that's Biotech, technology that is even more relevant to us, because it is what powers us.</div>\n  </div>\n</div>\n<div class=\"card card-section bg-dark text-warning shadow\">\n  <div class=\"section card-body mb-0 my-2\">\n    <div class=\"paragraph card-text card-stanza my-5 text-center\">But it is really, really, really, good to start with,</div>\n    <div class=\"paragraph card-text card-stanza my-5 text-center\"><a href=\"https://www.youtube.com/watch?v=CjpXj2BqJBY\">Tony Stark's more primitive and simpler technology, his Nano Tech Iron Man armor</a>.</div>\n  </div>\n</div>\n<div class=\"card card-section bg-dark text-warning shadow\">\n  <div class=\"section card-body mb-0 my-2\">\n    <div class=\"paragraph card-text card-stanza my-5 text-center\">Those of us who are interested in tiny robots, will actually transform interests from cartoon technology and simple robots,</div>\n    <div class=\"paragraph card-text card-stanza my-5 text-center\">over to Biotechnology and perhaps Combinatorial Genomics.</div>\n  </div>\n</div>\n<div class=\"card card-section bg-dark text-warning shadow\">\n  <div class=\"section card-body mb-0 my-2\">\n    <div class=\"paragraph card-text card-stanza my-5 text-center\">It is good to start with simple dreams,</div>\n    <div class=\"paragraph card-text card-stanza my-5 text-center\">so as long as we keep going.</div>\n  </div>\n</div>\n<div class=\"mb-5 section-spacer\">&nbsp;</div>\n<div class=\"card card-section bg-dark text-warning shadow\">\n  <div class=\"section card-body mb-0 my-2\">\n    <div class=\"paragraph card-text card-stanza my-5 text-center\">And here we arrive at the force behind the transformations,</div>\n    <div class=\"paragraph card-text card-stanza my-5 text-center\">it is a force that enhances our brains, our decision making, our abstract thinking, and our Dreaming.</div>\n  </div>\n</div>\n<div class=\"card card-section bg-dark text-warning shadow\">\n  <div class=\"section card-body mb-0 my-2\">\n    <div class=\"paragraph card-text card-stanza my-5 text-center\">Knowledge.</div>\n  </div>\n</div>\n<div class=\"mb-5 section-spacer\">&nbsp;</div>\n<div class=\"card card-section bg-dark text-warning shadow\">\n  <div class=\"section card-body mb-0 my-2\">\n    <div class=\"paragraph card-text card-stanza my-5 text-center\"><a href=\"https://www.youtube.com/watch?v=BzRR3Mo4noU\">There are Beautiful Great Beings out there that spark or fuel transformations</a>,</div>\n    <div class=\"paragraph card-text card-stanza my-5 text-center\">that <a href=\"https://www.youtube.com/watch?v=iCvmsMzlF7o\">awaken adults</a> even and <a href=\"https://www.youtube.com/watch?v=hPSvdKTEZug\">from decades long slumber</a>.</div>\n  </div>\n</div>\n<div class=\"card card-section bg-dark text-warning shadow\">\n  <div class=\"section card-body mb-0 my-2\">\n    <div class=\"paragraph card-text card-stanza my-5 text-center\">The act of awakening is much simpler,</div>\n    <div class=\"paragraph card-text card-stanza my-5 text-center\">then what it takes to trick people away from education, or force them to read just one book.</div>\n  </div>\n</div>\n<div class=\"card card-section bg-dark text-warning shadow\">\n  <div class=\"section card-body mb-0 my-2\">\n    <div class=\"paragraph card-text card-stanza my-5 text-center\">This is because transformations call to us,</div>\n    <div class=\"paragraph card-text card-stanza my-5 text-center\">and transformations are always for better.</div>\n  </div>\n</div>\n<div class=\"card card-section bg-dark text-warning shadow\">\n  <div class=\"section card-body mb-0 my-2\">\n    <div class=\"paragraph card-text card-stanza my-5 text-center\">Some are fascinated by Technology or Biology,</div>\n    <div class=\"paragraph card-text card-stanza my-5 text-center\">others will be fascinated by Philosophy, by search for, and love of, wisdom.</div>\n  </div>\n</div>\n<div class=\"card card-section bg-dark text-warning shadow\">\n  <div class=\"section card-body mb-0 my-2\">\n    <div class=\"paragraph card-text card-stanza my-5 text-center\">But they all go higher,</div>\n    <div class=\"paragraph card-text card-stanza my-5 text-center\">and that age old transformation is not just about a path to their own enlightenment.</div>\n  </div>\n</div>\n<div class=\"card card-section bg-dark text-warning shadow\">\n  <div class=\"section card-body mb-0 my-2\">\n    <div class=\"paragraph card-text card-stanza my-5 text-center\">Eventually Great Thinkers begin speaking out,</div>\n    <div class=\"paragraph card-text card-stanza my-5 text-center\">begin <a href=\"https://www.youtube.com/watch?v=EWPFmdAWRZ0\">influencing the world for the better</a>, <a href=\"https://www.youtube.com/watch?v=Lp-3CQ6ZD4k\">healing the world</a>, and <a href=\"https://www.youtube.com/watch?v=QHIocNOHd7A\">advancing the world</a>.</div>\n  </div>\n</div>\n<div class=\"mb-5 section-spacer\">&nbsp;</div>\n<div class=\"card card-section bg-dark text-warning shadow\">\n  <div class=\"section card-body mb-0 my-2\">\n    <div class=\"paragraph card-text card-stanza my-5 text-center\">The transformations we find in imaginary stories are pretty silly,</div>\n    <div class=\"paragraph card-text card-stanza my-5 text-center\">when compared to the Knowledge and Wisdom driven transformations that Great Beings go through.</div>\n  </div>\n</div>\n<div class=\"card card-section bg-dark text-warning shadow\">\n  <div class=\"section card-body mb-0 my-2\">\n    <div class=\"paragraph card-text card-stanza my-5 text-center\">The world that is in the background of a made up hero,</div>\n    <div class=\"paragraph card-text card-stanza my-5 text-center\">is a tiny world.</div>\n  </div>\n</div>\n<div class=\"card card-section bg-dark text-warning shadow\">\n  <div class=\"section card-body mb-0 my-2\">\n    <div class=\"paragraph card-text card-stanza my-5 text-center\">Real heroes rise in the Real World,</div>\n    <div class=\"paragraph card-text card-stanza my-5 text-center\">a world of Nine Billion Voices.</div>\n  </div>\n</div>\n<div class=\"card card-section bg-dark text-warning shadow\">\n  <div class=\"section card-body mb-0 my-2\">\n    <div class=\"paragraph card-text card-stanza my-5 text-center\">They understand that their greatest superpower is the power of of explanation and inspiration,</div>\n    <div class=\"paragraph card-text card-stanza my-5 text-center\">the power to help other grow all the way up so that they may become Great Beings.</div>\n  </div>\n</div>\n<div class=\"mb-5 section-spacer\">&nbsp;</div>\n<div class=\"card card-section bg-dark text-warning shadow\">\n  <div class=\"section card-body mb-0 my-2\">\n    <div class=\"paragraph card-text card-stanza my-5 text-center\">Clearly, the day the World becomes United in Peace,</div>\n    <div class=\"paragraph card-text card-stanza my-5 text-center\">is the day when all Human Beings recognize that they must grow all the way up until they become Wise and Great Beings.</div>\n  </div>\n</div>",
  "print": "<div class=\"section avoid-break-inside\" style=\"padding-bottom: 2rem;\">\n  <div class=\"paragraph\">All the imaginary stories tend to have some truth mechanic to them,</div>\n  <div class=\"paragraph\">and it is not always the point of a story, sometimes it is its diving force.</div>\n</div>\n<div class=\"section avoid-break-inside\" style=\"padding-bottom: 2rem;\">\n  <div class=\"paragraph\">In our modem society,</div>\n  <div class=\"paragraph\">we must look to modern things to capture that.</div>\n</div>\n<div class=\"section avoid-break-inside\" style=\"padding-bottom: 2rem;\">\n  <div class=\"paragraph\">In older cultures, things aren't that much different,</div>\n  <div class=\"paragraph\">I mean Galahad or King Arthur, is just Iron Man and Superman.</div>\n</div>\n<div class=\"section avoid-break-inside\" style=\"padding-bottom: 2rem;\">\n  <div class=\"paragraph\">If a hero needed a weakens back then, it would be witchcraft,</div>\n  <div class=\"paragraph\">having been put under a spell.</div>\n</div>\n<div class=\"section avoid-break-inside\" style=\"padding-bottom: 2rem;\">\n  <div class=\"paragraph\">Today our culture has evolved and we have Kryptonite, Nanobots,</div>\n  <div class=\"paragraph\">and whatever makes the story go.</div>\n</div>\n<div class=\"section avoid-break-inside\" style=\"padding-bottom: 2rem;\">\n  <div class=\"paragraph\">And ancient stories,</div>\n  <div class=\"paragraph\">are not an exception at all.</div>\n</div>\n<div class=\"section avoid-break-inside\" style=\"padding-bottom: 2rem;\">\n  <div class=\"paragraph\">Tn Australian Aboriginal Culture, The Dreaming or Dreamtime, sometimes best though of as everywhen,</div>\n  <div class=\"paragraph\">represents, a time when Heroes with Supernatural abilities walked the earth.</div>\n</div>\n<div class=\"section avoid-break-inside\" style=\"padding-bottom: 2rem;\">\n  <br>\n</div>\n<div class=\"section avoid-break-inside\" style=\"padding-bottom: 2rem;\">\n  <div class=\"paragraph\">The reason why these things emerge across cultures,</div>\n  <div class=\"paragraph\">because we experience Heroic transformations ourselves.</div>\n</div>\n<div class=\"section avoid-break-inside\" style=\"padding-bottom: 2rem;\">\n  <div class=\"paragraph\">We hardly even think about it,</div>\n  <div class=\"paragraph\">as ten year old we look back to when we were five, and we see that we are more.</div>\n</div>\n<div class=\"section avoid-break-inside\" style=\"padding-bottom: 2rem;\">\n  <div class=\"paragraph\">In our mid-teens we look back to the kids we were,</div>\n  <div class=\"paragraph\">when we were only ten.</div>\n</div>\n<div class=\"section avoid-break-inside\" style=\"padding-bottom: 2rem;\">\n  <div class=\"paragraph\">The way we comprehend our growth,</div>\n  <div class=\"paragraph\">is as transformation.</div>\n</div>\n<div class=\"section avoid-break-inside\" style=\"padding-bottom: 2rem;\">\n  <div class=\"paragraph\">Be it, the transformation into a Superhero,</div>\n  <div class=\"paragraph\">or the transformation of a stranger like Kal-El into a Human boy.</div>\n</div>\n<div class=\"section avoid-break-inside\" style=\"padding-bottom: 2rem;\">\n  <div class=\"paragraph\">Or the secret wish to be like the heroes that used to walk the earth,</div>\n  <div class=\"paragraph\">and have these mighty supernatural powers.</div>\n</div>\n<div class=\"section avoid-break-inside\" style=\"padding-bottom: 2rem;\">\n  <div class=\"paragraph\">It is a dream rooted,</div>\n  <div class=\"paragraph\">in our own experience of growing up.</div>\n</div>\n<div class=\"section avoid-break-inside\" style=\"padding-bottom: 2rem;\">\n  <div class=\"paragraph\">It is Human,</div>\n  <div class=\"paragraph\">All too Human.</div>\n</div>\n<div class=\"section avoid-break-inside\" style=\"padding-bottom: 2rem;\">\n  <br>\n</div>\n<div class=\"section avoid-break-inside\" style=\"padding-bottom: 2rem;\">\n  <div class=\"paragraph\">Now, our early transformations come from our brain developing,</div>\n  <div class=\"paragraph\">and <span>our brain keeps developing into our 30's, and beyond<sup>[1]</sup></span>.</div>\n</div>\n<div class=\"section avoid-break-inside\" style=\"padding-bottom: 2rem;\">\n  <div class=\"paragraph\">But as we mature, as we learn more, we get good at abstracting things,</div>\n  <div class=\"paragraph\">summarizing what we need, and throwing away the stuff that does not yet make sense, such as Biotechnology or Neurology, or Combinatorial Genomics.</div>\n</div>\n<div class=\"section avoid-break-inside\" style=\"padding-bottom: 2rem;\">\n  <div class=\"paragraph\">Which is part of the reason why, we should only read or listen-to books that we love,</div>\n  <div class=\"paragraph\">because we will need to return to them dozens of times.</div>\n</div>\n<div class=\"section avoid-break-inside\" style=\"padding-bottom: 2rem;\">\n  <div class=\"paragraph\">As a young person you may think that Nanobots are the technology of the future,</div>\n  <div class=\"paragraph\">but that has been done, that's Biotech, technology that is even more relevant to us, because it is what powers us.</div>\n</div>\n<div class=\"section avoid-break-inside\" style=\"padding-bottom: 2rem;\">\n  <div class=\"paragraph\">But it is really, really, really, good to start with,</div>\n  <div class=\"paragraph\"><span>Tony Stark's more primitive and simpler technology, his Nano Tech Iron Man armor<sup>[2]</sup></span>.</div>\n</div>\n<div class=\"section avoid-break-inside\" style=\"padding-bottom: 2rem;\">\n  <div class=\"paragraph\">Those of us who are interested in tiny robots, will actually transform interests from cartoon technology and simple robots,</div>\n  <div class=\"paragraph\">over to Biotechnology and perhaps Combinatorial Genomics.</div>\n</div>\n<div class=\"section avoid-break-inside\" style=\"padding-bottom: 2rem;\">\n  <div class=\"paragraph\">It is good to start with simple dreams,</div>\n  <div class=\"paragraph\">so as long as we keep going.</div>\n</div>\n<div class=\"section avoid-break-inside\" style=\"padding-bottom: 2rem;\">\n  <br>\n</div>\n<div class=\"section avoid-break-inside\" style=\"padding-bottom: 2rem;\">\n  <div class=\"paragraph\">And here we arrive at the force behind the transformations,</div>\n  <div class=\"paragraph\">it is a force that enhances our brains, our decision making, our abstract thinking, and our Dreaming.</div>\n</div>\n<div class=\"section avoid-break-inside\" style=\"padding-bottom: 2rem;\">\n  <div class=\"paragraph\">Knowledge.</div>\n</div>\n<div class=\"section avoid-break-inside\" style=\"padding-bottom: 2rem;\">\n  <br>\n</div>\n<div class=\"section avoid-break-inside\" style=\"padding-bottom: 2rem;\">\n  <div class=\"paragraph\"><span>There are Beautiful Great Beings out there that spark or fuel transformations<sup>[3]</sup></span>,</div>\n  <div class=\"paragraph\">that <span>awaken adults<sup>[4]</sup></span> even and <span>from decades long slumber<sup>[5]</sup></span>.</div>\n</div>\n<div class=\"section avoid-break-inside\" style=\"padding-bottom: 2rem;\">\n  <div class=\"paragraph\">The act of awakening is much simpler,</div>\n  <div class=\"paragraph\">then what it takes to trick people away from education, or force them to read just one book.</div>\n</div>\n<div class=\"section avoid-break-inside\" style=\"padding-bottom: 2rem;\">\n  <div class=\"paragraph\">This is because transformations call to us,</div>\n  <div class=\"paragraph\">and transformations are always for better.</div>\n</div>\n<div class=\"section avoid-break-inside\" style=\"padding-bottom: 2rem;\">\n  <div class=\"paragraph\">Some are fascinated by Technology or Biology,</div>\n  <div class=\"paragraph\">others will be fascinated by Philosophy, by search for, and love of, wisdom.</div>\n</div>\n<div class=\"section avoid-break-inside\" style=\"padding-bottom: 2rem;\">\n  <div class=\"paragraph\">But they all go higher,</div>\n  <div class=\"paragraph\">and that age old transformation is not just about a path to their own enlightenment.</div>\n</div>\n<div class=\"section avoid-break-inside\" style=\"padding-bottom: 2rem;\">\n  <div class=\"paragraph\">Eventually Great Thinkers begin speaking out,</div>\n  <div class=\"paragraph\">begin <span>influencing the world for the better<sup>[6]</sup></span>, <span>healing the world<sup>[7]</sup></span>, and <span>advancing the world<sup>[8]</sup></span>.</div>\n</div>\n<div class=\"section avoid-break-inside\" style=\"padding-bottom: 2rem;\">\n  <br>\n</div>\n<div class=\"section avoid-break-inside\" style=\"padding-bottom: 2rem;\">\n  <div class=\"paragraph\">The transformations we find in imaginary stories are pretty silly,</div>\n  <div class=\"paragraph\">when compared to the Knowledge and Wisdom driven transformations that Great Beings go through.</div>\n</div>\n<div class=\"section avoid-break-inside\" style=\"padding-bottom: 2rem;\">\n  <div class=\"paragraph\">The world that is in the background of a made up hero,</div>\n  <div class=\"paragraph\">is a tiny world.</div>\n</div>\n<div class=\"section avoid-break-inside\" style=\"padding-bottom: 2rem;\">\n  <div class=\"paragraph\">Real heroes rise in the Real World,</div>\n  <div class=\"paragraph\">a world of Nine Billion Voices.</div>\n</div>\n<div class=\"section avoid-break-inside\" style=\"padding-bottom: 2rem;\">\n  <div class=\"paragraph\">They understand that their greatest superpower is the power of of explanation and inspiration,</div>\n  <div class=\"paragraph\">the power to help other grow all the way up so that they may become Great Beings.</div>\n</div>\n<div class=\"section avoid-break-inside\" style=\"padding-bottom: 2rem;\">\n  <br>\n</div>\n<div class=\"section avoid-break-inside\" style=\"padding-bottom: 2rem;\">\n  <div class=\"paragraph\">Clearly, the day the World becomes United in Peace,</div>\n  <div class=\"paragraph\">is the day when all Human Beings recognize that they must grow all the way up until they become Wise and Great Beings.</div>\n</div>\n<div class=\"break-after\">&nbsp;</div>\n<div>\n  <div class=\"section\" style=\"padding-bottom: 1rem;\">References</div>\n  <div>[1]: https://www.youtube.com/watch?v=_KxRAfXEzIQ</div>\n  <div>[2]: https://www.youtube.com/watch?v=CjpXj2BqJBY</div>\n  <div>[3]: https://www.youtube.com/watch?v=BzRR3Mo4noU</div>\n  <div>[4]: https://www.youtube.com/watch?v=iCvmsMzlF7o</div>\n  <div>[5]: https://www.youtube.com/watch?v=hPSvdKTEZug</div>\n  <div>[6]: https://www.youtube.com/watch?v=EWPFmdAWRZ0</div>\n  <div>[7]: https://www.youtube.com/watch?v=Lp-3CQ6ZD4k</div>\n  <div>[8]: https://www.youtube.com/watch?v=QHIocNOHd7A</div>\n</div>",
  "text": "All the imaginary stories tend to have some truth mechanic to them,\nand it is not always the point of a story, sometimes it is its diving force.\nIn our modem society,\nwe must look to modern things to capture that.\nIn older cultures, things aren't that much different,\nI mean Galahad or King Arthur, is just Iron Man and Superman.\nIf a hero needed a weakens back then, it would be witchcraft,\nhaving been put under a spell.\nToday our culture has evolved and we have Kryptonite, Nanobots,\nand whatever makes the story go.\nAnd ancient stories,\nare not an exception at all.\nTn Australian Aboriginal Culture, The Dreaming or Dreamtime, sometimes best though of as everywhen,\nrepresents, a time when Heroes with Supernatural abilities walked the earth.\n\nThe reason why these things emerge across cultures,\nbecause we experience Heroic transformations ourselves.\nWe hardly even think about it,\nas ten year old we look back to when we were five, and we see that we are more.\nIn our mid-teens we look back to the kids we were,\nwhen we were only ten.\nThe way we comprehend our growth,\nis as transformation.\nBe it, the transformation into a Superhero,\nor the transformation of a stranger like Kal-El into a Human boy.\nOr the secret wish to be like the heroes that used to walk the earth,\nand have these mighty supernatural powers.\nIt is a dream rooted,\nin our own experience of growing up.\nIt is Human,\nAll too Human.\n\nNow, our early transformations come from our brain developing,\nand our brain keeps developing into our 30's, and beyond[1].\nBut as we mature, as we learn more, we get good at abstracting things,\nsummarizing what we need, and throwing away the stuff that does not yet make sense, such as Biotechnology or Neurology, or Combinatorial Genomics.\nWhich is part of the reason why, we should only read or listen-to books that we love,\nbecause we will need to return to them dozens of times.\nAs a young person you may think that Nanobots are the technology of the future,\nbut that has been done, that's Biotech, technology that is even more relevant to us, because it is what powers us.\nBut it is really, really, really, good to start with,\nTony Stark's more primitive and simpler technology, his Nano Tech Iron Man armor[2].\nThose of us who are interested in tiny robots, will actually transform interests from cartoon technology and simple robots,\nover to Biotechnology and perhaps Combinatorial Genomics.\nIt is good to start with simple dreams,\nso as long as we keep going.\n\nAnd here we arrive at the force behind the transformations,\nit is a force that enhances our brains, our decision making, our abstract thinking, and our Dreaming.\nKnowledge.\n\nThere are Beautiful Great Beings out there that spark or fuel transformations[3],\nthat awaken adults[4] even and from decades long slumber[5].\nThe act of awakening is much simpler,\nthen what it takes to trick people away from education, or force them to read just one book.\nThis is because transformations call to us,\nand transformations are always for better.\nSome are fascinated by Technology or Biology,\nothers will be fascinated by Philosophy, by search for, and love of, wisdom.\nBut they all go higher,\nand that age old transformation is not just about a path to their own enlightenment.\nEventually Great Thinkers begin speaking out,\nbegin influencing the world for the better[6], healing the world[7], and advancing the world[8].\n\nThe transformations we find in imaginary stories are pretty silly,\nwhen compared to the Knowledge and Wisdom driven transformations that Great Beings go through.\nThe world that is in the background of a made up hero,\nis a tiny world.\nReal heroes rise in the Real World,\na world of Nine Billion Voices.\nThey understand that their greatest superpower is the power of of explanation and inspiration,\nthe power to help other grow all the way up so that they may become Great Beings.\n\nClearly, the day the World becomes United in Peace,\nis the day when all Human Beings recognize that they must grow all the way up until they become Wise and Great Beings.\n \nReferences\n[1]: https://www.youtube.com/watch?v=_KxRAfXEzIQ\n[2]: https://www.youtube.com/watch?v=CjpXj2BqJBY\n[3]: https://www.youtube.com/watch?v=BzRR3Mo4noU\n[4]: https://www.youtube.com/watch?v=iCvmsMzlF7o\n[5]: https://www.youtube.com/watch?v=hPSvdKTEZug\n[6]: https://www.youtube.com/watch?v=EWPFmdAWRZ0\n[7]: https://www.youtube.com/watch?v=Lp-3CQ6ZD4k\n[8]: https://www.youtube.com/watch?v=QHIocNOHd7A",
  "images": [],
  "links": [
    {
      "title": "our brain keeps developing into our 30's, and beyond",
      "url": "https://www.youtube.com/watch?v=_KxRAfXEzIQ",
      "hostname": "www.youtube.com"
    },
    {
      "title": "Tony Stark's more primitive and simpler technology, his Nano Tech Iron Man armor",
      "url": "https://www.youtube.com/watch?v=CjpXj2BqJBY",
      "hostname": "www.youtube.com"
    },
    {
      "title": "There are Beautiful Great Beings out there that spark or fuel transformations",
      "url": "https://www.youtube.com/watch?v=BzRR3Mo4noU",
      "hostname": "www.youtube.com"
    },
    {
      "title": "awaken adults",
      "url": "https://www.youtube.com/watch?v=iCvmsMzlF7o",
      "hostname": "www.youtube.com"
    },
    {
      "title": "from decades long slumber",
      "url": "https://www.youtube.com/watch?v=hPSvdKTEZug",
      "hostname": "www.youtube.com"
    },
    {
      "title": "influencing the world for the better",
      "url": "https://www.youtube.com/watch?v=EWPFmdAWRZ0",
      "hostname": "www.youtube.com"
    },
    {
      "title": "healing the world",
      "url": "https://www.youtube.com/watch?v=Lp-3CQ6ZD4k",
      "hostname": "www.youtube.com"
    },
    {
      "title": "advancing the world",
      "url": "https://www.youtube.com/watch?v=QHIocNOHd7A",
      "hostname": "www.youtube.com"
    }
  ]
}