{
  "title": "Strong",
  "date": "2021-01-10T03:26:05.966Z",
  "image": "poetry-0315-illustration.jpg",
  "audio": "poetry-0315.mp3",
  "artwork": "https://unsplash.com/photos/Qu0kvRIK5hc",
  "id": "furkies-purrkies-poetry-0315",
  "attachments": {},
  "guid": "c35ac59b-d2ea-4798-9d91-21304492dc9c"
}
