{
  "title": "The Lighthouse",
  "date": "2021-02-24T01:50:46.651Z",
  "image": "poetry-0360-illustration.jpg",
  "audio": "poetry-0360.mp3",
  "artwork": "https://catpea.com/",
  "id": "furkies-purrkies-poetry-0360",
  "attachments": {},
  "guid": "0eb51575-8796-4703-ae29-99f703a75ed5"
}
