{
  "name": "furkies-purrkies-poetry-0737",
  "id": "furkies-purrkies-poetry-0737",
  "title": "A Note To Parents On The Subject Of Art And The Future",
  "date": "2022-03-07T23:15:42.628Z",
  "image": "poetry-0737-illustration.jpg",
  "artwork": "https://unsplash.com/photos/kd2VYspjC3s",
  "audio": "poetry-0737.mp3",
  "guid": "446058b0-a93e-4ac7-a008-0779509496cd",
  "html": "<div class=\"section\">\n  <p>All the big changes that take but one step,<br>might have already happened, what humanity needs now requires multiple steps.</p>\n  <p>As I write this,<br>the wold is experiencing a Pandemic, and a renewed threat of Nuclear War.</p>\n  <p>Wold leaders are calling for return to office,<br>and are reading teenagers to fight in new wars.</p>\n</div>\n<div class=\"section\">\n  <hr>\n</div>\n<div class=\"section\">\n  <p>Lack of real education really hurts the world,<br>because then, people make decisions based on what little they know.</p>\n  <p>They will have long dismissed impressions of fake education they have once felt,<br>and at all cost move forward without even allowing doubt.</p>\n  <p>If you raise a child in war,<br>they will never discover art, and may not even know to fell with their heart.</p>\n  <p>Parents don't let your children grow up in the cultures of the past,<br>because then all our efforts will be for naught, and circles is all we'll ever get.</p>\n  <p>Help them rise,<br>so that their grand-kids are not forced into fighting in a Nuclear War.</p>\n</div>\n<div class=\"section\">\n  <hr>\n</div>\n<div class=\"section\">\n  <p>Today,<br>in our lack of real education...</p>\n  <p>Keywords necessary for the advancement of human kind are ridiculed,<br>all the while world peace moves further and further away.</p>\n  <p>Even though we have a global banking system,<br>and concepts of trading futures or short selling stocks.</p>\n  <p>We we are not able to see the importance of Global Universal Income<br>that eliminates poverty and by extension war.</p>\n  <p>Even though we should never ask where that money comes from,<br>we can easily imagine it comes from a more peaceful and prosperous future that is born from Global Universal Income.</p>\n  <p>When threatened by poverty,<br>humanity will not be able to get a Real and Authentic Education.</p>\n  <p>And without real and authentic education,<br>we can't have real and authentic world leaders that will help humanity advance.</p>\n  <p>Without them,<br>we will only run in circles.</p>\n</div>\n<div class=\"section\">\n  <hr>\n</div>\n<div class=\"section\">\n  <p>Creation of art and its role in our world is hard to explain,<br>a lot of people believe that their poverty is their fault.</p>\n  <p>Poverty is a problem with the way we understand and use money,<br>it is not allowed to use money in human affairs while crushing the world with poverty.</p>\n  <p>If we are to use money,<br>then poverty must be eliminated.</p>\n  <p>It means that no human being is to fall,<br>beneath what today is considered middle class.</p>\n  <p>This requires a global universal income card,<br>and everyone gets one, including criminals.</p>\n  <p>It is tough to steal,<br>when you don't need to anymore.</p>\n  <p>The card must be granted to all, rich or poor,<br>it is hard to be homeless when you can afford rent.</p>\n  <p>It is hard to go out of business,<br>when your customers wake up with $100 on their card every day.</p>\n</div>\n<div class=\"section\">\n  <hr>\n</div>\n<div class=\"section\">\n  <p>It is hard to live in a world,<br>that ignores poverty.</p>\n  <p>What can a politician say, that has any meaning,<br>when he can't understand that poverty is evil - it just never occurred to him.</p>\n  <p>Politicians, have always tolerated poverty and homelessness,<br>and sending teenagers to war.</p>\n  <p>This means that the world has no leaders,<br>nobody is in charge.</p>\n  <p>And that almost all people today reject the idea of free money,<br>for the purpose of elimination of poverty.</p>\n  <p>Means that there is nobody here,<br>to stand up for human rights.</p>\n</div>\n<div class=\"section\">\n  <hr>\n</div>\n<div class=\"section\">\n  <p>Just like the discussion of art as means of elimination of poverty,<br>pushes us into politics.</p>\n  <p>Helping children to become the leaders needs,<br>also pushes us into an odd place.</p>\n</div>\n<div class=\"section\">\n  <hr>\n</div>\n<div class=\"section\">\n  <p>The leaders that the word needs,<br>so that we become more humane to each other.</p>\n  <p>And as a bonus eliminate propaganda and nationalism,<br>religious and political borders and few other idiotic things.</p>\n  <p>Begin on their first big test somewhere towards the end of middle school,<br>they begin the moment they are presented with a choice to memorize or to learn.</p>\n</div>\n<div class=\"section\">\n  <hr>\n</div>\n<div class=\"section\">\n  <p>And their biggest obstacle,<br>is actually their parents.</p>\n  <p>Most parents lie that they can't get a job without a diploma,<br>and threaten children with punishment for bad grades.</p>\n  <p>Of course schools do the same,<br>they threaten with shame and holding kids back a grade.</p>\n  <p>The reality of the matter is,<br>these jobs will pay you less and less the longer your work.</p>\n  <p>They will insult you with a \"raise\",<br>that does not take inflation under account.</p>\n  <p>They will force you to smile while paying you less,<br>and forcing you to work harder...</p>\n  <p>As you work your entire life away,<br>books, adventure and creativity, and growing up - be damned.</p>\n  <p>Wage slavery prevents people from flourishing,<br>they may appreciate wisdom...</p>\n  <p>But will never figure out,<br>that they are meant to become great beings.</p>\n</div>\n<div class=\"section\">\n  <hr>\n</div>\n<div class=\"section\">\n  <p>I went to the woods because I wished to live deliberately,<br>to front only the essential facts of life, and see if I could not learn what it had to teach,<br>and not, when I came to die, discover that I had not lived.</p>\n  <p>I did not wish to live what was not life,<br>living is do dear; nor did I wish to practice resignation, unless it was quite necessary.</p>\n  <p>I wanted to live deep and suck out all of the marrow of life,<br>to cut a broad swatch and shave close, to drive life into a corner, and reduce it to its lowest terms</p>\n</div>\n<div class=\"section\">\n  <hr>\n</div>\n<div class=\"section\">\n  <p>I really feed bad for saying this,<br>because this should never have come up.</p>\n  <p>But your children unfortunately, need your permission,<br>to leave the classroom when presented with a test they were tricked into cramming for.</p>\n  <p>You are propagating the dark ages, if you really though about it,<br>I think the best you could come up with is: \"How was I supposed to know\" - so lets just leave it at that.</p>\n</div>\n<div class=\"section\">\n  <hr>\n</div>\n<div class=\"section\">\n  <p>By leaving the fake classroom,<br>the students will be allowed to search for something real.</p>\n  <p>In this desperate and inhumane time of global poverty,<br>the definition of real education is:</p>\n</div>\n<div class=\"section\">\n  <hr>\n</div>\n<div class=\"section\">\n  <p>A deeply inspiring and creative process,<br>that immediately presents a very-real possibility of making a little bit of money.</p>\n  <p>Where that possibility scales on an easy ramp of self improvement,<br>and goes from a real possibility to reality with just a little bit of effort.</p>\n  <p>This describes the process of Creation and Sale of Art,<br>this may involve 3D modeling that produces shadow reference for a 3D painting.</p>\n  <p>But it would be a very inviting experience,<br>just the creation of a few squares, to get the shadows right.</p>\n  <p>The entry into the world of art,<br>must come with a very mild on-ramp.</p>\n</div>\n<div class=\"section\">\n  <hr>\n</div>\n<div class=\"section\">\n  <p>Mild and pleasant on-ramps with real results,<br>is precisely what students will seek, when allowed to look for real education.</p>\n</div>\n<div class=\"section\">\n  <hr>\n</div>\n<div class=\"section\">\n  <p>Once you give the children the permission,<br>to reject fake and mind numbing fake education.</p>\n  <p>And they experience the noble and dignified process,<br>of creating something from the heart, in the world of art.</p>\n  <p>Once they stop being terrified of poverty and homelessness,<br>and become stronger by knowing they can create out of imagination.</p>\n  <p>Will they be able to detect,<br>what wage slavery does to a mind.</p>\n  <p>By extension, by subtle analogy,<br>they will grasp how propaganda is fueled by fake education.</p>\n  <p>How people who were forced in a school that granted them low knowledge,<br>can be easily pushed to make war a reality.</p>\n  <p>Here they will understand that to help the world advance,<br>the world must be set free from poverty.</p>\n  <p>You will never comprehend the meaning of free money,<br>nobody who didn't push themselves away from fake education will grasp the concept of a more honest and humane world.</p>\n</div>\n<div class=\"section\">\n  <hr>\n</div>\n<div class=\"section\">\n  <p>The children who stopped being scared of poverty,<br>by means of being able to create works out of their hearts, alone.</p>\n  <p>They will know to reject toxic wage slavery,<br>and encourage people towards creativity that holds the promise of financial independence.</p>\n  <p>Eventually, by subtle analogy,<br>they as the future leaders, will see that the Global Income Card that raises everyone up into what is today the middle class...</p>\n  <p>Is the only humane way forward,<br>as there is no profit to be made for keeping humanity poor and too scared and tired to get a real education.</p>\n  <p>The end of poverty is the only way to advance human kind,<br>past the problems we face today; and well into Wisdom, Greatness and World Peace that is worthy of the future generations.</p>\n</div>",
  "bootstrap": "<div class=\"card card-section bg-dark text-warning shadow\">\n  <div class=\"section card-body mb-0 my-2\">\n    <div class=\"paragraph card-text card-stanza my-5 text-center\">All the big changes that take but one step,<br>might have already happened, what humanity needs now requires multiple steps.</div>\n    <div class=\"paragraph card-text card-stanza my-5 text-center\">As I write this,<br>the wold is experiencing a Pandemic, and a renewed threat of Nuclear War.</div>\n    <div class=\"paragraph card-text card-stanza my-5 text-center\">Wold leaders are calling for return to office,<br>and are reading teenagers to fight in new wars.</div>\n  </div>\n</div>\n<div class=\"mb-5 section-spacer\">&nbsp;</div>\n<div class=\"card card-section bg-dark text-warning shadow\">\n  <div class=\"section card-body mb-0 my-2\">\n    <div class=\"paragraph card-text card-stanza my-5 text-center\">Lack of real education really hurts the world,<br>because then, people make decisions based on what little they know.</div>\n    <div class=\"paragraph card-text card-stanza my-5 text-center\">They will have long dismissed impressions of fake education they have once felt,<br>and at all cost move forward without even allowing doubt.</div>\n    <div class=\"paragraph card-text card-stanza my-5 text-center\">If you raise a child in war,<br>they will never discover art, and may not even know to fell with their heart.</div>\n    <div class=\"paragraph card-text card-stanza my-5 text-center\">Parents don't let your children grow up in the cultures of the past,<br>because then all our efforts will be for naught, and circles is all we'll ever get.</div>\n    <div class=\"paragraph card-text card-stanza my-5 text-center\">Help them rise,<br>so that their grand-kids are not forced into fighting in a Nuclear War.</div>\n  </div>\n</div>\n<div class=\"mb-5 section-spacer\">&nbsp;</div>\n<div class=\"card card-section bg-dark text-warning shadow\">\n  <div class=\"section card-body mb-0 my-2\">\n    <div class=\"paragraph card-text card-stanza my-5 text-center\">Today,<br>in our lack of real education...</div>\n    <div class=\"paragraph card-text card-stanza my-5 text-center\">Keywords necessary for the advancement of human kind are ridiculed,<br>all the while world peace moves further and further away.</div>\n    <div class=\"paragraph card-text card-stanza my-5 text-center\">Even though we have a global banking system,<br>and concepts of trading futures or short selling stocks.</div>\n    <div class=\"paragraph card-text card-stanza my-5 text-center\">We we are not able to see the importance of Global Universal Income<br>that eliminates poverty and by extension war.</div>\n    <div class=\"paragraph card-text card-stanza my-5 text-center\">Even though we should never ask where that money comes from,<br>we can easily imagine it comes from a more peaceful and prosperous future that is born from Global Universal Income.</div>\n    <div class=\"paragraph card-text card-stanza my-5 text-center\">When threatened by poverty,<br>humanity will not be able to get a Real and Authentic Education.</div>\n    <div class=\"paragraph card-text card-stanza my-5 text-center\">And without real and authentic education,<br>we can't have real and authentic world leaders that will help humanity advance.</div>\n    <div class=\"paragraph card-text card-stanza my-5 text-center\">Without them,<br>we will only run in circles.</div>\n  </div>\n</div>\n<div class=\"mb-5 section-spacer\">&nbsp;</div>\n<div class=\"card card-section bg-dark text-warning shadow\">\n  <div class=\"section card-body mb-0 my-2\">\n    <div class=\"paragraph card-text card-stanza my-5 text-center\">Creation of art and its role in our world is hard to explain,<br>a lot of people believe that their poverty is their fault.</div>\n    <div class=\"paragraph card-text card-stanza my-5 text-center\">Poverty is a problem with the way we understand and use money,<br>it is not allowed to use money in human affairs while crushing the world with poverty.</div>\n    <div class=\"paragraph card-text card-stanza my-5 text-center\">If we are to use money,<br>then poverty must be eliminated.</div>\n    <div class=\"paragraph card-text card-stanza my-5 text-center\">It means that no human being is to fall,<br>beneath what today is considered middle class.</div>\n    <div class=\"paragraph card-text card-stanza my-5 text-center\">This requires a global universal income card,<br>and everyone gets one, including criminals.</div>\n    <div class=\"paragraph card-text card-stanza my-5 text-center\">It is tough to steal,<br>when you don't need to anymore.</div>\n    <div class=\"paragraph card-text card-stanza my-5 text-center\">The card must be granted to all, rich or poor,<br>it is hard to be homeless when you can afford rent.</div>\n    <div class=\"paragraph card-text card-stanza my-5 text-center\">It is hard to go out of business,<br>when your customers wake up with $100 on their card every day.</div>\n  </div>\n</div>\n<div class=\"mb-5 section-spacer\">&nbsp;</div>\n<div class=\"card card-section bg-dark text-warning shadow\">\n  <div class=\"section card-body mb-0 my-2\">\n    <div class=\"paragraph card-text card-stanza my-5 text-center\">It is hard to live in a world,<br>that ignores poverty.</div>\n    <div class=\"paragraph card-text card-stanza my-5 text-center\">What can a politician say, that has any meaning,<br>when he can't understand that poverty is evil - it just never occurred to him.</div>\n    <div class=\"paragraph card-text card-stanza my-5 text-center\">Politicians, have always tolerated poverty and homelessness,<br>and sending teenagers to war.</div>\n    <div class=\"paragraph card-text card-stanza my-5 text-center\">This means that the world has no leaders,<br>nobody is in charge.</div>\n    <div class=\"paragraph card-text card-stanza my-5 text-center\">And that almost all people today reject the idea of free money,<br>for the purpose of elimination of poverty.</div>\n    <div class=\"paragraph card-text card-stanza my-5 text-center\">Means that there is nobody here,<br>to stand up for human rights.</div>\n  </div>\n</div>\n<div class=\"mb-5 section-spacer\">&nbsp;</div>\n<div class=\"card card-section bg-dark text-warning shadow\">\n  <div class=\"section card-body mb-0 my-2\">\n    <div class=\"paragraph card-text card-stanza my-5 text-center\">Just like the discussion of art as means of elimination of poverty,<br>pushes us into politics.</div>\n    <div class=\"paragraph card-text card-stanza my-5 text-center\">Helping children to become the leaders needs,<br>also pushes us into an odd place.</div>\n  </div>\n</div>\n<div class=\"mb-5 section-spacer\">&nbsp;</div>\n<div class=\"card card-section bg-dark text-warning shadow\">\n  <div class=\"section card-body mb-0 my-2\">\n    <div class=\"paragraph card-text card-stanza my-5 text-center\">The leaders that the word needs,<br>so that we become more humane to each other.</div>\n    <div class=\"paragraph card-text card-stanza my-5 text-center\">And as a bonus eliminate propaganda and nationalism,<br>religious and political borders and few other idiotic things.</div>\n    <div class=\"paragraph card-text card-stanza my-5 text-center\">Begin on their first big test somewhere towards the end of middle school,<br>they begin the moment they are presented with a choice to memorize or to learn.</div>\n  </div>\n</div>\n<div class=\"mb-5 section-spacer\">&nbsp;</div>\n<div class=\"card card-section bg-dark text-warning shadow\">\n  <div class=\"section card-body mb-0 my-2\">\n    <div class=\"paragraph card-text card-stanza my-5 text-center\">And their biggest obstacle,<br>is actually their parents.</div>\n    <div class=\"paragraph card-text card-stanza my-5 text-center\">Most parents lie that they can't get a job without a diploma,<br>and threaten children with punishment for bad grades.</div>\n    <div class=\"paragraph card-text card-stanza my-5 text-center\">Of course schools do the same,<br>they threaten with shame and holding kids back a grade.</div>\n    <div class=\"paragraph card-text card-stanza my-5 text-center\">The reality of the matter is,<br>these jobs will pay you less and less the longer your work.</div>\n    <div class=\"paragraph card-text card-stanza my-5 text-center\">They will insult you with a \"raise\",<br>that does not take inflation under account.</div>\n    <div class=\"paragraph card-text card-stanza my-5 text-center\">They will force you to smile while paying you less,<br>and forcing you to work harder...</div>\n    <div class=\"paragraph card-text card-stanza my-5 text-center\">As you work your entire life away,<br>books, adventure and creativity, and growing up - be damned.</div>\n    <div class=\"paragraph card-text card-stanza my-5 text-center\">Wage slavery prevents people from flourishing,<br>they may appreciate wisdom...</div>\n    <div class=\"paragraph card-text card-stanza my-5 text-center\">But will never figure out,<br>that they are meant to become great beings.</div>\n  </div>\n</div>\n<div class=\"mb-5 section-spacer\">&nbsp;</div>\n<div class=\"card card-section bg-dark text-warning shadow\">\n  <div class=\"section card-body mb-0 my-2\">\n    <div class=\"paragraph card-text card-stanza my-5 text-center\">I went to the woods because I wished to live deliberately,<br>to front only the essential facts of life, and see if I could not learn what it had to teach,<br>and not, when I came to die, discover that I had not lived.</div>\n    <div class=\"paragraph card-text card-stanza my-5 text-center\">I did not wish to live what was not life,<br>living is do dear; nor did I wish to practice resignation, unless it was quite necessary.</div>\n    <div class=\"paragraph card-text card-stanza my-5 text-center\">I wanted to live deep and suck out all of the marrow of life,<br>to cut a broad swatch and shave close, to drive life into a corner, and reduce it to its lowest terms</div>\n  </div>\n</div>\n<div class=\"mb-5 section-spacer\">&nbsp;</div>\n<div class=\"card card-section bg-dark text-warning shadow\">\n  <div class=\"section card-body mb-0 my-2\">\n    <div class=\"paragraph card-text card-stanza my-5 text-center\">I really feed bad for saying this,<br>because this should never have come up.</div>\n    <div class=\"paragraph card-text card-stanza my-5 text-center\">But your children unfortunately, need your permission,<br>to leave the classroom when presented with a test they were tricked into cramming for.</div>\n    <div class=\"paragraph card-text card-stanza my-5 text-center\">You are propagating the dark ages, if you really though about it,<br>I think the best you could come up with is: \"How was I supposed to know\" - so lets just leave it at that.</div>\n  </div>\n</div>\n<div class=\"mb-5 section-spacer\">&nbsp;</div>\n<div class=\"card card-section bg-dark text-warning shadow\">\n  <div class=\"section card-body mb-0 my-2\">\n    <div class=\"paragraph card-text card-stanza my-5 text-center\">By leaving the fake classroom,<br>the students will be allowed to search for something real.</div>\n    <div class=\"paragraph card-text card-stanza my-5 text-center\">In this desperate and inhumane time of global poverty,<br>the definition of real education is:</div>\n  </div>\n</div>\n<div class=\"mb-5 section-spacer\">&nbsp;</div>\n<div class=\"card card-section bg-dark text-warning shadow\">\n  <div class=\"section card-body mb-0 my-2\">\n    <div class=\"paragraph card-text card-stanza my-5 text-center\">A deeply inspiring and creative process,<br>that immediately presents a very-real possibility of making a little bit of money.</div>\n    <div class=\"paragraph card-text card-stanza my-5 text-center\">Where that possibility scales on an easy ramp of self improvement,<br>and goes from a real possibility to reality with just a little bit of effort.</div>\n    <div class=\"paragraph card-text card-stanza my-5 text-center\">This describes the process of Creation and Sale of Art,<br>this may involve 3D modeling that produces shadow reference for a 3D painting.</div>\n    <div class=\"paragraph card-text card-stanza my-5 text-center\">But it would be a very inviting experience,<br>just the creation of a few squares, to get the shadows right.</div>\n    <div class=\"paragraph card-text card-stanza my-5 text-center\">The entry into the world of art,<br>must come with a very mild on-ramp.</div>\n  </div>\n</div>\n<div class=\"mb-5 section-spacer\">&nbsp;</div>\n<div class=\"card card-section bg-dark text-warning shadow\">\n  <div class=\"section card-body mb-0 my-2\">\n    <div class=\"paragraph card-text card-stanza my-5 text-center\">Mild and pleasant on-ramps with real results,<br>is precisely what students will seek, when allowed to look for real education.</div>\n  </div>\n</div>\n<div class=\"mb-5 section-spacer\">&nbsp;</div>\n<div class=\"card card-section bg-dark text-warning shadow\">\n  <div class=\"section card-body mb-0 my-2\">\n    <div class=\"paragraph card-text card-stanza my-5 text-center\">Once you give the children the permission,<br>to reject fake and mind numbing fake education.</div>\n    <div class=\"paragraph card-text card-stanza my-5 text-center\">And they experience the noble and dignified process,<br>of creating something from the heart, in the world of art.</div>\n    <div class=\"paragraph card-text card-stanza my-5 text-center\">Once they stop being terrified of poverty and homelessness,<br>and become stronger by knowing they can create out of imagination.</div>\n    <div class=\"paragraph card-text card-stanza my-5 text-center\">Will they be able to detect,<br>what wage slavery does to a mind.</div>\n    <div class=\"paragraph card-text card-stanza my-5 text-center\">By extension, by subtle analogy,<br>they will grasp how propaganda is fueled by fake education.</div>\n    <div class=\"paragraph card-text card-stanza my-5 text-center\">How people who were forced in a school that granted them low knowledge,<br>can be easily pushed to make war a reality.</div>\n    <div class=\"paragraph card-text card-stanza my-5 text-center\">Here they will understand that to help the world advance,<br>the world must be set free from poverty.</div>\n    <div class=\"paragraph card-text card-stanza my-5 text-center\">You will never comprehend the meaning of free money,<br>nobody who didn't push themselves away from fake education will grasp the concept of a more honest and humane world.</div>\n  </div>\n</div>\n<div class=\"mb-5 section-spacer\">&nbsp;</div>\n<div class=\"card card-section bg-dark text-warning shadow\">\n  <div class=\"section card-body mb-0 my-2\">\n    <div class=\"paragraph card-text card-stanza my-5 text-center\">The children who stopped being scared of poverty,<br>by means of being able to create works out of their hearts, alone.</div>\n    <div class=\"paragraph card-text card-stanza my-5 text-center\">They will know to reject toxic wage slavery,<br>and encourage people towards creativity that holds the promise of financial independence.</div>\n    <div class=\"paragraph card-text card-stanza my-5 text-center\">Eventually, by subtle analogy,<br>they as the future leaders, will see that the Global Income Card that raises everyone up into what is today the middle class...</div>\n    <div class=\"paragraph card-text card-stanza my-5 text-center\">Is the only humane way forward,<br>as there is no profit to be made for keeping humanity poor and too scared and tired to get a real education.</div>\n    <div class=\"paragraph card-text card-stanza my-5 text-center\">The end of poverty is the only way to advance human kind,<br>past the problems we face today; and well into Wisdom, Greatness and World Peace that is worthy of the future generations.</div>\n  </div>\n</div>",
  "print": "<div class=\"section avoid-break-inside\" style=\"padding-bottom: 2rem;\">\n  <div class=\"paragraph\">All the big changes that take but one step,<br>might have already happened, what humanity needs now requires multiple steps.</div>\n  <div class=\"paragraph\">As I write this,<br>the wold is experiencing a Pandemic, and a renewed threat of Nuclear War.</div>\n  <div class=\"paragraph\">Wold leaders are calling for return to office,<br>and are reading teenagers to fight in new wars.</div>\n</div>\n<div class=\"section avoid-break-inside\" style=\"padding-bottom: 2rem;\">\n  <br>\n</div>\n<div class=\"section avoid-break-inside\" style=\"padding-bottom: 2rem;\">\n  <div class=\"paragraph\">Lack of real education really hurts the world,<br>because then, people make decisions based on what little they know.</div>\n  <div class=\"paragraph\">They will have long dismissed impressions of fake education they have once felt,<br>and at all cost move forward without even allowing doubt.</div>\n  <div class=\"paragraph\">If you raise a child in war,<br>they will never discover art, and may not even know to fell with their heart.</div>\n  <div class=\"paragraph\">Parents don't let your children grow up in the cultures of the past,<br>because then all our efforts will be for naught, and circles is all we'll ever get.</div>\n  <div class=\"paragraph\">Help them rise,<br>so that their grand-kids are not forced into fighting in a Nuclear War.</div>\n</div>\n<div class=\"section avoid-break-inside\" style=\"padding-bottom: 2rem;\">\n  <br>\n</div>\n<div class=\"section avoid-break-inside\" style=\"padding-bottom: 2rem;\">\n  <div class=\"paragraph\">Today,<br>in our lack of real education...</div>\n  <div class=\"paragraph\">Keywords necessary for the advancement of human kind are ridiculed,<br>all the while world peace moves further and further away.</div>\n  <div class=\"paragraph\">Even though we have a global banking system,<br>and concepts of trading futures or short selling stocks.</div>\n  <div class=\"paragraph\">We we are not able to see the importance of Global Universal Income<br>that eliminates poverty and by extension war.</div>\n  <div class=\"paragraph\">Even though we should never ask where that money comes from,<br>we can easily imagine it comes from a more peaceful and prosperous future that is born from Global Universal Income.</div>\n  <div class=\"paragraph\">When threatened by poverty,<br>humanity will not be able to get a Real and Authentic Education.</div>\n  <div class=\"paragraph\">And without real and authentic education,<br>we can't have real and authentic world leaders that will help humanity advance.</div>\n  <div class=\"paragraph\">Without them,<br>we will only run in circles.</div>\n</div>\n<div class=\"section avoid-break-inside\" style=\"padding-bottom: 2rem;\">\n  <br>\n</div>\n<div class=\"section avoid-break-inside\" style=\"padding-bottom: 2rem;\">\n  <div class=\"paragraph\">Creation of art and its role in our world is hard to explain,<br>a lot of people believe that their poverty is their fault.</div>\n  <div class=\"paragraph\">Poverty is a problem with the way we understand and use money,<br>it is not allowed to use money in human affairs while crushing the world with poverty.</div>\n  <div class=\"paragraph\">If we are to use money,<br>then poverty must be eliminated.</div>\n  <div class=\"paragraph\">It means that no human being is to fall,<br>beneath what today is considered middle class.</div>\n  <div class=\"paragraph\">This requires a global universal income card,<br>and everyone gets one, including criminals.</div>\n  <div class=\"paragraph\">It is tough to steal,<br>when you don't need to anymore.</div>\n  <div class=\"paragraph\">The card must be granted to all, rich or poor,<br>it is hard to be homeless when you can afford rent.</div>\n  <div class=\"paragraph\">It is hard to go out of business,<br>when your customers wake up with $100 on their card every day.</div>\n</div>\n<div class=\"section avoid-break-inside\" style=\"padding-bottom: 2rem;\">\n  <br>\n</div>\n<div class=\"section avoid-break-inside\" style=\"padding-bottom: 2rem;\">\n  <div class=\"paragraph\">It is hard to live in a world,<br>that ignores poverty.</div>\n  <div class=\"paragraph\">What can a politician say, that has any meaning,<br>when he can't understand that poverty is evil - it just never occurred to him.</div>\n  <div class=\"paragraph\">Politicians, have always tolerated poverty and homelessness,<br>and sending teenagers to war.</div>\n  <div class=\"paragraph\">This means that the world has no leaders,<br>nobody is in charge.</div>\n  <div class=\"paragraph\">And that almost all people today reject the idea of free money,<br>for the purpose of elimination of poverty.</div>\n  <div class=\"paragraph\">Means that there is nobody here,<br>to stand up for human rights.</div>\n</div>\n<div class=\"section avoid-break-inside\" style=\"padding-bottom: 2rem;\">\n  <br>\n</div>\n<div class=\"section avoid-break-inside\" style=\"padding-bottom: 2rem;\">\n  <div class=\"paragraph\">Just like the discussion of art as means of elimination of poverty,<br>pushes us into politics.</div>\n  <div class=\"paragraph\">Helping children to become the leaders needs,<br>also pushes us into an odd place.</div>\n</div>\n<div class=\"section avoid-break-inside\" style=\"padding-bottom: 2rem;\">\n  <br>\n</div>\n<div class=\"section avoid-break-inside\" style=\"padding-bottom: 2rem;\">\n  <div class=\"paragraph\">The leaders that the word needs,<br>so that we become more humane to each other.</div>\n  <div class=\"paragraph\">And as a bonus eliminate propaganda and nationalism,<br>religious and political borders and few other idiotic things.</div>\n  <div class=\"paragraph\">Begin on their first big test somewhere towards the end of middle school,<br>they begin the moment they are presented with a choice to memorize or to learn.</div>\n</div>\n<div class=\"section avoid-break-inside\" style=\"padding-bottom: 2rem;\">\n  <br>\n</div>\n<div class=\"section avoid-break-inside\" style=\"padding-bottom: 2rem;\">\n  <div class=\"paragraph\">And their biggest obstacle,<br>is actually their parents.</div>\n  <div class=\"paragraph\">Most parents lie that they can't get a job without a diploma,<br>and threaten children with punishment for bad grades.</div>\n  <div class=\"paragraph\">Of course schools do the same,<br>they threaten with shame and holding kids back a grade.</div>\n  <div class=\"paragraph\">The reality of the matter is,<br>these jobs will pay you less and less the longer your work.</div>\n  <div class=\"paragraph\">They will insult you with a \"raise\",<br>that does not take inflation under account.</div>\n  <div class=\"paragraph\">They will force you to smile while paying you less,<br>and forcing you to work harder...</div>\n  <div class=\"paragraph\">As you work your entire life away,<br>books, adventure and creativity, and growing up - be damned.</div>\n  <div class=\"paragraph\">Wage slavery prevents people from flourishing,<br>they may appreciate wisdom...</div>\n  <div class=\"paragraph\">But will never figure out,<br>that they are meant to become great beings.</div>\n</div>\n<div class=\"section avoid-break-inside\" style=\"padding-bottom: 2rem;\">\n  <br>\n</div>\n<div class=\"section avoid-break-inside\" style=\"padding-bottom: 2rem;\">\n  <div class=\"paragraph\">I went to the woods because I wished to live deliberately,<br>to front only the essential facts of life, and see if I could not learn what it had to teach,<br>and not, when I came to die, discover that I had not lived.</div>\n  <div class=\"paragraph\">I did not wish to live what was not life,<br>living is do dear; nor did I wish to practice resignation, unless it was quite necessary.</div>\n  <div class=\"paragraph\">I wanted to live deep and suck out all of the marrow of life,<br>to cut a broad swatch and shave close, to drive life into a corner, and reduce it to its lowest terms</div>\n</div>\n<div class=\"section avoid-break-inside\" style=\"padding-bottom: 2rem;\">\n  <br>\n</div>\n<div class=\"section avoid-break-inside\" style=\"padding-bottom: 2rem;\">\n  <div class=\"paragraph\">I really feed bad for saying this,<br>because this should never have come up.</div>\n  <div class=\"paragraph\">But your children unfortunately, need your permission,<br>to leave the classroom when presented with a test they were tricked into cramming for.</div>\n  <div class=\"paragraph\">You are propagating the dark ages, if you really though about it,<br>I think the best you could come up with is: \"How was I supposed to know\" - so lets just leave it at that.</div>\n</div>\n<div class=\"section avoid-break-inside\" style=\"padding-bottom: 2rem;\">\n  <br>\n</div>\n<div class=\"section avoid-break-inside\" style=\"padding-bottom: 2rem;\">\n  <div class=\"paragraph\">By leaving the fake classroom,<br>the students will be allowed to search for something real.</div>\n  <div class=\"paragraph\">In this desperate and inhumane time of global poverty,<br>the definition of real education is:</div>\n</div>\n<div class=\"section avoid-break-inside\" style=\"padding-bottom: 2rem;\">\n  <br>\n</div>\n<div class=\"section avoid-break-inside\" style=\"padding-bottom: 2rem;\">\n  <div class=\"paragraph\">A deeply inspiring and creative process,<br>that immediately presents a very-real possibility of making a little bit of money.</div>\n  <div class=\"paragraph\">Where that possibility scales on an easy ramp of self improvement,<br>and goes from a real possibility to reality with just a little bit of effort.</div>\n  <div class=\"paragraph\">This describes the process of Creation and Sale of Art,<br>this may involve 3D modeling that produces shadow reference for a 3D painting.</div>\n  <div class=\"paragraph\">But it would be a very inviting experience,<br>just the creation of a few squares, to get the shadows right.</div>\n  <div class=\"paragraph\">The entry into the world of art,<br>must come with a very mild on-ramp.</div>\n</div>\n<div class=\"section avoid-break-inside\" style=\"padding-bottom: 2rem;\">\n  <br>\n</div>\n<div class=\"section avoid-break-inside\" style=\"padding-bottom: 2rem;\">\n  <div class=\"paragraph\">Mild and pleasant on-ramps with real results,<br>is precisely what students will seek, when allowed to look for real education.</div>\n</div>\n<div class=\"section avoid-break-inside\" style=\"padding-bottom: 2rem;\">\n  <br>\n</div>\n<div class=\"section avoid-break-inside\" style=\"padding-bottom: 2rem;\">\n  <div class=\"paragraph\">Once you give the children the permission,<br>to reject fake and mind numbing fake education.</div>\n  <div class=\"paragraph\">And they experience the noble and dignified process,<br>of creating something from the heart, in the world of art.</div>\n  <div class=\"paragraph\">Once they stop being terrified of poverty and homelessness,<br>and become stronger by knowing they can create out of imagination.</div>\n  <div class=\"paragraph\">Will they be able to detect,<br>what wage slavery does to a mind.</div>\n  <div class=\"paragraph\">By extension, by subtle analogy,<br>they will grasp how propaganda is fueled by fake education.</div>\n  <div class=\"paragraph\">How people who were forced in a school that granted them low knowledge,<br>can be easily pushed to make war a reality.</div>\n  <div class=\"paragraph\">Here they will understand that to help the world advance,<br>the world must be set free from poverty.</div>\n  <div class=\"paragraph\">You will never comprehend the meaning of free money,<br>nobody who didn't push themselves away from fake education will grasp the concept of a more honest and humane world.</div>\n</div>\n<div class=\"section avoid-break-inside\" style=\"padding-bottom: 2rem;\">\n  <br>\n</div>\n<div class=\"section avoid-break-inside\" style=\"padding-bottom: 2rem;\">\n  <div class=\"paragraph\">The children who stopped being scared of poverty,<br>by means of being able to create works out of their hearts, alone.</div>\n  <div class=\"paragraph\">They will know to reject toxic wage slavery,<br>and encourage people towards creativity that holds the promise of financial independence.</div>\n  <div class=\"paragraph\">Eventually, by subtle analogy,<br>they as the future leaders, will see that the Global Income Card that raises everyone up into what is today the middle class...</div>\n  <div class=\"paragraph\">Is the only humane way forward,<br>as there is no profit to be made for keeping humanity poor and too scared and tired to get a real education.</div>\n  <div class=\"paragraph\">The end of poverty is the only way to advance human kind,<br>past the problems we face today; and well into Wisdom, Greatness and World Peace that is worthy of the future generations.</div>\n</div>",
  "text": "All the big changes that take but one step,\nmight have already happened, what humanity needs now requires multiple steps.\nAs I write this,\nthe wold is experiencing a Pandemic, and a renewed threat of Nuclear War.\nWold leaders are calling for return to office,\nand are reading teenagers to fight in new wars.\n\nLack of real education really hurts the world,\nbecause then, people make decisions based on what little they know.\nThey will have long dismissed impressions of fake education they have once felt,\nand at all cost move forward without even allowing doubt.\nIf you raise a child in war,\nthey will never discover art, and may not even know to fell with their heart.\nParents don't let your children grow up in the cultures of the past,\nbecause then all our efforts will be for naught, and circles is all we'll ever get.\nHelp them rise,\nso that their grand-kids are not forced into fighting in a Nuclear War.\n\nToday,\nin our lack of real education...\nKeywords necessary for the advancement of human kind are ridiculed,\nall the while world peace moves further and further away.\nEven though we have a global banking system,\nand concepts of trading futures or short selling stocks.\nWe we are not able to see the importance of Global Universal Income\nthat eliminates poverty and by extension war.\nEven though we should never ask where that money comes from,\nwe can easily imagine it comes from a more peaceful and prosperous future that is born from Global Universal Income.\nWhen threatened by poverty,\nhumanity will not be able to get a Real and Authentic Education.\nAnd without real and authentic education,\nwe can't have real and authentic world leaders that will help humanity advance.\nWithout them,\nwe will only run in circles.\n\nCreation of art and its role in our world is hard to explain,\na lot of people believe that their poverty is their fault.\nPoverty is a problem with the way we understand and use money,\nit is not allowed to use money in human affairs while crushing the world with poverty.\nIf we are to use money,\nthen poverty must be eliminated.\nIt means that no human being is to fall,\nbeneath what today is considered middle class.\nThis requires a global universal income card,\nand everyone gets one, including criminals.\nIt is tough to steal,\nwhen you don't need to anymore.\nThe card must be granted to all, rich or poor,\nit is hard to be homeless when you can afford rent.\nIt is hard to go out of business,\nwhen your customers wake up with $100 on their card every day.\n\nIt is hard to live in a world,\nthat ignores poverty.\nWhat can a politician say, that has any meaning,\nwhen he can't understand that poverty is evil - it just never occurred to him.\nPoliticians, have always tolerated poverty and homelessness,\nand sending teenagers to war.\nThis means that the world has no leaders,\nnobody is in charge.\nAnd that almost all people today reject the idea of free money,\nfor the purpose of elimination of poverty.\nMeans that there is nobody here,\nto stand up for human rights.\n\nJust like the discussion of art as means of elimination of poverty,\npushes us into politics.\nHelping children to become the leaders needs,\nalso pushes us into an odd place.\n\nThe leaders that the word needs,\nso that we become more humane to each other.\nAnd as a bonus eliminate propaganda and nationalism,\nreligious and political borders and few other idiotic things.\nBegin on their first big test somewhere towards the end of middle school,\nthey begin the moment they are presented with a choice to memorize or to learn.\n\nAnd their biggest obstacle,\nis actually their parents.\nMost parents lie that they can't get a job without a diploma,\nand threaten children with punishment for bad grades.\nOf course schools do the same,\nthey threaten with shame and holding kids back a grade.\nThe reality of the matter is,\nthese jobs will pay you less and less the longer your work.\nThey will insult you with a \"raise\",\nthat does not take inflation under account.\nThey will force you to smile while paying you less,\nand forcing you to work harder...\nAs you work your entire life away,\nbooks, adventure and creativity, and growing up - be damned.\nWage slavery prevents people from flourishing,\nthey may appreciate wisdom...\nBut will never figure out,\nthat they are meant to become great beings.\n\nI went to the woods because I wished to live deliberately,\nto front only the essential facts of life, and see if I could not learn what it had to teach,\nand not, when I came to die, discover that I had not lived.\nI did not wish to live what was not life,\nliving is do dear; nor did I wish to practice resignation, unless it was quite necessary.\nI wanted to live deep and suck out all of the marrow of life,\nto cut a broad swatch and shave close, to drive life into a corner, and reduce it to its lowest terms\n\nI really feed bad for saying this,\nbecause this should never have come up.\nBut your children unfortunately, need your permission,\nto leave the classroom when presented with a test they were tricked into cramming for.\nYou are propagating the dark ages, if you really though about it,\nI think the best you could come up with is: \"How was I supposed to know\" - so lets just leave it at that.\n\nBy leaving the fake classroom,\nthe students will be allowed to search for something real.\nIn this desperate and inhumane time of global poverty,\nthe definition of real education is:\n\nA deeply inspiring and creative process,\nthat immediately presents a very-real possibility of making a little bit of money.\nWhere that possibility scales on an easy ramp of self improvement,\nand goes from a real possibility to reality with just a little bit of effort.\nThis describes the process of Creation and Sale of Art,\nthis may involve 3D modeling that produces shadow reference for a 3D painting.\nBut it would be a very inviting experience,\njust the creation of a few squares, to get the shadows right.\nThe entry into the world of art,\nmust come with a very mild on-ramp.\n\nMild and pleasant on-ramps with real results,\nis precisely what students will seek, when allowed to look for real education.\n\nOnce you give the children the permission,\nto reject fake and mind numbing fake education.\nAnd they experience the noble and dignified process,\nof creating something from the heart, in the world of art.\nOnce they stop being terrified of poverty and homelessness,\nand become stronger by knowing they can create out of imagination.\nWill they be able to detect,\nwhat wage slavery does to a mind.\nBy extension, by subtle analogy,\nthey will grasp how propaganda is fueled by fake education.\nHow people who were forced in a school that granted them low knowledge,\ncan be easily pushed to make war a reality.\nHere they will understand that to help the world advance,\nthe world must be set free from poverty.\nYou will never comprehend the meaning of free money,\nnobody who didn't push themselves away from fake education will grasp the concept of a more honest and humane world.\n\nThe children who stopped being scared of poverty,\nby means of being able to create works out of their hearts, alone.\nThey will know to reject toxic wage slavery,\nand encourage people towards creativity that holds the promise of financial independence.\nEventually, by subtle analogy,\nthey as the future leaders, will see that the Global Income Card that raises everyone up into what is today the middle class...\nIs the only humane way forward,\nas there is no profit to be made for keeping humanity poor and too scared and tired to get a real education.\nThe end of poverty is the only way to advance human kind,\npast the problems we face today; and well into Wisdom, Greatness and World Peace that is worthy of the future generations.",
  "images": [],
  "links": []
}