{
  "name": "furkies-purrkies-poetry-0762",
  "id": "furkies-purrkies-poetry-0762",
  "title": "The New Leaders",
  "date": "2022-04-01T20:18:36.944Z",
  "image": "poetry-0762-illustration.jpg",
  "artwork": "https://unsplash.com/photos/tnhta3qKQtw",
  "audio": "poetry-0762.mp3",
  "guid": "73d983f2-ed31-4235-a5c6-90f40a605141",
  "html": "<div class=\"section\">\n  <p>A stranger I overheard mentioned that in war we all lose,<br>and a boy energetically sprung up to the conversation, and said:</p>\n  <p>\"What do you mean, we won the second World War,<br>and we couldn't afford to lose.\"</p>\n  <p>So how is it that in war both sides lose,<br>and yet it is also necessary to protect the best version of the free world we managed to build.</p>\n</div>\n<div class=\"section\">\n  <hr>\n</div>\n<div class=\"section\">\n  <p>This boy was looking at the final victory,<br>the bad guys lose, the good guys win.</p>\n  <p>But, the world is a sequence of events,<br>it is a timeline, and everything that occurs, occurs within context.</p>\n  <p>Both sides have lost because we are one family,<br>skin color, blood ties, religions, and even political borders, are all fantasies.</p>\n  <p>Deep down we are one people,<br>one family.</p>\n  <p>The bad guys were teenagers that had their lives stolen by politicians,<br>heir freedom of will was stolen by their commanders who were ordered to kill them if they refused to fight.</p>\n  <p>And many poisoned their own minds, with propaganda, nonsense, and more fantasy,<br>or sometimes couldn't afford to care what is true and what is lie, because they would die.</p>\n  <p>When a person stops caring like that,<br>they become ill.</p>\n  <p>When we sent in the good guys to destroy them,<br>we were simply forced to murder our distant family that was made ill.</p>\n  <p>It is not even a question of sides,<br>it was the entirety of humanity that simply lost, the world became darker, stained with layers of unforgivable crimes.</p>\n</div>\n<div class=\"section\">\n  <hr>\n</div>\n<div class=\"section\">\n  <p>Once you get to the point when a war is fought,<br>everyone already lost, three are no winners, the world has made part of it self sick, and the cure requires killing.</p>\n  <p>To truly win, we have to look deeply into the future,<br>and prevent the many wrong-steps that eventually lead to a war.</p>\n</div>\n<div class=\"section\">\n  <hr>\n</div>\n<div class=\"section\">\n  <p>Politicians today, do as little as possible,<br>they see as little as possible.</p>\n  <p>It is a safe bet for re-elections,<br>awards, and praise.</p>\n  <p>If they begun looking 20 or 50 steps ahead,<br>and started making decisions that cause domino effects, their jobs would become infinitely more difficult.</p>\n  <p>Today they play tic-tac-toe,<br>and what we are describing here is chess against a powerful computer.</p>\n</div>\n<div class=\"section\">\n  <hr>\n</div>\n<div class=\"section\">\n  <p>There is something else, that complicates the matter,<br>liars.</p>\n  <p>A liar is by definition an outsider,<br>and he is not just part of the play, he can freely move beyond the fourth wall.</p>\n  <p>While politicians are playing their tic-tac-toe, or even complex chess,<br>a liar will break them by destroying their home, and breaking their spirits.</p>\n</div>\n<div class=\"section\">\n  <hr>\n</div>\n<div class=\"section\">\n  <p>As we learn to build a better future,<br>we have to take liars under consideration.</p>\n  <p>As we make new decisions,<br>we also have to ensure they lock the liar down, disable him.</p>\n</div>\n<div class=\"section\">\n  <hr>\n</div>\n<div class=\"section\">\n  <p>A world with a powerful global school,<br>that allows Humanity to vote on which lectures are most worthy.</p>\n  <p>Is a world in which a mad man cannot corrupt his people,<br>without being noticed.</p>\n  <p>When we notice that a nation is warping the minds of its people,<br>we need to courageously face this as an act of future war.</p>\n  <p>And create incentives for these people,<br>to lever that environment behind, to move to another country, where they get a free home, real education, and a wonderful future.</p>\n  <p>By abandoning our extended family to propaganda,<br>we are tolerating the creation of an enemy, already losing in that worst way.</p>\n</div>\n<div class=\"section\">\n  <hr>\n</div>\n<div class=\"section\">\n  <p>Moreover, by tolerating ineffective education,<br>in counties that are part of the best version of the free world that we have created thus far.</p>\n  <p>We are cheating the future generations, and thus, the politicians and world leader of the more complex future,<br>from having the ability to think in multiple steps and identify prevention as the real way to move forward towards a more peaceful world.</p>\n  <p>The brightest hope we have for change, are not leaders,<br>best of whom will only be able to fulfill their promises in small part, mostly due to warped minds and lairs.</p>\n  <p>The brightest hope are the teenagers,<br>they are the least indoctrinated chain-link in the chain of pain that has us running in circles in a world barely held together by Mutually Assured Destruction and choked with Poverty.</p>\n  <p>It is their rejection of not just war crimes,<br>but also of war.</p>\n  <p>It is their rejection of mandatory military service,<br>and the system of death or punishment that that forces a soldier to kill, or stay within the military after they change their mind.</p>\n  <p>It is their rejection of fake education,<br>and interest in narrated books and great adventures that can alter the future of Human Kind with the least amount of effort.</p>\n  <p>They just need to stop cramming, and pretending that memorization is education,<br>and demand real and effective lectures that have them take away something precious and personally valuable at the end of each class.</p>\n  <p>Before we even notice, they will grow up to become the well educated world leaders we need,<br>together they will form a leadership network built with foresight, knowledge, wisdom, greatness, and the understanding that we are one people, one family.</p>\n  <p>All sides lose in a war that is fought,<br>the only way to win, is to identify and erase all the components that lead up to conflict.</p>\n  <p>Real Education, is just one of many things,<br>it is mainly involved in preventing Nationalism, Indoctrination, and Misunderstanding.</p>\n  <p>Another one is the Global End Of Poverty,<br>which upgraded the concept of many, granting every human being the equivalent of a hundred dollars each day, which is just 3.5 million dollar per person.</p>\n  <p>Free from the corroding influence of poverty, and enabled with real education,<br>they will provide far more value to the world that that small sum of money.</p>\n  <p>End of poverty, will clear the prisons, end hunger, end homelessness, and ease stress,<br>making many disorders manageable.</p>\n</div>\n<div class=\"section\">\n  <hr>\n</div>\n<div class=\"section\">\n  <p>As strange as all these changes sound, today,<br>they are the normal, they outline a more realistic world.</p>\n  <p>It is the world we live in today, stained with war, chained and choked by poverty, gnawing at it self with pollution and deforestation,<br>and held hostage by small-minded men whose greatest achievement is the concept of Mutually Assured Destruction and Borders over which the rockets fly.</p>\n  <p>Because we are blindly propagating mistakes that cause great harm and suffering,<br>the history books will not be kind to us.</p>\n  <p>But we can encourage young people, who do not yet suffer from sunk cost fallacy, to reject what feels to them as ineffective education,<br>and demand life changing and personally valuable results from their teachers and principals.</p>\n  <p>If we can help them unravel ineffective education,<br>we will have begun the process of eliminating small mindedness, propaganda, indoctrination, and nationalism around the world.</p>\n  <p>In turn the future generations will rebuild how money is handled around the word,<br>and build the new banking system on top of the concept; that no human being should ever suffer from curable disease, hunger, or homelessness.</p>\n  <p>It wasn't the leaders that would make the world better,<br>it was your children all along.</p>\n  <p><a href=\"https://librivox.org/the-universal-declaration-of-human-rights-by-the-united-nations/\">Excerpts from Librivox UDHR</a></p>\n  <p><a href=\"https://en.wikipedia.org/wiki/Universal_Declaration_of_Human_Rights\">Universal Declaration of Human Rights</a></p>\n</div>",
  "bootstrap": "<div class=\"card card-section bg-dark text-warning shadow\">\n  <div class=\"section card-body mb-0 my-2\">\n    <div class=\"paragraph card-text card-stanza my-5 text-center\">A stranger I overheard mentioned that in war we all lose,<br>and a boy energetically sprung up to the conversation, and said:</div>\n    <div class=\"paragraph card-text card-stanza my-5 text-center\">\"What do you mean, we won the second World War,<br>and we couldn't afford to lose.\"</div>\n    <div class=\"paragraph card-text card-stanza my-5 text-center\">So how is it that in war both sides lose,<br>and yet it is also necessary to protect the best version of the free world we managed to build.</div>\n  </div>\n</div>\n<div class=\"mb-5 section-spacer\">&nbsp;</div>\n<div class=\"card card-section bg-dark text-warning shadow\">\n  <div class=\"section card-body mb-0 my-2\">\n    <div class=\"paragraph card-text card-stanza my-5 text-center\">This boy was looking at the final victory,<br>the bad guys lose, the good guys win.</div>\n    <div class=\"paragraph card-text card-stanza my-5 text-center\">But, the world is a sequence of events,<br>it is a timeline, and everything that occurs, occurs within context.</div>\n    <div class=\"paragraph card-text card-stanza my-5 text-center\">Both sides have lost because we are one family,<br>skin color, blood ties, religions, and even political borders, are all fantasies.</div>\n    <div class=\"paragraph card-text card-stanza my-5 text-center\">Deep down we are one people,<br>one family.</div>\n    <div class=\"paragraph card-text card-stanza my-5 text-center\">The bad guys were teenagers that had their lives stolen by politicians,<br>heir freedom of will was stolen by their commanders who were ordered to kill them if they refused to fight.</div>\n    <div class=\"paragraph card-text card-stanza my-5 text-center\">And many poisoned their own minds, with propaganda, nonsense, and more fantasy,<br>or sometimes couldn't afford to care what is true and what is lie, because they would die.</div>\n    <div class=\"paragraph card-text card-stanza my-5 text-center\">When a person stops caring like that,<br>they become ill.</div>\n    <div class=\"paragraph card-text card-stanza my-5 text-center\">When we sent in the good guys to destroy them,<br>we were simply forced to murder our distant family that was made ill.</div>\n    <div class=\"paragraph card-text card-stanza my-5 text-center\">It is not even a question of sides,<br>it was the entirety of humanity that simply lost, the world became darker, stained with layers of unforgivable crimes.</div>\n  </div>\n</div>\n<div class=\"mb-5 section-spacer\">&nbsp;</div>\n<div class=\"card card-section bg-dark text-warning shadow\">\n  <div class=\"section card-body mb-0 my-2\">\n    <div class=\"paragraph card-text card-stanza my-5 text-center\">Once you get to the point when a war is fought,<br>everyone already lost, three are no winners, the world has made part of it self sick, and the cure requires killing.</div>\n    <div class=\"paragraph card-text card-stanza my-5 text-center\">To truly win, we have to look deeply into the future,<br>and prevent the many wrong-steps that eventually lead to a war.</div>\n  </div>\n</div>\n<div class=\"mb-5 section-spacer\">&nbsp;</div>\n<div class=\"card card-section bg-dark text-warning shadow\">\n  <div class=\"section card-body mb-0 my-2\">\n    <div class=\"paragraph card-text card-stanza my-5 text-center\">Politicians today, do as little as possible,<br>they see as little as possible.</div>\n    <div class=\"paragraph card-text card-stanza my-5 text-center\">It is a safe bet for re-elections,<br>awards, and praise.</div>\n    <div class=\"paragraph card-text card-stanza my-5 text-center\">If they begun looking 20 or 50 steps ahead,<br>and started making decisions that cause domino effects, their jobs would become infinitely more difficult.</div>\n    <div class=\"paragraph card-text card-stanza my-5 text-center\">Today they play tic-tac-toe,<br>and what we are describing here is chess against a powerful computer.</div>\n  </div>\n</div>\n<div class=\"mb-5 section-spacer\">&nbsp;</div>\n<div class=\"card card-section bg-dark text-warning shadow\">\n  <div class=\"section card-body mb-0 my-2\">\n    <div class=\"paragraph card-text card-stanza my-5 text-center\">There is something else, that complicates the matter,<br>liars.</div>\n    <div class=\"paragraph card-text card-stanza my-5 text-center\">A liar is by definition an outsider,<br>and he is not just part of the play, he can freely move beyond the fourth wall.</div>\n    <div class=\"paragraph card-text card-stanza my-5 text-center\">While politicians are playing their tic-tac-toe, or even complex chess,<br>a liar will break them by destroying their home, and breaking their spirits.</div>\n  </div>\n</div>\n<div class=\"mb-5 section-spacer\">&nbsp;</div>\n<div class=\"card card-section bg-dark text-warning shadow\">\n  <div class=\"section card-body mb-0 my-2\">\n    <div class=\"paragraph card-text card-stanza my-5 text-center\">As we learn to build a better future,<br>we have to take liars under consideration.</div>\n    <div class=\"paragraph card-text card-stanza my-5 text-center\">As we make new decisions,<br>we also have to ensure they lock the liar down, disable him.</div>\n  </div>\n</div>\n<div class=\"mb-5 section-spacer\">&nbsp;</div>\n<div class=\"card card-section bg-dark text-warning shadow\">\n  <div class=\"section card-body mb-0 my-2\">\n    <div class=\"paragraph card-text card-stanza my-5 text-center\">A world with a powerful global school,<br>that allows Humanity to vote on which lectures are most worthy.</div>\n    <div class=\"paragraph card-text card-stanza my-5 text-center\">Is a world in which a mad man cannot corrupt his people,<br>without being noticed.</div>\n    <div class=\"paragraph card-text card-stanza my-5 text-center\">When we notice that a nation is warping the minds of its people,<br>we need to courageously face this as an act of future war.</div>\n    <div class=\"paragraph card-text card-stanza my-5 text-center\">And create incentives for these people,<br>to lever that environment behind, to move to another country, where they get a free home, real education, and a wonderful future.</div>\n    <div class=\"paragraph card-text card-stanza my-5 text-center\">By abandoning our extended family to propaganda,<br>we are tolerating the creation of an enemy, already losing in that worst way.</div>\n  </div>\n</div>\n<div class=\"mb-5 section-spacer\">&nbsp;</div>\n<div class=\"card card-section bg-dark text-warning shadow\">\n  <div class=\"section card-body mb-0 my-2\">\n    <div class=\"paragraph card-text card-stanza my-5 text-center\">Moreover, by tolerating ineffective education,<br>in counties that are part of the best version of the free world that we have created thus far.</div>\n    <div class=\"paragraph card-text card-stanza my-5 text-center\">We are cheating the future generations, and thus, the politicians and world leader of the more complex future,<br>from having the ability to think in multiple steps and identify prevention as the real way to move forward towards a more peaceful world.</div>\n    <div class=\"paragraph card-text card-stanza my-5 text-center\">The brightest hope we have for change, are not leaders,<br>best of whom will only be able to fulfill their promises in small part, mostly due to warped minds and lairs.</div>\n    <div class=\"paragraph card-text card-stanza my-5 text-center\">The brightest hope are the teenagers,<br>they are the least indoctrinated chain-link in the chain of pain that has us running in circles in a world barely held together by Mutually Assured Destruction and choked with Poverty.</div>\n    <div class=\"paragraph card-text card-stanza my-5 text-center\">It is their rejection of not just war crimes,<br>but also of war.</div>\n    <div class=\"paragraph card-text card-stanza my-5 text-center\">It is their rejection of mandatory military service,<br>and the system of death or punishment that that forces a soldier to kill, or stay within the military after they change their mind.</div>\n    <div class=\"paragraph card-text card-stanza my-5 text-center\">It is their rejection of fake education,<br>and interest in narrated books and great adventures that can alter the future of Human Kind with the least amount of effort.</div>\n    <div class=\"paragraph card-text card-stanza my-5 text-center\">They just need to stop cramming, and pretending that memorization is education,<br>and demand real and effective lectures that have them take away something precious and personally valuable at the end of each class.</div>\n    <div class=\"paragraph card-text card-stanza my-5 text-center\">Before we even notice, they will grow up to become the well educated world leaders we need,<br>together they will form a leadership network built with foresight, knowledge, wisdom, greatness, and the understanding that we are one people, one family.</div>\n    <div class=\"paragraph card-text card-stanza my-5 text-center\">All sides lose in a war that is fought,<br>the only way to win, is to identify and erase all the components that lead up to conflict.</div>\n    <div class=\"paragraph card-text card-stanza my-5 text-center\">Real Education, is just one of many things,<br>it is mainly involved in preventing Nationalism, Indoctrination, and Misunderstanding.</div>\n    <div class=\"paragraph card-text card-stanza my-5 text-center\">Another one is the Global End Of Poverty,<br>which upgraded the concept of many, granting every human being the equivalent of a hundred dollars each day, which is just 3.5 million dollar per person.</div>\n    <div class=\"paragraph card-text card-stanza my-5 text-center\">Free from the corroding influence of poverty, and enabled with real education,<br>they will provide far more value to the world that that small sum of money.</div>\n    <div class=\"paragraph card-text card-stanza my-5 text-center\">End of poverty, will clear the prisons, end hunger, end homelessness, and ease stress,<br>making many disorders manageable.</div>\n  </div>\n</div>\n<div class=\"mb-5 section-spacer\">&nbsp;</div>\n<div class=\"card card-section bg-dark text-warning shadow\">\n  <div class=\"section card-body mb-0 my-2\">\n    <div class=\"paragraph card-text card-stanza my-5 text-center\">As strange as all these changes sound, today,<br>they are the normal, they outline a more realistic world.</div>\n    <div class=\"paragraph card-text card-stanza my-5 text-center\">It is the world we live in today, stained with war, chained and choked by poverty, gnawing at it self with pollution and deforestation,<br>and held hostage by small-minded men whose greatest achievement is the concept of Mutually Assured Destruction and Borders over which the rockets fly.</div>\n    <div class=\"paragraph card-text card-stanza my-5 text-center\">Because we are blindly propagating mistakes that cause great harm and suffering,<br>the history books will not be kind to us.</div>\n    <div class=\"paragraph card-text card-stanza my-5 text-center\">But we can encourage young people, who do not yet suffer from sunk cost fallacy, to reject what feels to them as ineffective education,<br>and demand life changing and personally valuable results from their teachers and principals.</div>\n    <div class=\"paragraph card-text card-stanza my-5 text-center\">If we can help them unravel ineffective education,<br>we will have begun the process of eliminating small mindedness, propaganda, indoctrination, and nationalism around the world.</div>\n    <div class=\"paragraph card-text card-stanza my-5 text-center\">In turn the future generations will rebuild how money is handled around the word,<br>and build the new banking system on top of the concept; that no human being should ever suffer from curable disease, hunger, or homelessness.</div>\n    <div class=\"paragraph card-text card-stanza my-5 text-center\">It wasn't the leaders that would make the world better,<br>it was your children all along.</div>\n    <div class=\"paragraph card-text card-stanza my-5 text-center\"><a href=\"https://librivox.org/the-universal-declaration-of-human-rights-by-the-united-nations/\">Excerpts from Librivox UDHR</a></div>\n    <div class=\"paragraph card-text card-stanza my-5 text-center\"><a href=\"https://en.wikipedia.org/wiki/Universal_Declaration_of_Human_Rights\">Universal Declaration of Human Rights</a></div>\n  </div>\n</div>",
  "print": "<div class=\"section avoid-break-inside\" style=\"padding-bottom: 2rem;\">\n  <div class=\"paragraph\">A stranger I overheard mentioned that in war we all lose,<br>and a boy energetically sprung up to the conversation, and said:</div>\n  <div class=\"paragraph\">\"What do you mean, we won the second World War,<br>and we couldn't afford to lose.\"</div>\n  <div class=\"paragraph\">So how is it that in war both sides lose,<br>and yet it is also necessary to protect the best version of the free world we managed to build.</div>\n</div>\n<div class=\"section avoid-break-inside\" style=\"padding-bottom: 2rem;\">\n  <br>\n</div>\n<div class=\"section avoid-break-inside\" style=\"padding-bottom: 2rem;\">\n  <div class=\"paragraph\">This boy was looking at the final victory,<br>the bad guys lose, the good guys win.</div>\n  <div class=\"paragraph\">But, the world is a sequence of events,<br>it is a timeline, and everything that occurs, occurs within context.</div>\n  <div class=\"paragraph\">Both sides have lost because we are one family,<br>skin color, blood ties, religions, and even political borders, are all fantasies.</div>\n  <div class=\"paragraph\">Deep down we are one people,<br>one family.</div>\n  <div class=\"paragraph\">The bad guys were teenagers that had their lives stolen by politicians,<br>heir freedom of will was stolen by their commanders who were ordered to kill them if they refused to fight.</div>\n  <div class=\"paragraph\">And many poisoned their own minds, with propaganda, nonsense, and more fantasy,<br>or sometimes couldn't afford to care what is true and what is lie, because they would die.</div>\n  <div class=\"paragraph\">When a person stops caring like that,<br>they become ill.</div>\n  <div class=\"paragraph\">When we sent in the good guys to destroy them,<br>we were simply forced to murder our distant family that was made ill.</div>\n  <div class=\"paragraph\">It is not even a question of sides,<br>it was the entirety of humanity that simply lost, the world became darker, stained with layers of unforgivable crimes.</div>\n</div>\n<div class=\"section avoid-break-inside\" style=\"padding-bottom: 2rem;\">\n  <br>\n</div>\n<div class=\"section avoid-break-inside\" style=\"padding-bottom: 2rem;\">\n  <div class=\"paragraph\">Once you get to the point when a war is fought,<br>everyone already lost, three are no winners, the world has made part of it self sick, and the cure requires killing.</div>\n  <div class=\"paragraph\">To truly win, we have to look deeply into the future,<br>and prevent the many wrong-steps that eventually lead to a war.</div>\n</div>\n<div class=\"section avoid-break-inside\" style=\"padding-bottom: 2rem;\">\n  <br>\n</div>\n<div class=\"section avoid-break-inside\" style=\"padding-bottom: 2rem;\">\n  <div class=\"paragraph\">Politicians today, do as little as possible,<br>they see as little as possible.</div>\n  <div class=\"paragraph\">It is a safe bet for re-elections,<br>awards, and praise.</div>\n  <div class=\"paragraph\">If they begun looking 20 or 50 steps ahead,<br>and started making decisions that cause domino effects, their jobs would become infinitely more difficult.</div>\n  <div class=\"paragraph\">Today they play tic-tac-toe,<br>and what we are describing here is chess against a powerful computer.</div>\n</div>\n<div class=\"section avoid-break-inside\" style=\"padding-bottom: 2rem;\">\n  <br>\n</div>\n<div class=\"section avoid-break-inside\" style=\"padding-bottom: 2rem;\">\n  <div class=\"paragraph\">There is something else, that complicates the matter,<br>liars.</div>\n  <div class=\"paragraph\">A liar is by definition an outsider,<br>and he is not just part of the play, he can freely move beyond the fourth wall.</div>\n  <div class=\"paragraph\">While politicians are playing their tic-tac-toe, or even complex chess,<br>a liar will break them by destroying their home, and breaking their spirits.</div>\n</div>\n<div class=\"section avoid-break-inside\" style=\"padding-bottom: 2rem;\">\n  <br>\n</div>\n<div class=\"section avoid-break-inside\" style=\"padding-bottom: 2rem;\">\n  <div class=\"paragraph\">As we learn to build a better future,<br>we have to take liars under consideration.</div>\n  <div class=\"paragraph\">As we make new decisions,<br>we also have to ensure they lock the liar down, disable him.</div>\n</div>\n<div class=\"section avoid-break-inside\" style=\"padding-bottom: 2rem;\">\n  <br>\n</div>\n<div class=\"section avoid-break-inside\" style=\"padding-bottom: 2rem;\">\n  <div class=\"paragraph\">A world with a powerful global school,<br>that allows Humanity to vote on which lectures are most worthy.</div>\n  <div class=\"paragraph\">Is a world in which a mad man cannot corrupt his people,<br>without being noticed.</div>\n  <div class=\"paragraph\">When we notice that a nation is warping the minds of its people,<br>we need to courageously face this as an act of future war.</div>\n  <div class=\"paragraph\">And create incentives for these people,<br>to lever that environment behind, to move to another country, where they get a free home, real education, and a wonderful future.</div>\n  <div class=\"paragraph\">By abandoning our extended family to propaganda,<br>we are tolerating the creation of an enemy, already losing in that worst way.</div>\n</div>\n<div class=\"section avoid-break-inside\" style=\"padding-bottom: 2rem;\">\n  <br>\n</div>\n<div class=\"section avoid-break-inside\" style=\"padding-bottom: 2rem;\">\n  <div class=\"paragraph\">Moreover, by tolerating ineffective education,<br>in counties that are part of the best version of the free world that we have created thus far.</div>\n  <div class=\"paragraph\">We are cheating the future generations, and thus, the politicians and world leader of the more complex future,<br>from having the ability to think in multiple steps and identify prevention as the real way to move forward towards a more peaceful world.</div>\n  <div class=\"paragraph\">The brightest hope we have for change, are not leaders,<br>best of whom will only be able to fulfill their promises in small part, mostly due to warped minds and lairs.</div>\n  <div class=\"paragraph\">The brightest hope are the teenagers,<br>they are the least indoctrinated chain-link in the chain of pain that has us running in circles in a world barely held together by Mutually Assured Destruction and choked with Poverty.</div>\n  <div class=\"paragraph\">It is their rejection of not just war crimes,<br>but also of war.</div>\n  <div class=\"paragraph\">It is their rejection of mandatory military service,<br>and the system of death or punishment that that forces a soldier to kill, or stay within the military after they change their mind.</div>\n  <div class=\"paragraph\">It is their rejection of fake education,<br>and interest in narrated books and great adventures that can alter the future of Human Kind with the least amount of effort.</div>\n  <div class=\"paragraph\">They just need to stop cramming, and pretending that memorization is education,<br>and demand real and effective lectures that have them take away something precious and personally valuable at the end of each class.</div>\n  <div class=\"paragraph\">Before we even notice, they will grow up to become the well educated world leaders we need,<br>together they will form a leadership network built with foresight, knowledge, wisdom, greatness, and the understanding that we are one people, one family.</div>\n  <div class=\"paragraph\">All sides lose in a war that is fought,<br>the only way to win, is to identify and erase all the components that lead up to conflict.</div>\n  <div class=\"paragraph\">Real Education, is just one of many things,<br>it is mainly involved in preventing Nationalism, Indoctrination, and Misunderstanding.</div>\n  <div class=\"paragraph\">Another one is the Global End Of Poverty,<br>which upgraded the concept of many, granting every human being the equivalent of a hundred dollars each day, which is just 3.5 million dollar per person.</div>\n  <div class=\"paragraph\">Free from the corroding influence of poverty, and enabled with real education,<br>they will provide far more value to the world that that small sum of money.</div>\n  <div class=\"paragraph\">End of poverty, will clear the prisons, end hunger, end homelessness, and ease stress,<br>making many disorders manageable.</div>\n</div>\n<div class=\"section avoid-break-inside\" style=\"padding-bottom: 2rem;\">\n  <br>\n</div>\n<div class=\"section avoid-break-inside\" style=\"padding-bottom: 2rem;\">\n  <div class=\"paragraph\">As strange as all these changes sound, today,<br>they are the normal, they outline a more realistic world.</div>\n  <div class=\"paragraph\">It is the world we live in today, stained with war, chained and choked by poverty, gnawing at it self with pollution and deforestation,<br>and held hostage by small-minded men whose greatest achievement is the concept of Mutually Assured Destruction and Borders over which the rockets fly.</div>\n  <div class=\"paragraph\">Because we are blindly propagating mistakes that cause great harm and suffering,<br>the history books will not be kind to us.</div>\n  <div class=\"paragraph\">But we can encourage young people, who do not yet suffer from sunk cost fallacy, to reject what feels to them as ineffective education,<br>and demand life changing and personally valuable results from their teachers and principals.</div>\n  <div class=\"paragraph\">If we can help them unravel ineffective education,<br>we will have begun the process of eliminating small mindedness, propaganda, indoctrination, and nationalism around the world.</div>\n  <div class=\"paragraph\">In turn the future generations will rebuild how money is handled around the word,<br>and build the new banking system on top of the concept; that no human being should ever suffer from curable disease, hunger, or homelessness.</div>\n  <div class=\"paragraph\">It wasn't the leaders that would make the world better,<br>it was your children all along.</div>\n  <div class=\"paragraph\"><span>Excerpts from Librivox UDHR<sup>[1]</sup></span></div>\n  <div class=\"paragraph\"><span>Universal Declaration of Human Rights<sup>[2]</sup></span></div>\n</div>\n<div class=\"break-after\">&nbsp;</div>\n<div>\n  <div class=\"section\" style=\"padding-bottom: 1rem;\">References</div>\n  <div>[1]: https://librivox.org/the-universal-declaration-of-human-rights-by-the-united-nations/</div>\n  <div>[2]: https://en.wikipedia.org/wiki/Universal_Declaration_of_Human_Rights</div>\n</div>",
  "text": "A stranger I overheard mentioned that in war we all lose,\nand a boy energetically sprung up to the conversation, and said:\n\"What do you mean, we won the second World War,\nand we couldn't afford to lose.\"\nSo how is it that in war both sides lose,\nand yet it is also necessary to protect the best version of the free world we managed to build.\n\nThis boy was looking at the final victory,\nthe bad guys lose, the good guys win.\nBut, the world is a sequence of events,\nit is a timeline, and everything that occurs, occurs within context.\nBoth sides have lost because we are one family,\nskin color, blood ties, religions, and even political borders, are all fantasies.\nDeep down we are one people,\none family.\nThe bad guys were teenagers that had their lives stolen by politicians,\nheir freedom of will was stolen by their commanders who were ordered to kill them if they refused to fight.\nAnd many poisoned their own minds, with propaganda, nonsense, and more fantasy,\nor sometimes couldn't afford to care what is true and what is lie, because they would die.\nWhen a person stops caring like that,\nthey become ill.\nWhen we sent in the good guys to destroy them,\nwe were simply forced to murder our distant family that was made ill.\nIt is not even a question of sides,\nit was the entirety of humanity that simply lost, the world became darker, stained with layers of unforgivable crimes.\n\nOnce you get to the point when a war is fought,\neveryone already lost, three are no winners, the world has made part of it self sick, and the cure requires killing.\nTo truly win, we have to look deeply into the future,\nand prevent the many wrong-steps that eventually lead to a war.\n\nPoliticians today, do as little as possible,\nthey see as little as possible.\nIt is a safe bet for re-elections,\nawards, and praise.\nIf they begun looking 20 or 50 steps ahead,\nand started making decisions that cause domino effects, their jobs would become infinitely more difficult.\nToday they play tic-tac-toe,\nand what we are describing here is chess against a powerful computer.\n\nThere is something else, that complicates the matter,\nliars.\nA liar is by definition an outsider,\nand he is not just part of the play, he can freely move beyond the fourth wall.\nWhile politicians are playing their tic-tac-toe, or even complex chess,\na liar will break them by destroying their home, and breaking their spirits.\n\nAs we learn to build a better future,\nwe have to take liars under consideration.\nAs we make new decisions,\nwe also have to ensure they lock the liar down, disable him.\n\nA world with a powerful global school,\nthat allows Humanity to vote on which lectures are most worthy.\nIs a world in which a mad man cannot corrupt his people,\nwithout being noticed.\nWhen we notice that a nation is warping the minds of its people,\nwe need to courageously face this as an act of future war.\nAnd create incentives for these people,\nto lever that environment behind, to move to another country, where they get a free home, real education, and a wonderful future.\nBy abandoning our extended family to propaganda,\nwe are tolerating the creation of an enemy, already losing in that worst way.\n\nMoreover, by tolerating ineffective education,\nin counties that are part of the best version of the free world that we have created thus far.\nWe are cheating the future generations, and thus, the politicians and world leader of the more complex future,\nfrom having the ability to think in multiple steps and identify prevention as the real way to move forward towards a more peaceful world.\nThe brightest hope we have for change, are not leaders,\nbest of whom will only be able to fulfill their promises in small part, mostly due to warped minds and lairs.\nThe brightest hope are the teenagers,\nthey are the least indoctrinated chain-link in the chain of pain that has us running in circles in a world barely held together by Mutually Assured Destruction and choked with Poverty.\nIt is their rejection of not just war crimes,\nbut also of war.\nIt is their rejection of mandatory military service,\nand the system of death or punishment that that forces a soldier to kill, or stay within the military after they change their mind.\nIt is their rejection of fake education,\nand interest in narrated books and great adventures that can alter the future of Human Kind with the least amount of effort.\nThey just need to stop cramming, and pretending that memorization is education,\nand demand real and effective lectures that have them take away something precious and personally valuable at the end of each class.\nBefore we even notice, they will grow up to become the well educated world leaders we need,\ntogether they will form a leadership network built with foresight, knowledge, wisdom, greatness, and the understanding that we are one people, one family.\nAll sides lose in a war that is fought,\nthe only way to win, is to identify and erase all the components that lead up to conflict.\nReal Education, is just one of many things,\nit is mainly involved in preventing Nationalism, Indoctrination, and Misunderstanding.\nAnother one is the Global End Of Poverty,\nwhich upgraded the concept of many, granting every human being the equivalent of a hundred dollars each day, which is just 3.5 million dollar per person.\nFree from the corroding influence of poverty, and enabled with real education,\nthey will provide far more value to the world that that small sum of money.\nEnd of poverty, will clear the prisons, end hunger, end homelessness, and ease stress,\nmaking many disorders manageable.\n\nAs strange as all these changes sound, today,\nthey are the normal, they outline a more realistic world.\nIt is the world we live in today, stained with war, chained and choked by poverty, gnawing at it self with pollution and deforestation,\nand held hostage by small-minded men whose greatest achievement is the concept of Mutually Assured Destruction and Borders over which the rockets fly.\nBecause we are blindly propagating mistakes that cause great harm and suffering,\nthe history books will not be kind to us.\nBut we can encourage young people, who do not yet suffer from sunk cost fallacy, to reject what feels to them as ineffective education,\nand demand life changing and personally valuable results from their teachers and principals.\nIf we can help them unravel ineffective education,\nwe will have begun the process of eliminating small mindedness, propaganda, indoctrination, and nationalism around the world.\nIn turn the future generations will rebuild how money is handled around the word,\nand build the new banking system on top of the concept; that no human being should ever suffer from curable disease, hunger, or homelessness.\nIt wasn't the leaders that would make the world better,\nit was your children all along.\nExcerpts from Librivox UDHR[1]\nUniversal Declaration of Human Rights[2]\n \nReferences\n[1]: https://librivox.org/the-universal-declaration-of-human-rights-by-the-united-nations/\n[2]: https://en.wikipedia.org/wiki/Universal_Declaration_of_Human_Rights",
  "images": [],
  "links": [
    {
      "title": "Excerpts from Librivox UDHR",
      "url": "https://librivox.org/the-universal-declaration-of-human-rights-by-the-united-nations/",
      "hostname": "librivox.org"
    },
    {
      "title": "Universal Declaration of Human Rights",
      "url": "https://en.wikipedia.org/wiki/Universal_Declaration_of_Human_Rights",
      "hostname": "en.wikipedia.org"
    }
  ]
}