{
  "name": "furkies-purrkies-poetry-0463",
  "title": "Convergence On Wisdom",
  "date": "2021-06-06T21:54:52.254Z",
  "image": "poetry-0463-illustration.jpg",
  "audio": "poetry-0463.mp3",
  "artwork": "https://unsplash.com/photos/HELLcxdpz5g",
  "id": "furkies-purrkies-poetry-0463",
  "attachments": {},
  "guid": "b6d8c11d-e8e1-4b4e-8fc5-db0f235c5929",
  "html": "<div class=\"section\">\n  <p>I would often murmur to myself,</p>\n  <p>&quot;Reality is a brick wall&quot;.</p>\n</div>\n\n<div class=\"section\">\n  <p>Any and all that move against it,</p>\n  <p>will have a hard time.</p>\n</div>\n\n<div class=\"section\">\n  <p>Even in these treasured days,</p>\n  <p>when my poems run particularly wild, that, holds, true.</p>\n</div>\n\n<div class=\"section\">\n  <hr>\n</div>\n\n<div class=\"section\">\n  <p>I now worry for People, Judges and Politicians,</p>\n  <p>because I know many move against the grain of reality, and some had their minds poisoned.</p>\n</div>\n\n<div class=\"section\">\n  <p>It is very sad,</p>\n  <p>but we must look to the future generations, and protect _them_ from gaining that tragic momentum.</p>\n</div>\n\n<div class=\"section\">\n  <p>The overall formula,</p>\n  <p>is simple.</p>\n</div>\n\n<div class=\"section\">\n  <p>Self Education will lead you to Knowledge, Wisdom and Greatness,</p>\n  <p>Greatness will grant you the power to build a new class of schools and ignite the beginning of Real Education.</p>\n</div>\n\n<div class=\"section\">\n  <p>You now gain the ability to kindle the spirits of countless students,</p>\n  <p>help them understand the importance of fine education.</p>\n</div>\n\n<div class=\"section\">\n  <p>And have the guard it,</p>\n  <p>knowing that when we lose the height the previous generation reached, we will be damned to re-learn their lessons.</p>\n</div>\n\n<div class=\"section\">\n  <p>Once the Truly Educated reach the middle age,</p>\n  <p>an age of convergence will arrive.</p>\n</div>\n\n<div class=\"section\">\n  <p>Humanity, will grow up a little,</p>\n  <p>as all the cultures enhance themselves with fine wisdom and converge on Unity and Peace.</p>\n</div>\n\n<div class=\"section\">\n  <p>Without real and international education that knows no bounds,</p>\n  <p>the wold will become ever more divided.</p>\n</div>\n\n\n<div class=\"section\">\n  <p>The minds poisoned by the currents of dark ages and myriads of indoctrination, will yank us back, and choke us,</p>\n  <p>to prevent Peace, Unity, Prosperity, Wisdom, and Progress; and propagate Hate, Hunger, Poverty, Dark Ages, Divisions, Lies, and Manipulations.</p>\n</div>\n\n<div class=\"section\">\n  <p>Real Schools,</p>\n  <p>are the only way.</p>\n</div>\n\n<div class=\"section\">\n  <p>The faster we converge,</p>\n  <p>the less suffering, war, and regret.</p>\n</div>",
  "bootstrap": "<div class=\"card card-section bg-dark text-warning shadow\">\n  <div class=\"section card-body mb-0 my-2\">\n    <div class=\"paragraph card-text card-stanza my-5 text-center\">I would often murmur to myself,</div>\n    <div class=\"paragraph card-text card-stanza my-5 text-center\">\"Reality is a brick wall\".</div>\n  </div>\n</div>\n<div class=\"card card-section bg-dark text-warning shadow\">\n  <div class=\"section card-body mb-0 my-2\">\n    <div class=\"paragraph card-text card-stanza my-5 text-center\">Any and all that move against it,</div>\n    <div class=\"paragraph card-text card-stanza my-5 text-center\">will have a hard time.</div>\n  </div>\n</div>\n<div class=\"card card-section bg-dark text-warning shadow\">\n  <div class=\"section card-body mb-0 my-2\">\n    <div class=\"paragraph card-text card-stanza my-5 text-center\">Even in these treasured days,</div>\n    <div class=\"paragraph card-text card-stanza my-5 text-center\">when my poems run particularly wild, that, holds, true.</div>\n  </div>\n</div>\n<div class=\"mb-5 section-spacer\">&nbsp;</div>\n<div class=\"card card-section bg-dark text-warning shadow\">\n  <div class=\"section card-body mb-0 my-2\">\n    <div class=\"paragraph card-text card-stanza my-5 text-center\">I now worry for People, Judges and Politicians,</div>\n    <div class=\"paragraph card-text card-stanza my-5 text-center\">because I know many move against the grain of reality, and some had their minds poisoned.</div>\n  </div>\n</div>\n<div class=\"card card-section bg-dark text-warning shadow\">\n  <div class=\"section card-body mb-0 my-2\">\n    <div class=\"paragraph card-text card-stanza my-5 text-center\">It is very sad,</div>\n    <div class=\"paragraph card-text card-stanza my-5 text-center\">but we must look to the future generations, and protect _them_ from gaining that tragic momentum.</div>\n  </div>\n</div>\n<div class=\"card card-section bg-dark text-warning shadow\">\n  <div class=\"section card-body mb-0 my-2\">\n    <div class=\"paragraph card-text card-stanza my-5 text-center\">The overall formula,</div>\n    <div class=\"paragraph card-text card-stanza my-5 text-center\">is simple.</div>\n  </div>\n</div>\n<div class=\"card card-section bg-dark text-warning shadow\">\n  <div class=\"section card-body mb-0 my-2\">\n    <div class=\"paragraph card-text card-stanza my-5 text-center\">Self Education will lead you to Knowledge, Wisdom and Greatness,</div>\n    <div class=\"paragraph card-text card-stanza my-5 text-center\">Greatness will grant you the power to build a new class of schools and ignite the beginning of Real Education.</div>\n  </div>\n</div>\n<div class=\"card card-section bg-dark text-warning shadow\">\n  <div class=\"section card-body mb-0 my-2\">\n    <div class=\"paragraph card-text card-stanza my-5 text-center\">You now gain the ability to kindle the spirits of countless students,</div>\n    <div class=\"paragraph card-text card-stanza my-5 text-center\">help them understand the importance of fine education.</div>\n  </div>\n</div>\n<div class=\"card card-section bg-dark text-warning shadow\">\n  <div class=\"section card-body mb-0 my-2\">\n    <div class=\"paragraph card-text card-stanza my-5 text-center\">And have the guard it,</div>\n    <div class=\"paragraph card-text card-stanza my-5 text-center\">knowing that when we lose the height the previous generation reached, we will be damned to re-learn their lessons.</div>\n  </div>\n</div>\n<div class=\"card card-section bg-dark text-warning shadow\">\n  <div class=\"section card-body mb-0 my-2\">\n    <div class=\"paragraph card-text card-stanza my-5 text-center\">Once the Truly Educated reach the middle age,</div>\n    <div class=\"paragraph card-text card-stanza my-5 text-center\">an age of convergence will arrive.</div>\n  </div>\n</div>\n<div class=\"card card-section bg-dark text-warning shadow\">\n  <div class=\"section card-body mb-0 my-2\">\n    <div class=\"paragraph card-text card-stanza my-5 text-center\">Humanity, will grow up a little,</div>\n    <div class=\"paragraph card-text card-stanza my-5 text-center\">as all the cultures enhance themselves with fine wisdom and converge on Unity and Peace.</div>\n  </div>\n</div>\n<div class=\"card card-section bg-dark text-warning shadow\">\n  <div class=\"section card-body mb-0 my-2\">\n    <div class=\"paragraph card-text card-stanza my-5 text-center\">Without real and international education that knows no bounds,</div>\n    <div class=\"paragraph card-text card-stanza my-5 text-center\">the wold will become ever more divided.</div>\n  </div>\n</div>\n<div class=\"card card-section bg-dark text-warning shadow\">\n  <div class=\"section card-body mb-0 my-2\">\n    <div class=\"paragraph card-text card-stanza my-5 text-center\">The minds poisoned by the currents of dark ages and myriads of indoctrination, will yank us back, and choke us,</div>\n    <div class=\"paragraph card-text card-stanza my-5 text-center\">to prevent Peace, Unity, Prosperity, Wisdom, and Progress; and propagate Hate, Hunger, Poverty, Dark Ages, Divisions, Lies, and Manipulations.</div>\n  </div>\n</div>\n<div class=\"card card-section bg-dark text-warning shadow\">\n  <div class=\"section card-body mb-0 my-2\">\n    <div class=\"paragraph card-text card-stanza my-5 text-center\">Real Schools,</div>\n    <div class=\"paragraph card-text card-stanza my-5 text-center\">are the only way.</div>\n  </div>\n</div>\n<div class=\"card card-section bg-dark text-warning shadow\">\n  <div class=\"section card-body mb-0 my-2\">\n    <div class=\"paragraph card-text card-stanza my-5 text-center\">The faster we converge,</div>\n    <div class=\"paragraph card-text card-stanza my-5 text-center\">the less suffering, war, and regret.</div>\n  </div>\n</div>",
  "print": "<div class=\"section avoid-break-inside\" style=\"padding-bottom: 2rem;\">\n  <div class=\"paragraph\">I would often murmur to myself,</div>\n  <div class=\"paragraph\">\"Reality is a brick wall\".</div>\n</div>\n<div class=\"section avoid-break-inside\" style=\"padding-bottom: 2rem;\">\n  <div class=\"paragraph\">Any and all that move against it,</div>\n  <div class=\"paragraph\">will have a hard time.</div>\n</div>\n<div class=\"section avoid-break-inside\" style=\"padding-bottom: 2rem;\">\n  <div class=\"paragraph\">Even in these treasured days,</div>\n  <div class=\"paragraph\">when my poems run particularly wild, that, holds, true.</div>\n</div>\n<div class=\"section avoid-break-inside\" style=\"padding-bottom: 2rem;\">\n  <br>\n</div>\n<div class=\"section avoid-break-inside\" style=\"padding-bottom: 2rem;\">\n  <div class=\"paragraph\">I now worry for People, Judges and Politicians,</div>\n  <div class=\"paragraph\">because I know many move against the grain of reality, and some had their minds poisoned.</div>\n</div>\n<div class=\"section avoid-break-inside\" style=\"padding-bottom: 2rem;\">\n  <div class=\"paragraph\">It is very sad,</div>\n  <div class=\"paragraph\">but we must look to the future generations, and protect _them_ from gaining that tragic momentum.</div>\n</div>\n<div class=\"section avoid-break-inside\" style=\"padding-bottom: 2rem;\">\n  <div class=\"paragraph\">The overall formula,</div>\n  <div class=\"paragraph\">is simple.</div>\n</div>\n<div class=\"section avoid-break-inside\" style=\"padding-bottom: 2rem;\">\n  <div class=\"paragraph\">Self Education will lead you to Knowledge, Wisdom and Greatness,</div>\n  <div class=\"paragraph\">Greatness will grant you the power to build a new class of schools and ignite the beginning of Real Education.</div>\n</div>\n<div class=\"section avoid-break-inside\" style=\"padding-bottom: 2rem;\">\n  <div class=\"paragraph\">You now gain the ability to kindle the spirits of countless students,</div>\n  <div class=\"paragraph\">help them understand the importance of fine education.</div>\n</div>\n<div class=\"section avoid-break-inside\" style=\"padding-bottom: 2rem;\">\n  <div class=\"paragraph\">And have the guard it,</div>\n  <div class=\"paragraph\">knowing that when we lose the height the previous generation reached, we will be damned to re-learn their lessons.</div>\n</div>\n<div class=\"section avoid-break-inside\" style=\"padding-bottom: 2rem;\">\n  <div class=\"paragraph\">Once the Truly Educated reach the middle age,</div>\n  <div class=\"paragraph\">an age of convergence will arrive.</div>\n</div>\n<div class=\"section avoid-break-inside\" style=\"padding-bottom: 2rem;\">\n  <div class=\"paragraph\">Humanity, will grow up a little,</div>\n  <div class=\"paragraph\">as all the cultures enhance themselves with fine wisdom and converge on Unity and Peace.</div>\n</div>\n<div class=\"section avoid-break-inside\" style=\"padding-bottom: 2rem;\">\n  <div class=\"paragraph\">Without real and international education that knows no bounds,</div>\n  <div class=\"paragraph\">the wold will become ever more divided.</div>\n</div>\n<div class=\"section avoid-break-inside\" style=\"padding-bottom: 2rem;\">\n  <div class=\"paragraph\">The minds poisoned by the currents of dark ages and myriads of indoctrination, will yank us back, and choke us,</div>\n  <div class=\"paragraph\">to prevent Peace, Unity, Prosperity, Wisdom, and Progress; and propagate Hate, Hunger, Poverty, Dark Ages, Divisions, Lies, and Manipulations.</div>\n</div>\n<div class=\"section avoid-break-inside\" style=\"padding-bottom: 2rem;\">\n  <div class=\"paragraph\">Real Schools,</div>\n  <div class=\"paragraph\">are the only way.</div>\n</div>\n<div class=\"section avoid-break-inside\" style=\"padding-bottom: 2rem;\">\n  <div class=\"paragraph\">The faster we converge,</div>\n  <div class=\"paragraph\">the less suffering, war, and regret.</div>\n</div>",
  "text": "I would often murmur to myself,\n\"Reality is a brick wall\".\nAny and all that move against it,\nwill have a hard time.\nEven in these treasured days,\nwhen my poems run particularly wild, that, holds, true.\n\nI now worry for People, Judges and Politicians,\nbecause I know many move against the grain of reality, and some had their minds poisoned.\nIt is very sad,\nbut we must look to the future generations, and protect _them_ from gaining that tragic momentum.\nThe overall formula,\nis simple.\nSelf Education will lead you to Knowledge, Wisdom and Greatness,\nGreatness will grant you the power to build a new class of schools and ignite the beginning of Real Education.\nYou now gain the ability to kindle the spirits of countless students,\nhelp them understand the importance of fine education.\nAnd have the guard it,\nknowing that when we lose the height the previous generation reached, we will be damned to re-learn their lessons.\nOnce the Truly Educated reach the middle age,\nan age of convergence will arrive.\nHumanity, will grow up a little,\nas all the cultures enhance themselves with fine wisdom and converge on Unity and Peace.\nWithout real and international education that knows no bounds,\nthe wold will become ever more divided.\nThe minds poisoned by the currents of dark ages and myriads of indoctrination, will yank us back, and choke us,\nto prevent Peace, Unity, Prosperity, Wisdom, and Progress; and propagate Hate, Hunger, Poverty, Dark Ages, Divisions, Lies, and Manipulations.\nReal Schools,\nare the only way.\nThe faster we converge,\nthe less suffering, war, and regret.",
  "images": [],
  "links": []
}