{
  "name": "furkies-purrkies-poetry-0103",
  "title": "You Are Divine",
  "date": "2020-06-12T02:46:35.303Z",
  "image": "poetry-0103-illustration.jpg",
  "audio": "poetry-0103.mp3",
  "id": "furkies-purrkies-poetry-0103",
  "attachments": {},
  "guid": "1a48782c-2dc3-402b-aaaf-472af92367c9",
  "html": "<div class=\"section\">\n  <p>My Friends, Build Your Mind,</p>\n  <p>Build Your Body.</p>\n</div>\n<div class=\"section\">\n  <p>Do not ignore your well being,</p>\n  <p>you require Blue Skies, Seas, Mountains, Oceans, Lakes, and Forests.</p>\n</div>\n<div class=\"section\">\n  <p>Do not ignore your Body,</p>\n  <p>it needs care and exercise, and proper diet.</p>\n</div>\n<div class=\"section\">\n  <p>Do not merely hope to get a job,</p>\n  <p>make companies hope they can hire you.</p>\n</div>\n<div class=\"section\">\n  <p>Do not ignore the Content of Your Character,</p>\n  <p>spend many great adventures in pursuit of wisdom and insight.</p>\n</div>\n<div class=\"section\">\n  <p>Do not ignore Your Beautiful Heart,</p>\n  <p>keep rising, keep searching, keep shining.</p>\n</div>\n<div class=\"section\">\n  <p>Build Your Life, like a Sculptor Builds a Sculpture.</p>\n  <p>Ensure Strength, Beauty, Authenticity, Dignity, Nobility, and Restraint.</p>\n</div>\n<div class=\"section\">\n  <p>And when you run out of strength, and it will happen often,</p>\n  <p>laugh as you pick yourself up,</p>\n  <p>and your laughter will connect with the laughter of all the other Great Beings who rose before you.</p>\n</div>\n<div class=\"section\">\n  <p>Your life, is to become a Work of Art,</p>\n  <p>day by day you must add to it, make it more beautiful.</p>\n</div>\n<div class=\"section\">\n  <p>Our civilizations, cultures, and the world, may not be ready to embrace your growing up,</p>\n  <p>many will stand in your way, some even with advice that sounds good.</p>\n</div>\n<div class=\"section\">\n  <p>Never follow,</p>\n  <p>Always lead.</p>\n</div>\n<div class=\"section\">\n  <p>Know that all the steps you take toward wisdom and Enlightenment count,</p>\n  <p>and you will never regret this journey - as Rising Up, is a Law of the Universe.</p>\n</div>\n<div class=\"section\">\n  <p>All the Great Beings who have risen before you,</p>\n  <p>had only one regret: &quot;I should have risen faster.&quot;</p>\n</div>\n<div class=\"section\">\n  <p>So get up,</p>\n  <p>and Go!</p>\n</div>",
  "bootstrap": "<div class=\"card card-section bg-dark text-warning shadow\">\n  <div class=\"section card-body mb-0 my-2\">\n    <div class=\"paragraph card-text card-stanza my-5 text-center\">My Friends, Build Your Mind,</div>\n    <div class=\"paragraph card-text card-stanza my-5 text-center\">Build Your Body.</div>\n  </div>\n</div>\n<div class=\"card card-section bg-dark text-warning shadow\">\n  <div class=\"section card-body mb-0 my-2\">\n    <div class=\"paragraph card-text card-stanza my-5 text-center\">Do not ignore your well being,</div>\n    <div class=\"paragraph card-text card-stanza my-5 text-center\">you require Blue Skies, Seas, Mountains, Oceans, Lakes, and Forests.</div>\n  </div>\n</div>\n<div class=\"card card-section bg-dark text-warning shadow\">\n  <div class=\"section card-body mb-0 my-2\">\n    <div class=\"paragraph card-text card-stanza my-5 text-center\">Do not ignore your Body,</div>\n    <div class=\"paragraph card-text card-stanza my-5 text-center\">it needs care and exercise, and proper diet.</div>\n  </div>\n</div>\n<div class=\"card card-section bg-dark text-warning shadow\">\n  <div class=\"section card-body mb-0 my-2\">\n    <div class=\"paragraph card-text card-stanza my-5 text-center\">Do not merely hope to get a job,</div>\n    <div class=\"paragraph card-text card-stanza my-5 text-center\">make companies hope they can hire you.</div>\n  </div>\n</div>\n<div class=\"card card-section bg-dark text-warning shadow\">\n  <div class=\"section card-body mb-0 my-2\">\n    <div class=\"paragraph card-text card-stanza my-5 text-center\">Do not ignore the Content of Your Character,</div>\n    <div class=\"paragraph card-text card-stanza my-5 text-center\">spend many great adventures in pursuit of wisdom and insight.</div>\n  </div>\n</div>\n<div class=\"card card-section bg-dark text-warning shadow\">\n  <div class=\"section card-body mb-0 my-2\">\n    <div class=\"paragraph card-text card-stanza my-5 text-center\">Do not ignore Your Beautiful Heart,</div>\n    <div class=\"paragraph card-text card-stanza my-5 text-center\">keep rising, keep searching, keep shining.</div>\n  </div>\n</div>\n<div class=\"card card-section bg-dark text-warning shadow\">\n  <div class=\"section card-body mb-0 my-2\">\n    <div class=\"paragraph card-text card-stanza my-5 text-center\">Build Your Life, like a Sculptor Builds a Sculpture.</div>\n    <div class=\"paragraph card-text card-stanza my-5 text-center\">Ensure Strength, Beauty, Authenticity, Dignity, Nobility, and Restraint.</div>\n  </div>\n</div>\n<div class=\"card card-section bg-dark text-warning shadow\">\n  <div class=\"section card-body mb-0 my-2\">\n    <div class=\"paragraph card-text card-stanza my-5 text-center\">And when you run out of strength, and it will happen often,</div>\n    <div class=\"paragraph card-text card-stanza my-5 text-center\">laugh as you pick yourself up,</div>\n    <div class=\"paragraph card-text card-stanza my-5 text-center\">and your laughter will connect with the laughter of all the other Great Beings who rose before you.</div>\n  </div>\n</div>\n<div class=\"card card-section bg-dark text-warning shadow\">\n  <div class=\"section card-body mb-0 my-2\">\n    <div class=\"paragraph card-text card-stanza my-5 text-center\">Your life, is to become a Work of Art,</div>\n    <div class=\"paragraph card-text card-stanza my-5 text-center\">day by day you must add to it, make it more beautiful.</div>\n  </div>\n</div>\n<div class=\"card card-section bg-dark text-warning shadow\">\n  <div class=\"section card-body mb-0 my-2\">\n    <div class=\"paragraph card-text card-stanza my-5 text-center\">Our civilizations, cultures, and the world, may not be ready to embrace your growing up,</div>\n    <div class=\"paragraph card-text card-stanza my-5 text-center\">many will stand in your way, some even with advice that sounds good.</div>\n  </div>\n</div>\n<div class=\"card card-section bg-dark text-warning shadow\">\n  <div class=\"section card-body mb-0 my-2\">\n    <div class=\"paragraph card-text card-stanza my-5 text-center\">Never follow,</div>\n    <div class=\"paragraph card-text card-stanza my-5 text-center\">Always lead.</div>\n  </div>\n</div>\n<div class=\"card card-section bg-dark text-warning shadow\">\n  <div class=\"section card-body mb-0 my-2\">\n    <div class=\"paragraph card-text card-stanza my-5 text-center\">Know that all the steps you take toward wisdom and Enlightenment count,</div>\n    <div class=\"paragraph card-text card-stanza my-5 text-center\">and you will never regret this journey - as Rising Up, is a Law of the Universe.</div>\n  </div>\n</div>\n<div class=\"card card-section bg-dark text-warning shadow\">\n  <div class=\"section card-body mb-0 my-2\">\n    <div class=\"paragraph card-text card-stanza my-5 text-center\">All the Great Beings who have risen before you,</div>\n    <div class=\"paragraph card-text card-stanza my-5 text-center\">had only one regret: \"I should have risen faster.\"</div>\n  </div>\n</div>\n<div class=\"card card-section bg-dark text-warning shadow\">\n  <div class=\"section card-body mb-0 my-2\">\n    <div class=\"paragraph card-text card-stanza my-5 text-center\">So get up,</div>\n    <div class=\"paragraph card-text card-stanza my-5 text-center\">and Go!</div>\n  </div>\n</div>",
  "print": "<div class=\"section avoid-break-inside\" style=\"padding-bottom: 2rem;\">\n  <div class=\"paragraph\">My Friends, Build Your Mind,</div>\n  <div class=\"paragraph\">Build Your Body.</div>\n</div>\n<div class=\"section avoid-break-inside\" style=\"padding-bottom: 2rem;\">\n  <div class=\"paragraph\">Do not ignore your well being,</div>\n  <div class=\"paragraph\">you require Blue Skies, Seas, Mountains, Oceans, Lakes, and Forests.</div>\n</div>\n<div class=\"section avoid-break-inside\" style=\"padding-bottom: 2rem;\">\n  <div class=\"paragraph\">Do not ignore your Body,</div>\n  <div class=\"paragraph\">it needs care and exercise, and proper diet.</div>\n</div>\n<div class=\"section avoid-break-inside\" style=\"padding-bottom: 2rem;\">\n  <div class=\"paragraph\">Do not merely hope to get a job,</div>\n  <div class=\"paragraph\">make companies hope they can hire you.</div>\n</div>\n<div class=\"section avoid-break-inside\" style=\"padding-bottom: 2rem;\">\n  <div class=\"paragraph\">Do not ignore the Content of Your Character,</div>\n  <div class=\"paragraph\">spend many great adventures in pursuit of wisdom and insight.</div>\n</div>\n<div class=\"section avoid-break-inside\" style=\"padding-bottom: 2rem;\">\n  <div class=\"paragraph\">Do not ignore Your Beautiful Heart,</div>\n  <div class=\"paragraph\">keep rising, keep searching, keep shining.</div>\n</div>\n<div class=\"section avoid-break-inside\" style=\"padding-bottom: 2rem;\">\n  <div class=\"paragraph\">Build Your Life, like a Sculptor Builds a Sculpture.</div>\n  <div class=\"paragraph\">Ensure Strength, Beauty, Authenticity, Dignity, Nobility, and Restraint.</div>\n</div>\n<div class=\"section avoid-break-inside\" style=\"padding-bottom: 2rem;\">\n  <div class=\"paragraph\">And when you run out of strength, and it will happen often,</div>\n  <div class=\"paragraph\">laugh as you pick yourself up,</div>\n  <div class=\"paragraph\">and your laughter will connect with the laughter of all the other Great Beings who rose before you.</div>\n</div>\n<div class=\"section avoid-break-inside\" style=\"padding-bottom: 2rem;\">\n  <div class=\"paragraph\">Your life, is to become a Work of Art,</div>\n  <div class=\"paragraph\">day by day you must add to it, make it more beautiful.</div>\n</div>\n<div class=\"section avoid-break-inside\" style=\"padding-bottom: 2rem;\">\n  <div class=\"paragraph\">Our civilizations, cultures, and the world, may not be ready to embrace your growing up,</div>\n  <div class=\"paragraph\">many will stand in your way, some even with advice that sounds good.</div>\n</div>\n<div class=\"section avoid-break-inside\" style=\"padding-bottom: 2rem;\">\n  <div class=\"paragraph\">Never follow,</div>\n  <div class=\"paragraph\">Always lead.</div>\n</div>\n<div class=\"section avoid-break-inside\" style=\"padding-bottom: 2rem;\">\n  <div class=\"paragraph\">Know that all the steps you take toward wisdom and Enlightenment count,</div>\n  <div class=\"paragraph\">and you will never regret this journey - as Rising Up, is a Law of the Universe.</div>\n</div>\n<div class=\"section avoid-break-inside\" style=\"padding-bottom: 2rem;\">\n  <div class=\"paragraph\">All the Great Beings who have risen before you,</div>\n  <div class=\"paragraph\">had only one regret: \"I should have risen faster.\"</div>\n</div>\n<div class=\"section avoid-break-inside\" style=\"padding-bottom: 2rem;\">\n  <div class=\"paragraph\">So get up,</div>\n  <div class=\"paragraph\">and Go!</div>\n</div>",
  "text": "My Friends, Build Your Mind,\nBuild Your Body.\nDo not ignore your well being,\nyou require Blue Skies, Seas, Mountains, Oceans, Lakes, and Forests.\nDo not ignore your Body,\nit needs care and exercise, and proper diet.\nDo not merely hope to get a job,\nmake companies hope they can hire you.\nDo not ignore the Content of Your Character,\nspend many great adventures in pursuit of wisdom and insight.\nDo not ignore Your Beautiful Heart,\nkeep rising, keep searching, keep shining.\nBuild Your Life, like a Sculptor Builds a Sculpture.\nEnsure Strength, Beauty, Authenticity, Dignity, Nobility, and Restraint.\nAnd when you run out of strength, and it will happen often,\nlaugh as you pick yourself up,\nand your laughter will connect with the laughter of all the other Great Beings who rose before you.\nYour life, is to become a Work of Art,\nday by day you must add to it, make it more beautiful.\nOur civilizations, cultures, and the world, may not be ready to embrace your growing up,\nmany will stand in your way, some even with advice that sounds good.\nNever follow,\nAlways lead.\nKnow that all the steps you take toward wisdom and Enlightenment count,\nand you will never regret this journey - as Rising Up, is a Law of the Universe.\nAll the Great Beings who have risen before you,\nhad only one regret: \"I should have risen faster.\"\nSo get up,\nand Go!",
  "images": [],
  "links": []
}