{
  "title": "The Building of The Ocean",
  "date": "2020-06-19T22:38:13.370Z",
  "image": "poetry-0112-illustration.jpg",
  "audio": "poetry-0112.mp3",
  "id": "furkies-purrkies-poetry-0112",
  "attachments": {},
  "guid": "8239c810-6bb8-4baf-998d-5bdfb7543e2c"
}
