{
  "name": "furkies-purrkies-poetry-0722",
  "id": "furkies-purrkies-poetry-0722",
  "title": "And What If My Art, Does Not Sell?",
  "date": "2022-02-20T16:15:59.998Z",
  "image": "poetry-0722-illustration.jpg",
  "artwork": "https://catpea.com",
  "audio": "poetry-0722.mp3",
  "guid": "c4f57567-af9e-4593-bff8-851c39ded008",
  "html": "<div class=\"section\">\n  <p>It is one of the best things that can happen to you,<br>because then you are stuck with your beautiful art portfolio.</p>\n  <p>Even if you deleted your art portfolio,<br>you can't wash away the fact, that you are an artist, now.</p>\n  <p>You have your portfolio,<br>and a dream of a business.</p>\n  <p>But before you is a gap,<br>and it requires that you build a bridge.</p>\n  <p>That is called, a beginning,<br>that is how every business entrepreneur starts.</p>\n  <p>The gap and the bridge,<br>is a blessing.</p>\n  <p>Here you are not doing business for business sake,<br>here you have a reason.</p>\n  <p>You become driven,<br>you learn without trying, and you advance without pushing.</p>\n</div>\n<div class=\"section\">\n  <hr>\n</div>\n<div class=\"section\">\n  <p>Once you realize that kind of paying the bills is not enough,<br>it will take but a moment of rest, to invent the next step.</p>\n  <p>The next step that builds on top of your beautiful art portfolio,<br>that indestructible nucleus that is all the proof you can do it.</p>\n</div>\n<div class=\"section\">\n  <hr>\n</div>\n<div class=\"section\">\n  <p>Your beautiful, nine piece art portfolio,<br>born of hope, realism, inspiration, comprehension, understanding, rage, and rebellion.</p>\n  <p>Ignited by the deceptively simple process of placing a transparent reference image,<br>over your entire canvas to allow you to pick the correct colors.</p>\n  <p>Is a a magical ticket,<br>out of the world of darkness.</p>\n  <p>Print out the pieces of nine,<br>hold it in your hand.</p>\n  <p>Look at all the details you put there,<br>all the pixels that you put there.</p>\n  <p>And notice, how that dark fantasy of sick men,<br>of creatures that sold the word.</p>\n  <p>Trembles before you,<br>how the sickens of the broken men has no power over you.</p>\n  <p>Your pieces of nine,<br>truly, fully, deeply, are a magical ticket that helps you rise.</p>\n</div>\n<div class=\"section\">\n  <hr>\n</div>\n<div class=\"section\">\n  <p>You take out your journal,<br>that has the sticker version of your pieces of nine plastered all over.</p>\n  <p>And you start building the bridge,<br>you work on the systems diagrams.</p>\n  <p>It is a very simple program,<br>a person comes to the website, uploads an image, for about $50 dollars.</p>\n  <p>The image goes into a task queue,<br>someone scores it for quality, talk to the customer about improvements.</p>\n  <p>Then the artists that signed up with your company,<br>begin their work.</p>\n  <p>Three artists that like the photo, create a total of nine images,<br>and the customer orders two of them to completion, $50 each.</p>\n  <p>For a total of $150 dollars the customer gets two unique portraits,<br>you take %25 percent of that.</p>\n  <p>And the artists, don't just make the money,<br>they add another piece to their portfolio.</p>\n</div>\n<div class=\"section\">\n  <hr>\n</div>\n<div class=\"section\">\n  <p>During sign-up, you train your artists to use Krita,<br>and stretch the reference image using Reference Images Tool over the entire canvas.</p>\n  <p>Where it becomes both perfect color,<br>and perfect shape reference.</p>\n  <p>And let your artists form guilds that adhere to a particular technique,<br>and let them create their own storefronts under the umbrella of your system, it all works out great in the end.</p>\n  <p>Whenever an artist brings users to their own store,<br>it generates new traffic to the whole website, which is good for all artists.</p>\n  <p>And you should allow thousands,<br>or tens of thousands artists to sign up.</p>\n  <p>And though you can try to have a \"there will be no slightly crooked paintings sold by your business\" guarantee,<br>people will come in and trance from reference, and that is good too.</p>\n  <p>A good part of art,<br>is meditation.</p>\n</div>\n<div class=\"section\">\n  <hr>\n</div>\n<div class=\"section\">\n  <p>Do you see, if your initial business worked out,<br>all you would be able to do is pay the bills, and get some gadgets.</p>\n  <p>But because there was a gap,<br>your heart was challenged to innovate.</p>\n  <p>To grow from Artist to Entrepreneur,<br>from few hundred dollars, to just about 10 million per month.</p>\n  <p>Grow in creativity, passion, hope, imagination, adventure cheerfulness,<br>and a gentle and beautiful vision.</p>\n  <p>A vision that surely,<br>can remind all how amazing it is to have portraits of people they love - painted just for them in the colors they love - hanging all around their house.</p>\n  <p>And of course, it is not all love, all the time,<br>hopefully you will have a Lowbrow Art option for that uncle that talks politics all the time, where people can choose from the following options.</p>\n  <p>one eye bigger than the other,<br>pant-less in grandmother pantaloons,<br>tiny little mouth,<br>extra wrinkles,<br>eye patch,<br>googly eyes,<br>strange hat,<br>handcuffs,<br>missing tooth...</p>\n  <p>And finally, prevent the artist from tracing the likeness even with some extra loose technique,<br>and make the final outcome slightly crooked, so that everyone has to equally slightly pretend is it good.</p>\n  <p>\"Nah, its good, its really good,<br>it looks like him... you are very talented - you were always very talented as a child\"</p>\n  <p>Actually you spoke before your father did,<br>after he found out about my pregnancy.</p>\n  <p>Tremendous,<br>talent...</p>\n</div>",
  "bootstrap": "<div class=\"card card-section bg-dark text-warning shadow\">\n  <div class=\"section card-body mb-0 my-2\">\n    <div class=\"paragraph card-text card-stanza my-5 text-center\">It is one of the best things that can happen to you,<br>because then you are stuck with your beautiful art portfolio.</div>\n    <div class=\"paragraph card-text card-stanza my-5 text-center\">Even if you deleted your art portfolio,<br>you can't wash away the fact, that you are an artist, now.</div>\n    <div class=\"paragraph card-text card-stanza my-5 text-center\">You have your portfolio,<br>and a dream of a business.</div>\n    <div class=\"paragraph card-text card-stanza my-5 text-center\">But before you is a gap,<br>and it requires that you build a bridge.</div>\n    <div class=\"paragraph card-text card-stanza my-5 text-center\">That is called, a beginning,<br>that is how every business entrepreneur starts.</div>\n    <div class=\"paragraph card-text card-stanza my-5 text-center\">The gap and the bridge,<br>is a blessing.</div>\n    <div class=\"paragraph card-text card-stanza my-5 text-center\">Here you are not doing business for business sake,<br>here you have a reason.</div>\n    <div class=\"paragraph card-text card-stanza my-5 text-center\">You become driven,<br>you learn without trying, and you advance without pushing.</div>\n  </div>\n</div>\n<div class=\"mb-5 section-spacer\">&nbsp;</div>\n<div class=\"card card-section bg-dark text-warning shadow\">\n  <div class=\"section card-body mb-0 my-2\">\n    <div class=\"paragraph card-text card-stanza my-5 text-center\">Once you realize that kind of paying the bills is not enough,<br>it will take but a moment of rest, to invent the next step.</div>\n    <div class=\"paragraph card-text card-stanza my-5 text-center\">The next step that builds on top of your beautiful art portfolio,<br>that indestructible nucleus that is all the proof you can do it.</div>\n  </div>\n</div>\n<div class=\"mb-5 section-spacer\">&nbsp;</div>\n<div class=\"card card-section bg-dark text-warning shadow\">\n  <div class=\"section card-body mb-0 my-2\">\n    <div class=\"paragraph card-text card-stanza my-5 text-center\">Your beautiful, nine piece art portfolio,<br>born of hope, realism, inspiration, comprehension, understanding, rage, and rebellion.</div>\n    <div class=\"paragraph card-text card-stanza my-5 text-center\">Ignited by the deceptively simple process of placing a transparent reference image,<br>over your entire canvas to allow you to pick the correct colors.</div>\n    <div class=\"paragraph card-text card-stanza my-5 text-center\">Is a a magical ticket,<br>out of the world of darkness.</div>\n    <div class=\"paragraph card-text card-stanza my-5 text-center\">Print out the pieces of nine,<br>hold it in your hand.</div>\n    <div class=\"paragraph card-text card-stanza my-5 text-center\">Look at all the details you put there,<br>all the pixels that you put there.</div>\n    <div class=\"paragraph card-text card-stanza my-5 text-center\">And notice, how that dark fantasy of sick men,<br>of creatures that sold the word.</div>\n    <div class=\"paragraph card-text card-stanza my-5 text-center\">Trembles before you,<br>how the sickens of the broken men has no power over you.</div>\n    <div class=\"paragraph card-text card-stanza my-5 text-center\">Your pieces of nine,<br>truly, fully, deeply, are a magical ticket that helps you rise.</div>\n  </div>\n</div>\n<div class=\"mb-5 section-spacer\">&nbsp;</div>\n<div class=\"card card-section bg-dark text-warning shadow\">\n  <div class=\"section card-body mb-0 my-2\">\n    <div class=\"paragraph card-text card-stanza my-5 text-center\">You take out your journal,<br>that has the sticker version of your pieces of nine plastered all over.</div>\n    <div class=\"paragraph card-text card-stanza my-5 text-center\">And you start building the bridge,<br>you work on the systems diagrams.</div>\n    <div class=\"paragraph card-text card-stanza my-5 text-center\">It is a very simple program,<br>a person comes to the website, uploads an image, for about $50 dollars.</div>\n    <div class=\"paragraph card-text card-stanza my-5 text-center\">The image goes into a task queue,<br>someone scores it for quality, talk to the customer about improvements.</div>\n    <div class=\"paragraph card-text card-stanza my-5 text-center\">Then the artists that signed up with your company,<br>begin their work.</div>\n    <div class=\"paragraph card-text card-stanza my-5 text-center\">Three artists that like the photo, create a total of nine images,<br>and the customer orders two of them to completion, $50 each.</div>\n    <div class=\"paragraph card-text card-stanza my-5 text-center\">For a total of $150 dollars the customer gets two unique portraits,<br>you take %25 percent of that.</div>\n    <div class=\"paragraph card-text card-stanza my-5 text-center\">And the artists, don't just make the money,<br>they add another piece to their portfolio.</div>\n  </div>\n</div>\n<div class=\"mb-5 section-spacer\">&nbsp;</div>\n<div class=\"card card-section bg-dark text-warning shadow\">\n  <div class=\"section card-body mb-0 my-2\">\n    <div class=\"paragraph card-text card-stanza my-5 text-center\">During sign-up, you train your artists to use Krita,<br>and stretch the reference image using Reference Images Tool over the entire canvas.</div>\n    <div class=\"paragraph card-text card-stanza my-5 text-center\">Where it becomes both perfect color,<br>and perfect shape reference.</div>\n    <div class=\"paragraph card-text card-stanza my-5 text-center\">And let your artists form guilds that adhere to a particular technique,<br>and let them create their own storefronts under the umbrella of your system, it all works out great in the end.</div>\n    <div class=\"paragraph card-text card-stanza my-5 text-center\">Whenever an artist brings users to their own store,<br>it generates new traffic to the whole website, which is good for all artists.</div>\n    <div class=\"paragraph card-text card-stanza my-5 text-center\">And you should allow thousands,<br>or tens of thousands artists to sign up.</div>\n    <div class=\"paragraph card-text card-stanza my-5 text-center\">And though you can try to have a \"there will be no slightly crooked paintings sold by your business\" guarantee,<br>people will come in and trance from reference, and that is good too.</div>\n    <div class=\"paragraph card-text card-stanza my-5 text-center\">A good part of art,<br>is meditation.</div>\n  </div>\n</div>\n<div class=\"mb-5 section-spacer\">&nbsp;</div>\n<div class=\"card card-section bg-dark text-warning shadow\">\n  <div class=\"section card-body mb-0 my-2\">\n    <div class=\"paragraph card-text card-stanza my-5 text-center\">Do you see, if your initial business worked out,<br>all you would be able to do is pay the bills, and get some gadgets.</div>\n    <div class=\"paragraph card-text card-stanza my-5 text-center\">But because there was a gap,<br>your heart was challenged to innovate.</div>\n    <div class=\"paragraph card-text card-stanza my-5 text-center\">To grow from Artist to Entrepreneur,<br>from few hundred dollars, to just about 10 million per month.</div>\n    <div class=\"paragraph card-text card-stanza my-5 text-center\">Grow in creativity, passion, hope, imagination, adventure cheerfulness,<br>and a gentle and beautiful vision.</div>\n    <div class=\"paragraph card-text card-stanza my-5 text-center\">A vision that surely,<br>can remind all how amazing it is to have portraits of people they love - painted just for them in the colors they love - hanging all around their house.</div>\n    <div class=\"paragraph card-text card-stanza my-5 text-center\">And of course, it is not all love, all the time,<br>hopefully you will have a Lowbrow Art option for that uncle that talks politics all the time, where people can choose from the following options.</div>\n    <div class=\"paragraph card-text card-stanza my-5 text-center\">one eye bigger than the other,<br>pant-less in grandmother pantaloons,<br>tiny little mouth,<br>extra wrinkles,<br>eye patch,<br>googly eyes,<br>strange hat,<br>handcuffs,<br>missing tooth...</div>\n    <div class=\"paragraph card-text card-stanza my-5 text-center\">And finally, prevent the artist from tracing the likeness even with some extra loose technique,<br>and make the final outcome slightly crooked, so that everyone has to equally slightly pretend is it good.</div>\n    <div class=\"paragraph card-text card-stanza my-5 text-center\">\"Nah, its good, its really good,<br>it looks like him... you are very talented - you were always very talented as a child\"</div>\n    <div class=\"paragraph card-text card-stanza my-5 text-center\">Actually you spoke before your father did,<br>after he found out about my pregnancy.</div>\n    <div class=\"paragraph card-text card-stanza my-5 text-center\">Tremendous,<br>talent...</div>\n  </div>\n</div>",
  "print": "<div class=\"section avoid-break-inside\" style=\"padding-bottom: 2rem;\">\n  <div class=\"paragraph\">It is one of the best things that can happen to you,<br>because then you are stuck with your beautiful art portfolio.</div>\n  <div class=\"paragraph\">Even if you deleted your art portfolio,<br>you can't wash away the fact, that you are an artist, now.</div>\n  <div class=\"paragraph\">You have your portfolio,<br>and a dream of a business.</div>\n  <div class=\"paragraph\">But before you is a gap,<br>and it requires that you build a bridge.</div>\n  <div class=\"paragraph\">That is called, a beginning,<br>that is how every business entrepreneur starts.</div>\n  <div class=\"paragraph\">The gap and the bridge,<br>is a blessing.</div>\n  <div class=\"paragraph\">Here you are not doing business for business sake,<br>here you have a reason.</div>\n  <div class=\"paragraph\">You become driven,<br>you learn without trying, and you advance without pushing.</div>\n</div>\n<div class=\"section avoid-break-inside\" style=\"padding-bottom: 2rem;\">\n  <br>\n</div>\n<div class=\"section avoid-break-inside\" style=\"padding-bottom: 2rem;\">\n  <div class=\"paragraph\">Once you realize that kind of paying the bills is not enough,<br>it will take but a moment of rest, to invent the next step.</div>\n  <div class=\"paragraph\">The next step that builds on top of your beautiful art portfolio,<br>that indestructible nucleus that is all the proof you can do it.</div>\n</div>\n<div class=\"section avoid-break-inside\" style=\"padding-bottom: 2rem;\">\n  <br>\n</div>\n<div class=\"section avoid-break-inside\" style=\"padding-bottom: 2rem;\">\n  <div class=\"paragraph\">Your beautiful, nine piece art portfolio,<br>born of hope, realism, inspiration, comprehension, understanding, rage, and rebellion.</div>\n  <div class=\"paragraph\">Ignited by the deceptively simple process of placing a transparent reference image,<br>over your entire canvas to allow you to pick the correct colors.</div>\n  <div class=\"paragraph\">Is a a magical ticket,<br>out of the world of darkness.</div>\n  <div class=\"paragraph\">Print out the pieces of nine,<br>hold it in your hand.</div>\n  <div class=\"paragraph\">Look at all the details you put there,<br>all the pixels that you put there.</div>\n  <div class=\"paragraph\">And notice, how that dark fantasy of sick men,<br>of creatures that sold the word.</div>\n  <div class=\"paragraph\">Trembles before you,<br>how the sickens of the broken men has no power over you.</div>\n  <div class=\"paragraph\">Your pieces of nine,<br>truly, fully, deeply, are a magical ticket that helps you rise.</div>\n</div>\n<div class=\"section avoid-break-inside\" style=\"padding-bottom: 2rem;\">\n  <br>\n</div>\n<div class=\"section avoid-break-inside\" style=\"padding-bottom: 2rem;\">\n  <div class=\"paragraph\">You take out your journal,<br>that has the sticker version of your pieces of nine plastered all over.</div>\n  <div class=\"paragraph\">And you start building the bridge,<br>you work on the systems diagrams.</div>\n  <div class=\"paragraph\">It is a very simple program,<br>a person comes to the website, uploads an image, for about $50 dollars.</div>\n  <div class=\"paragraph\">The image goes into a task queue,<br>someone scores it for quality, talk to the customer about improvements.</div>\n  <div class=\"paragraph\">Then the artists that signed up with your company,<br>begin their work.</div>\n  <div class=\"paragraph\">Three artists that like the photo, create a total of nine images,<br>and the customer orders two of them to completion, $50 each.</div>\n  <div class=\"paragraph\">For a total of $150 dollars the customer gets two unique portraits,<br>you take %25 percent of that.</div>\n  <div class=\"paragraph\">And the artists, don't just make the money,<br>they add another piece to their portfolio.</div>\n</div>\n<div class=\"section avoid-break-inside\" style=\"padding-bottom: 2rem;\">\n  <br>\n</div>\n<div class=\"section avoid-break-inside\" style=\"padding-bottom: 2rem;\">\n  <div class=\"paragraph\">During sign-up, you train your artists to use Krita,<br>and stretch the reference image using Reference Images Tool over the entire canvas.</div>\n  <div class=\"paragraph\">Where it becomes both perfect color,<br>and perfect shape reference.</div>\n  <div class=\"paragraph\">And let your artists form guilds that adhere to a particular technique,<br>and let them create their own storefronts under the umbrella of your system, it all works out great in the end.</div>\n  <div class=\"paragraph\">Whenever an artist brings users to their own store,<br>it generates new traffic to the whole website, which is good for all artists.</div>\n  <div class=\"paragraph\">And you should allow thousands,<br>or tens of thousands artists to sign up.</div>\n  <div class=\"paragraph\">And though you can try to have a \"there will be no slightly crooked paintings sold by your business\" guarantee,<br>people will come in and trance from reference, and that is good too.</div>\n  <div class=\"paragraph\">A good part of art,<br>is meditation.</div>\n</div>\n<div class=\"section avoid-break-inside\" style=\"padding-bottom: 2rem;\">\n  <br>\n</div>\n<div class=\"section avoid-break-inside\" style=\"padding-bottom: 2rem;\">\n  <div class=\"paragraph\">Do you see, if your initial business worked out,<br>all you would be able to do is pay the bills, and get some gadgets.</div>\n  <div class=\"paragraph\">But because there was a gap,<br>your heart was challenged to innovate.</div>\n  <div class=\"paragraph\">To grow from Artist to Entrepreneur,<br>from few hundred dollars, to just about 10 million per month.</div>\n  <div class=\"paragraph\">Grow in creativity, passion, hope, imagination, adventure cheerfulness,<br>and a gentle and beautiful vision.</div>\n  <div class=\"paragraph\">A vision that surely,<br>can remind all how amazing it is to have portraits of people they love - painted just for them in the colors they love - hanging all around their house.</div>\n  <div class=\"paragraph\">And of course, it is not all love, all the time,<br>hopefully you will have a Lowbrow Art option for that uncle that talks politics all the time, where people can choose from the following options.</div>\n  <div class=\"paragraph\">one eye bigger than the other,<br>pant-less in grandmother pantaloons,<br>tiny little mouth,<br>extra wrinkles,<br>eye patch,<br>googly eyes,<br>strange hat,<br>handcuffs,<br>missing tooth...</div>\n  <div class=\"paragraph\">And finally, prevent the artist from tracing the likeness even with some extra loose technique,<br>and make the final outcome slightly crooked, so that everyone has to equally slightly pretend is it good.</div>\n  <div class=\"paragraph\">\"Nah, its good, its really good,<br>it looks like him... you are very talented - you were always very talented as a child\"</div>\n  <div class=\"paragraph\">Actually you spoke before your father did,<br>after he found out about my pregnancy.</div>\n  <div class=\"paragraph\">Tremendous,<br>talent...</div>\n</div>",
  "text": "It is one of the best things that can happen to you,\nbecause then you are stuck with your beautiful art portfolio.\nEven if you deleted your art portfolio,\nyou can't wash away the fact, that you are an artist, now.\nYou have your portfolio,\nand a dream of a business.\nBut before you is a gap,\nand it requires that you build a bridge.\nThat is called, a beginning,\nthat is how every business entrepreneur starts.\nThe gap and the bridge,\nis a blessing.\nHere you are not doing business for business sake,\nhere you have a reason.\nYou become driven,\nyou learn without trying, and you advance without pushing.\n\nOnce you realize that kind of paying the bills is not enough,\nit will take but a moment of rest, to invent the next step.\nThe next step that builds on top of your beautiful art portfolio,\nthat indestructible nucleus that is all the proof you can do it.\n\nYour beautiful, nine piece art portfolio,\nborn of hope, realism, inspiration, comprehension, understanding, rage, and rebellion.\nIgnited by the deceptively simple process of placing a transparent reference image,\nover your entire canvas to allow you to pick the correct colors.\nIs a a magical ticket,\nout of the world of darkness.\nPrint out the pieces of nine,\nhold it in your hand.\nLook at all the details you put there,\nall the pixels that you put there.\nAnd notice, how that dark fantasy of sick men,\nof creatures that sold the word.\nTrembles before you,\nhow the sickens of the broken men has no power over you.\nYour pieces of nine,\ntruly, fully, deeply, are a magical ticket that helps you rise.\n\nYou take out your journal,\nthat has the sticker version of your pieces of nine plastered all over.\nAnd you start building the bridge,\nyou work on the systems diagrams.\nIt is a very simple program,\na person comes to the website, uploads an image, for about $50 dollars.\nThe image goes into a task queue,\nsomeone scores it for quality, talk to the customer about improvements.\nThen the artists that signed up with your company,\nbegin their work.\nThree artists that like the photo, create a total of nine images,\nand the customer orders two of them to completion, $50 each.\nFor a total of $150 dollars the customer gets two unique portraits,\nyou take %25 percent of that.\nAnd the artists, don't just make the money,\nthey add another piece to their portfolio.\n\nDuring sign-up, you train your artists to use Krita,\nand stretch the reference image using Reference Images Tool over the entire canvas.\nWhere it becomes both perfect color,\nand perfect shape reference.\nAnd let your artists form guilds that adhere to a particular technique,\nand let them create their own storefronts under the umbrella of your system, it all works out great in the end.\nWhenever an artist brings users to their own store,\nit generates new traffic to the whole website, which is good for all artists.\nAnd you should allow thousands,\nor tens of thousands artists to sign up.\nAnd though you can try to have a \"there will be no slightly crooked paintings sold by your business\" guarantee,\npeople will come in and trance from reference, and that is good too.\nA good part of art,\nis meditation.\n\nDo you see, if your initial business worked out,\nall you would be able to do is pay the bills, and get some gadgets.\nBut because there was a gap,\nyour heart was challenged to innovate.\nTo grow from Artist to Entrepreneur,\nfrom few hundred dollars, to just about 10 million per month.\nGrow in creativity, passion, hope, imagination, adventure cheerfulness,\nand a gentle and beautiful vision.\nA vision that surely,\ncan remind all how amazing it is to have portraits of people they love - painted just for them in the colors they love - hanging all around their house.\nAnd of course, it is not all love, all the time,\nhopefully you will have a Lowbrow Art option for that uncle that talks politics all the time, where people can choose from the following options.\none eye bigger than the other,\npant-less in grandmother pantaloons,\ntiny little mouth,\nextra wrinkles,\neye patch,\ngoogly eyes,\nstrange hat,\nhandcuffs,\nmissing tooth...\nAnd finally, prevent the artist from tracing the likeness even with some extra loose technique,\nand make the final outcome slightly crooked, so that everyone has to equally slightly pretend is it good.\n\"Nah, its good, its really good,\nit looks like him... you are very talented - you were always very talented as a child\"\nActually you spoke before your father did,\nafter he found out about my pregnancy.\nTremendous,\ntalent...",
  "images": [],
  "links": []
}