{
  "name": "furkies-purrkies-poetry-0857",
  "id": "furkies-purrkies-poetry-0857",
  "title": "Cats And Dogs Living Together",
  "date": "2022-07-05T20:42:10.164Z",
  "image": "poetry-0857-illustration.jpg",
  "artwork": "https://unsplash.com/photos/lVd5b63876g",
  "artworks": [
    "https://unsplash.com/photos/qtkpOxCpl0Y"
  ],
  "audio": "poetry-0857.mp3",
  "guid": "36d4d60b-816e-461c-b39f-a06293e80ed5",
  "html": "<div class=\"section\">\n  <p>While painting, programming, composing, writing, rhyming, singing, sculpting,<br>building and inventing, all represents real knowledge.</p>\n  <p>It is not just a bag of random random goodies,<br>because they all connect, and reinforce one another.</p>\n  <p>For example, in 3D Modeling we have the concept of the vertex, edge and face,<br>and it would be near impossible to create 3D things without it.</p>\n  <p>This influences user interface design, in programming,<br>because those three things are really hard to grasp at first.</p>\n  <p>And normally when programming a User Interface for your program,<br>you wouldn't even dare to introduce such complexity.</p>\n  <p>But now, knowing that this is what makes 3D modeling successful,<br>you are granted permission to expand your user interface.</p>\n  <p>Depending on your program, possibly even into high complexity,<br>that the vertex, edge and face so neatly demonstrates.</p>\n</div>\n<div class=\"section\">\n  <hr>\n</div>\n<div class=\"section\">\n  <p>It is not the scientist, that master of that trade,<br>that is a good example of a well educated person.</p>\n  <p>The Hacker is a good example of a well educated person,<br>so as long as they don’t forget to take good care of themselves too.</p>\n  <p>A hacker, somewhat similar to that old Gad Fly, Socrates,<br>may say they know next to nothing.</p>\n  <p>That things are not their area of expertise,<br>but more than often they have long surpassed the experts in the field.</p>\n  <p>It is just that the field is so large,<br>that compared to the field it self their knowledge seems small to them.</p>\n  <p>And by Hacker I don’t mean the troublemakers who will by an expensive vaccum cleaner robot,<br>install remote control, a camera, and some other equipment, and then return it.</p>\n  <p>Waiting for a person with a large budget to buy and deploy that unit,<br>in their own home, this probably happens to a lot of electronics that can be returned.</p>\n  <p>I mean <a href=\"https://www.youtube.com/watch?v=uhyM-bhzFsI\">the Hacker that will buy the unit, to study the code, and alert the company</a>,<br>hopefully with the attorney on the other line, in exchange for an enormous reward.</p>\n</div>\n<div class=\"section\">\n  <hr>\n</div>\n<div class=\"section\">\n  <p>Note how this is not a vacuum hacker, but rather someone who deep down,<br>may dream about having their own robot, lyke in the movies.</p>\n  <p>Or at the very least for their sftp server to follow them around,<br>and why the heck not?</p>\n</div>\n<div class=\"section\">\n  <hr>\n</div>\n<div class=\"section\">\n  <p>A Powerful Hacker is not elevated by any one thing,<br>nor do they switch hats from electronics to operating systems, or, <a href=\"https://www.youtube.com/watch?v=0fEMJp70tGU\">advanced art</a> even.</p>\n  <p>If they could only be one thing at a time,<br>it would be the a great tragedy.</p>\n  <p>And they aren't even a sum of what they know,<br>because knowledge grows, and no human could ever stop themselves from learning by subtle analogy.</p>\n  <p>So all the functional things, that we actually comprehend,<br>that we can employ and enjoy, are constantly cross connecting..</p>\n  <p>And even more so,<br>when we are stressed for inventing new things.</p>\n  <p>I mean the first thing you do when you want to create, is to cross the streams,<br>in the deepest of our creativity we yearn for nothing more than the pandemonium of ideas.</p>\n</div>\n<div class=\"section\">\n  <hr>\n</div>\n<div class=\"section\">\n  <p>So schools, when they teach us <a href=\"https://www.youtube.com/watch?v=0tEnnvZbYek\">pre-chewed and tasteless</a> and the <a href=\"https://www.youtube.com/watch?v=sxyKNMrhEvY\">disconnected</a>,<br>and make us parade for worthless grades...</p>\n  <p>Are really hurting our minds,<br>and by extension the world, and the future of human kind.</p>\n  <p>Because their is no greater tragedy, and no deeper sadness,<br>than a young mind, unable to cross the streams.</p>\n  <p>We have to fix schools,<br>we have to make them worthy of the best of us.</p>\n  <p>No more standardized education, no more grades, no more unforgivable student loans,<br>no more punishment, ridicule, no more holding brilliant mind a year back.</p>\n  <p>At the very least, make sure that all the people you know, understand,<br>that to grow up, means to grow all the way up, until we all become Great Beings.</p>\n</div>",
  "bootstrap": "<div class=\"card card-section bg-dark text-warning shadow\">\n  <div class=\"section card-body mb-0 my-2\">\n    <div class=\"paragraph card-text card-stanza my-5 text-center\">While painting, programming, composing, writing, rhyming, singing, sculpting,<br>building and inventing, all represents real knowledge.</div>\n    <div class=\"paragraph card-text card-stanza my-5 text-center\">It is not just a bag of random random goodies,<br>because they all connect, and reinforce one another.</div>\n    <div class=\"paragraph card-text card-stanza my-5 text-center\">For example, in 3D Modeling we have the concept of the vertex, edge and face,<br>and it would be near impossible to create 3D things without it.</div>\n    <div class=\"paragraph card-text card-stanza my-5 text-center\">This influences user interface design, in programming,<br>because those three things are really hard to grasp at first.</div>\n    <div class=\"paragraph card-text card-stanza my-5 text-center\">And normally when programming a User Interface for your program,<br>you wouldn't even dare to introduce such complexity.</div>\n    <div class=\"paragraph card-text card-stanza my-5 text-center\">But now, knowing that this is what makes 3D modeling successful,<br>you are granted permission to expand your user interface.</div>\n    <div class=\"paragraph card-text card-stanza my-5 text-center\">Depending on your program, possibly even into high complexity,<br>that the vertex, edge and face so neatly demonstrates.</div>\n  </div>\n</div>\n<div class=\"mb-5 section-spacer\">&nbsp;</div>\n<div class=\"card card-section bg-dark text-warning shadow\">\n  <div class=\"section card-body mb-0 my-2\">\n    <div class=\"paragraph card-text card-stanza my-5 text-center\">It is not the scientist, that master of that trade,<br>that is a good example of a well educated person.</div>\n    <div class=\"paragraph card-text card-stanza my-5 text-center\">The Hacker is a good example of a well educated person,<br>so as long as they don’t forget to take good care of themselves too.</div>\n    <div class=\"paragraph card-text card-stanza my-5 text-center\">A hacker, somewhat similar to that old Gad Fly, Socrates,<br>may say they know next to nothing.</div>\n    <div class=\"paragraph card-text card-stanza my-5 text-center\">That things are not their area of expertise,<br>but more than often they have long surpassed the experts in the field.</div>\n    <div class=\"paragraph card-text card-stanza my-5 text-center\">It is just that the field is so large,<br>that compared to the field it self their knowledge seems small to them.</div>\n    <div class=\"paragraph card-text card-stanza my-5 text-center\">And by Hacker I don’t mean the troublemakers who will by an expensive vaccum cleaner robot,<br>install remote control, a camera, and some other equipment, and then return it.</div>\n    <div class=\"paragraph card-text card-stanza my-5 text-center\">Waiting for a person with a large budget to buy and deploy that unit,<br>in their own home, this probably happens to a lot of electronics that can be returned.</div>\n    <div class=\"paragraph card-text card-stanza my-5 text-center\">I mean <a href=\"https://www.youtube.com/watch?v=uhyM-bhzFsI\">the Hacker that will buy the unit, to study the code, and alert the company</a>,<br>hopefully with the attorney on the other line, in exchange for an enormous reward.</div>\n  </div>\n</div>\n<div class=\"mb-5 section-spacer\">&nbsp;</div>\n<div class=\"card card-section bg-dark text-warning shadow\">\n  <div class=\"section card-body mb-0 my-2\">\n    <div class=\"paragraph card-text card-stanza my-5 text-center\">Note how this is not a vacuum hacker, but rather someone who deep down,<br>may dream about having their own robot, lyke in the movies.</div>\n    <div class=\"paragraph card-text card-stanza my-5 text-center\">Or at the very least for their sftp server to follow them around,<br>and why the heck not?</div>\n  </div>\n</div>\n<div class=\"mb-5 section-spacer\">&nbsp;</div>\n<div class=\"card card-section bg-dark text-warning shadow\">\n  <div class=\"section card-body mb-0 my-2\">\n    <div class=\"paragraph card-text card-stanza my-5 text-center\">A Powerful Hacker is not elevated by any one thing,<br>nor do they switch hats from electronics to operating systems, or, <a href=\"https://www.youtube.com/watch?v=0fEMJp70tGU\">advanced art</a> even.</div>\n    <div class=\"paragraph card-text card-stanza my-5 text-center\">If they could only be one thing at a time,<br>it would be the a great tragedy.</div>\n    <div class=\"paragraph card-text card-stanza my-5 text-center\">And they aren't even a sum of what they know,<br>because knowledge grows, and no human could ever stop themselves from learning by subtle analogy.</div>\n    <div class=\"paragraph card-text card-stanza my-5 text-center\">So all the functional things, that we actually comprehend,<br>that we can employ and enjoy, are constantly cross connecting..</div>\n    <div class=\"paragraph card-text card-stanza my-5 text-center\">And even more so,<br>when we are stressed for inventing new things.</div>\n    <div class=\"paragraph card-text card-stanza my-5 text-center\">I mean the first thing you do when you want to create, is to cross the streams,<br>in the deepest of our creativity we yearn for nothing more than the pandemonium of ideas.</div>\n  </div>\n</div>\n<div class=\"mb-5 section-spacer\">&nbsp;</div>\n<div class=\"card card-section bg-dark text-warning shadow\">\n  <div class=\"section card-body mb-0 my-2\">\n    <div class=\"paragraph card-text card-stanza my-5 text-center\">So schools, when they teach us <a href=\"https://www.youtube.com/watch?v=0tEnnvZbYek\">pre-chewed and tasteless</a> and the <a href=\"https://www.youtube.com/watch?v=sxyKNMrhEvY\">disconnected</a>,<br>and make us parade for worthless grades...</div>\n    <div class=\"paragraph card-text card-stanza my-5 text-center\">Are really hurting our minds,<br>and by extension the world, and the future of human kind.</div>\n    <div class=\"paragraph card-text card-stanza my-5 text-center\">Because their is no greater tragedy, and no deeper sadness,<br>than a young mind, unable to cross the streams.</div>\n    <div class=\"paragraph card-text card-stanza my-5 text-center\">We have to fix schools,<br>we have to make them worthy of the best of us.</div>\n    <div class=\"paragraph card-text card-stanza my-5 text-center\">No more standardized education, no more grades, no more unforgivable student loans,<br>no more punishment, ridicule, no more holding brilliant mind a year back.</div>\n    <div class=\"paragraph card-text card-stanza my-5 text-center\">At the very least, make sure that all the people you know, understand,<br>that to grow up, means to grow all the way up, until we all become Great Beings.</div>\n  </div>\n</div>",
  "print": "<div class=\"section avoid-break-inside\" style=\"padding-bottom: 2rem;\">\n  <div class=\"paragraph\">While painting, programming, composing, writing, rhyming, singing, sculpting,<br>building and inventing, all represents real knowledge.</div>\n  <div class=\"paragraph\">It is not just a bag of random random goodies,<br>because they all connect, and reinforce one another.</div>\n  <div class=\"paragraph\">For example, in 3D Modeling we have the concept of the vertex, edge and face,<br>and it would be near impossible to create 3D things without it.</div>\n  <div class=\"paragraph\">This influences user interface design, in programming,<br>because those three things are really hard to grasp at first.</div>\n  <div class=\"paragraph\">And normally when programming a User Interface for your program,<br>you wouldn't even dare to introduce such complexity.</div>\n  <div class=\"paragraph\">But now, knowing that this is what makes 3D modeling successful,<br>you are granted permission to expand your user interface.</div>\n  <div class=\"paragraph\">Depending on your program, possibly even into high complexity,<br>that the vertex, edge and face so neatly demonstrates.</div>\n</div>\n<div class=\"section avoid-break-inside\" style=\"padding-bottom: 2rem;\">\n  <br>\n</div>\n<div class=\"section avoid-break-inside\" style=\"padding-bottom: 2rem;\">\n  <div class=\"paragraph\">It is not the scientist, that master of that trade,<br>that is a good example of a well educated person.</div>\n  <div class=\"paragraph\">The Hacker is a good example of a well educated person,<br>so as long as they don’t forget to take good care of themselves too.</div>\n  <div class=\"paragraph\">A hacker, somewhat similar to that old Gad Fly, Socrates,<br>may say they know next to nothing.</div>\n  <div class=\"paragraph\">That things are not their area of expertise,<br>but more than often they have long surpassed the experts in the field.</div>\n  <div class=\"paragraph\">It is just that the field is so large,<br>that compared to the field it self their knowledge seems small to them.</div>\n  <div class=\"paragraph\">And by Hacker I don’t mean the troublemakers who will by an expensive vaccum cleaner robot,<br>install remote control, a camera, and some other equipment, and then return it.</div>\n  <div class=\"paragraph\">Waiting for a person with a large budget to buy and deploy that unit,<br>in their own home, this probably happens to a lot of electronics that can be returned.</div>\n  <div class=\"paragraph\">I mean <span>the Hacker that will buy the unit, to study the code, and alert the company<sup>[1]</sup></span>,<br>hopefully with the attorney on the other line, in exchange for an enormous reward.</div>\n</div>\n<div class=\"section avoid-break-inside\" style=\"padding-bottom: 2rem;\">\n  <br>\n</div>\n<div class=\"section avoid-break-inside\" style=\"padding-bottom: 2rem;\">\n  <div class=\"paragraph\">Note how this is not a vacuum hacker, but rather someone who deep down,<br>may dream about having their own robot, lyke in the movies.</div>\n  <div class=\"paragraph\">Or at the very least for their sftp server to follow them around,<br>and why the heck not?</div>\n</div>\n<div class=\"section avoid-break-inside\" style=\"padding-bottom: 2rem;\">\n  <br>\n</div>\n<div class=\"section avoid-break-inside\" style=\"padding-bottom: 2rem;\">\n  <div class=\"paragraph\">A Powerful Hacker is not elevated by any one thing,<br>nor do they switch hats from electronics to operating systems, or, <span>advanced art<sup>[2]</sup></span> even.</div>\n  <div class=\"paragraph\">If they could only be one thing at a time,<br>it would be the a great tragedy.</div>\n  <div class=\"paragraph\">And they aren't even a sum of what they know,<br>because knowledge grows, and no human could ever stop themselves from learning by subtle analogy.</div>\n  <div class=\"paragraph\">So all the functional things, that we actually comprehend,<br>that we can employ and enjoy, are constantly cross connecting..</div>\n  <div class=\"paragraph\">And even more so,<br>when we are stressed for inventing new things.</div>\n  <div class=\"paragraph\">I mean the first thing you do when you want to create, is to cross the streams,<br>in the deepest of our creativity we yearn for nothing more than the pandemonium of ideas.</div>\n</div>\n<div class=\"section avoid-break-inside\" style=\"padding-bottom: 2rem;\">\n  <br>\n</div>\n<div class=\"section avoid-break-inside\" style=\"padding-bottom: 2rem;\">\n  <div class=\"paragraph\">So schools, when they teach us <span>pre-chewed and tasteless<sup>[3]</sup></span> and the <span>disconnected<sup>[4]</sup></span>,<br>and make us parade for worthless grades...</div>\n  <div class=\"paragraph\">Are really hurting our minds,<br>and by extension the world, and the future of human kind.</div>\n  <div class=\"paragraph\">Because their is no greater tragedy, and no deeper sadness,<br>than a young mind, unable to cross the streams.</div>\n  <div class=\"paragraph\">We have to fix schools,<br>we have to make them worthy of the best of us.</div>\n  <div class=\"paragraph\">No more standardized education, no more grades, no more unforgivable student loans,<br>no more punishment, ridicule, no more holding brilliant mind a year back.</div>\n  <div class=\"paragraph\">At the very least, make sure that all the people you know, understand,<br>that to grow up, means to grow all the way up, until we all become Great Beings.</div>\n</div>\n<div class=\"break-after\">&nbsp;</div>\n<div>\n  <div class=\"section\" style=\"padding-bottom: 1rem;\">References</div>\n  <div>[1]: https://www.youtube.com/watch?v=uhyM-bhzFsI</div>\n  <div>[2]: https://www.youtube.com/watch?v=0fEMJp70tGU</div>\n  <div>[3]: https://www.youtube.com/watch?v=0tEnnvZbYek</div>\n  <div>[4]: https://www.youtube.com/watch?v=sxyKNMrhEvY</div>\n</div>",
  "text": "While painting, programming, composing, writing, rhyming, singing, sculpting,\nbuilding and inventing, all represents real knowledge.\nIt is not just a bag of random random goodies,\nbecause they all connect, and reinforce one another.\nFor example, in 3D Modeling we have the concept of the vertex, edge and face,\nand it would be near impossible to create 3D things without it.\nThis influences user interface design, in programming,\nbecause those three things are really hard to grasp at first.\nAnd normally when programming a User Interface for your program,\nyou wouldn't even dare to introduce such complexity.\nBut now, knowing that this is what makes 3D modeling successful,\nyou are granted permission to expand your user interface.\nDepending on your program, possibly even into high complexity,\nthat the vertex, edge and face so neatly demonstrates.\n\nIt is not the scientist, that master of that trade,\nthat is a good example of a well educated person.\nThe Hacker is a good example of a well educated person,\nso as long as they don’t forget to take good care of themselves too.\nA hacker, somewhat similar to that old Gad Fly, Socrates,\nmay say they know next to nothing.\nThat things are not their area of expertise,\nbut more than often they have long surpassed the experts in the field.\nIt is just that the field is so large,\nthat compared to the field it self their knowledge seems small to them.\nAnd by Hacker I don’t mean the troublemakers who will by an expensive vaccum cleaner robot,\ninstall remote control, a camera, and some other equipment, and then return it.\nWaiting for a person with a large budget to buy and deploy that unit,\nin their own home, this probably happens to a lot of electronics that can be returned.\nI mean the Hacker that will buy the unit, to study the code, and alert the company[1],\nhopefully with the attorney on the other line, in exchange for an enormous reward.\n\nNote how this is not a vacuum hacker, but rather someone who deep down,\nmay dream about having their own robot, lyke in the movies.\nOr at the very least for their sftp server to follow them around,\nand why the heck not?\n\nA Powerful Hacker is not elevated by any one thing,\nnor do they switch hats from electronics to operating systems, or, advanced art[2] even.\nIf they could only be one thing at a time,\nit would be the a great tragedy.\nAnd they aren't even a sum of what they know,\nbecause knowledge grows, and no human could ever stop themselves from learning by subtle analogy.\nSo all the functional things, that we actually comprehend,\nthat we can employ and enjoy, are constantly cross connecting..\nAnd even more so,\nwhen we are stressed for inventing new things.\nI mean the first thing you do when you want to create, is to cross the streams,\nin the deepest of our creativity we yearn for nothing more than the pandemonium of ideas.\n\nSo schools, when they teach us pre-chewed and tasteless[3] and the disconnected[4],\nand make us parade for worthless grades...\nAre really hurting our minds,\nand by extension the world, and the future of human kind.\nBecause their is no greater tragedy, and no deeper sadness,\nthan a young mind, unable to cross the streams.\nWe have to fix schools,\nwe have to make them worthy of the best of us.\nNo more standardized education, no more grades, no more unforgivable student loans,\nno more punishment, ridicule, no more holding brilliant mind a year back.\nAt the very least, make sure that all the people you know, understand,\nthat to grow up, means to grow all the way up, until we all become Great Beings.\n \nReferences\n[1]: https://www.youtube.com/watch?v=uhyM-bhzFsI\n[2]: https://www.youtube.com/watch?v=0fEMJp70tGU\n[3]: https://www.youtube.com/watch?v=0tEnnvZbYek\n[4]: https://www.youtube.com/watch?v=sxyKNMrhEvY",
  "images": [],
  "links": [
    {
      "title": "the Hacker that will buy the unit, to study the code, and alert the company",
      "url": "https://www.youtube.com/watch?v=uhyM-bhzFsI",
      "hostname": "www.youtube.com"
    },
    {
      "title": "advanced art",
      "url": "https://www.youtube.com/watch?v=0fEMJp70tGU",
      "hostname": "www.youtube.com"
    },
    {
      "title": "pre-chewed and tasteless",
      "url": "https://www.youtube.com/watch?v=0tEnnvZbYek",
      "hostname": "www.youtube.com"
    },
    {
      "title": "disconnected",
      "url": "https://www.youtube.com/watch?v=sxyKNMrhEvY",
      "hostname": "www.youtube.com"
    }
  ]
}