{
  "name": "furkies-purrkies-poetry-0391",
  "title": "In The Year 3000",
  "date": "2021-03-27T00:00:10.305Z",
  "image": "poetry-0391-illustration.jpg",
  "audio": "poetry-0391.mp3",
  "artwork": "https://en.wikipedia.org/wiki/File:The_Sounds_of_Earth_Record_Cover_-_GPN-2000-001978.jpg",
  "id": "furkies-purrkies-poetry-0391",
  "attachments": {},
  "guid": "abab7d6e-c646-439d-9701-afa18426fdbd",
  "html": "<div class=\"section\">\n  <p>If you like adventure,</p>\n  <p>eventually you will ask yourself about the big future.</p>\n</div>\n\n<div class=\"section\">\n  <p>Will we be able to ask Artificial Intelligence,</p>\n  <p>to build better artificial intelligence, or will their thoughts have limits too?</p>\n</div>\n\n<div class=\"section\">\n  <p>What will it be like when scientists cure aging,</p>\n  <p>how will that change Humanity, will we immateriality take to the stars?</p>\n</div>\n\n<div class=\"section\">\n  <p>Will we Terraform nearby planets,</p>\n  <p>or will it be genetic engineering that will allow people to settle there.</p>\n</div>\n\n<div class=\"section\">\n  <p>One of the most shocking realizations is that the future humans must leave Earth,</p>\n  <p>because of the sun, or ecosystem collapse.</p>\n</div>\n\n<div class=\"section\">\n  <p>It is fair to say, that the future humans area Spacefaring Species,</p>\n  <p><a href=\"https://www.youtube.com/watch?v=gaOPDk8Xbgw\">they have no choice</a>.</p>\n</div>\n\n<div class=\"section\">\n  <p>And hen there is something else, if we have four billions years left on earth,</p>\n  <p>think about how evolution transformed the Majestic Little Shrew into a Human.</p>\n</div>\n\n<div class=\"section\">\n  <p>It only took 65 million years, to go from mouse to great ape,</p>\n  <p>and we have four billion years.</p>\n</div>\n\n<div class=\"section\">\n  <p>We will look as different from who we are today,</p>\n  <p>as a chicken is from a dinosaur, as a mouse is from an ape.</p>\n</div>\n\n<div class=\"section\">\n  <p>Not to mention science,</p>\n  <p>and all those other inventions.</p>\n</div>\n\n<div class=\"section\">\n  <p><a href=\"https://www.youtube.com/watch?v=_udY35m3SdE\">Seth Shostak</a> thinks that maybe <a href=\"https://www.youtube.com/watch?v=xvm7dB0mOic\">advanced species load themselves up into computer programs</a>,</p>\n  <p>after billions of years of dealing with artificial intelligence, we all get really good at computers.</p>\n</div>\n\n<div class=\"section\">\n  <p>Chances are that the future humans have cybernetic enhancements,</p>\n  <p>that some portion of the future brain, is stored on a chip.</p>\n</div>\n\n<div class=\"section\">\n  <p>It will happen, first to cure diseases, then to enhance clarity of thought,</p>\n  <p>and quality of evening poetry - perhaps radio waves will be how we travel between near by stars.</p>\n</div>\n\n<div class=\"section\">\n  <hr>\n</div>\n\n<div class=\"section\">\n  <p>If feels weird to talk about things like that,</p>\n  <p>doesn&apos;t it?</p>\n</div>\n\n<div class=\"section\">\n  <p>We are used to thinking of ourselves as ordinary,</p>\n  <p>of our school, legal and political systems as something that we are improving, and it used to be a lot worse.</p>\n</div>\n\n<div class=\"section\">\n  <p>But a lot of that comes from,</p>\n  <p>the comfort we take in our routines and so called ordinary lives.</p>\n</div>\n\n<div class=\"section\">\n  <hr>\n</div>\n\n<div class=\"section\">\n  <p>But to call a Human, ordinary,</p>\n  <p>is an oxymoron, a mistake, an error.</p>\n</div>\n\n<div class=\"section\">\n  <p>We are thinking beings,</p>\n  <p>all extremely intelligent, tough like nails - or yes we are.</p>\n</div>\n\n<div class=\"section\">\n  <p>We are not ordinary,</p>\n  <p>there is nothing ordinary about your mind.</p>\n</div>\n\n<div class=\"section\">\n  <hr>\n</div>\n\n<div class=\"section\">\n  <p>It feels strange to think about futuristic things,</p>\n  <p>because <a href=\"https://www.youtube.com/watch?v=15axMs0yw8Q\">we aren&apos;t of the culture to consider future enough</a>.</p>\n</div>\n\n<div class=\"section\">\n  <p>But cure aging even if just with cryo-freeze,</p>\n  <p>where we can wait out the next hundred years as in just leap into the future, where cure will be available, and our minds will alter.</p>\n</div>\n\n<div class=\"section\">\n  <p>Perhaps the biggest realization is that the difference between the modern human the beings we were ten thousand years ago,</p>\n  <p>is Knowledge alone, that saying that Knowledge is Power, is an understatement, knowledge is how Humanity progresses forward.</p>\n</div>",
  "bootstrap": "<div class=\"card card-section bg-dark text-warning shadow\">\n  <div class=\"section card-body mb-0 my-2\">\n    <div class=\"paragraph card-text card-stanza my-5 text-center\">If you like adventure,</div>\n    <div class=\"paragraph card-text card-stanza my-5 text-center\">eventually you will ask yourself about the big future.</div>\n  </div>\n</div>\n<div class=\"card card-section bg-dark text-warning shadow\">\n  <div class=\"section card-body mb-0 my-2\">\n    <div class=\"paragraph card-text card-stanza my-5 text-center\">Will we be able to ask Artificial Intelligence,</div>\n    <div class=\"paragraph card-text card-stanza my-5 text-center\">to build better artificial intelligence, or will their thoughts have limits too?</div>\n  </div>\n</div>\n<div class=\"card card-section bg-dark text-warning shadow\">\n  <div class=\"section card-body mb-0 my-2\">\n    <div class=\"paragraph card-text card-stanza my-5 text-center\">What will it be like when scientists cure aging,</div>\n    <div class=\"paragraph card-text card-stanza my-5 text-center\">how will that change Humanity, will we immateriality take to the stars?</div>\n  </div>\n</div>\n<div class=\"card card-section bg-dark text-warning shadow\">\n  <div class=\"section card-body mb-0 my-2\">\n    <div class=\"paragraph card-text card-stanza my-5 text-center\">Will we Terraform nearby planets,</div>\n    <div class=\"paragraph card-text card-stanza my-5 text-center\">or will it be genetic engineering that will allow people to settle there.</div>\n  </div>\n</div>\n<div class=\"card card-section bg-dark text-warning shadow\">\n  <div class=\"section card-body mb-0 my-2\">\n    <div class=\"paragraph card-text card-stanza my-5 text-center\">One of the most shocking realizations is that the future humans must leave Earth,</div>\n    <div class=\"paragraph card-text card-stanza my-5 text-center\">because of the sun, or ecosystem collapse.</div>\n  </div>\n</div>\n<div class=\"card card-section bg-dark text-warning shadow\">\n  <div class=\"section card-body mb-0 my-2\">\n    <div class=\"paragraph card-text card-stanza my-5 text-center\">It is fair to say, that the future humans area Spacefaring Species,</div>\n    <div class=\"paragraph card-text card-stanza my-5 text-center\"><a href=\"https://www.youtube.com/watch?v=gaOPDk8Xbgw\">they have no choice</a>.</div>\n  </div>\n</div>\n<div class=\"card card-section bg-dark text-warning shadow\">\n  <div class=\"section card-body mb-0 my-2\">\n    <div class=\"paragraph card-text card-stanza my-5 text-center\">And hen there is something else, if we have four billions years left on earth,</div>\n    <div class=\"paragraph card-text card-stanza my-5 text-center\">think about how evolution transformed the Majestic Little Shrew into a Human.</div>\n  </div>\n</div>\n<div class=\"card card-section bg-dark text-warning shadow\">\n  <div class=\"section card-body mb-0 my-2\">\n    <div class=\"paragraph card-text card-stanza my-5 text-center\">It only took 65 million years, to go from mouse to great ape,</div>\n    <div class=\"paragraph card-text card-stanza my-5 text-center\">and we have four billion years.</div>\n  </div>\n</div>\n<div class=\"card card-section bg-dark text-warning shadow\">\n  <div class=\"section card-body mb-0 my-2\">\n    <div class=\"paragraph card-text card-stanza my-5 text-center\">We will look as different from who we are today,</div>\n    <div class=\"paragraph card-text card-stanza my-5 text-center\">as a chicken is from a dinosaur, as a mouse is from an ape.</div>\n  </div>\n</div>\n<div class=\"card card-section bg-dark text-warning shadow\">\n  <div class=\"section card-body mb-0 my-2\">\n    <div class=\"paragraph card-text card-stanza my-5 text-center\">Not to mention science,</div>\n    <div class=\"paragraph card-text card-stanza my-5 text-center\">and all those other inventions.</div>\n  </div>\n</div>\n<div class=\"card card-section bg-dark text-warning shadow\">\n  <div class=\"section card-body mb-0 my-2\">\n    <div class=\"paragraph card-text card-stanza my-5 text-center\"><a href=\"https://www.youtube.com/watch?v=_udY35m3SdE\">Seth Shostak</a> thinks that maybe <a href=\"https://www.youtube.com/watch?v=xvm7dB0mOic\">advanced species load themselves up into computer programs</a>,</div>\n    <div class=\"paragraph card-text card-stanza my-5 text-center\">after billions of years of dealing with artificial intelligence, we all get really good at computers.</div>\n  </div>\n</div>\n<div class=\"card card-section bg-dark text-warning shadow\">\n  <div class=\"section card-body mb-0 my-2\">\n    <div class=\"paragraph card-text card-stanza my-5 text-center\">Chances are that the future humans have cybernetic enhancements,</div>\n    <div class=\"paragraph card-text card-stanza my-5 text-center\">that some portion of the future brain, is stored on a chip.</div>\n  </div>\n</div>\n<div class=\"card card-section bg-dark text-warning shadow\">\n  <div class=\"section card-body mb-0 my-2\">\n    <div class=\"paragraph card-text card-stanza my-5 text-center\">It will happen, first to cure diseases, then to enhance clarity of thought,</div>\n    <div class=\"paragraph card-text card-stanza my-5 text-center\">and quality of evening poetry - perhaps radio waves will be how we travel between near by stars.</div>\n  </div>\n</div>\n<div class=\"mb-5 section-spacer\">&nbsp;</div>\n<div class=\"card card-section bg-dark text-warning shadow\">\n  <div class=\"section card-body mb-0 my-2\">\n    <div class=\"paragraph card-text card-stanza my-5 text-center\">If feels weird to talk about things like that,</div>\n    <div class=\"paragraph card-text card-stanza my-5 text-center\">doesn't it?</div>\n  </div>\n</div>\n<div class=\"card card-section bg-dark text-warning shadow\">\n  <div class=\"section card-body mb-0 my-2\">\n    <div class=\"paragraph card-text card-stanza my-5 text-center\">We are used to thinking of ourselves as ordinary,</div>\n    <div class=\"paragraph card-text card-stanza my-5 text-center\">of our school, legal and political systems as something that we are improving, and it used to be a lot worse.</div>\n  </div>\n</div>\n<div class=\"card card-section bg-dark text-warning shadow\">\n  <div class=\"section card-body mb-0 my-2\">\n    <div class=\"paragraph card-text card-stanza my-5 text-center\">But a lot of that comes from,</div>\n    <div class=\"paragraph card-text card-stanza my-5 text-center\">the comfort we take in our routines and so called ordinary lives.</div>\n  </div>\n</div>\n<div class=\"mb-5 section-spacer\">&nbsp;</div>\n<div class=\"card card-section bg-dark text-warning shadow\">\n  <div class=\"section card-body mb-0 my-2\">\n    <div class=\"paragraph card-text card-stanza my-5 text-center\">But to call a Human, ordinary,</div>\n    <div class=\"paragraph card-text card-stanza my-5 text-center\">is an oxymoron, a mistake, an error.</div>\n  </div>\n</div>\n<div class=\"card card-section bg-dark text-warning shadow\">\n  <div class=\"section card-body mb-0 my-2\">\n    <div class=\"paragraph card-text card-stanza my-5 text-center\">We are thinking beings,</div>\n    <div class=\"paragraph card-text card-stanza my-5 text-center\">all extremely intelligent, tough like nails - or yes we are.</div>\n  </div>\n</div>\n<div class=\"card card-section bg-dark text-warning shadow\">\n  <div class=\"section card-body mb-0 my-2\">\n    <div class=\"paragraph card-text card-stanza my-5 text-center\">We are not ordinary,</div>\n    <div class=\"paragraph card-text card-stanza my-5 text-center\">there is nothing ordinary about your mind.</div>\n  </div>\n</div>\n<div class=\"mb-5 section-spacer\">&nbsp;</div>\n<div class=\"card card-section bg-dark text-warning shadow\">\n  <div class=\"section card-body mb-0 my-2\">\n    <div class=\"paragraph card-text card-stanza my-5 text-center\">It feels strange to think about futuristic things,</div>\n    <div class=\"paragraph card-text card-stanza my-5 text-center\">because <a href=\"https://www.youtube.com/watch?v=15axMs0yw8Q\">we aren't of the culture to consider future enough</a>.</div>\n  </div>\n</div>\n<div class=\"card card-section bg-dark text-warning shadow\">\n  <div class=\"section card-body mb-0 my-2\">\n    <div class=\"paragraph card-text card-stanza my-5 text-center\">But cure aging even if just with cryo-freeze,</div>\n    <div class=\"paragraph card-text card-stanza my-5 text-center\">where we can wait out the next hundred years as in just leap into the future, where cure will be available, and our minds will alter.</div>\n  </div>\n</div>\n<div class=\"card card-section bg-dark text-warning shadow\">\n  <div class=\"section card-body mb-0 my-2\">\n    <div class=\"paragraph card-text card-stanza my-5 text-center\">Perhaps the biggest realization is that the difference between the modern human the beings we were ten thousand years ago,</div>\n    <div class=\"paragraph card-text card-stanza my-5 text-center\">is Knowledge alone, that saying that Knowledge is Power, is an understatement, knowledge is how Humanity progresses forward.</div>\n  </div>\n</div>",
  "print": "<div class=\"section avoid-break-inside\" style=\"padding-bottom: 2rem;\">\n  <div class=\"paragraph\">If you like adventure,</div>\n  <div class=\"paragraph\">eventually you will ask yourself about the big future.</div>\n</div>\n<div class=\"section avoid-break-inside\" style=\"padding-bottom: 2rem;\">\n  <div class=\"paragraph\">Will we be able to ask Artificial Intelligence,</div>\n  <div class=\"paragraph\">to build better artificial intelligence, or will their thoughts have limits too?</div>\n</div>\n<div class=\"section avoid-break-inside\" style=\"padding-bottom: 2rem;\">\n  <div class=\"paragraph\">What will it be like when scientists cure aging,</div>\n  <div class=\"paragraph\">how will that change Humanity, will we immateriality take to the stars?</div>\n</div>\n<div class=\"section avoid-break-inside\" style=\"padding-bottom: 2rem;\">\n  <div class=\"paragraph\">Will we Terraform nearby planets,</div>\n  <div class=\"paragraph\">or will it be genetic engineering that will allow people to settle there.</div>\n</div>\n<div class=\"section avoid-break-inside\" style=\"padding-bottom: 2rem;\">\n  <div class=\"paragraph\">One of the most shocking realizations is that the future humans must leave Earth,</div>\n  <div class=\"paragraph\">because of the sun, or ecosystem collapse.</div>\n</div>\n<div class=\"section avoid-break-inside\" style=\"padding-bottom: 2rem;\">\n  <div class=\"paragraph\">It is fair to say, that the future humans area Spacefaring Species,</div>\n  <div class=\"paragraph\"><span>they have no choice<sup>[1]</sup></span>.</div>\n</div>\n<div class=\"section avoid-break-inside\" style=\"padding-bottom: 2rem;\">\n  <div class=\"paragraph\">And hen there is something else, if we have four billions years left on earth,</div>\n  <div class=\"paragraph\">think about how evolution transformed the Majestic Little Shrew into a Human.</div>\n</div>\n<div class=\"section avoid-break-inside\" style=\"padding-bottom: 2rem;\">\n  <div class=\"paragraph\">It only took 65 million years, to go from mouse to great ape,</div>\n  <div class=\"paragraph\">and we have four billion years.</div>\n</div>\n<div class=\"section avoid-break-inside\" style=\"padding-bottom: 2rem;\">\n  <div class=\"paragraph\">We will look as different from who we are today,</div>\n  <div class=\"paragraph\">as a chicken is from a dinosaur, as a mouse is from an ape.</div>\n</div>\n<div class=\"section avoid-break-inside\" style=\"padding-bottom: 2rem;\">\n  <div class=\"paragraph\">Not to mention science,</div>\n  <div class=\"paragraph\">and all those other inventions.</div>\n</div>\n<div class=\"section avoid-break-inside\" style=\"padding-bottom: 2rem;\">\n  <div class=\"paragraph\"><span>Seth Shostak<sup>[2]</sup></span> thinks that maybe <span>advanced species load themselves up into computer programs<sup>[3]</sup></span>,</div>\n  <div class=\"paragraph\">after billions of years of dealing with artificial intelligence, we all get really good at computers.</div>\n</div>\n<div class=\"section avoid-break-inside\" style=\"padding-bottom: 2rem;\">\n  <div class=\"paragraph\">Chances are that the future humans have cybernetic enhancements,</div>\n  <div class=\"paragraph\">that some portion of the future brain, is stored on a chip.</div>\n</div>\n<div class=\"section avoid-break-inside\" style=\"padding-bottom: 2rem;\">\n  <div class=\"paragraph\">It will happen, first to cure diseases, then to enhance clarity of thought,</div>\n  <div class=\"paragraph\">and quality of evening poetry - perhaps radio waves will be how we travel between near by stars.</div>\n</div>\n<div class=\"section avoid-break-inside\" style=\"padding-bottom: 2rem;\">\n  <br>\n</div>\n<div class=\"section avoid-break-inside\" style=\"padding-bottom: 2rem;\">\n  <div class=\"paragraph\">If feels weird to talk about things like that,</div>\n  <div class=\"paragraph\">doesn't it?</div>\n</div>\n<div class=\"section avoid-break-inside\" style=\"padding-bottom: 2rem;\">\n  <div class=\"paragraph\">We are used to thinking of ourselves as ordinary,</div>\n  <div class=\"paragraph\">of our school, legal and political systems as something that we are improving, and it used to be a lot worse.</div>\n</div>\n<div class=\"section avoid-break-inside\" style=\"padding-bottom: 2rem;\">\n  <div class=\"paragraph\">But a lot of that comes from,</div>\n  <div class=\"paragraph\">the comfort we take in our routines and so called ordinary lives.</div>\n</div>\n<div class=\"section avoid-break-inside\" style=\"padding-bottom: 2rem;\">\n  <br>\n</div>\n<div class=\"section avoid-break-inside\" style=\"padding-bottom: 2rem;\">\n  <div class=\"paragraph\">But to call a Human, ordinary,</div>\n  <div class=\"paragraph\">is an oxymoron, a mistake, an error.</div>\n</div>\n<div class=\"section avoid-break-inside\" style=\"padding-bottom: 2rem;\">\n  <div class=\"paragraph\">We are thinking beings,</div>\n  <div class=\"paragraph\">all extremely intelligent, tough like nails - or yes we are.</div>\n</div>\n<div class=\"section avoid-break-inside\" style=\"padding-bottom: 2rem;\">\n  <div class=\"paragraph\">We are not ordinary,</div>\n  <div class=\"paragraph\">there is nothing ordinary about your mind.</div>\n</div>\n<div class=\"section avoid-break-inside\" style=\"padding-bottom: 2rem;\">\n  <br>\n</div>\n<div class=\"section avoid-break-inside\" style=\"padding-bottom: 2rem;\">\n  <div class=\"paragraph\">It feels strange to think about futuristic things,</div>\n  <div class=\"paragraph\">because <span>we aren't of the culture to consider future enough<sup>[4]</sup></span>.</div>\n</div>\n<div class=\"section avoid-break-inside\" style=\"padding-bottom: 2rem;\">\n  <div class=\"paragraph\">But cure aging even if just with cryo-freeze,</div>\n  <div class=\"paragraph\">where we can wait out the next hundred years as in just leap into the future, where cure will be available, and our minds will alter.</div>\n</div>\n<div class=\"section avoid-break-inside\" style=\"padding-bottom: 2rem;\">\n  <div class=\"paragraph\">Perhaps the biggest realization is that the difference between the modern human the beings we were ten thousand years ago,</div>\n  <div class=\"paragraph\">is Knowledge alone, that saying that Knowledge is Power, is an understatement, knowledge is how Humanity progresses forward.</div>\n</div>\n<div class=\"break-after\">&nbsp;</div>\n<div>\n  <div class=\"section\" style=\"padding-bottom: 1rem;\">References</div>\n  <div>[1]: https://www.youtube.com/watch?v=gaOPDk8Xbgw</div>\n  <div>[2]: https://www.youtube.com/watch?v=_udY35m3SdE</div>\n  <div>[3]: https://www.youtube.com/watch?v=xvm7dB0mOic</div>\n  <div>[4]: https://www.youtube.com/watch?v=15axMs0yw8Q</div>\n</div>",
  "text": "If you like adventure,\neventually you will ask yourself about the big future.\nWill we be able to ask Artificial Intelligence,\nto build better artificial intelligence, or will their thoughts have limits too?\nWhat will it be like when scientists cure aging,\nhow will that change Humanity, will we immateriality take to the stars?\nWill we Terraform nearby planets,\nor will it be genetic engineering that will allow people to settle there.\nOne of the most shocking realizations is that the future humans must leave Earth,\nbecause of the sun, or ecosystem collapse.\nIt is fair to say, that the future humans area Spacefaring Species,\nthey have no choice[1].\nAnd hen there is something else, if we have four billions years left on earth,\nthink about how evolution transformed the Majestic Little Shrew into a Human.\nIt only took 65 million years, to go from mouse to great ape,\nand we have four billion years.\nWe will look as different from who we are today,\nas a chicken is from a dinosaur, as a mouse is from an ape.\nNot to mention science,\nand all those other inventions.\nSeth Shostak[2] thinks that maybe advanced species load themselves up into computer programs[3],\nafter billions of years of dealing with artificial intelligence, we all get really good at computers.\nChances are that the future humans have cybernetic enhancements,\nthat some portion of the future brain, is stored on a chip.\nIt will happen, first to cure diseases, then to enhance clarity of thought,\nand quality of evening poetry - perhaps radio waves will be how we travel between near by stars.\n\nIf feels weird to talk about things like that,\ndoesn't it?\nWe are used to thinking of ourselves as ordinary,\nof our school, legal and political systems as something that we are improving, and it used to be a lot worse.\nBut a lot of that comes from,\nthe comfort we take in our routines and so called ordinary lives.\n\nBut to call a Human, ordinary,\nis an oxymoron, a mistake, an error.\nWe are thinking beings,\nall extremely intelligent, tough like nails - or yes we are.\nWe are not ordinary,\nthere is nothing ordinary about your mind.\n\nIt feels strange to think about futuristic things,\nbecause we aren't of the culture to consider future enough[4].\nBut cure aging even if just with cryo-freeze,\nwhere we can wait out the next hundred years as in just leap into the future, where cure will be available, and our minds will alter.\nPerhaps the biggest realization is that the difference between the modern human the beings we were ten thousand years ago,\nis Knowledge alone, that saying that Knowledge is Power, is an understatement, knowledge is how Humanity progresses forward.\n \nReferences\n[1]: https://www.youtube.com/watch?v=gaOPDk8Xbgw\n[2]: https://www.youtube.com/watch?v=_udY35m3SdE\n[3]: https://www.youtube.com/watch?v=xvm7dB0mOic\n[4]: https://www.youtube.com/watch?v=15axMs0yw8Q",
  "images": [],
  "links": [
    {
      "title": "they have no choice",
      "url": "https://www.youtube.com/watch?v=gaOPDk8Xbgw",
      "hostname": "www.youtube.com"
    },
    {
      "title": "Seth Shostak",
      "url": "https://www.youtube.com/watch?v=_udY35m3SdE",
      "hostname": "www.youtube.com"
    },
    {
      "title": "advanced species load themselves up into computer programs",
      "url": "https://www.youtube.com/watch?v=xvm7dB0mOic",
      "hostname": "www.youtube.com"
    },
    {
      "title": "we aren't of the culture to consider future enough",
      "url": "https://www.youtube.com/watch?v=15axMs0yw8Q",
      "hostname": "www.youtube.com"
    }
  ]
}