{
  "name": "furkies-purrkies-poetry-0192",
  "title": "The Dr. Meow College of Medicine, Certificate of Achievement",
  "date": "2020-09-08T23:16:07.282Z",
  "image": "poetry-0192-illustration.jpg",
  "audio": "poetry-0192.mp3",
  "id": "furkies-purrkies-poetry-0192",
  "attachments": {},
  "guid": "52a431b8-44da-45e6-a320-40555cbdbcaa",
  "html": "<div class=\"section\">\n  <p>So as long as you fully accept the fact,</p>\n  <p>that a key to every Success in Life is, Happiness.</p>\n</div>\n<div class=\"section\">\n  <p>And so as long, as you take the time to help others,</p>\n  <p>to accept this Grand Fact of Life as well.</p>\n</div>\n<div class=\"section\">\n  <hr>\n</div>\n<div class=\"section\">\n  <p>So as long as you take the time to congratulate,</p>\n  <p>those who tried to move an audience, but did not speak enough.</p>\n</div>\n<div class=\"section\">\n  <p>And so as long, as you say to them,</p>\n  <p>&quot;Next time you try to save the world, I hope you invite me to come along.&quot;</p>\n  <p>so that they know they can&apos;t lose a battle, if it is all for good.</p>\n</div>\n<div class=\"section\">\n  <hr>\n</div>\n<div class=\"section\">\n  <p>So as long, as you are a constant reminder,</p>\n  <p>that none should overwork, or go through life tired.</p>\n</div>\n<div class=\"section\">\n  <p>And so as long as you encourage others,</p>\n  <p>to set fair aims in life so that they won&apos;t push themselves too hard.</p>\n</div>\n<div class=\"section\">\n  <hr>\n</div>\n<div class=\"section\">\n  <p>So as long, a you take time to read wise and inspiring books,</p>\n  <p>understanding that there is no Education, without Self Education.</p>\n</div>\n<div class=\"section\">\n  <p>And so as long you nobly fuel the curiosity of others,</p>\n  <p>and help them find their own beloved books, as well.</p>\n</div>\n<div class=\"section\">\n  <hr>\n</div>\n<div class=\"section\">\n  <p>So as long as you help Students remember,</p>\n  <p>that grades are not a judgment on them,</p>\n  <p>but the school and teacher&apos;s work.</p>\n</div>\n<div class=\"section\">\n  <p>And so as long as you remind them,</p>\n  <p>that they are a Genius and a Sweetheart too.</p>\n</div>\n<div class=\"section\">\n  <hr>\n</div>\n<div class=\"section\">\n  <p>So as long as you take the time of day,</p>\n  <p>to help people feel a bit more cheerful and better.</p>\n</div>\n<div class=\"section\">\n  <p>And so as long as your sweetness,</p>\n  <p>inspires them to do the same.</p>\n</div>\n<div class=\"section\">\n  <hr>\n</div>\n<div class=\"section\">\n  <p>By the Medical Powers vested in me,</p>\n  <p>I hereby pronounce you a Sweetheart, Scientist, and a Doctor.</p>\n</div>\n<div class=\"section\">\n  <p><small>(You may now wear all kind of medical supplies, and a white lab coat.)</small></p>\n  <div class=\"section\">\n    <p>Signed,</p>\n    <p>Doctor Meow, Ph.D.</p>\n    <p>Principal and Dean of Students</p>\n  </div>\n  <div class=\"section\">\n    <p><strong>To make full use of this great honor, from now on and hence forth,</strong></p>\n    <p><strong>you are to sign your name by prefixing it with the title of Doctor,</strong></p>\n    <p><strong>and optionally postfixing it with a &quot;Ph.D&quot;.</strong></p>\n  </div>\n  <div class=\"section\">\n    <p><small>(Please note that certificate constitutes a real certificate,</small></p>\n    <p><small>it is as real as all the other certifying certificates have ever been.)</small></p>\n  </div>\n</div>",
  "bootstrap": "<div class=\"card card-section bg-dark text-warning shadow\">\n  <div class=\"section card-body mb-0 my-2\">\n    <div class=\"paragraph card-text card-stanza my-5 text-center\">So as long as you fully accept the fact,</div>\n    <div class=\"paragraph card-text card-stanza my-5 text-center\">that a key to every Success in Life is, Happiness.</div>\n  </div>\n</div>\n<div class=\"card card-section bg-dark text-warning shadow\">\n  <div class=\"section card-body mb-0 my-2\">\n    <div class=\"paragraph card-text card-stanza my-5 text-center\">And so as long, as you take the time to help others,</div>\n    <div class=\"paragraph card-text card-stanza my-5 text-center\">to accept this Grand Fact of Life as well.</div>\n  </div>\n</div>\n<div class=\"mb-5 section-spacer\">&nbsp;</div>\n<div class=\"card card-section bg-dark text-warning shadow\">\n  <div class=\"section card-body mb-0 my-2\">\n    <div class=\"paragraph card-text card-stanza my-5 text-center\">So as long as you take the time to congratulate,</div>\n    <div class=\"paragraph card-text card-stanza my-5 text-center\">those who tried to move an audience, but did not speak enough.</div>\n  </div>\n</div>\n<div class=\"card card-section bg-dark text-warning shadow\">\n  <div class=\"section card-body mb-0 my-2\">\n    <div class=\"paragraph card-text card-stanza my-5 text-center\">And so as long, as you say to them,</div>\n    <div class=\"paragraph card-text card-stanza my-5 text-center\">\"Next time you try to save the world, I hope you invite me to come along.\"</div>\n    <div class=\"paragraph card-text card-stanza my-5 text-center\">so that they know they can't lose a battle, if it is all for good.</div>\n  </div>\n</div>\n<div class=\"mb-5 section-spacer\">&nbsp;</div>\n<div class=\"card card-section bg-dark text-warning shadow\">\n  <div class=\"section card-body mb-0 my-2\">\n    <div class=\"paragraph card-text card-stanza my-5 text-center\">So as long, as you are a constant reminder,</div>\n    <div class=\"paragraph card-text card-stanza my-5 text-center\">that none should overwork, or go through life tired.</div>\n  </div>\n</div>\n<div class=\"card card-section bg-dark text-warning shadow\">\n  <div class=\"section card-body mb-0 my-2\">\n    <div class=\"paragraph card-text card-stanza my-5 text-center\">And so as long as you encourage others,</div>\n    <div class=\"paragraph card-text card-stanza my-5 text-center\">to set fair aims in life so that they won't push themselves too hard.</div>\n  </div>\n</div>\n<div class=\"mb-5 section-spacer\">&nbsp;</div>\n<div class=\"card card-section bg-dark text-warning shadow\">\n  <div class=\"section card-body mb-0 my-2\">\n    <div class=\"paragraph card-text card-stanza my-5 text-center\">So as long, a you take time to read wise and inspiring books,</div>\n    <div class=\"paragraph card-text card-stanza my-5 text-center\">understanding that there is no Education, without Self Education.</div>\n  </div>\n</div>\n<div class=\"card card-section bg-dark text-warning shadow\">\n  <div class=\"section card-body mb-0 my-2\">\n    <div class=\"paragraph card-text card-stanza my-5 text-center\">And so as long you nobly fuel the curiosity of others,</div>\n    <div class=\"paragraph card-text card-stanza my-5 text-center\">and help them find their own beloved books, as well.</div>\n  </div>\n</div>\n<div class=\"mb-5 section-spacer\">&nbsp;</div>\n<div class=\"card card-section bg-dark text-warning shadow\">\n  <div class=\"section card-body mb-0 my-2\">\n    <div class=\"paragraph card-text card-stanza my-5 text-center\">So as long as you help Students remember,</div>\n    <div class=\"paragraph card-text card-stanza my-5 text-center\">that grades are not a judgment on them,</div>\n    <div class=\"paragraph card-text card-stanza my-5 text-center\">but the school and teacher's work.</div>\n  </div>\n</div>\n<div class=\"card card-section bg-dark text-warning shadow\">\n  <div class=\"section card-body mb-0 my-2\">\n    <div class=\"paragraph card-text card-stanza my-5 text-center\">And so as long as you remind them,</div>\n    <div class=\"paragraph card-text card-stanza my-5 text-center\">that they are a Genius and a Sweetheart too.</div>\n  </div>\n</div>\n<div class=\"mb-5 section-spacer\">&nbsp;</div>\n<div class=\"card card-section bg-dark text-warning shadow\">\n  <div class=\"section card-body mb-0 my-2\">\n    <div class=\"paragraph card-text card-stanza my-5 text-center\">So as long as you take the time of day,</div>\n    <div class=\"paragraph card-text card-stanza my-5 text-center\">to help people feel a bit more cheerful and better.</div>\n  </div>\n</div>\n<div class=\"card card-section bg-dark text-warning shadow\">\n  <div class=\"section card-body mb-0 my-2\">\n    <div class=\"paragraph card-text card-stanza my-5 text-center\">And so as long as your sweetness,</div>\n    <div class=\"paragraph card-text card-stanza my-5 text-center\">inspires them to do the same.</div>\n  </div>\n</div>\n<div class=\"mb-5 section-spacer\">&nbsp;</div>\n<div class=\"card card-section bg-dark text-warning shadow\">\n  <div class=\"section card-body mb-0 my-2\">\n    <div class=\"paragraph card-text card-stanza my-5 text-center\">By the Medical Powers vested in me,</div>\n    <div class=\"paragraph card-text card-stanza my-5 text-center\">I hereby pronounce you a Sweetheart, Scientist, and a Doctor.</div>\n  </div>\n</div>\n<div class=\"card card-section bg-dark text-warning shadow\">\n  <div class=\"section card-body mb-0 my-2\">\n    <div class=\"paragraph card-text card-stanza my-5 text-center\"><small>(You may now wear all kind of medical supplies, and a white lab coat.)</small></div>\n    <div class=\"card card-section bg-dark text-warning shadow\">\n      <div class=\"section card-body mb-0 my-2\">\n        <div class=\"paragraph card-text card-stanza my-5 text-center\">Signed,</div>\n        <div class=\"paragraph card-text card-stanza my-5 text-center\">Doctor Meow, Ph.D.</div>\n        <div class=\"paragraph card-text card-stanza my-5 text-center\">Principal and Dean of Students</div>\n      </div>\n    </div>\n    <div class=\"card card-section bg-dark text-warning shadow\">\n      <div class=\"section card-body mb-0 my-2\">\n        <div class=\"paragraph card-text card-stanza my-5 text-center\"><strong>To make full use of this great honor, from now on and hence forth,</strong></div>\n        <div class=\"paragraph card-text card-stanza my-5 text-center\"><strong>you are to sign your name by prefixing it with the title of Doctor,</strong></div>\n        <div class=\"paragraph card-text card-stanza my-5 text-center\"><strong>and optionally postfixing it with a \"Ph.D\".</strong></div>\n      </div>\n    </div>\n    <div class=\"card card-section bg-dark text-warning shadow\">\n      <div class=\"section card-body mb-0 my-2\">\n        <div class=\"paragraph card-text card-stanza my-5 text-center\"><small>(Please note that certificate constitutes a real certificate,</small></div>\n        <div class=\"paragraph card-text card-stanza my-5 text-center\"><small>it is as real as all the other certifying certificates have ever been.)</small></div>\n      </div>\n    </div>\n  </div>\n</div>",
  "print": "<div class=\"section avoid-break-inside\" style=\"padding-bottom: 2rem;\">\n  <div class=\"paragraph\">So as long as you fully accept the fact,</div>\n  <div class=\"paragraph\">that a key to every Success in Life is, Happiness.</div>\n</div>\n<div class=\"section avoid-break-inside\" style=\"padding-bottom: 2rem;\">\n  <div class=\"paragraph\">And so as long, as you take the time to help others,</div>\n  <div class=\"paragraph\">to accept this Grand Fact of Life as well.</div>\n</div>\n<div class=\"section avoid-break-inside\" style=\"padding-bottom: 2rem;\">\n  <br>\n</div>\n<div class=\"section avoid-break-inside\" style=\"padding-bottom: 2rem;\">\n  <div class=\"paragraph\">So as long as you take the time to congratulate,</div>\n  <div class=\"paragraph\">those who tried to move an audience, but did not speak enough.</div>\n</div>\n<div class=\"section avoid-break-inside\" style=\"padding-bottom: 2rem;\">\n  <div class=\"paragraph\">And so as long, as you say to them,</div>\n  <div class=\"paragraph\">\"Next time you try to save the world, I hope you invite me to come along.\"</div>\n  <div class=\"paragraph\">so that they know they can't lose a battle, if it is all for good.</div>\n</div>\n<div class=\"section avoid-break-inside\" style=\"padding-bottom: 2rem;\">\n  <br>\n</div>\n<div class=\"section avoid-break-inside\" style=\"padding-bottom: 2rem;\">\n  <div class=\"paragraph\">So as long, as you are a constant reminder,</div>\n  <div class=\"paragraph\">that none should overwork, or go through life tired.</div>\n</div>\n<div class=\"section avoid-break-inside\" style=\"padding-bottom: 2rem;\">\n  <div class=\"paragraph\">And so as long as you encourage others,</div>\n  <div class=\"paragraph\">to set fair aims in life so that they won't push themselves too hard.</div>\n</div>\n<div class=\"section avoid-break-inside\" style=\"padding-bottom: 2rem;\">\n  <br>\n</div>\n<div class=\"section avoid-break-inside\" style=\"padding-bottom: 2rem;\">\n  <div class=\"paragraph\">So as long, a you take time to read wise and inspiring books,</div>\n  <div class=\"paragraph\">understanding that there is no Education, without Self Education.</div>\n</div>\n<div class=\"section avoid-break-inside\" style=\"padding-bottom: 2rem;\">\n  <div class=\"paragraph\">And so as long you nobly fuel the curiosity of others,</div>\n  <div class=\"paragraph\">and help them find their own beloved books, as well.</div>\n</div>\n<div class=\"section avoid-break-inside\" style=\"padding-bottom: 2rem;\">\n  <br>\n</div>\n<div class=\"section avoid-break-inside\" style=\"padding-bottom: 2rem;\">\n  <div class=\"paragraph\">So as long as you help Students remember,</div>\n  <div class=\"paragraph\">that grades are not a judgment on them,</div>\n  <div class=\"paragraph\">but the school and teacher's work.</div>\n</div>\n<div class=\"section avoid-break-inside\" style=\"padding-bottom: 2rem;\">\n  <div class=\"paragraph\">And so as long as you remind them,</div>\n  <div class=\"paragraph\">that they are a Genius and a Sweetheart too.</div>\n</div>\n<div class=\"section avoid-break-inside\" style=\"padding-bottom: 2rem;\">\n  <br>\n</div>\n<div class=\"section avoid-break-inside\" style=\"padding-bottom: 2rem;\">\n  <div class=\"paragraph\">So as long as you take the time of day,</div>\n  <div class=\"paragraph\">to help people feel a bit more cheerful and better.</div>\n</div>\n<div class=\"section avoid-break-inside\" style=\"padding-bottom: 2rem;\">\n  <div class=\"paragraph\">And so as long as your sweetness,</div>\n  <div class=\"paragraph\">inspires them to do the same.</div>\n</div>\n<div class=\"section avoid-break-inside\" style=\"padding-bottom: 2rem;\">\n  <br>\n</div>\n<div class=\"section avoid-break-inside\" style=\"padding-bottom: 2rem;\">\n  <div class=\"paragraph\">By the Medical Powers vested in me,</div>\n  <div class=\"paragraph\">I hereby pronounce you a Sweetheart, Scientist, and a Doctor.</div>\n</div>\n<div class=\"section avoid-break-inside\" style=\"padding-bottom: 2rem;\">\n  <div class=\"paragraph\"><small>(You may now wear all kind of medical supplies, and a white lab coat.)</small></div>\n  <div class=\"section avoid-break-inside\" style=\"padding-bottom: 2rem;\">\n    <div class=\"paragraph\">Signed,</div>\n    <div class=\"paragraph\">Doctor Meow, Ph.D.</div>\n    <div class=\"paragraph\">Principal and Dean of Students</div>\n  </div>\n  <div class=\"section avoid-break-inside\" style=\"padding-bottom: 2rem;\">\n    <div class=\"paragraph\"><strong>To make full use of this great honor, from now on and hence forth,</strong></div>\n    <div class=\"paragraph\"><strong>you are to sign your name by prefixing it with the title of Doctor,</strong></div>\n    <div class=\"paragraph\"><strong>and optionally postfixing it with a \"Ph.D\".</strong></div>\n  </div>\n  <div class=\"section avoid-break-inside\" style=\"padding-bottom: 2rem;\">\n    <div class=\"paragraph\"><small>(Please note that certificate constitutes a real certificate,</small></div>\n    <div class=\"paragraph\"><small>it is as real as all the other certifying certificates have ever been.)</small></div>\n  </div>\n</div>",
  "text": "So as long as you fully accept the fact,\nthat a key to every Success in Life is, Happiness.\nAnd so as long, as you take the time to help others,\nto accept this Grand Fact of Life as well.\n\nSo as long as you take the time to congratulate,\nthose who tried to move an audience, but did not speak enough.\nAnd so as long, as you say to them,\n\"Next time you try to save the world, I hope you invite me to come along.\"\nso that they know they can't lose a battle, if it is all for good.\n\nSo as long, as you are a constant reminder,\nthat none should overwork, or go through life tired.\nAnd so as long as you encourage others,\nto set fair aims in life so that they won't push themselves too hard.\n\nSo as long, a you take time to read wise and inspiring books,\nunderstanding that there is no Education, without Self Education.\nAnd so as long you nobly fuel the curiosity of others,\nand help them find their own beloved books, as well.\n\nSo as long as you help Students remember,\nthat grades are not a judgment on them,\nbut the school and teacher's work.\nAnd so as long as you remind them,\nthat they are a Genius and a Sweetheart too.\n\nSo as long as you take the time of day,\nto help people feel a bit more cheerful and better.\nAnd so as long as your sweetness,\ninspires them to do the same.\n\nBy the Medical Powers vested in me,\nI hereby pronounce you a Sweetheart, Scientist, and a Doctor.\n(You may now wear all kind of medical supplies, and a white lab coat.)\nSigned,\nDoctor Meow, Ph.D.\nPrincipal and Dean of Students\nTo make full use of this great honor, from now on and hence forth,\nyou are to sign your name by prefixing it with the title of Doctor,\nand optionally postfixing it with a \"Ph.D\".\n(Please note that certificate constitutes a real certificate,\nit is as real as all the other certifying certificates have ever been.)",
  "images": [],
  "links": []
}