{
  "name": "furkies-purrkies-poetry-0071",
  "title": "Epoch by Epoch",
  "date": "2020-05-16T01:30:32.940Z",
  "image": "poetry-0071-illustration.jpg",
  "audio": "poetry-0071.mp3",
  "id": "furkies-purrkies-poetry-0071",
  "attachments": {},
  "guid": "5eb37514-17f9-4cf1-8066-b4926de979d6",
  "html": "<div class=\"section\">\n  <p>Like steps on a mountain, each epoch stands in support of the next,</p>\n  <p>like the pages of a journal, together, they hold the sacred text.</p>\n</div>\n<div class=\"section\">\n  <p>We learn, we may fail, or triumph, and the next epoch follows,</p>\n  <p>but every new epoch grows from the one previous.</p>\n</div>\n<div class=\"section\">\n  <p>We can&apos;t leap from one place to another,</p>\n  <p>we can only move up, or graduate up, or build up, or step up.</p>\n</div>\n<div class=\"section\">\n  <p>To leap, is to stay a child in an aging body,</p>\n  <p>to go up, to grow up, and carry on to no end, is to become an adult.</p>\n</div>\n<div class=\"section\">\n  <hr>\n</div>\n<div class=\"section\">\n  <p>In our youth we must learn to stand our ground,</p>\n  <p>and anchor ourselves to something that moves us.</p>\n</div>\n<div class=\"section\">\n  <p>As we age, having followed that path,</p>\n  <p>we&apos;ll be standing upon our own mountain,</p>\n</div>\n<div class=\"section\">\n  <p>A great mountain of personal wisdom,</p>\n  <p>where once only a direction lay.</p>\n</div>\n<div class=\"section\">\n  <p>These mountains rise with each epoch in our life,</p>\n  <p>every once in a while we pause, to bring all that we are together - higher.</p>\n</div>\n<div class=\"section\">\n  <p>Epoch by Epoch, we ascend, we can already see the sunshine,</p>\n  <p>but our journey comes with no end.</p>\n</div>\n<div class=\"section\">\n  <hr>\n</div>\n<div class=\"section\">\n  <p>This is a simple life, first we conform and then break away,</p>\n  <p>we become wise, and later in life, our wisdom transforms into Enlightenment.</p>\n</div>\n<div class=\"section\">\n  <p>It is a road of Adventures, Books, Poems, and Inspirations,</p>\n  <p>it has tears of sadness, but in return we grow stronger.</p>\n</div>\n<div class=\"section\">\n  <p>What it is all for, is to Live a Life of Simple Dignity,</p>\n  <p>or rising when we fall, of learning when we get tricked.</p>\n</div>\n<div class=\"section\">\n  <p>Of protecting our bodies and minds, and growing stronger,</p>\n  <p>of adding to our existing body of wisdom.</p>\n</div>\n<div class=\"section\">\n  <hr>\n</div>\n<div class=\"section\">\n  <p>With each epoch we climb over what we previously thought were our limits,</p>\n  <p>As we get up, and stand up, we reach a new plateau.</p>\n</div>\n<div class=\"section\">\n  <p>We rest, we take in the sun of this new height,</p>\n  <p>and get busy building higher, and higher.</p>\n</div>\n<div class=\"section\">\n  <p>None of us begged to be born, we were nothingness,</p>\n  <p>and temporarily all these atoms came together to give us, ourselves.</p>\n</div>\n<div class=\"section\">\n  <p>And eventually, we&apos;ll return to our nothingness,</p>\n  <p>and the atoms will disperse, to become parts of other beautiful things,</p>\n</div>\n<div class=\"section\">\n  <hr>\n</div>\n<div class=\"section\">\n  <p>While we are in this state, however, the first and foremost order!</p>\n  <p>...is to Thrive, to Grow, to Expand, to Rise, to Build, and to Ascend.</p>\n</div>\n<div class=\"section\">\n  <p>Whether we know it yet or not, the road that we are on, is one.</p>\n  <p>It is the same road that our 90 year old selves will wonder about.</p>\n</div>\n<div class=\"section\">\n  <p>They will go up and down the Epochs, and ask questions.</p>\n  <p>there will be some regrets, but we do have a chance to solve them now.</p>\n</div>\n<div class=\"section\">\n  <p>There will be enough triumph to bring blinding light to all the sadness,</p>\n  <p>and the beautiful memories will wipe out all the unimportant things.</p>\n</div>\n<div class=\"section\">\n  <hr>\n</div>\n<div class=\"section\">\n  <p>All that stands in the way of our growing up,</p>\n  <p>must be pushed aside, growing up is our life.</p>\n</div>\n<div class=\"section\">\n  <p>We must grow up, rise up, all the way up.</p>\n  <p>Each and every epoch ahead, demands this.</p>\n</div>\n<div class=\"section\">\n  <p>Our minds require wisdom, wisdom fuels our decision making,</p>\n  <p>and our choices dictate all our life ahead.</p>\n</div>\n<div class=\"section\">\n  <p>Life is precious, it is to be lived in Dignity and Authenticity,</p>\n  <p>and you are meant to become a Great Being.</p>\n</div>\n<div class=\"section\">\n  <p>***</p>\n</div>\n<div class=\"section\">\n  <p><a href=\"https://en.wikipedia.org/wiki/Mount_Everest#/media/File:Sunrise_over_Everest.jpg\">Everest photo</a>:</p>\n  <p><a href=\"https://www.flickr.com/people/69342394@N00\">author</a>,</p>\n  <p><a href=\"https://creativecommons.org/licenses/by/2.0/\">license</a>.</p>\n</div>",
  "bootstrap": "<div class=\"card card-section bg-dark text-warning shadow\">\n  <div class=\"section card-body mb-0 my-2\">\n    <div class=\"paragraph card-text card-stanza my-5 text-center\">Like steps on a mountain, each epoch stands in support of the next,</div>\n    <div class=\"paragraph card-text card-stanza my-5 text-center\">like the pages of a journal, together, they hold the sacred text.</div>\n  </div>\n</div>\n<div class=\"card card-section bg-dark text-warning shadow\">\n  <div class=\"section card-body mb-0 my-2\">\n    <div class=\"paragraph card-text card-stanza my-5 text-center\">We learn, we may fail, or triumph, and the next epoch follows,</div>\n    <div class=\"paragraph card-text card-stanza my-5 text-center\">but every new epoch grows from the one previous.</div>\n  </div>\n</div>\n<div class=\"card card-section bg-dark text-warning shadow\">\n  <div class=\"section card-body mb-0 my-2\">\n    <div class=\"paragraph card-text card-stanza my-5 text-center\">We can't leap from one place to another,</div>\n    <div class=\"paragraph card-text card-stanza my-5 text-center\">we can only move up, or graduate up, or build up, or step up.</div>\n  </div>\n</div>\n<div class=\"card card-section bg-dark text-warning shadow\">\n  <div class=\"section card-body mb-0 my-2\">\n    <div class=\"paragraph card-text card-stanza my-5 text-center\">To leap, is to stay a child in an aging body,</div>\n    <div class=\"paragraph card-text card-stanza my-5 text-center\">to go up, to grow up, and carry on to no end, is to become an adult.</div>\n  </div>\n</div>\n<div class=\"mb-5 section-spacer\">&nbsp;</div>\n<div class=\"card card-section bg-dark text-warning shadow\">\n  <div class=\"section card-body mb-0 my-2\">\n    <div class=\"paragraph card-text card-stanza my-5 text-center\">In our youth we must learn to stand our ground,</div>\n    <div class=\"paragraph card-text card-stanza my-5 text-center\">and anchor ourselves to something that moves us.</div>\n  </div>\n</div>\n<div class=\"card card-section bg-dark text-warning shadow\">\n  <div class=\"section card-body mb-0 my-2\">\n    <div class=\"paragraph card-text card-stanza my-5 text-center\">As we age, having followed that path,</div>\n    <div class=\"paragraph card-text card-stanza my-5 text-center\">we'll be standing upon our own mountain,</div>\n  </div>\n</div>\n<div class=\"card card-section bg-dark text-warning shadow\">\n  <div class=\"section card-body mb-0 my-2\">\n    <div class=\"paragraph card-text card-stanza my-5 text-center\">A great mountain of personal wisdom,</div>\n    <div class=\"paragraph card-text card-stanza my-5 text-center\">where once only a direction lay.</div>\n  </div>\n</div>\n<div class=\"card card-section bg-dark text-warning shadow\">\n  <div class=\"section card-body mb-0 my-2\">\n    <div class=\"paragraph card-text card-stanza my-5 text-center\">These mountains rise with each epoch in our life,</div>\n    <div class=\"paragraph card-text card-stanza my-5 text-center\">every once in a while we pause, to bring all that we are together - higher.</div>\n  </div>\n</div>\n<div class=\"card card-section bg-dark text-warning shadow\">\n  <div class=\"section card-body mb-0 my-2\">\n    <div class=\"paragraph card-text card-stanza my-5 text-center\">Epoch by Epoch, we ascend, we can already see the sunshine,</div>\n    <div class=\"paragraph card-text card-stanza my-5 text-center\">but our journey comes with no end.</div>\n  </div>\n</div>\n<div class=\"mb-5 section-spacer\">&nbsp;</div>\n<div class=\"card card-section bg-dark text-warning shadow\">\n  <div class=\"section card-body mb-0 my-2\">\n    <div class=\"paragraph card-text card-stanza my-5 text-center\">This is a simple life, first we conform and then break away,</div>\n    <div class=\"paragraph card-text card-stanza my-5 text-center\">we become wise, and later in life, our wisdom transforms into Enlightenment.</div>\n  </div>\n</div>\n<div class=\"card card-section bg-dark text-warning shadow\">\n  <div class=\"section card-body mb-0 my-2\">\n    <div class=\"paragraph card-text card-stanza my-5 text-center\">It is a road of Adventures, Books, Poems, and Inspirations,</div>\n    <div class=\"paragraph card-text card-stanza my-5 text-center\">it has tears of sadness, but in return we grow stronger.</div>\n  </div>\n</div>\n<div class=\"card card-section bg-dark text-warning shadow\">\n  <div class=\"section card-body mb-0 my-2\">\n    <div class=\"paragraph card-text card-stanza my-5 text-center\">What it is all for, is to Live a Life of Simple Dignity,</div>\n    <div class=\"paragraph card-text card-stanza my-5 text-center\">or rising when we fall, of learning when we get tricked.</div>\n  </div>\n</div>\n<div class=\"card card-section bg-dark text-warning shadow\">\n  <div class=\"section card-body mb-0 my-2\">\n    <div class=\"paragraph card-text card-stanza my-5 text-center\">Of protecting our bodies and minds, and growing stronger,</div>\n    <div class=\"paragraph card-text card-stanza my-5 text-center\">of adding to our existing body of wisdom.</div>\n  </div>\n</div>\n<div class=\"mb-5 section-spacer\">&nbsp;</div>\n<div class=\"card card-section bg-dark text-warning shadow\">\n  <div class=\"section card-body mb-0 my-2\">\n    <div class=\"paragraph card-text card-stanza my-5 text-center\">With each epoch we climb over what we previously thought were our limits,</div>\n    <div class=\"paragraph card-text card-stanza my-5 text-center\">As we get up, and stand up, we reach a new plateau.</div>\n  </div>\n</div>\n<div class=\"card card-section bg-dark text-warning shadow\">\n  <div class=\"section card-body mb-0 my-2\">\n    <div class=\"paragraph card-text card-stanza my-5 text-center\">We rest, we take in the sun of this new height,</div>\n    <div class=\"paragraph card-text card-stanza my-5 text-center\">and get busy building higher, and higher.</div>\n  </div>\n</div>\n<div class=\"card card-section bg-dark text-warning shadow\">\n  <div class=\"section card-body mb-0 my-2\">\n    <div class=\"paragraph card-text card-stanza my-5 text-center\">None of us begged to be born, we were nothingness,</div>\n    <div class=\"paragraph card-text card-stanza my-5 text-center\">and temporarily all these atoms came together to give us, ourselves.</div>\n  </div>\n</div>\n<div class=\"card card-section bg-dark text-warning shadow\">\n  <div class=\"section card-body mb-0 my-2\">\n    <div class=\"paragraph card-text card-stanza my-5 text-center\">And eventually, we'll return to our nothingness,</div>\n    <div class=\"paragraph card-text card-stanza my-5 text-center\">and the atoms will disperse, to become parts of other beautiful things,</div>\n  </div>\n</div>\n<div class=\"mb-5 section-spacer\">&nbsp;</div>\n<div class=\"card card-section bg-dark text-warning shadow\">\n  <div class=\"section card-body mb-0 my-2\">\n    <div class=\"paragraph card-text card-stanza my-5 text-center\">While we are in this state, however, the first and foremost order!</div>\n    <div class=\"paragraph card-text card-stanza my-5 text-center\">...is to Thrive, to Grow, to Expand, to Rise, to Build, and to Ascend.</div>\n  </div>\n</div>\n<div class=\"card card-section bg-dark text-warning shadow\">\n  <div class=\"section card-body mb-0 my-2\">\n    <div class=\"paragraph card-text card-stanza my-5 text-center\">Whether we know it yet or not, the road that we are on, is one.</div>\n    <div class=\"paragraph card-text card-stanza my-5 text-center\">It is the same road that our 90 year old selves will wonder about.</div>\n  </div>\n</div>\n<div class=\"card card-section bg-dark text-warning shadow\">\n  <div class=\"section card-body mb-0 my-2\">\n    <div class=\"paragraph card-text card-stanza my-5 text-center\">They will go up and down the Epochs, and ask questions.</div>\n    <div class=\"paragraph card-text card-stanza my-5 text-center\">there will be some regrets, but we do have a chance to solve them now.</div>\n  </div>\n</div>\n<div class=\"card card-section bg-dark text-warning shadow\">\n  <div class=\"section card-body mb-0 my-2\">\n    <div class=\"paragraph card-text card-stanza my-5 text-center\">There will be enough triumph to bring blinding light to all the sadness,</div>\n    <div class=\"paragraph card-text card-stanza my-5 text-center\">and the beautiful memories will wipe out all the unimportant things.</div>\n  </div>\n</div>\n<div class=\"mb-5 section-spacer\">&nbsp;</div>\n<div class=\"card card-section bg-dark text-warning shadow\">\n  <div class=\"section card-body mb-0 my-2\">\n    <div class=\"paragraph card-text card-stanza my-5 text-center\">All that stands in the way of our growing up,</div>\n    <div class=\"paragraph card-text card-stanza my-5 text-center\">must be pushed aside, growing up is our life.</div>\n  </div>\n</div>\n<div class=\"card card-section bg-dark text-warning shadow\">\n  <div class=\"section card-body mb-0 my-2\">\n    <div class=\"paragraph card-text card-stanza my-5 text-center\">We must grow up, rise up, all the way up.</div>\n    <div class=\"paragraph card-text card-stanza my-5 text-center\">Each and every epoch ahead, demands this.</div>\n  </div>\n</div>\n<div class=\"card card-section bg-dark text-warning shadow\">\n  <div class=\"section card-body mb-0 my-2\">\n    <div class=\"paragraph card-text card-stanza my-5 text-center\">Our minds require wisdom, wisdom fuels our decision making,</div>\n    <div class=\"paragraph card-text card-stanza my-5 text-center\">and our choices dictate all our life ahead.</div>\n  </div>\n</div>\n<div class=\"card card-section bg-dark text-warning shadow\">\n  <div class=\"section card-body mb-0 my-2\">\n    <div class=\"paragraph card-text card-stanza my-5 text-center\">Life is precious, it is to be lived in Dignity and Authenticity,</div>\n    <div class=\"paragraph card-text card-stanza my-5 text-center\">and you are meant to become a Great Being.</div>\n  </div>\n</div>\n<div class=\"card card-section bg-dark text-warning shadow\">\n  <div class=\"section card-body mb-0 my-2\">\n    <div class=\"paragraph card-text card-stanza my-5 text-center\">***</div>\n  </div>\n</div>\n<div class=\"card card-section bg-dark text-warning shadow\">\n  <div class=\"section card-body mb-0 my-2\">\n    <div class=\"paragraph card-text card-stanza my-5 text-center\"><a href=\"https://en.wikipedia.org/wiki/Mount_Everest#/media/File:Sunrise_over_Everest.jpg\">Everest photo</a>:</div>\n    <div class=\"paragraph card-text card-stanza my-5 text-center\"><a href=\"https://www.flickr.com/people/69342394@N00\">author</a>,</div>\n    <div class=\"paragraph card-text card-stanza my-5 text-center\"><a href=\"https://creativecommons.org/licenses/by/2.0/\">license</a>.</div>\n  </div>\n</div>",
  "print": "<div class=\"section avoid-break-inside\" style=\"padding-bottom: 2rem;\">\n  <div class=\"paragraph\">Like steps on a mountain, each epoch stands in support of the next,</div>\n  <div class=\"paragraph\">like the pages of a journal, together, they hold the sacred text.</div>\n</div>\n<div class=\"section avoid-break-inside\" style=\"padding-bottom: 2rem;\">\n  <div class=\"paragraph\">We learn, we may fail, or triumph, and the next epoch follows,</div>\n  <div class=\"paragraph\">but every new epoch grows from the one previous.</div>\n</div>\n<div class=\"section avoid-break-inside\" style=\"padding-bottom: 2rem;\">\n  <div class=\"paragraph\">We can't leap from one place to another,</div>\n  <div class=\"paragraph\">we can only move up, or graduate up, or build up, or step up.</div>\n</div>\n<div class=\"section avoid-break-inside\" style=\"padding-bottom: 2rem;\">\n  <div class=\"paragraph\">To leap, is to stay a child in an aging body,</div>\n  <div class=\"paragraph\">to go up, to grow up, and carry on to no end, is to become an adult.</div>\n</div>\n<div class=\"section avoid-break-inside\" style=\"padding-bottom: 2rem;\">\n  <br>\n</div>\n<div class=\"section avoid-break-inside\" style=\"padding-bottom: 2rem;\">\n  <div class=\"paragraph\">In our youth we must learn to stand our ground,</div>\n  <div class=\"paragraph\">and anchor ourselves to something that moves us.</div>\n</div>\n<div class=\"section avoid-break-inside\" style=\"padding-bottom: 2rem;\">\n  <div class=\"paragraph\">As we age, having followed that path,</div>\n  <div class=\"paragraph\">we'll be standing upon our own mountain,</div>\n</div>\n<div class=\"section avoid-break-inside\" style=\"padding-bottom: 2rem;\">\n  <div class=\"paragraph\">A great mountain of personal wisdom,</div>\n  <div class=\"paragraph\">where once only a direction lay.</div>\n</div>\n<div class=\"section avoid-break-inside\" style=\"padding-bottom: 2rem;\">\n  <div class=\"paragraph\">These mountains rise with each epoch in our life,</div>\n  <div class=\"paragraph\">every once in a while we pause, to bring all that we are together - higher.</div>\n</div>\n<div class=\"section avoid-break-inside\" style=\"padding-bottom: 2rem;\">\n  <div class=\"paragraph\">Epoch by Epoch, we ascend, we can already see the sunshine,</div>\n  <div class=\"paragraph\">but our journey comes with no end.</div>\n</div>\n<div class=\"section avoid-break-inside\" style=\"padding-bottom: 2rem;\">\n  <br>\n</div>\n<div class=\"section avoid-break-inside\" style=\"padding-bottom: 2rem;\">\n  <div class=\"paragraph\">This is a simple life, first we conform and then break away,</div>\n  <div class=\"paragraph\">we become wise, and later in life, our wisdom transforms into Enlightenment.</div>\n</div>\n<div class=\"section avoid-break-inside\" style=\"padding-bottom: 2rem;\">\n  <div class=\"paragraph\">It is a road of Adventures, Books, Poems, and Inspirations,</div>\n  <div class=\"paragraph\">it has tears of sadness, but in return we grow stronger.</div>\n</div>\n<div class=\"section avoid-break-inside\" style=\"padding-bottom: 2rem;\">\n  <div class=\"paragraph\">What it is all for, is to Live a Life of Simple Dignity,</div>\n  <div class=\"paragraph\">or rising when we fall, of learning when we get tricked.</div>\n</div>\n<div class=\"section avoid-break-inside\" style=\"padding-bottom: 2rem;\">\n  <div class=\"paragraph\">Of protecting our bodies and minds, and growing stronger,</div>\n  <div class=\"paragraph\">of adding to our existing body of wisdom.</div>\n</div>\n<div class=\"section avoid-break-inside\" style=\"padding-bottom: 2rem;\">\n  <br>\n</div>\n<div class=\"section avoid-break-inside\" style=\"padding-bottom: 2rem;\">\n  <div class=\"paragraph\">With each epoch we climb over what we previously thought were our limits,</div>\n  <div class=\"paragraph\">As we get up, and stand up, we reach a new plateau.</div>\n</div>\n<div class=\"section avoid-break-inside\" style=\"padding-bottom: 2rem;\">\n  <div class=\"paragraph\">We rest, we take in the sun of this new height,</div>\n  <div class=\"paragraph\">and get busy building higher, and higher.</div>\n</div>\n<div class=\"section avoid-break-inside\" style=\"padding-bottom: 2rem;\">\n  <div class=\"paragraph\">None of us begged to be born, we were nothingness,</div>\n  <div class=\"paragraph\">and temporarily all these atoms came together to give us, ourselves.</div>\n</div>\n<div class=\"section avoid-break-inside\" style=\"padding-bottom: 2rem;\">\n  <div class=\"paragraph\">And eventually, we'll return to our nothingness,</div>\n  <div class=\"paragraph\">and the atoms will disperse, to become parts of other beautiful things,</div>\n</div>\n<div class=\"section avoid-break-inside\" style=\"padding-bottom: 2rem;\">\n  <br>\n</div>\n<div class=\"section avoid-break-inside\" style=\"padding-bottom: 2rem;\">\n  <div class=\"paragraph\">While we are in this state, however, the first and foremost order!</div>\n  <div class=\"paragraph\">...is to Thrive, to Grow, to Expand, to Rise, to Build, and to Ascend.</div>\n</div>\n<div class=\"section avoid-break-inside\" style=\"padding-bottom: 2rem;\">\n  <div class=\"paragraph\">Whether we know it yet or not, the road that we are on, is one.</div>\n  <div class=\"paragraph\">It is the same road that our 90 year old selves will wonder about.</div>\n</div>\n<div class=\"section avoid-break-inside\" style=\"padding-bottom: 2rem;\">\n  <div class=\"paragraph\">They will go up and down the Epochs, and ask questions.</div>\n  <div class=\"paragraph\">there will be some regrets, but we do have a chance to solve them now.</div>\n</div>\n<div class=\"section avoid-break-inside\" style=\"padding-bottom: 2rem;\">\n  <div class=\"paragraph\">There will be enough triumph to bring blinding light to all the sadness,</div>\n  <div class=\"paragraph\">and the beautiful memories will wipe out all the unimportant things.</div>\n</div>\n<div class=\"section avoid-break-inside\" style=\"padding-bottom: 2rem;\">\n  <br>\n</div>\n<div class=\"section avoid-break-inside\" style=\"padding-bottom: 2rem;\">\n  <div class=\"paragraph\">All that stands in the way of our growing up,</div>\n  <div class=\"paragraph\">must be pushed aside, growing up is our life.</div>\n</div>\n<div class=\"section avoid-break-inside\" style=\"padding-bottom: 2rem;\">\n  <div class=\"paragraph\">We must grow up, rise up, all the way up.</div>\n  <div class=\"paragraph\">Each and every epoch ahead, demands this.</div>\n</div>\n<div class=\"section avoid-break-inside\" style=\"padding-bottom: 2rem;\">\n  <div class=\"paragraph\">Our minds require wisdom, wisdom fuels our decision making,</div>\n  <div class=\"paragraph\">and our choices dictate all our life ahead.</div>\n</div>\n<div class=\"section avoid-break-inside\" style=\"padding-bottom: 2rem;\">\n  <div class=\"paragraph\">Life is precious, it is to be lived in Dignity and Authenticity,</div>\n  <div class=\"paragraph\">and you are meant to become a Great Being.</div>\n</div>\n<div class=\"section avoid-break-inside\" style=\"padding-bottom: 2rem;\">\n  <div class=\"paragraph\">***</div>\n</div>\n<div class=\"section avoid-break-inside\" style=\"padding-bottom: 2rem;\">\n  <div class=\"paragraph\"><span>Everest photo<sup>[1]</sup></span>:</div>\n  <div class=\"paragraph\"><span>author<sup>[2]</sup></span>,</div>\n  <div class=\"paragraph\"><span>license<sup>[3]</sup></span>.</div>\n</div>\n<div class=\"break-after\">&nbsp;</div>\n<div>\n  <div class=\"section\" style=\"padding-bottom: 1rem;\">References</div>\n  <div>[1]: https://en.wikipedia.org/wiki/Mount_Everest#/media/File:Sunrise_over_Everest.jpg</div>\n  <div>[2]: https://www.flickr.com/people/69342394@N00</div>\n  <div>[3]: https://creativecommons.org/licenses/by/2.0/</div>\n</div>",
  "text": "Like steps on a mountain, each epoch stands in support of the next,\nlike the pages of a journal, together, they hold the sacred text.\nWe learn, we may fail, or triumph, and the next epoch follows,\nbut every new epoch grows from the one previous.\nWe can't leap from one place to another,\nwe can only move up, or graduate up, or build up, or step up.\nTo leap, is to stay a child in an aging body,\nto go up, to grow up, and carry on to no end, is to become an adult.\n\nIn our youth we must learn to stand our ground,\nand anchor ourselves to something that moves us.\nAs we age, having followed that path,\nwe'll be standing upon our own mountain,\nA great mountain of personal wisdom,\nwhere once only a direction lay.\nThese mountains rise with each epoch in our life,\nevery once in a while we pause, to bring all that we are together - higher.\nEpoch by Epoch, we ascend, we can already see the sunshine,\nbut our journey comes with no end.\n\nThis is a simple life, first we conform and then break away,\nwe become wise, and later in life, our wisdom transforms into Enlightenment.\nIt is a road of Adventures, Books, Poems, and Inspirations,\nit has tears of sadness, but in return we grow stronger.\nWhat it is all for, is to Live a Life of Simple Dignity,\nor rising when we fall, of learning when we get tricked.\nOf protecting our bodies and minds, and growing stronger,\nof adding to our existing body of wisdom.\n\nWith each epoch we climb over what we previously thought were our limits,\nAs we get up, and stand up, we reach a new plateau.\nWe rest, we take in the sun of this new height,\nand get busy building higher, and higher.\nNone of us begged to be born, we were nothingness,\nand temporarily all these atoms came together to give us, ourselves.\nAnd eventually, we'll return to our nothingness,\nand the atoms will disperse, to become parts of other beautiful things,\n\nWhile we are in this state, however, the first and foremost order!\n...is to Thrive, to Grow, to Expand, to Rise, to Build, and to Ascend.\nWhether we know it yet or not, the road that we are on, is one.\nIt is the same road that our 90 year old selves will wonder about.\nThey will go up and down the Epochs, and ask questions.\nthere will be some regrets, but we do have a chance to solve them now.\nThere will be enough triumph to bring blinding light to all the sadness,\nand the beautiful memories will wipe out all the unimportant things.\n\nAll that stands in the way of our growing up,\nmust be pushed aside, growing up is our life.\nWe must grow up, rise up, all the way up.\nEach and every epoch ahead, demands this.\nOur minds require wisdom, wisdom fuels our decision making,\nand our choices dictate all our life ahead.\nLife is precious, it is to be lived in Dignity and Authenticity,\nand you are meant to become a Great Being.\n***\nEverest photo[1]:\nauthor[2],\nlicense[3].\n \nReferences\n[1]: https://en.wikipedia.org/wiki/Mount_Everest#/media/File:Sunrise_over_Everest.jpg\n[2]: https://www.flickr.com/people/69342394@N00\n[3]: https://creativecommons.org/licenses/by/2.0/",
  "images": [],
  "links": [
    {
      "title": "Everest photo",
      "url": "https://en.wikipedia.org/wiki/Mount_Everest#/media/File:Sunrise_over_Everest.jpg",
      "hostname": "en.wikipedia.org"
    },
    {
      "title": "author",
      "url": "https://www.flickr.com/people/69342394@N00",
      "hostname": "www.flickr.com"
    },
    {
      "title": "license",
      "url": "https://creativecommons.org/licenses/by/2.0/",
      "hostname": "creativecommons.org"
    }
  ]
}