{
  "name": "furkies-purrkies-poetry-0438",
  "title": "On Understanding The World",
  "date": "2021-05-13T02:05:36.606Z",
  "image": "poetry-0438-illustration.jpg",
  "audio": "poetry-0438.mp3",
  "artwork": "https://unsplash.com/photos/Zf0-90SpDD0",
  "id": "furkies-purrkies-poetry-0438",
  "attachments": {},
  "guid": "68f7147c-a815-4afa-a54e-93c166bc971d",
  "html": "<div class=\"section\">\n  <p>To understand the world, you must stop assuming that everything is how it should be.</p>\n  <p>You have to get used to the idea that the world needs your help, almost nothing works.</p>\n  <p>You will be able to see examples of that everywhere, once you take time to listen to, and read books.</p>\n</div>\n\n\n<div class=\"section\">\n  <p>Other than noticing that everything is incomplete, you will never fully grasp the world.</p>\n  <p>The understanding of the world, is a process, it must be.</p>\n  <p>You can only understand the things that call to you, and that education is the key.</p>\n</div>\n\n\n<div class=\"section\">\n  <p>Most, if not all misunderstandings are rooted in greatly varying levels of education.</p>\n  <p>When levels of real education rise, the world becomes wiser.</p>\n  <p>As the world grows in wisdom, misunderstandings fade away and Peace arrives.</p>\n</div>\n\n\n<div class=\"section\">\n  <p>Not all education is equal, real education is rare.</p>\n  <p>It is far simpler to take to the books that call to you, than to wait for a teacher that can inspire you.</p>\n  <p>Be careful when it comes to organized education, it is safer to learn directly from the world&apos;s most beloved thinkers.</p>\n</div>\n\n\n<div class=\"section\">\n  <p>Eventually you will no doubt hope to make a difference, but there is a great and heartbreaking problem with that.</p>\n  <p>It may not be possible to help those who are already suffering, it may only be realistic to make their pain count more, by preventing it in the future.</p>\n  <p>Not all great challenges are like this, but once a war starts, there are no winners, nor will there ever be.</p>\n</div>\n\n\n<div class=\"section\">\n  <p>To make changes that last, you may have to focus on prevention.</p>\n  <p>You have to look into the future, as you won&apos;t be able to reliably change the present, not always.</p>\n  <p>To reliably change the future, you must help the world learn, increases the world&apos;s level of education.</p>\n</div>\n\n\n<div class=\"section\">\n  <p>You have to help the world remember, that it was lack of knowledge that kept the world in misery.</p>\n  <p>Your greatest adversaries will not only tower over you, but will outlive you by centuries.</p>\n  <p>They will turn misery and borders, into profit, a minuscule amount from billions of people.</p>\n</div>\n\n\n<div class=\"section\">\n  <p>The word kind of an education, is the one that stops the student from learning more.</p>\n  <p>Be it with false promises, fantasies, or by replacing real education with meaningless memorization tests and grades.</p>\n  <p>Once a student becomes either convinced that they know enough, or tricked into not wanting to learn anymore, the world becomes darker for it.</p>\n</div>\n\n\n<div class=\"section\">\n  <p>Dark ages is not a thing that you can witness, as they are spread across multiple centuries.</p>\n  <p>The darkness is just the symbol, for lack of education, lack of enlightenment.</p>\n  <p>The future generations will be able to see it when looking back at us, but we won&apos;t.</p>\n</div>\n\n\n<div class=\"section\">\n  <p>The urgency with which every human being, must be given books and knowledge in a way that helps them grow, is of an order of magnitude higher than we can comprehend.</p>\n  <p>Screaming Climate, Pandemics, Wars, Racism, Concentration Camps, Solitary Confinement, Police Brutality, and Punishment By Death, will do nothing to help the world understand.</p>\n  <p>Most don&apos;t even know about the <a href=\"https://en.wikipedia.org/wiki/Holocene_extinction\">Holocene Extinction</a>, all of this is a function of their level of education.</p>\n</div>\n\n\n<div class=\"section\">\n  <p>Our Empathy and Compassion for each other, also scales with Knowledge.</p>\n  <p>We are all born perfect, and we are all beautiful.</p>\n  <p>But we must not start at zero, we must be born to the greatest heights of the previous generation.</p>\n</div>\n\n\n<div class=\"section\">\n  <p>Without real education, not only do we repeat the same mistakes.</p>\n  <p>But we keep adding more weight to them, and make the suffering of the previous generations count for nothing.</p>\n  <p>Real education enhances us, it improves us, and refines our operating system, decision making mechanisms, and powers of perception.</p>\n</div>\n\n\n<div class=\"section\">\n  <p>You can&apos;t stand up to a war, a global cult, or fantasy education, you will be so small they won&apos;t even notice you.</p>\n  <p>But you can prevent it from propagating into the future, help your classmates, protect them from fake teacher, share narrated books.</p>\n  <p>Use the stress of fake education to ignite their passion for True Wisdom, help them see the Liars and the Fools, help them see the fraud of <a href=\"https://www.youtube.com/watch?v=fmoor8DwqW4\">Fake Education</a>.</p>\n</div>\n\n\n<div class=\"section\">\n  <p>Help them see how in poverty those who claim authority, trade the Best Minds of The Future Generation, for a small paycheck.</p>\n  <p>The propagation of the darkness-and-misery of our age, under the collective and self defeating excuse...</p>\n  <p>of putting some food, on their table.</p>\n</div>\n\n\n<div class=\"section\">\n  <p>Above all, and in more ways, than we can grasp.</p>\n  <p>The following words, will always hold true.</p>\n  <p>It is either all of us, or none.</p>\n</div>",
  "bootstrap": "<div class=\"card card-section bg-dark text-warning shadow\">\n  <div class=\"section card-body mb-0 my-2\">\n    <div class=\"paragraph card-text card-stanza my-5 text-center\">To understand the world, you must stop assuming that everything is how it should be.</div>\n    <div class=\"paragraph card-text card-stanza my-5 text-center\">You have to get used to the idea that the world needs your help, almost nothing works.</div>\n    <div class=\"paragraph card-text card-stanza my-5 text-center\">You will be able to see examples of that everywhere, once you take time to listen to, and read books.</div>\n  </div>\n</div>\n<div class=\"card card-section bg-dark text-warning shadow\">\n  <div class=\"section card-body mb-0 my-2\">\n    <div class=\"paragraph card-text card-stanza my-5 text-center\">Other than noticing that everything is incomplete, you will never fully grasp the world.</div>\n    <div class=\"paragraph card-text card-stanza my-5 text-center\">The understanding of the world, is a process, it must be.</div>\n    <div class=\"paragraph card-text card-stanza my-5 text-center\">You can only understand the things that call to you, and that education is the key.</div>\n  </div>\n</div>\n<div class=\"card card-section bg-dark text-warning shadow\">\n  <div class=\"section card-body mb-0 my-2\">\n    <div class=\"paragraph card-text card-stanza my-5 text-center\">Most, if not all misunderstandings are rooted in greatly varying levels of education.</div>\n    <div class=\"paragraph card-text card-stanza my-5 text-center\">When levels of real education rise, the world becomes wiser.</div>\n    <div class=\"paragraph card-text card-stanza my-5 text-center\">As the world grows in wisdom, misunderstandings fade away and Peace arrives.</div>\n  </div>\n</div>\n<div class=\"card card-section bg-dark text-warning shadow\">\n  <div class=\"section card-body mb-0 my-2\">\n    <div class=\"paragraph card-text card-stanza my-5 text-center\">Not all education is equal, real education is rare.</div>\n    <div class=\"paragraph card-text card-stanza my-5 text-center\">It is far simpler to take to the books that call to you, than to wait for a teacher that can inspire you.</div>\n    <div class=\"paragraph card-text card-stanza my-5 text-center\">Be careful when it comes to organized education, it is safer to learn directly from the world's most beloved thinkers.</div>\n  </div>\n</div>\n<div class=\"card card-section bg-dark text-warning shadow\">\n  <div class=\"section card-body mb-0 my-2\">\n    <div class=\"paragraph card-text card-stanza my-5 text-center\">Eventually you will no doubt hope to make a difference, but there is a great and heartbreaking problem with that.</div>\n    <div class=\"paragraph card-text card-stanza my-5 text-center\">It may not be possible to help those who are already suffering, it may only be realistic to make their pain count more, by preventing it in the future.</div>\n    <div class=\"paragraph card-text card-stanza my-5 text-center\">Not all great challenges are like this, but once a war starts, there are no winners, nor will there ever be.</div>\n  </div>\n</div>\n<div class=\"card card-section bg-dark text-warning shadow\">\n  <div class=\"section card-body mb-0 my-2\">\n    <div class=\"paragraph card-text card-stanza my-5 text-center\">To make changes that last, you may have to focus on prevention.</div>\n    <div class=\"paragraph card-text card-stanza my-5 text-center\">You have to look into the future, as you won't be able to reliably change the present, not always.</div>\n    <div class=\"paragraph card-text card-stanza my-5 text-center\">To reliably change the future, you must help the world learn, increases the world's level of education.</div>\n  </div>\n</div>\n<div class=\"card card-section bg-dark text-warning shadow\">\n  <div class=\"section card-body mb-0 my-2\">\n    <div class=\"paragraph card-text card-stanza my-5 text-center\">You have to help the world remember, that it was lack of knowledge that kept the world in misery.</div>\n    <div class=\"paragraph card-text card-stanza my-5 text-center\">Your greatest adversaries will not only tower over you, but will outlive you by centuries.</div>\n    <div class=\"paragraph card-text card-stanza my-5 text-center\">They will turn misery and borders, into profit, a minuscule amount from billions of people.</div>\n  </div>\n</div>\n<div class=\"card card-section bg-dark text-warning shadow\">\n  <div class=\"section card-body mb-0 my-2\">\n    <div class=\"paragraph card-text card-stanza my-5 text-center\">The word kind of an education, is the one that stops the student from learning more.</div>\n    <div class=\"paragraph card-text card-stanza my-5 text-center\">Be it with false promises, fantasies, or by replacing real education with meaningless memorization tests and grades.</div>\n    <div class=\"paragraph card-text card-stanza my-5 text-center\">Once a student becomes either convinced that they know enough, or tricked into not wanting to learn anymore, the world becomes darker for it.</div>\n  </div>\n</div>\n<div class=\"card card-section bg-dark text-warning shadow\">\n  <div class=\"section card-body mb-0 my-2\">\n    <div class=\"paragraph card-text card-stanza my-5 text-center\">Dark ages is not a thing that you can witness, as they are spread across multiple centuries.</div>\n    <div class=\"paragraph card-text card-stanza my-5 text-center\">The darkness is just the symbol, for lack of education, lack of enlightenment.</div>\n    <div class=\"paragraph card-text card-stanza my-5 text-center\">The future generations will be able to see it when looking back at us, but we won't.</div>\n  </div>\n</div>\n<div class=\"card card-section bg-dark text-warning shadow\">\n  <div class=\"section card-body mb-0 my-2\">\n    <div class=\"paragraph card-text card-stanza my-5 text-center\">The urgency with which every human being, must be given books and knowledge in a way that helps them grow, is of an order of magnitude higher than we can comprehend.</div>\n    <div class=\"paragraph card-text card-stanza my-5 text-center\">Screaming Climate, Pandemics, Wars, Racism, Concentration Camps, Solitary Confinement, Police Brutality, and Punishment By Death, will do nothing to help the world understand.</div>\n    <div class=\"paragraph card-text card-stanza my-5 text-center\">Most don't even know about the <a href=\"https://en.wikipedia.org/wiki/Holocene_extinction\">Holocene Extinction</a>, all of this is a function of their level of education.</div>\n  </div>\n</div>\n<div class=\"card card-section bg-dark text-warning shadow\">\n  <div class=\"section card-body mb-0 my-2\">\n    <div class=\"paragraph card-text card-stanza my-5 text-center\">Our Empathy and Compassion for each other, also scales with Knowledge.</div>\n    <div class=\"paragraph card-text card-stanza my-5 text-center\">We are all born perfect, and we are all beautiful.</div>\n    <div class=\"paragraph card-text card-stanza my-5 text-center\">But we must not start at zero, we must be born to the greatest heights of the previous generation.</div>\n  </div>\n</div>\n<div class=\"card card-section bg-dark text-warning shadow\">\n  <div class=\"section card-body mb-0 my-2\">\n    <div class=\"paragraph card-text card-stanza my-5 text-center\">Without real education, not only do we repeat the same mistakes.</div>\n    <div class=\"paragraph card-text card-stanza my-5 text-center\">But we keep adding more weight to them, and make the suffering of the previous generations count for nothing.</div>\n    <div class=\"paragraph card-text card-stanza my-5 text-center\">Real education enhances us, it improves us, and refines our operating system, decision making mechanisms, and powers of perception.</div>\n  </div>\n</div>\n<div class=\"card card-section bg-dark text-warning shadow\">\n  <div class=\"section card-body mb-0 my-2\">\n    <div class=\"paragraph card-text card-stanza my-5 text-center\">You can't stand up to a war, a global cult, or fantasy education, you will be so small they won't even notice you.</div>\n    <div class=\"paragraph card-text card-stanza my-5 text-center\">But you can prevent it from propagating into the future, help your classmates, protect them from fake teacher, share narrated books.</div>\n    <div class=\"paragraph card-text card-stanza my-5 text-center\">Use the stress of fake education to ignite their passion for True Wisdom, help them see the Liars and the Fools, help them see the fraud of <a href=\"https://www.youtube.com/watch?v=fmoor8DwqW4\">Fake Education</a>.</div>\n  </div>\n</div>\n<div class=\"card card-section bg-dark text-warning shadow\">\n  <div class=\"section card-body mb-0 my-2\">\n    <div class=\"paragraph card-text card-stanza my-5 text-center\">Help them see how in poverty those who claim authority, trade the Best Minds of The Future Generation, for a small paycheck.</div>\n    <div class=\"paragraph card-text card-stanza my-5 text-center\">The propagation of the darkness-and-misery of our age, under the collective and self defeating excuse...</div>\n    <div class=\"paragraph card-text card-stanza my-5 text-center\">of putting some food, on their table.</div>\n  </div>\n</div>\n<div class=\"card card-section bg-dark text-warning shadow\">\n  <div class=\"section card-body mb-0 my-2\">\n    <div class=\"paragraph card-text card-stanza my-5 text-center\">Above all, and in more ways, than we can grasp.</div>\n    <div class=\"paragraph card-text card-stanza my-5 text-center\">The following words, will always hold true.</div>\n    <div class=\"paragraph card-text card-stanza my-5 text-center\">It is either all of us, or none.</div>\n  </div>\n</div>",
  "print": "<div class=\"section avoid-break-inside\" style=\"padding-bottom: 2rem;\">\n  <div class=\"paragraph\">To understand the world, you must stop assuming that everything is how it should be.</div>\n  <div class=\"paragraph\">You have to get used to the idea that the world needs your help, almost nothing works.</div>\n  <div class=\"paragraph\">You will be able to see examples of that everywhere, once you take time to listen to, and read books.</div>\n</div>\n<div class=\"section avoid-break-inside\" style=\"padding-bottom: 2rem;\">\n  <div class=\"paragraph\">Other than noticing that everything is incomplete, you will never fully grasp the world.</div>\n  <div class=\"paragraph\">The understanding of the world, is a process, it must be.</div>\n  <div class=\"paragraph\">You can only understand the things that call to you, and that education is the key.</div>\n</div>\n<div class=\"section avoid-break-inside\" style=\"padding-bottom: 2rem;\">\n  <div class=\"paragraph\">Most, if not all misunderstandings are rooted in greatly varying levels of education.</div>\n  <div class=\"paragraph\">When levels of real education rise, the world becomes wiser.</div>\n  <div class=\"paragraph\">As the world grows in wisdom, misunderstandings fade away and Peace arrives.</div>\n</div>\n<div class=\"section avoid-break-inside\" style=\"padding-bottom: 2rem;\">\n  <div class=\"paragraph\">Not all education is equal, real education is rare.</div>\n  <div class=\"paragraph\">It is far simpler to take to the books that call to you, than to wait for a teacher that can inspire you.</div>\n  <div class=\"paragraph\">Be careful when it comes to organized education, it is safer to learn directly from the world's most beloved thinkers.</div>\n</div>\n<div class=\"section avoid-break-inside\" style=\"padding-bottom: 2rem;\">\n  <div class=\"paragraph\">Eventually you will no doubt hope to make a difference, but there is a great and heartbreaking problem with that.</div>\n  <div class=\"paragraph\">It may not be possible to help those who are already suffering, it may only be realistic to make their pain count more, by preventing it in the future.</div>\n  <div class=\"paragraph\">Not all great challenges are like this, but once a war starts, there are no winners, nor will there ever be.</div>\n</div>\n<div class=\"section avoid-break-inside\" style=\"padding-bottom: 2rem;\">\n  <div class=\"paragraph\">To make changes that last, you may have to focus on prevention.</div>\n  <div class=\"paragraph\">You have to look into the future, as you won't be able to reliably change the present, not always.</div>\n  <div class=\"paragraph\">To reliably change the future, you must help the world learn, increases the world's level of education.</div>\n</div>\n<div class=\"section avoid-break-inside\" style=\"padding-bottom: 2rem;\">\n  <div class=\"paragraph\">You have to help the world remember, that it was lack of knowledge that kept the world in misery.</div>\n  <div class=\"paragraph\">Your greatest adversaries will not only tower over you, but will outlive you by centuries.</div>\n  <div class=\"paragraph\">They will turn misery and borders, into profit, a minuscule amount from billions of people.</div>\n</div>\n<div class=\"section avoid-break-inside\" style=\"padding-bottom: 2rem;\">\n  <div class=\"paragraph\">The word kind of an education, is the one that stops the student from learning more.</div>\n  <div class=\"paragraph\">Be it with false promises, fantasies, or by replacing real education with meaningless memorization tests and grades.</div>\n  <div class=\"paragraph\">Once a student becomes either convinced that they know enough, or tricked into not wanting to learn anymore, the world becomes darker for it.</div>\n</div>\n<div class=\"section avoid-break-inside\" style=\"padding-bottom: 2rem;\">\n  <div class=\"paragraph\">Dark ages is not a thing that you can witness, as they are spread across multiple centuries.</div>\n  <div class=\"paragraph\">The darkness is just the symbol, for lack of education, lack of enlightenment.</div>\n  <div class=\"paragraph\">The future generations will be able to see it when looking back at us, but we won't.</div>\n</div>\n<div class=\"section avoid-break-inside\" style=\"padding-bottom: 2rem;\">\n  <div class=\"paragraph\">The urgency with which every human being, must be given books and knowledge in a way that helps them grow, is of an order of magnitude higher than we can comprehend.</div>\n  <div class=\"paragraph\">Screaming Climate, Pandemics, Wars, Racism, Concentration Camps, Solitary Confinement, Police Brutality, and Punishment By Death, will do nothing to help the world understand.</div>\n  <div class=\"paragraph\">Most don't even know about the <span>Holocene Extinction<sup>[1]</sup></span>, all of this is a function of their level of education.</div>\n</div>\n<div class=\"section avoid-break-inside\" style=\"padding-bottom: 2rem;\">\n  <div class=\"paragraph\">Our Empathy and Compassion for each other, also scales with Knowledge.</div>\n  <div class=\"paragraph\">We are all born perfect, and we are all beautiful.</div>\n  <div class=\"paragraph\">But we must not start at zero, we must be born to the greatest heights of the previous generation.</div>\n</div>\n<div class=\"section avoid-break-inside\" style=\"padding-bottom: 2rem;\">\n  <div class=\"paragraph\">Without real education, not only do we repeat the same mistakes.</div>\n  <div class=\"paragraph\">But we keep adding more weight to them, and make the suffering of the previous generations count for nothing.</div>\n  <div class=\"paragraph\">Real education enhances us, it improves us, and refines our operating system, decision making mechanisms, and powers of perception.</div>\n</div>\n<div class=\"section avoid-break-inside\" style=\"padding-bottom: 2rem;\">\n  <div class=\"paragraph\">You can't stand up to a war, a global cult, or fantasy education, you will be so small they won't even notice you.</div>\n  <div class=\"paragraph\">But you can prevent it from propagating into the future, help your classmates, protect them from fake teacher, share narrated books.</div>\n  <div class=\"paragraph\">Use the stress of fake education to ignite their passion for True Wisdom, help them see the Liars and the Fools, help them see the fraud of <span>Fake Education<sup>[2]</sup></span>.</div>\n</div>\n<div class=\"section avoid-break-inside\" style=\"padding-bottom: 2rem;\">\n  <div class=\"paragraph\">Help them see how in poverty those who claim authority, trade the Best Minds of The Future Generation, for a small paycheck.</div>\n  <div class=\"paragraph\">The propagation of the darkness-and-misery of our age, under the collective and self defeating excuse...</div>\n  <div class=\"paragraph\">of putting some food, on their table.</div>\n</div>\n<div class=\"section avoid-break-inside\" style=\"padding-bottom: 2rem;\">\n  <div class=\"paragraph\">Above all, and in more ways, than we can grasp.</div>\n  <div class=\"paragraph\">The following words, will always hold true.</div>\n  <div class=\"paragraph\">It is either all of us, or none.</div>\n</div>\n<div class=\"break-after\">&nbsp;</div>\n<div>\n  <div class=\"section\" style=\"padding-bottom: 1rem;\">References</div>\n  <div>[1]: https://en.wikipedia.org/wiki/Holocene_extinction</div>\n  <div>[2]: https://www.youtube.com/watch?v=fmoor8DwqW4</div>\n</div>",
  "text": "To understand the world, you must stop assuming that everything is how it should be.\nYou have to get used to the idea that the world needs your help, almost nothing works.\nYou will be able to see examples of that everywhere, once you take time to listen to, and read books.\nOther than noticing that everything is incomplete, you will never fully grasp the world.\nThe understanding of the world, is a process, it must be.\nYou can only understand the things that call to you, and that education is the key.\nMost, if not all misunderstandings are rooted in greatly varying levels of education.\nWhen levels of real education rise, the world becomes wiser.\nAs the world grows in wisdom, misunderstandings fade away and Peace arrives.\nNot all education is equal, real education is rare.\nIt is far simpler to take to the books that call to you, than to wait for a teacher that can inspire you.\nBe careful when it comes to organized education, it is safer to learn directly from the world's most beloved thinkers.\nEventually you will no doubt hope to make a difference, but there is a great and heartbreaking problem with that.\nIt may not be possible to help those who are already suffering, it may only be realistic to make their pain count more, by preventing it in the future.\nNot all great challenges are like this, but once a war starts, there are no winners, nor will there ever be.\nTo make changes that last, you may have to focus on prevention.\nYou have to look into the future, as you won't be able to reliably change the present, not always.\nTo reliably change the future, you must help the world learn, increases the world's level of education.\nYou have to help the world remember, that it was lack of knowledge that kept the world in misery.\nYour greatest adversaries will not only tower over you, but will outlive you by centuries.\nThey will turn misery and borders, into profit, a minuscule amount from billions of people.\nThe word kind of an education, is the one that stops the student from learning more.\nBe it with false promises, fantasies, or by replacing real education with meaningless memorization tests and grades.\nOnce a student becomes either convinced that they know enough, or tricked into not wanting to learn anymore, the world becomes darker for it.\nDark ages is not a thing that you can witness, as they are spread across multiple centuries.\nThe darkness is just the symbol, for lack of education, lack of enlightenment.\nThe future generations will be able to see it when looking back at us, but we won't.\nThe urgency with which every human being, must be given books and knowledge in a way that helps them grow, is of an order of magnitude higher than we can comprehend.\nScreaming Climate, Pandemics, Wars, Racism, Concentration Camps, Solitary Confinement, Police Brutality, and Punishment By Death, will do nothing to help the world understand.\nMost don't even know about the Holocene Extinction[1], all of this is a function of their level of education.\nOur Empathy and Compassion for each other, also scales with Knowledge.\nWe are all born perfect, and we are all beautiful.\nBut we must not start at zero, we must be born to the greatest heights of the previous generation.\nWithout real education, not only do we repeat the same mistakes.\nBut we keep adding more weight to them, and make the suffering of the previous generations count for nothing.\nReal education enhances us, it improves us, and refines our operating system, decision making mechanisms, and powers of perception.\nYou can't stand up to a war, a global cult, or fantasy education, you will be so small they won't even notice you.\nBut you can prevent it from propagating into the future, help your classmates, protect them from fake teacher, share narrated books.\nUse the stress of fake education to ignite their passion for True Wisdom, help them see the Liars and the Fools, help them see the fraud of Fake Education[2].\nHelp them see how in poverty those who claim authority, trade the Best Minds of The Future Generation, for a small paycheck.\nThe propagation of the darkness-and-misery of our age, under the collective and self defeating excuse...\nof putting some food, on their table.\nAbove all, and in more ways, than we can grasp.\nThe following words, will always hold true.\nIt is either all of us, or none.\n \nReferences\n[1]: https://en.wikipedia.org/wiki/Holocene_extinction\n[2]: https://www.youtube.com/watch?v=fmoor8DwqW4",
  "images": [],
  "links": [
    {
      "title": "Holocene Extinction",
      "url": "https://en.wikipedia.org/wiki/Holocene_extinction",
      "hostname": "en.wikipedia.org"
    },
    {
      "title": "Fake Education",
      "url": "https://www.youtube.com/watch?v=fmoor8DwqW4",
      "hostname": "www.youtube.com"
    }
  ]
}