{
  "name": "furkies-purrkies-poetry-0500",
  "id": "furkies-purrkies-poetry-0500",
  "title": "Answering The Calls to Greatness",
  "date": "2021-07-14T02:54:30.870Z",
  "image": "poetry-0500-illustration.jpg",
  "artwork": "https://unsplash.com/photos/fvp40XPr0Ak",
  "audio": "poetry-0500.mp3",
  "guid": "db871cc5-0153-4e40-9be1-6affa2fe040e",
  "html": "<div class=\"section\">\n  <p>Our hobbies, interests and curiosities,<br>are a star chart in the infinite complexity of life.</p>\n  <p>Though we can go anywhere and do anything,<br>there are certain things that call to us.</p>\n  <p>And despite orders, poverty, overwork,<br>we have to answer that call.</p>\n</div>\n<div class=\"section\">\n  <hr>\n</div>\n<div class=\"section\">\n  <p>As we grow and mature, and become more knowledgeable,<br>what calls to us becomes more sophisticated.</p>\n  <p>In our youth we may wish to abandon all,<br>and climb Mt. Everest.</p>\n  <p>But as we grow we become painters, sculptors, musicians and composers, thinkers, and philosophers,<br>and we share what we learned of wisdom in more profound ways.</p>\n</div>\n<div class=\"section\">\n  <hr>\n</div>\n<div class=\"section\">\n  <p>It is a law of the universe,<br>it is just how things are.</p>\n  <p>When we keep ignoring the call,<br>our growing up will slow down.</p>\n  <p>And our convictions no matter how real to us,<br>will become those of a person who is rejecting the calls to grow all the way up.</p>\n</div>\n<div class=\"section\">\n  <hr>\n</div>\n<div class=\"section\">\n  <p>That which call to us is not a game,<br>or yet another adventure.</p>\n  <p>It is greatness,<br>the very thing we discover when we grow up in wisdom.</p>\n  <p>Growing all the way up,<br>is just another way of saying \"Becoming A Great Being\"</p>\n</div>\n<div class=\"section\">\n  <hr>\n</div>\n<div class=\"section\">\n  <p>We have to rage ravenous,<br>against fear and through fearful things towards greatness.</p>\n  <p>We have to bellow in laughter,<br>at stupid office politics and take to endless trails.</p>\n  <p>Because we can't stay, forever childlike,<br>or forever 20, or forever 30, or 40.</p>\n</div>\n<div class=\"section\">\n  <hr>\n</div>\n<div class=\"section\">\n  <p>And what is this greatness,<br>why is it so great?</p>\n  <p><a href=\"https://www.youtube.com/watch?v=k6_QUhUPrF4\">The natural born orator</a>,<br><a href=\"https://www.youtube.com/watch?v=hPSvdKTEZug\">will awaken within you</a>.</p>\n  <p><a href=\"https://www.youtube.com/watch?v=sa1iS1MqUy4\">Out of the urge to share</a>,<br><a href=\"https://www.youtube.com/watch?v=n7IHU28aR2E\">out of the urge to speak out</a>.</p>\n</div>\n<div class=\"section\">\n  <hr>\n</div>\n<div class=\"section\">\n  <p>You will write poetry and books, and audio-books,<br>to tell the world about your discoveries.</p>\n  <p>To help the world become somewhat like you,<br>to change the future for better.</p>\n  <p>To answer your own questions,<br>is to become a coherent, integrated, contradiction free, and easy to understand.</p>\n</div>\n<div class=\"section\">\n  <hr>\n</div>\n<div class=\"section\">\n  <p>There are so many questions that people have,<br>that they sometimes can't answer.</p>\n  <p>Often for no reason at all,<br>people do things out of sequence, and prevent themselves from advancing.</p>\n  <p>Your wisdom can get them unstuck,<br>you can deliver it an a book, that they can read at home.</p>\n</div>\n<div class=\"section\">\n  <hr>\n</div>\n<div class=\"section\">\n  <p>These great personal journeys,<br>are for the betterment of Human Kind.</p>\n  <p>Your best discoveries will eventually be used,<br>to fix our days, to rebuild how a human life is to be lived.</p>\n  <p>Lessons from old Socrates for example, often make our lives more meaningful, today,<br>when we are reminded to examine our lives so that we may learn who we are.</p>\n</div>\n<div class=\"section\">\n  <hr>\n</div>\n<div class=\"section\">\n  <p>Where Science prides its self,<br>at advancing forward.</p>\n  <p>Politics, cults, and cultures,<br>pride themselves at halting progress, at remaining the same.</p>\n  <p>Humanity must grow, both in mind, and at heart,<br>that can only be accomplished by answering the Calls to Greatness.</p>\n</div>",
  "bootstrap": "<div class=\"card card-section bg-dark text-warning shadow\">\n  <div class=\"section card-body mb-0 my-2\">\n    <div class=\"paragraph card-text card-stanza my-5 text-center\">Our hobbies, interests and curiosities,<br>are a star chart in the infinite complexity of life.</div>\n    <div class=\"paragraph card-text card-stanza my-5 text-center\">Though we can go anywhere and do anything,<br>there are certain things that call to us.</div>\n    <div class=\"paragraph card-text card-stanza my-5 text-center\">And despite orders, poverty, overwork,<br>we have to answer that call.</div>\n  </div>\n</div>\n<div class=\"mb-5 section-spacer\">&nbsp;</div>\n<div class=\"card card-section bg-dark text-warning shadow\">\n  <div class=\"section card-body mb-0 my-2\">\n    <div class=\"paragraph card-text card-stanza my-5 text-center\">As we grow and mature, and become more knowledgeable,<br>what calls to us becomes more sophisticated.</div>\n    <div class=\"paragraph card-text card-stanza my-5 text-center\">In our youth we may wish to abandon all,<br>and climb Mt. Everest.</div>\n    <div class=\"paragraph card-text card-stanza my-5 text-center\">But as we grow we become painters, sculptors, musicians and composers, thinkers, and philosophers,<br>and we share what we learned of wisdom in more profound ways.</div>\n  </div>\n</div>\n<div class=\"mb-5 section-spacer\">&nbsp;</div>\n<div class=\"card card-section bg-dark text-warning shadow\">\n  <div class=\"section card-body mb-0 my-2\">\n    <div class=\"paragraph card-text card-stanza my-5 text-center\">It is a law of the universe,<br>it is just how things are.</div>\n    <div class=\"paragraph card-text card-stanza my-5 text-center\">When we keep ignoring the call,<br>our growing up will slow down.</div>\n    <div class=\"paragraph card-text card-stanza my-5 text-center\">And our convictions no matter how real to us,<br>will become those of a person who is rejecting the calls to grow all the way up.</div>\n  </div>\n</div>\n<div class=\"mb-5 section-spacer\">&nbsp;</div>\n<div class=\"card card-section bg-dark text-warning shadow\">\n  <div class=\"section card-body mb-0 my-2\">\n    <div class=\"paragraph card-text card-stanza my-5 text-center\">That which call to us is not a game,<br>or yet another adventure.</div>\n    <div class=\"paragraph card-text card-stanza my-5 text-center\">It is greatness,<br>the very thing we discover when we grow up in wisdom.</div>\n    <div class=\"paragraph card-text card-stanza my-5 text-center\">Growing all the way up,<br>is just another way of saying \"Becoming A Great Being\"</div>\n  </div>\n</div>\n<div class=\"mb-5 section-spacer\">&nbsp;</div>\n<div class=\"card card-section bg-dark text-warning shadow\">\n  <div class=\"section card-body mb-0 my-2\">\n    <div class=\"paragraph card-text card-stanza my-5 text-center\">We have to rage ravenous,<br>against fear and through fearful things towards greatness.</div>\n    <div class=\"paragraph card-text card-stanza my-5 text-center\">We have to bellow in laughter,<br>at stupid office politics and take to endless trails.</div>\n    <div class=\"paragraph card-text card-stanza my-5 text-center\">Because we can't stay, forever childlike,<br>or forever 20, or forever 30, or 40.</div>\n  </div>\n</div>\n<div class=\"mb-5 section-spacer\">&nbsp;</div>\n<div class=\"card card-section bg-dark text-warning shadow\">\n  <div class=\"section card-body mb-0 my-2\">\n    <div class=\"paragraph card-text card-stanza my-5 text-center\">And what is this greatness,<br>why is it so great?</div>\n    <div class=\"paragraph card-text card-stanza my-5 text-center\"><a href=\"https://www.youtube.com/watch?v=k6_QUhUPrF4\">The natural born orator</a>,<br><a href=\"https://www.youtube.com/watch?v=hPSvdKTEZug\">will awaken within you</a>.</div>\n    <div class=\"paragraph card-text card-stanza my-5 text-center\"><a href=\"https://www.youtube.com/watch?v=sa1iS1MqUy4\">Out of the urge to share</a>,<br><a href=\"https://www.youtube.com/watch?v=n7IHU28aR2E\">out of the urge to speak out</a>.</div>\n  </div>\n</div>\n<div class=\"mb-5 section-spacer\">&nbsp;</div>\n<div class=\"card card-section bg-dark text-warning shadow\">\n  <div class=\"section card-body mb-0 my-2\">\n    <div class=\"paragraph card-text card-stanza my-5 text-center\">You will write poetry and books, and audio-books,<br>to tell the world about your discoveries.</div>\n    <div class=\"paragraph card-text card-stanza my-5 text-center\">To help the world become somewhat like you,<br>to change the future for better.</div>\n    <div class=\"paragraph card-text card-stanza my-5 text-center\">To answer your own questions,<br>is to become a coherent, integrated, contradiction free, and easy to understand.</div>\n  </div>\n</div>\n<div class=\"mb-5 section-spacer\">&nbsp;</div>\n<div class=\"card card-section bg-dark text-warning shadow\">\n  <div class=\"section card-body mb-0 my-2\">\n    <div class=\"paragraph card-text card-stanza my-5 text-center\">There are so many questions that people have,<br>that they sometimes can't answer.</div>\n    <div class=\"paragraph card-text card-stanza my-5 text-center\">Often for no reason at all,<br>people do things out of sequence, and prevent themselves from advancing.</div>\n    <div class=\"paragraph card-text card-stanza my-5 text-center\">Your wisdom can get them unstuck,<br>you can deliver it an a book, that they can read at home.</div>\n  </div>\n</div>\n<div class=\"mb-5 section-spacer\">&nbsp;</div>\n<div class=\"card card-section bg-dark text-warning shadow\">\n  <div class=\"section card-body mb-0 my-2\">\n    <div class=\"paragraph card-text card-stanza my-5 text-center\">These great personal journeys,<br>are for the betterment of Human Kind.</div>\n    <div class=\"paragraph card-text card-stanza my-5 text-center\">Your best discoveries will eventually be used,<br>to fix our days, to rebuild how a human life is to be lived.</div>\n    <div class=\"paragraph card-text card-stanza my-5 text-center\">Lessons from old Socrates for example, often make our lives more meaningful, today,<br>when we are reminded to examine our lives so that we may learn who we are.</div>\n  </div>\n</div>\n<div class=\"mb-5 section-spacer\">&nbsp;</div>\n<div class=\"card card-section bg-dark text-warning shadow\">\n  <div class=\"section card-body mb-0 my-2\">\n    <div class=\"paragraph card-text card-stanza my-5 text-center\">Where Science prides its self,<br>at advancing forward.</div>\n    <div class=\"paragraph card-text card-stanza my-5 text-center\">Politics, cults, and cultures,<br>pride themselves at halting progress, at remaining the same.</div>\n    <div class=\"paragraph card-text card-stanza my-5 text-center\">Humanity must grow, both in mind, and at heart,<br>that can only be accomplished by answering the Calls to Greatness.</div>\n  </div>\n</div>",
  "print": "<div class=\"section avoid-break-inside\" style=\"padding-bottom: 2rem;\">\n  <div class=\"paragraph\">Our hobbies, interests and curiosities,<br>are a star chart in the infinite complexity of life.</div>\n  <div class=\"paragraph\">Though we can go anywhere and do anything,<br>there are certain things that call to us.</div>\n  <div class=\"paragraph\">And despite orders, poverty, overwork,<br>we have to answer that call.</div>\n</div>\n<div class=\"section avoid-break-inside\" style=\"padding-bottom: 2rem;\">\n  <br>\n</div>\n<div class=\"section avoid-break-inside\" style=\"padding-bottom: 2rem;\">\n  <div class=\"paragraph\">As we grow and mature, and become more knowledgeable,<br>what calls to us becomes more sophisticated.</div>\n  <div class=\"paragraph\">In our youth we may wish to abandon all,<br>and climb Mt. Everest.</div>\n  <div class=\"paragraph\">But as we grow we become painters, sculptors, musicians and composers, thinkers, and philosophers,<br>and we share what we learned of wisdom in more profound ways.</div>\n</div>\n<div class=\"section avoid-break-inside\" style=\"padding-bottom: 2rem;\">\n  <br>\n</div>\n<div class=\"section avoid-break-inside\" style=\"padding-bottom: 2rem;\">\n  <div class=\"paragraph\">It is a law of the universe,<br>it is just how things are.</div>\n  <div class=\"paragraph\">When we keep ignoring the call,<br>our growing up will slow down.</div>\n  <div class=\"paragraph\">And our convictions no matter how real to us,<br>will become those of a person who is rejecting the calls to grow all the way up.</div>\n</div>\n<div class=\"section avoid-break-inside\" style=\"padding-bottom: 2rem;\">\n  <br>\n</div>\n<div class=\"section avoid-break-inside\" style=\"padding-bottom: 2rem;\">\n  <div class=\"paragraph\">That which call to us is not a game,<br>or yet another adventure.</div>\n  <div class=\"paragraph\">It is greatness,<br>the very thing we discover when we grow up in wisdom.</div>\n  <div class=\"paragraph\">Growing all the way up,<br>is just another way of saying \"Becoming A Great Being\"</div>\n</div>\n<div class=\"section avoid-break-inside\" style=\"padding-bottom: 2rem;\">\n  <br>\n</div>\n<div class=\"section avoid-break-inside\" style=\"padding-bottom: 2rem;\">\n  <div class=\"paragraph\">We have to rage ravenous,<br>against fear and through fearful things towards greatness.</div>\n  <div class=\"paragraph\">We have to bellow in laughter,<br>at stupid office politics and take to endless trails.</div>\n  <div class=\"paragraph\">Because we can't stay, forever childlike,<br>or forever 20, or forever 30, or 40.</div>\n</div>\n<div class=\"section avoid-break-inside\" style=\"padding-bottom: 2rem;\">\n  <br>\n</div>\n<div class=\"section avoid-break-inside\" style=\"padding-bottom: 2rem;\">\n  <div class=\"paragraph\">And what is this greatness,<br>why is it so great?</div>\n  <div class=\"paragraph\"><span>The natural born orator<sup>[1]</sup></span>,<br><span>will awaken within you<sup>[2]</sup></span>.</div>\n  <div class=\"paragraph\"><span>Out of the urge to share<sup>[3]</sup></span>,<br><span>out of the urge to speak out<sup>[4]</sup></span>.</div>\n</div>\n<div class=\"section avoid-break-inside\" style=\"padding-bottom: 2rem;\">\n  <br>\n</div>\n<div class=\"section avoid-break-inside\" style=\"padding-bottom: 2rem;\">\n  <div class=\"paragraph\">You will write poetry and books, and audio-books,<br>to tell the world about your discoveries.</div>\n  <div class=\"paragraph\">To help the world become somewhat like you,<br>to change the future for better.</div>\n  <div class=\"paragraph\">To answer your own questions,<br>is to become a coherent, integrated, contradiction free, and easy to understand.</div>\n</div>\n<div class=\"section avoid-break-inside\" style=\"padding-bottom: 2rem;\">\n  <br>\n</div>\n<div class=\"section avoid-break-inside\" style=\"padding-bottom: 2rem;\">\n  <div class=\"paragraph\">There are so many questions that people have,<br>that they sometimes can't answer.</div>\n  <div class=\"paragraph\">Often for no reason at all,<br>people do things out of sequence, and prevent themselves from advancing.</div>\n  <div class=\"paragraph\">Your wisdom can get them unstuck,<br>you can deliver it an a book, that they can read at home.</div>\n</div>\n<div class=\"section avoid-break-inside\" style=\"padding-bottom: 2rem;\">\n  <br>\n</div>\n<div class=\"section avoid-break-inside\" style=\"padding-bottom: 2rem;\">\n  <div class=\"paragraph\">These great personal journeys,<br>are for the betterment of Human Kind.</div>\n  <div class=\"paragraph\">Your best discoveries will eventually be used,<br>to fix our days, to rebuild how a human life is to be lived.</div>\n  <div class=\"paragraph\">Lessons from old Socrates for example, often make our lives more meaningful, today,<br>when we are reminded to examine our lives so that we may learn who we are.</div>\n</div>\n<div class=\"section avoid-break-inside\" style=\"padding-bottom: 2rem;\">\n  <br>\n</div>\n<div class=\"section avoid-break-inside\" style=\"padding-bottom: 2rem;\">\n  <div class=\"paragraph\">Where Science prides its self,<br>at advancing forward.</div>\n  <div class=\"paragraph\">Politics, cults, and cultures,<br>pride themselves at halting progress, at remaining the same.</div>\n  <div class=\"paragraph\">Humanity must grow, both in mind, and at heart,<br>that can only be accomplished by answering the Calls to Greatness.</div>\n</div>\n<div class=\"break-after\">&nbsp;</div>\n<div>\n  <div class=\"section\" style=\"padding-bottom: 1rem;\">References</div>\n  <div>[1]: https://www.youtube.com/watch?v=k6_QUhUPrF4</div>\n  <div>[2]: https://www.youtube.com/watch?v=hPSvdKTEZug</div>\n  <div>[3]: https://www.youtube.com/watch?v=sa1iS1MqUy4</div>\n  <div>[4]: https://www.youtube.com/watch?v=n7IHU28aR2E</div>\n</div>",
  "text": "Our hobbies, interests and curiosities,\nare a star chart in the infinite complexity of life.\nThough we can go anywhere and do anything,\nthere are certain things that call to us.\nAnd despite orders, poverty, overwork,\nwe have to answer that call.\n\nAs we grow and mature, and become more knowledgeable,\nwhat calls to us becomes more sophisticated.\nIn our youth we may wish to abandon all,\nand climb Mt. Everest.\nBut as we grow we become painters, sculptors, musicians and composers, thinkers, and philosophers,\nand we share what we learned of wisdom in more profound ways.\n\nIt is a law of the universe,\nit is just how things are.\nWhen we keep ignoring the call,\nour growing up will slow down.\nAnd our convictions no matter how real to us,\nwill become those of a person who is rejecting the calls to grow all the way up.\n\nThat which call to us is not a game,\nor yet another adventure.\nIt is greatness,\nthe very thing we discover when we grow up in wisdom.\nGrowing all the way up,\nis just another way of saying \"Becoming A Great Being\"\n\nWe have to rage ravenous,\nagainst fear and through fearful things towards greatness.\nWe have to bellow in laughter,\nat stupid office politics and take to endless trails.\nBecause we can't stay, forever childlike,\nor forever 20, or forever 30, or 40.\n\nAnd what is this greatness,\nwhy is it so great?\nThe natural born orator[1],\nwill awaken within you[2].\nOut of the urge to share[3],\nout of the urge to speak out[4].\n\nYou will write poetry and books, and audio-books,\nto tell the world about your discoveries.\nTo help the world become somewhat like you,\nto change the future for better.\nTo answer your own questions,\nis to become a coherent, integrated, contradiction free, and easy to understand.\n\nThere are so many questions that people have,\nthat they sometimes can't answer.\nOften for no reason at all,\npeople do things out of sequence, and prevent themselves from advancing.\nYour wisdom can get them unstuck,\nyou can deliver it an a book, that they can read at home.\n\nThese great personal journeys,\nare for the betterment of Human Kind.\nYour best discoveries will eventually be used,\nto fix our days, to rebuild how a human life is to be lived.\nLessons from old Socrates for example, often make our lives more meaningful, today,\nwhen we are reminded to examine our lives so that we may learn who we are.\n\nWhere Science prides its self,\nat advancing forward.\nPolitics, cults, and cultures,\npride themselves at halting progress, at remaining the same.\nHumanity must grow, both in mind, and at heart,\nthat can only be accomplished by answering the Calls to Greatness.\n \nReferences\n[1]: https://www.youtube.com/watch?v=k6_QUhUPrF4\n[2]: https://www.youtube.com/watch?v=hPSvdKTEZug\n[3]: https://www.youtube.com/watch?v=sa1iS1MqUy4\n[4]: https://www.youtube.com/watch?v=n7IHU28aR2E",
  "images": [],
  "links": [
    {
      "title": "The natural born orator",
      "url": "https://www.youtube.com/watch?v=k6_QUhUPrF4",
      "hostname": "www.youtube.com"
    },
    {
      "title": "will awaken within you",
      "url": "https://www.youtube.com/watch?v=hPSvdKTEZug",
      "hostname": "www.youtube.com"
    },
    {
      "title": "Out of the urge to share",
      "url": "https://www.youtube.com/watch?v=sa1iS1MqUy4",
      "hostname": "www.youtube.com"
    },
    {
      "title": "out of the urge to speak out",
      "url": "https://www.youtube.com/watch?v=n7IHU28aR2E",
      "hostname": "www.youtube.com"
    }
  ]
}