{
  "title": "On Finding Our Stars",
  "date": "2020-08-05T22:57:05.852Z",
  "image": "poetry-0158-illustration.jpg",
  "audio": "poetry-0158.mp3",
  "id": "furkies-purrkies-poetry-0158",
  "attachments": {},
  "guid": "dfd3087c-b8c9-4326-8fa8-cd217f9f67e9"
}
