{
  "id": "furkies-purrkies-poetry-0896",
  "title": "The Filaments, The Core, And Great Many Great Roads; Or, The Definition Of Good Art",
  "date": "2022-08-14T01:14:55.593Z",
  "image": "poetry-0896-illustration.jpg",
  "artwork": "https://catpea.com",
  "audio": "poetry-0896.mp3",
  "guid": "43c57f08-4af7-42e6-b1e4-ed87940737e1"
}
