{
  "name": "furkies-purrkies-poetry-0428",
  "title": "Little Drummer Boy",
  "date": "2021-05-02T23:36:45.195Z",
  "image": "poetry-0428-illustration.jpg",
  "audio": "poetry-0428.mp3",
  "artwork": "https://catpea.com/",
  "id": "furkies-purrkies-poetry-0428",
  "attachments": {},
  "guid": "cda04ed8-90d4-44ff-bbe1-06a1d6ea9f49",
  "html": "<div class=\"section\">\n  <p>I know not how many times I revisited this project,</p>\n  <p>how many times I rewrote this code over the years.</p>\n</div>\n\n<div class=\"section\">\n  <p>I know deep down in my bones that my code is revolutionary,</p>\n  <p>it is not inspired by <a href=\"https://www.youtube.com/user/samaaronuk\">Sam Aaron</a> though he is living that dream.</p>\n</div>\n\n<div class=\"section\">\n  <p>It is far more primal and guttural,</p>\n  <p>and it comes from an old world war two bunker filled... with arcade games.</p>\n</div>\n\n<div class=\"section\">\n  <p>I always overshot my experiments,</p>\n  <p>I used too many samples, I brought in too many risers.</p>\n</div>\n\n<div class=\"section\">\n  <p>I wasn&apos;t paying attention because I wanted to fail at everything,</p>\n  <p>as that is the most magnificent way of learning.</p>\n</div>\n\n<div class=\"section\">\n  <hr>\n</div>\n\n<div class=\"section\">\n  <p>I let one of my earlier programs run overnight,</p>\n  <p>it made 600 songs, and I worked out to them just fine.</p>\n</div>\n\n<div class=\"section\">\n  <p>They weren&apos;t bad,</p>\n  <p>but they needed to be more unique, they were reusing too many song parts.</p>\n</div>\n\n<div class=\"section\">\n  <p>I knew how to splice a song,</p>\n  <p>but I didn&apos;t know how to build it ground up.</p>\n</div>\n\n<div class=\"section\">\n  <p>Some part of me assumed,</p>\n  <p>that I would never know.</p>\n</div>\n\n<div class=\"section\">\n  <p>I knew that change was necessary,</p>\n  <p>and I pushed my tidy music generator away.</p>\n</div>\n\n<div class=\"section\">\n  <hr>\n</div>\n\n<div class=\"section\">\n  <p>And so begun my terrible mission of learning <a href=\"https://www.youtube.com/watch?v=3qfa9hGJzoY\">lmms</a>,</p>\n  <p>I figured out how to use the program pretty quickly, but I didn&apos;t know how music was built.</p>\n</div>\n\n<div class=\"section\">\n  <p>The <a href=\"https://learningmusic.ableton.com/\">Learning Music Tutorial At Ableton</a>,</p>\n  <p>helped me understand the components of a song, and notes, and octaves, and kick drums and hats.</p>\n</div>\n\n<div class=\"section\">\n  <p>The moment I knew I could make decent music in lmms,</p>\n  <p>I stopped using it, it was over, done, hasta la vista.</p>\n</div>\n\n<div class=\"section\">\n  <p>Because I knew I had to go back to my program,</p>\n  <p>to the thing that started it all.</p>\n</div>\n\n<div class=\"section\">\n  <p>I can teach lmms,</p>\n  <p>but I should not use it to just make songs.</p>\n</div>\n\n<div class=\"section\">\n  <hr>\n</div>\n\n<div class=\"section\">\n  <p>I matured, musically speaking,</p>\n  <p>but I am not a musician, I am at zero, though not in the minus anymore.</p>\n</div>\n\n<div class=\"section\">\n  <p>I understand what C4 means,</p>\n  <p>I knew that before, but because of 2n, or 4n, notation that would frequently go along with the notes I felt I didn&apos;t know enough.</p>\n</div>\n\n<div class=\"section\">\n  <p>Now, I am not intimidates, 4n means quarter note,</p>\n  <p>it does not mean four notes as one would guess.</p>\n</div>\n\n<div class=\"section\">\n  <p>It is duration notation, it means a thing will go off four times within the space of a single note,</p>\n  <p>or it will last quarter of a note, it is notation for units of time.</p>\n</div>\n\n<div class=\"section\">\n  <p>And I also know, there isn&apos;t much more than that,</p>\n  <p>some exotic notation for chords perhaps, but I also know that chord theory can be pushed aside.</p>\n</div>\n\n<div class=\"section\">\n  <hr>\n</div>\n\n<div class=\"section\">\n  <p>Today is the first day,</p>\n  <p>that I have this program on my screen.</p>\n</div>\n\n<div class=\"section\">\n  <p>And I only told it to beat the drum,</p>\n  <p>I now understand that the OOP class named Membrane Synth.</p>\n</div>\n\n<div class=\"section\">\n  <p>Is referring to the membrane that is stretched over a drum,</p>\n  <p>I would normally assume that it is some kind of a synthesizer patch solution patter magic, but it is just a cute name for a drum synthesizer.</p>\n</div>\n\n<div class=\"section\">\n  <p>I kept my previous experiments to myself,</p>\n  <p>but this one is published on the internet as open source and I named it <a href=\"https://github.com/catpea/westland\">westland</a></p>\n</div>\n\n<div class=\"section\">\n  <p>It it used Tidal notation for construction of music,</p>\n  <p>basically, if you are playing in the world of a quarter note, or 4n...</p>\n</div>\n\n<div class=\"section\">\n  <p>You have four spots reserved for yourself,</p>\n  <p>if you just use one spot, it will be multiplied four times.</p>\n</div>\n\n<div class=\"section\">\n  <p>But you are also allowed to use two notes in a singe spot,</p>\n  <p>and they will hit at the speed of an eights note, or 8n.</p>\n</div>\n\n<div class=\"section\">\n  <p>The JavaScript array which is defined with square brackets,</p>\n  <p>simply has another array embedded in it where the singe note used to be;</p>\n</div>\n\n<div class=\"section\">\n  <p>So it goes from [&quot;F4&quot;, &quot;F4&quot;, &quot;F4&quot;, &quot;F4&quot; ] which plays at the actual beats per minute of a song,</p>\n  <p>to [&quot;F4&quot;, &quot;F4&quot;, [&quot;F4&quot;,&quot;F4&quot;], &quot;F4&quot;, ] and that plays the square bracket with the square bracket notes twice as fast.</p>\n</div>\n\n<div class=\"section\">\n  <p>This may sound weird, but you have to calm down from thinking computers,</p>\n  <p>into the world where people would try to make music by banging sticks on a tree.</p>\n</div>\n\n<div class=\"section\">\n  <p>If you just hit the tree in succession,</p>\n  <p>it will sound boring, if you whack it faster couple of time, it will sound like rock and roll.</p>\n</div>\n\n<div class=\"section\">\n  <hr>\n</div>\n\n<div class=\"section\">\n  <p>Unlike Mr. Aaron,</p>\n  <p>I need this music to be automatically generated by a computer.</p>\n</div>\n\n<div class=\"section\">\n  <p>Within that <a href=\"/audio/membrane-synth.mp3\">terrible repetitive beat</a>,</p>\n  <p>I will be focusing on creating symmetrical erosion of the beat pattern to create room for the dancers to do their tricks.</p>\n</div>\n\n<div class=\"section\">\n  <p>I will be applying filters and transformers,</p>\n  <p>to that beautifully simple Tidal notation of [&quot;F4&quot;, &quot;F4&quot;, [&quot;F4&quot;,&quot;F4&quot;], &quot;F4&quot;].</p>\n</div>\n\n<div class=\"section\">\n  <p>And this time, I am going to stick with the synthesizer,</p>\n  <p>the program as a whole is just 18.3 kB, that is very tiny.</p>\n</div>\n\n<div class=\"section\">\n  <hr>\n</div>\n\n<div class=\"section\">\n  <p>I hope a day will come where I will be able to generate fantastic dance and workout albums,</p>\n  <p>which will contain music made by a machine, and thus never heard before.</p>\n</div>\n\n<div class=\"section\">\n  <p>It will still sound like popular Electronic Dance Music,</p>\n  <p>but each song will come as a surprise every time.</p>\n</div>\n\n<div class=\"section\">\n  <p>Randomly configured classes of instruments,</p>\n  <p>coming together to create songs respectful of dancers.</p>\n</div>\n\n<div class=\"section\">\n  <p>A lot of today&apos;s music is very distracting,</p>\n  <p>it is really difficult to find the right setup.</p>\n</div>\n\n<div class=\"section\">\n  <p>And it is not even possible to share workout music,</p>\n  <p>what a terrible mess.</p>\n</div>\n\n<div class=\"section\">\n  <p>If you fell like programming, or learning how to program music, Dear Reader,</p>\n  <p>fork <a href=\"https://www.npmjs.com/package/westland\">westland</a> on github, which you can find on npm... and make it your own.</p>\n</div>\n\n<div class=\"section\">\n  <p>May the magnificent Tidal notation,</p>\n  <p>keep you wide awake at night.</p>\n</div>",
  "bootstrap": "<div class=\"card card-section bg-dark text-warning shadow\">\n  <div class=\"section card-body mb-0 my-2\">\n    <div class=\"paragraph card-text card-stanza my-5 text-center\">I know not how many times I revisited this project,</div>\n    <div class=\"paragraph card-text card-stanza my-5 text-center\">how many times I rewrote this code over the years.</div>\n  </div>\n</div>\n<div class=\"card card-section bg-dark text-warning shadow\">\n  <div class=\"section card-body mb-0 my-2\">\n    <div class=\"paragraph card-text card-stanza my-5 text-center\">I know deep down in my bones that my code is revolutionary,</div>\n    <div class=\"paragraph card-text card-stanza my-5 text-center\">it is not inspired by <a href=\"https://www.youtube.com/user/samaaronuk\">Sam Aaron</a> though he is living that dream.</div>\n  </div>\n</div>\n<div class=\"card card-section bg-dark text-warning shadow\">\n  <div class=\"section card-body mb-0 my-2\">\n    <div class=\"paragraph card-text card-stanza my-5 text-center\">It is far more primal and guttural,</div>\n    <div class=\"paragraph card-text card-stanza my-5 text-center\">and it comes from an old world war two bunker filled... with arcade games.</div>\n  </div>\n</div>\n<div class=\"card card-section bg-dark text-warning shadow\">\n  <div class=\"section card-body mb-0 my-2\">\n    <div class=\"paragraph card-text card-stanza my-5 text-center\">I always overshot my experiments,</div>\n    <div class=\"paragraph card-text card-stanza my-5 text-center\">I used too many samples, I brought in too many risers.</div>\n  </div>\n</div>\n<div class=\"card card-section bg-dark text-warning shadow\">\n  <div class=\"section card-body mb-0 my-2\">\n    <div class=\"paragraph card-text card-stanza my-5 text-center\">I wasn't paying attention because I wanted to fail at everything,</div>\n    <div class=\"paragraph card-text card-stanza my-5 text-center\">as that is the most magnificent way of learning.</div>\n  </div>\n</div>\n<div class=\"mb-5 section-spacer\">&nbsp;</div>\n<div class=\"card card-section bg-dark text-warning shadow\">\n  <div class=\"section card-body mb-0 my-2\">\n    <div class=\"paragraph card-text card-stanza my-5 text-center\">I let one of my earlier programs run overnight,</div>\n    <div class=\"paragraph card-text card-stanza my-5 text-center\">it made 600 songs, and I worked out to them just fine.</div>\n  </div>\n</div>\n<div class=\"card card-section bg-dark text-warning shadow\">\n  <div class=\"section card-body mb-0 my-2\">\n    <div class=\"paragraph card-text card-stanza my-5 text-center\">They weren't bad,</div>\n    <div class=\"paragraph card-text card-stanza my-5 text-center\">but they needed to be more unique, they were reusing too many song parts.</div>\n  </div>\n</div>\n<div class=\"card card-section bg-dark text-warning shadow\">\n  <div class=\"section card-body mb-0 my-2\">\n    <div class=\"paragraph card-text card-stanza my-5 text-center\">I knew how to splice a song,</div>\n    <div class=\"paragraph card-text card-stanza my-5 text-center\">but I didn't know how to build it ground up.</div>\n  </div>\n</div>\n<div class=\"card card-section bg-dark text-warning shadow\">\n  <div class=\"section card-body mb-0 my-2\">\n    <div class=\"paragraph card-text card-stanza my-5 text-center\">Some part of me assumed,</div>\n    <div class=\"paragraph card-text card-stanza my-5 text-center\">that I would never know.</div>\n  </div>\n</div>\n<div class=\"card card-section bg-dark text-warning shadow\">\n  <div class=\"section card-body mb-0 my-2\">\n    <div class=\"paragraph card-text card-stanza my-5 text-center\">I knew that change was necessary,</div>\n    <div class=\"paragraph card-text card-stanza my-5 text-center\">and I pushed my tidy music generator away.</div>\n  </div>\n</div>\n<div class=\"mb-5 section-spacer\">&nbsp;</div>\n<div class=\"card card-section bg-dark text-warning shadow\">\n  <div class=\"section card-body mb-0 my-2\">\n    <div class=\"paragraph card-text card-stanza my-5 text-center\">And so begun my terrible mission of learning <a href=\"https://www.youtube.com/watch?v=3qfa9hGJzoY\">lmms</a>,</div>\n    <div class=\"paragraph card-text card-stanza my-5 text-center\">I figured out how to use the program pretty quickly, but I didn't know how music was built.</div>\n  </div>\n</div>\n<div class=\"card card-section bg-dark text-warning shadow\">\n  <div class=\"section card-body mb-0 my-2\">\n    <div class=\"paragraph card-text card-stanza my-5 text-center\">The <a href=\"https://learningmusic.ableton.com/\">Learning Music Tutorial At Ableton</a>,</div>\n    <div class=\"paragraph card-text card-stanza my-5 text-center\">helped me understand the components of a song, and notes, and octaves, and kick drums and hats.</div>\n  </div>\n</div>\n<div class=\"card card-section bg-dark text-warning shadow\">\n  <div class=\"section card-body mb-0 my-2\">\n    <div class=\"paragraph card-text card-stanza my-5 text-center\">The moment I knew I could make decent music in lmms,</div>\n    <div class=\"paragraph card-text card-stanza my-5 text-center\">I stopped using it, it was over, done, hasta la vista.</div>\n  </div>\n</div>\n<div class=\"card card-section bg-dark text-warning shadow\">\n  <div class=\"section card-body mb-0 my-2\">\n    <div class=\"paragraph card-text card-stanza my-5 text-center\">Because I knew I had to go back to my program,</div>\n    <div class=\"paragraph card-text card-stanza my-5 text-center\">to the thing that started it all.</div>\n  </div>\n</div>\n<div class=\"card card-section bg-dark text-warning shadow\">\n  <div class=\"section card-body mb-0 my-2\">\n    <div class=\"paragraph card-text card-stanza my-5 text-center\">I can teach lmms,</div>\n    <div class=\"paragraph card-text card-stanza my-5 text-center\">but I should not use it to just make songs.</div>\n  </div>\n</div>\n<div class=\"mb-5 section-spacer\">&nbsp;</div>\n<div class=\"card card-section bg-dark text-warning shadow\">\n  <div class=\"section card-body mb-0 my-2\">\n    <div class=\"paragraph card-text card-stanza my-5 text-center\">I matured, musically speaking,</div>\n    <div class=\"paragraph card-text card-stanza my-5 text-center\">but I am not a musician, I am at zero, though not in the minus anymore.</div>\n  </div>\n</div>\n<div class=\"card card-section bg-dark text-warning shadow\">\n  <div class=\"section card-body mb-0 my-2\">\n    <div class=\"paragraph card-text card-stanza my-5 text-center\">I understand what C4 means,</div>\n    <div class=\"paragraph card-text card-stanza my-5 text-center\">I knew that before, but because of 2n, or 4n, notation that would frequently go along with the notes I felt I didn't know enough.</div>\n  </div>\n</div>\n<div class=\"card card-section bg-dark text-warning shadow\">\n  <div class=\"section card-body mb-0 my-2\">\n    <div class=\"paragraph card-text card-stanza my-5 text-center\">Now, I am not intimidates, 4n means quarter note,</div>\n    <div class=\"paragraph card-text card-stanza my-5 text-center\">it does not mean four notes as one would guess.</div>\n  </div>\n</div>\n<div class=\"card card-section bg-dark text-warning shadow\">\n  <div class=\"section card-body mb-0 my-2\">\n    <div class=\"paragraph card-text card-stanza my-5 text-center\">It is duration notation, it means a thing will go off four times within the space of a single note,</div>\n    <div class=\"paragraph card-text card-stanza my-5 text-center\">or it will last quarter of a note, it is notation for units of time.</div>\n  </div>\n</div>\n<div class=\"card card-section bg-dark text-warning shadow\">\n  <div class=\"section card-body mb-0 my-2\">\n    <div class=\"paragraph card-text card-stanza my-5 text-center\">And I also know, there isn't much more than that,</div>\n    <div class=\"paragraph card-text card-stanza my-5 text-center\">some exotic notation for chords perhaps, but I also know that chord theory can be pushed aside.</div>\n  </div>\n</div>\n<div class=\"mb-5 section-spacer\">&nbsp;</div>\n<div class=\"card card-section bg-dark text-warning shadow\">\n  <div class=\"section card-body mb-0 my-2\">\n    <div class=\"paragraph card-text card-stanza my-5 text-center\">Today is the first day,</div>\n    <div class=\"paragraph card-text card-stanza my-5 text-center\">that I have this program on my screen.</div>\n  </div>\n</div>\n<div class=\"card card-section bg-dark text-warning shadow\">\n  <div class=\"section card-body mb-0 my-2\">\n    <div class=\"paragraph card-text card-stanza my-5 text-center\">And I only told it to beat the drum,</div>\n    <div class=\"paragraph card-text card-stanza my-5 text-center\">I now understand that the OOP class named Membrane Synth.</div>\n  </div>\n</div>\n<div class=\"card card-section bg-dark text-warning shadow\">\n  <div class=\"section card-body mb-0 my-2\">\n    <div class=\"paragraph card-text card-stanza my-5 text-center\">Is referring to the membrane that is stretched over a drum,</div>\n    <div class=\"paragraph card-text card-stanza my-5 text-center\">I would normally assume that it is some kind of a synthesizer patch solution patter magic, but it is just a cute name for a drum synthesizer.</div>\n  </div>\n</div>\n<div class=\"card card-section bg-dark text-warning shadow\">\n  <div class=\"section card-body mb-0 my-2\">\n    <div class=\"paragraph card-text card-stanza my-5 text-center\">I kept my previous experiments to myself,</div>\n    <div class=\"paragraph card-text card-stanza my-5 text-center\">but this one is published on the internet as open source and I named it <a href=\"https://github.com/catpea/westland\">westland</a></div>\n  </div>\n</div>\n<div class=\"card card-section bg-dark text-warning shadow\">\n  <div class=\"section card-body mb-0 my-2\">\n    <div class=\"paragraph card-text card-stanza my-5 text-center\">It it used Tidal notation for construction of music,</div>\n    <div class=\"paragraph card-text card-stanza my-5 text-center\">basically, if you are playing in the world of a quarter note, or 4n...</div>\n  </div>\n</div>\n<div class=\"card card-section bg-dark text-warning shadow\">\n  <div class=\"section card-body mb-0 my-2\">\n    <div class=\"paragraph card-text card-stanza my-5 text-center\">You have four spots reserved for yourself,</div>\n    <div class=\"paragraph card-text card-stanza my-5 text-center\">if you just use one spot, it will be multiplied four times.</div>\n  </div>\n</div>\n<div class=\"card card-section bg-dark text-warning shadow\">\n  <div class=\"section card-body mb-0 my-2\">\n    <div class=\"paragraph card-text card-stanza my-5 text-center\">But you are also allowed to use two notes in a singe spot,</div>\n    <div class=\"paragraph card-text card-stanza my-5 text-center\">and they will hit at the speed of an eights note, or 8n.</div>\n  </div>\n</div>\n<div class=\"card card-section bg-dark text-warning shadow\">\n  <div class=\"section card-body mb-0 my-2\">\n    <div class=\"paragraph card-text card-stanza my-5 text-center\">The JavaScript array which is defined with square brackets,</div>\n    <div class=\"paragraph card-text card-stanza my-5 text-center\">simply has another array embedded in it where the singe note used to be;</div>\n  </div>\n</div>\n<div class=\"card card-section bg-dark text-warning shadow\">\n  <div class=\"section card-body mb-0 my-2\">\n    <div class=\"paragraph card-text card-stanza my-5 text-center\">So it goes from [\"F4\", \"F4\", \"F4\", \"F4\" ] which plays at the actual beats per minute of a song,</div>\n    <div class=\"paragraph card-text card-stanza my-5 text-center\">to [\"F4\", \"F4\", [\"F4\",\"F4\"], \"F4\", ] and that plays the square bracket with the square bracket notes twice as fast.</div>\n  </div>\n</div>\n<div class=\"card card-section bg-dark text-warning shadow\">\n  <div class=\"section card-body mb-0 my-2\">\n    <div class=\"paragraph card-text card-stanza my-5 text-center\">This may sound weird, but you have to calm down from thinking computers,</div>\n    <div class=\"paragraph card-text card-stanza my-5 text-center\">into the world where people would try to make music by banging sticks on a tree.</div>\n  </div>\n</div>\n<div class=\"card card-section bg-dark text-warning shadow\">\n  <div class=\"section card-body mb-0 my-2\">\n    <div class=\"paragraph card-text card-stanza my-5 text-center\">If you just hit the tree in succession,</div>\n    <div class=\"paragraph card-text card-stanza my-5 text-center\">it will sound boring, if you whack it faster couple of time, it will sound like rock and roll.</div>\n  </div>\n</div>\n<div class=\"mb-5 section-spacer\">&nbsp;</div>\n<div class=\"card card-section bg-dark text-warning shadow\">\n  <div class=\"section card-body mb-0 my-2\">\n    <div class=\"paragraph card-text card-stanza my-5 text-center\">Unlike Mr. Aaron,</div>\n    <div class=\"paragraph card-text card-stanza my-5 text-center\">I need this music to be automatically generated by a computer.</div>\n  </div>\n</div>\n<div class=\"card card-section bg-dark text-warning shadow\">\n  <div class=\"section card-body mb-0 my-2\">\n    <div class=\"paragraph card-text card-stanza my-5 text-center\">Within that <a href=\"/audio/membrane-synth.mp3\">terrible repetitive beat</a>,</div>\n    <div class=\"paragraph card-text card-stanza my-5 text-center\">I will be focusing on creating symmetrical erosion of the beat pattern to create room for the dancers to do their tricks.</div>\n  </div>\n</div>\n<div class=\"card card-section bg-dark text-warning shadow\">\n  <div class=\"section card-body mb-0 my-2\">\n    <div class=\"paragraph card-text card-stanza my-5 text-center\">I will be applying filters and transformers,</div>\n    <div class=\"paragraph card-text card-stanza my-5 text-center\">to that beautifully simple Tidal notation of [\"F4\", \"F4\", [\"F4\",\"F4\"], \"F4\"].</div>\n  </div>\n</div>\n<div class=\"card card-section bg-dark text-warning shadow\">\n  <div class=\"section card-body mb-0 my-2\">\n    <div class=\"paragraph card-text card-stanza my-5 text-center\">And this time, I am going to stick with the synthesizer,</div>\n    <div class=\"paragraph card-text card-stanza my-5 text-center\">the program as a whole is just 18.3 kB, that is very tiny.</div>\n  </div>\n</div>\n<div class=\"mb-5 section-spacer\">&nbsp;</div>\n<div class=\"card card-section bg-dark text-warning shadow\">\n  <div class=\"section card-body mb-0 my-2\">\n    <div class=\"paragraph card-text card-stanza my-5 text-center\">I hope a day will come where I will be able to generate fantastic dance and workout albums,</div>\n    <div class=\"paragraph card-text card-stanza my-5 text-center\">which will contain music made by a machine, and thus never heard before.</div>\n  </div>\n</div>\n<div class=\"card card-section bg-dark text-warning shadow\">\n  <div class=\"section card-body mb-0 my-2\">\n    <div class=\"paragraph card-text card-stanza my-5 text-center\">It will still sound like popular Electronic Dance Music,</div>\n    <div class=\"paragraph card-text card-stanza my-5 text-center\">but each song will come as a surprise every time.</div>\n  </div>\n</div>\n<div class=\"card card-section bg-dark text-warning shadow\">\n  <div class=\"section card-body mb-0 my-2\">\n    <div class=\"paragraph card-text card-stanza my-5 text-center\">Randomly configured classes of instruments,</div>\n    <div class=\"paragraph card-text card-stanza my-5 text-center\">coming together to create songs respectful of dancers.</div>\n  </div>\n</div>\n<div class=\"card card-section bg-dark text-warning shadow\">\n  <div class=\"section card-body mb-0 my-2\">\n    <div class=\"paragraph card-text card-stanza my-5 text-center\">A lot of today's music is very distracting,</div>\n    <div class=\"paragraph card-text card-stanza my-5 text-center\">it is really difficult to find the right setup.</div>\n  </div>\n</div>\n<div class=\"card card-section bg-dark text-warning shadow\">\n  <div class=\"section card-body mb-0 my-2\">\n    <div class=\"paragraph card-text card-stanza my-5 text-center\">And it is not even possible to share workout music,</div>\n    <div class=\"paragraph card-text card-stanza my-5 text-center\">what a terrible mess.</div>\n  </div>\n</div>\n<div class=\"card card-section bg-dark text-warning shadow\">\n  <div class=\"section card-body mb-0 my-2\">\n    <div class=\"paragraph card-text card-stanza my-5 text-center\">If you fell like programming, or learning how to program music, Dear Reader,</div>\n    <div class=\"paragraph card-text card-stanza my-5 text-center\">fork <a href=\"https://www.npmjs.com/package/westland\">westland</a> on github, which you can find on npm... and make it your own.</div>\n  </div>\n</div>\n<div class=\"card card-section bg-dark text-warning shadow\">\n  <div class=\"section card-body mb-0 my-2\">\n    <div class=\"paragraph card-text card-stanza my-5 text-center\">May the magnificent Tidal notation,</div>\n    <div class=\"paragraph card-text card-stanza my-5 text-center\">keep you wide awake at night.</div>\n  </div>\n</div>",
  "print": "<div class=\"section avoid-break-inside\" style=\"padding-bottom: 2rem;\">\n  <div class=\"paragraph\">I know not how many times I revisited this project,</div>\n  <div class=\"paragraph\">how many times I rewrote this code over the years.</div>\n</div>\n<div class=\"section avoid-break-inside\" style=\"padding-bottom: 2rem;\">\n  <div class=\"paragraph\">I know deep down in my bones that my code is revolutionary,</div>\n  <div class=\"paragraph\">it is not inspired by <span>Sam Aaron<sup>[1]</sup></span> though he is living that dream.</div>\n</div>\n<div class=\"section avoid-break-inside\" style=\"padding-bottom: 2rem;\">\n  <div class=\"paragraph\">It is far more primal and guttural,</div>\n  <div class=\"paragraph\">and it comes from an old world war two bunker filled... with arcade games.</div>\n</div>\n<div class=\"section avoid-break-inside\" style=\"padding-bottom: 2rem;\">\n  <div class=\"paragraph\">I always overshot my experiments,</div>\n  <div class=\"paragraph\">I used too many samples, I brought in too many risers.</div>\n</div>\n<div class=\"section avoid-break-inside\" style=\"padding-bottom: 2rem;\">\n  <div class=\"paragraph\">I wasn't paying attention because I wanted to fail at everything,</div>\n  <div class=\"paragraph\">as that is the most magnificent way of learning.</div>\n</div>\n<div class=\"section avoid-break-inside\" style=\"padding-bottom: 2rem;\">\n  <br>\n</div>\n<div class=\"section avoid-break-inside\" style=\"padding-bottom: 2rem;\">\n  <div class=\"paragraph\">I let one of my earlier programs run overnight,</div>\n  <div class=\"paragraph\">it made 600 songs, and I worked out to them just fine.</div>\n</div>\n<div class=\"section avoid-break-inside\" style=\"padding-bottom: 2rem;\">\n  <div class=\"paragraph\">They weren't bad,</div>\n  <div class=\"paragraph\">but they needed to be more unique, they were reusing too many song parts.</div>\n</div>\n<div class=\"section avoid-break-inside\" style=\"padding-bottom: 2rem;\">\n  <div class=\"paragraph\">I knew how to splice a song,</div>\n  <div class=\"paragraph\">but I didn't know how to build it ground up.</div>\n</div>\n<div class=\"section avoid-break-inside\" style=\"padding-bottom: 2rem;\">\n  <div class=\"paragraph\">Some part of me assumed,</div>\n  <div class=\"paragraph\">that I would never know.</div>\n</div>\n<div class=\"section avoid-break-inside\" style=\"padding-bottom: 2rem;\">\n  <div class=\"paragraph\">I knew that change was necessary,</div>\n  <div class=\"paragraph\">and I pushed my tidy music generator away.</div>\n</div>\n<div class=\"section avoid-break-inside\" style=\"padding-bottom: 2rem;\">\n  <br>\n</div>\n<div class=\"section avoid-break-inside\" style=\"padding-bottom: 2rem;\">\n  <div class=\"paragraph\">And so begun my terrible mission of learning <span>lmms<sup>[2]</sup></span>,</div>\n  <div class=\"paragraph\">I figured out how to use the program pretty quickly, but I didn't know how music was built.</div>\n</div>\n<div class=\"section avoid-break-inside\" style=\"padding-bottom: 2rem;\">\n  <div class=\"paragraph\">The <span>Learning Music Tutorial At Ableton<sup>[3]</sup></span>,</div>\n  <div class=\"paragraph\">helped me understand the components of a song, and notes, and octaves, and kick drums and hats.</div>\n</div>\n<div class=\"section avoid-break-inside\" style=\"padding-bottom: 2rem;\">\n  <div class=\"paragraph\">The moment I knew I could make decent music in lmms,</div>\n  <div class=\"paragraph\">I stopped using it, it was over, done, hasta la vista.</div>\n</div>\n<div class=\"section avoid-break-inside\" style=\"padding-bottom: 2rem;\">\n  <div class=\"paragraph\">Because I knew I had to go back to my program,</div>\n  <div class=\"paragraph\">to the thing that started it all.</div>\n</div>\n<div class=\"section avoid-break-inside\" style=\"padding-bottom: 2rem;\">\n  <div class=\"paragraph\">I can teach lmms,</div>\n  <div class=\"paragraph\">but I should not use it to just make songs.</div>\n</div>\n<div class=\"section avoid-break-inside\" style=\"padding-bottom: 2rem;\">\n  <br>\n</div>\n<div class=\"section avoid-break-inside\" style=\"padding-bottom: 2rem;\">\n  <div class=\"paragraph\">I matured, musically speaking,</div>\n  <div class=\"paragraph\">but I am not a musician, I am at zero, though not in the minus anymore.</div>\n</div>\n<div class=\"section avoid-break-inside\" style=\"padding-bottom: 2rem;\">\n  <div class=\"paragraph\">I understand what C4 means,</div>\n  <div class=\"paragraph\">I knew that before, but because of 2n, or 4n, notation that would frequently go along with the notes I felt I didn't know enough.</div>\n</div>\n<div class=\"section avoid-break-inside\" style=\"padding-bottom: 2rem;\">\n  <div class=\"paragraph\">Now, I am not intimidates, 4n means quarter note,</div>\n  <div class=\"paragraph\">it does not mean four notes as one would guess.</div>\n</div>\n<div class=\"section avoid-break-inside\" style=\"padding-bottom: 2rem;\">\n  <div class=\"paragraph\">It is duration notation, it means a thing will go off four times within the space of a single note,</div>\n  <div class=\"paragraph\">or it will last quarter of a note, it is notation for units of time.</div>\n</div>\n<div class=\"section avoid-break-inside\" style=\"padding-bottom: 2rem;\">\n  <div class=\"paragraph\">And I also know, there isn't much more than that,</div>\n  <div class=\"paragraph\">some exotic notation for chords perhaps, but I also know that chord theory can be pushed aside.</div>\n</div>\n<div class=\"section avoid-break-inside\" style=\"padding-bottom: 2rem;\">\n  <br>\n</div>\n<div class=\"section avoid-break-inside\" style=\"padding-bottom: 2rem;\">\n  <div class=\"paragraph\">Today is the first day,</div>\n  <div class=\"paragraph\">that I have this program on my screen.</div>\n</div>\n<div class=\"section avoid-break-inside\" style=\"padding-bottom: 2rem;\">\n  <div class=\"paragraph\">And I only told it to beat the drum,</div>\n  <div class=\"paragraph\">I now understand that the OOP class named Membrane Synth.</div>\n</div>\n<div class=\"section avoid-break-inside\" style=\"padding-bottom: 2rem;\">\n  <div class=\"paragraph\">Is referring to the membrane that is stretched over a drum,</div>\n  <div class=\"paragraph\">I would normally assume that it is some kind of a synthesizer patch solution patter magic, but it is just a cute name for a drum synthesizer.</div>\n</div>\n<div class=\"section avoid-break-inside\" style=\"padding-bottom: 2rem;\">\n  <div class=\"paragraph\">I kept my previous experiments to myself,</div>\n  <div class=\"paragraph\">but this one is published on the internet as open source and I named it <span>westland<sup>[4]</sup></span></div>\n</div>\n<div class=\"section avoid-break-inside\" style=\"padding-bottom: 2rem;\">\n  <div class=\"paragraph\">It it used Tidal notation for construction of music,</div>\n  <div class=\"paragraph\">basically, if you are playing in the world of a quarter note, or 4n...</div>\n</div>\n<div class=\"section avoid-break-inside\" style=\"padding-bottom: 2rem;\">\n  <div class=\"paragraph\">You have four spots reserved for yourself,</div>\n  <div class=\"paragraph\">if you just use one spot, it will be multiplied four times.</div>\n</div>\n<div class=\"section avoid-break-inside\" style=\"padding-bottom: 2rem;\">\n  <div class=\"paragraph\">But you are also allowed to use two notes in a singe spot,</div>\n  <div class=\"paragraph\">and they will hit at the speed of an eights note, or 8n.</div>\n</div>\n<div class=\"section avoid-break-inside\" style=\"padding-bottom: 2rem;\">\n  <div class=\"paragraph\">The JavaScript array which is defined with square brackets,</div>\n  <div class=\"paragraph\">simply has another array embedded in it where the singe note used to be;</div>\n</div>\n<div class=\"section avoid-break-inside\" style=\"padding-bottom: 2rem;\">\n  <div class=\"paragraph\">So it goes from [\"F4\", \"F4\", \"F4\", \"F4\" ] which plays at the actual beats per minute of a song,</div>\n  <div class=\"paragraph\">to [\"F4\", \"F4\", [\"F4\",\"F4\"], \"F4\", ] and that plays the square bracket with the square bracket notes twice as fast.</div>\n</div>\n<div class=\"section avoid-break-inside\" style=\"padding-bottom: 2rem;\">\n  <div class=\"paragraph\">This may sound weird, but you have to calm down from thinking computers,</div>\n  <div class=\"paragraph\">into the world where people would try to make music by banging sticks on a tree.</div>\n</div>\n<div class=\"section avoid-break-inside\" style=\"padding-bottom: 2rem;\">\n  <div class=\"paragraph\">If you just hit the tree in succession,</div>\n  <div class=\"paragraph\">it will sound boring, if you whack it faster couple of time, it will sound like rock and roll.</div>\n</div>\n<div class=\"section avoid-break-inside\" style=\"padding-bottom: 2rem;\">\n  <br>\n</div>\n<div class=\"section avoid-break-inside\" style=\"padding-bottom: 2rem;\">\n  <div class=\"paragraph\">Unlike Mr. Aaron,</div>\n  <div class=\"paragraph\">I need this music to be automatically generated by a computer.</div>\n</div>\n<div class=\"section avoid-break-inside\" style=\"padding-bottom: 2rem;\">\n  <div class=\"paragraph\">Within that <span>terrible repetitive beat<sup>[5]</sup></span>,</div>\n  <div class=\"paragraph\">I will be focusing on creating symmetrical erosion of the beat pattern to create room for the dancers to do their tricks.</div>\n</div>\n<div class=\"section avoid-break-inside\" style=\"padding-bottom: 2rem;\">\n  <div class=\"paragraph\">I will be applying filters and transformers,</div>\n  <div class=\"paragraph\">to that beautifully simple Tidal notation of [\"F4\", \"F4\", [\"F4\",\"F4\"], \"F4\"].</div>\n</div>\n<div class=\"section avoid-break-inside\" style=\"padding-bottom: 2rem;\">\n  <div class=\"paragraph\">And this time, I am going to stick with the synthesizer,</div>\n  <div class=\"paragraph\">the program as a whole is just 18.3 kB, that is very tiny.</div>\n</div>\n<div class=\"section avoid-break-inside\" style=\"padding-bottom: 2rem;\">\n  <br>\n</div>\n<div class=\"section avoid-break-inside\" style=\"padding-bottom: 2rem;\">\n  <div class=\"paragraph\">I hope a day will come where I will be able to generate fantastic dance and workout albums,</div>\n  <div class=\"paragraph\">which will contain music made by a machine, and thus never heard before.</div>\n</div>\n<div class=\"section avoid-break-inside\" style=\"padding-bottom: 2rem;\">\n  <div class=\"paragraph\">It will still sound like popular Electronic Dance Music,</div>\n  <div class=\"paragraph\">but each song will come as a surprise every time.</div>\n</div>\n<div class=\"section avoid-break-inside\" style=\"padding-bottom: 2rem;\">\n  <div class=\"paragraph\">Randomly configured classes of instruments,</div>\n  <div class=\"paragraph\">coming together to create songs respectful of dancers.</div>\n</div>\n<div class=\"section avoid-break-inside\" style=\"padding-bottom: 2rem;\">\n  <div class=\"paragraph\">A lot of today's music is very distracting,</div>\n  <div class=\"paragraph\">it is really difficult to find the right setup.</div>\n</div>\n<div class=\"section avoid-break-inside\" style=\"padding-bottom: 2rem;\">\n  <div class=\"paragraph\">And it is not even possible to share workout music,</div>\n  <div class=\"paragraph\">what a terrible mess.</div>\n</div>\n<div class=\"section avoid-break-inside\" style=\"padding-bottom: 2rem;\">\n  <div class=\"paragraph\">If you fell like programming, or learning how to program music, Dear Reader,</div>\n  <div class=\"paragraph\">fork <span>westland<sup>[6]</sup></span> on github, which you can find on npm... and make it your own.</div>\n</div>\n<div class=\"section avoid-break-inside\" style=\"padding-bottom: 2rem;\">\n  <div class=\"paragraph\">May the magnificent Tidal notation,</div>\n  <div class=\"paragraph\">keep you wide awake at night.</div>\n</div>\n<div class=\"break-after\">&nbsp;</div>\n<div>\n  <div class=\"section\" style=\"padding-bottom: 1rem;\">References</div>\n  <div>[1]: https://www.youtube.com/user/samaaronuk</div>\n  <div>[2]: https://www.youtube.com/watch?v=3qfa9hGJzoY</div>\n  <div>[3]: https://learningmusic.ableton.com/</div>\n  <div>[4]: https://github.com/catpea/westland</div>\n  <div>[5]: /audio/membrane-synth.mp3</div>\n  <div>[6]: https://www.npmjs.com/package/westland</div>\n</div>",
  "text": "I know not how many times I revisited this project,\nhow many times I rewrote this code over the years.\nI know deep down in my bones that my code is revolutionary,\nit is not inspired by Sam Aaron[1] though he is living that dream.\nIt is far more primal and guttural,\nand it comes from an old world war two bunker filled... with arcade games.\nI always overshot my experiments,\nI used too many samples, I brought in too many risers.\nI wasn't paying attention because I wanted to fail at everything,\nas that is the most magnificent way of learning.\n\nI let one of my earlier programs run overnight,\nit made 600 songs, and I worked out to them just fine.\nThey weren't bad,\nbut they needed to be more unique, they were reusing too many song parts.\nI knew how to splice a song,\nbut I didn't know how to build it ground up.\nSome part of me assumed,\nthat I would never know.\nI knew that change was necessary,\nand I pushed my tidy music generator away.\n\nAnd so begun my terrible mission of learning lmms[2],\nI figured out how to use the program pretty quickly, but I didn't know how music was built.\nThe Learning Music Tutorial At Ableton[3],\nhelped me understand the components of a song, and notes, and octaves, and kick drums and hats.\nThe moment I knew I could make decent music in lmms,\nI stopped using it, it was over, done, hasta la vista.\nBecause I knew I had to go back to my program,\nto the thing that started it all.\nI can teach lmms,\nbut I should not use it to just make songs.\n\nI matured, musically speaking,\nbut I am not a musician, I am at zero, though not in the minus anymore.\nI understand what C4 means,\nI knew that before, but because of 2n, or 4n, notation that would frequently go along with the notes I felt I didn't know enough.\nNow, I am not intimidates, 4n means quarter note,\nit does not mean four notes as one would guess.\nIt is duration notation, it means a thing will go off four times within the space of a single note,\nor it will last quarter of a note, it is notation for units of time.\nAnd I also know, there isn't much more than that,\nsome exotic notation for chords perhaps, but I also know that chord theory can be pushed aside.\n\nToday is the first day,\nthat I have this program on my screen.\nAnd I only told it to beat the drum,\nI now understand that the OOP class named Membrane Synth.\nIs referring to the membrane that is stretched over a drum,\nI would normally assume that it is some kind of a synthesizer patch solution patter magic, but it is just a cute name for a drum synthesizer.\nI kept my previous experiments to myself,\nbut this one is published on the internet as open source and I named it westland[4]\nIt it used Tidal notation for construction of music,\nbasically, if you are playing in the world of a quarter note, or 4n...\nYou have four spots reserved for yourself,\nif you just use one spot, it will be multiplied four times.\nBut you are also allowed to use two notes in a singe spot,\nand they will hit at the speed of an eights note, or 8n.\nThe JavaScript array which is defined with square brackets,\nsimply has another array embedded in it where the singe note used to be;\nSo it goes from [\"F4\", \"F4\", \"F4\", \"F4\" ] which plays at the actual beats per minute of a song,\nto [\"F4\", \"F4\", [\"F4\",\"F4\"], \"F4\", ] and that plays the square bracket with the square bracket notes twice as fast.\nThis may sound weird, but you have to calm down from thinking computers,\ninto the world where people would try to make music by banging sticks on a tree.\nIf you just hit the tree in succession,\nit will sound boring, if you whack it faster couple of time, it will sound like rock and roll.\n\nUnlike Mr. Aaron,\nI need this music to be automatically generated by a computer.\nWithin that terrible repetitive beat[5],\nI will be focusing on creating symmetrical erosion of the beat pattern to create room for the dancers to do their tricks.\nI will be applying filters and transformers,\nto that beautifully simple Tidal notation of [\"F4\", \"F4\", [\"F4\",\"F4\"], \"F4\"].\nAnd this time, I am going to stick with the synthesizer,\nthe program as a whole is just 18.3 kB, that is very tiny.\n\nI hope a day will come where I will be able to generate fantastic dance and workout albums,\nwhich will contain music made by a machine, and thus never heard before.\nIt will still sound like popular Electronic Dance Music,\nbut each song will come as a surprise every time.\nRandomly configured classes of instruments,\ncoming together to create songs respectful of dancers.\nA lot of today's music is very distracting,\nit is really difficult to find the right setup.\nAnd it is not even possible to share workout music,\nwhat a terrible mess.\nIf you fell like programming, or learning how to program music, Dear Reader,\nfork westland[6] on github, which you can find on npm... and make it your own.\nMay the magnificent Tidal notation,\nkeep you wide awake at night.\n \nReferences\n[1]: https://www.youtube.com/user/samaaronuk\n[2]: https://www.youtube.com/watch?v=3qfa9hGJzoY\n[3]: https://learningmusic.ableton.com/\n[4]: https://github.com/catpea/westland\n[5]: /audio/membrane-synth.mp3\n[6]: https://www.npmjs.com/package/westland",
  "images": [],
  "links": [
    {
      "title": "Sam Aaron",
      "url": "https://www.youtube.com/user/samaaronuk",
      "hostname": "www.youtube.com"
    },
    {
      "title": "lmms",
      "url": "https://www.youtube.com/watch?v=3qfa9hGJzoY",
      "hostname": "www.youtube.com"
    },
    {
      "title": "Learning Music Tutorial At Ableton",
      "url": "https://learningmusic.ableton.com/",
      "hostname": "learningmusic.ableton.com"
    },
    {
      "title": "westland",
      "url": "https://github.com/catpea/westland",
      "hostname": "github.com"
    },
    {
      "title": "terrible repetitive beat",
      "url": "/audio/membrane-synth.mp3",
      "hostname": "local"
    },
    {
      "title": "westland",
      "url": "https://www.npmjs.com/package/westland",
      "hostname": "www.npmjs.com"
    }
  ]
}