{
  "name": "furkies-purrkies-poetry-0127",
  "title": "Have No Fear",
  "date": "2020-07-05T03:42:09.311Z",
  "image": "poetry-0127-illustration.jpg",
  "audio": "poetry-0127.mp3",
  "id": "furkies-purrkies-poetry-0127",
  "attachments": {},
  "guid": "0c099f5b-6faf-45da-b197-e677114f91e0",
  "html": "<div class=\"section\">\n  <p>When you sense that fear is near,</p>\n  <p>begin thinking about all the things you hold dear.</p>\n</div>\n<div class=\"section\">\n  <p>Think about how far you have already grown,</p>\n  <p>how much of what you love used to be scary or unknown.</p>\n</div>\n<div class=\"section\">\n  <p>And do not let anyone try to control you with fear,</p>\n  <p>they are weak and their mind is already broken and unclear.</p>\n</div>\n<div class=\"section\"></div>\n<div class=\"section\">\n  <p>Above all, know the weakness of fear,</p>\n  <p>all the things in your soul are far more real.</p>\n</div>\n<div class=\"section\"></div>\n<div class=\"section\">\n  <p>But do not just close your eyes and let it pass,</p>\n  <p>turn inward to remember your beauty, strength and class.</p>\n</div>\n<div class=\"section\">\n  <p>Let each time you get scared,</p>\n  <p>mark a day where you contemplate.</p>\n</div>\n<div class=\"section\">\n  <p>Think about all the little wisdoms you love,</p>\n  <p>and how much more you learned by standing up when push came to shove.</p>\n</div>",
  "bootstrap": "<div class=\"card card-section bg-dark text-warning shadow\">\n  <div class=\"section card-body mb-0 my-2\">\n    <div class=\"paragraph card-text card-stanza my-5 text-center\">When you sense that fear is near,</div>\n    <div class=\"paragraph card-text card-stanza my-5 text-center\">begin thinking about all the things you hold dear.</div>\n  </div>\n</div>\n<div class=\"card card-section bg-dark text-warning shadow\">\n  <div class=\"section card-body mb-0 my-2\">\n    <div class=\"paragraph card-text card-stanza my-5 text-center\">Think about how far you have already grown,</div>\n    <div class=\"paragraph card-text card-stanza my-5 text-center\">how much of what you love used to be scary or unknown.</div>\n  </div>\n</div>\n<div class=\"card card-section bg-dark text-warning shadow\">\n  <div class=\"section card-body mb-0 my-2\">\n    <div class=\"paragraph card-text card-stanza my-5 text-center\">And do not let anyone try to control you with fear,</div>\n    <div class=\"paragraph card-text card-stanza my-5 text-center\">they are weak and their mind is already broken and unclear.</div>\n  </div>\n</div>\n<div class=\"card card-section bg-dark text-warning shadow\">\n  <div class=\"section card-body mb-0 my-2\"></div>\n</div>\n<div class=\"card card-section bg-dark text-warning shadow\">\n  <div class=\"section card-body mb-0 my-2\">\n    <div class=\"paragraph card-text card-stanza my-5 text-center\">Above all, know the weakness of fear,</div>\n    <div class=\"paragraph card-text card-stanza my-5 text-center\">all the things in your soul are far more real.</div>\n  </div>\n</div>\n<div class=\"card card-section bg-dark text-warning shadow\">\n  <div class=\"section card-body mb-0 my-2\"></div>\n</div>\n<div class=\"card card-section bg-dark text-warning shadow\">\n  <div class=\"section card-body mb-0 my-2\">\n    <div class=\"paragraph card-text card-stanza my-5 text-center\">But do not just close your eyes and let it pass,</div>\n    <div class=\"paragraph card-text card-stanza my-5 text-center\">turn inward to remember your beauty, strength and class.</div>\n  </div>\n</div>\n<div class=\"card card-section bg-dark text-warning shadow\">\n  <div class=\"section card-body mb-0 my-2\">\n    <div class=\"paragraph card-text card-stanza my-5 text-center\">Let each time you get scared,</div>\n    <div class=\"paragraph card-text card-stanza my-5 text-center\">mark a day where you contemplate.</div>\n  </div>\n</div>\n<div class=\"card card-section bg-dark text-warning shadow\">\n  <div class=\"section card-body mb-0 my-2\">\n    <div class=\"paragraph card-text card-stanza my-5 text-center\">Think about all the little wisdoms you love,</div>\n    <div class=\"paragraph card-text card-stanza my-5 text-center\">and how much more you learned by standing up when push came to shove.</div>\n  </div>\n</div>",
  "print": "<div class=\"section avoid-break-inside\" style=\"padding-bottom: 2rem;\">\n  <div class=\"paragraph\">When you sense that fear is near,</div>\n  <div class=\"paragraph\">begin thinking about all the things you hold dear.</div>\n</div>\n<div class=\"section avoid-break-inside\" style=\"padding-bottom: 2rem;\">\n  <div class=\"paragraph\">Think about how far you have already grown,</div>\n  <div class=\"paragraph\">how much of what you love used to be scary or unknown.</div>\n</div>\n<div class=\"section avoid-break-inside\" style=\"padding-bottom: 2rem;\">\n  <div class=\"paragraph\">And do not let anyone try to control you with fear,</div>\n  <div class=\"paragraph\">they are weak and their mind is already broken and unclear.</div>\n</div>\n<div class=\"section avoid-break-inside\" style=\"padding-bottom: 2rem;\"></div>\n<div class=\"section avoid-break-inside\" style=\"padding-bottom: 2rem;\">\n  <div class=\"paragraph\">Above all, know the weakness of fear,</div>\n  <div class=\"paragraph\">all the things in your soul are far more real.</div>\n</div>\n<div class=\"section avoid-break-inside\" style=\"padding-bottom: 2rem;\"></div>\n<div class=\"section avoid-break-inside\" style=\"padding-bottom: 2rem;\">\n  <div class=\"paragraph\">But do not just close your eyes and let it pass,</div>\n  <div class=\"paragraph\">turn inward to remember your beauty, strength and class.</div>\n</div>\n<div class=\"section avoid-break-inside\" style=\"padding-bottom: 2rem;\">\n  <div class=\"paragraph\">Let each time you get scared,</div>\n  <div class=\"paragraph\">mark a day where you contemplate.</div>\n</div>\n<div class=\"section avoid-break-inside\" style=\"padding-bottom: 2rem;\">\n  <div class=\"paragraph\">Think about all the little wisdoms you love,</div>\n  <div class=\"paragraph\">and how much more you learned by standing up when push came to shove.</div>\n</div>",
  "text": "When you sense that fear is near,\nbegin thinking about all the things you hold dear.\nThink about how far you have already grown,\nhow much of what you love used to be scary or unknown.\nAnd do not let anyone try to control you with fear,\nthey are weak and their mind is already broken and unclear.\n\nAbove all, know the weakness of fear,\nall the things in your soul are far more real.\n\nBut do not just close your eyes and let it pass,\nturn inward to remember your beauty, strength and class.\nLet each time you get scared,\nmark a day where you contemplate.\nThink about all the little wisdoms you love,\nand how much more you learned by standing up when push came to shove.",
  "images": [],
  "links": []
}