{
  "name": "furkies-purrkies-poetry-0584",
  "id": "furkies-purrkies-poetry-0584",
  "title": "A Portfolio Of Silly And Fun Inventions",
  "date": "2021-10-06T00:34:44.665Z",
  "image": "poetry-0584-illustration.jpg",
  "artwork": "https://catpea.com",
  "audio": "poetry-0584.mp3",
  "guid": "560b58e5-f69d-405b-90e2-fb8fdc909bff",
  "html": "<div class=\"section\">\n  <p>I am starting to think that Superhero belts,<br>are not as silly as they sound.</p>\n  <p><a href=\"https://www.etsy.com/listing/1053620613/batman-begins-dark-knight-utility-belt?ref=shop_home_recs_5&frs=1&sca=1\">One seller on etsy made $657,900 dollars selling the Batman Begins / Dark Knight Utility Belt</a>,<br>which is for costumes only.</p>\n  <p>My own design,<br>an extension of the wallet.</p>\n  <p>Will be able to hold credit-cards,<br>phones, car remote, music player, and more.</p>\n  <p>Not to mention the massive test of courage,<br>that walking around with what looks like a bat-belt represents.</p>\n  <p>And what an adventure,<br>that could be?</p>\n</div>\n<div class=\"section\">\n  <hr>\n</div>\n<div class=\"section\">\n  <p>When was the list time someone asked you,<br>if those are real smoke bombs.</p>\n  <p>And when was the last time that you actually went to the dollar store,<br>to pick up a couple of them?</p>\n  <p>And Specifically,<br>because not only does your belt support them.</p>\n  <p>But in deed actively encourages you to get some,<br>as it has a cute little compartment for them.</p>\n  <p>Who cares that come July 4th,<br>unlike Batman you need to fiddle with a lighter to light them.</p>\n  <p>And then they puff a baby-cloud of indeterminate color that even a ninja couldn't hide in,<br>a smoke bomb is a smoke bomb.</p>\n  <p>And of course,<br>the little pocket doubles as a convenient neat little hiding place for candy.</p>\n  <p>It supports anything between four Tootsie Rolls,<br>to a couple of Ferrero Rocher - with crunchy hazelnuts.</p>\n</div>\n<div class=\"section\">\n  <hr>\n</div>\n<div class=\"section\">\n  <p>Seriously though,<br>it is all only as foolish as you want it to be.</p>\n  <p>People looking at your portfolio won't care if it is a superhero belt or a Raspberry Pi computer-case,<br>as this is a question of your creativity and accomplishment.</p>\n</div>\n<div class=\"section\">\n  <hr>\n</div>\n<div class=\"section\">\n  <p>(It is a very noble thing to set off to get a PhD,<br>to further science, to make a difference for people that need help and support in a hospital.</p>\n  <p>But there is an easy way,<br>and a hard way.</p>\n  <p>The easy way, is what the etsy seller is doing,<br>by the amount of money they made, they removed their stress of poverty.</p>\n  <p>Schools are taking advantage of students by forcing them into debt,<br>we must encourage students to create, to learn independently alongside all the broken lectures and promises.)</p>\n</div>\n<div class=\"section\">\n  <hr>\n</div>\n<div class=\"section\">\n  <p>Even before finishing this text,<br>I already started testing Tactical Jewelry design.</p>\n  <p>I am not yet quite sure what that is,<br>but I bet it is great for a portfolio and self defense, and certainly fascinating to look at.</p>\n  <p>\"Wow that is a very interesting bracelet you go there mam\",<br>\"it is actually all the components I need to swiftly assemble a dependable grappling hook - merely arranged to look like a fancy bracelet\"</p>\n  <p>\"I often use it to escape boring conversations, and inquisitive people, like you,\"</p>\n  <p><em>sound effect</em></p>\n  <p><em>laughter</em></p>\n</div>\n<div class=\"section\">\n  <hr>\n</div>\n<div class=\"section\">\n  <p>I am sure if we teach students to become inventors too,<br>they will <strong>invent</strong> their way towards their future.</p>\n</div>",
  "bootstrap": "<div class=\"card card-section bg-dark text-warning shadow\">\n  <div class=\"section card-body mb-0 my-2\">\n    <div class=\"paragraph card-text card-stanza my-5 text-center\">I am starting to think that Superhero belts,<br>are not as silly as they sound.</div>\n    <div class=\"paragraph card-text card-stanza my-5 text-center\"><a href=\"https://www.etsy.com/listing/1053620613/batman-begins-dark-knight-utility-belt?ref=shop_home_recs_5&frs=1&sca=1\">One seller on etsy made $657,900 dollars selling the Batman Begins / Dark Knight Utility Belt</a>,<br>which is for costumes only.</div>\n    <div class=\"paragraph card-text card-stanza my-5 text-center\">My own design,<br>an extension of the wallet.</div>\n    <div class=\"paragraph card-text card-stanza my-5 text-center\">Will be able to hold credit-cards,<br>phones, car remote, music player, and more.</div>\n    <div class=\"paragraph card-text card-stanza my-5 text-center\">Not to mention the massive test of courage,<br>that walking around with what looks like a bat-belt represents.</div>\n    <div class=\"paragraph card-text card-stanza my-5 text-center\">And what an adventure,<br>that could be?</div>\n  </div>\n</div>\n<div class=\"mb-5 section-spacer\">&nbsp;</div>\n<div class=\"card card-section bg-dark text-warning shadow\">\n  <div class=\"section card-body mb-0 my-2\">\n    <div class=\"paragraph card-text card-stanza my-5 text-center\">When was the list time someone asked you,<br>if those are real smoke bombs.</div>\n    <div class=\"paragraph card-text card-stanza my-5 text-center\">And when was the last time that you actually went to the dollar store,<br>to pick up a couple of them?</div>\n    <div class=\"paragraph card-text card-stanza my-5 text-center\">And Specifically,<br>because not only does your belt support them.</div>\n    <div class=\"paragraph card-text card-stanza my-5 text-center\">But in deed actively encourages you to get some,<br>as it has a cute little compartment for them.</div>\n    <div class=\"paragraph card-text card-stanza my-5 text-center\">Who cares that come July 4th,<br>unlike Batman you need to fiddle with a lighter to light them.</div>\n    <div class=\"paragraph card-text card-stanza my-5 text-center\">And then they puff a baby-cloud of indeterminate color that even a ninja couldn't hide in,<br>a smoke bomb is a smoke bomb.</div>\n    <div class=\"paragraph card-text card-stanza my-5 text-center\">And of course,<br>the little pocket doubles as a convenient neat little hiding place for candy.</div>\n    <div class=\"paragraph card-text card-stanza my-5 text-center\">It supports anything between four Tootsie Rolls,<br>to a couple of Ferrero Rocher - with crunchy hazelnuts.</div>\n  </div>\n</div>\n<div class=\"mb-5 section-spacer\">&nbsp;</div>\n<div class=\"card card-section bg-dark text-warning shadow\">\n  <div class=\"section card-body mb-0 my-2\">\n    <div class=\"paragraph card-text card-stanza my-5 text-center\">Seriously though,<br>it is all only as foolish as you want it to be.</div>\n    <div class=\"paragraph card-text card-stanza my-5 text-center\">People looking at your portfolio won't care if it is a superhero belt or a Raspberry Pi computer-case,<br>as this is a question of your creativity and accomplishment.</div>\n  </div>\n</div>\n<div class=\"mb-5 section-spacer\">&nbsp;</div>\n<div class=\"card card-section bg-dark text-warning shadow\">\n  <div class=\"section card-body mb-0 my-2\">\n    <div class=\"paragraph card-text card-stanza my-5 text-center\">(It is a very noble thing to set off to get a PhD,<br>to further science, to make a difference for people that need help and support in a hospital.</div>\n    <div class=\"paragraph card-text card-stanza my-5 text-center\">But there is an easy way,<br>and a hard way.</div>\n    <div class=\"paragraph card-text card-stanza my-5 text-center\">The easy way, is what the etsy seller is doing,<br>by the amount of money they made, they removed their stress of poverty.</div>\n    <div class=\"paragraph card-text card-stanza my-5 text-center\">Schools are taking advantage of students by forcing them into debt,<br>we must encourage students to create, to learn independently alongside all the broken lectures and promises.)</div>\n  </div>\n</div>\n<div class=\"mb-5 section-spacer\">&nbsp;</div>\n<div class=\"card card-section bg-dark text-warning shadow\">\n  <div class=\"section card-body mb-0 my-2\">\n    <div class=\"paragraph card-text card-stanza my-5 text-center\">Even before finishing this text,<br>I already started testing Tactical Jewelry design.</div>\n    <div class=\"paragraph card-text card-stanza my-5 text-center\">I am not yet quite sure what that is,<br>but I bet it is great for a portfolio and self defense, and certainly fascinating to look at.</div>\n    <div class=\"paragraph card-text card-stanza my-5 text-center\">\"Wow that is a very interesting bracelet you go there mam\",<br>\"it is actually all the components I need to swiftly assemble a dependable grappling hook - merely arranged to look like a fancy bracelet\"</div>\n    <div class=\"paragraph card-text card-stanza my-5 text-center\">\"I often use it to escape boring conversations, and inquisitive people, like you,\"</div>\n    <div class=\"paragraph card-text card-stanza my-5 text-center\"><em>sound effect</em></div>\n    <div class=\"paragraph card-text card-stanza my-5 text-center\"><em>laughter</em></div>\n  </div>\n</div>\n<div class=\"mb-5 section-spacer\">&nbsp;</div>\n<div class=\"card card-section bg-dark text-warning shadow\">\n  <div class=\"section card-body mb-0 my-2\">\n    <div class=\"paragraph card-text card-stanza my-5 text-center\">I am sure if we teach students to become inventors too,<br>they will <strong>invent</strong> their way towards their future.</div>\n  </div>\n</div>",
  "print": "<div class=\"section avoid-break-inside\" style=\"padding-bottom: 2rem;\">\n  <div class=\"paragraph\">I am starting to think that Superhero belts,<br>are not as silly as they sound.</div>\n  <div class=\"paragraph\"><span>One seller on etsy made $657,900 dollars selling the Batman Begins / Dark Knight Utility Belt<sup>[1]</sup></span>,<br>which is for costumes only.</div>\n  <div class=\"paragraph\">My own design,<br>an extension of the wallet.</div>\n  <div class=\"paragraph\">Will be able to hold credit-cards,<br>phones, car remote, music player, and more.</div>\n  <div class=\"paragraph\">Not to mention the massive test of courage,<br>that walking around with what looks like a bat-belt represents.</div>\n  <div class=\"paragraph\">And what an adventure,<br>that could be?</div>\n</div>\n<div class=\"section avoid-break-inside\" style=\"padding-bottom: 2rem;\">\n  <br>\n</div>\n<div class=\"section avoid-break-inside\" style=\"padding-bottom: 2rem;\">\n  <div class=\"paragraph\">When was the list time someone asked you,<br>if those are real smoke bombs.</div>\n  <div class=\"paragraph\">And when was the last time that you actually went to the dollar store,<br>to pick up a couple of them?</div>\n  <div class=\"paragraph\">And Specifically,<br>because not only does your belt support them.</div>\n  <div class=\"paragraph\">But in deed actively encourages you to get some,<br>as it has a cute little compartment for them.</div>\n  <div class=\"paragraph\">Who cares that come July 4th,<br>unlike Batman you need to fiddle with a lighter to light them.</div>\n  <div class=\"paragraph\">And then they puff a baby-cloud of indeterminate color that even a ninja couldn't hide in,<br>a smoke bomb is a smoke bomb.</div>\n  <div class=\"paragraph\">And of course,<br>the little pocket doubles as a convenient neat little hiding place for candy.</div>\n  <div class=\"paragraph\">It supports anything between four Tootsie Rolls,<br>to a couple of Ferrero Rocher - with crunchy hazelnuts.</div>\n</div>\n<div class=\"section avoid-break-inside\" style=\"padding-bottom: 2rem;\">\n  <br>\n</div>\n<div class=\"section avoid-break-inside\" style=\"padding-bottom: 2rem;\">\n  <div class=\"paragraph\">Seriously though,<br>it is all only as foolish as you want it to be.</div>\n  <div class=\"paragraph\">People looking at your portfolio won't care if it is a superhero belt or a Raspberry Pi computer-case,<br>as this is a question of your creativity and accomplishment.</div>\n</div>\n<div class=\"section avoid-break-inside\" style=\"padding-bottom: 2rem;\">\n  <br>\n</div>\n<div class=\"section avoid-break-inside\" style=\"padding-bottom: 2rem;\">\n  <div class=\"paragraph\">(It is a very noble thing to set off to get a PhD,<br>to further science, to make a difference for people that need help and support in a hospital.</div>\n  <div class=\"paragraph\">But there is an easy way,<br>and a hard way.</div>\n  <div class=\"paragraph\">The easy way, is what the etsy seller is doing,<br>by the amount of money they made, they removed their stress of poverty.</div>\n  <div class=\"paragraph\">Schools are taking advantage of students by forcing them into debt,<br>we must encourage students to create, to learn independently alongside all the broken lectures and promises.)</div>\n</div>\n<div class=\"section avoid-break-inside\" style=\"padding-bottom: 2rem;\">\n  <br>\n</div>\n<div class=\"section avoid-break-inside\" style=\"padding-bottom: 2rem;\">\n  <div class=\"paragraph\">Even before finishing this text,<br>I already started testing Tactical Jewelry design.</div>\n  <div class=\"paragraph\">I am not yet quite sure what that is,<br>but I bet it is great for a portfolio and self defense, and certainly fascinating to look at.</div>\n  <div class=\"paragraph\">\"Wow that is a very interesting bracelet you go there mam\",<br>\"it is actually all the components I need to swiftly assemble a dependable grappling hook - merely arranged to look like a fancy bracelet\"</div>\n  <div class=\"paragraph\">\"I often use it to escape boring conversations, and inquisitive people, like you,\"</div>\n  <div class=\"paragraph\"><em>sound effect</em></div>\n  <div class=\"paragraph\"><em>laughter</em></div>\n</div>\n<div class=\"section avoid-break-inside\" style=\"padding-bottom: 2rem;\">\n  <br>\n</div>\n<div class=\"section avoid-break-inside\" style=\"padding-bottom: 2rem;\">\n  <div class=\"paragraph\">I am sure if we teach students to become inventors too,<br>they will <strong>invent</strong> their way towards their future.</div>\n</div>\n<div class=\"break-after\">&nbsp;</div>\n<div>\n  <div class=\"section\" style=\"padding-bottom: 1rem;\">References</div>\n  <div>[1]: https://www.etsy.com/listing/1053620613/batman-begins-dark-knight-utility-belt?ref=shop_home_recs_5&frs=1&sca=1</div>\n</div>",
  "text": "I am starting to think that Superhero belts,\nare not as silly as they sound.\nOne seller on etsy made $657,900 dollars selling the Batman Begins / Dark Knight Utility Belt[1],\nwhich is for costumes only.\nMy own design,\nan extension of the wallet.\nWill be able to hold credit-cards,\nphones, car remote, music player, and more.\nNot to mention the massive test of courage,\nthat walking around with what looks like a bat-belt represents.\nAnd what an adventure,\nthat could be?\n\nWhen was the list time someone asked you,\nif those are real smoke bombs.\nAnd when was the last time that you actually went to the dollar store,\nto pick up a couple of them?\nAnd Specifically,\nbecause not only does your belt support them.\nBut in deed actively encourages you to get some,\nas it has a cute little compartment for them.\nWho cares that come July 4th,\nunlike Batman you need to fiddle with a lighter to light them.\nAnd then they puff a baby-cloud of indeterminate color that even a ninja couldn't hide in,\na smoke bomb is a smoke bomb.\nAnd of course,\nthe little pocket doubles as a convenient neat little hiding place for candy.\nIt supports anything between four Tootsie Rolls,\nto a couple of Ferrero Rocher - with crunchy hazelnuts.\n\nSeriously though,\nit is all only as foolish as you want it to be.\nPeople looking at your portfolio won't care if it is a superhero belt or a Raspberry Pi computer-case,\nas this is a question of your creativity and accomplishment.\n\n(It is a very noble thing to set off to get a PhD,\nto further science, to make a difference for people that need help and support in a hospital.\nBut there is an easy way,\nand a hard way.\nThe easy way, is what the etsy seller is doing,\nby the amount of money they made, they removed their stress of poverty.\nSchools are taking advantage of students by forcing them into debt,\nwe must encourage students to create, to learn independently alongside all the broken lectures and promises.)\n\nEven before finishing this text,\nI already started testing Tactical Jewelry design.\nI am not yet quite sure what that is,\nbut I bet it is great for a portfolio and self defense, and certainly fascinating to look at.\n\"Wow that is a very interesting bracelet you go there mam\",\n\"it is actually all the components I need to swiftly assemble a dependable grappling hook - merely arranged to look like a fancy bracelet\"\n\"I often use it to escape boring conversations, and inquisitive people, like you,\"\nsound effect\nlaughter\n\nI am sure if we teach students to become inventors too,\nthey will invent their way towards their future.\n \nReferences\n[1]: https://www.etsy.com/listing/1053620613/batman-begins-dark-knight-utility-belt?ref=shop_home_recs_5&frs=1&sca=1",
  "images": [],
  "links": [
    {
      "title": "One seller on etsy made $657,900 dollars selling the Batman Begins / Dark Knight Utility Belt",
      "url": "https://www.etsy.com/listing/1053620613/batman-begins-dark-knight-utility-belt?ref=shop_home_recs_5&frs=1&sca=1",
      "hostname": "www.etsy.com"
    }
  ]
}