{
  "name": "furkies-purrkies-poetry-0140",
  "title": "Inexhaustible Source of Unlimited Wisdom",
  "date": "2020-07-18T02:44:28.327Z",
  "image": "poetry-0140-illustration.jpg",
  "audio": "poetry-0140.mp3",
  "id": "furkies-purrkies-poetry-0140",
  "attachments": {},
  "guid": "9f6e092a-2e36-4b82-a7b3-13cae4c3671f",
  "html": "<div class=\"section\">\n  <p>We are granted Consciousness,</p>\n  <p>but given no guarantees by the Universe.</p>\n</div>\n<div class=\"section\">\n  <p>The only guarantee we have is Ourselves,</p>\n  <p>the one Element that we are truly in control of.</p>\n</div>\n<div class=\"section\">\n  <p>The deliberate act of Growing Up,</p>\n  <p>is a constant reminder of that control.</p>\n</div>\n<div class=\"section\">\n  <hr>\n</div>\n<div class=\"section\">\n  <p>Dusk and Twilight, Tears in the Rain, and Aches in Every Muscle,</p>\n  <p>surrounded by Unfairness, Blindness, Ends Everywhere, and yet we Rise.</p>\n</div>\n<div class=\"section\">\n  <p>Though it may be the very end of some world,</p>\n  <p>we are never robbed of the choice to keep going forward.</p>\n</div>\n<div class=\"section\">\n  <hr>\n</div>\n<div class=\"section\">\n  <p>The choice to exert control over the walls that the Universe has us up against,</p>\n  <p>when all else has gone dark, the choice always remains.</p>\n</div>\n<div class=\"section\">\n  <p>And when we can no longer change the World,</p>\n  <p>then we have to grow up to gain new powers that fit that world better.</p>\n</div>\n<div class=\"section\">\n  <p>The new powers will, alter the world,</p>\n  <p>and eventually we will find our way back home.</p>\n</div>\n<div class=\"section\">\n  <hr>\n</div>\n<div class=\"section\">\n  <p>No matter what misery or battles mark our past,</p>\n  <p>having chosen to Rise, and Learn, and Rebuild; made us Beautiful.</p>\n</div>\n<div class=\"section\">\n  <p>No matter what challenges lie ahead,</p>\n  <p>The Great Act of Growing Up, is an Inexhaustible Source of Unlimited Wisdom.</p>\n</div>\n<div class=\"section\">\n  <p>And the sum of it all,</p>\n  <p>is the Great Health and Joy of Life.</p>\n</div>",
  "bootstrap": "<div class=\"card card-section bg-dark text-warning shadow\">\n  <div class=\"section card-body mb-0 my-2\">\n    <div class=\"paragraph card-text card-stanza my-5 text-center\">We are granted Consciousness,</div>\n    <div class=\"paragraph card-text card-stanza my-5 text-center\">but given no guarantees by the Universe.</div>\n  </div>\n</div>\n<div class=\"card card-section bg-dark text-warning shadow\">\n  <div class=\"section card-body mb-0 my-2\">\n    <div class=\"paragraph card-text card-stanza my-5 text-center\">The only guarantee we have is Ourselves,</div>\n    <div class=\"paragraph card-text card-stanza my-5 text-center\">the one Element that we are truly in control of.</div>\n  </div>\n</div>\n<div class=\"card card-section bg-dark text-warning shadow\">\n  <div class=\"section card-body mb-0 my-2\">\n    <div class=\"paragraph card-text card-stanza my-5 text-center\">The deliberate act of Growing Up,</div>\n    <div class=\"paragraph card-text card-stanza my-5 text-center\">is a constant reminder of that control.</div>\n  </div>\n</div>\n<div class=\"mb-5 section-spacer\">&nbsp;</div>\n<div class=\"card card-section bg-dark text-warning shadow\">\n  <div class=\"section card-body mb-0 my-2\">\n    <div class=\"paragraph card-text card-stanza my-5 text-center\">Dusk and Twilight, Tears in the Rain, and Aches in Every Muscle,</div>\n    <div class=\"paragraph card-text card-stanza my-5 text-center\">surrounded by Unfairness, Blindness, Ends Everywhere, and yet we Rise.</div>\n  </div>\n</div>\n<div class=\"card card-section bg-dark text-warning shadow\">\n  <div class=\"section card-body mb-0 my-2\">\n    <div class=\"paragraph card-text card-stanza my-5 text-center\">Though it may be the very end of some world,</div>\n    <div class=\"paragraph card-text card-stanza my-5 text-center\">we are never robbed of the choice to keep going forward.</div>\n  </div>\n</div>\n<div class=\"mb-5 section-spacer\">&nbsp;</div>\n<div class=\"card card-section bg-dark text-warning shadow\">\n  <div class=\"section card-body mb-0 my-2\">\n    <div class=\"paragraph card-text card-stanza my-5 text-center\">The choice to exert control over the walls that the Universe has us up against,</div>\n    <div class=\"paragraph card-text card-stanza my-5 text-center\">when all else has gone dark, the choice always remains.</div>\n  </div>\n</div>\n<div class=\"card card-section bg-dark text-warning shadow\">\n  <div class=\"section card-body mb-0 my-2\">\n    <div class=\"paragraph card-text card-stanza my-5 text-center\">And when we can no longer change the World,</div>\n    <div class=\"paragraph card-text card-stanza my-5 text-center\">then we have to grow up to gain new powers that fit that world better.</div>\n  </div>\n</div>\n<div class=\"card card-section bg-dark text-warning shadow\">\n  <div class=\"section card-body mb-0 my-2\">\n    <div class=\"paragraph card-text card-stanza my-5 text-center\">The new powers will, alter the world,</div>\n    <div class=\"paragraph card-text card-stanza my-5 text-center\">and eventually we will find our way back home.</div>\n  </div>\n</div>\n<div class=\"mb-5 section-spacer\">&nbsp;</div>\n<div class=\"card card-section bg-dark text-warning shadow\">\n  <div class=\"section card-body mb-0 my-2\">\n    <div class=\"paragraph card-text card-stanza my-5 text-center\">No matter what misery or battles mark our past,</div>\n    <div class=\"paragraph card-text card-stanza my-5 text-center\">having chosen to Rise, and Learn, and Rebuild; made us Beautiful.</div>\n  </div>\n</div>\n<div class=\"card card-section bg-dark text-warning shadow\">\n  <div class=\"section card-body mb-0 my-2\">\n    <div class=\"paragraph card-text card-stanza my-5 text-center\">No matter what challenges lie ahead,</div>\n    <div class=\"paragraph card-text card-stanza my-5 text-center\">The Great Act of Growing Up, is an Inexhaustible Source of Unlimited Wisdom.</div>\n  </div>\n</div>\n<div class=\"card card-section bg-dark text-warning shadow\">\n  <div class=\"section card-body mb-0 my-2\">\n    <div class=\"paragraph card-text card-stanza my-5 text-center\">And the sum of it all,</div>\n    <div class=\"paragraph card-text card-stanza my-5 text-center\">is the Great Health and Joy of Life.</div>\n  </div>\n</div>",
  "print": "<div class=\"section avoid-break-inside\" style=\"padding-bottom: 2rem;\">\n  <div class=\"paragraph\">We are granted Consciousness,</div>\n  <div class=\"paragraph\">but given no guarantees by the Universe.</div>\n</div>\n<div class=\"section avoid-break-inside\" style=\"padding-bottom: 2rem;\">\n  <div class=\"paragraph\">The only guarantee we have is Ourselves,</div>\n  <div class=\"paragraph\">the one Element that we are truly in control of.</div>\n</div>\n<div class=\"section avoid-break-inside\" style=\"padding-bottom: 2rem;\">\n  <div class=\"paragraph\">The deliberate act of Growing Up,</div>\n  <div class=\"paragraph\">is a constant reminder of that control.</div>\n</div>\n<div class=\"section avoid-break-inside\" style=\"padding-bottom: 2rem;\">\n  <br>\n</div>\n<div class=\"section avoid-break-inside\" style=\"padding-bottom: 2rem;\">\n  <div class=\"paragraph\">Dusk and Twilight, Tears in the Rain, and Aches in Every Muscle,</div>\n  <div class=\"paragraph\">surrounded by Unfairness, Blindness, Ends Everywhere, and yet we Rise.</div>\n</div>\n<div class=\"section avoid-break-inside\" style=\"padding-bottom: 2rem;\">\n  <div class=\"paragraph\">Though it may be the very end of some world,</div>\n  <div class=\"paragraph\">we are never robbed of the choice to keep going forward.</div>\n</div>\n<div class=\"section avoid-break-inside\" style=\"padding-bottom: 2rem;\">\n  <br>\n</div>\n<div class=\"section avoid-break-inside\" style=\"padding-bottom: 2rem;\">\n  <div class=\"paragraph\">The choice to exert control over the walls that the Universe has us up against,</div>\n  <div class=\"paragraph\">when all else has gone dark, the choice always remains.</div>\n</div>\n<div class=\"section avoid-break-inside\" style=\"padding-bottom: 2rem;\">\n  <div class=\"paragraph\">And when we can no longer change the World,</div>\n  <div class=\"paragraph\">then we have to grow up to gain new powers that fit that world better.</div>\n</div>\n<div class=\"section avoid-break-inside\" style=\"padding-bottom: 2rem;\">\n  <div class=\"paragraph\">The new powers will, alter the world,</div>\n  <div class=\"paragraph\">and eventually we will find our way back home.</div>\n</div>\n<div class=\"section avoid-break-inside\" style=\"padding-bottom: 2rem;\">\n  <br>\n</div>\n<div class=\"section avoid-break-inside\" style=\"padding-bottom: 2rem;\">\n  <div class=\"paragraph\">No matter what misery or battles mark our past,</div>\n  <div class=\"paragraph\">having chosen to Rise, and Learn, and Rebuild; made us Beautiful.</div>\n</div>\n<div class=\"section avoid-break-inside\" style=\"padding-bottom: 2rem;\">\n  <div class=\"paragraph\">No matter what challenges lie ahead,</div>\n  <div class=\"paragraph\">The Great Act of Growing Up, is an Inexhaustible Source of Unlimited Wisdom.</div>\n</div>\n<div class=\"section avoid-break-inside\" style=\"padding-bottom: 2rem;\">\n  <div class=\"paragraph\">And the sum of it all,</div>\n  <div class=\"paragraph\">is the Great Health and Joy of Life.</div>\n</div>",
  "text": "We are granted Consciousness,\nbut given no guarantees by the Universe.\nThe only guarantee we have is Ourselves,\nthe one Element that we are truly in control of.\nThe deliberate act of Growing Up,\nis a constant reminder of that control.\n\nDusk and Twilight, Tears in the Rain, and Aches in Every Muscle,\nsurrounded by Unfairness, Blindness, Ends Everywhere, and yet we Rise.\nThough it may be the very end of some world,\nwe are never robbed of the choice to keep going forward.\n\nThe choice to exert control over the walls that the Universe has us up against,\nwhen all else has gone dark, the choice always remains.\nAnd when we can no longer change the World,\nthen we have to grow up to gain new powers that fit that world better.\nThe new powers will, alter the world,\nand eventually we will find our way back home.\n\nNo matter what misery or battles mark our past,\nhaving chosen to Rise, and Learn, and Rebuild; made us Beautiful.\nNo matter what challenges lie ahead,\nThe Great Act of Growing Up, is an Inexhaustible Source of Unlimited Wisdom.\nAnd the sum of it all,\nis the Great Health and Joy of Life.",
  "images": [],
  "links": []
}