{
  "id": "furkies-purrkies-poetry-0915",
  "title": "Furkies Purrkies Poetry 0915",
  "date": "2022-09-01T23:57:23.512Z",
  "image": "poetry-0915-illustration.jpg",
  "artwork": "https://example.com",
  "audio": "poetry-0915.mp3"
}