{
  "title": "Playing With Computers",
  "date": "2020-10-29T22:04:43.376Z",
  "image": "poetry-0243-illustration.jpg",
  "audio": "poetry-0243.mp3",
  "artwork": "https://unsplash.com/photos/RNqs_Ve8qAo",
  "id": "furkies-purrkies-poetry-0243",
  "attachments": {},
  "guid": "aea1a2c7-d6a5-4dc6-b286-fc1807b69dc7"
}
