{
  "title": "Of Political Systems",
  "date": "2020-09-12T21:33:42.582Z",
  "image": "poetry-0196-illustration.jpg",
  "audio": "poetry-0196.mp3",
  "artwork": "https://unsplash.com/photos/6Yp99zMrsAI",
  "id": "furkies-purrkies-poetry-0196",
  "attachments": {},
  "guid": "23d65019-250e-44cc-82cf-61701dbe060b"
}
