{
  "id": "furkies-purrkies-poetry-0794",
  "title": "A Glance At Jewelry Design: The Pug Shield Pendant",
  "date": "2022-05-04T01:31:06.819Z",
  "image": "poetry-0794-illustration.jpg",
  "artwork": "https://catpea.com",
  "audio": "poetry-0794.mp3",
  "guid": "b0383b11-86a7-40c9-9c66-a7e27266cbdc"
}
