{
  "name": "furkies-purrkies-poetry-0360",
  "title": "The Lighthouse",
  "date": "2021-02-24T01:50:46.651Z",
  "image": "poetry-0360-illustration.jpg",
  "audio": "poetry-0360.mp3",
  "artwork": "https://catpea.com/",
  "id": "furkies-purrkies-poetry-0360",
  "attachments": {},
  "guid": "0eb51575-8796-4703-ae29-99f703a75ed5",
  "html": "<div class=\"section\">\n  <p>I pulled up to the gate at Ludington State Park,</p>\n  <p>it made no sense to get to the hiking sites this late, and I didn&apos;t want a camper spot, I grabbed a tent site.</p>\n</div>\n\n<div class=\"section\">\n  <p>I had to show the woman at the booth my Raccoon Drawings,</p>\n  <p>she loved them, and I think I had a deer in there too.</p>\n</div>\n\n<div class=\"section\">\n  <p>I quickly explained to her,</p>\n  <p>you need a cheap office projector, then use a photo editing program to help you find edges, and mid tones, and trace them.</p>\n</div>\n\n<div class=\"section\">\n  <hr>\n</div>\n\n<div class=\"section\">\n  <p>I drove in circles and circles, and some crazy fog I half remember,</p>\n  <p>and finally found the tent sites, way, way, way down the road.</p>\n</div>\n\n<div class=\"section\">\n  <p>I setup my first, overpriced, extra light tent, and started the fire,</p>\n  <p>I had my leather jacket on, it was cold in the evening.</p>\n</div>\n\n<div class=\"section\">\n  <p>I was probably listening to &quot;The Story of Philosophy&quot; by Durant,</p>\n  <p>you have to listen to it dozens of times.</p>\n</div>\n\n<div class=\"section\">\n  <hr>\n</div>\n\n<div class=\"section\">\n  <p>There was a family camping behind me, their boy played a guitar,</p>\n  <p>how do they do that I wondered.</p>\n</div>\n\n<div class=\"section\">\n  <p>They made a couple of trips for fire wood,</p>\n  <p>and we chatted a little.</p>\n</div>\n\n<div class=\"section\">\n  <p>I told the mom that it is really important that her boy listens to audio books,</p>\n  <p>I showed her my iPod, and how you scroll the wheel to bring up the audio books.</p>\n</div>\n\n<div class=\"section\">\n  <hr>\n</div>\n\n<div class=\"section\">\n  <p>She asked if this is what I do,</p>\n  <p>and then pointed at my car to change the subject.</p>\n</div>\n\n<div class=\"section\">\n  <p>&quot;yeah&quot; - I said,</p>\n  <p>simply.</p>\n</div>\n\n<div class=\"section\">\n  <p>I waived goodbye, and got into my tent,</p>\n  <p>probably fell asleep to A Short History of Nearly Everything, Bryson is a kindred spirit.</p>\n</div>\n\n<div class=\"section\">\n  <hr>\n</div>\n\n<div class=\"section\">\n  <p>I woke up, packed and left early in the morning,</p>\n  <p>before the family could talk to me again.</p>\n</div>\n\n<div class=\"section\">\n  <p>I am not sure if she waited until Christmas with buying the iPod for her boy,</p>\n  <p>I think not.</p>\n</div>\n\n<div class=\"section\">\n  <p>There are too many books to be read,</p>\n  <p>she set him up right after they got back, yeah she did.</p>\n</div>\n\n<div class=\"section\">\n  <hr>\n</div>\n\n<div class=\"section\">\n  <p>I probably drove to Nordhouse for a few days,</p>\n  <p>for a change of scenery.</p>\n</div>\n\n<div class=\"section\">\n  <p>I don&apos;t know why people judge me to be a Yellow Buttercup Pansy,</p>\n  <p>a month after the three days that I planned to stay.</p>\n</div>\n\n<div class=\"section\">\n  <p>I ran into another mini-hiker who recognized from the parking lot the month before,</p>\n  <p>this was on THAT steep hill in the middle of Arrowhead Trail.</p>\n</div>\n\n<div class=\"section\">\n  <hr>\n</div>\n\n<div class=\"section\">\n  <p>He was surprised to see me in the wilder-beast version,</p>\n  <p>with three or four fanny packs, a huge and well warn Bushcraft KA-BAR, and a dank superman shirt.</p>\n</div>\n\n<div class=\"section\">\n  <p>&quot;Dood?&quot; - He Said,</p>\n  <p>to express his surprise that I also stayed there forever.</p>\n</div>\n\n<div class=\"section\">\n  <p>I drove my heavy walking log into the ground and pronounced:</p>\n  <p>&quot;Though shalt pass&quot;, for that was about all the conversation I cared to have, I was listening to Paul Strathern&apos;s Philosophy in 90 Minutes series, it is good refresher.</p>\n</div>\n\n<div class=\"section\">\n  <hr>\n</div>\n\n<div class=\"section\">\n  <p>Anyway, It was three times the conversation that he cared to have,</p>\n  <p>but it was still kind of sad, it meant that the woods were crowded now.</p>\n</div>\n\n<div class=\"section\">\n  <p>I drove back home, but I didn&apos;t take the stuff out of the car,</p>\n  <p>and I really appreciated the sand being everywhere, I like beach sand.</p>\n</div>\n\n<div class=\"section\">\n  <p>I drove back in a couple of months, I showed the lady at the booth, some more drawings,</p>\n  <p>she asked me not to stop being an amazing artist, bless her heart.</p>\n</div>\n\n<div class=\"section\">\n  <hr>\n</div>\n\n<div class=\"section\">\n  <p>This time I unpacked over a the hiking sites,</p>\n  <p>I think I was re-listening to A Walk in the Woods by Bryson.</p>\n</div>\n\n<div class=\"section\">\n  <p>Whichever book has that damn paragraph about <a href=\"https://catpea.com/read/furkies-purrkies/220.html\">that owl</a> swooping down,</p>\n  <p>and freeing a man of his scalp, thinking it is a fury creature, an easy mistake to make when you fly, apparently.</p>\n</div>\n\n<div class=\"section\">\n  <p>Gosh, squeaking with that water pump,</p>\n  <p>with the smell of my camp fire, the lake right over the dune Seth Shostack&apos;s &quot;Search for Intelligent Life in Space&quot; lectures playing and a nice sunset a moment before was very relaxing.</p>\n</div>\n\n<div class=\"section\">\n  <hr>\n</div>\n\n<div class=\"section\">\n  <p>In the morning I went to search for that shipwreck site, a man with a troop of cub-scouts walked up,</p>\n  <p>and mumbled something, but I couldn&apos;t look away from his forehead - I was confused about what I was looking at.</p>\n</div>\n\n<div class=\"section\">\n  <p>Then he explained with a heavy heart, that the perfect sideways D on his forehead,</p>\n  <p>is from his baseball cap that he had on backwards, I nodded carefully.</p>\n</div>\n\n<div class=\"section\">\n  <p>But, I didn&apos;t have a poker face back them, it is a recent talent,</p>\n  <p>there is nothing I can do to remember what he was asking, but I am pretty sure I was listening to either Robinson Crusoe.</p>\n</div>\n\n<div class=\"section\">\n  <hr>\n</div>\n\n<div class=\"section\">\n  <p>Shortly thereafter, I climbed up the dune,</p>\n  <p>put my hands on my hips and proclaimed, &quot;it is time to go see what that little lighthouse is all about&quot;.</p>\n</div>\n\n<div class=\"section\">\n  <p>I put on &quot;The Science of Superheroes&quot;, hooked my shoes to my day-pack,</p>\n  <p>and slowly begun walking the beach making plenty of stops for snacks.</p>\n</div>\n\n<div class=\"section\">\n  <p>It turned out there was a little apartment there,</p>\n  <p>and they rented it out to the person that worked there.</p>\n</div>\n\n\n<div class=\"section\">\n  <p>And they had a whole bunch of little knick&#xB7;knacks for sale,</p>\n  <p>I stared brainlessly at a postcard of the lighthouse I was in.</p>\n</div>\n\n<div class=\"section\">\n  <p>I don&apos;t know what conclusion I came to in regards to the post card was,</p>\n  <p>but it certainly didn&apos;t involve wishing to make it my own.</p>\n</div>\n\n<div class=\"section\">\n  <p>The sunset,</p>\n  <p>was perfect that day, not a cloud in the sky.</p>\n</div>",
  "bootstrap": "<div class=\"card card-section bg-dark text-warning shadow\">\n  <div class=\"section card-body mb-0 my-2\">\n    <div class=\"paragraph card-text card-stanza my-5 text-center\">I pulled up to the gate at Ludington State Park,</div>\n    <div class=\"paragraph card-text card-stanza my-5 text-center\">it made no sense to get to the hiking sites this late, and I didn't want a camper spot, I grabbed a tent site.</div>\n  </div>\n</div>\n<div class=\"card card-section bg-dark text-warning shadow\">\n  <div class=\"section card-body mb-0 my-2\">\n    <div class=\"paragraph card-text card-stanza my-5 text-center\">I had to show the woman at the booth my Raccoon Drawings,</div>\n    <div class=\"paragraph card-text card-stanza my-5 text-center\">she loved them, and I think I had a deer in there too.</div>\n  </div>\n</div>\n<div class=\"card card-section bg-dark text-warning shadow\">\n  <div class=\"section card-body mb-0 my-2\">\n    <div class=\"paragraph card-text card-stanza my-5 text-center\">I quickly explained to her,</div>\n    <div class=\"paragraph card-text card-stanza my-5 text-center\">you need a cheap office projector, then use a photo editing program to help you find edges, and mid tones, and trace them.</div>\n  </div>\n</div>\n<div class=\"mb-5 section-spacer\">&nbsp;</div>\n<div class=\"card card-section bg-dark text-warning shadow\">\n  <div class=\"section card-body mb-0 my-2\">\n    <div class=\"paragraph card-text card-stanza my-5 text-center\">I drove in circles and circles, and some crazy fog I half remember,</div>\n    <div class=\"paragraph card-text card-stanza my-5 text-center\">and finally found the tent sites, way, way, way down the road.</div>\n  </div>\n</div>\n<div class=\"card card-section bg-dark text-warning shadow\">\n  <div class=\"section card-body mb-0 my-2\">\n    <div class=\"paragraph card-text card-stanza my-5 text-center\">I setup my first, overpriced, extra light tent, and started the fire,</div>\n    <div class=\"paragraph card-text card-stanza my-5 text-center\">I had my leather jacket on, it was cold in the evening.</div>\n  </div>\n</div>\n<div class=\"card card-section bg-dark text-warning shadow\">\n  <div class=\"section card-body mb-0 my-2\">\n    <div class=\"paragraph card-text card-stanza my-5 text-center\">I was probably listening to \"The Story of Philosophy\" by Durant,</div>\n    <div class=\"paragraph card-text card-stanza my-5 text-center\">you have to listen to it dozens of times.</div>\n  </div>\n</div>\n<div class=\"mb-5 section-spacer\">&nbsp;</div>\n<div class=\"card card-section bg-dark text-warning shadow\">\n  <div class=\"section card-body mb-0 my-2\">\n    <div class=\"paragraph card-text card-stanza my-5 text-center\">There was a family camping behind me, their boy played a guitar,</div>\n    <div class=\"paragraph card-text card-stanza my-5 text-center\">how do they do that I wondered.</div>\n  </div>\n</div>\n<div class=\"card card-section bg-dark text-warning shadow\">\n  <div class=\"section card-body mb-0 my-2\">\n    <div class=\"paragraph card-text card-stanza my-5 text-center\">They made a couple of trips for fire wood,</div>\n    <div class=\"paragraph card-text card-stanza my-5 text-center\">and we chatted a little.</div>\n  </div>\n</div>\n<div class=\"card card-section bg-dark text-warning shadow\">\n  <div class=\"section card-body mb-0 my-2\">\n    <div class=\"paragraph card-text card-stanza my-5 text-center\">I told the mom that it is really important that her boy listens to audio books,</div>\n    <div class=\"paragraph card-text card-stanza my-5 text-center\">I showed her my iPod, and how you scroll the wheel to bring up the audio books.</div>\n  </div>\n</div>\n<div class=\"mb-5 section-spacer\">&nbsp;</div>\n<div class=\"card card-section bg-dark text-warning shadow\">\n  <div class=\"section card-body mb-0 my-2\">\n    <div class=\"paragraph card-text card-stanza my-5 text-center\">She asked if this is what I do,</div>\n    <div class=\"paragraph card-text card-stanza my-5 text-center\">and then pointed at my car to change the subject.</div>\n  </div>\n</div>\n<div class=\"card card-section bg-dark text-warning shadow\">\n  <div class=\"section card-body mb-0 my-2\">\n    <div class=\"paragraph card-text card-stanza my-5 text-center\">\"yeah\" - I said,</div>\n    <div class=\"paragraph card-text card-stanza my-5 text-center\">simply.</div>\n  </div>\n</div>\n<div class=\"card card-section bg-dark text-warning shadow\">\n  <div class=\"section card-body mb-0 my-2\">\n    <div class=\"paragraph card-text card-stanza my-5 text-center\">I waived goodbye, and got into my tent,</div>\n    <div class=\"paragraph card-text card-stanza my-5 text-center\">probably fell asleep to A Short History of Nearly Everything, Bryson is a kindred spirit.</div>\n  </div>\n</div>\n<div class=\"mb-5 section-spacer\">&nbsp;</div>\n<div class=\"card card-section bg-dark text-warning shadow\">\n  <div class=\"section card-body mb-0 my-2\">\n    <div class=\"paragraph card-text card-stanza my-5 text-center\">I woke up, packed and left early in the morning,</div>\n    <div class=\"paragraph card-text card-stanza my-5 text-center\">before the family could talk to me again.</div>\n  </div>\n</div>\n<div class=\"card card-section bg-dark text-warning shadow\">\n  <div class=\"section card-body mb-0 my-2\">\n    <div class=\"paragraph card-text card-stanza my-5 text-center\">I am not sure if she waited until Christmas with buying the iPod for her boy,</div>\n    <div class=\"paragraph card-text card-stanza my-5 text-center\">I think not.</div>\n  </div>\n</div>\n<div class=\"card card-section bg-dark text-warning shadow\">\n  <div class=\"section card-body mb-0 my-2\">\n    <div class=\"paragraph card-text card-stanza my-5 text-center\">There are too many books to be read,</div>\n    <div class=\"paragraph card-text card-stanza my-5 text-center\">she set him up right after they got back, yeah she did.</div>\n  </div>\n</div>\n<div class=\"mb-5 section-spacer\">&nbsp;</div>\n<div class=\"card card-section bg-dark text-warning shadow\">\n  <div class=\"section card-body mb-0 my-2\">\n    <div class=\"paragraph card-text card-stanza my-5 text-center\">I probably drove to Nordhouse for a few days,</div>\n    <div class=\"paragraph card-text card-stanza my-5 text-center\">for a change of scenery.</div>\n  </div>\n</div>\n<div class=\"card card-section bg-dark text-warning shadow\">\n  <div class=\"section card-body mb-0 my-2\">\n    <div class=\"paragraph card-text card-stanza my-5 text-center\">I don't know why people judge me to be a Yellow Buttercup Pansy,</div>\n    <div class=\"paragraph card-text card-stanza my-5 text-center\">a month after the three days that I planned to stay.</div>\n  </div>\n</div>\n<div class=\"card card-section bg-dark text-warning shadow\">\n  <div class=\"section card-body mb-0 my-2\">\n    <div class=\"paragraph card-text card-stanza my-5 text-center\">I ran into another mini-hiker who recognized from the parking lot the month before,</div>\n    <div class=\"paragraph card-text card-stanza my-5 text-center\">this was on THAT steep hill in the middle of Arrowhead Trail.</div>\n  </div>\n</div>\n<div class=\"mb-5 section-spacer\">&nbsp;</div>\n<div class=\"card card-section bg-dark text-warning shadow\">\n  <div class=\"section card-body mb-0 my-2\">\n    <div class=\"paragraph card-text card-stanza my-5 text-center\">He was surprised to see me in the wilder-beast version,</div>\n    <div class=\"paragraph card-text card-stanza my-5 text-center\">with three or four fanny packs, a huge and well warn Bushcraft KA-BAR, and a dank superman shirt.</div>\n  </div>\n</div>\n<div class=\"card card-section bg-dark text-warning shadow\">\n  <div class=\"section card-body mb-0 my-2\">\n    <div class=\"paragraph card-text card-stanza my-5 text-center\">\"Dood?\" - He Said,</div>\n    <div class=\"paragraph card-text card-stanza my-5 text-center\">to express his surprise that I also stayed there forever.</div>\n  </div>\n</div>\n<div class=\"card card-section bg-dark text-warning shadow\">\n  <div class=\"section card-body mb-0 my-2\">\n    <div class=\"paragraph card-text card-stanza my-5 text-center\">I drove my heavy walking log into the ground and pronounced:</div>\n    <div class=\"paragraph card-text card-stanza my-5 text-center\">\"Though shalt pass\", for that was about all the conversation I cared to have, I was listening to Paul Strathern's Philosophy in 90 Minutes series, it is good refresher.</div>\n  </div>\n</div>\n<div class=\"mb-5 section-spacer\">&nbsp;</div>\n<div class=\"card card-section bg-dark text-warning shadow\">\n  <div class=\"section card-body mb-0 my-2\">\n    <div class=\"paragraph card-text card-stanza my-5 text-center\">Anyway, It was three times the conversation that he cared to have,</div>\n    <div class=\"paragraph card-text card-stanza my-5 text-center\">but it was still kind of sad, it meant that the woods were crowded now.</div>\n  </div>\n</div>\n<div class=\"card card-section bg-dark text-warning shadow\">\n  <div class=\"section card-body mb-0 my-2\">\n    <div class=\"paragraph card-text card-stanza my-5 text-center\">I drove back home, but I didn't take the stuff out of the car,</div>\n    <div class=\"paragraph card-text card-stanza my-5 text-center\">and I really appreciated the sand being everywhere, I like beach sand.</div>\n  </div>\n</div>\n<div class=\"card card-section bg-dark text-warning shadow\">\n  <div class=\"section card-body mb-0 my-2\">\n    <div class=\"paragraph card-text card-stanza my-5 text-center\">I drove back in a couple of months, I showed the lady at the booth, some more drawings,</div>\n    <div class=\"paragraph card-text card-stanza my-5 text-center\">she asked me not to stop being an amazing artist, bless her heart.</div>\n  </div>\n</div>\n<div class=\"mb-5 section-spacer\">&nbsp;</div>\n<div class=\"card card-section bg-dark text-warning shadow\">\n  <div class=\"section card-body mb-0 my-2\">\n    <div class=\"paragraph card-text card-stanza my-5 text-center\">This time I unpacked over a the hiking sites,</div>\n    <div class=\"paragraph card-text card-stanza my-5 text-center\">I think I was re-listening to A Walk in the Woods by Bryson.</div>\n  </div>\n</div>\n<div class=\"card card-section bg-dark text-warning shadow\">\n  <div class=\"section card-body mb-0 my-2\">\n    <div class=\"paragraph card-text card-stanza my-5 text-center\">Whichever book has that damn paragraph about <a href=\"https://catpea.com/read/furkies-purrkies/220.html\">that owl</a> swooping down,</div>\n    <div class=\"paragraph card-text card-stanza my-5 text-center\">and freeing a man of his scalp, thinking it is a fury creature, an easy mistake to make when you fly, apparently.</div>\n  </div>\n</div>\n<div class=\"card card-section bg-dark text-warning shadow\">\n  <div class=\"section card-body mb-0 my-2\">\n    <div class=\"paragraph card-text card-stanza my-5 text-center\">Gosh, squeaking with that water pump,</div>\n    <div class=\"paragraph card-text card-stanza my-5 text-center\">with the smell of my camp fire, the lake right over the dune Seth Shostack's \"Search for Intelligent Life in Space\" lectures playing and a nice sunset a moment before was very relaxing.</div>\n  </div>\n</div>\n<div class=\"mb-5 section-spacer\">&nbsp;</div>\n<div class=\"card card-section bg-dark text-warning shadow\">\n  <div class=\"section card-body mb-0 my-2\">\n    <div class=\"paragraph card-text card-stanza my-5 text-center\">In the morning I went to search for that shipwreck site, a man with a troop of cub-scouts walked up,</div>\n    <div class=\"paragraph card-text card-stanza my-5 text-center\">and mumbled something, but I couldn't look away from his forehead - I was confused about what I was looking at.</div>\n  </div>\n</div>\n<div class=\"card card-section bg-dark text-warning shadow\">\n  <div class=\"section card-body mb-0 my-2\">\n    <div class=\"paragraph card-text card-stanza my-5 text-center\">Then he explained with a heavy heart, that the perfect sideways D on his forehead,</div>\n    <div class=\"paragraph card-text card-stanza my-5 text-center\">is from his baseball cap that he had on backwards, I nodded carefully.</div>\n  </div>\n</div>\n<div class=\"card card-section bg-dark text-warning shadow\">\n  <div class=\"section card-body mb-0 my-2\">\n    <div class=\"paragraph card-text card-stanza my-5 text-center\">But, I didn't have a poker face back them, it is a recent talent,</div>\n    <div class=\"paragraph card-text card-stanza my-5 text-center\">there is nothing I can do to remember what he was asking, but I am pretty sure I was listening to either Robinson Crusoe.</div>\n  </div>\n</div>\n<div class=\"mb-5 section-spacer\">&nbsp;</div>\n<div class=\"card card-section bg-dark text-warning shadow\">\n  <div class=\"section card-body mb-0 my-2\">\n    <div class=\"paragraph card-text card-stanza my-5 text-center\">Shortly thereafter, I climbed up the dune,</div>\n    <div class=\"paragraph card-text card-stanza my-5 text-center\">put my hands on my hips and proclaimed, \"it is time to go see what that little lighthouse is all about\".</div>\n  </div>\n</div>\n<div class=\"card card-section bg-dark text-warning shadow\">\n  <div class=\"section card-body mb-0 my-2\">\n    <div class=\"paragraph card-text card-stanza my-5 text-center\">I put on \"The Science of Superheroes\", hooked my shoes to my day-pack,</div>\n    <div class=\"paragraph card-text card-stanza my-5 text-center\">and slowly begun walking the beach making plenty of stops for snacks.</div>\n  </div>\n</div>\n<div class=\"card card-section bg-dark text-warning shadow\">\n  <div class=\"section card-body mb-0 my-2\">\n    <div class=\"paragraph card-text card-stanza my-5 text-center\">It turned out there was a little apartment there,</div>\n    <div class=\"paragraph card-text card-stanza my-5 text-center\">and they rented it out to the person that worked there.</div>\n  </div>\n</div>\n<div class=\"card card-section bg-dark text-warning shadow\">\n  <div class=\"section card-body mb-0 my-2\">\n    <div class=\"paragraph card-text card-stanza my-5 text-center\">And they had a whole bunch of little knick·knacks for sale,</div>\n    <div class=\"paragraph card-text card-stanza my-5 text-center\">I stared brainlessly at a postcard of the lighthouse I was in.</div>\n  </div>\n</div>\n<div class=\"card card-section bg-dark text-warning shadow\">\n  <div class=\"section card-body mb-0 my-2\">\n    <div class=\"paragraph card-text card-stanza my-5 text-center\">I don't know what conclusion I came to in regards to the post card was,</div>\n    <div class=\"paragraph card-text card-stanza my-5 text-center\">but it certainly didn't involve wishing to make it my own.</div>\n  </div>\n</div>\n<div class=\"card card-section bg-dark text-warning shadow\">\n  <div class=\"section card-body mb-0 my-2\">\n    <div class=\"paragraph card-text card-stanza my-5 text-center\">The sunset,</div>\n    <div class=\"paragraph card-text card-stanza my-5 text-center\">was perfect that day, not a cloud in the sky.</div>\n  </div>\n</div>",
  "print": "<div class=\"section avoid-break-inside\" style=\"padding-bottom: 2rem;\">\n  <div class=\"paragraph\">I pulled up to the gate at Ludington State Park,</div>\n  <div class=\"paragraph\">it made no sense to get to the hiking sites this late, and I didn't want a camper spot, I grabbed a tent site.</div>\n</div>\n<div class=\"section avoid-break-inside\" style=\"padding-bottom: 2rem;\">\n  <div class=\"paragraph\">I had to show the woman at the booth my Raccoon Drawings,</div>\n  <div class=\"paragraph\">she loved them, and I think I had a deer in there too.</div>\n</div>\n<div class=\"section avoid-break-inside\" style=\"padding-bottom: 2rem;\">\n  <div class=\"paragraph\">I quickly explained to her,</div>\n  <div class=\"paragraph\">you need a cheap office projector, then use a photo editing program to help you find edges, and mid tones, and trace them.</div>\n</div>\n<div class=\"section avoid-break-inside\" style=\"padding-bottom: 2rem;\">\n  <br>\n</div>\n<div class=\"section avoid-break-inside\" style=\"padding-bottom: 2rem;\">\n  <div class=\"paragraph\">I drove in circles and circles, and some crazy fog I half remember,</div>\n  <div class=\"paragraph\">and finally found the tent sites, way, way, way down the road.</div>\n</div>\n<div class=\"section avoid-break-inside\" style=\"padding-bottom: 2rem;\">\n  <div class=\"paragraph\">I setup my first, overpriced, extra light tent, and started the fire,</div>\n  <div class=\"paragraph\">I had my leather jacket on, it was cold in the evening.</div>\n</div>\n<div class=\"section avoid-break-inside\" style=\"padding-bottom: 2rem;\">\n  <div class=\"paragraph\">I was probably listening to \"The Story of Philosophy\" by Durant,</div>\n  <div class=\"paragraph\">you have to listen to it dozens of times.</div>\n</div>\n<div class=\"section avoid-break-inside\" style=\"padding-bottom: 2rem;\">\n  <br>\n</div>\n<div class=\"section avoid-break-inside\" style=\"padding-bottom: 2rem;\">\n  <div class=\"paragraph\">There was a family camping behind me, their boy played a guitar,</div>\n  <div class=\"paragraph\">how do they do that I wondered.</div>\n</div>\n<div class=\"section avoid-break-inside\" style=\"padding-bottom: 2rem;\">\n  <div class=\"paragraph\">They made a couple of trips for fire wood,</div>\n  <div class=\"paragraph\">and we chatted a little.</div>\n</div>\n<div class=\"section avoid-break-inside\" style=\"padding-bottom: 2rem;\">\n  <div class=\"paragraph\">I told the mom that it is really important that her boy listens to audio books,</div>\n  <div class=\"paragraph\">I showed her my iPod, and how you scroll the wheel to bring up the audio books.</div>\n</div>\n<div class=\"section avoid-break-inside\" style=\"padding-bottom: 2rem;\">\n  <br>\n</div>\n<div class=\"section avoid-break-inside\" style=\"padding-bottom: 2rem;\">\n  <div class=\"paragraph\">She asked if this is what I do,</div>\n  <div class=\"paragraph\">and then pointed at my car to change the subject.</div>\n</div>\n<div class=\"section avoid-break-inside\" style=\"padding-bottom: 2rem;\">\n  <div class=\"paragraph\">\"yeah\" - I said,</div>\n  <div class=\"paragraph\">simply.</div>\n</div>\n<div class=\"section avoid-break-inside\" style=\"padding-bottom: 2rem;\">\n  <div class=\"paragraph\">I waived goodbye, and got into my tent,</div>\n  <div class=\"paragraph\">probably fell asleep to A Short History of Nearly Everything, Bryson is a kindred spirit.</div>\n</div>\n<div class=\"section avoid-break-inside\" style=\"padding-bottom: 2rem;\">\n  <br>\n</div>\n<div class=\"section avoid-break-inside\" style=\"padding-bottom: 2rem;\">\n  <div class=\"paragraph\">I woke up, packed and left early in the morning,</div>\n  <div class=\"paragraph\">before the family could talk to me again.</div>\n</div>\n<div class=\"section avoid-break-inside\" style=\"padding-bottom: 2rem;\">\n  <div class=\"paragraph\">I am not sure if she waited until Christmas with buying the iPod for her boy,</div>\n  <div class=\"paragraph\">I think not.</div>\n</div>\n<div class=\"section avoid-break-inside\" style=\"padding-bottom: 2rem;\">\n  <div class=\"paragraph\">There are too many books to be read,</div>\n  <div class=\"paragraph\">she set him up right after they got back, yeah she did.</div>\n</div>\n<div class=\"section avoid-break-inside\" style=\"padding-bottom: 2rem;\">\n  <br>\n</div>\n<div class=\"section avoid-break-inside\" style=\"padding-bottom: 2rem;\">\n  <div class=\"paragraph\">I probably drove to Nordhouse for a few days,</div>\n  <div class=\"paragraph\">for a change of scenery.</div>\n</div>\n<div class=\"section avoid-break-inside\" style=\"padding-bottom: 2rem;\">\n  <div class=\"paragraph\">I don't know why people judge me to be a Yellow Buttercup Pansy,</div>\n  <div class=\"paragraph\">a month after the three days that I planned to stay.</div>\n</div>\n<div class=\"section avoid-break-inside\" style=\"padding-bottom: 2rem;\">\n  <div class=\"paragraph\">I ran into another mini-hiker who recognized from the parking lot the month before,</div>\n  <div class=\"paragraph\">this was on THAT steep hill in the middle of Arrowhead Trail.</div>\n</div>\n<div class=\"section avoid-break-inside\" style=\"padding-bottom: 2rem;\">\n  <br>\n</div>\n<div class=\"section avoid-break-inside\" style=\"padding-bottom: 2rem;\">\n  <div class=\"paragraph\">He was surprised to see me in the wilder-beast version,</div>\n  <div class=\"paragraph\">with three or four fanny packs, a huge and well warn Bushcraft KA-BAR, and a dank superman shirt.</div>\n</div>\n<div class=\"section avoid-break-inside\" style=\"padding-bottom: 2rem;\">\n  <div class=\"paragraph\">\"Dood?\" - He Said,</div>\n  <div class=\"paragraph\">to express his surprise that I also stayed there forever.</div>\n</div>\n<div class=\"section avoid-break-inside\" style=\"padding-bottom: 2rem;\">\n  <div class=\"paragraph\">I drove my heavy walking log into the ground and pronounced:</div>\n  <div class=\"paragraph\">\"Though shalt pass\", for that was about all the conversation I cared to have, I was listening to Paul Strathern's Philosophy in 90 Minutes series, it is good refresher.</div>\n</div>\n<div class=\"section avoid-break-inside\" style=\"padding-bottom: 2rem;\">\n  <br>\n</div>\n<div class=\"section avoid-break-inside\" style=\"padding-bottom: 2rem;\">\n  <div class=\"paragraph\">Anyway, It was three times the conversation that he cared to have,</div>\n  <div class=\"paragraph\">but it was still kind of sad, it meant that the woods were crowded now.</div>\n</div>\n<div class=\"section avoid-break-inside\" style=\"padding-bottom: 2rem;\">\n  <div class=\"paragraph\">I drove back home, but I didn't take the stuff out of the car,</div>\n  <div class=\"paragraph\">and I really appreciated the sand being everywhere, I like beach sand.</div>\n</div>\n<div class=\"section avoid-break-inside\" style=\"padding-bottom: 2rem;\">\n  <div class=\"paragraph\">I drove back in a couple of months, I showed the lady at the booth, some more drawings,</div>\n  <div class=\"paragraph\">she asked me not to stop being an amazing artist, bless her heart.</div>\n</div>\n<div class=\"section avoid-break-inside\" style=\"padding-bottom: 2rem;\">\n  <br>\n</div>\n<div class=\"section avoid-break-inside\" style=\"padding-bottom: 2rem;\">\n  <div class=\"paragraph\">This time I unpacked over a the hiking sites,</div>\n  <div class=\"paragraph\">I think I was re-listening to A Walk in the Woods by Bryson.</div>\n</div>\n<div class=\"section avoid-break-inside\" style=\"padding-bottom: 2rem;\">\n  <div class=\"paragraph\">Whichever book has that damn paragraph about <span>that owl<sup>[1]</sup></span> swooping down,</div>\n  <div class=\"paragraph\">and freeing a man of his scalp, thinking it is a fury creature, an easy mistake to make when you fly, apparently.</div>\n</div>\n<div class=\"section avoid-break-inside\" style=\"padding-bottom: 2rem;\">\n  <div class=\"paragraph\">Gosh, squeaking with that water pump,</div>\n  <div class=\"paragraph\">with the smell of my camp fire, the lake right over the dune Seth Shostack's \"Search for Intelligent Life in Space\" lectures playing and a nice sunset a moment before was very relaxing.</div>\n</div>\n<div class=\"section avoid-break-inside\" style=\"padding-bottom: 2rem;\">\n  <br>\n</div>\n<div class=\"section avoid-break-inside\" style=\"padding-bottom: 2rem;\">\n  <div class=\"paragraph\">In the morning I went to search for that shipwreck site, a man with a troop of cub-scouts walked up,</div>\n  <div class=\"paragraph\">and mumbled something, but I couldn't look away from his forehead - I was confused about what I was looking at.</div>\n</div>\n<div class=\"section avoid-break-inside\" style=\"padding-bottom: 2rem;\">\n  <div class=\"paragraph\">Then he explained with a heavy heart, that the perfect sideways D on his forehead,</div>\n  <div class=\"paragraph\">is from his baseball cap that he had on backwards, I nodded carefully.</div>\n</div>\n<div class=\"section avoid-break-inside\" style=\"padding-bottom: 2rem;\">\n  <div class=\"paragraph\">But, I didn't have a poker face back them, it is a recent talent,</div>\n  <div class=\"paragraph\">there is nothing I can do to remember what he was asking, but I am pretty sure I was listening to either Robinson Crusoe.</div>\n</div>\n<div class=\"section avoid-break-inside\" style=\"padding-bottom: 2rem;\">\n  <br>\n</div>\n<div class=\"section avoid-break-inside\" style=\"padding-bottom: 2rem;\">\n  <div class=\"paragraph\">Shortly thereafter, I climbed up the dune,</div>\n  <div class=\"paragraph\">put my hands on my hips and proclaimed, \"it is time to go see what that little lighthouse is all about\".</div>\n</div>\n<div class=\"section avoid-break-inside\" style=\"padding-bottom: 2rem;\">\n  <div class=\"paragraph\">I put on \"The Science of Superheroes\", hooked my shoes to my day-pack,</div>\n  <div class=\"paragraph\">and slowly begun walking the beach making plenty of stops for snacks.</div>\n</div>\n<div class=\"section avoid-break-inside\" style=\"padding-bottom: 2rem;\">\n  <div class=\"paragraph\">It turned out there was a little apartment there,</div>\n  <div class=\"paragraph\">and they rented it out to the person that worked there.</div>\n</div>\n<div class=\"section avoid-break-inside\" style=\"padding-bottom: 2rem;\">\n  <div class=\"paragraph\">And they had a whole bunch of little knick·knacks for sale,</div>\n  <div class=\"paragraph\">I stared brainlessly at a postcard of the lighthouse I was in.</div>\n</div>\n<div class=\"section avoid-break-inside\" style=\"padding-bottom: 2rem;\">\n  <div class=\"paragraph\">I don't know what conclusion I came to in regards to the post card was,</div>\n  <div class=\"paragraph\">but it certainly didn't involve wishing to make it my own.</div>\n</div>\n<div class=\"section avoid-break-inside\" style=\"padding-bottom: 2rem;\">\n  <div class=\"paragraph\">The sunset,</div>\n  <div class=\"paragraph\">was perfect that day, not a cloud in the sky.</div>\n</div>\n<div class=\"break-after\">&nbsp;</div>\n<div>\n  <div class=\"section\" style=\"padding-bottom: 1rem;\">References</div>\n  <div>[1]: https://catpea.com/read/furkies-purrkies/220.html</div>\n</div>",
  "text": "I pulled up to the gate at Ludington State Park,\nit made no sense to get to the hiking sites this late, and I didn't want a camper spot, I grabbed a tent site.\nI had to show the woman at the booth my Raccoon Drawings,\nshe loved them, and I think I had a deer in there too.\nI quickly explained to her,\nyou need a cheap office projector, then use a photo editing program to help you find edges, and mid tones, and trace them.\n\nI drove in circles and circles, and some crazy fog I half remember,\nand finally found the tent sites, way, way, way down the road.\nI setup my first, overpriced, extra light tent, and started the fire,\nI had my leather jacket on, it was cold in the evening.\nI was probably listening to \"The Story of Philosophy\" by Durant,\nyou have to listen to it dozens of times.\n\nThere was a family camping behind me, their boy played a guitar,\nhow do they do that I wondered.\nThey made a couple of trips for fire wood,\nand we chatted a little.\nI told the mom that it is really important that her boy listens to audio books,\nI showed her my iPod, and how you scroll the wheel to bring up the audio books.\n\nShe asked if this is what I do,\nand then pointed at my car to change the subject.\n\"yeah\" - I said,\nsimply.\nI waived goodbye, and got into my tent,\nprobably fell asleep to A Short History of Nearly Everything, Bryson is a kindred spirit.\n\nI woke up, packed and left early in the morning,\nbefore the family could talk to me again.\nI am not sure if she waited until Christmas with buying the iPod for her boy,\nI think not.\nThere are too many books to be read,\nshe set him up right after they got back, yeah she did.\n\nI probably drove to Nordhouse for a few days,\nfor a change of scenery.\nI don't know why people judge me to be a Yellow Buttercup Pansy,\na month after the three days that I planned to stay.\nI ran into another mini-hiker who recognized from the parking lot the month before,\nthis was on THAT steep hill in the middle of Arrowhead Trail.\n\nHe was surprised to see me in the wilder-beast version,\nwith three or four fanny packs, a huge and well warn Bushcraft KA-BAR, and a dank superman shirt.\n\"Dood?\" - He Said,\nto express his surprise that I also stayed there forever.\nI drove my heavy walking log into the ground and pronounced:\n\"Though shalt pass\", for that was about all the conversation I cared to have, I was listening to Paul Strathern's Philosophy in 90 Minutes series, it is good refresher.\n\nAnyway, It was three times the conversation that he cared to have,\nbut it was still kind of sad, it meant that the woods were crowded now.\nI drove back home, but I didn't take the stuff out of the car,\nand I really appreciated the sand being everywhere, I like beach sand.\nI drove back in a couple of months, I showed the lady at the booth, some more drawings,\nshe asked me not to stop being an amazing artist, bless her heart.\n\nThis time I unpacked over a the hiking sites,\nI think I was re-listening to A Walk in the Woods by Bryson.\nWhichever book has that damn paragraph about that owl[1] swooping down,\nand freeing a man of his scalp, thinking it is a fury creature, an easy mistake to make when you fly, apparently.\nGosh, squeaking with that water pump,\nwith the smell of my camp fire, the lake right over the dune Seth Shostack's \"Search for Intelligent Life in Space\" lectures playing and a nice sunset a moment before was very relaxing.\n\nIn the morning I went to search for that shipwreck site, a man with a troop of cub-scouts walked up,\nand mumbled something, but I couldn't look away from his forehead - I was confused about what I was looking at.\nThen he explained with a heavy heart, that the perfect sideways D on his forehead,\nis from his baseball cap that he had on backwards, I nodded carefully.\nBut, I didn't have a poker face back them, it is a recent talent,\nthere is nothing I can do to remember what he was asking, but I am pretty sure I was listening to either Robinson Crusoe.\n\nShortly thereafter, I climbed up the dune,\nput my hands on my hips and proclaimed, \"it is time to go see what that little lighthouse is all about\".\nI put on \"The Science of Superheroes\", hooked my shoes to my day-pack,\nand slowly begun walking the beach making plenty of stops for snacks.\nIt turned out there was a little apartment there,\nand they rented it out to the person that worked there.\nAnd they had a whole bunch of little knick·knacks for sale,\nI stared brainlessly at a postcard of the lighthouse I was in.\nI don't know what conclusion I came to in regards to the post card was,\nbut it certainly didn't involve wishing to make it my own.\nThe sunset,\nwas perfect that day, not a cloud in the sky.\n \nReferences\n[1]: https://catpea.com/read/furkies-purrkies/220.html",
  "images": [],
  "links": [
    {
      "title": "that owl",
      "url": "https://catpea.com/read/furkies-purrkies/220.html",
      "hostname": "catpea.com"
    }
  ]
}