{
  "id": "furkies-purrkies-poetry-0941",
  "guid": "8de69bc9-2ea7-41bf-8232-b96b8389390a",
  "title": "Furkies Purrkies Poetry 0941",
  "date": "2022-09-27T22:04:33.618Z",
  "image": "poetry-0941-illustration.jpg",
  "artwork": "https://example.com",
  "audio": "poetry-0941.mp3"
}