{
  "title": "We Are An Important Link Between Past And Future Generations",
  "date": "2020-08-17T23:10:10.332Z",
  "image": "poetry-0170-illustration.jpg",
  "audio": "poetry-0170.mp3",
  "id": "furkies-purrkies-poetry-0170",
  "attachments": {},
  "guid": "0331096e-1159-4ff6-9f63-2a47f2776288"
}
