{
  "name": "furkies-purrkies-poetry-0066",
  "title": "We Are Not Robots",
  "date": "2020-05-11T01:57:32.195Z",
  "image": "poetry-0066-illustration.jpg",
  "audio": "poetry-0066.mp3",
  "id": "furkies-purrkies-poetry-0066",
  "attachments": {},
  "guid": "0bde9c3c-8387-4568-8a05-2cb1fbd934df",
  "html": "<div class=\"section\">\n  <p>We are not robots, to be taught,</p>\n  <p>we are humans powered by inventive and original thought.</p>\n</div>\n<div class=\"section\">\n  <p>This is why life has no instruction book,</p>\n  <p>if it did, it could only ever tell us where to look.</p>\n</div>\n<div class=\"section\">\n  <p>For the sake of this poem,</p>\n  <p>let us image that this book does, exist.</p>\n</div>\n<div class=\"section\">\n  <p>Here is how I imagine it would read,</p>\n  <p>and let me start with the opening creed:</p>\n</div>\n<div class=\"section\">\n  <p>- If someone is attacking you call for help, until it comes.</p>\n  <p>- If school is treating you unfairly, go hang out with the Principal.</p>\n  <p>- You need to build your Content of Character.</p>\n  <p>- Your Body of Wisdom is a Key To Happiness.</p>\n  <p>- You Must Grow All The Way Up.</p>\n  <p>- You are to Become a Great Being.</p>\n  <p>- You Are Beautiful, You Were Beautiful All Along.</p>\n</div>\n<div class=\"section\">\n  <p>It would point to learn from The Greats</p>\n  <p>as they managed to lift impossible weights.</p>\n</div>\n<div class=\"section\">\n  <p>It would also say that we are delicate,</p>\n  <p>and our minds are extremely intricate.</p>\n</div>\n<div class=\"section\">\n  <p>It would add, Hey!</p>\n  <p>You can not grow up in places that weigh.</p>\n</div>\n<div class=\"section\">\n  <p>You have to find you own place in the world,</p>\n  <p>and you have to quit doing what you are told.</p>\n</div>\n<div class=\"section\">\n  <p>Above all it would state,</p>\n  <p>that you are Free,</p>\n  <p>and Full of Beauty.</p>\n  <p>and searching for Wisdom is your duty.</p>\n</div>",
  "bootstrap": "<div class=\"card card-section bg-dark text-warning shadow\">\n  <div class=\"section card-body mb-0 my-2\">\n    <div class=\"paragraph card-text card-stanza my-5 text-center\">We are not robots, to be taught,</div>\n    <div class=\"paragraph card-text card-stanza my-5 text-center\">we are humans powered by inventive and original thought.</div>\n  </div>\n</div>\n<div class=\"card card-section bg-dark text-warning shadow\">\n  <div class=\"section card-body mb-0 my-2\">\n    <div class=\"paragraph card-text card-stanza my-5 text-center\">This is why life has no instruction book,</div>\n    <div class=\"paragraph card-text card-stanza my-5 text-center\">if it did, it could only ever tell us where to look.</div>\n  </div>\n</div>\n<div class=\"card card-section bg-dark text-warning shadow\">\n  <div class=\"section card-body mb-0 my-2\">\n    <div class=\"paragraph card-text card-stanza my-5 text-center\">For the sake of this poem,</div>\n    <div class=\"paragraph card-text card-stanza my-5 text-center\">let us image that this book does, exist.</div>\n  </div>\n</div>\n<div class=\"card card-section bg-dark text-warning shadow\">\n  <div class=\"section card-body mb-0 my-2\">\n    <div class=\"paragraph card-text card-stanza my-5 text-center\">Here is how I imagine it would read,</div>\n    <div class=\"paragraph card-text card-stanza my-5 text-center\">and let me start with the opening creed:</div>\n  </div>\n</div>\n<div class=\"card card-section bg-dark text-warning shadow\">\n  <div class=\"section card-body mb-0 my-2\">\n    <div class=\"paragraph card-text card-stanza my-5 text-center\">- If someone is attacking you call for help, until it comes.</div>\n    <div class=\"paragraph card-text card-stanza my-5 text-center\">- If school is treating you unfairly, go hang out with the Principal.</div>\n    <div class=\"paragraph card-text card-stanza my-5 text-center\">- You need to build your Content of Character.</div>\n    <div class=\"paragraph card-text card-stanza my-5 text-center\">- Your Body of Wisdom is a Key To Happiness.</div>\n    <div class=\"paragraph card-text card-stanza my-5 text-center\">- You Must Grow All The Way Up.</div>\n    <div class=\"paragraph card-text card-stanza my-5 text-center\">- You are to Become a Great Being.</div>\n    <div class=\"paragraph card-text card-stanza my-5 text-center\">- You Are Beautiful, You Were Beautiful All Along.</div>\n  </div>\n</div>\n<div class=\"card card-section bg-dark text-warning shadow\">\n  <div class=\"section card-body mb-0 my-2\">\n    <div class=\"paragraph card-text card-stanza my-5 text-center\">It would point to learn from The Greats</div>\n    <div class=\"paragraph card-text card-stanza my-5 text-center\">as they managed to lift impossible weights.</div>\n  </div>\n</div>\n<div class=\"card card-section bg-dark text-warning shadow\">\n  <div class=\"section card-body mb-0 my-2\">\n    <div class=\"paragraph card-text card-stanza my-5 text-center\">It would also say that we are delicate,</div>\n    <div class=\"paragraph card-text card-stanza my-5 text-center\">and our minds are extremely intricate.</div>\n  </div>\n</div>\n<div class=\"card card-section bg-dark text-warning shadow\">\n  <div class=\"section card-body mb-0 my-2\">\n    <div class=\"paragraph card-text card-stanza my-5 text-center\">It would add, Hey!</div>\n    <div class=\"paragraph card-text card-stanza my-5 text-center\">You can not grow up in places that weigh.</div>\n  </div>\n</div>\n<div class=\"card card-section bg-dark text-warning shadow\">\n  <div class=\"section card-body mb-0 my-2\">\n    <div class=\"paragraph card-text card-stanza my-5 text-center\">You have to find you own place in the world,</div>\n    <div class=\"paragraph card-text card-stanza my-5 text-center\">and you have to quit doing what you are told.</div>\n  </div>\n</div>\n<div class=\"card card-section bg-dark text-warning shadow\">\n  <div class=\"section card-body mb-0 my-2\">\n    <div class=\"paragraph card-text card-stanza my-5 text-center\">Above all it would state,</div>\n    <div class=\"paragraph card-text card-stanza my-5 text-center\">that you are Free,</div>\n    <div class=\"paragraph card-text card-stanza my-5 text-center\">and Full of Beauty.</div>\n    <div class=\"paragraph card-text card-stanza my-5 text-center\">and searching for Wisdom is your duty.</div>\n  </div>\n</div>",
  "print": "<div class=\"section avoid-break-inside\" style=\"padding-bottom: 2rem;\">\n  <div class=\"paragraph\">We are not robots, to be taught,</div>\n  <div class=\"paragraph\">we are humans powered by inventive and original thought.</div>\n</div>\n<div class=\"section avoid-break-inside\" style=\"padding-bottom: 2rem;\">\n  <div class=\"paragraph\">This is why life has no instruction book,</div>\n  <div class=\"paragraph\">if it did, it could only ever tell us where to look.</div>\n</div>\n<div class=\"section avoid-break-inside\" style=\"padding-bottom: 2rem;\">\n  <div class=\"paragraph\">For the sake of this poem,</div>\n  <div class=\"paragraph\">let us image that this book does, exist.</div>\n</div>\n<div class=\"section avoid-break-inside\" style=\"padding-bottom: 2rem;\">\n  <div class=\"paragraph\">Here is how I imagine it would read,</div>\n  <div class=\"paragraph\">and let me start with the opening creed:</div>\n</div>\n<div class=\"section avoid-break-inside\" style=\"padding-bottom: 2rem;\">\n  <div class=\"paragraph\">- If someone is attacking you call for help, until it comes.</div>\n  <div class=\"paragraph\">- If school is treating you unfairly, go hang out with the Principal.</div>\n  <div class=\"paragraph\">- You need to build your Content of Character.</div>\n  <div class=\"paragraph\">- Your Body of Wisdom is a Key To Happiness.</div>\n  <div class=\"paragraph\">- You Must Grow All The Way Up.</div>\n  <div class=\"paragraph\">- You are to Become a Great Being.</div>\n  <div class=\"paragraph\">- You Are Beautiful, You Were Beautiful All Along.</div>\n</div>\n<div class=\"section avoid-break-inside\" style=\"padding-bottom: 2rem;\">\n  <div class=\"paragraph\">It would point to learn from The Greats</div>\n  <div class=\"paragraph\">as they managed to lift impossible weights.</div>\n</div>\n<div class=\"section avoid-break-inside\" style=\"padding-bottom: 2rem;\">\n  <div class=\"paragraph\">It would also say that we are delicate,</div>\n  <div class=\"paragraph\">and our minds are extremely intricate.</div>\n</div>\n<div class=\"section avoid-break-inside\" style=\"padding-bottom: 2rem;\">\n  <div class=\"paragraph\">It would add, Hey!</div>\n  <div class=\"paragraph\">You can not grow up in places that weigh.</div>\n</div>\n<div class=\"section avoid-break-inside\" style=\"padding-bottom: 2rem;\">\n  <div class=\"paragraph\">You have to find you own place in the world,</div>\n  <div class=\"paragraph\">and you have to quit doing what you are told.</div>\n</div>\n<div class=\"section avoid-break-inside\" style=\"padding-bottom: 2rem;\">\n  <div class=\"paragraph\">Above all it would state,</div>\n  <div class=\"paragraph\">that you are Free,</div>\n  <div class=\"paragraph\">and Full of Beauty.</div>\n  <div class=\"paragraph\">and searching for Wisdom is your duty.</div>\n</div>",
  "text": "We are not robots, to be taught,\nwe are humans powered by inventive and original thought.\nThis is why life has no instruction book,\nif it did, it could only ever tell us where to look.\nFor the sake of this poem,\nlet us image that this book does, exist.\nHere is how I imagine it would read,\nand let me start with the opening creed:\n- If someone is attacking you call for help, until it comes.\n- If school is treating you unfairly, go hang out with the Principal.\n- You need to build your Content of Character.\n- Your Body of Wisdom is a Key To Happiness.\n- You Must Grow All The Way Up.\n- You are to Become a Great Being.\n- You Are Beautiful, You Were Beautiful All Along.\nIt would point to learn from The Greats\nas they managed to lift impossible weights.\nIt would also say that we are delicate,\nand our minds are extremely intricate.\nIt would add, Hey!\nYou can not grow up in places that weigh.\nYou have to find you own place in the world,\nand you have to quit doing what you are told.\nAbove all it would state,\nthat you are Free,\nand Full of Beauty.\nand searching for Wisdom is your duty.",
  "images": [],
  "links": []
}