{
  "title": "Light Of The Universe",
  "date": "2021-04-17T01:30:07.900Z",
  "image": "poetry-0412-illustration.jpg",
  "audio": "poetry-0412.mp3",
  "artwork": "https://en.wikipedia.org/wiki/File:Black_hole_-_Messier_87_crop_max_res.jpg",
  "id": "furkies-purrkies-poetry-0412",
  "attachments": {},
  "guid": "bef017b5-cc8a-47e7-bf6c-919d334d1f33"
}
