{
  "id": "furkies-purrkies-poetry-0771",
  "title": "Building Masterpiece Paintings",
  "date": "2022-04-10T23:34:53.405Z",
  "image": "poetry-0771-illustration.jpg",
  "artwork": "https://catpea.com",
  "audio": "poetry-0771.mp3",
  "guid": "d25da636-f03b-462d-b088-3e524bfa5444"
}
