{
  "id": "furkies-purrkies-poetry-0877",
  "title": "Furkies Purrkies Poetry 0877",
  "date": "2022-07-25T18:06:52.571Z",
  "image": "poetry-0877-illustration.jpg",
  "artwork": "https://example.com",
  "audio": "poetry-0877.mp3"
}