{
  "name": "furkies-purrkies-poetry-0049",
  "title": "School Is Not For Us - Run, Child. Run From The Bus.",
  "date": "2020-04-26T23:10:06.000Z",
  "audio": "poetry-0049.mp3",
  "image": "poetry-0049-illustration.jpg",
  "artwork": "https://unsplash.com/photos/yO3whNbzxsc",
  "id": "furkies-purrkies-poetry-0049",
  "attachments": {},
  "guid": "fe28de3d-cea1-41f1-80d1-23317cf777f4",
  "html": "<div class=\"section\">\n  <p>Don&apos;t let them put you on a school bus.</p>\n  <p>Tell you parents, school is crazy!</p>\n</div>\n<div class=\"section\">\n  <p>And anyway,</p>\n  <p>they shouldn&apos;t be so lazy.</p>\n</div>\n<div class=\"section\">\n  <p>You will need all the games,</p>\n  <p>and you memorize <em>no</em> presidential names.</p>\n</div>\n<div class=\"section\">\n  <p>You demand a trip to every national park.</p>\n  <p>because you will not spend you life in the dark.</p>\n</div>\n<div class=\"section\">\n  <p>You will need every audio-book ever made,</p>\n  <p>and only then will you go through life unafraid.</p>\n</div>",
  "bootstrap": "<div class=\"card card-section bg-dark text-warning shadow\">\n  <div class=\"section card-body mb-0 my-2\">\n    <div class=\"paragraph card-text card-stanza my-5 text-center\">Don't let them put you on a school bus.</div>\n    <div class=\"paragraph card-text card-stanza my-5 text-center\">Tell you parents, school is crazy!</div>\n  </div>\n</div>\n<div class=\"card card-section bg-dark text-warning shadow\">\n  <div class=\"section card-body mb-0 my-2\">\n    <div class=\"paragraph card-text card-stanza my-5 text-center\">And anyway,</div>\n    <div class=\"paragraph card-text card-stanza my-5 text-center\">they shouldn't be so lazy.</div>\n  </div>\n</div>\n<div class=\"card card-section bg-dark text-warning shadow\">\n  <div class=\"section card-body mb-0 my-2\">\n    <div class=\"paragraph card-text card-stanza my-5 text-center\">You will need all the games,</div>\n    <div class=\"paragraph card-text card-stanza my-5 text-center\">and you memorize <em>no</em> presidential names.</div>\n  </div>\n</div>\n<div class=\"card card-section bg-dark text-warning shadow\">\n  <div class=\"section card-body mb-0 my-2\">\n    <div class=\"paragraph card-text card-stanza my-5 text-center\">You demand a trip to every national park.</div>\n    <div class=\"paragraph card-text card-stanza my-5 text-center\">because you will not spend you life in the dark.</div>\n  </div>\n</div>\n<div class=\"card card-section bg-dark text-warning shadow\">\n  <div class=\"section card-body mb-0 my-2\">\n    <div class=\"paragraph card-text card-stanza my-5 text-center\">You will need every audio-book ever made,</div>\n    <div class=\"paragraph card-text card-stanza my-5 text-center\">and only then will you go through life unafraid.</div>\n  </div>\n</div>",
  "print": "<div class=\"section avoid-break-inside\" style=\"padding-bottom: 2rem;\">\n  <div class=\"paragraph\">Don't let them put you on a school bus.</div>\n  <div class=\"paragraph\">Tell you parents, school is crazy!</div>\n</div>\n<div class=\"section avoid-break-inside\" style=\"padding-bottom: 2rem;\">\n  <div class=\"paragraph\">And anyway,</div>\n  <div class=\"paragraph\">they shouldn't be so lazy.</div>\n</div>\n<div class=\"section avoid-break-inside\" style=\"padding-bottom: 2rem;\">\n  <div class=\"paragraph\">You will need all the games,</div>\n  <div class=\"paragraph\">and you memorize <em>no</em> presidential names.</div>\n</div>\n<div class=\"section avoid-break-inside\" style=\"padding-bottom: 2rem;\">\n  <div class=\"paragraph\">You demand a trip to every national park.</div>\n  <div class=\"paragraph\">because you will not spend you life in the dark.</div>\n</div>\n<div class=\"section avoid-break-inside\" style=\"padding-bottom: 2rem;\">\n  <div class=\"paragraph\">You will need every audio-book ever made,</div>\n  <div class=\"paragraph\">and only then will you go through life unafraid.</div>\n</div>",
  "text": "Don't let them put you on a school bus.\nTell you parents, school is crazy!\nAnd anyway,\nthey shouldn't be so lazy.\nYou will need all the games,\nand you memorize no presidential names.\nYou demand a trip to every national park.\nbecause you will not spend you life in the dark.\nYou will need every audio-book ever made,\nand only then will you go through life unafraid.",
  "images": [],
  "links": []
}