{
  "name": "furkies-purrkies-poetry-0031",
  "title": "As Good As Fingers",
  "date": "2020-04-12T02:49:24.911Z",
  "audio": "poetry-0031.mp3",
  "image": "poetry-0031-illustration.jpg",
  "artwork": "https://catpea.com/",
  "id": "furkies-purrkies-poetry-0031",
  "attachments": {},
  "guid": "d7e0531f-bb8c-4b38-8377-d998c9724af0",
  "html": "<div class=\"section\">\n  <p>Captain&apos;s Log, Quarantine, Day Twenty Six,</p>\n</div>\n<div class=\"section\">\n  <p>I eat with metal chopsticks.</p>\n</div>\n<div class=\"section\">\n  <p>I stopped using forks,</p>\n</div>\n<div class=\"section\">\n  <p>to munch my porks.</p>\n</div>\n<div class=\"section\">\n  <p>I don&apos;t even know how long ago it was,</p>\n</div>\n<div class=\"section\">\n  <p>so long ago, I forgot the cause.</p>\n</div>\n<div class=\"section\">\n  <p>I own two metal chopsticks,</p>\n</div>\n<div class=\"section\">\n  <p>and they work as good as fingers.</p>\n</div>\n<div class=\"section\">\n  <p>I use them to eat my salads,</p>\n</div>\n<div class=\"section\">\n  <p>to scoop out Jelly and Peanut Butter,</p>\n</div>\n<div class=\"section\">\n  <p>I kid you not, I even use them as a little cutter.</p>\n</div>\n<div class=\"section\">\n  <p>A dull stick is just fine to turn a sausage in two.</p>\n</div>\n<div class=\"section\">\n  <p>And of course, I stir many a tea, or protein brew.</p>\n</div>\n<div class=\"section\">\n  <p>I do not miss the dangerous forks,</p>\n</div>\n<div class=\"section\">\n  <p>though once, in a blue moon,</p>\n</div>\n<div class=\"section\">\n  <p>I wish, I owned a spoon.</p>\n</div>",
  "bootstrap": "<div class=\"card card-section bg-dark text-warning shadow\">\n  <div class=\"section card-body mb-0 my-2\">\n    <div class=\"paragraph card-text card-stanza my-5 text-center\">Captain's Log, Quarantine, Day Twenty Six,</div>\n  </div>\n</div>\n<div class=\"card card-section bg-dark text-warning shadow\">\n  <div class=\"section card-body mb-0 my-2\">\n    <div class=\"paragraph card-text card-stanza my-5 text-center\">I eat with metal chopsticks.</div>\n  </div>\n</div>\n<div class=\"card card-section bg-dark text-warning shadow\">\n  <div class=\"section card-body mb-0 my-2\">\n    <div class=\"paragraph card-text card-stanza my-5 text-center\">I stopped using forks,</div>\n  </div>\n</div>\n<div class=\"card card-section bg-dark text-warning shadow\">\n  <div class=\"section card-body mb-0 my-2\">\n    <div class=\"paragraph card-text card-stanza my-5 text-center\">to munch my porks.</div>\n  </div>\n</div>\n<div class=\"card card-section bg-dark text-warning shadow\">\n  <div class=\"section card-body mb-0 my-2\">\n    <div class=\"paragraph card-text card-stanza my-5 text-center\">I don't even know how long ago it was,</div>\n  </div>\n</div>\n<div class=\"card card-section bg-dark text-warning shadow\">\n  <div class=\"section card-body mb-0 my-2\">\n    <div class=\"paragraph card-text card-stanza my-5 text-center\">so long ago, I forgot the cause.</div>\n  </div>\n</div>\n<div class=\"card card-section bg-dark text-warning shadow\">\n  <div class=\"section card-body mb-0 my-2\">\n    <div class=\"paragraph card-text card-stanza my-5 text-center\">I own two metal chopsticks,</div>\n  </div>\n</div>\n<div class=\"card card-section bg-dark text-warning shadow\">\n  <div class=\"section card-body mb-0 my-2\">\n    <div class=\"paragraph card-text card-stanza my-5 text-center\">and they work as good as fingers.</div>\n  </div>\n</div>\n<div class=\"card card-section bg-dark text-warning shadow\">\n  <div class=\"section card-body mb-0 my-2\">\n    <div class=\"paragraph card-text card-stanza my-5 text-center\">I use them to eat my salads,</div>\n  </div>\n</div>\n<div class=\"card card-section bg-dark text-warning shadow\">\n  <div class=\"section card-body mb-0 my-2\">\n    <div class=\"paragraph card-text card-stanza my-5 text-center\">to scoop out Jelly and Peanut Butter,</div>\n  </div>\n</div>\n<div class=\"card card-section bg-dark text-warning shadow\">\n  <div class=\"section card-body mb-0 my-2\">\n    <div class=\"paragraph card-text card-stanza my-5 text-center\">I kid you not, I even use them as a little cutter.</div>\n  </div>\n</div>\n<div class=\"card card-section bg-dark text-warning shadow\">\n  <div class=\"section card-body mb-0 my-2\">\n    <div class=\"paragraph card-text card-stanza my-5 text-center\">A dull stick is just fine to turn a sausage in two.</div>\n  </div>\n</div>\n<div class=\"card card-section bg-dark text-warning shadow\">\n  <div class=\"section card-body mb-0 my-2\">\n    <div class=\"paragraph card-text card-stanza my-5 text-center\">And of course, I stir many a tea, or protein brew.</div>\n  </div>\n</div>\n<div class=\"card card-section bg-dark text-warning shadow\">\n  <div class=\"section card-body mb-0 my-2\">\n    <div class=\"paragraph card-text card-stanza my-5 text-center\">I do not miss the dangerous forks,</div>\n  </div>\n</div>\n<div class=\"card card-section bg-dark text-warning shadow\">\n  <div class=\"section card-body mb-0 my-2\">\n    <div class=\"paragraph card-text card-stanza my-5 text-center\">though once, in a blue moon,</div>\n  </div>\n</div>\n<div class=\"card card-section bg-dark text-warning shadow\">\n  <div class=\"section card-body mb-0 my-2\">\n    <div class=\"paragraph card-text card-stanza my-5 text-center\">I wish, I owned a spoon.</div>\n  </div>\n</div>",
  "print": "<div class=\"section avoid-break-inside\" style=\"padding-bottom: 2rem;\">\n  <div class=\"paragraph\">Captain's Log, Quarantine, Day Twenty Six,</div>\n</div>\n<div class=\"section avoid-break-inside\" style=\"padding-bottom: 2rem;\">\n  <div class=\"paragraph\">I eat with metal chopsticks.</div>\n</div>\n<div class=\"section avoid-break-inside\" style=\"padding-bottom: 2rem;\">\n  <div class=\"paragraph\">I stopped using forks,</div>\n</div>\n<div class=\"section avoid-break-inside\" style=\"padding-bottom: 2rem;\">\n  <div class=\"paragraph\">to munch my porks.</div>\n</div>\n<div class=\"section avoid-break-inside\" style=\"padding-bottom: 2rem;\">\n  <div class=\"paragraph\">I don't even know how long ago it was,</div>\n</div>\n<div class=\"section avoid-break-inside\" style=\"padding-bottom: 2rem;\">\n  <div class=\"paragraph\">so long ago, I forgot the cause.</div>\n</div>\n<div class=\"section avoid-break-inside\" style=\"padding-bottom: 2rem;\">\n  <div class=\"paragraph\">I own two metal chopsticks,</div>\n</div>\n<div class=\"section avoid-break-inside\" style=\"padding-bottom: 2rem;\">\n  <div class=\"paragraph\">and they work as good as fingers.</div>\n</div>\n<div class=\"section avoid-break-inside\" style=\"padding-bottom: 2rem;\">\n  <div class=\"paragraph\">I use them to eat my salads,</div>\n</div>\n<div class=\"section avoid-break-inside\" style=\"padding-bottom: 2rem;\">\n  <div class=\"paragraph\">to scoop out Jelly and Peanut Butter,</div>\n</div>\n<div class=\"section avoid-break-inside\" style=\"padding-bottom: 2rem;\">\n  <div class=\"paragraph\">I kid you not, I even use them as a little cutter.</div>\n</div>\n<div class=\"section avoid-break-inside\" style=\"padding-bottom: 2rem;\">\n  <div class=\"paragraph\">A dull stick is just fine to turn a sausage in two.</div>\n</div>\n<div class=\"section avoid-break-inside\" style=\"padding-bottom: 2rem;\">\n  <div class=\"paragraph\">And of course, I stir many a tea, or protein brew.</div>\n</div>\n<div class=\"section avoid-break-inside\" style=\"padding-bottom: 2rem;\">\n  <div class=\"paragraph\">I do not miss the dangerous forks,</div>\n</div>\n<div class=\"section avoid-break-inside\" style=\"padding-bottom: 2rem;\">\n  <div class=\"paragraph\">though once, in a blue moon,</div>\n</div>\n<div class=\"section avoid-break-inside\" style=\"padding-bottom: 2rem;\">\n  <div class=\"paragraph\">I wish, I owned a spoon.</div>\n</div>",
  "text": "Captain's Log, Quarantine, Day Twenty Six,\nI eat with metal chopsticks.\nI stopped using forks,\nto munch my porks.\nI don't even know how long ago it was,\nso long ago, I forgot the cause.\nI own two metal chopsticks,\nand they work as good as fingers.\nI use them to eat my salads,\nto scoop out Jelly and Peanut Butter,\nI kid you not, I even use them as a little cutter.\nA dull stick is just fine to turn a sausage in two.\nAnd of course, I stir many a tea, or protein brew.\nI do not miss the dangerous forks,\nthough once, in a blue moon,\nI wish, I owned a spoon.",
  "images": [],
  "links": []
}