{
  "name": "furkies-purrkies-poetry-0551",
  "id": "furkies-purrkies-poetry-0551",
  "title": "Boss Makes A Dollar I Make A Dime, That’s Why I Learn On Company Time",
  "date": "2021-09-03T02:19:46.064Z",
  "image": "poetry-0551-illustration.jpg",
  "artwork": "https://unsplash.com/photos/sLSiTzZyLIQ",
  "audio": "poetry-0551.mp3",
  "guid": "00b0f85d-2e60-45e1-9ec8-d7f6eefa1f30",
  "html": "<div class=\"section\">\n  <p>High School was supposed to teach you how to build your own company,<br>and you were supposed to figure out that College is just a scam.</p>\n  <p>You were not supposed to tolerate fake grades,<br>and even grades in general.</p>\n  <p>The system of encouragement was supposed to revolve around your financial independence,<br>your teachers were supposed to teach you how to build a series of independent businesses.</p>\n</div>\n<div class=\"section\">\n  <hr>\n</div>\n<div class=\"section\">\n  <p>It is that series of businesses,<br>that would create the need for Mathematics, Programming, and Science.</p>\n  <p>Language, Social Studies, History, would come from narrated books,<br>that you would read in your travels as an exchange student.</p>\n  <p>The exchange is meant to help you transition to a broader more global culture,<br>in expectation of world peace and unity.</p>\n</div>\n<div class=\"section\">\n  <hr>\n</div>\n<div class=\"section\">\n  <p>Electives, are actually just as important,<br>if not more important as the main subjects.</p>\n  <p>Your school was never supposed to use grades,<br>but both get you to make money and pay for a healthy and balanced existence.</p>\n</div>\n<div class=\"section\">\n  <hr>\n</div>\n<div class=\"section\">\n  <p>This is not a fantasy,<br>military, nuclear weapons, and war as means of change are the fantasy.</p>\n  <p>Just consider how imbecile and infantile Peace <strong>is</strong>,<br>by means of using Mutually Assured Destruction as a deterrent.</p>\n  <p>How many generations will it take do you think,<br>before the notion of a deterrent is forgotten, and they are deployed.</p>\n  <p>Deployed by uneducated children,<br>taught from a young age that other children need to die because they are different.</p>\n  <p>Even borders are a stupid idea,<br>geographic - certainly - but any division that drives our family apart is a stupid idea.</p>\n  <p>A functional education system,<br>that immediately helps its students out of poverty is critical for the advancement of human kind.</p>\n</div>\n<div class=\"section\">\n  <hr>\n</div>\n<div class=\"section\">\n  <p><a href=\"https://www.youtube.com/watch?v=sxyKNMrhEvY\">You have been mislead</a>,<br><a href=\"https://www.youtube.com/watch?v=8rmSldhnSDc\">you have been tricked</a>.</p>\n  <p>You have been forced into broken cultures,<br>and you have been put on a path to repeat humanity’s worst mistakes.</p>\n</div>\n<div class=\"section\">\n  <hr>\n</div>\n<div class=\"section\">\n  <p>The people who have done this to you,<br>are the same people who will do this to the younger generations.</p>\n  <p>To stop this, to put an end to this cycle,<br>you have to stop living an ordinary life and become a great being.</p>\n  <p>If you don’t stop living an ordinary life,<br>right now.</p>\n  <p>Then whatever discomforts you are hoping to avoid by continuing to live life as is,<br>will transform into <a href=\"https://edition.cnn.com/2019/11/05/world/climate-emergency-scientists-warning-intl-trnd/index.html\">untold suffering</a> for the generations.</p>\n  <p>Future generations,<br>that you are meant to watch over with your Greatness of Heart and Mind.</p>\n</div>\n<div class=\"section\">\n  <hr>\n</div>\n<div class=\"section\">\n  <p>Here is how you can get started:</p>\n  <p>Listen to every narrated book that changes lives,<br>if your boss wants you to stop learning during work, quit your job and find one that will support your education.</p>\n  <p>The reason why you can’t see what you will do about money,<br>is the same reason why people who have been taken into slavery didn’t know where else to go.</p>\n  <p>It is the same reason why people return to prisons,<br>being unable to find a job, or an apartment even.</p>\n  <p>Knowledge was denied to them,<br>knowledge has been denied to you as well.</p>\n  <p>Other than telling you to listen and read thousands of books,<br>I won't tell you which.</p>\n  <p>Because it is the hundreds of great beings that <strong>you choose</strong>_ to listen to,<br>that will help you find a path of real knowledge, true wisdom, and unforgettable greatness.</p>\n  <p>A word of caution, those who will try to prevent you from listening to books,<br>or make fun of you for any such reason, are neither friend nor family.</p>\n</div>\n<div class=\"section\">\n  <hr>\n</div>\n<div class=\"section\">\n  <p>Go to the library, search for narrated books that try to bridge what we didn’t learn in school,<br>with what we should know today.</p>\n  <p>Pleasant and award winning books,<br>with cheerful authors and memorable narrators.</p>\n  <p>Look into non-fiction,<br>Biographies and Memoirs, Adventure and Travel.</p>\n  <p>There is no single category that will have everything you need,<br>but look into meaningful lives and admired thinkers that made the world a better place.</p>\n  <p>Look for adventure books,<br>that make us stronger.</p>\n</div>\n<div class=\"section\">\n  <hr>\n</div>\n<div class=\"section\">\n  <p>Narrated books also double as a way of testing your well being,<br>if you can’t focus, or keep losing track especially when you have a good narrator - then you have pushed yourself too hard in life.</p>\n  <p>It is not that you can’t listen to narrated books,<br>but that you have been pushed too far and cut your self off from the ability to learn and listen.</p>\n  <p>Vacations ,<br>often reveal the stress levels that we are under.</p>\n  <p>After some real rest,<br>you will discover that you need books.</p>\n</div>\n<div class=\"section\">\n  <hr>\n</div>\n<div class=\"section\">\n  <p>If you need a vacation,<br>but aren’t sure what to do, or where to go.</p>\n  <p>There are places that many Great Beings upon visitation many call a Crucible, a Place Of Healing, and even Penance.</p>\n  <p>Those are the Great Trails,<br>The <a href=\"https://www.youtube.com/watch?v=hPSvdKTEZug\">Appalachian Trail of the East</a>, and the <a href=\"https://www.youtube.com/watch?v=vmmH-2rWHH0\">Pacific Crest Trail of the West</a>, and they have their equivalents throughout the world.</p>\n  <p>They will always wait for you,<br>they will always welcome you.</p>\n  <p>They will always heal you,<br>and they will always serve as all the proof you need, that you are meant to become a Great Being; and add to the change the future needs.</p>\n  <p><a href=\"https://www.youtube.com/watch?v=Sk1wlMlfqHQ\">Simon & Garfunkel El Cóndor Pasa</a></p>\n</div>",
  "bootstrap": "<div class=\"card card-section bg-dark text-warning shadow\">\n  <div class=\"section card-body mb-0 my-2\">\n    <div class=\"paragraph card-text card-stanza my-5 text-center\">High School was supposed to teach you how to build your own company,<br>and you were supposed to figure out that College is just a scam.</div>\n    <div class=\"paragraph card-text card-stanza my-5 text-center\">You were not supposed to tolerate fake grades,<br>and even grades in general.</div>\n    <div class=\"paragraph card-text card-stanza my-5 text-center\">The system of encouragement was supposed to revolve around your financial independence,<br>your teachers were supposed to teach you how to build a series of independent businesses.</div>\n  </div>\n</div>\n<div class=\"mb-5 section-spacer\">&nbsp;</div>\n<div class=\"card card-section bg-dark text-warning shadow\">\n  <div class=\"section card-body mb-0 my-2\">\n    <div class=\"paragraph card-text card-stanza my-5 text-center\">It is that series of businesses,<br>that would create the need for Mathematics, Programming, and Science.</div>\n    <div class=\"paragraph card-text card-stanza my-5 text-center\">Language, Social Studies, History, would come from narrated books,<br>that you would read in your travels as an exchange student.</div>\n    <div class=\"paragraph card-text card-stanza my-5 text-center\">The exchange is meant to help you transition to a broader more global culture,<br>in expectation of world peace and unity.</div>\n  </div>\n</div>\n<div class=\"mb-5 section-spacer\">&nbsp;</div>\n<div class=\"card card-section bg-dark text-warning shadow\">\n  <div class=\"section card-body mb-0 my-2\">\n    <div class=\"paragraph card-text card-stanza my-5 text-center\">Electives, are actually just as important,<br>if not more important as the main subjects.</div>\n    <div class=\"paragraph card-text card-stanza my-5 text-center\">Your school was never supposed to use grades,<br>but both get you to make money and pay for a healthy and balanced existence.</div>\n  </div>\n</div>\n<div class=\"mb-5 section-spacer\">&nbsp;</div>\n<div class=\"card card-section bg-dark text-warning shadow\">\n  <div class=\"section card-body mb-0 my-2\">\n    <div class=\"paragraph card-text card-stanza my-5 text-center\">This is not a fantasy,<br>military, nuclear weapons, and war as means of change are the fantasy.</div>\n    <div class=\"paragraph card-text card-stanza my-5 text-center\">Just consider how imbecile and infantile Peace <strong>is</strong>,<br>by means of using Mutually Assured Destruction as a deterrent.</div>\n    <div class=\"paragraph card-text card-stanza my-5 text-center\">How many generations will it take do you think,<br>before the notion of a deterrent is forgotten, and they are deployed.</div>\n    <div class=\"paragraph card-text card-stanza my-5 text-center\">Deployed by uneducated children,<br>taught from a young age that other children need to die because they are different.</div>\n    <div class=\"paragraph card-text card-stanza my-5 text-center\">Even borders are a stupid idea,<br>geographic - certainly - but any division that drives our family apart is a stupid idea.</div>\n    <div class=\"paragraph card-text card-stanza my-5 text-center\">A functional education system,<br>that immediately helps its students out of poverty is critical for the advancement of human kind.</div>\n  </div>\n</div>\n<div class=\"mb-5 section-spacer\">&nbsp;</div>\n<div class=\"card card-section bg-dark text-warning shadow\">\n  <div class=\"section card-body mb-0 my-2\">\n    <div class=\"paragraph card-text card-stanza my-5 text-center\"><a href=\"https://www.youtube.com/watch?v=sxyKNMrhEvY\">You have been mislead</a>,<br><a href=\"https://www.youtube.com/watch?v=8rmSldhnSDc\">you have been tricked</a>.</div>\n    <div class=\"paragraph card-text card-stanza my-5 text-center\">You have been forced into broken cultures,<br>and you have been put on a path to repeat humanity’s worst mistakes.</div>\n  </div>\n</div>\n<div class=\"mb-5 section-spacer\">&nbsp;</div>\n<div class=\"card card-section bg-dark text-warning shadow\">\n  <div class=\"section card-body mb-0 my-2\">\n    <div class=\"paragraph card-text card-stanza my-5 text-center\">The people who have done this to you,<br>are the same people who will do this to the younger generations.</div>\n    <div class=\"paragraph card-text card-stanza my-5 text-center\">To stop this, to put an end to this cycle,<br>you have to stop living an ordinary life and become a great being.</div>\n    <div class=\"paragraph card-text card-stanza my-5 text-center\">If you don’t stop living an ordinary life,<br>right now.</div>\n    <div class=\"paragraph card-text card-stanza my-5 text-center\">Then whatever discomforts you are hoping to avoid by continuing to live life as is,<br>will transform into <a href=\"https://edition.cnn.com/2019/11/05/world/climate-emergency-scientists-warning-intl-trnd/index.html\">untold suffering</a> for the generations.</div>\n    <div class=\"paragraph card-text card-stanza my-5 text-center\">Future generations,<br>that you are meant to watch over with your Greatness of Heart and Mind.</div>\n  </div>\n</div>\n<div class=\"mb-5 section-spacer\">&nbsp;</div>\n<div class=\"card card-section bg-dark text-warning shadow\">\n  <div class=\"section card-body mb-0 my-2\">\n    <div class=\"paragraph card-text card-stanza my-5 text-center\">Here is how you can get started:</div>\n    <div class=\"paragraph card-text card-stanza my-5 text-center\">Listen to every narrated book that changes lives,<br>if your boss wants you to stop learning during work, quit your job and find one that will support your education.</div>\n    <div class=\"paragraph card-text card-stanza my-5 text-center\">The reason why you can’t see what you will do about money,<br>is the same reason why people who have been taken into slavery didn’t know where else to go.</div>\n    <div class=\"paragraph card-text card-stanza my-5 text-center\">It is the same reason why people return to prisons,<br>being unable to find a job, or an apartment even.</div>\n    <div class=\"paragraph card-text card-stanza my-5 text-center\">Knowledge was denied to them,<br>knowledge has been denied to you as well.</div>\n    <div class=\"paragraph card-text card-stanza my-5 text-center\">Other than telling you to listen and read thousands of books,<br>I won't tell you which.</div>\n    <div class=\"paragraph card-text card-stanza my-5 text-center\">Because it is the hundreds of great beings that <strong>you choose</strong>_ to listen to,<br>that will help you find a path of real knowledge, true wisdom, and unforgettable greatness.</div>\n    <div class=\"paragraph card-text card-stanza my-5 text-center\">A word of caution, those who will try to prevent you from listening to books,<br>or make fun of you for any such reason, are neither friend nor family.</div>\n  </div>\n</div>\n<div class=\"mb-5 section-spacer\">&nbsp;</div>\n<div class=\"card card-section bg-dark text-warning shadow\">\n  <div class=\"section card-body mb-0 my-2\">\n    <div class=\"paragraph card-text card-stanza my-5 text-center\">Go to the library, search for narrated books that try to bridge what we didn’t learn in school,<br>with what we should know today.</div>\n    <div class=\"paragraph card-text card-stanza my-5 text-center\">Pleasant and award winning books,<br>with cheerful authors and memorable narrators.</div>\n    <div class=\"paragraph card-text card-stanza my-5 text-center\">Look into non-fiction,<br>Biographies and Memoirs, Adventure and Travel.</div>\n    <div class=\"paragraph card-text card-stanza my-5 text-center\">There is no single category that will have everything you need,<br>but look into meaningful lives and admired thinkers that made the world a better place.</div>\n    <div class=\"paragraph card-text card-stanza my-5 text-center\">Look for adventure books,<br>that make us stronger.</div>\n  </div>\n</div>\n<div class=\"mb-5 section-spacer\">&nbsp;</div>\n<div class=\"card card-section bg-dark text-warning shadow\">\n  <div class=\"section card-body mb-0 my-2\">\n    <div class=\"paragraph card-text card-stanza my-5 text-center\">Narrated books also double as a way of testing your well being,<br>if you can’t focus, or keep losing track especially when you have a good narrator - then you have pushed yourself too hard in life.</div>\n    <div class=\"paragraph card-text card-stanza my-5 text-center\">It is not that you can’t listen to narrated books,<br>but that you have been pushed too far and cut your self off from the ability to learn and listen.</div>\n    <div class=\"paragraph card-text card-stanza my-5 text-center\">Vacations ,<br>often reveal the stress levels that we are under.</div>\n    <div class=\"paragraph card-text card-stanza my-5 text-center\">After some real rest,<br>you will discover that you need books.</div>\n  </div>\n</div>\n<div class=\"mb-5 section-spacer\">&nbsp;</div>\n<div class=\"card card-section bg-dark text-warning shadow\">\n  <div class=\"section card-body mb-0 my-2\">\n    <div class=\"paragraph card-text card-stanza my-5 text-center\">If you need a vacation,<br>but aren’t sure what to do, or where to go.</div>\n    <div class=\"paragraph card-text card-stanza my-5 text-center\">There are places that many Great Beings upon visitation many call a Crucible, a Place Of Healing, and even Penance.</div>\n    <div class=\"paragraph card-text card-stanza my-5 text-center\">Those are the Great Trails,<br>The <a href=\"https://www.youtube.com/watch?v=hPSvdKTEZug\">Appalachian Trail of the East</a>, and the <a href=\"https://www.youtube.com/watch?v=vmmH-2rWHH0\">Pacific Crest Trail of the West</a>, and they have their equivalents throughout the world.</div>\n    <div class=\"paragraph card-text card-stanza my-5 text-center\">They will always wait for you,<br>they will always welcome you.</div>\n    <div class=\"paragraph card-text card-stanza my-5 text-center\">They will always heal you,<br>and they will always serve as all the proof you need, that you are meant to become a Great Being; and add to the change the future needs.</div>\n    <div class=\"paragraph card-text card-stanza my-5 text-center\"><a href=\"https://www.youtube.com/watch?v=Sk1wlMlfqHQ\">Simon & Garfunkel El Cóndor Pasa</a></div>\n  </div>\n</div>",
  "print": "<div class=\"section avoid-break-inside\" style=\"padding-bottom: 2rem;\">\n  <div class=\"paragraph\">High School was supposed to teach you how to build your own company,<br>and you were supposed to figure out that College is just a scam.</div>\n  <div class=\"paragraph\">You were not supposed to tolerate fake grades,<br>and even grades in general.</div>\n  <div class=\"paragraph\">The system of encouragement was supposed to revolve around your financial independence,<br>your teachers were supposed to teach you how to build a series of independent businesses.</div>\n</div>\n<div class=\"section avoid-break-inside\" style=\"padding-bottom: 2rem;\">\n  <br>\n</div>\n<div class=\"section avoid-break-inside\" style=\"padding-bottom: 2rem;\">\n  <div class=\"paragraph\">It is that series of businesses,<br>that would create the need for Mathematics, Programming, and Science.</div>\n  <div class=\"paragraph\">Language, Social Studies, History, would come from narrated books,<br>that you would read in your travels as an exchange student.</div>\n  <div class=\"paragraph\">The exchange is meant to help you transition to a broader more global culture,<br>in expectation of world peace and unity.</div>\n</div>\n<div class=\"section avoid-break-inside\" style=\"padding-bottom: 2rem;\">\n  <br>\n</div>\n<div class=\"section avoid-break-inside\" style=\"padding-bottom: 2rem;\">\n  <div class=\"paragraph\">Electives, are actually just as important,<br>if not more important as the main subjects.</div>\n  <div class=\"paragraph\">Your school was never supposed to use grades,<br>but both get you to make money and pay for a healthy and balanced existence.</div>\n</div>\n<div class=\"section avoid-break-inside\" style=\"padding-bottom: 2rem;\">\n  <br>\n</div>\n<div class=\"section avoid-break-inside\" style=\"padding-bottom: 2rem;\">\n  <div class=\"paragraph\">This is not a fantasy,<br>military, nuclear weapons, and war as means of change are the fantasy.</div>\n  <div class=\"paragraph\">Just consider how imbecile and infantile Peace <strong>is</strong>,<br>by means of using Mutually Assured Destruction as a deterrent.</div>\n  <div class=\"paragraph\">How many generations will it take do you think,<br>before the notion of a deterrent is forgotten, and they are deployed.</div>\n  <div class=\"paragraph\">Deployed by uneducated children,<br>taught from a young age that other children need to die because they are different.</div>\n  <div class=\"paragraph\">Even borders are a stupid idea,<br>geographic - certainly - but any division that drives our family apart is a stupid idea.</div>\n  <div class=\"paragraph\">A functional education system,<br>that immediately helps its students out of poverty is critical for the advancement of human kind.</div>\n</div>\n<div class=\"section avoid-break-inside\" style=\"padding-bottom: 2rem;\">\n  <br>\n</div>\n<div class=\"section avoid-break-inside\" style=\"padding-bottom: 2rem;\">\n  <div class=\"paragraph\"><span>You have been mislead<sup>[1]</sup></span>,<br><span>you have been tricked<sup>[2]</sup></span>.</div>\n  <div class=\"paragraph\">You have been forced into broken cultures,<br>and you have been put on a path to repeat humanity’s worst mistakes.</div>\n</div>\n<div class=\"section avoid-break-inside\" style=\"padding-bottom: 2rem;\">\n  <br>\n</div>\n<div class=\"section avoid-break-inside\" style=\"padding-bottom: 2rem;\">\n  <div class=\"paragraph\">The people who have done this to you,<br>are the same people who will do this to the younger generations.</div>\n  <div class=\"paragraph\">To stop this, to put an end to this cycle,<br>you have to stop living an ordinary life and become a great being.</div>\n  <div class=\"paragraph\">If you don’t stop living an ordinary life,<br>right now.</div>\n  <div class=\"paragraph\">Then whatever discomforts you are hoping to avoid by continuing to live life as is,<br>will transform into <span>untold suffering<sup>[3]</sup></span> for the generations.</div>\n  <div class=\"paragraph\">Future generations,<br>that you are meant to watch over with your Greatness of Heart and Mind.</div>\n</div>\n<div class=\"section avoid-break-inside\" style=\"padding-bottom: 2rem;\">\n  <br>\n</div>\n<div class=\"section avoid-break-inside\" style=\"padding-bottom: 2rem;\">\n  <div class=\"paragraph\">Here is how you can get started:</div>\n  <div class=\"paragraph\">Listen to every narrated book that changes lives,<br>if your boss wants you to stop learning during work, quit your job and find one that will support your education.</div>\n  <div class=\"paragraph\">The reason why you can’t see what you will do about money,<br>is the same reason why people who have been taken into slavery didn’t know where else to go.</div>\n  <div class=\"paragraph\">It is the same reason why people return to prisons,<br>being unable to find a job, or an apartment even.</div>\n  <div class=\"paragraph\">Knowledge was denied to them,<br>knowledge has been denied to you as well.</div>\n  <div class=\"paragraph\">Other than telling you to listen and read thousands of books,<br>I won't tell you which.</div>\n  <div class=\"paragraph\">Because it is the hundreds of great beings that <strong>you choose</strong>_ to listen to,<br>that will help you find a path of real knowledge, true wisdom, and unforgettable greatness.</div>\n  <div class=\"paragraph\">A word of caution, those who will try to prevent you from listening to books,<br>or make fun of you for any such reason, are neither friend nor family.</div>\n</div>\n<div class=\"section avoid-break-inside\" style=\"padding-bottom: 2rem;\">\n  <br>\n</div>\n<div class=\"section avoid-break-inside\" style=\"padding-bottom: 2rem;\">\n  <div class=\"paragraph\">Go to the library, search for narrated books that try to bridge what we didn’t learn in school,<br>with what we should know today.</div>\n  <div class=\"paragraph\">Pleasant and award winning books,<br>with cheerful authors and memorable narrators.</div>\n  <div class=\"paragraph\">Look into non-fiction,<br>Biographies and Memoirs, Adventure and Travel.</div>\n  <div class=\"paragraph\">There is no single category that will have everything you need,<br>but look into meaningful lives and admired thinkers that made the world a better place.</div>\n  <div class=\"paragraph\">Look for adventure books,<br>that make us stronger.</div>\n</div>\n<div class=\"section avoid-break-inside\" style=\"padding-bottom: 2rem;\">\n  <br>\n</div>\n<div class=\"section avoid-break-inside\" style=\"padding-bottom: 2rem;\">\n  <div class=\"paragraph\">Narrated books also double as a way of testing your well being,<br>if you can’t focus, or keep losing track especially when you have a good narrator - then you have pushed yourself too hard in life.</div>\n  <div class=\"paragraph\">It is not that you can’t listen to narrated books,<br>but that you have been pushed too far and cut your self off from the ability to learn and listen.</div>\n  <div class=\"paragraph\">Vacations ,<br>often reveal the stress levels that we are under.</div>\n  <div class=\"paragraph\">After some real rest,<br>you will discover that you need books.</div>\n</div>\n<div class=\"section avoid-break-inside\" style=\"padding-bottom: 2rem;\">\n  <br>\n</div>\n<div class=\"section avoid-break-inside\" style=\"padding-bottom: 2rem;\">\n  <div class=\"paragraph\">If you need a vacation,<br>but aren’t sure what to do, or where to go.</div>\n  <div class=\"paragraph\">There are places that many Great Beings upon visitation many call a Crucible, a Place Of Healing, and even Penance.</div>\n  <div class=\"paragraph\">Those are the Great Trails,<br>The <span>Appalachian Trail of the East<sup>[4]</sup></span>, and the <span>Pacific Crest Trail of the West<sup>[5]</sup></span>, and they have their equivalents throughout the world.</div>\n  <div class=\"paragraph\">They will always wait for you,<br>they will always welcome you.</div>\n  <div class=\"paragraph\">They will always heal you,<br>and they will always serve as all the proof you need, that you are meant to become a Great Being; and add to the change the future needs.</div>\n  <div class=\"paragraph\"><span>Simon & Garfunkel El Cóndor Pasa<sup>[6]</sup></span></div>\n</div>\n<div class=\"break-after\">&nbsp;</div>\n<div>\n  <div class=\"section\" style=\"padding-bottom: 1rem;\">References</div>\n  <div>[1]: https://www.youtube.com/watch?v=sxyKNMrhEvY</div>\n  <div>[2]: https://www.youtube.com/watch?v=8rmSldhnSDc</div>\n  <div>[3]: https://edition.cnn.com/2019/11/05/world/climate-emergency-scientists-warning-intl-trnd/index.html</div>\n  <div>[4]: https://www.youtube.com/watch?v=hPSvdKTEZug</div>\n  <div>[5]: https://www.youtube.com/watch?v=vmmH-2rWHH0</div>\n  <div>[6]: https://www.youtube.com/watch?v=Sk1wlMlfqHQ</div>\n</div>",
  "text": "High School was supposed to teach you how to build your own company,\nand you were supposed to figure out that College is just a scam.\nYou were not supposed to tolerate fake grades,\nand even grades in general.\nThe system of encouragement was supposed to revolve around your financial independence,\nyour teachers were supposed to teach you how to build a series of independent businesses.\n\nIt is that series of businesses,\nthat would create the need for Mathematics, Programming, and Science.\nLanguage, Social Studies, History, would come from narrated books,\nthat you would read in your travels as an exchange student.\nThe exchange is meant to help you transition to a broader more global culture,\nin expectation of world peace and unity.\n\nElectives, are actually just as important,\nif not more important as the main subjects.\nYour school was never supposed to use grades,\nbut both get you to make money and pay for a healthy and balanced existence.\n\nThis is not a fantasy,\nmilitary, nuclear weapons, and war as means of change are the fantasy.\nJust consider how imbecile and infantile Peace is,\nby means of using Mutually Assured Destruction as a deterrent.\nHow many generations will it take do you think,\nbefore the notion of a deterrent is forgotten, and they are deployed.\nDeployed by uneducated children,\ntaught from a young age that other children need to die because they are different.\nEven borders are a stupid idea,\ngeographic - certainly - but any division that drives our family apart is a stupid idea.\nA functional education system,\nthat immediately helps its students out of poverty is critical for the advancement of human kind.\n\nYou have been mislead[1],\nyou have been tricked[2].\nYou have been forced into broken cultures,\nand you have been put on a path to repeat humanity’s worst mistakes.\n\nThe people who have done this to you,\nare the same people who will do this to the younger generations.\nTo stop this, to put an end to this cycle,\nyou have to stop living an ordinary life and become a great being.\nIf you don’t stop living an ordinary life,\nright now.\nThen whatever discomforts you are hoping to avoid by continuing to live life as is,\nwill transform into untold suffering[3] for the generations.\nFuture generations,\nthat you are meant to watch over with your Greatness of Heart and Mind.\n\nHere is how you can get started:\nListen to every narrated book that changes lives,\nif your boss wants you to stop learning during work, quit your job and find one that will support your education.\nThe reason why you can’t see what you will do about money,\nis the same reason why people who have been taken into slavery didn’t know where else to go.\nIt is the same reason why people return to prisons,\nbeing unable to find a job, or an apartment even.\nKnowledge was denied to them,\nknowledge has been denied to you as well.\nOther than telling you to listen and read thousands of books,\nI won't tell you which.\nBecause it is the hundreds of great beings that you choose_ to listen to,\nthat will help you find a path of real knowledge, true wisdom, and unforgettable greatness.\nA word of caution, those who will try to prevent you from listening to books,\nor make fun of you for any such reason, are neither friend nor family.\n\nGo to the library, search for narrated books that try to bridge what we didn’t learn in school,\nwith what we should know today.\nPleasant and award winning books,\nwith cheerful authors and memorable narrators.\nLook into non-fiction,\nBiographies and Memoirs, Adventure and Travel.\nThere is no single category that will have everything you need,\nbut look into meaningful lives and admired thinkers that made the world a better place.\nLook for adventure books,\nthat make us stronger.\n\nNarrated books also double as a way of testing your well being,\nif you can’t focus, or keep losing track especially when you have a good narrator - then you have pushed yourself too hard in life.\nIt is not that you can’t listen to narrated books,\nbut that you have been pushed too far and cut your self off from the ability to learn and listen.\nVacations ,\noften reveal the stress levels that we are under.\nAfter some real rest,\nyou will discover that you need books.\n\nIf you need a vacation,\nbut aren’t sure what to do, or where to go.\nThere are places that many Great Beings upon visitation many call a Crucible, a Place Of Healing, and even Penance.\nThose are the Great Trails,\nThe Appalachian Trail of the East[4], and the Pacific Crest Trail of the West[5], and they have their equivalents throughout the world.\nThey will always wait for you,\nthey will always welcome you.\nThey will always heal you,\nand they will always serve as all the proof you need, that you are meant to become a Great Being; and add to the change the future needs.\nSimon & Garfunkel El Cóndor Pasa[6]\n \nReferences\n[1]: https://www.youtube.com/watch?v=sxyKNMrhEvY\n[2]: https://www.youtube.com/watch?v=8rmSldhnSDc\n[3]: https://edition.cnn.com/2019/11/05/world/climate-emergency-scientists-warning-intl-trnd/index.html\n[4]: https://www.youtube.com/watch?v=hPSvdKTEZug\n[5]: https://www.youtube.com/watch?v=vmmH-2rWHH0\n[6]: https://www.youtube.com/watch?v=Sk1wlMlfqHQ",
  "images": [],
  "links": [
    {
      "title": "You have been mislead",
      "url": "https://www.youtube.com/watch?v=sxyKNMrhEvY",
      "hostname": "www.youtube.com"
    },
    {
      "title": "you have been tricked",
      "url": "https://www.youtube.com/watch?v=8rmSldhnSDc",
      "hostname": "www.youtube.com"
    },
    {
      "title": "untold suffering",
      "url": "https://edition.cnn.com/2019/11/05/world/climate-emergency-scientists-warning-intl-trnd/index.html",
      "hostname": "edition.cnn.com"
    },
    {
      "title": "Appalachian Trail of the East",
      "url": "https://www.youtube.com/watch?v=hPSvdKTEZug",
      "hostname": "www.youtube.com"
    },
    {
      "title": "Pacific Crest Trail of the West",
      "url": "https://www.youtube.com/watch?v=vmmH-2rWHH0",
      "hostname": "www.youtube.com"
    },
    {
      "title": "Simon & Garfunkel El Cóndor Pasa",
      "url": "https://www.youtube.com/watch?v=Sk1wlMlfqHQ",
      "hostname": "www.youtube.com"
    }
  ]
}