{
  "name": "furkies-purrkies-poetry-0004",
  "title": "Secular Cadet by Anonymous",
  "date": "2020-03-20T20:14:25.929Z",
  "image": "poetry-0004-illustration.jpg",
  "artwork": "https://unsplash.com/photos/zYVO25eyBVo",
  "id": "furkies-purrkies-poetry-0004",
  "attachments": {},
  "guid": "9428acac-15f3-4eb8-8538-656ee25bee3a",
  "html": "<div class=\"section\">\n  <p>We the warriors in pursuits of excellence, band together in sincerity and truth.</p>\n</div>\n<div class=\"section\">\n  <p>May our philosophy be filled with power and may we connect in authenticity.</p>\n</div>\n<div class=\"section\">\n  <p>May we strengthen and increase our admiration for honest dealing and clear thinking, and may our hatred of hypocrisy and pretense never diminish.</p>\n</div>\n<div class=\"section\">\n  <p>May we inspire each other in our endeavor to live above the common levels of life.</p>\n</div>\n<div class=\"section\">\n  <p>May we strengthen each other to choose the harder right instead of the easier wrong, and never to be content with a half truth even if the whole can&apos;t be won.</p>\n</div>\n<div class=\"section\">\n  <p>May we endow each other with courage that is born of loyalty to all that is noble and worthy, that scorns to compromise with vice and injustice and knows no fear when truth and right are in jeopardy.</p>\n</div>\n<div class=\"section\">\n  <p>May we guard each other against flippancy and irreverence in the sacred things of life.</p>\n</div>\n<div class=\"section\">\n  <p>May we grant each other new ties of friendship and new opportunities for leadership or service.</p>\n</div>\n<div class=\"section\">\n  <p>May we kindle our hearts in fellowship with those of a cheerful countenance, and soften our hearts with sympathy for those who sorrow and suffer.</p>\n</div>\n<div class=\"section\">\n  <p>May we help each other to maintain Honor untarnished and unsullied and to show forth in our lives the ideals we learned in doing our duty.</p>\n</div>\n<div class=\"section\">\n  <p>All of which we ask in the names of those before us, of those who stand today, and those who are yet to rise.</p>\n</div>",
  "bootstrap": "<div class=\"card card-section bg-dark text-warning shadow\">\n  <div class=\"section card-body mb-0 my-2\">\n    <div class=\"paragraph card-text card-stanza my-5 text-center\">We the warriors in pursuits of excellence, band together in sincerity and truth.</div>\n  </div>\n</div>\n<div class=\"card card-section bg-dark text-warning shadow\">\n  <div class=\"section card-body mb-0 my-2\">\n    <div class=\"paragraph card-text card-stanza my-5 text-center\">May our philosophy be filled with power and may we connect in authenticity.</div>\n  </div>\n</div>\n<div class=\"card card-section bg-dark text-warning shadow\">\n  <div class=\"section card-body mb-0 my-2\">\n    <div class=\"paragraph card-text card-stanza my-5 text-center\">May we strengthen and increase our admiration for honest dealing and clear thinking, and may our hatred of hypocrisy and pretense never diminish.</div>\n  </div>\n</div>\n<div class=\"card card-section bg-dark text-warning shadow\">\n  <div class=\"section card-body mb-0 my-2\">\n    <div class=\"paragraph card-text card-stanza my-5 text-center\">May we inspire each other in our endeavor to live above the common levels of life.</div>\n  </div>\n</div>\n<div class=\"card card-section bg-dark text-warning shadow\">\n  <div class=\"section card-body mb-0 my-2\">\n    <div class=\"paragraph card-text card-stanza my-5 text-center\">May we strengthen each other to choose the harder right instead of the easier wrong, and never to be content with a half truth even if the whole can't be won.</div>\n  </div>\n</div>\n<div class=\"card card-section bg-dark text-warning shadow\">\n  <div class=\"section card-body mb-0 my-2\">\n    <div class=\"paragraph card-text card-stanza my-5 text-center\">May we endow each other with courage that is born of loyalty to all that is noble and worthy, that scorns to compromise with vice and injustice and knows no fear when truth and right are in jeopardy.</div>\n  </div>\n</div>\n<div class=\"card card-section bg-dark text-warning shadow\">\n  <div class=\"section card-body mb-0 my-2\">\n    <div class=\"paragraph card-text card-stanza my-5 text-center\">May we guard each other against flippancy and irreverence in the sacred things of life.</div>\n  </div>\n</div>\n<div class=\"card card-section bg-dark text-warning shadow\">\n  <div class=\"section card-body mb-0 my-2\">\n    <div class=\"paragraph card-text card-stanza my-5 text-center\">May we grant each other new ties of friendship and new opportunities for leadership or service.</div>\n  </div>\n</div>\n<div class=\"card card-section bg-dark text-warning shadow\">\n  <div class=\"section card-body mb-0 my-2\">\n    <div class=\"paragraph card-text card-stanza my-5 text-center\">May we kindle our hearts in fellowship with those of a cheerful countenance, and soften our hearts with sympathy for those who sorrow and suffer.</div>\n  </div>\n</div>\n<div class=\"card card-section bg-dark text-warning shadow\">\n  <div class=\"section card-body mb-0 my-2\">\n    <div class=\"paragraph card-text card-stanza my-5 text-center\">May we help each other to maintain Honor untarnished and unsullied and to show forth in our lives the ideals we learned in doing our duty.</div>\n  </div>\n</div>\n<div class=\"card card-section bg-dark text-warning shadow\">\n  <div class=\"section card-body mb-0 my-2\">\n    <div class=\"paragraph card-text card-stanza my-5 text-center\">All of which we ask in the names of those before us, of those who stand today, and those who are yet to rise.</div>\n  </div>\n</div>",
  "print": "<div class=\"section avoid-break-inside\" style=\"padding-bottom: 2rem;\">\n  <div class=\"paragraph\">We the warriors in pursuits of excellence, band together in sincerity and truth.</div>\n</div>\n<div class=\"section avoid-break-inside\" style=\"padding-bottom: 2rem;\">\n  <div class=\"paragraph\">May our philosophy be filled with power and may we connect in authenticity.</div>\n</div>\n<div class=\"section avoid-break-inside\" style=\"padding-bottom: 2rem;\">\n  <div class=\"paragraph\">May we strengthen and increase our admiration for honest dealing and clear thinking, and may our hatred of hypocrisy and pretense never diminish.</div>\n</div>\n<div class=\"section avoid-break-inside\" style=\"padding-bottom: 2rem;\">\n  <div class=\"paragraph\">May we inspire each other in our endeavor to live above the common levels of life.</div>\n</div>\n<div class=\"section avoid-break-inside\" style=\"padding-bottom: 2rem;\">\n  <div class=\"paragraph\">May we strengthen each other to choose the harder right instead of the easier wrong, and never to be content with a half truth even if the whole can't be won.</div>\n</div>\n<div class=\"section avoid-break-inside\" style=\"padding-bottom: 2rem;\">\n  <div class=\"paragraph\">May we endow each other with courage that is born of loyalty to all that is noble and worthy, that scorns to compromise with vice and injustice and knows no fear when truth and right are in jeopardy.</div>\n</div>\n<div class=\"section avoid-break-inside\" style=\"padding-bottom: 2rem;\">\n  <div class=\"paragraph\">May we guard each other against flippancy and irreverence in the sacred things of life.</div>\n</div>\n<div class=\"section avoid-break-inside\" style=\"padding-bottom: 2rem;\">\n  <div class=\"paragraph\">May we grant each other new ties of friendship and new opportunities for leadership or service.</div>\n</div>\n<div class=\"section avoid-break-inside\" style=\"padding-bottom: 2rem;\">\n  <div class=\"paragraph\">May we kindle our hearts in fellowship with those of a cheerful countenance, and soften our hearts with sympathy for those who sorrow and suffer.</div>\n</div>\n<div class=\"section avoid-break-inside\" style=\"padding-bottom: 2rem;\">\n  <div class=\"paragraph\">May we help each other to maintain Honor untarnished and unsullied and to show forth in our lives the ideals we learned in doing our duty.</div>\n</div>\n<div class=\"section avoid-break-inside\" style=\"padding-bottom: 2rem;\">\n  <div class=\"paragraph\">All of which we ask in the names of those before us, of those who stand today, and those who are yet to rise.</div>\n</div>",
  "text": "We the warriors in pursuits of excellence, band together in sincerity and truth.\nMay our philosophy be filled with power and may we connect in authenticity.\nMay we strengthen and increase our admiration for honest dealing and clear thinking, and may our hatred of hypocrisy and pretense never diminish.\nMay we inspire each other in our endeavor to live above the common levels of life.\nMay we strengthen each other to choose the harder right instead of the easier wrong, and never to be content with a half truth even if the whole can't be won.\nMay we endow each other with courage that is born of loyalty to all that is noble and worthy, that scorns to compromise with vice and injustice and knows no fear when truth and right are in jeopardy.\nMay we guard each other against flippancy and irreverence in the sacred things of life.\nMay we grant each other new ties of friendship and new opportunities for leadership or service.\nMay we kindle our hearts in fellowship with those of a cheerful countenance, and soften our hearts with sympathy for those who sorrow and suffer.\nMay we help each other to maintain Honor untarnished and unsullied and to show forth in our lives the ideals we learned in doing our duty.\nAll of which we ask in the names of those before us, of those who stand today, and those who are yet to rise.",
  "images": [],
  "links": []
}