{
  "name": "furkies-purrkies-poetry-0479",
  "id": "furkies-purrkies-poetry-0479",
  "title": "Φιλο Σοφία: A World Of Great Beings",
  "date": "2021-06-22T21:56:47.225Z",
  "image": "poetry-0479-illustration.jpg",
  "artwork": "https://unsplash.com/photos/knk0vDW0GME",
  "audio": "poetry-0479.mp3",
  "guid": "243a55d2-dce2-470d-b1e9-54933b432fb1",
  "html": "<div class=\"section\">\n  <p>Most of the dictators have fallen,<br>because people, in their wisdom, have learned to fight them, across generations.</p>\n  <p>Evil and other stupid ideas,<br>are temporary.</p>\n</div>\n<div class=\"section\">\n  <hr>\n</div>\n<div class=\"section\">\n  <p>This is why we are all familiar with the image of the Laughing Philosopher,<br>we pick up on it from myths, stories, books or movies.</p>\n  <p>Not only is is an image describing the most powerful being,<br>but an image of a being who has understood, the world is OK, it is just moving at its own pace.</p>\n  <p>The people have simply learned that the single most powerful weapon against evil,<br>is the brilliant minds of the younger generations.</p>\n  <p>Rather than standing up to evil in war, where evil can only spread,<br>they stand up to evil in time, where it has no power, and it is perpetually weakening.</p>\n</div>\n<div class=\"section\">\n  <hr>\n</div>\n<div class=\"section\">\n  <p>Look back at history, how feeble the Burning of Books,<br>the attempts of keeping the Slaves uneducated, or even censoring knowledge filled parts of internet.</p>\n  <p>The one amazing thing about human beings, is that we are out thinkers,<br>the way we think is thought by though building up little layers of knowledge.</p>\n  <p>And if someone tries to create a wall, people will immediately comprehend it,<br>and start out-thinking it, why a wall, what is is trying to control, who is benefiting from that.</p>\n  <p>The battle against evil is invisible to us, the same way it is invisible to the dictators,<br>it is flying over our heads, so that the smallest number of people suffer, as we improve the world with Wisdom across Centuries.</p>\n</div>\n<div class=\"section\">\n  <hr>\n</div>\n<div class=\"section\">\n  <p>\"What can you do to help?\",<br>oh, my goodness, this is my favorite question.</p>\n  <p>Everything important that I ever write about,<br>is all about this question.</p>\n  <p>It is the Trinity,<br>of Knowledge, Wisdom, and Greatness.</p>\n</div>\n<div class=\"section\">\n  <hr>\n</div>\n<div class=\"section\">\n  <p>The way you help the world fight its way out of the dark ages,<br>is by constantly inheriting knowledge from the Wise and the Great.</p>\n  <p>You just keep reading those books, just keep listening to those narrated books,<br>keep watching the well grounded documentaries, and keep building that brilliant self balancing and self reinforcing lattice of Knowledge in your mind.</p>\n  <p>One example of that, is all the people who were once hesitant about vaccines,<br>but became more educated during the pandemic of 2020.</p>\n</div>\n<div class=\"section\">\n  <hr>\n</div>\n<div class=\"section\">\n  <p>This interactive self balancing self reinforcing, self healing, lattice of knowledge,<br>also represents a factory of new thoughts, they just bubble up out of there.</p>\n  <p>Oh, you can say,<br>\"new thoughts come by subtle analogy to what we already know\",</p>\n  <p>..or you can call it \"IDEA SYNTHESIS\"<br>to impress your medicine minded friends.</p>\n  <p>...but really new ideas come because we are Humans,<br>and all Humans are Indescribably Beautiful and Special and Out Of Control Thinkers; new ideas is what we are good at.</p>\n  <p>For example, someone who invents a new form of art,<br>is not a good artist, they are just a person who had an art idea so excellent, that they immediate became a fancy artist.</p>\n  <p>These fancy new ideas, when combined and refined with the knowledge that you inherited from other great minds,<br>create Wisdom.</p>\n  <p>You can be your own source of wisdom,<br>but by inheriting wisdom from others, you become even wiser.</p>\n  <p>Wisdom is not just ideas though,<br>wisdom is about ideas that approach a certain kind of Royalty.</p>\n  <p>Here, the non-academic Philosophers, really help us,<br>they speak of ideas that you cannot help but tot love.</p>\n  <p>Ideas, so powerful that just love them,<br>ideas so beautiful that the only way we can connect with them or hold them, is with the superpower of Love.</p>\n</div>\n<div class=\"section\">\n  <hr>\n</div>\n<div class=\"section\">\n  <p>There exists a class of ideas, that you must grow up to, that you must better yourself towards,<br>that you must challenge yourself to rise to.</p>\n  <p>And that is what Real Philosophy is about,<br>the words <a href=\"https://en.wikipedia.org/wiki/Philosophy\">Φιλο Σοφία</a> come from greek and mean Love of Wisdom.</p>\n  <p>Amor Fati, for example, is something that we must grow up to to understand,<br>our lattice of knowledge must be sufficiently evolved and refined to grasp the idea openly and freely.</p>\n  <p>The Love of Fate is a thing you see from your golden age, when looking back at your life,<br>and the Love in Love Of Fate is rooted not in what happened to you, but what you did with it.</p>\n  <p>To give an example from my own life, by the time eight or maybe twelve bullies came after me, and spat and kicked,<br>I have already refined the winning of the battle; by placing the palms of my hands on the concrete and pushing up, to rise, even if it meant I would fall again.</p>\n  <p>The fights were not won, by becoming one of the snarling beasts, they were all won after they all left,<br>in not becoming like they were, in not behaving like the monsters.</p>\n  <p>I was not smart enough to comprehend my bullies, I still don't understand, and simply don't think about it,<br>but what I do think about is my rising.</p>\n  <p>How I invented a way to win every battle by not fighting them, at all, by not becoming stained with violence or anger,<br>to this day, I have never been angry.</p>\n  <p>But, I know anger, I saw it in the <em>angry</em> red faces of my bullies,<br>the older I get the more I worry that their families hurt them just out of laziness, out of wanting to do nothing, or wanting to have nothing to do with them.</p>\n  <p>This is why it is important for us to hold some ides in greatest esteem,<br>to remind the worst of us, that there are far greater things out there, then what we find at home or in our neighborhood, or culture.</p>\n  <p>And this is how Love of Fate,<br>can become an Idea that is held with Love.</p>\n  <p>Because it is an idea that singles out how we rose,<br>hardships will happen to all, but we cannot stay down.</p>\n  <p>More than rising over hardships,<br>we should just remind each other to rise in all things, rise and transcend, as a fact of life.</p>\n  <p>Amor Fati, is one small idea, first to be understood from our Golden Age,<br>but not just once we have lived out lives already, but also by connecting with our elder-selves when we are still young, by venturing into our future in day dreams.</p>\n  <p>By using our elder selves to become stronger in our youth, and thus reinforcing our elder selved with greater power even,<br>and so on, until we actually arrive into our golden age.</p>\n  <p>Come our final days, proclaiming <em>hopefully</em> in <strong>real</strong> anger,<br>\"For all the horrible things I have been thorough, I gave it all a reason by learning and rising from it all.\"</p>\n  <p>The beloved ideas, are spoken of from within our bellies, Amor Fati is about rising, and the inspiration from a life lived,<br>but again, your lattice has to be great enough, not to need an explanation, for the feeling of triumph over misery, triumph over what things may come in life.</p>\n  <p>And here we rive at the third component; the wisdom and deeds that outlive a person,<br>Greatness is found, in their legacy, and the persistence of their hard won wisdom.</p>\n  <p>This is that Rebirth, and that Heaven,<br>that the Fairy Tales describe.</p>\n  <p>It is not us, that lives forever,<br>it is the wisdom we share.</p>\n  <p>And the heaven that these thoughts take to,<br>is found in the minds of the future generations, that become better for it.</p>\n  <p>The wielders of that brilliant lattice,<br>are the real creators, fueled by the past generations, contributing new ideas and refining the old ones.</p>\n  <p>It is all for the betterment of us,<br>and every wisdom counts.</p>\n  <p>Greatness, is not for the few,<br>it is meant for all, including you.</p>\n</div>\n<div class=\"section\">\n  <hr>\n</div>\n<div class=\"section\">\n  <p>Thus, the short answer to how <strong>you</strong> can help the world, is:<br><strong>By Becoming A Great Being</strong>, and you become a Great Being by relentlessly giving everything in you path no matter what things may come: a Greater Meaning.</p>\n  <p>You, and all the other Beings,<br>aiming for greatness, is a path to Justice, Peace, and Freedom;</p>\n  <p>A World,<br>of Great Beings.</p>\n</div>",
  "bootstrap": "<div class=\"card card-section bg-dark text-warning shadow\">\n  <div class=\"section card-body mb-0 my-2\">\n    <div class=\"paragraph card-text card-stanza my-5 text-center\">Most of the dictators have fallen,<br>because people, in their wisdom, have learned to fight them, across generations.</div>\n    <div class=\"paragraph card-text card-stanza my-5 text-center\">Evil and other stupid ideas,<br>are temporary.</div>\n  </div>\n</div>\n<div class=\"mb-5 section-spacer\">&nbsp;</div>\n<div class=\"card card-section bg-dark text-warning shadow\">\n  <div class=\"section card-body mb-0 my-2\">\n    <div class=\"paragraph card-text card-stanza my-5 text-center\">This is why we are all familiar with the image of the Laughing Philosopher,<br>we pick up on it from myths, stories, books or movies.</div>\n    <div class=\"paragraph card-text card-stanza my-5 text-center\">Not only is is an image describing the most powerful being,<br>but an image of a being who has understood, the world is OK, it is just moving at its own pace.</div>\n    <div class=\"paragraph card-text card-stanza my-5 text-center\">The people have simply learned that the single most powerful weapon against evil,<br>is the brilliant minds of the younger generations.</div>\n    <div class=\"paragraph card-text card-stanza my-5 text-center\">Rather than standing up to evil in war, where evil can only spread,<br>they stand up to evil in time, where it has no power, and it is perpetually weakening.</div>\n  </div>\n</div>\n<div class=\"mb-5 section-spacer\">&nbsp;</div>\n<div class=\"card card-section bg-dark text-warning shadow\">\n  <div class=\"section card-body mb-0 my-2\">\n    <div class=\"paragraph card-text card-stanza my-5 text-center\">Look back at history, how feeble the Burning of Books,<br>the attempts of keeping the Slaves uneducated, or even censoring knowledge filled parts of internet.</div>\n    <div class=\"paragraph card-text card-stanza my-5 text-center\">The one amazing thing about human beings, is that we are out thinkers,<br>the way we think is thought by though building up little layers of knowledge.</div>\n    <div class=\"paragraph card-text card-stanza my-5 text-center\">And if someone tries to create a wall, people will immediately comprehend it,<br>and start out-thinking it, why a wall, what is is trying to control, who is benefiting from that.</div>\n    <div class=\"paragraph card-text card-stanza my-5 text-center\">The battle against evil is invisible to us, the same way it is invisible to the dictators,<br>it is flying over our heads, so that the smallest number of people suffer, as we improve the world with Wisdom across Centuries.</div>\n  </div>\n</div>\n<div class=\"mb-5 section-spacer\">&nbsp;</div>\n<div class=\"card card-section bg-dark text-warning shadow\">\n  <div class=\"section card-body mb-0 my-2\">\n    <div class=\"paragraph card-text card-stanza my-5 text-center\">\"What can you do to help?\",<br>oh, my goodness, this is my favorite question.</div>\n    <div class=\"paragraph card-text card-stanza my-5 text-center\">Everything important that I ever write about,<br>is all about this question.</div>\n    <div class=\"paragraph card-text card-stanza my-5 text-center\">It is the Trinity,<br>of Knowledge, Wisdom, and Greatness.</div>\n  </div>\n</div>\n<div class=\"mb-5 section-spacer\">&nbsp;</div>\n<div class=\"card card-section bg-dark text-warning shadow\">\n  <div class=\"section card-body mb-0 my-2\">\n    <div class=\"paragraph card-text card-stanza my-5 text-center\">The way you help the world fight its way out of the dark ages,<br>is by constantly inheriting knowledge from the Wise and the Great.</div>\n    <div class=\"paragraph card-text card-stanza my-5 text-center\">You just keep reading those books, just keep listening to those narrated books,<br>keep watching the well grounded documentaries, and keep building that brilliant self balancing and self reinforcing lattice of Knowledge in your mind.</div>\n    <div class=\"paragraph card-text card-stanza my-5 text-center\">One example of that, is all the people who were once hesitant about vaccines,<br>but became more educated during the pandemic of 2020.</div>\n  </div>\n</div>\n<div class=\"mb-5 section-spacer\">&nbsp;</div>\n<div class=\"card card-section bg-dark text-warning shadow\">\n  <div class=\"section card-body mb-0 my-2\">\n    <div class=\"paragraph card-text card-stanza my-5 text-center\">This interactive self balancing self reinforcing, self healing, lattice of knowledge,<br>also represents a factory of new thoughts, they just bubble up out of there.</div>\n    <div class=\"paragraph card-text card-stanza my-5 text-center\">Oh, you can say,<br>\"new thoughts come by subtle analogy to what we already know\",</div>\n    <div class=\"paragraph card-text card-stanza my-5 text-center\">..or you can call it \"IDEA SYNTHESIS\"<br>to impress your medicine minded friends.</div>\n    <div class=\"paragraph card-text card-stanza my-5 text-center\">...but really new ideas come because we are Humans,<br>and all Humans are Indescribably Beautiful and Special and Out Of Control Thinkers; new ideas is what we are good at.</div>\n    <div class=\"paragraph card-text card-stanza my-5 text-center\">For example, someone who invents a new form of art,<br>is not a good artist, they are just a person who had an art idea so excellent, that they immediate became a fancy artist.</div>\n    <div class=\"paragraph card-text card-stanza my-5 text-center\">These fancy new ideas, when combined and refined with the knowledge that you inherited from other great minds,<br>create Wisdom.</div>\n    <div class=\"paragraph card-text card-stanza my-5 text-center\">You can be your own source of wisdom,<br>but by inheriting wisdom from others, you become even wiser.</div>\n    <div class=\"paragraph card-text card-stanza my-5 text-center\">Wisdom is not just ideas though,<br>wisdom is about ideas that approach a certain kind of Royalty.</div>\n    <div class=\"paragraph card-text card-stanza my-5 text-center\">Here, the non-academic Philosophers, really help us,<br>they speak of ideas that you cannot help but tot love.</div>\n    <div class=\"paragraph card-text card-stanza my-5 text-center\">Ideas, so powerful that just love them,<br>ideas so beautiful that the only way we can connect with them or hold them, is with the superpower of Love.</div>\n  </div>\n</div>\n<div class=\"mb-5 section-spacer\">&nbsp;</div>\n<div class=\"card card-section bg-dark text-warning shadow\">\n  <div class=\"section card-body mb-0 my-2\">\n    <div class=\"paragraph card-text card-stanza my-5 text-center\">There exists a class of ideas, that you must grow up to, that you must better yourself towards,<br>that you must challenge yourself to rise to.</div>\n    <div class=\"paragraph card-text card-stanza my-5 text-center\">And that is what Real Philosophy is about,<br>the words <a href=\"https://en.wikipedia.org/wiki/Philosophy\">Φιλο Σοφία</a> come from greek and mean Love of Wisdom.</div>\n    <div class=\"paragraph card-text card-stanza my-5 text-center\">Amor Fati, for example, is something that we must grow up to to understand,<br>our lattice of knowledge must be sufficiently evolved and refined to grasp the idea openly and freely.</div>\n    <div class=\"paragraph card-text card-stanza my-5 text-center\">The Love of Fate is a thing you see from your golden age, when looking back at your life,<br>and the Love in Love Of Fate is rooted not in what happened to you, but what you did with it.</div>\n    <div class=\"paragraph card-text card-stanza my-5 text-center\">To give an example from my own life, by the time eight or maybe twelve bullies came after me, and spat and kicked,<br>I have already refined the winning of the battle; by placing the palms of my hands on the concrete and pushing up, to rise, even if it meant I would fall again.</div>\n    <div class=\"paragraph card-text card-stanza my-5 text-center\">The fights were not won, by becoming one of the snarling beasts, they were all won after they all left,<br>in not becoming like they were, in not behaving like the monsters.</div>\n    <div class=\"paragraph card-text card-stanza my-5 text-center\">I was not smart enough to comprehend my bullies, I still don't understand, and simply don't think about it,<br>but what I do think about is my rising.</div>\n    <div class=\"paragraph card-text card-stanza my-5 text-center\">How I invented a way to win every battle by not fighting them, at all, by not becoming stained with violence or anger,<br>to this day, I have never been angry.</div>\n    <div class=\"paragraph card-text card-stanza my-5 text-center\">But, I know anger, I saw it in the <em>angry</em> red faces of my bullies,<br>the older I get the more I worry that their families hurt them just out of laziness, out of wanting to do nothing, or wanting to have nothing to do with them.</div>\n    <div class=\"paragraph card-text card-stanza my-5 text-center\">This is why it is important for us to hold some ides in greatest esteem,<br>to remind the worst of us, that there are far greater things out there, then what we find at home or in our neighborhood, or culture.</div>\n    <div class=\"paragraph card-text card-stanza my-5 text-center\">And this is how Love of Fate,<br>can become an Idea that is held with Love.</div>\n    <div class=\"paragraph card-text card-stanza my-5 text-center\">Because it is an idea that singles out how we rose,<br>hardships will happen to all, but we cannot stay down.</div>\n    <div class=\"paragraph card-text card-stanza my-5 text-center\">More than rising over hardships,<br>we should just remind each other to rise in all things, rise and transcend, as a fact of life.</div>\n    <div class=\"paragraph card-text card-stanza my-5 text-center\">Amor Fati, is one small idea, first to be understood from our Golden Age,<br>but not just once we have lived out lives already, but also by connecting with our elder-selves when we are still young, by venturing into our future in day dreams.</div>\n    <div class=\"paragraph card-text card-stanza my-5 text-center\">By using our elder selves to become stronger in our youth, and thus reinforcing our elder selved with greater power even,<br>and so on, until we actually arrive into our golden age.</div>\n    <div class=\"paragraph card-text card-stanza my-5 text-center\">Come our final days, proclaiming <em>hopefully</em> in <strong>real</strong> anger,<br>\"For all the horrible things I have been thorough, I gave it all a reason by learning and rising from it all.\"</div>\n    <div class=\"paragraph card-text card-stanza my-5 text-center\">The beloved ideas, are spoken of from within our bellies, Amor Fati is about rising, and the inspiration from a life lived,<br>but again, your lattice has to be great enough, not to need an explanation, for the feeling of triumph over misery, triumph over what things may come in life.</div>\n    <div class=\"paragraph card-text card-stanza my-5 text-center\">And here we rive at the third component; the wisdom and deeds that outlive a person,<br>Greatness is found, in their legacy, and the persistence of their hard won wisdom.</div>\n    <div class=\"paragraph card-text card-stanza my-5 text-center\">This is that Rebirth, and that Heaven,<br>that the Fairy Tales describe.</div>\n    <div class=\"paragraph card-text card-stanza my-5 text-center\">It is not us, that lives forever,<br>it is the wisdom we share.</div>\n    <div class=\"paragraph card-text card-stanza my-5 text-center\">And the heaven that these thoughts take to,<br>is found in the minds of the future generations, that become better for it.</div>\n    <div class=\"paragraph card-text card-stanza my-5 text-center\">The wielders of that brilliant lattice,<br>are the real creators, fueled by the past generations, contributing new ideas and refining the old ones.</div>\n    <div class=\"paragraph card-text card-stanza my-5 text-center\">It is all for the betterment of us,<br>and every wisdom counts.</div>\n    <div class=\"paragraph card-text card-stanza my-5 text-center\">Greatness, is not for the few,<br>it is meant for all, including you.</div>\n  </div>\n</div>\n<div class=\"mb-5 section-spacer\">&nbsp;</div>\n<div class=\"card card-section bg-dark text-warning shadow\">\n  <div class=\"section card-body mb-0 my-2\">\n    <div class=\"paragraph card-text card-stanza my-5 text-center\">Thus, the short answer to how <strong>you</strong> can help the world, is:<br><strong>By Becoming A Great Being</strong>, and you become a Great Being by relentlessly giving everything in you path no matter what things may come: a Greater Meaning.</div>\n    <div class=\"paragraph card-text card-stanza my-5 text-center\">You, and all the other Beings,<br>aiming for greatness, is a path to Justice, Peace, and Freedom;</div>\n    <div class=\"paragraph card-text card-stanza my-5 text-center\">A World,<br>of Great Beings.</div>\n  </div>\n</div>",
  "print": "<div class=\"section avoid-break-inside\" style=\"padding-bottom: 2rem;\">\n  <div class=\"paragraph\">Most of the dictators have fallen,<br>because people, in their wisdom, have learned to fight them, across generations.</div>\n  <div class=\"paragraph\">Evil and other stupid ideas,<br>are temporary.</div>\n</div>\n<div class=\"section avoid-break-inside\" style=\"padding-bottom: 2rem;\">\n  <br>\n</div>\n<div class=\"section avoid-break-inside\" style=\"padding-bottom: 2rem;\">\n  <div class=\"paragraph\">This is why we are all familiar with the image of the Laughing Philosopher,<br>we pick up on it from myths, stories, books or movies.</div>\n  <div class=\"paragraph\">Not only is is an image describing the most powerful being,<br>but an image of a being who has understood, the world is OK, it is just moving at its own pace.</div>\n  <div class=\"paragraph\">The people have simply learned that the single most powerful weapon against evil,<br>is the brilliant minds of the younger generations.</div>\n  <div class=\"paragraph\">Rather than standing up to evil in war, where evil can only spread,<br>they stand up to evil in time, where it has no power, and it is perpetually weakening.</div>\n</div>\n<div class=\"section avoid-break-inside\" style=\"padding-bottom: 2rem;\">\n  <br>\n</div>\n<div class=\"section avoid-break-inside\" style=\"padding-bottom: 2rem;\">\n  <div class=\"paragraph\">Look back at history, how feeble the Burning of Books,<br>the attempts of keeping the Slaves uneducated, or even censoring knowledge filled parts of internet.</div>\n  <div class=\"paragraph\">The one amazing thing about human beings, is that we are out thinkers,<br>the way we think is thought by though building up little layers of knowledge.</div>\n  <div class=\"paragraph\">And if someone tries to create a wall, people will immediately comprehend it,<br>and start out-thinking it, why a wall, what is is trying to control, who is benefiting from that.</div>\n  <div class=\"paragraph\">The battle against evil is invisible to us, the same way it is invisible to the dictators,<br>it is flying over our heads, so that the smallest number of people suffer, as we improve the world with Wisdom across Centuries.</div>\n</div>\n<div class=\"section avoid-break-inside\" style=\"padding-bottom: 2rem;\">\n  <br>\n</div>\n<div class=\"section avoid-break-inside\" style=\"padding-bottom: 2rem;\">\n  <div class=\"paragraph\">\"What can you do to help?\",<br>oh, my goodness, this is my favorite question.</div>\n  <div class=\"paragraph\">Everything important that I ever write about,<br>is all about this question.</div>\n  <div class=\"paragraph\">It is the Trinity,<br>of Knowledge, Wisdom, and Greatness.</div>\n</div>\n<div class=\"section avoid-break-inside\" style=\"padding-bottom: 2rem;\">\n  <br>\n</div>\n<div class=\"section avoid-break-inside\" style=\"padding-bottom: 2rem;\">\n  <div class=\"paragraph\">The way you help the world fight its way out of the dark ages,<br>is by constantly inheriting knowledge from the Wise and the Great.</div>\n  <div class=\"paragraph\">You just keep reading those books, just keep listening to those narrated books,<br>keep watching the well grounded documentaries, and keep building that brilliant self balancing and self reinforcing lattice of Knowledge in your mind.</div>\n  <div class=\"paragraph\">One example of that, is all the people who were once hesitant about vaccines,<br>but became more educated during the pandemic of 2020.</div>\n</div>\n<div class=\"section avoid-break-inside\" style=\"padding-bottom: 2rem;\">\n  <br>\n</div>\n<div class=\"section avoid-break-inside\" style=\"padding-bottom: 2rem;\">\n  <div class=\"paragraph\">This interactive self balancing self reinforcing, self healing, lattice of knowledge,<br>also represents a factory of new thoughts, they just bubble up out of there.</div>\n  <div class=\"paragraph\">Oh, you can say,<br>\"new thoughts come by subtle analogy to what we already know\",</div>\n  <div class=\"paragraph\">..or you can call it \"IDEA SYNTHESIS\"<br>to impress your medicine minded friends.</div>\n  <div class=\"paragraph\">...but really new ideas come because we are Humans,<br>and all Humans are Indescribably Beautiful and Special and Out Of Control Thinkers; new ideas is what we are good at.</div>\n  <div class=\"paragraph\">For example, someone who invents a new form of art,<br>is not a good artist, they are just a person who had an art idea so excellent, that they immediate became a fancy artist.</div>\n  <div class=\"paragraph\">These fancy new ideas, when combined and refined with the knowledge that you inherited from other great minds,<br>create Wisdom.</div>\n  <div class=\"paragraph\">You can be your own source of wisdom,<br>but by inheriting wisdom from others, you become even wiser.</div>\n  <div class=\"paragraph\">Wisdom is not just ideas though,<br>wisdom is about ideas that approach a certain kind of Royalty.</div>\n  <div class=\"paragraph\">Here, the non-academic Philosophers, really help us,<br>they speak of ideas that you cannot help but tot love.</div>\n  <div class=\"paragraph\">Ideas, so powerful that just love them,<br>ideas so beautiful that the only way we can connect with them or hold them, is with the superpower of Love.</div>\n</div>\n<div class=\"section avoid-break-inside\" style=\"padding-bottom: 2rem;\">\n  <br>\n</div>\n<div class=\"section avoid-break-inside\" style=\"padding-bottom: 2rem;\">\n  <div class=\"paragraph\">There exists a class of ideas, that you must grow up to, that you must better yourself towards,<br>that you must challenge yourself to rise to.</div>\n  <div class=\"paragraph\">And that is what Real Philosophy is about,<br>the words <span>Φιλο Σοφία<sup>[1]</sup></span> come from greek and mean Love of Wisdom.</div>\n  <div class=\"paragraph\">Amor Fati, for example, is something that we must grow up to to understand,<br>our lattice of knowledge must be sufficiently evolved and refined to grasp the idea openly and freely.</div>\n  <div class=\"paragraph\">The Love of Fate is a thing you see from your golden age, when looking back at your life,<br>and the Love in Love Of Fate is rooted not in what happened to you, but what you did with it.</div>\n  <div class=\"paragraph\">To give an example from my own life, by the time eight or maybe twelve bullies came after me, and spat and kicked,<br>I have already refined the winning of the battle; by placing the palms of my hands on the concrete and pushing up, to rise, even if it meant I would fall again.</div>\n  <div class=\"paragraph\">The fights were not won, by becoming one of the snarling beasts, they were all won after they all left,<br>in not becoming like they were, in not behaving like the monsters.</div>\n  <div class=\"paragraph\">I was not smart enough to comprehend my bullies, I still don't understand, and simply don't think about it,<br>but what I do think about is my rising.</div>\n  <div class=\"paragraph\">How I invented a way to win every battle by not fighting them, at all, by not becoming stained with violence or anger,<br>to this day, I have never been angry.</div>\n  <div class=\"paragraph\">But, I know anger, I saw it in the <em>angry</em> red faces of my bullies,<br>the older I get the more I worry that their families hurt them just out of laziness, out of wanting to do nothing, or wanting to have nothing to do with them.</div>\n  <div class=\"paragraph\">This is why it is important for us to hold some ides in greatest esteem,<br>to remind the worst of us, that there are far greater things out there, then what we find at home or in our neighborhood, or culture.</div>\n  <div class=\"paragraph\">And this is how Love of Fate,<br>can become an Idea that is held with Love.</div>\n  <div class=\"paragraph\">Because it is an idea that singles out how we rose,<br>hardships will happen to all, but we cannot stay down.</div>\n  <div class=\"paragraph\">More than rising over hardships,<br>we should just remind each other to rise in all things, rise and transcend, as a fact of life.</div>\n  <div class=\"paragraph\">Amor Fati, is one small idea, first to be understood from our Golden Age,<br>but not just once we have lived out lives already, but also by connecting with our elder-selves when we are still young, by venturing into our future in day dreams.</div>\n  <div class=\"paragraph\">By using our elder selves to become stronger in our youth, and thus reinforcing our elder selved with greater power even,<br>and so on, until we actually arrive into our golden age.</div>\n  <div class=\"paragraph\">Come our final days, proclaiming <em>hopefully</em> in <strong>real</strong> anger,<br>\"For all the horrible things I have been thorough, I gave it all a reason by learning and rising from it all.\"</div>\n  <div class=\"paragraph\">The beloved ideas, are spoken of from within our bellies, Amor Fati is about rising, and the inspiration from a life lived,<br>but again, your lattice has to be great enough, not to need an explanation, for the feeling of triumph over misery, triumph over what things may come in life.</div>\n  <div class=\"paragraph\">And here we rive at the third component; the wisdom and deeds that outlive a person,<br>Greatness is found, in their legacy, and the persistence of their hard won wisdom.</div>\n  <div class=\"paragraph\">This is that Rebirth, and that Heaven,<br>that the Fairy Tales describe.</div>\n  <div class=\"paragraph\">It is not us, that lives forever,<br>it is the wisdom we share.</div>\n  <div class=\"paragraph\">And the heaven that these thoughts take to,<br>is found in the minds of the future generations, that become better for it.</div>\n  <div class=\"paragraph\">The wielders of that brilliant lattice,<br>are the real creators, fueled by the past generations, contributing new ideas and refining the old ones.</div>\n  <div class=\"paragraph\">It is all for the betterment of us,<br>and every wisdom counts.</div>\n  <div class=\"paragraph\">Greatness, is not for the few,<br>it is meant for all, including you.</div>\n</div>\n<div class=\"section avoid-break-inside\" style=\"padding-bottom: 2rem;\">\n  <br>\n</div>\n<div class=\"section avoid-break-inside\" style=\"padding-bottom: 2rem;\">\n  <div class=\"paragraph\">Thus, the short answer to how <strong>you</strong> can help the world, is:<br><strong>By Becoming A Great Being</strong>, and you become a Great Being by relentlessly giving everything in you path no matter what things may come: a Greater Meaning.</div>\n  <div class=\"paragraph\">You, and all the other Beings,<br>aiming for greatness, is a path to Justice, Peace, and Freedom;</div>\n  <div class=\"paragraph\">A World,<br>of Great Beings.</div>\n</div>\n<div class=\"break-after\">&nbsp;</div>\n<div>\n  <div class=\"section\" style=\"padding-bottom: 1rem;\">References</div>\n  <div>[1]: https://en.wikipedia.org/wiki/Philosophy</div>\n</div>",
  "text": "Most of the dictators have fallen,\nbecause people, in their wisdom, have learned to fight them, across generations.\nEvil and other stupid ideas,\nare temporary.\n\nThis is why we are all familiar with the image of the Laughing Philosopher,\nwe pick up on it from myths, stories, books or movies.\nNot only is is an image describing the most powerful being,\nbut an image of a being who has understood, the world is OK, it is just moving at its own pace.\nThe people have simply learned that the single most powerful weapon against evil,\nis the brilliant minds of the younger generations.\nRather than standing up to evil in war, where evil can only spread,\nthey stand up to evil in time, where it has no power, and it is perpetually weakening.\n\nLook back at history, how feeble the Burning of Books,\nthe attempts of keeping the Slaves uneducated, or even censoring knowledge filled parts of internet.\nThe one amazing thing about human beings, is that we are out thinkers,\nthe way we think is thought by though building up little layers of knowledge.\nAnd if someone tries to create a wall, people will immediately comprehend it,\nand start out-thinking it, why a wall, what is is trying to control, who is benefiting from that.\nThe battle against evil is invisible to us, the same way it is invisible to the dictators,\nit is flying over our heads, so that the smallest number of people suffer, as we improve the world with Wisdom across Centuries.\n\n\"What can you do to help?\",\noh, my goodness, this is my favorite question.\nEverything important that I ever write about,\nis all about this question.\nIt is the Trinity,\nof Knowledge, Wisdom, and Greatness.\n\nThe way you help the world fight its way out of the dark ages,\nis by constantly inheriting knowledge from the Wise and the Great.\nYou just keep reading those books, just keep listening to those narrated books,\nkeep watching the well grounded documentaries, and keep building that brilliant self balancing and self reinforcing lattice of Knowledge in your mind.\nOne example of that, is all the people who were once hesitant about vaccines,\nbut became more educated during the pandemic of 2020.\n\nThis interactive self balancing self reinforcing, self healing, lattice of knowledge,\nalso represents a factory of new thoughts, they just bubble up out of there.\nOh, you can say,\n\"new thoughts come by subtle analogy to what we already know\",\n..or you can call it \"IDEA SYNTHESIS\"\nto impress your medicine minded friends.\n...but really new ideas come because we are Humans,\nand all Humans are Indescribably Beautiful and Special and Out Of Control Thinkers; new ideas is what we are good at.\nFor example, someone who invents a new form of art,\nis not a good artist, they are just a person who had an art idea so excellent, that they immediate became a fancy artist.\nThese fancy new ideas, when combined and refined with the knowledge that you inherited from other great minds,\ncreate Wisdom.\nYou can be your own source of wisdom,\nbut by inheriting wisdom from others, you become even wiser.\nWisdom is not just ideas though,\nwisdom is about ideas that approach a certain kind of Royalty.\nHere, the non-academic Philosophers, really help us,\nthey speak of ideas that you cannot help but tot love.\nIdeas, so powerful that just love them,\nideas so beautiful that the only way we can connect with them or hold them, is with the superpower of Love.\n\nThere exists a class of ideas, that you must grow up to, that you must better yourself towards,\nthat you must challenge yourself to rise to.\nAnd that is what Real Philosophy is about,\nthe words Φιλο Σοφία[1] come from greek and mean Love of Wisdom.\nAmor Fati, for example, is something that we must grow up to to understand,\nour lattice of knowledge must be sufficiently evolved and refined to grasp the idea openly and freely.\nThe Love of Fate is a thing you see from your golden age, when looking back at your life,\nand the Love in Love Of Fate is rooted not in what happened to you, but what you did with it.\nTo give an example from my own life, by the time eight or maybe twelve bullies came after me, and spat and kicked,\nI have already refined the winning of the battle; by placing the palms of my hands on the concrete and pushing up, to rise, even if it meant I would fall again.\nThe fights were not won, by becoming one of the snarling beasts, they were all won after they all left,\nin not becoming like they were, in not behaving like the monsters.\nI was not smart enough to comprehend my bullies, I still don't understand, and simply don't think about it,\nbut what I do think about is my rising.\nHow I invented a way to win every battle by not fighting them, at all, by not becoming stained with violence or anger,\nto this day, I have never been angry.\nBut, I know anger, I saw it in the angry red faces of my bullies,\nthe older I get the more I worry that their families hurt them just out of laziness, out of wanting to do nothing, or wanting to have nothing to do with them.\nThis is why it is important for us to hold some ides in greatest esteem,\nto remind the worst of us, that there are far greater things out there, then what we find at home or in our neighborhood, or culture.\nAnd this is how Love of Fate,\ncan become an Idea that is held with Love.\nBecause it is an idea that singles out how we rose,\nhardships will happen to all, but we cannot stay down.\nMore than rising over hardships,\nwe should just remind each other to rise in all things, rise and transcend, as a fact of life.\nAmor Fati, is one small idea, first to be understood from our Golden Age,\nbut not just once we have lived out lives already, but also by connecting with our elder-selves when we are still young, by venturing into our future in day dreams.\nBy using our elder selves to become stronger in our youth, and thus reinforcing our elder selved with greater power even,\nand so on, until we actually arrive into our golden age.\nCome our final days, proclaiming hopefully in real anger,\n\"For all the horrible things I have been thorough, I gave it all a reason by learning and rising from it all.\"\nThe beloved ideas, are spoken of from within our bellies, Amor Fati is about rising, and the inspiration from a life lived,\nbut again, your lattice has to be great enough, not to need an explanation, for the feeling of triumph over misery, triumph over what things may come in life.\nAnd here we rive at the third component; the wisdom and deeds that outlive a person,\nGreatness is found, in their legacy, and the persistence of their hard won wisdom.\nThis is that Rebirth, and that Heaven,\nthat the Fairy Tales describe.\nIt is not us, that lives forever,\nit is the wisdom we share.\nAnd the heaven that these thoughts take to,\nis found in the minds of the future generations, that become better for it.\nThe wielders of that brilliant lattice,\nare the real creators, fueled by the past generations, contributing new ideas and refining the old ones.\nIt is all for the betterment of us,\nand every wisdom counts.\nGreatness, is not for the few,\nit is meant for all, including you.\n\nThus, the short answer to how you can help the world, is:\nBy Becoming A Great Being, and you become a Great Being by relentlessly giving everything in you path no matter what things may come: a Greater Meaning.\nYou, and all the other Beings,\naiming for greatness, is a path to Justice, Peace, and Freedom;\nA World,\nof Great Beings.\n \nReferences\n[1]: https://en.wikipedia.org/wiki/Philosophy",
  "images": [],
  "links": [
    {
      "title": "Φιλο Σοφία",
      "url": "https://en.wikipedia.org/wiki/Philosophy",
      "hostname": "en.wikipedia.org"
    }
  ]
}