{
  "id": "furkies-purrkies-poetry-0838",
  "title": "How To Become Smarter; Or, Why You Got Tricked Into Thinking You Are Not Smart",
  "date": "2022-06-16T22:03:02.933Z",
  "image": "poetry-0838-illustration.jpg",
  "artwork": "https://unsplash.com/photos/OdkwWv49QL8",
  "audio": "poetry-0838.mp3",
  "guid": "aaed2afd-1862-4c93-be30-42d63106a9ed"
}
