{
  "name": "furkies-purrkies-poetry-0147",
  "title": "On Writing That Fifth Book",
  "date": "2020-07-26T03:21:05.139Z",
  "image": "poetry-0147-illustration.jpg",
  "audio": "poetry-0147.mp3",
  "id": "furkies-purrkies-poetry-0147",
  "attachments": {},
  "guid": "3ac974fc-0486-4204-b497-2b28e3035d40",
  "html": "<div class=\"section\">\n  <p>I know all too well that writing books is hard,</p>\n  <p>as far as I can tell; I am still learning English.</p>\n</div>\n<div class=\"section\">\n  <p>But books, share principles, with life,</p>\n  <p>be it book or life, it is always page after page, it has chapters.</p>\n</div>\n<div class=\"section\">\n  <p>Books are not, some fancy extra,</p>\n  <p>but a pretty fancy way of rising, just rising.</p>\n</div>\n<div class=\"section\">\n  <hr>\n</div>\n<div class=\"section\">\n  <p>And perhaps it is somewhat old fashioned to be urging you to write books,</p>\n  <p>but I don&apos;t feel bad at all.</p>\n</div>\n<div class=\"section\">\n  <p>I expect the first one is the hardest,</p>\n  <p>the second one will be shoooo goood,</p>\n</div>\n<div class=\"section\">\n  <p>The third one - I am sorry,</p>\n  <p>will feel as floppy as a thinly sliced ham.</p>\n</div>\n<div class=\"section\">\n  <p>The fourth one,</p>\n  <p>after that long wonderful pause.</p>\n</div>\n<div class=\"section\">\n  <p>Will surely be the one,</p>\n  <p>it will feel like such a closure.</p>\n</div>\n<div class=\"section\">\n  <hr>\n</div>\n<div class=\"section\">\n  <p>But listen,</p>\n  <p>I suspect that we don&apos;t really get started until our fifth book.</p>\n</div>\n<div class=\"section\">\n  <p>&apos;Cause you know,</p>\n  <p>it is the book you don&apos;t think about writing that gets you.</p>\n</div>\n<div class=\"section\">\n  <hr>\n</div>\n<div class=\"section\">\n  <p>And, I think I can actually predict enough of it to say,</p>\n  <p>that as children we look to the future, as adults we grow, and as Great Beings we look at the past with wise eyes.</p>\n</div>\n<div class=\"section\">\n  <p>See, it is not until we get there, and glance over at ideas that we were passionate about when young,</p>\n  <p>but now through the eyes of the Great Being... that all of a sudden, things like Amor Fati, are not merely about Love of Fate,</p>\n</div>\n<div class=\"section\">\n  <p>But also, from when we look at life,</p>\n  <p>see when looking back we see fate as something that that largely already unfolded.</p>\n</div>\n<div class=\"section\">\n  <p>And now, the love for it fits,</p>\n  <p>it is the love for all we&apos;ve been through.</p>\n</div>\n<div class=\"section\">\n  <p>All the battles we fought and learned from regardless it it was triumph or disaster, ease or hardship,</p>\n  <p>it was what we grew <strong>so profound</strong>, what made us, ourselves.</p>\n</div>\n<div class=\"section\">\n  <hr>\n</div>\n<div class=\"section\">\n  <p>So as long, as we fought to rise,</p>\n  <p>so as long as it counts for more than whim and being pushed around.</p>\n</div>\n<div class=\"section\">\n  <p>It doesn&apos;t matter how hard things were,</p>\n  <p>it matters that nothing took away from our Love of Life.</p>\n</div>\n<div class=\"section\">\n  <p>That we faced those challenges,</p>\n  <p>easy or difficult.</p>\n</div>\n<div class=\"section\">\n  <p>Because now,</p>\n  <p>you sit at the typewriter, and you know the story dot for dot.</p>\n</div>\n<div class=\"section\">\n  <p>See, we have to live our life so sturdily,</p>\n  <p>as to bring enlightenment to our Elder Selves, and perhaps make them cry a little - and why the heck not!</p>\n</div>\n<div class=\"section\">\n  <hr>\n</div>\n<div class=\"section\">\n  <p>See, growing is not just for getting somewhere,</p>\n  <p>but also building what will eventually become our Beautiful Past.</p>\n</div>\n<div class=\"section\">\n  <p>And though as children we may need to admit to ourselves that we don&apos;t understand everything,</p>\n  <p>as Great Beings come Our Golden Age, we will understand what we once struggled with.</p>\n</div>\n<div class=\"section\">\n  <p>And with a great sense of accomplishment,</p>\n  <p>a sense of accomplishment that wouldn&apos;t be there, had we not challenged ourselves with things that were out of our grasp when we were young.</p>\n</div>\n<div class=\"section\">\n  <p>So what may seem as difficulty in our youth,</p>\n  <p>we will end up loving in our Golden Age for making us stronger and more profound.</p>\n</div>",
  "bootstrap": "<div class=\"card card-section bg-dark text-warning shadow\">\n  <div class=\"section card-body mb-0 my-2\">\n    <div class=\"paragraph card-text card-stanza my-5 text-center\">I know all too well that writing books is hard,</div>\n    <div class=\"paragraph card-text card-stanza my-5 text-center\">as far as I can tell; I am still learning English.</div>\n  </div>\n</div>\n<div class=\"card card-section bg-dark text-warning shadow\">\n  <div class=\"section card-body mb-0 my-2\">\n    <div class=\"paragraph card-text card-stanza my-5 text-center\">But books, share principles, with life,</div>\n    <div class=\"paragraph card-text card-stanza my-5 text-center\">be it book or life, it is always page after page, it has chapters.</div>\n  </div>\n</div>\n<div class=\"card card-section bg-dark text-warning shadow\">\n  <div class=\"section card-body mb-0 my-2\">\n    <div class=\"paragraph card-text card-stanza my-5 text-center\">Books are not, some fancy extra,</div>\n    <div class=\"paragraph card-text card-stanza my-5 text-center\">but a pretty fancy way of rising, just rising.</div>\n  </div>\n</div>\n<div class=\"mb-5 section-spacer\">&nbsp;</div>\n<div class=\"card card-section bg-dark text-warning shadow\">\n  <div class=\"section card-body mb-0 my-2\">\n    <div class=\"paragraph card-text card-stanza my-5 text-center\">And perhaps it is somewhat old fashioned to be urging you to write books,</div>\n    <div class=\"paragraph card-text card-stanza my-5 text-center\">but I don't feel bad at all.</div>\n  </div>\n</div>\n<div class=\"card card-section bg-dark text-warning shadow\">\n  <div class=\"section card-body mb-0 my-2\">\n    <div class=\"paragraph card-text card-stanza my-5 text-center\">I expect the first one is the hardest,</div>\n    <div class=\"paragraph card-text card-stanza my-5 text-center\">the second one will be shoooo goood,</div>\n  </div>\n</div>\n<div class=\"card card-section bg-dark text-warning shadow\">\n  <div class=\"section card-body mb-0 my-2\">\n    <div class=\"paragraph card-text card-stanza my-5 text-center\">The third one - I am sorry,</div>\n    <div class=\"paragraph card-text card-stanza my-5 text-center\">will feel as floppy as a thinly sliced ham.</div>\n  </div>\n</div>\n<div class=\"card card-section bg-dark text-warning shadow\">\n  <div class=\"section card-body mb-0 my-2\">\n    <div class=\"paragraph card-text card-stanza my-5 text-center\">The fourth one,</div>\n    <div class=\"paragraph card-text card-stanza my-5 text-center\">after that long wonderful pause.</div>\n  </div>\n</div>\n<div class=\"card card-section bg-dark text-warning shadow\">\n  <div class=\"section card-body mb-0 my-2\">\n    <div class=\"paragraph card-text card-stanza my-5 text-center\">Will surely be the one,</div>\n    <div class=\"paragraph card-text card-stanza my-5 text-center\">it will feel like such a closure.</div>\n  </div>\n</div>\n<div class=\"mb-5 section-spacer\">&nbsp;</div>\n<div class=\"card card-section bg-dark text-warning shadow\">\n  <div class=\"section card-body mb-0 my-2\">\n    <div class=\"paragraph card-text card-stanza my-5 text-center\">But listen,</div>\n    <div class=\"paragraph card-text card-stanza my-5 text-center\">I suspect that we don't really get started until our fifth book.</div>\n  </div>\n</div>\n<div class=\"card card-section bg-dark text-warning shadow\">\n  <div class=\"section card-body mb-0 my-2\">\n    <div class=\"paragraph card-text card-stanza my-5 text-center\">'Cause you know,</div>\n    <div class=\"paragraph card-text card-stanza my-5 text-center\">it is the book you don't think about writing that gets you.</div>\n  </div>\n</div>\n<div class=\"mb-5 section-spacer\">&nbsp;</div>\n<div class=\"card card-section bg-dark text-warning shadow\">\n  <div class=\"section card-body mb-0 my-2\">\n    <div class=\"paragraph card-text card-stanza my-5 text-center\">And, I think I can actually predict enough of it to say,</div>\n    <div class=\"paragraph card-text card-stanza my-5 text-center\">that as children we look to the future, as adults we grow, and as Great Beings we look at the past with wise eyes.</div>\n  </div>\n</div>\n<div class=\"card card-section bg-dark text-warning shadow\">\n  <div class=\"section card-body mb-0 my-2\">\n    <div class=\"paragraph card-text card-stanza my-5 text-center\">See, it is not until we get there, and glance over at ideas that we were passionate about when young,</div>\n    <div class=\"paragraph card-text card-stanza my-5 text-center\">but now through the eyes of the Great Being... that all of a sudden, things like Amor Fati, are not merely about Love of Fate,</div>\n  </div>\n</div>\n<div class=\"card card-section bg-dark text-warning shadow\">\n  <div class=\"section card-body mb-0 my-2\">\n    <div class=\"paragraph card-text card-stanza my-5 text-center\">But also, from when we look at life,</div>\n    <div class=\"paragraph card-text card-stanza my-5 text-center\">see when looking back we see fate as something that that largely already unfolded.</div>\n  </div>\n</div>\n<div class=\"card card-section bg-dark text-warning shadow\">\n  <div class=\"section card-body mb-0 my-2\">\n    <div class=\"paragraph card-text card-stanza my-5 text-center\">And now, the love for it fits,</div>\n    <div class=\"paragraph card-text card-stanza my-5 text-center\">it is the love for all we've been through.</div>\n  </div>\n</div>\n<div class=\"card card-section bg-dark text-warning shadow\">\n  <div class=\"section card-body mb-0 my-2\">\n    <div class=\"paragraph card-text card-stanza my-5 text-center\">All the battles we fought and learned from regardless it it was triumph or disaster, ease or hardship,</div>\n    <div class=\"paragraph card-text card-stanza my-5 text-center\">it was what we grew <strong>so profound</strong>, what made us, ourselves.</div>\n  </div>\n</div>\n<div class=\"mb-5 section-spacer\">&nbsp;</div>\n<div class=\"card card-section bg-dark text-warning shadow\">\n  <div class=\"section card-body mb-0 my-2\">\n    <div class=\"paragraph card-text card-stanza my-5 text-center\">So as long, as we fought to rise,</div>\n    <div class=\"paragraph card-text card-stanza my-5 text-center\">so as long as it counts for more than whim and being pushed around.</div>\n  </div>\n</div>\n<div class=\"card card-section bg-dark text-warning shadow\">\n  <div class=\"section card-body mb-0 my-2\">\n    <div class=\"paragraph card-text card-stanza my-5 text-center\">It doesn't matter how hard things were,</div>\n    <div class=\"paragraph card-text card-stanza my-5 text-center\">it matters that nothing took away from our Love of Life.</div>\n  </div>\n</div>\n<div class=\"card card-section bg-dark text-warning shadow\">\n  <div class=\"section card-body mb-0 my-2\">\n    <div class=\"paragraph card-text card-stanza my-5 text-center\">That we faced those challenges,</div>\n    <div class=\"paragraph card-text card-stanza my-5 text-center\">easy or difficult.</div>\n  </div>\n</div>\n<div class=\"card card-section bg-dark text-warning shadow\">\n  <div class=\"section card-body mb-0 my-2\">\n    <div class=\"paragraph card-text card-stanza my-5 text-center\">Because now,</div>\n    <div class=\"paragraph card-text card-stanza my-5 text-center\">you sit at the typewriter, and you know the story dot for dot.</div>\n  </div>\n</div>\n<div class=\"card card-section bg-dark text-warning shadow\">\n  <div class=\"section card-body mb-0 my-2\">\n    <div class=\"paragraph card-text card-stanza my-5 text-center\">See, we have to live our life so sturdily,</div>\n    <div class=\"paragraph card-text card-stanza my-5 text-center\">as to bring enlightenment to our Elder Selves, and perhaps make them cry a little - and why the heck not!</div>\n  </div>\n</div>\n<div class=\"mb-5 section-spacer\">&nbsp;</div>\n<div class=\"card card-section bg-dark text-warning shadow\">\n  <div class=\"section card-body mb-0 my-2\">\n    <div class=\"paragraph card-text card-stanza my-5 text-center\">See, growing is not just for getting somewhere,</div>\n    <div class=\"paragraph card-text card-stanza my-5 text-center\">but also building what will eventually become our Beautiful Past.</div>\n  </div>\n</div>\n<div class=\"card card-section bg-dark text-warning shadow\">\n  <div class=\"section card-body mb-0 my-2\">\n    <div class=\"paragraph card-text card-stanza my-5 text-center\">And though as children we may need to admit to ourselves that we don't understand everything,</div>\n    <div class=\"paragraph card-text card-stanza my-5 text-center\">as Great Beings come Our Golden Age, we will understand what we once struggled with.</div>\n  </div>\n</div>\n<div class=\"card card-section bg-dark text-warning shadow\">\n  <div class=\"section card-body mb-0 my-2\">\n    <div class=\"paragraph card-text card-stanza my-5 text-center\">And with a great sense of accomplishment,</div>\n    <div class=\"paragraph card-text card-stanza my-5 text-center\">a sense of accomplishment that wouldn't be there, had we not challenged ourselves with things that were out of our grasp when we were young.</div>\n  </div>\n</div>\n<div class=\"card card-section bg-dark text-warning shadow\">\n  <div class=\"section card-body mb-0 my-2\">\n    <div class=\"paragraph card-text card-stanza my-5 text-center\">So what may seem as difficulty in our youth,</div>\n    <div class=\"paragraph card-text card-stanza my-5 text-center\">we will end up loving in our Golden Age for making us stronger and more profound.</div>\n  </div>\n</div>",
  "print": "<div class=\"section avoid-break-inside\" style=\"padding-bottom: 2rem;\">\n  <div class=\"paragraph\">I know all too well that writing books is hard,</div>\n  <div class=\"paragraph\">as far as I can tell; I am still learning English.</div>\n</div>\n<div class=\"section avoid-break-inside\" style=\"padding-bottom: 2rem;\">\n  <div class=\"paragraph\">But books, share principles, with life,</div>\n  <div class=\"paragraph\">be it book or life, it is always page after page, it has chapters.</div>\n</div>\n<div class=\"section avoid-break-inside\" style=\"padding-bottom: 2rem;\">\n  <div class=\"paragraph\">Books are not, some fancy extra,</div>\n  <div class=\"paragraph\">but a pretty fancy way of rising, just rising.</div>\n</div>\n<div class=\"section avoid-break-inside\" style=\"padding-bottom: 2rem;\">\n  <br>\n</div>\n<div class=\"section avoid-break-inside\" style=\"padding-bottom: 2rem;\">\n  <div class=\"paragraph\">And perhaps it is somewhat old fashioned to be urging you to write books,</div>\n  <div class=\"paragraph\">but I don't feel bad at all.</div>\n</div>\n<div class=\"section avoid-break-inside\" style=\"padding-bottom: 2rem;\">\n  <div class=\"paragraph\">I expect the first one is the hardest,</div>\n  <div class=\"paragraph\">the second one will be shoooo goood,</div>\n</div>\n<div class=\"section avoid-break-inside\" style=\"padding-bottom: 2rem;\">\n  <div class=\"paragraph\">The third one - I am sorry,</div>\n  <div class=\"paragraph\">will feel as floppy as a thinly sliced ham.</div>\n</div>\n<div class=\"section avoid-break-inside\" style=\"padding-bottom: 2rem;\">\n  <div class=\"paragraph\">The fourth one,</div>\n  <div class=\"paragraph\">after that long wonderful pause.</div>\n</div>\n<div class=\"section avoid-break-inside\" style=\"padding-bottom: 2rem;\">\n  <div class=\"paragraph\">Will surely be the one,</div>\n  <div class=\"paragraph\">it will feel like such a closure.</div>\n</div>\n<div class=\"section avoid-break-inside\" style=\"padding-bottom: 2rem;\">\n  <br>\n</div>\n<div class=\"section avoid-break-inside\" style=\"padding-bottom: 2rem;\">\n  <div class=\"paragraph\">But listen,</div>\n  <div class=\"paragraph\">I suspect that we don't really get started until our fifth book.</div>\n</div>\n<div class=\"section avoid-break-inside\" style=\"padding-bottom: 2rem;\">\n  <div class=\"paragraph\">'Cause you know,</div>\n  <div class=\"paragraph\">it is the book you don't think about writing that gets you.</div>\n</div>\n<div class=\"section avoid-break-inside\" style=\"padding-bottom: 2rem;\">\n  <br>\n</div>\n<div class=\"section avoid-break-inside\" style=\"padding-bottom: 2rem;\">\n  <div class=\"paragraph\">And, I think I can actually predict enough of it to say,</div>\n  <div class=\"paragraph\">that as children we look to the future, as adults we grow, and as Great Beings we look at the past with wise eyes.</div>\n</div>\n<div class=\"section avoid-break-inside\" style=\"padding-bottom: 2rem;\">\n  <div class=\"paragraph\">See, it is not until we get there, and glance over at ideas that we were passionate about when young,</div>\n  <div class=\"paragraph\">but now through the eyes of the Great Being... that all of a sudden, things like Amor Fati, are not merely about Love of Fate,</div>\n</div>\n<div class=\"section avoid-break-inside\" style=\"padding-bottom: 2rem;\">\n  <div class=\"paragraph\">But also, from when we look at life,</div>\n  <div class=\"paragraph\">see when looking back we see fate as something that that largely already unfolded.</div>\n</div>\n<div class=\"section avoid-break-inside\" style=\"padding-bottom: 2rem;\">\n  <div class=\"paragraph\">And now, the love for it fits,</div>\n  <div class=\"paragraph\">it is the love for all we've been through.</div>\n</div>\n<div class=\"section avoid-break-inside\" style=\"padding-bottom: 2rem;\">\n  <div class=\"paragraph\">All the battles we fought and learned from regardless it it was triumph or disaster, ease or hardship,</div>\n  <div class=\"paragraph\">it was what we grew <strong>so profound</strong>, what made us, ourselves.</div>\n</div>\n<div class=\"section avoid-break-inside\" style=\"padding-bottom: 2rem;\">\n  <br>\n</div>\n<div class=\"section avoid-break-inside\" style=\"padding-bottom: 2rem;\">\n  <div class=\"paragraph\">So as long, as we fought to rise,</div>\n  <div class=\"paragraph\">so as long as it counts for more than whim and being pushed around.</div>\n</div>\n<div class=\"section avoid-break-inside\" style=\"padding-bottom: 2rem;\">\n  <div class=\"paragraph\">It doesn't matter how hard things were,</div>\n  <div class=\"paragraph\">it matters that nothing took away from our Love of Life.</div>\n</div>\n<div class=\"section avoid-break-inside\" style=\"padding-bottom: 2rem;\">\n  <div class=\"paragraph\">That we faced those challenges,</div>\n  <div class=\"paragraph\">easy or difficult.</div>\n</div>\n<div class=\"section avoid-break-inside\" style=\"padding-bottom: 2rem;\">\n  <div class=\"paragraph\">Because now,</div>\n  <div class=\"paragraph\">you sit at the typewriter, and you know the story dot for dot.</div>\n</div>\n<div class=\"section avoid-break-inside\" style=\"padding-bottom: 2rem;\">\n  <div class=\"paragraph\">See, we have to live our life so sturdily,</div>\n  <div class=\"paragraph\">as to bring enlightenment to our Elder Selves, and perhaps make them cry a little - and why the heck not!</div>\n</div>\n<div class=\"section avoid-break-inside\" style=\"padding-bottom: 2rem;\">\n  <br>\n</div>\n<div class=\"section avoid-break-inside\" style=\"padding-bottom: 2rem;\">\n  <div class=\"paragraph\">See, growing is not just for getting somewhere,</div>\n  <div class=\"paragraph\">but also building what will eventually become our Beautiful Past.</div>\n</div>\n<div class=\"section avoid-break-inside\" style=\"padding-bottom: 2rem;\">\n  <div class=\"paragraph\">And though as children we may need to admit to ourselves that we don't understand everything,</div>\n  <div class=\"paragraph\">as Great Beings come Our Golden Age, we will understand what we once struggled with.</div>\n</div>\n<div class=\"section avoid-break-inside\" style=\"padding-bottom: 2rem;\">\n  <div class=\"paragraph\">And with a great sense of accomplishment,</div>\n  <div class=\"paragraph\">a sense of accomplishment that wouldn't be there, had we not challenged ourselves with things that were out of our grasp when we were young.</div>\n</div>\n<div class=\"section avoid-break-inside\" style=\"padding-bottom: 2rem;\">\n  <div class=\"paragraph\">So what may seem as difficulty in our youth,</div>\n  <div class=\"paragraph\">we will end up loving in our Golden Age for making us stronger and more profound.</div>\n</div>",
  "text": "I know all too well that writing books is hard,\nas far as I can tell; I am still learning English.\nBut books, share principles, with life,\nbe it book or life, it is always page after page, it has chapters.\nBooks are not, some fancy extra,\nbut a pretty fancy way of rising, just rising.\n\nAnd perhaps it is somewhat old fashioned to be urging you to write books,\nbut I don't feel bad at all.\nI expect the first one is the hardest,\nthe second one will be shoooo goood,\nThe third one - I am sorry,\nwill feel as floppy as a thinly sliced ham.\nThe fourth one,\nafter that long wonderful pause.\nWill surely be the one,\nit will feel like such a closure.\n\nBut listen,\nI suspect that we don't really get started until our fifth book.\n'Cause you know,\nit is the book you don't think about writing that gets you.\n\nAnd, I think I can actually predict enough of it to say,\nthat as children we look to the future, as adults we grow, and as Great Beings we look at the past with wise eyes.\nSee, it is not until we get there, and glance over at ideas that we were passionate about when young,\nbut now through the eyes of the Great Being... that all of a sudden, things like Amor Fati, are not merely about Love of Fate,\nBut also, from when we look at life,\nsee when looking back we see fate as something that that largely already unfolded.\nAnd now, the love for it fits,\nit is the love for all we've been through.\nAll the battles we fought and learned from regardless it it was triumph or disaster, ease or hardship,\nit was what we grew so profound, what made us, ourselves.\n\nSo as long, as we fought to rise,\nso as long as it counts for more than whim and being pushed around.\nIt doesn't matter how hard things were,\nit matters that nothing took away from our Love of Life.\nThat we faced those challenges,\neasy or difficult.\nBecause now,\nyou sit at the typewriter, and you know the story dot for dot.\nSee, we have to live our life so sturdily,\nas to bring enlightenment to our Elder Selves, and perhaps make them cry a little - and why the heck not!\n\nSee, growing is not just for getting somewhere,\nbut also building what will eventually become our Beautiful Past.\nAnd though as children we may need to admit to ourselves that we don't understand everything,\nas Great Beings come Our Golden Age, we will understand what we once struggled with.\nAnd with a great sense of accomplishment,\na sense of accomplishment that wouldn't be there, had we not challenged ourselves with things that were out of our grasp when we were young.\nSo what may seem as difficulty in our youth,\nwe will end up loving in our Golden Age for making us stronger and more profound.",
  "images": [],
  "links": []
}