{
  "name": "furkies-purrkies-poetry-0191",
  "title": "Voyageur Du Temps",
  "date": "2020-09-07T23:55:26.430Z",
  "image": "poetry-0191-illustration.jpg",
  "audio": "poetry-0191.mp3",
  "id": "furkies-purrkies-poetry-0191",
  "attachments": {},
  "guid": "d42784ce-5f3a-4525-b34f-25858682b324",
  "html": "<div class=\"section\">\n  <p>Grab onto your butts,</p>\n  <p>we are about to go nuts!</p>\n</div>\n<div class=\"section\">\n  <p>We are headed back in time,</p>\n  <p>to make a little bit of rhyme.</p>\n</div>\n<div class=\"section\">\n  <p>Do you want to know,</p>\n  <p>where and when we are going?</p>\n</div>\n<div class=\"section\">\n  <p>Greece! 425 BC,</p>\n  <p>to see about a real teacher, having a walk with his students by the sea.</p>\n</div>\n<div class=\"section\">\n  <p>Everyone else was stuck in their own life,</p>\n  <p>and Socrates too in his own way, was contemplating strife...</p>\n</div>\n<div class=\"section\">\n  <p>But he made a big breakthrough,</p>\n  <p>as he understood, how he grew.</p>\n</div>\n<div class=\"section\">\n  <p>It was all the lessons he was adding together,</p>\n  <p>while! ignoring all that did not matter.</p>\n</div>\n<div class=\"section\">\n  <p>&quot;Oh wow&quot; - he finally proclaimed - &quot;I really do know how I grew&quot;,</p>\n  <p>then turned to his students and said, &quot;and so should you!&quot;</p>\n</div>\n<div class=\"section\">\n  <p>He told them, that when people are stuck,</p>\n  <p>they only run in circles, and out of luck.</p>\n</div>\n<div class=\"section\">\n  <p>We must learn to study what is wise,</p>\n  <p>but also, ignore the less important so that we have a chance to rise.</p>\n</div>\n<div class=\"section\">\n  <p>And then once we become smart,</p>\n  <p>we can go all the way back, if we wish,</p>\n  <p>and begin super-smart at start.</p>\n</div>\n<div class=\"section\">\n  <hr>\n</div>\n<div class=\"section\">\n  <p>OK, we must now return back to our time,</p>\n  <p>as we now have a whole poem full of rhyme.</p>\n</div>\n<div class=\"section\">\n  <hr>\n</div>\n<div class=\"section\">\n  <p>So, the lesson for this evening is this:</p>\n</div>\n<div class=\"section\">\n  <p>Life is not a confusing mess or some dark abyss,</p>\n  <p>it is meant be lived in wisdom, with foresight and in pure bliss.</p>\n</div>\n<div class=\"section\">\n  <p>But to get there we must both; learn what to ignore,</p>\n  <p>and figure out what&apos;s important so we can stay on that sunny shore.</p>\n</div>\n<div class=\"section\">\n  <p>And we really, really, really need to ask this question,</p>\n  <p>this is not some strange rhyming suggestion.</p>\n</div>\n<div class=\"section\">\n  <p>What is real, what is fake?</p>\n  <p>what is merely keeping you busy - your whole life is at stake!</p>\n</div>\n<div class=\"section\">\n  <hr>\n</div>\n<div class=\"section\">\n  <p>Are you learning in school, becoming wiser every day?</p>\n  <p>Or are they forcing your with grades, to merely role play?</p>\n</div>\n<div class=\"section\">\n  <p>Because if your school is fake, merely playing the role of a babysitter,</p>\n  <p>then they are tricking you our of wisdom, and you should be bitter.</p>\n</div>\n<div class=\"section\">\n  <hr>\n</div>\n<div class=\"section\">\n  <p>Education is the first big deal in life,</p>\n  <p>it will help you fix problems before they begin, and keep you out of strife.</p>\n</div>\n<div class=\"section\">\n  <p>If you are not learning, then listen to lectures and audio books,</p>\n  <p>learn to avoid strife, and stray away from these crooks.</p>\n</div>\n<div class=\"section\">\n  <p>Do not let crappy teachers sell your mind for their pay check with charades,</p>\n  <p>tell them you want real knowledge not fake grades.</p>\n</div>\n<div class=\"section\">\n  <hr>\n</div>\n<div class=\"section\">\n  <p>Don&apos;t let anybody trick you into a fake education,</p>\n  <p>because that never lead to a real graduation.</p>\n</div>\n<div class=\"section\">\n  <p>Visit your elder self, make sure that they remember who they are,</p>\n  <p>make sure their knowledge is as densely packed as a Neutron Star,</p>\n  <p>- if not then try to figure out what their regrets are.</p>\n</div>\n<div class=\"section\">\n  <hr>\n</div>\n<div class=\"section\">\n  <p>You know what?! either way,</p>\n  <p>start listening to real lectures and powerful audio books, every day.</p>\n</div>\n<div class=\"section\">\n  <p>Authenticity Above All, do it for Socrates, do it for the Elder You,</p>\n  <p>ignore all the crooks, read your own books.</p>\n</div>",
  "bootstrap": "<div class=\"card card-section bg-dark text-warning shadow\">\n  <div class=\"section card-body mb-0 my-2\">\n    <div class=\"paragraph card-text card-stanza my-5 text-center\">Grab onto your butts,</div>\n    <div class=\"paragraph card-text card-stanza my-5 text-center\">we are about to go nuts!</div>\n  </div>\n</div>\n<div class=\"card card-section bg-dark text-warning shadow\">\n  <div class=\"section card-body mb-0 my-2\">\n    <div class=\"paragraph card-text card-stanza my-5 text-center\">We are headed back in time,</div>\n    <div class=\"paragraph card-text card-stanza my-5 text-center\">to make a little bit of rhyme.</div>\n  </div>\n</div>\n<div class=\"card card-section bg-dark text-warning shadow\">\n  <div class=\"section card-body mb-0 my-2\">\n    <div class=\"paragraph card-text card-stanza my-5 text-center\">Do you want to know,</div>\n    <div class=\"paragraph card-text card-stanza my-5 text-center\">where and when we are going?</div>\n  </div>\n</div>\n<div class=\"card card-section bg-dark text-warning shadow\">\n  <div class=\"section card-body mb-0 my-2\">\n    <div class=\"paragraph card-text card-stanza my-5 text-center\">Greece! 425 BC,</div>\n    <div class=\"paragraph card-text card-stanza my-5 text-center\">to see about a real teacher, having a walk with his students by the sea.</div>\n  </div>\n</div>\n<div class=\"card card-section bg-dark text-warning shadow\">\n  <div class=\"section card-body mb-0 my-2\">\n    <div class=\"paragraph card-text card-stanza my-5 text-center\">Everyone else was stuck in their own life,</div>\n    <div class=\"paragraph card-text card-stanza my-5 text-center\">and Socrates too in his own way, was contemplating strife...</div>\n  </div>\n</div>\n<div class=\"card card-section bg-dark text-warning shadow\">\n  <div class=\"section card-body mb-0 my-2\">\n    <div class=\"paragraph card-text card-stanza my-5 text-center\">But he made a big breakthrough,</div>\n    <div class=\"paragraph card-text card-stanza my-5 text-center\">as he understood, how he grew.</div>\n  </div>\n</div>\n<div class=\"card card-section bg-dark text-warning shadow\">\n  <div class=\"section card-body mb-0 my-2\">\n    <div class=\"paragraph card-text card-stanza my-5 text-center\">It was all the lessons he was adding together,</div>\n    <div class=\"paragraph card-text card-stanza my-5 text-center\">while! ignoring all that did not matter.</div>\n  </div>\n</div>\n<div class=\"card card-section bg-dark text-warning shadow\">\n  <div class=\"section card-body mb-0 my-2\">\n    <div class=\"paragraph card-text card-stanza my-5 text-center\">\"Oh wow\" - he finally proclaimed - \"I really do know how I grew\",</div>\n    <div class=\"paragraph card-text card-stanza my-5 text-center\">then turned to his students and said, \"and so should you!\"</div>\n  </div>\n</div>\n<div class=\"card card-section bg-dark text-warning shadow\">\n  <div class=\"section card-body mb-0 my-2\">\n    <div class=\"paragraph card-text card-stanza my-5 text-center\">He told them, that when people are stuck,</div>\n    <div class=\"paragraph card-text card-stanza my-5 text-center\">they only run in circles, and out of luck.</div>\n  </div>\n</div>\n<div class=\"card card-section bg-dark text-warning shadow\">\n  <div class=\"section card-body mb-0 my-2\">\n    <div class=\"paragraph card-text card-stanza my-5 text-center\">We must learn to study what is wise,</div>\n    <div class=\"paragraph card-text card-stanza my-5 text-center\">but also, ignore the less important so that we have a chance to rise.</div>\n  </div>\n</div>\n<div class=\"card card-section bg-dark text-warning shadow\">\n  <div class=\"section card-body mb-0 my-2\">\n    <div class=\"paragraph card-text card-stanza my-5 text-center\">And then once we become smart,</div>\n    <div class=\"paragraph card-text card-stanza my-5 text-center\">we can go all the way back, if we wish,</div>\n    <div class=\"paragraph card-text card-stanza my-5 text-center\">and begin super-smart at start.</div>\n  </div>\n</div>\n<div class=\"mb-5 section-spacer\">&nbsp;</div>\n<div class=\"card card-section bg-dark text-warning shadow\">\n  <div class=\"section card-body mb-0 my-2\">\n    <div class=\"paragraph card-text card-stanza my-5 text-center\">OK, we must now return back to our time,</div>\n    <div class=\"paragraph card-text card-stanza my-5 text-center\">as we now have a whole poem full of rhyme.</div>\n  </div>\n</div>\n<div class=\"mb-5 section-spacer\">&nbsp;</div>\n<div class=\"card card-section bg-dark text-warning shadow\">\n  <div class=\"section card-body mb-0 my-2\">\n    <div class=\"paragraph card-text card-stanza my-5 text-center\">So, the lesson for this evening is this:</div>\n  </div>\n</div>\n<div class=\"card card-section bg-dark text-warning shadow\">\n  <div class=\"section card-body mb-0 my-2\">\n    <div class=\"paragraph card-text card-stanza my-5 text-center\">Life is not a confusing mess or some dark abyss,</div>\n    <div class=\"paragraph card-text card-stanza my-5 text-center\">it is meant be lived in wisdom, with foresight and in pure bliss.</div>\n  </div>\n</div>\n<div class=\"card card-section bg-dark text-warning shadow\">\n  <div class=\"section card-body mb-0 my-2\">\n    <div class=\"paragraph card-text card-stanza my-5 text-center\">But to get there we must both; learn what to ignore,</div>\n    <div class=\"paragraph card-text card-stanza my-5 text-center\">and figure out what's important so we can stay on that sunny shore.</div>\n  </div>\n</div>\n<div class=\"card card-section bg-dark text-warning shadow\">\n  <div class=\"section card-body mb-0 my-2\">\n    <div class=\"paragraph card-text card-stanza my-5 text-center\">And we really, really, really need to ask this question,</div>\n    <div class=\"paragraph card-text card-stanza my-5 text-center\">this is not some strange rhyming suggestion.</div>\n  </div>\n</div>\n<div class=\"card card-section bg-dark text-warning shadow\">\n  <div class=\"section card-body mb-0 my-2\">\n    <div class=\"paragraph card-text card-stanza my-5 text-center\">What is real, what is fake?</div>\n    <div class=\"paragraph card-text card-stanza my-5 text-center\">what is merely keeping you busy - your whole life is at stake!</div>\n  </div>\n</div>\n<div class=\"mb-5 section-spacer\">&nbsp;</div>\n<div class=\"card card-section bg-dark text-warning shadow\">\n  <div class=\"section card-body mb-0 my-2\">\n    <div class=\"paragraph card-text card-stanza my-5 text-center\">Are you learning in school, becoming wiser every day?</div>\n    <div class=\"paragraph card-text card-stanza my-5 text-center\">Or are they forcing your with grades, to merely role play?</div>\n  </div>\n</div>\n<div class=\"card card-section bg-dark text-warning shadow\">\n  <div class=\"section card-body mb-0 my-2\">\n    <div class=\"paragraph card-text card-stanza my-5 text-center\">Because if your school is fake, merely playing the role of a babysitter,</div>\n    <div class=\"paragraph card-text card-stanza my-5 text-center\">then they are tricking you our of wisdom, and you should be bitter.</div>\n  </div>\n</div>\n<div class=\"mb-5 section-spacer\">&nbsp;</div>\n<div class=\"card card-section bg-dark text-warning shadow\">\n  <div class=\"section card-body mb-0 my-2\">\n    <div class=\"paragraph card-text card-stanza my-5 text-center\">Education is the first big deal in life,</div>\n    <div class=\"paragraph card-text card-stanza my-5 text-center\">it will help you fix problems before they begin, and keep you out of strife.</div>\n  </div>\n</div>\n<div class=\"card card-section bg-dark text-warning shadow\">\n  <div class=\"section card-body mb-0 my-2\">\n    <div class=\"paragraph card-text card-stanza my-5 text-center\">If you are not learning, then listen to lectures and audio books,</div>\n    <div class=\"paragraph card-text card-stanza my-5 text-center\">learn to avoid strife, and stray away from these crooks.</div>\n  </div>\n</div>\n<div class=\"card card-section bg-dark text-warning shadow\">\n  <div class=\"section card-body mb-0 my-2\">\n    <div class=\"paragraph card-text card-stanza my-5 text-center\">Do not let crappy teachers sell your mind for their pay check with charades,</div>\n    <div class=\"paragraph card-text card-stanza my-5 text-center\">tell them you want real knowledge not fake grades.</div>\n  </div>\n</div>\n<div class=\"mb-5 section-spacer\">&nbsp;</div>\n<div class=\"card card-section bg-dark text-warning shadow\">\n  <div class=\"section card-body mb-0 my-2\">\n    <div class=\"paragraph card-text card-stanza my-5 text-center\">Don't let anybody trick you into a fake education,</div>\n    <div class=\"paragraph card-text card-stanza my-5 text-center\">because that never lead to a real graduation.</div>\n  </div>\n</div>\n<div class=\"card card-section bg-dark text-warning shadow\">\n  <div class=\"section card-body mb-0 my-2\">\n    <div class=\"paragraph card-text card-stanza my-5 text-center\">Visit your elder self, make sure that they remember who they are,</div>\n    <div class=\"paragraph card-text card-stanza my-5 text-center\">make sure their knowledge is as densely packed as a Neutron Star,</div>\n    <div class=\"paragraph card-text card-stanza my-5 text-center\">- if not then try to figure out what their regrets are.</div>\n  </div>\n</div>\n<div class=\"mb-5 section-spacer\">&nbsp;</div>\n<div class=\"card card-section bg-dark text-warning shadow\">\n  <div class=\"section card-body mb-0 my-2\">\n    <div class=\"paragraph card-text card-stanza my-5 text-center\">You know what?! either way,</div>\n    <div class=\"paragraph card-text card-stanza my-5 text-center\">start listening to real lectures and powerful audio books, every day.</div>\n  </div>\n</div>\n<div class=\"card card-section bg-dark text-warning shadow\">\n  <div class=\"section card-body mb-0 my-2\">\n    <div class=\"paragraph card-text card-stanza my-5 text-center\">Authenticity Above All, do it for Socrates, do it for the Elder You,</div>\n    <div class=\"paragraph card-text card-stanza my-5 text-center\">ignore all the crooks, read your own books.</div>\n  </div>\n</div>",
  "print": "<div class=\"section avoid-break-inside\" style=\"padding-bottom: 2rem;\">\n  <div class=\"paragraph\">Grab onto your butts,</div>\n  <div class=\"paragraph\">we are about to go nuts!</div>\n</div>\n<div class=\"section avoid-break-inside\" style=\"padding-bottom: 2rem;\">\n  <div class=\"paragraph\">We are headed back in time,</div>\n  <div class=\"paragraph\">to make a little bit of rhyme.</div>\n</div>\n<div class=\"section avoid-break-inside\" style=\"padding-bottom: 2rem;\">\n  <div class=\"paragraph\">Do you want to know,</div>\n  <div class=\"paragraph\">where and when we are going?</div>\n</div>\n<div class=\"section avoid-break-inside\" style=\"padding-bottom: 2rem;\">\n  <div class=\"paragraph\">Greece! 425 BC,</div>\n  <div class=\"paragraph\">to see about a real teacher, having a walk with his students by the sea.</div>\n</div>\n<div class=\"section avoid-break-inside\" style=\"padding-bottom: 2rem;\">\n  <div class=\"paragraph\">Everyone else was stuck in their own life,</div>\n  <div class=\"paragraph\">and Socrates too in his own way, was contemplating strife...</div>\n</div>\n<div class=\"section avoid-break-inside\" style=\"padding-bottom: 2rem;\">\n  <div class=\"paragraph\">But he made a big breakthrough,</div>\n  <div class=\"paragraph\">as he understood, how he grew.</div>\n</div>\n<div class=\"section avoid-break-inside\" style=\"padding-bottom: 2rem;\">\n  <div class=\"paragraph\">It was all the lessons he was adding together,</div>\n  <div class=\"paragraph\">while! ignoring all that did not matter.</div>\n</div>\n<div class=\"section avoid-break-inside\" style=\"padding-bottom: 2rem;\">\n  <div class=\"paragraph\">\"Oh wow\" - he finally proclaimed - \"I really do know how I grew\",</div>\n  <div class=\"paragraph\">then turned to his students and said, \"and so should you!\"</div>\n</div>\n<div class=\"section avoid-break-inside\" style=\"padding-bottom: 2rem;\">\n  <div class=\"paragraph\">He told them, that when people are stuck,</div>\n  <div class=\"paragraph\">they only run in circles, and out of luck.</div>\n</div>\n<div class=\"section avoid-break-inside\" style=\"padding-bottom: 2rem;\">\n  <div class=\"paragraph\">We must learn to study what is wise,</div>\n  <div class=\"paragraph\">but also, ignore the less important so that we have a chance to rise.</div>\n</div>\n<div class=\"section avoid-break-inside\" style=\"padding-bottom: 2rem;\">\n  <div class=\"paragraph\">And then once we become smart,</div>\n  <div class=\"paragraph\">we can go all the way back, if we wish,</div>\n  <div class=\"paragraph\">and begin super-smart at start.</div>\n</div>\n<div class=\"section avoid-break-inside\" style=\"padding-bottom: 2rem;\">\n  <br>\n</div>\n<div class=\"section avoid-break-inside\" style=\"padding-bottom: 2rem;\">\n  <div class=\"paragraph\">OK, we must now return back to our time,</div>\n  <div class=\"paragraph\">as we now have a whole poem full of rhyme.</div>\n</div>\n<div class=\"section avoid-break-inside\" style=\"padding-bottom: 2rem;\">\n  <br>\n</div>\n<div class=\"section avoid-break-inside\" style=\"padding-bottom: 2rem;\">\n  <div class=\"paragraph\">So, the lesson for this evening is this:</div>\n</div>\n<div class=\"section avoid-break-inside\" style=\"padding-bottom: 2rem;\">\n  <div class=\"paragraph\">Life is not a confusing mess or some dark abyss,</div>\n  <div class=\"paragraph\">it is meant be lived in wisdom, with foresight and in pure bliss.</div>\n</div>\n<div class=\"section avoid-break-inside\" style=\"padding-bottom: 2rem;\">\n  <div class=\"paragraph\">But to get there we must both; learn what to ignore,</div>\n  <div class=\"paragraph\">and figure out what's important so we can stay on that sunny shore.</div>\n</div>\n<div class=\"section avoid-break-inside\" style=\"padding-bottom: 2rem;\">\n  <div class=\"paragraph\">And we really, really, really need to ask this question,</div>\n  <div class=\"paragraph\">this is not some strange rhyming suggestion.</div>\n</div>\n<div class=\"section avoid-break-inside\" style=\"padding-bottom: 2rem;\">\n  <div class=\"paragraph\">What is real, what is fake?</div>\n  <div class=\"paragraph\">what is merely keeping you busy - your whole life is at stake!</div>\n</div>\n<div class=\"section avoid-break-inside\" style=\"padding-bottom: 2rem;\">\n  <br>\n</div>\n<div class=\"section avoid-break-inside\" style=\"padding-bottom: 2rem;\">\n  <div class=\"paragraph\">Are you learning in school, becoming wiser every day?</div>\n  <div class=\"paragraph\">Or are they forcing your with grades, to merely role play?</div>\n</div>\n<div class=\"section avoid-break-inside\" style=\"padding-bottom: 2rem;\">\n  <div class=\"paragraph\">Because if your school is fake, merely playing the role of a babysitter,</div>\n  <div class=\"paragraph\">then they are tricking you our of wisdom, and you should be bitter.</div>\n</div>\n<div class=\"section avoid-break-inside\" style=\"padding-bottom: 2rem;\">\n  <br>\n</div>\n<div class=\"section avoid-break-inside\" style=\"padding-bottom: 2rem;\">\n  <div class=\"paragraph\">Education is the first big deal in life,</div>\n  <div class=\"paragraph\">it will help you fix problems before they begin, and keep you out of strife.</div>\n</div>\n<div class=\"section avoid-break-inside\" style=\"padding-bottom: 2rem;\">\n  <div class=\"paragraph\">If you are not learning, then listen to lectures and audio books,</div>\n  <div class=\"paragraph\">learn to avoid strife, and stray away from these crooks.</div>\n</div>\n<div class=\"section avoid-break-inside\" style=\"padding-bottom: 2rem;\">\n  <div class=\"paragraph\">Do not let crappy teachers sell your mind for their pay check with charades,</div>\n  <div class=\"paragraph\">tell them you want real knowledge not fake grades.</div>\n</div>\n<div class=\"section avoid-break-inside\" style=\"padding-bottom: 2rem;\">\n  <br>\n</div>\n<div class=\"section avoid-break-inside\" style=\"padding-bottom: 2rem;\">\n  <div class=\"paragraph\">Don't let anybody trick you into a fake education,</div>\n  <div class=\"paragraph\">because that never lead to a real graduation.</div>\n</div>\n<div class=\"section avoid-break-inside\" style=\"padding-bottom: 2rem;\">\n  <div class=\"paragraph\">Visit your elder self, make sure that they remember who they are,</div>\n  <div class=\"paragraph\">make sure their knowledge is as densely packed as a Neutron Star,</div>\n  <div class=\"paragraph\">- if not then try to figure out what their regrets are.</div>\n</div>\n<div class=\"section avoid-break-inside\" style=\"padding-bottom: 2rem;\">\n  <br>\n</div>\n<div class=\"section avoid-break-inside\" style=\"padding-bottom: 2rem;\">\n  <div class=\"paragraph\">You know what?! either way,</div>\n  <div class=\"paragraph\">start listening to real lectures and powerful audio books, every day.</div>\n</div>\n<div class=\"section avoid-break-inside\" style=\"padding-bottom: 2rem;\">\n  <div class=\"paragraph\">Authenticity Above All, do it for Socrates, do it for the Elder You,</div>\n  <div class=\"paragraph\">ignore all the crooks, read your own books.</div>\n</div>",
  "text": "Grab onto your butts,\nwe are about to go nuts!\nWe are headed back in time,\nto make a little bit of rhyme.\nDo you want to know,\nwhere and when we are going?\nGreece! 425 BC,\nto see about a real teacher, having a walk with his students by the sea.\nEveryone else was stuck in their own life,\nand Socrates too in his own way, was contemplating strife...\nBut he made a big breakthrough,\nas he understood, how he grew.\nIt was all the lessons he was adding together,\nwhile! ignoring all that did not matter.\n\"Oh wow\" - he finally proclaimed - \"I really do know how I grew\",\nthen turned to his students and said, \"and so should you!\"\nHe told them, that when people are stuck,\nthey only run in circles, and out of luck.\nWe must learn to study what is wise,\nbut also, ignore the less important so that we have a chance to rise.\nAnd then once we become smart,\nwe can go all the way back, if we wish,\nand begin super-smart at start.\n\nOK, we must now return back to our time,\nas we now have a whole poem full of rhyme.\n\nSo, the lesson for this evening is this:\nLife is not a confusing mess or some dark abyss,\nit is meant be lived in wisdom, with foresight and in pure bliss.\nBut to get there we must both; learn what to ignore,\nand figure out what's important so we can stay on that sunny shore.\nAnd we really, really, really need to ask this question,\nthis is not some strange rhyming suggestion.\nWhat is real, what is fake?\nwhat is merely keeping you busy - your whole life is at stake!\n\nAre you learning in school, becoming wiser every day?\nOr are they forcing your with grades, to merely role play?\nBecause if your school is fake, merely playing the role of a babysitter,\nthen they are tricking you our of wisdom, and you should be bitter.\n\nEducation is the first big deal in life,\nit will help you fix problems before they begin, and keep you out of strife.\nIf you are not learning, then listen to lectures and audio books,\nlearn to avoid strife, and stray away from these crooks.\nDo not let crappy teachers sell your mind for their pay check with charades,\ntell them you want real knowledge not fake grades.\n\nDon't let anybody trick you into a fake education,\nbecause that never lead to a real graduation.\nVisit your elder self, make sure that they remember who they are,\nmake sure their knowledge is as densely packed as a Neutron Star,\n- if not then try to figure out what their regrets are.\n\nYou know what?! either way,\nstart listening to real lectures and powerful audio books, every day.\nAuthenticity Above All, do it for Socrates, do it for the Elder You,\nignore all the crooks, read your own books.",
  "images": [],
  "links": []
}