{
  "id": "furkies-purrkies-poetry-0890",
  "title": "Furkies Purrkies Poetry 0890",
  "date": "2022-08-07T15:27:58.639Z",
  "image": "poetry-0890-illustration.jpg",
  "artwork": "https://example.com",
  "audio": "poetry-0890.mp3"
}