{
  "name": "furkies-purrkies-poetry-0890",
  "id": "furkies-purrkies-poetry-0890",
  "title": "Beyond Art",
  "date": "2022-08-07T19:27:58.639Z",
  "image": "poetry-0890-illustration.jpg",
  "artwork": "https://unsplash.com/photos/QTGIHhAhdMU",
  "audio": "poetry-0890.mp3",
  "guid": "b85ea9aa-5e8a-4b3a-9f94-5570b415493f",
  "html": "<div class=\"section\">\n  <p>Beyond art you discover a fusion of subjects,<br>that uniquely define you in the universe.</p>\n  <p>There is nothing here that you can control,<br>not anymore than you can control a coronal ejection of the sun.</p>\n  <p>The filaments are not directly connected to you,<br>they emerge out of the things that you do.</p>\n  <p>The filaments will surround you, they are your machinery,<br>but they are rooted in the artistic and organic.</p>\n</div>\n<div class=\"section\">\n  <hr>\n</div>\n<div class=\"section\">\n  <p>There isn't one tipping point,<br>wouldn't it be fun, if all it took was a snowflake.</p>\n  <p>It is tipping points all the way,<br>but you learn faster, you comprehend what you see with your eyes faster.</p>\n  <p>So the journey speeds up,<br>though it is still as hard as ever, there are many more thing.</p>\n</div>\n<div class=\"section\">\n  <hr>\n</div>\n<div class=\"section\">\n  <p>When you are a baby,<br>you learn that a ledge comes with a drop off.</p>\n  <p>You know it by instinct,<br>but you refine that by intellect.</p>\n  <p>A ledge and a drop off,<br>represent one of your first real world mechanics.</p>\n</div>\n<div class=\"section\">\n  <hr>\n</div>\n<div class=\"section\">\n  <p>The mechanics are the rules of the universe,<br>and well worn patterns in the chaos that beautifully emerges out of it.</p>\n  <p>But they need not come from the real world,<br>they can come from the world of art, the world of painting, and myth.</p>\n  <p>Here you pick up on great beings, the creators,<br>they are all a projection of you and the human.</p>\n  <p>As your wisdom grows, your sight will improve,<br>you will then begin seeing new details.</p>\n  <p>Seams in the information that reaches you,<br>and you can look into those seams and learn the more hidden things.</p>\n</div>\n<div class=\"section\">\n  <hr>\n</div>\n<div class=\"section\">\n  <p>As you grow, wrapped by the artistic, philosophical and wise, and the machinery of the night,<br>you will be building your own mythology. </p>\n  <p>The <a href=\"https://www.youtube.com/watch?v=Pj_IVO32ONo\">Pacific Crest Trail</a>, <a href=\"https://www.youtube.com/watch?v=1ewQvcGhQAA\">Continental Divide Trail</a>, or <a href=\"https://www.youtube.com/watch?v=hPSvdKTEZug\">Appalachian Trail</a>,<br>are adventures on a scale far beyond the ordinary graduation, paycheck, office job, and mortgage lifestyle.</p>\n  <p>And that is just the beginning, because if you can walk it,<br>you can run it too, <a href=\"https://www.youtube.com/watch?v=WnoziOPQ3HA\">and not just one race, all the races, and then some</a>.</p>\n  <p>There is only one reality in life,<br>and that means that we must be good to ourselves, and make each day count, make it meaningful.</p>\n</div>\n<div class=\"section\">\n  <hr>\n</div>\n<div class=\"section\">\n  <p>And of course as you can imagine, walling and running, is just the begining,<br>because then you have to <a href=\"https://www.youtube.com/watch?v=Dc6B14K1SZ8\">learn to dance</a>, or ride skateboards and twirl on roller blades.</p>\n  <p>And then get to the important stuff, as we have to help the little ones,<br><a href=\"https://www.youtube.com/watch?v=sa1iS1MqUy4\">we have to make sure they are not bulled, and that bullies are granted some measure of healing too</a>.</p>\n  <p>We have to make sure that students learn what they want to learn,<br><a href=\"https://www.youtube.com/watch?v=Mwx3RvDWvDM\">and that all students are safe, and that their education it is always a profound experience, like none other</a>.</p>\n  <p>In 2022 as I wrote this <a href=\"https://www.youtube.com/watch?v=rKS_HhdSJ_4\">schools were erasing real education</a>,<br><a href=\"https://www.youtube.com/watch?v=sxyKNMrhEvY\">the need to learn something meaningful comes from the inside</a>, from the outside it will only be damaged.</p>\n  <p><a href=\"https://www.youtube.com/watch?v=9M4tdMsg3ts\">Often is is the student that fails make-believe-education that learns the most</a>,<br><a href=\"https://www.youtube.com/watch?v=mQPEZdBTOeE\">we are all geniuses, we just need to learn in the sequence that fits our existing knowledge and at a lovely speed while switching subjects as our curiosity grows</a></p>\n</div>\n<div class=\"section\">\n  <hr>\n</div>\n<div class=\"section\">\n  <p>It is not just health, education, and impossible adventure,<br>it is also the choices we make that then dictate the future ahead of us.</p>\n  <p>We are not the first generation, many have come before us, and there is much wisdom to learn,<br><a href=\"https://www.youtube.com/watch?v=k6_QUhUPrF4\">some of it, is out of control and outrageous, meant for unique lives</a>.</p>\n  <p><a href=\"https://www.youtube.com/watch?v=31lUwuhE8pc\">Other wisdom may turn us into unbreakable beings</a><br>whether it is learning not to stop while jogging, or not to give up no matter what the future of humanity holds.</p>\n  <p>And the longer you go, the more tipping points, the faster you push, and more mature you become,<br><a href=\"https://www.youtube.com/watch?v=EknD3KRtgDk\">there are wisdom so powerful that they create unending ripples in time</a>,</p>\n  <p><a href=\"https://www.youtube.com/watch?v=wxmRulRQsLc\">Then when you create, the entire Universe listens and learns</a>,<br>in hopes of trying to understand more of it self.</p>\n  <p>And then finally as you retire, you too have to share your wisdom,<br>so that those who follow need not start in the beginning, bur rather, begin on the shoulders of giants.</p>\n</div>",
  "bootstrap": "<div class=\"card card-section bg-dark text-warning shadow\">\n  <div class=\"section card-body mb-0 my-2\">\n    <div class=\"paragraph card-text card-stanza my-5 text-center\">Beyond art you discover a fusion of subjects,<br>that uniquely define you in the universe.</div>\n    <div class=\"paragraph card-text card-stanza my-5 text-center\">There is nothing here that you can control,<br>not anymore than you can control a coronal ejection of the sun.</div>\n    <div class=\"paragraph card-text card-stanza my-5 text-center\">The filaments are not directly connected to you,<br>they emerge out of the things that you do.</div>\n    <div class=\"paragraph card-text card-stanza my-5 text-center\">The filaments will surround you, they are your machinery,<br>but they are rooted in the artistic and organic.</div>\n  </div>\n</div>\n<div class=\"mb-5 section-spacer\">&nbsp;</div>\n<div class=\"card card-section bg-dark text-warning shadow\">\n  <div class=\"section card-body mb-0 my-2\">\n    <div class=\"paragraph card-text card-stanza my-5 text-center\">There isn't one tipping point,<br>wouldn't it be fun, if all it took was a snowflake.</div>\n    <div class=\"paragraph card-text card-stanza my-5 text-center\">It is tipping points all the way,<br>but you learn faster, you comprehend what you see with your eyes faster.</div>\n    <div class=\"paragraph card-text card-stanza my-5 text-center\">So the journey speeds up,<br>though it is still as hard as ever, there are many more thing.</div>\n  </div>\n</div>\n<div class=\"mb-5 section-spacer\">&nbsp;</div>\n<div class=\"card card-section bg-dark text-warning shadow\">\n  <div class=\"section card-body mb-0 my-2\">\n    <div class=\"paragraph card-text card-stanza my-5 text-center\">When you are a baby,<br>you learn that a ledge comes with a drop off.</div>\n    <div class=\"paragraph card-text card-stanza my-5 text-center\">You know it by instinct,<br>but you refine that by intellect.</div>\n    <div class=\"paragraph card-text card-stanza my-5 text-center\">A ledge and a drop off,<br>represent one of your first real world mechanics.</div>\n  </div>\n</div>\n<div class=\"mb-5 section-spacer\">&nbsp;</div>\n<div class=\"card card-section bg-dark text-warning shadow\">\n  <div class=\"section card-body mb-0 my-2\">\n    <div class=\"paragraph card-text card-stanza my-5 text-center\">The mechanics are the rules of the universe,<br>and well worn patterns in the chaos that beautifully emerges out of it.</div>\n    <div class=\"paragraph card-text card-stanza my-5 text-center\">But they need not come from the real world,<br>they can come from the world of art, the world of painting, and myth.</div>\n    <div class=\"paragraph card-text card-stanza my-5 text-center\">Here you pick up on great beings, the creators,<br>they are all a projection of you and the human.</div>\n    <div class=\"paragraph card-text card-stanza my-5 text-center\">As your wisdom grows, your sight will improve,<br>you will then begin seeing new details.</div>\n    <div class=\"paragraph card-text card-stanza my-5 text-center\">Seams in the information that reaches you,<br>and you can look into those seams and learn the more hidden things.</div>\n  </div>\n</div>\n<div class=\"mb-5 section-spacer\">&nbsp;</div>\n<div class=\"card card-section bg-dark text-warning shadow\">\n  <div class=\"section card-body mb-0 my-2\">\n    <div class=\"paragraph card-text card-stanza my-5 text-center\">As you grow, wrapped by the artistic, philosophical and wise, and the machinery of the night,<br>you will be building your own mythology. </div>\n    <div class=\"paragraph card-text card-stanza my-5 text-center\">The <a href=\"https://www.youtube.com/watch?v=Pj_IVO32ONo\">Pacific Crest Trail</a>, <a href=\"https://www.youtube.com/watch?v=1ewQvcGhQAA\">Continental Divide Trail</a>, or <a href=\"https://www.youtube.com/watch?v=hPSvdKTEZug\">Appalachian Trail</a>,<br>are adventures on a scale far beyond the ordinary graduation, paycheck, office job, and mortgage lifestyle.</div>\n    <div class=\"paragraph card-text card-stanza my-5 text-center\">And that is just the beginning, because if you can walk it,<br>you can run it too, <a href=\"https://www.youtube.com/watch?v=WnoziOPQ3HA\">and not just one race, all the races, and then some</a>.</div>\n    <div class=\"paragraph card-text card-stanza my-5 text-center\">There is only one reality in life,<br>and that means that we must be good to ourselves, and make each day count, make it meaningful.</div>\n  </div>\n</div>\n<div class=\"mb-5 section-spacer\">&nbsp;</div>\n<div class=\"card card-section bg-dark text-warning shadow\">\n  <div class=\"section card-body mb-0 my-2\">\n    <div class=\"paragraph card-text card-stanza my-5 text-center\">And of course as you can imagine, walling and running, is just the begining,<br>because then you have to <a href=\"https://www.youtube.com/watch?v=Dc6B14K1SZ8\">learn to dance</a>, or ride skateboards and twirl on roller blades.</div>\n    <div class=\"paragraph card-text card-stanza my-5 text-center\">And then get to the important stuff, as we have to help the little ones,<br><a href=\"https://www.youtube.com/watch?v=sa1iS1MqUy4\">we have to make sure they are not bulled, and that bullies are granted some measure of healing too</a>.</div>\n    <div class=\"paragraph card-text card-stanza my-5 text-center\">We have to make sure that students learn what they want to learn,<br><a href=\"https://www.youtube.com/watch?v=Mwx3RvDWvDM\">and that all students are safe, and that their education it is always a profound experience, like none other</a>.</div>\n    <div class=\"paragraph card-text card-stanza my-5 text-center\">In 2022 as I wrote this <a href=\"https://www.youtube.com/watch?v=rKS_HhdSJ_4\">schools were erasing real education</a>,<br><a href=\"https://www.youtube.com/watch?v=sxyKNMrhEvY\">the need to learn something meaningful comes from the inside</a>, from the outside it will only be damaged.</div>\n    <div class=\"paragraph card-text card-stanza my-5 text-center\"><a href=\"https://www.youtube.com/watch?v=9M4tdMsg3ts\">Often is is the student that fails make-believe-education that learns the most</a>,<br><a href=\"https://www.youtube.com/watch?v=mQPEZdBTOeE\">we are all geniuses, we just need to learn in the sequence that fits our existing knowledge and at a lovely speed while switching subjects as our curiosity grows</a></div>\n  </div>\n</div>\n<div class=\"mb-5 section-spacer\">&nbsp;</div>\n<div class=\"card card-section bg-dark text-warning shadow\">\n  <div class=\"section card-body mb-0 my-2\">\n    <div class=\"paragraph card-text card-stanza my-5 text-center\">It is not just health, education, and impossible adventure,<br>it is also the choices we make that then dictate the future ahead of us.</div>\n    <div class=\"paragraph card-text card-stanza my-5 text-center\">We are not the first generation, many have come before us, and there is much wisdom to learn,<br><a href=\"https://www.youtube.com/watch?v=k6_QUhUPrF4\">some of it, is out of control and outrageous, meant for unique lives</a>.</div>\n    <div class=\"paragraph card-text card-stanza my-5 text-center\"><a href=\"https://www.youtube.com/watch?v=31lUwuhE8pc\">Other wisdom may turn us into unbreakable beings</a><br>whether it is learning not to stop while jogging, or not to give up no matter what the future of humanity holds.</div>\n    <div class=\"paragraph card-text card-stanza my-5 text-center\">And the longer you go, the more tipping points, the faster you push, and more mature you become,<br><a href=\"https://www.youtube.com/watch?v=EknD3KRtgDk\">there are wisdom so powerful that they create unending ripples in time</a>,</div>\n    <div class=\"paragraph card-text card-stanza my-5 text-center\"><a href=\"https://www.youtube.com/watch?v=wxmRulRQsLc\">Then when you create, the entire Universe listens and learns</a>,<br>in hopes of trying to understand more of it self.</div>\n    <div class=\"paragraph card-text card-stanza my-5 text-center\">And then finally as you retire, you too have to share your wisdom,<br>so that those who follow need not start in the beginning, bur rather, begin on the shoulders of giants.</div>\n  </div>\n</div>",
  "print": "<div class=\"section avoid-break-inside\" style=\"padding-bottom: 2rem;\">\n  <div class=\"paragraph\">Beyond art you discover a fusion of subjects,<br>that uniquely define you in the universe.</div>\n  <div class=\"paragraph\">There is nothing here that you can control,<br>not anymore than you can control a coronal ejection of the sun.</div>\n  <div class=\"paragraph\">The filaments are not directly connected to you,<br>they emerge out of the things that you do.</div>\n  <div class=\"paragraph\">The filaments will surround you, they are your machinery,<br>but they are rooted in the artistic and organic.</div>\n</div>\n<div class=\"section avoid-break-inside\" style=\"padding-bottom: 2rem;\">\n  <br>\n</div>\n<div class=\"section avoid-break-inside\" style=\"padding-bottom: 2rem;\">\n  <div class=\"paragraph\">There isn't one tipping point,<br>wouldn't it be fun, if all it took was a snowflake.</div>\n  <div class=\"paragraph\">It is tipping points all the way,<br>but you learn faster, you comprehend what you see with your eyes faster.</div>\n  <div class=\"paragraph\">So the journey speeds up,<br>though it is still as hard as ever, there are many more thing.</div>\n</div>\n<div class=\"section avoid-break-inside\" style=\"padding-bottom: 2rem;\">\n  <br>\n</div>\n<div class=\"section avoid-break-inside\" style=\"padding-bottom: 2rem;\">\n  <div class=\"paragraph\">When you are a baby,<br>you learn that a ledge comes with a drop off.</div>\n  <div class=\"paragraph\">You know it by instinct,<br>but you refine that by intellect.</div>\n  <div class=\"paragraph\">A ledge and a drop off,<br>represent one of your first real world mechanics.</div>\n</div>\n<div class=\"section avoid-break-inside\" style=\"padding-bottom: 2rem;\">\n  <br>\n</div>\n<div class=\"section avoid-break-inside\" style=\"padding-bottom: 2rem;\">\n  <div class=\"paragraph\">The mechanics are the rules of the universe,<br>and well worn patterns in the chaos that beautifully emerges out of it.</div>\n  <div class=\"paragraph\">But they need not come from the real world,<br>they can come from the world of art, the world of painting, and myth.</div>\n  <div class=\"paragraph\">Here you pick up on great beings, the creators,<br>they are all a projection of you and the human.</div>\n  <div class=\"paragraph\">As your wisdom grows, your sight will improve,<br>you will then begin seeing new details.</div>\n  <div class=\"paragraph\">Seams in the information that reaches you,<br>and you can look into those seams and learn the more hidden things.</div>\n</div>\n<div class=\"section avoid-break-inside\" style=\"padding-bottom: 2rem;\">\n  <br>\n</div>\n<div class=\"section avoid-break-inside\" style=\"padding-bottom: 2rem;\">\n  <div class=\"paragraph\">As you grow, wrapped by the artistic, philosophical and wise, and the machinery of the night,<br>you will be building your own mythology. </div>\n  <div class=\"paragraph\">The <span>Pacific Crest Trail<sup>[1]</sup></span>, <span>Continental Divide Trail<sup>[2]</sup></span>, or <span>Appalachian Trail<sup>[3]</sup></span>,<br>are adventures on a scale far beyond the ordinary graduation, paycheck, office job, and mortgage lifestyle.</div>\n  <div class=\"paragraph\">And that is just the beginning, because if you can walk it,<br>you can run it too, <span>and not just one race, all the races, and then some<sup>[4]</sup></span>.</div>\n  <div class=\"paragraph\">There is only one reality in life,<br>and that means that we must be good to ourselves, and make each day count, make it meaningful.</div>\n</div>\n<div class=\"section avoid-break-inside\" style=\"padding-bottom: 2rem;\">\n  <br>\n</div>\n<div class=\"section avoid-break-inside\" style=\"padding-bottom: 2rem;\">\n  <div class=\"paragraph\">And of course as you can imagine, walling and running, is just the begining,<br>because then you have to <span>learn to dance<sup>[5]</sup></span>, or ride skateboards and twirl on roller blades.</div>\n  <div class=\"paragraph\">And then get to the important stuff, as we have to help the little ones,<br><span>we have to make sure they are not bulled, and that bullies are granted some measure of healing too<sup>[6]</sup></span>.</div>\n  <div class=\"paragraph\">We have to make sure that students learn what they want to learn,<br><span>and that all students are safe, and that their education it is always a profound experience, like none other<sup>[7]</sup></span>.</div>\n  <div class=\"paragraph\">In 2022 as I wrote this <span>schools were erasing real education<sup>[8]</sup></span>,<br><span>the need to learn something meaningful comes from the inside<sup>[9]</sup></span>, from the outside it will only be damaged.</div>\n  <div class=\"paragraph\"><span>Often is is the student that fails make-believe-education that learns the most<sup>[10]</sup></span>,<br><span>we are all geniuses, we just need to learn in the sequence that fits our existing knowledge and at a lovely speed while switching subjects as our curiosity grows<sup>[11]</sup></span></div>\n</div>\n<div class=\"section avoid-break-inside\" style=\"padding-bottom: 2rem;\">\n  <br>\n</div>\n<div class=\"section avoid-break-inside\" style=\"padding-bottom: 2rem;\">\n  <div class=\"paragraph\">It is not just health, education, and impossible adventure,<br>it is also the choices we make that then dictate the future ahead of us.</div>\n  <div class=\"paragraph\">We are not the first generation, many have come before us, and there is much wisdom to learn,<br><span>some of it, is out of control and outrageous, meant for unique lives<sup>[12]</sup></span>.</div>\n  <div class=\"paragraph\"><span>Other wisdom may turn us into unbreakable beings<sup>[13]</sup></span><br>whether it is learning not to stop while jogging, or not to give up no matter what the future of humanity holds.</div>\n  <div class=\"paragraph\">And the longer you go, the more tipping points, the faster you push, and more mature you become,<br><span>there are wisdom so powerful that they create unending ripples in time<sup>[14]</sup></span>,</div>\n  <div class=\"paragraph\"><span>Then when you create, the entire Universe listens and learns<sup>[15]</sup></span>,<br>in hopes of trying to understand more of it self.</div>\n  <div class=\"paragraph\">And then finally as you retire, you too have to share your wisdom,<br>so that those who follow need not start in the beginning, bur rather, begin on the shoulders of giants.</div>\n</div>\n<div class=\"break-after\">&nbsp;</div>\n<div>\n  <div class=\"section\" style=\"padding-bottom: 1rem;\">References</div>\n  <div>[1]: https://www.youtube.com/watch?v=Pj_IVO32ONo</div>\n  <div>[2]: https://www.youtube.com/watch?v=1ewQvcGhQAA</div>\n  <div>[3]: https://www.youtube.com/watch?v=hPSvdKTEZug</div>\n  <div>[4]: https://www.youtube.com/watch?v=WnoziOPQ3HA</div>\n  <div>[5]: https://www.youtube.com/watch?v=Dc6B14K1SZ8</div>\n  <div>[6]: https://www.youtube.com/watch?v=sa1iS1MqUy4</div>\n  <div>[7]: https://www.youtube.com/watch?v=Mwx3RvDWvDM</div>\n  <div>[8]: https://www.youtube.com/watch?v=rKS_HhdSJ_4</div>\n  <div>[9]: https://www.youtube.com/watch?v=sxyKNMrhEvY</div>\n  <div>[10]: https://www.youtube.com/watch?v=9M4tdMsg3ts</div>\n  <div>[11]: https://www.youtube.com/watch?v=mQPEZdBTOeE</div>\n  <div>[12]: https://www.youtube.com/watch?v=k6_QUhUPrF4</div>\n  <div>[13]: https://www.youtube.com/watch?v=31lUwuhE8pc</div>\n  <div>[14]: https://www.youtube.com/watch?v=EknD3KRtgDk</div>\n  <div>[15]: https://www.youtube.com/watch?v=wxmRulRQsLc</div>\n</div>",
  "text": "Beyond art you discover a fusion of subjects,\nthat uniquely define you in the universe.\nThere is nothing here that you can control,\nnot anymore than you can control a coronal ejection of the sun.\nThe filaments are not directly connected to you,\nthey emerge out of the things that you do.\nThe filaments will surround you, they are your machinery,\nbut they are rooted in the artistic and organic.\n\nThere isn't one tipping point,\nwouldn't it be fun, if all it took was a snowflake.\nIt is tipping points all the way,\nbut you learn faster, you comprehend what you see with your eyes faster.\nSo the journey speeds up,\nthough it is still as hard as ever, there are many more thing.\n\nWhen you are a baby,\nyou learn that a ledge comes with a drop off.\nYou know it by instinct,\nbut you refine that by intellect.\nA ledge and a drop off,\nrepresent one of your first real world mechanics.\n\nThe mechanics are the rules of the universe,\nand well worn patterns in the chaos that beautifully emerges out of it.\nBut they need not come from the real world,\nthey can come from the world of art, the world of painting, and myth.\nHere you pick up on great beings, the creators,\nthey are all a projection of you and the human.\nAs your wisdom grows, your sight will improve,\nyou will then begin seeing new details.\nSeams in the information that reaches you,\nand you can look into those seams and learn the more hidden things.\n\nAs you grow, wrapped by the artistic, philosophical and wise, and the machinery of the night,\nyou will be building your own mythology.\nThe Pacific Crest Trail[1], Continental Divide Trail[2], or Appalachian Trail[3],\nare adventures on a scale far beyond the ordinary graduation, paycheck, office job, and mortgage lifestyle.\nAnd that is just the beginning, because if you can walk it,\nyou can run it too, and not just one race, all the races, and then some[4].\nThere is only one reality in life,\nand that means that we must be good to ourselves, and make each day count, make it meaningful.\n\nAnd of course as you can imagine, walling and running, is just the begining,\nbecause then you have to learn to dance[5], or ride skateboards and twirl on roller blades.\nAnd then get to the important stuff, as we have to help the little ones,\nwe have to make sure they are not bulled, and that bullies are granted some measure of healing too[6].\nWe have to make sure that students learn what they want to learn,\nand that all students are safe, and that their education it is always a profound experience, like none other[7].\nIn 2022 as I wrote this schools were erasing real education[8],\nthe need to learn something meaningful comes from the inside[9], from the outside it will only be damaged.\nOften is is the student that fails make-believe-education that learns the most[10],\nwe are all geniuses, we just need to learn in the sequence that fits our existing knowledge and at a lovely speed while switching subjects as our curiosity grows[11]\n\nIt is not just health, education, and impossible adventure,\nit is also the choices we make that then dictate the future ahead of us.\nWe are not the first generation, many have come before us, and there is much wisdom to learn,\nsome of it, is out of control and outrageous, meant for unique lives[12].\nOther wisdom may turn us into unbreakable beings[13]\nwhether it is learning not to stop while jogging, or not to give up no matter what the future of humanity holds.\nAnd the longer you go, the more tipping points, the faster you push, and more mature you become,\nthere are wisdom so powerful that they create unending ripples in time[14],\nThen when you create, the entire Universe listens and learns[15],\nin hopes of trying to understand more of it self.\nAnd then finally as you retire, you too have to share your wisdom,\nso that those who follow need not start in the beginning, bur rather, begin on the shoulders of giants.\n \nReferences\n[1]: https://www.youtube.com/watch?v=Pj_IVO32ONo\n[2]: https://www.youtube.com/watch?v=1ewQvcGhQAA\n[3]: https://www.youtube.com/watch?v=hPSvdKTEZug\n[4]: https://www.youtube.com/watch?v=WnoziOPQ3HA\n[5]: https://www.youtube.com/watch?v=Dc6B14K1SZ8\n[6]: https://www.youtube.com/watch?v=sa1iS1MqUy4\n[7]: https://www.youtube.com/watch?v=Mwx3RvDWvDM\n[8]: https://www.youtube.com/watch?v=rKS_HhdSJ_4\n[9]: https://www.youtube.com/watch?v=sxyKNMrhEvY\n[10]: https://www.youtube.com/watch?v=9M4tdMsg3ts\n[11]: https://www.youtube.com/watch?v=mQPEZdBTOeE\n[12]: https://www.youtube.com/watch?v=k6_QUhUPrF4\n[13]: https://www.youtube.com/watch?v=31lUwuhE8pc\n[14]: https://www.youtube.com/watch?v=EknD3KRtgDk\n[15]: https://www.youtube.com/watch?v=wxmRulRQsLc",
  "images": [],
  "links": [
    {
      "title": "Pacific Crest Trail",
      "url": "https://www.youtube.com/watch?v=Pj_IVO32ONo",
      "hostname": "www.youtube.com"
    },
    {
      "title": "Continental Divide Trail",
      "url": "https://www.youtube.com/watch?v=1ewQvcGhQAA",
      "hostname": "www.youtube.com"
    },
    {
      "title": "Appalachian Trail",
      "url": "https://www.youtube.com/watch?v=hPSvdKTEZug",
      "hostname": "www.youtube.com"
    },
    {
      "title": "and not just one race, all the races, and then some",
      "url": "https://www.youtube.com/watch?v=WnoziOPQ3HA",
      "hostname": "www.youtube.com"
    },
    {
      "title": "learn to dance",
      "url": "https://www.youtube.com/watch?v=Dc6B14K1SZ8",
      "hostname": "www.youtube.com"
    },
    {
      "title": "we have to make sure they are not bulled, and that bullies are granted some measure of healing too",
      "url": "https://www.youtube.com/watch?v=sa1iS1MqUy4",
      "hostname": "www.youtube.com"
    },
    {
      "title": "and that all students are safe, and that their education it is always a profound experience, like none other",
      "url": "https://www.youtube.com/watch?v=Mwx3RvDWvDM",
      "hostname": "www.youtube.com"
    },
    {
      "title": "schools were erasing real education",
      "url": "https://www.youtube.com/watch?v=rKS_HhdSJ_4",
      "hostname": "www.youtube.com"
    },
    {
      "title": "the need to learn something meaningful comes from the inside",
      "url": "https://www.youtube.com/watch?v=sxyKNMrhEvY",
      "hostname": "www.youtube.com"
    },
    {
      "title": "Often is is the student that fails make-believe-education that learns the most",
      "url": "https://www.youtube.com/watch?v=9M4tdMsg3ts",
      "hostname": "www.youtube.com"
    },
    {
      "title": "we are all geniuses, we just need to learn in the sequence that fits our existing knowledge and at a lovely speed while switching subjects as our curiosity grows",
      "url": "https://www.youtube.com/watch?v=mQPEZdBTOeE",
      "hostname": "www.youtube.com"
    },
    {
      "title": "some of it, is out of control and outrageous, meant for unique lives",
      "url": "https://www.youtube.com/watch?v=k6_QUhUPrF4",
      "hostname": "www.youtube.com"
    },
    {
      "title": "Other wisdom may turn us into unbreakable beings",
      "url": "https://www.youtube.com/watch?v=31lUwuhE8pc",
      "hostname": "www.youtube.com"
    },
    {
      "title": "there are wisdom so powerful that they create unending ripples in time",
      "url": "https://www.youtube.com/watch?v=EknD3KRtgDk",
      "hostname": "www.youtube.com"
    },
    {
      "title": "Then when you create, the entire Universe listens and learns",
      "url": "https://www.youtube.com/watch?v=wxmRulRQsLc",
      "hostname": "www.youtube.com"
    }
  ]
}