{
  "id": "furkies-purrkies-poetry-0704",
  "title": "Groundhog Day: Six More Weeks Of Winter",
  "date": "2022-02-02T20:50:49.148Z",
  "image": "poetry-0704-illustration.jpg",
  "artwork": "https://catpea.com",
  "audio": "poetry-0704.mp3",
  "guid": "d9527d0a-c4ed-45e5-892d-31e64f6c7534"
}
