{
  "name": "furkies-purrkies-poetry-0615",
  "id": "furkies-purrkies-poetry-0615",
  "title": "Life After High School: Become A Great Being",
  "date": "2021-11-05T22:50:42.558Z",
  "image": "poetry-0615-illustration.jpg",
  "artwork": "https://unsplash.com/photos/7rpwyZhkmNg",
  "audio": "poetry-0615.mp3",
  "guid": "c76d96ef-aa12-498f-96af-39928dea1a00",
  "html": "<div class=\"section\">\n  <p><a href=\"https://www.youtube.com/watch?v=9M4tdMsg3ts\">Erica was right</a>,<br>grades and graduations, bite.</p>\n  <p>The integrity of your mind must come first,<br>and you must rise and rise, or you'll end up cursed.</p>\n  <p>What teachers didn't know to tell you,<br>is it is not just knowledge, but wisdom, and your greatness too.</p>\n  <p>Thus, live your live cautiously, authentically and true,<br>and rise, breakthrough after breakthrough.</p>\n</div>\n<div class=\"section\">\n  <hr>\n</div>\n<div class=\"section\">\n  <p>Oh, people will come and try to make you more useful,<br>but you have to rage and stay authentic and truthful.</p>\n  <p>You are not to simplify other people's lives,<br>you are to fight for your wisdom until it arrives.</p>\n  <p>Book after book, quest after quest,<br>do not allow your wisdom to be suppressed.</p>\n  <p>Your wisdom stands behind every great decision you make,<br>and it helps you see all the things that are fake.</p>\n</div>\n<div class=\"section\">\n  <hr>\n</div>\n<div class=\"section\">\n  <p>Don't let anybody crush you into being sad,<br>or control you into becoming mad.</p>\n  <p>Don't let them trick you with grades or promotions,<br>they can't see you and they may even have no emotions.</p>\n  <p>If something is attacking you fill countless journals,<br>so that you never forget the alignment of your internals.</p>\n  <p>Don't worry, when people push you into an empty void,<br>that is just life showing you who to avoid.</p>\n</div>\n<div class=\"section\">\n  <hr>\n</div>\n<div class=\"section\">\n  <p>Your life matters so much because it is similar to a chain link,<br>when you share wisdom it helps others think.</p>\n  <p>Humanity is all connected as one family, we are one,<br>one people under the sun.</p>\n  <p>Your hard earned lesson help those who face similar sadness,<br>people will accept your advice with gladness.</p>\n  <p>All you need to do is enter the culture of rising,<br>rise, and rise, and rise again, without apologizing.</p>\n</div>\n<div class=\"section\">\n  <hr>\n</div>\n<div class=\"section\">\n  <p>The world is a little bit broken,<br>as too much of wisdom remains unspoken.</p>\n  <p>People without wisdom do not build,<br>they short-circuit leaving promises unfulfilled.</p>\n  <p>Lacking wisdom disables lawmen and politicians,<br>in their blindness they can only tarnish their positions.</p>\n  <p>This is the world we are all born into,<br>it is why we need you to pursue wisdom and stay true.</p>\n</div>\n<div class=\"section\">\n  <hr>\n</div>\n<div class=\"section\">\n  <p>The full reason why grades, careers, and promotions are broken,<br>is rarely spoken:</p>\n  <p>To make correct decisions we need a flourishing operating system,<br>and that is our wisdom.</p>\n  <p>Without all human beings aiming to become wise,<br>humanity will always short-circuit an never rise.</p>\n  <p>Therefore, the world asks that you use wisdom, that ancient art of seeing,<br>to rise and rise, and become a great being.</p>\n</div>",
  "bootstrap": "<div class=\"card card-section bg-dark text-warning shadow\">\n  <div class=\"section card-body mb-0 my-2\">\n    <div class=\"paragraph card-text card-stanza my-5 text-center\"><a href=\"https://www.youtube.com/watch?v=9M4tdMsg3ts\">Erica was right</a>,<br>grades and graduations, bite.</div>\n    <div class=\"paragraph card-text card-stanza my-5 text-center\">The integrity of your mind must come first,<br>and you must rise and rise, or you'll end up cursed.</div>\n    <div class=\"paragraph card-text card-stanza my-5 text-center\">What teachers didn't know to tell you,<br>is it is not just knowledge, but wisdom, and your greatness too.</div>\n    <div class=\"paragraph card-text card-stanza my-5 text-center\">Thus, live your live cautiously, authentically and true,<br>and rise, breakthrough after breakthrough.</div>\n  </div>\n</div>\n<div class=\"mb-5 section-spacer\">&nbsp;</div>\n<div class=\"card card-section bg-dark text-warning shadow\">\n  <div class=\"section card-body mb-0 my-2\">\n    <div class=\"paragraph card-text card-stanza my-5 text-center\">Oh, people will come and try to make you more useful,<br>but you have to rage and stay authentic and truthful.</div>\n    <div class=\"paragraph card-text card-stanza my-5 text-center\">You are not to simplify other people's lives,<br>you are to fight for your wisdom until it arrives.</div>\n    <div class=\"paragraph card-text card-stanza my-5 text-center\">Book after book, quest after quest,<br>do not allow your wisdom to be suppressed.</div>\n    <div class=\"paragraph card-text card-stanza my-5 text-center\">Your wisdom stands behind every great decision you make,<br>and it helps you see all the things that are fake.</div>\n  </div>\n</div>\n<div class=\"mb-5 section-spacer\">&nbsp;</div>\n<div class=\"card card-section bg-dark text-warning shadow\">\n  <div class=\"section card-body mb-0 my-2\">\n    <div class=\"paragraph card-text card-stanza my-5 text-center\">Don't let anybody crush you into being sad,<br>or control you into becoming mad.</div>\n    <div class=\"paragraph card-text card-stanza my-5 text-center\">Don't let them trick you with grades or promotions,<br>they can't see you and they may even have no emotions.</div>\n    <div class=\"paragraph card-text card-stanza my-5 text-center\">If something is attacking you fill countless journals,<br>so that you never forget the alignment of your internals.</div>\n    <div class=\"paragraph card-text card-stanza my-5 text-center\">Don't worry, when people push you into an empty void,<br>that is just life showing you who to avoid.</div>\n  </div>\n</div>\n<div class=\"mb-5 section-spacer\">&nbsp;</div>\n<div class=\"card card-section bg-dark text-warning shadow\">\n  <div class=\"section card-body mb-0 my-2\">\n    <div class=\"paragraph card-text card-stanza my-5 text-center\">Your life matters so much because it is similar to a chain link,<br>when you share wisdom it helps others think.</div>\n    <div class=\"paragraph card-text card-stanza my-5 text-center\">Humanity is all connected as one family, we are one,<br>one people under the sun.</div>\n    <div class=\"paragraph card-text card-stanza my-5 text-center\">Your hard earned lesson help those who face similar sadness,<br>people will accept your advice with gladness.</div>\n    <div class=\"paragraph card-text card-stanza my-5 text-center\">All you need to do is enter the culture of rising,<br>rise, and rise, and rise again, without apologizing.</div>\n  </div>\n</div>\n<div class=\"mb-5 section-spacer\">&nbsp;</div>\n<div class=\"card card-section bg-dark text-warning shadow\">\n  <div class=\"section card-body mb-0 my-2\">\n    <div class=\"paragraph card-text card-stanza my-5 text-center\">The world is a little bit broken,<br>as too much of wisdom remains unspoken.</div>\n    <div class=\"paragraph card-text card-stanza my-5 text-center\">People without wisdom do not build,<br>they short-circuit leaving promises unfulfilled.</div>\n    <div class=\"paragraph card-text card-stanza my-5 text-center\">Lacking wisdom disables lawmen and politicians,<br>in their blindness they can only tarnish their positions.</div>\n    <div class=\"paragraph card-text card-stanza my-5 text-center\">This is the world we are all born into,<br>it is why we need you to pursue wisdom and stay true.</div>\n  </div>\n</div>\n<div class=\"mb-5 section-spacer\">&nbsp;</div>\n<div class=\"card card-section bg-dark text-warning shadow\">\n  <div class=\"section card-body mb-0 my-2\">\n    <div class=\"paragraph card-text card-stanza my-5 text-center\">The full reason why grades, careers, and promotions are broken,<br>is rarely spoken:</div>\n    <div class=\"paragraph card-text card-stanza my-5 text-center\">To make correct decisions we need a flourishing operating system,<br>and that is our wisdom.</div>\n    <div class=\"paragraph card-text card-stanza my-5 text-center\">Without all human beings aiming to become wise,<br>humanity will always short-circuit an never rise.</div>\n    <div class=\"paragraph card-text card-stanza my-5 text-center\">Therefore, the world asks that you use wisdom, that ancient art of seeing,<br>to rise and rise, and become a great being.</div>\n  </div>\n</div>",
  "print": "<div class=\"section avoid-break-inside\" style=\"padding-bottom: 2rem;\">\n  <div class=\"paragraph\"><span>Erica was right<sup>[1]</sup></span>,<br>grades and graduations, bite.</div>\n  <div class=\"paragraph\">The integrity of your mind must come first,<br>and you must rise and rise, or you'll end up cursed.</div>\n  <div class=\"paragraph\">What teachers didn't know to tell you,<br>is it is not just knowledge, but wisdom, and your greatness too.</div>\n  <div class=\"paragraph\">Thus, live your live cautiously, authentically and true,<br>and rise, breakthrough after breakthrough.</div>\n</div>\n<div class=\"section avoid-break-inside\" style=\"padding-bottom: 2rem;\">\n  <br>\n</div>\n<div class=\"section avoid-break-inside\" style=\"padding-bottom: 2rem;\">\n  <div class=\"paragraph\">Oh, people will come and try to make you more useful,<br>but you have to rage and stay authentic and truthful.</div>\n  <div class=\"paragraph\">You are not to simplify other people's lives,<br>you are to fight for your wisdom until it arrives.</div>\n  <div class=\"paragraph\">Book after book, quest after quest,<br>do not allow your wisdom to be suppressed.</div>\n  <div class=\"paragraph\">Your wisdom stands behind every great decision you make,<br>and it helps you see all the things that are fake.</div>\n</div>\n<div class=\"section avoid-break-inside\" style=\"padding-bottom: 2rem;\">\n  <br>\n</div>\n<div class=\"section avoid-break-inside\" style=\"padding-bottom: 2rem;\">\n  <div class=\"paragraph\">Don't let anybody crush you into being sad,<br>or control you into becoming mad.</div>\n  <div class=\"paragraph\">Don't let them trick you with grades or promotions,<br>they can't see you and they may even have no emotions.</div>\n  <div class=\"paragraph\">If something is attacking you fill countless journals,<br>so that you never forget the alignment of your internals.</div>\n  <div class=\"paragraph\">Don't worry, when people push you into an empty void,<br>that is just life showing you who to avoid.</div>\n</div>\n<div class=\"section avoid-break-inside\" style=\"padding-bottom: 2rem;\">\n  <br>\n</div>\n<div class=\"section avoid-break-inside\" style=\"padding-bottom: 2rem;\">\n  <div class=\"paragraph\">Your life matters so much because it is similar to a chain link,<br>when you share wisdom it helps others think.</div>\n  <div class=\"paragraph\">Humanity is all connected as one family, we are one,<br>one people under the sun.</div>\n  <div class=\"paragraph\">Your hard earned lesson help those who face similar sadness,<br>people will accept your advice with gladness.</div>\n  <div class=\"paragraph\">All you need to do is enter the culture of rising,<br>rise, and rise, and rise again, without apologizing.</div>\n</div>\n<div class=\"section avoid-break-inside\" style=\"padding-bottom: 2rem;\">\n  <br>\n</div>\n<div class=\"section avoid-break-inside\" style=\"padding-bottom: 2rem;\">\n  <div class=\"paragraph\">The world is a little bit broken,<br>as too much of wisdom remains unspoken.</div>\n  <div class=\"paragraph\">People without wisdom do not build,<br>they short-circuit leaving promises unfulfilled.</div>\n  <div class=\"paragraph\">Lacking wisdom disables lawmen and politicians,<br>in their blindness they can only tarnish their positions.</div>\n  <div class=\"paragraph\">This is the world we are all born into,<br>it is why we need you to pursue wisdom and stay true.</div>\n</div>\n<div class=\"section avoid-break-inside\" style=\"padding-bottom: 2rem;\">\n  <br>\n</div>\n<div class=\"section avoid-break-inside\" style=\"padding-bottom: 2rem;\">\n  <div class=\"paragraph\">The full reason why grades, careers, and promotions are broken,<br>is rarely spoken:</div>\n  <div class=\"paragraph\">To make correct decisions we need a flourishing operating system,<br>and that is our wisdom.</div>\n  <div class=\"paragraph\">Without all human beings aiming to become wise,<br>humanity will always short-circuit an never rise.</div>\n  <div class=\"paragraph\">Therefore, the world asks that you use wisdom, that ancient art of seeing,<br>to rise and rise, and become a great being.</div>\n</div>\n<div class=\"break-after\">&nbsp;</div>\n<div>\n  <div class=\"section\" style=\"padding-bottom: 1rem;\">References</div>\n  <div>[1]: https://www.youtube.com/watch?v=9M4tdMsg3ts</div>\n</div>",
  "text": "Erica was right[1],\ngrades and graduations, bite.\nThe integrity of your mind must come first,\nand you must rise and rise, or you'll end up cursed.\nWhat teachers didn't know to tell you,\nis it is not just knowledge, but wisdom, and your greatness too.\nThus, live your live cautiously, authentically and true,\nand rise, breakthrough after breakthrough.\n\nOh, people will come and try to make you more useful,\nbut you have to rage and stay authentic and truthful.\nYou are not to simplify other people's lives,\nyou are to fight for your wisdom until it arrives.\nBook after book, quest after quest,\ndo not allow your wisdom to be suppressed.\nYour wisdom stands behind every great decision you make,\nand it helps you see all the things that are fake.\n\nDon't let anybody crush you into being sad,\nor control you into becoming mad.\nDon't let them trick you with grades or promotions,\nthey can't see you and they may even have no emotions.\nIf something is attacking you fill countless journals,\nso that you never forget the alignment of your internals.\nDon't worry, when people push you into an empty void,\nthat is just life showing you who to avoid.\n\nYour life matters so much because it is similar to a chain link,\nwhen you share wisdom it helps others think.\nHumanity is all connected as one family, we are one,\none people under the sun.\nYour hard earned lesson help those who face similar sadness,\npeople will accept your advice with gladness.\nAll you need to do is enter the culture of rising,\nrise, and rise, and rise again, without apologizing.\n\nThe world is a little bit broken,\nas too much of wisdom remains unspoken.\nPeople without wisdom do not build,\nthey short-circuit leaving promises unfulfilled.\nLacking wisdom disables lawmen and politicians,\nin their blindness they can only tarnish their positions.\nThis is the world we are all born into,\nit is why we need you to pursue wisdom and stay true.\n\nThe full reason why grades, careers, and promotions are broken,\nis rarely spoken:\nTo make correct decisions we need a flourishing operating system,\nand that is our wisdom.\nWithout all human beings aiming to become wise,\nhumanity will always short-circuit an never rise.\nTherefore, the world asks that you use wisdom, that ancient art of seeing,\nto rise and rise, and become a great being.\n \nReferences\n[1]: https://www.youtube.com/watch?v=9M4tdMsg3ts",
  "images": [],
  "links": [
    {
      "title": "Erica was right",
      "url": "https://www.youtube.com/watch?v=9M4tdMsg3ts",
      "hostname": "www.youtube.com"
    }
  ]
}