{
  "name": "furkies-purrkies-poetry-0398",
  "title": "New Music Revolution",
  "date": "2021-04-03T01:33:20.721Z",
  "image": "poetry-0398-illustration.jpg",
  "audio": "poetry-0398.mp3",
  "artwork": "https://unsplash.com/photos/D_LYjtHnDXE",
  "id": "furkies-purrkies-poetry-0398",
  "attachments": {},
  "guid": "af3ebeb4-a290-48a2-bcb9-04827794a4f7",
  "html": "<div class=\"section\">\n  <p>Pretty frequently there comes a moment,</p>\n  <p>that can define future&apos;s past.</p>\n</div>\n\n<div class=\"section\">\n  <p>They are always simple moments,</p>\n  <p>and always revolve around simple things.</p>\n</div>\n\n<div class=\"section\">\n  <p>Mr. Jobs liked to keep his house empty of useless things,</p>\n  <p>this helped him think about what items exist in every home.</p>\n</div>\n\n<div class=\"section\">\n  <p>Not emerging trends like the computer or mp3 player,</p>\n  <p>but the well established ones that haven&apos;t changed in a long time.</p>\n</div>\n\n<div class=\"section\">\n  <hr>\n</div>\n\n<div class=\"section\">\n  <p>Some trends fade away, the mp3 player is a niche item now,</p>\n  <p>some self destruct, the Mac is moving away from the x86 processors now.</p>\n</div>\n\n<div class=\"section\">\n  <p>Some linger, unbreakably, unmovingly,</p>\n  <p>like the Linux Phone.</p>\n</div>\n\n<div class=\"section\">\n  <p>Many like the Linux phone, are misunderstood, Linux phones should not be about apps,</p>\n  <p>they need a conversational interface to the Linux System, the phone needs to replace apps with Automation and Programming.</p>\n</div>\n\n<div class=\"section\">\n  <p>Programming is the future,</p>\n  <p>and it is not as hard as people make it out to be.</p>\n</div>\n\n<div class=\"section\">\n  <hr>\n</div>\n\n<div class=\"section\">\n  <p>And it is just as worth the while to try to bring something back, or do it right,</p>\n  <p>as it is to begin a new revolution.</p>\n</div>\n\n<div class=\"section\">\n  <p>But there is something nice about being the first to start something,</p>\n  <p>for one you get to watch it grow.</p>\n</div>\n\n<div class=\"section\">\n  <hr>\n</div>\n\n<div class=\"section\">\n  <p>The Music Revolution has already somewhat begun,</p>\n  <p>but it does not quite yet, get it self.</p>\n</div>\n\n<div class=\"section\">\n  <p>There is but a single reasonable program <a href=\"https://www.youtube.com/watch?v=8u1aQdG5Nrk\">Tone.js</a>,</p>\n  <p>where there should be hundreds.</p>\n</div>\n\n<div class=\"section\">\n  <p>The firs person to program Tone.js right,</p>\n  <p>will become known as the Mother or Father of what will then become modern music.</p>\n</div>\n\n<div class=\"section\">\n  <p>This is big,</p>\n  <p>it will make the music that we know today sound like soulless banging.</p>\n</div>\n\n<div class=\"section\">\n  <hr>\n</div>\n\n<div class=\"section\">\n  <p>Right now, <a href=\"https://www.youtube.com/watch?v=G1m0aX9Lpts\">Sam Aaron</a>,</p>\n  <p>is blazing the trail, and the sound of his music is in deed made unique by his <a href=\"https://www.youtube.com/watch?v=TK1mBqKvIyU\">SonicPI</a> instrument.</p>\n</div>\n\n<div class=\"section\">\n  <p>What I am talking about is greater than Live Music,</p>\n  <p>I am talking about using programming languages to code entire Albums of Songs.</p>\n</div>\n\n<div class=\"section\">\n  <p>I am talking about abandoning Digital Audio Workstations and Graphic User Interfaces,</p>\n  <p>and bravely venturing into the world of programming-language-driven Music Composition.</p>\n</div>\n\n<div class=\"section\">\n  <p>It is a good idea to use the language of the web for this,</p>\n  <p>if you are going to learn a programming language <a href=\"https://www.youtube.com/results?search_query=Learn+JavaScript\">learn JavaScript</a></p>\n</div>\n\n<div class=\"section\">\n  <hr>\n</div>\n\n<div class=\"section\">\n  <p>Before we go on, I want you to hear the sound of the previous generation of music,</p>\n  <p>search the web for <a href=\"https://www.youtube.com/watch?v=2Js-dxl1BKc\">Kraftwerk Interview Ralf H&#xFC;tter BBC2 England</a>,</p>\n  <p>and <a href=\"https://www.youtube.com/watch?v=BDgelEJwZoo\">Giorgio Moroder - live at Lowlands 2019</a>.</p>\n</div>\n\n<div class=\"section\">\n  <hr>\n</div>\n\n<div class=\"section\">\n  <p>Begin learning how to use Tone.js perhaps with a focus on using pre-recorded samples at first,</p>\n  <p><a href=\"https://www.youtube.com/watch?v=xBQef0fs-_Q\">you can build your own Live Performance Environment like Mr. Aaron did</a>, but think of songs as stand alone programs.</p>\n</div>\n\n<div class=\"section\">\n  <p>Instead of trying to bend languages to your will or desire,</p>\n  <p>learn to bend yourself, and use the bare bones and existing API at your disposal.</p>\n</div>\n\n<div class=\"section\">\n  <p>Learn to merge Music with what is already at your disposal,</p>\n  <p>do not try to bend the spoon.</p>\n</div>\n\n<div class=\"section\">\n  <hr>\n</div>\n\n<div class=\"section\">\n  <p>Invent your style,</p>\n  <p>begin publishing your music as computer programs, perhaps on <a href=\"https://www.npmjs.com/\">npm</a>, or <a href=\"https://github.com/\">github</a>, or similar.</p>\n</div>\n\n<div class=\"section\">\n  <p>And understand that this is your time,</p>\n  <p>that you are the new generation of Kraftwerk and Giorgio Moroder, that you are the future.</p>\n</div>\n\n<div class=\"section\">\n  <p>You are exactly where Techno begun,</p>\n  <p>at the cusp of a new genre.</p>\n</div>\n\n<div class=\"section\">\n  <p>If you can do it, with purest of JavaScript and API so that others don&apos;t have to learn new things,</p>\n  <p>and keep your music free and open under an <a href=\"https://choosealicense.com/\">Open Source License</a> so that your music can spread.</p>\n</div>\n\n<div class=\"section\">\n  <p>Yours is the future,</p>\n  <p>and you will become an inspiration for countless many, for eons to come.</p>\n</div>\n\n<div class=\"section\">\n  <p>May your works become a treasure of equal proportions to Kraftwerk and Giorgio Moroder...</p>\n  <p>&quot;Begin at the beginning, and go on till you come to the end: then stop.&quot;</p>\n</div>",
  "bootstrap": "<div class=\"card card-section bg-dark text-warning shadow\">\n  <div class=\"section card-body mb-0 my-2\">\n    <div class=\"paragraph card-text card-stanza my-5 text-center\">Pretty frequently there comes a moment,</div>\n    <div class=\"paragraph card-text card-stanza my-5 text-center\">that can define future's past.</div>\n  </div>\n</div>\n<div class=\"card card-section bg-dark text-warning shadow\">\n  <div class=\"section card-body mb-0 my-2\">\n    <div class=\"paragraph card-text card-stanza my-5 text-center\">They are always simple moments,</div>\n    <div class=\"paragraph card-text card-stanza my-5 text-center\">and always revolve around simple things.</div>\n  </div>\n</div>\n<div class=\"card card-section bg-dark text-warning shadow\">\n  <div class=\"section card-body mb-0 my-2\">\n    <div class=\"paragraph card-text card-stanza my-5 text-center\">Mr. Jobs liked to keep his house empty of useless things,</div>\n    <div class=\"paragraph card-text card-stanza my-5 text-center\">this helped him think about what items exist in every home.</div>\n  </div>\n</div>\n<div class=\"card card-section bg-dark text-warning shadow\">\n  <div class=\"section card-body mb-0 my-2\">\n    <div class=\"paragraph card-text card-stanza my-5 text-center\">Not emerging trends like the computer or mp3 player,</div>\n    <div class=\"paragraph card-text card-stanza my-5 text-center\">but the well established ones that haven't changed in a long time.</div>\n  </div>\n</div>\n<div class=\"mb-5 section-spacer\">&nbsp;</div>\n<div class=\"card card-section bg-dark text-warning shadow\">\n  <div class=\"section card-body mb-0 my-2\">\n    <div class=\"paragraph card-text card-stanza my-5 text-center\">Some trends fade away, the mp3 player is a niche item now,</div>\n    <div class=\"paragraph card-text card-stanza my-5 text-center\">some self destruct, the Mac is moving away from the x86 processors now.</div>\n  </div>\n</div>\n<div class=\"card card-section bg-dark text-warning shadow\">\n  <div class=\"section card-body mb-0 my-2\">\n    <div class=\"paragraph card-text card-stanza my-5 text-center\">Some linger, unbreakably, unmovingly,</div>\n    <div class=\"paragraph card-text card-stanza my-5 text-center\">like the Linux Phone.</div>\n  </div>\n</div>\n<div class=\"card card-section bg-dark text-warning shadow\">\n  <div class=\"section card-body mb-0 my-2\">\n    <div class=\"paragraph card-text card-stanza my-5 text-center\">Many like the Linux phone, are misunderstood, Linux phones should not be about apps,</div>\n    <div class=\"paragraph card-text card-stanza my-5 text-center\">they need a conversational interface to the Linux System, the phone needs to replace apps with Automation and Programming.</div>\n  </div>\n</div>\n<div class=\"card card-section bg-dark text-warning shadow\">\n  <div class=\"section card-body mb-0 my-2\">\n    <div class=\"paragraph card-text card-stanza my-5 text-center\">Programming is the future,</div>\n    <div class=\"paragraph card-text card-stanza my-5 text-center\">and it is not as hard as people make it out to be.</div>\n  </div>\n</div>\n<div class=\"mb-5 section-spacer\">&nbsp;</div>\n<div class=\"card card-section bg-dark text-warning shadow\">\n  <div class=\"section card-body mb-0 my-2\">\n    <div class=\"paragraph card-text card-stanza my-5 text-center\">And it is just as worth the while to try to bring something back, or do it right,</div>\n    <div class=\"paragraph card-text card-stanza my-5 text-center\">as it is to begin a new revolution.</div>\n  </div>\n</div>\n<div class=\"card card-section bg-dark text-warning shadow\">\n  <div class=\"section card-body mb-0 my-2\">\n    <div class=\"paragraph card-text card-stanza my-5 text-center\">But there is something nice about being the first to start something,</div>\n    <div class=\"paragraph card-text card-stanza my-5 text-center\">for one you get to watch it grow.</div>\n  </div>\n</div>\n<div class=\"mb-5 section-spacer\">&nbsp;</div>\n<div class=\"card card-section bg-dark text-warning shadow\">\n  <div class=\"section card-body mb-0 my-2\">\n    <div class=\"paragraph card-text card-stanza my-5 text-center\">The Music Revolution has already somewhat begun,</div>\n    <div class=\"paragraph card-text card-stanza my-5 text-center\">but it does not quite yet, get it self.</div>\n  </div>\n</div>\n<div class=\"card card-section bg-dark text-warning shadow\">\n  <div class=\"section card-body mb-0 my-2\">\n    <div class=\"paragraph card-text card-stanza my-5 text-center\">There is but a single reasonable program <a href=\"https://www.youtube.com/watch?v=8u1aQdG5Nrk\">Tone.js</a>,</div>\n    <div class=\"paragraph card-text card-stanza my-5 text-center\">where there should be hundreds.</div>\n  </div>\n</div>\n<div class=\"card card-section bg-dark text-warning shadow\">\n  <div class=\"section card-body mb-0 my-2\">\n    <div class=\"paragraph card-text card-stanza my-5 text-center\">The firs person to program Tone.js right,</div>\n    <div class=\"paragraph card-text card-stanza my-5 text-center\">will become known as the Mother or Father of what will then become modern music.</div>\n  </div>\n</div>\n<div class=\"card card-section bg-dark text-warning shadow\">\n  <div class=\"section card-body mb-0 my-2\">\n    <div class=\"paragraph card-text card-stanza my-5 text-center\">This is big,</div>\n    <div class=\"paragraph card-text card-stanza my-5 text-center\">it will make the music that we know today sound like soulless banging.</div>\n  </div>\n</div>\n<div class=\"mb-5 section-spacer\">&nbsp;</div>\n<div class=\"card card-section bg-dark text-warning shadow\">\n  <div class=\"section card-body mb-0 my-2\">\n    <div class=\"paragraph card-text card-stanza my-5 text-center\">Right now, <a href=\"https://www.youtube.com/watch?v=G1m0aX9Lpts\">Sam Aaron</a>,</div>\n    <div class=\"paragraph card-text card-stanza my-5 text-center\">is blazing the trail, and the sound of his music is in deed made unique by his <a href=\"https://www.youtube.com/watch?v=TK1mBqKvIyU\">SonicPI</a> instrument.</div>\n  </div>\n</div>\n<div class=\"card card-section bg-dark text-warning shadow\">\n  <div class=\"section card-body mb-0 my-2\">\n    <div class=\"paragraph card-text card-stanza my-5 text-center\">What I am talking about is greater than Live Music,</div>\n    <div class=\"paragraph card-text card-stanza my-5 text-center\">I am talking about using programming languages to code entire Albums of Songs.</div>\n  </div>\n</div>\n<div class=\"card card-section bg-dark text-warning shadow\">\n  <div class=\"section card-body mb-0 my-2\">\n    <div class=\"paragraph card-text card-stanza my-5 text-center\">I am talking about abandoning Digital Audio Workstations and Graphic User Interfaces,</div>\n    <div class=\"paragraph card-text card-stanza my-5 text-center\">and bravely venturing into the world of programming-language-driven Music Composition.</div>\n  </div>\n</div>\n<div class=\"card card-section bg-dark text-warning shadow\">\n  <div class=\"section card-body mb-0 my-2\">\n    <div class=\"paragraph card-text card-stanza my-5 text-center\">It is a good idea to use the language of the web for this,</div>\n    <div class=\"paragraph card-text card-stanza my-5 text-center\">if you are going to learn a programming language <a href=\"https://www.youtube.com/results?search_query=Learn+JavaScript\">learn JavaScript</a></div>\n  </div>\n</div>\n<div class=\"mb-5 section-spacer\">&nbsp;</div>\n<div class=\"card card-section bg-dark text-warning shadow\">\n  <div class=\"section card-body mb-0 my-2\">\n    <div class=\"paragraph card-text card-stanza my-5 text-center\">Before we go on, I want you to hear the sound of the previous generation of music,</div>\n    <div class=\"paragraph card-text card-stanza my-5 text-center\">search the web for <a href=\"https://www.youtube.com/watch?v=2Js-dxl1BKc\">Kraftwerk Interview Ralf Hütter BBC2 England</a>,</div>\n    <div class=\"paragraph card-text card-stanza my-5 text-center\">and <a href=\"https://www.youtube.com/watch?v=BDgelEJwZoo\">Giorgio Moroder - live at Lowlands 2019</a>.</div>\n  </div>\n</div>\n<div class=\"mb-5 section-spacer\">&nbsp;</div>\n<div class=\"card card-section bg-dark text-warning shadow\">\n  <div class=\"section card-body mb-0 my-2\">\n    <div class=\"paragraph card-text card-stanza my-5 text-center\">Begin learning how to use Tone.js perhaps with a focus on using pre-recorded samples at first,</div>\n    <div class=\"paragraph card-text card-stanza my-5 text-center\"><a href=\"https://www.youtube.com/watch?v=xBQef0fs-_Q\">you can build your own Live Performance Environment like Mr. Aaron did</a>, but think of songs as stand alone programs.</div>\n  </div>\n</div>\n<div class=\"card card-section bg-dark text-warning shadow\">\n  <div class=\"section card-body mb-0 my-2\">\n    <div class=\"paragraph card-text card-stanza my-5 text-center\">Instead of trying to bend languages to your will or desire,</div>\n    <div class=\"paragraph card-text card-stanza my-5 text-center\">learn to bend yourself, and use the bare bones and existing API at your disposal.</div>\n  </div>\n</div>\n<div class=\"card card-section bg-dark text-warning shadow\">\n  <div class=\"section card-body mb-0 my-2\">\n    <div class=\"paragraph card-text card-stanza my-5 text-center\">Learn to merge Music with what is already at your disposal,</div>\n    <div class=\"paragraph card-text card-stanza my-5 text-center\">do not try to bend the spoon.</div>\n  </div>\n</div>\n<div class=\"mb-5 section-spacer\">&nbsp;</div>\n<div class=\"card card-section bg-dark text-warning shadow\">\n  <div class=\"section card-body mb-0 my-2\">\n    <div class=\"paragraph card-text card-stanza my-5 text-center\">Invent your style,</div>\n    <div class=\"paragraph card-text card-stanza my-5 text-center\">begin publishing your music as computer programs, perhaps on <a href=\"https://www.npmjs.com/\">npm</a>, or <a href=\"https://github.com/\">github</a>, or similar.</div>\n  </div>\n</div>\n<div class=\"card card-section bg-dark text-warning shadow\">\n  <div class=\"section card-body mb-0 my-2\">\n    <div class=\"paragraph card-text card-stanza my-5 text-center\">And understand that this is your time,</div>\n    <div class=\"paragraph card-text card-stanza my-5 text-center\">that you are the new generation of Kraftwerk and Giorgio Moroder, that you are the future.</div>\n  </div>\n</div>\n<div class=\"card card-section bg-dark text-warning shadow\">\n  <div class=\"section card-body mb-0 my-2\">\n    <div class=\"paragraph card-text card-stanza my-5 text-center\">You are exactly where Techno begun,</div>\n    <div class=\"paragraph card-text card-stanza my-5 text-center\">at the cusp of a new genre.</div>\n  </div>\n</div>\n<div class=\"card card-section bg-dark text-warning shadow\">\n  <div class=\"section card-body mb-0 my-2\">\n    <div class=\"paragraph card-text card-stanza my-5 text-center\">If you can do it, with purest of JavaScript and API so that others don't have to learn new things,</div>\n    <div class=\"paragraph card-text card-stanza my-5 text-center\">and keep your music free and open under an <a href=\"https://choosealicense.com/\">Open Source License</a> so that your music can spread.</div>\n  </div>\n</div>\n<div class=\"card card-section bg-dark text-warning shadow\">\n  <div class=\"section card-body mb-0 my-2\">\n    <div class=\"paragraph card-text card-stanza my-5 text-center\">Yours is the future,</div>\n    <div class=\"paragraph card-text card-stanza my-5 text-center\">and you will become an inspiration for countless many, for eons to come.</div>\n  </div>\n</div>\n<div class=\"card card-section bg-dark text-warning shadow\">\n  <div class=\"section card-body mb-0 my-2\">\n    <div class=\"paragraph card-text card-stanza my-5 text-center\">May your works become a treasure of equal proportions to Kraftwerk and Giorgio Moroder...</div>\n    <div class=\"paragraph card-text card-stanza my-5 text-center\">\"Begin at the beginning, and go on till you come to the end: then stop.\"</div>\n  </div>\n</div>",
  "print": "<div class=\"section avoid-break-inside\" style=\"padding-bottom: 2rem;\">\n  <div class=\"paragraph\">Pretty frequently there comes a moment,</div>\n  <div class=\"paragraph\">that can define future's past.</div>\n</div>\n<div class=\"section avoid-break-inside\" style=\"padding-bottom: 2rem;\">\n  <div class=\"paragraph\">They are always simple moments,</div>\n  <div class=\"paragraph\">and always revolve around simple things.</div>\n</div>\n<div class=\"section avoid-break-inside\" style=\"padding-bottom: 2rem;\">\n  <div class=\"paragraph\">Mr. Jobs liked to keep his house empty of useless things,</div>\n  <div class=\"paragraph\">this helped him think about what items exist in every home.</div>\n</div>\n<div class=\"section avoid-break-inside\" style=\"padding-bottom: 2rem;\">\n  <div class=\"paragraph\">Not emerging trends like the computer or mp3 player,</div>\n  <div class=\"paragraph\">but the well established ones that haven't changed in a long time.</div>\n</div>\n<div class=\"section avoid-break-inside\" style=\"padding-bottom: 2rem;\">\n  <br>\n</div>\n<div class=\"section avoid-break-inside\" style=\"padding-bottom: 2rem;\">\n  <div class=\"paragraph\">Some trends fade away, the mp3 player is a niche item now,</div>\n  <div class=\"paragraph\">some self destruct, the Mac is moving away from the x86 processors now.</div>\n</div>\n<div class=\"section avoid-break-inside\" style=\"padding-bottom: 2rem;\">\n  <div class=\"paragraph\">Some linger, unbreakably, unmovingly,</div>\n  <div class=\"paragraph\">like the Linux Phone.</div>\n</div>\n<div class=\"section avoid-break-inside\" style=\"padding-bottom: 2rem;\">\n  <div class=\"paragraph\">Many like the Linux phone, are misunderstood, Linux phones should not be about apps,</div>\n  <div class=\"paragraph\">they need a conversational interface to the Linux System, the phone needs to replace apps with Automation and Programming.</div>\n</div>\n<div class=\"section avoid-break-inside\" style=\"padding-bottom: 2rem;\">\n  <div class=\"paragraph\">Programming is the future,</div>\n  <div class=\"paragraph\">and it is not as hard as people make it out to be.</div>\n</div>\n<div class=\"section avoid-break-inside\" style=\"padding-bottom: 2rem;\">\n  <br>\n</div>\n<div class=\"section avoid-break-inside\" style=\"padding-bottom: 2rem;\">\n  <div class=\"paragraph\">And it is just as worth the while to try to bring something back, or do it right,</div>\n  <div class=\"paragraph\">as it is to begin a new revolution.</div>\n</div>\n<div class=\"section avoid-break-inside\" style=\"padding-bottom: 2rem;\">\n  <div class=\"paragraph\">But there is something nice about being the first to start something,</div>\n  <div class=\"paragraph\">for one you get to watch it grow.</div>\n</div>\n<div class=\"section avoid-break-inside\" style=\"padding-bottom: 2rem;\">\n  <br>\n</div>\n<div class=\"section avoid-break-inside\" style=\"padding-bottom: 2rem;\">\n  <div class=\"paragraph\">The Music Revolution has already somewhat begun,</div>\n  <div class=\"paragraph\">but it does not quite yet, get it self.</div>\n</div>\n<div class=\"section avoid-break-inside\" style=\"padding-bottom: 2rem;\">\n  <div class=\"paragraph\">There is but a single reasonable program <span>Tone.js<sup>[1]</sup></span>,</div>\n  <div class=\"paragraph\">where there should be hundreds.</div>\n</div>\n<div class=\"section avoid-break-inside\" style=\"padding-bottom: 2rem;\">\n  <div class=\"paragraph\">The firs person to program Tone.js right,</div>\n  <div class=\"paragraph\">will become known as the Mother or Father of what will then become modern music.</div>\n</div>\n<div class=\"section avoid-break-inside\" style=\"padding-bottom: 2rem;\">\n  <div class=\"paragraph\">This is big,</div>\n  <div class=\"paragraph\">it will make the music that we know today sound like soulless banging.</div>\n</div>\n<div class=\"section avoid-break-inside\" style=\"padding-bottom: 2rem;\">\n  <br>\n</div>\n<div class=\"section avoid-break-inside\" style=\"padding-bottom: 2rem;\">\n  <div class=\"paragraph\">Right now, <span>Sam Aaron<sup>[2]</sup></span>,</div>\n  <div class=\"paragraph\">is blazing the trail, and the sound of his music is in deed made unique by his <span>SonicPI<sup>[3]</sup></span> instrument.</div>\n</div>\n<div class=\"section avoid-break-inside\" style=\"padding-bottom: 2rem;\">\n  <div class=\"paragraph\">What I am talking about is greater than Live Music,</div>\n  <div class=\"paragraph\">I am talking about using programming languages to code entire Albums of Songs.</div>\n</div>\n<div class=\"section avoid-break-inside\" style=\"padding-bottom: 2rem;\">\n  <div class=\"paragraph\">I am talking about abandoning Digital Audio Workstations and Graphic User Interfaces,</div>\n  <div class=\"paragraph\">and bravely venturing into the world of programming-language-driven Music Composition.</div>\n</div>\n<div class=\"section avoid-break-inside\" style=\"padding-bottom: 2rem;\">\n  <div class=\"paragraph\">It is a good idea to use the language of the web for this,</div>\n  <div class=\"paragraph\">if you are going to learn a programming language <span>learn JavaScript<sup>[4]</sup></span></div>\n</div>\n<div class=\"section avoid-break-inside\" style=\"padding-bottom: 2rem;\">\n  <br>\n</div>\n<div class=\"section avoid-break-inside\" style=\"padding-bottom: 2rem;\">\n  <div class=\"paragraph\">Before we go on, I want you to hear the sound of the previous generation of music,</div>\n  <div class=\"paragraph\">search the web for <span>Kraftwerk Interview Ralf Hütter BBC2 England<sup>[5]</sup></span>,</div>\n  <div class=\"paragraph\">and <span>Giorgio Moroder - live at Lowlands 2019<sup>[6]</sup></span>.</div>\n</div>\n<div class=\"section avoid-break-inside\" style=\"padding-bottom: 2rem;\">\n  <br>\n</div>\n<div class=\"section avoid-break-inside\" style=\"padding-bottom: 2rem;\">\n  <div class=\"paragraph\">Begin learning how to use Tone.js perhaps with a focus on using pre-recorded samples at first,</div>\n  <div class=\"paragraph\"><span>you can build your own Live Performance Environment like Mr. Aaron did<sup>[7]</sup></span>, but think of songs as stand alone programs.</div>\n</div>\n<div class=\"section avoid-break-inside\" style=\"padding-bottom: 2rem;\">\n  <div class=\"paragraph\">Instead of trying to bend languages to your will or desire,</div>\n  <div class=\"paragraph\">learn to bend yourself, and use the bare bones and existing API at your disposal.</div>\n</div>\n<div class=\"section avoid-break-inside\" style=\"padding-bottom: 2rem;\">\n  <div class=\"paragraph\">Learn to merge Music with what is already at your disposal,</div>\n  <div class=\"paragraph\">do not try to bend the spoon.</div>\n</div>\n<div class=\"section avoid-break-inside\" style=\"padding-bottom: 2rem;\">\n  <br>\n</div>\n<div class=\"section avoid-break-inside\" style=\"padding-bottom: 2rem;\">\n  <div class=\"paragraph\">Invent your style,</div>\n  <div class=\"paragraph\">begin publishing your music as computer programs, perhaps on <span>npm<sup>[8]</sup></span>, or <span>github<sup>[9]</sup></span>, or similar.</div>\n</div>\n<div class=\"section avoid-break-inside\" style=\"padding-bottom: 2rem;\">\n  <div class=\"paragraph\">And understand that this is your time,</div>\n  <div class=\"paragraph\">that you are the new generation of Kraftwerk and Giorgio Moroder, that you are the future.</div>\n</div>\n<div class=\"section avoid-break-inside\" style=\"padding-bottom: 2rem;\">\n  <div class=\"paragraph\">You are exactly where Techno begun,</div>\n  <div class=\"paragraph\">at the cusp of a new genre.</div>\n</div>\n<div class=\"section avoid-break-inside\" style=\"padding-bottom: 2rem;\">\n  <div class=\"paragraph\">If you can do it, with purest of JavaScript and API so that others don't have to learn new things,</div>\n  <div class=\"paragraph\">and keep your music free and open under an <span>Open Source License<sup>[10]</sup></span> so that your music can spread.</div>\n</div>\n<div class=\"section avoid-break-inside\" style=\"padding-bottom: 2rem;\">\n  <div class=\"paragraph\">Yours is the future,</div>\n  <div class=\"paragraph\">and you will become an inspiration for countless many, for eons to come.</div>\n</div>\n<div class=\"section avoid-break-inside\" style=\"padding-bottom: 2rem;\">\n  <div class=\"paragraph\">May your works become a treasure of equal proportions to Kraftwerk and Giorgio Moroder...</div>\n  <div class=\"paragraph\">\"Begin at the beginning, and go on till you come to the end: then stop.\"</div>\n</div>\n<div class=\"break-after\">&nbsp;</div>\n<div>\n  <div class=\"section\" style=\"padding-bottom: 1rem;\">References</div>\n  <div>[1]: https://www.youtube.com/watch?v=8u1aQdG5Nrk</div>\n  <div>[2]: https://www.youtube.com/watch?v=G1m0aX9Lpts</div>\n  <div>[3]: https://www.youtube.com/watch?v=TK1mBqKvIyU</div>\n  <div>[4]: https://www.youtube.com/results?search_query=Learn+JavaScript</div>\n  <div>[5]: https://www.youtube.com/watch?v=2Js-dxl1BKc</div>\n  <div>[6]: https://www.youtube.com/watch?v=BDgelEJwZoo</div>\n  <div>[7]: https://www.youtube.com/watch?v=xBQef0fs-_Q</div>\n  <div>[8]: https://www.npmjs.com/</div>\n  <div>[9]: https://github.com/</div>\n  <div>[10]: https://choosealicense.com/</div>\n</div>",
  "text": "Pretty frequently there comes a moment,\nthat can define future's past.\nThey are always simple moments,\nand always revolve around simple things.\nMr. Jobs liked to keep his house empty of useless things,\nthis helped him think about what items exist in every home.\nNot emerging trends like the computer or mp3 player,\nbut the well established ones that haven't changed in a long time.\n\nSome trends fade away, the mp3 player is a niche item now,\nsome self destruct, the Mac is moving away from the x86 processors now.\nSome linger, unbreakably, unmovingly,\nlike the Linux Phone.\nMany like the Linux phone, are misunderstood, Linux phones should not be about apps,\nthey need a conversational interface to the Linux System, the phone needs to replace apps with Automation and Programming.\nProgramming is the future,\nand it is not as hard as people make it out to be.\n\nAnd it is just as worth the while to try to bring something back, or do it right,\nas it is to begin a new revolution.\nBut there is something nice about being the first to start something,\nfor one you get to watch it grow.\n\nThe Music Revolution has already somewhat begun,\nbut it does not quite yet, get it self.\nThere is but a single reasonable program Tone.js[1],\nwhere there should be hundreds.\nThe firs person to program Tone.js right,\nwill become known as the Mother or Father of what will then become modern music.\nThis is big,\nit will make the music that we know today sound like soulless banging.\n\nRight now, Sam Aaron[2],\nis blazing the trail, and the sound of his music is in deed made unique by his SonicPI[3] instrument.\nWhat I am talking about is greater than Live Music,\nI am talking about using programming languages to code entire Albums of Songs.\nI am talking about abandoning Digital Audio Workstations and Graphic User Interfaces,\nand bravely venturing into the world of programming-language-driven Music Composition.\nIt is a good idea to use the language of the web for this,\nif you are going to learn a programming language learn JavaScript[4]\n\nBefore we go on, I want you to hear the sound of the previous generation of music,\nsearch the web for Kraftwerk Interview Ralf Hütter BBC2 England[5],\nand Giorgio Moroder - live at Lowlands 2019[6].\n\nBegin learning how to use Tone.js perhaps with a focus on using pre-recorded samples at first,\nyou can build your own Live Performance Environment like Mr. Aaron did[7], but think of songs as stand alone programs.\nInstead of trying to bend languages to your will or desire,\nlearn to bend yourself, and use the bare bones and existing API at your disposal.\nLearn to merge Music with what is already at your disposal,\ndo not try to bend the spoon.\n\nInvent your style,\nbegin publishing your music as computer programs, perhaps on npm[8], or github[9], or similar.\nAnd understand that this is your time,\nthat you are the new generation of Kraftwerk and Giorgio Moroder, that you are the future.\nYou are exactly where Techno begun,\nat the cusp of a new genre.\nIf you can do it, with purest of JavaScript and API so that others don't have to learn new things,\nand keep your music free and open under an Open Source License[10] so that your music can spread.\nYours is the future,\nand you will become an inspiration for countless many, for eons to come.\nMay your works become a treasure of equal proportions to Kraftwerk and Giorgio Moroder...\n\"Begin at the beginning, and go on till you come to the end: then stop.\"\n \nReferences\n[1]: https://www.youtube.com/watch?v=8u1aQdG5Nrk\n[2]: https://www.youtube.com/watch?v=G1m0aX9Lpts\n[3]: https://www.youtube.com/watch?v=TK1mBqKvIyU\n[4]: https://www.youtube.com/results?search_query=Learn+JavaScript\n[5]: https://www.youtube.com/watch?v=2Js-dxl1BKc\n[6]: https://www.youtube.com/watch?v=BDgelEJwZoo\n[7]: https://www.youtube.com/watch?v=xBQef0fs-_Q\n[8]: https://www.npmjs.com/\n[9]: https://github.com/\n[10]: https://choosealicense.com/",
  "images": [],
  "links": [
    {
      "title": "Tone.js",
      "url": "https://www.youtube.com/watch?v=8u1aQdG5Nrk",
      "hostname": "www.youtube.com"
    },
    {
      "title": "Sam Aaron",
      "url": "https://www.youtube.com/watch?v=G1m0aX9Lpts",
      "hostname": "www.youtube.com"
    },
    {
      "title": "SonicPI",
      "url": "https://www.youtube.com/watch?v=TK1mBqKvIyU",
      "hostname": "www.youtube.com"
    },
    {
      "title": "learn JavaScript",
      "url": "https://www.youtube.com/results?search_query=Learn+JavaScript",
      "hostname": "www.youtube.com"
    },
    {
      "title": "Kraftwerk Interview Ralf Hütter BBC2 England",
      "url": "https://www.youtube.com/watch?v=2Js-dxl1BKc",
      "hostname": "www.youtube.com"
    },
    {
      "title": "Giorgio Moroder - live at Lowlands 2019",
      "url": "https://www.youtube.com/watch?v=BDgelEJwZoo",
      "hostname": "www.youtube.com"
    },
    {
      "title": "you can build your own Live Performance Environment like Mr. Aaron did",
      "url": "https://www.youtube.com/watch?v=xBQef0fs-_Q",
      "hostname": "www.youtube.com"
    },
    {
      "title": "npm",
      "url": "https://www.npmjs.com/",
      "hostname": "www.npmjs.com"
    },
    {
      "title": "github",
      "url": "https://github.com/",
      "hostname": "github.com"
    },
    {
      "title": "Open Source License",
      "url": "https://choosealicense.com/",
      "hostname": "choosealicense.com"
    }
  ]
}