{
  "name": "furkies-purrkies-poetry-0304",
  "title": "Unique",
  "date": "2020-12-30T03:05:18.230Z",
  "image": "poetry-0304-illustration.jpg",
  "audio": "poetry-0304.mp3",
  "artwork": "https://catpea.com/",
  "id": "furkies-purrkies-poetry-0304",
  "attachments": {},
  "guid": "8b9993cc-5258-4e0b-9835-a6377481eef4",
  "html": "<div class=\"section\">\n  <p>You are a Royalty,</p>\n  <p>you are more than the endless universe will ever be able to comprehend.</p>\n</div>\n<div class=\"section\">\n  <p>You can&apos;t just act like everyone else,</p>\n  <p>because that is not worthy of you.</p>\n</div>\n<div class=\"section\">\n  <hr>\n</div>\n<div class=\"section\">\n  <p>You are nothing-like the mix that fits all,</p>\n  <p>you are a unique-and-blinding beauty.</p>\n</div>\n<div class=\"section\">\n  <p>And you do underestimate yourself,</p>\n  <p>it will take you a lot of distance, to get to know who you are.</p>\n</div>\n<div class=\"section\">\n  <hr>\n</div>\n<div class=\"section\">\n  <p>You can learn a lot about your height in the universe,</p>\n  <p>when an unexpected storm approaches, and all you have is a tent.</p>\n</div>\n<div class=\"section\">\n  <p>That big storm is not interested in you,</p>\n  <p>and you have to learn to get along with nature.</p>\n</div>\n<div class=\"section\">\n  <p>In the raw beauty of it all,</p>\n  <p>a good adventure book makes all the difference.</p>\n</div>\n<div class=\"section\">\n  <hr>\n</div>\n<div class=\"section\">\n  <p>That unfiltered nature, thunder,</p>\n  <p>or snow, or hard rain, or even a beautiful breeze in the woods...</p>\n</div>\n<div class=\"section\">\n  <p>Ad a place where you can truly hear,</p>\n  <p>the words of a Philosopher or an Adventurer is something else.</p>\n</div>\n<div class=\"section\">\n  <hr>\n</div>\n<div class=\"section\">\n  <p>All the Philosophers are asking us to examine life,</p>\n  <p>to be authentic, to walk our own trail and then keep pushing forward.</p>\n</div>\n<div class=\"section\">\n  <p>Because that is how they rose,,</p>\n  <p>that&apos;s what made them into great, unique and timeless beings.</p>\n</div>",
  "bootstrap": "<div class=\"card card-section bg-dark text-warning shadow\">\n  <div class=\"section card-body mb-0 my-2\">\n    <div class=\"paragraph card-text card-stanza my-5 text-center\">You are a Royalty,</div>\n    <div class=\"paragraph card-text card-stanza my-5 text-center\">you are more than the endless universe will ever be able to comprehend.</div>\n  </div>\n</div>\n<div class=\"card card-section bg-dark text-warning shadow\">\n  <div class=\"section card-body mb-0 my-2\">\n    <div class=\"paragraph card-text card-stanza my-5 text-center\">You can't just act like everyone else,</div>\n    <div class=\"paragraph card-text card-stanza my-5 text-center\">because that is not worthy of you.</div>\n  </div>\n</div>\n<div class=\"mb-5 section-spacer\">&nbsp;</div>\n<div class=\"card card-section bg-dark text-warning shadow\">\n  <div class=\"section card-body mb-0 my-2\">\n    <div class=\"paragraph card-text card-stanza my-5 text-center\">You are nothing-like the mix that fits all,</div>\n    <div class=\"paragraph card-text card-stanza my-5 text-center\">you are a unique-and-blinding beauty.</div>\n  </div>\n</div>\n<div class=\"card card-section bg-dark text-warning shadow\">\n  <div class=\"section card-body mb-0 my-2\">\n    <div class=\"paragraph card-text card-stanza my-5 text-center\">And you do underestimate yourself,</div>\n    <div class=\"paragraph card-text card-stanza my-5 text-center\">it will take you a lot of distance, to get to know who you are.</div>\n  </div>\n</div>\n<div class=\"mb-5 section-spacer\">&nbsp;</div>\n<div class=\"card card-section bg-dark text-warning shadow\">\n  <div class=\"section card-body mb-0 my-2\">\n    <div class=\"paragraph card-text card-stanza my-5 text-center\">You can learn a lot about your height in the universe,</div>\n    <div class=\"paragraph card-text card-stanza my-5 text-center\">when an unexpected storm approaches, and all you have is a tent.</div>\n  </div>\n</div>\n<div class=\"card card-section bg-dark text-warning shadow\">\n  <div class=\"section card-body mb-0 my-2\">\n    <div class=\"paragraph card-text card-stanza my-5 text-center\">That big storm is not interested in you,</div>\n    <div class=\"paragraph card-text card-stanza my-5 text-center\">and you have to learn to get along with nature.</div>\n  </div>\n</div>\n<div class=\"card card-section bg-dark text-warning shadow\">\n  <div class=\"section card-body mb-0 my-2\">\n    <div class=\"paragraph card-text card-stanza my-5 text-center\">In the raw beauty of it all,</div>\n    <div class=\"paragraph card-text card-stanza my-5 text-center\">a good adventure book makes all the difference.</div>\n  </div>\n</div>\n<div class=\"mb-5 section-spacer\">&nbsp;</div>\n<div class=\"card card-section bg-dark text-warning shadow\">\n  <div class=\"section card-body mb-0 my-2\">\n    <div class=\"paragraph card-text card-stanza my-5 text-center\">That unfiltered nature, thunder,</div>\n    <div class=\"paragraph card-text card-stanza my-5 text-center\">or snow, or hard rain, or even a beautiful breeze in the woods...</div>\n  </div>\n</div>\n<div class=\"card card-section bg-dark text-warning shadow\">\n  <div class=\"section card-body mb-0 my-2\">\n    <div class=\"paragraph card-text card-stanza my-5 text-center\">Ad a place where you can truly hear,</div>\n    <div class=\"paragraph card-text card-stanza my-5 text-center\">the words of a Philosopher or an Adventurer is something else.</div>\n  </div>\n</div>\n<div class=\"mb-5 section-spacer\">&nbsp;</div>\n<div class=\"card card-section bg-dark text-warning shadow\">\n  <div class=\"section card-body mb-0 my-2\">\n    <div class=\"paragraph card-text card-stanza my-5 text-center\">All the Philosophers are asking us to examine life,</div>\n    <div class=\"paragraph card-text card-stanza my-5 text-center\">to be authentic, to walk our own trail and then keep pushing forward.</div>\n  </div>\n</div>\n<div class=\"card card-section bg-dark text-warning shadow\">\n  <div class=\"section card-body mb-0 my-2\">\n    <div class=\"paragraph card-text card-stanza my-5 text-center\">Because that is how they rose,,</div>\n    <div class=\"paragraph card-text card-stanza my-5 text-center\">that's what made them into great, unique and timeless beings.</div>\n  </div>\n</div>",
  "print": "<div class=\"section avoid-break-inside\" style=\"padding-bottom: 2rem;\">\n  <div class=\"paragraph\">You are a Royalty,</div>\n  <div class=\"paragraph\">you are more than the endless universe will ever be able to comprehend.</div>\n</div>\n<div class=\"section avoid-break-inside\" style=\"padding-bottom: 2rem;\">\n  <div class=\"paragraph\">You can't just act like everyone else,</div>\n  <div class=\"paragraph\">because that is not worthy of you.</div>\n</div>\n<div class=\"section avoid-break-inside\" style=\"padding-bottom: 2rem;\">\n  <br>\n</div>\n<div class=\"section avoid-break-inside\" style=\"padding-bottom: 2rem;\">\n  <div class=\"paragraph\">You are nothing-like the mix that fits all,</div>\n  <div class=\"paragraph\">you are a unique-and-blinding beauty.</div>\n</div>\n<div class=\"section avoid-break-inside\" style=\"padding-bottom: 2rem;\">\n  <div class=\"paragraph\">And you do underestimate yourself,</div>\n  <div class=\"paragraph\">it will take you a lot of distance, to get to know who you are.</div>\n</div>\n<div class=\"section avoid-break-inside\" style=\"padding-bottom: 2rem;\">\n  <br>\n</div>\n<div class=\"section avoid-break-inside\" style=\"padding-bottom: 2rem;\">\n  <div class=\"paragraph\">You can learn a lot about your height in the universe,</div>\n  <div class=\"paragraph\">when an unexpected storm approaches, and all you have is a tent.</div>\n</div>\n<div class=\"section avoid-break-inside\" style=\"padding-bottom: 2rem;\">\n  <div class=\"paragraph\">That big storm is not interested in you,</div>\n  <div class=\"paragraph\">and you have to learn to get along with nature.</div>\n</div>\n<div class=\"section avoid-break-inside\" style=\"padding-bottom: 2rem;\">\n  <div class=\"paragraph\">In the raw beauty of it all,</div>\n  <div class=\"paragraph\">a good adventure book makes all the difference.</div>\n</div>\n<div class=\"section avoid-break-inside\" style=\"padding-bottom: 2rem;\">\n  <br>\n</div>\n<div class=\"section avoid-break-inside\" style=\"padding-bottom: 2rem;\">\n  <div class=\"paragraph\">That unfiltered nature, thunder,</div>\n  <div class=\"paragraph\">or snow, or hard rain, or even a beautiful breeze in the woods...</div>\n</div>\n<div class=\"section avoid-break-inside\" style=\"padding-bottom: 2rem;\">\n  <div class=\"paragraph\">Ad a place where you can truly hear,</div>\n  <div class=\"paragraph\">the words of a Philosopher or an Adventurer is something else.</div>\n</div>\n<div class=\"section avoid-break-inside\" style=\"padding-bottom: 2rem;\">\n  <br>\n</div>\n<div class=\"section avoid-break-inside\" style=\"padding-bottom: 2rem;\">\n  <div class=\"paragraph\">All the Philosophers are asking us to examine life,</div>\n  <div class=\"paragraph\">to be authentic, to walk our own trail and then keep pushing forward.</div>\n</div>\n<div class=\"section avoid-break-inside\" style=\"padding-bottom: 2rem;\">\n  <div class=\"paragraph\">Because that is how they rose,,</div>\n  <div class=\"paragraph\">that's what made them into great, unique and timeless beings.</div>\n</div>",
  "text": "You are a Royalty,\nyou are more than the endless universe will ever be able to comprehend.\nYou can't just act like everyone else,\nbecause that is not worthy of you.\n\nYou are nothing-like the mix that fits all,\nyou are a unique-and-blinding beauty.\nAnd you do underestimate yourself,\nit will take you a lot of distance, to get to know who you are.\n\nYou can learn a lot about your height in the universe,\nwhen an unexpected storm approaches, and all you have is a tent.\nThat big storm is not interested in you,\nand you have to learn to get along with nature.\nIn the raw beauty of it all,\na good adventure book makes all the difference.\n\nThat unfiltered nature, thunder,\nor snow, or hard rain, or even a beautiful breeze in the woods...\nAd a place where you can truly hear,\nthe words of a Philosopher or an Adventurer is something else.\n\nAll the Philosophers are asking us to examine life,\nto be authentic, to walk our own trail and then keep pushing forward.\nBecause that is how they rose,,\nthat's what made them into great, unique and timeless beings.",
  "images": [],
  "links": []
}