{
  "id": "furkies-purrkies-poetry-0626",
  "title": "The Source Of Art And A Question To Start",
  "date": "2021-11-17T00:14:10.527Z",
  "image": "poetry-0626-illustration.jpg",
  "artwork": "https://unsplash.com/photos/UFGqtAkaYmo",
  "audio": "poetry-0626.mp3",
  "guid": "078a590c-f655-4c23-a700-dbcca45bf7f4"
}
