{
  "title": "Self Education: For A Cheerful And Healthy Mind",
  "date": "2020-12-02T01:13:45.496Z",
  "image": "poetry-0276-illustration.jpg",
  "audio": "poetry-0276.mp3",
  "artwork": "https://pixabay.com/images/id-1863905/",
  "id": "furkies-purrkies-poetry-0276",
  "attachments": {},
  "guid": "11b55a1f-1d39-49a9-9888-632cda3c6d08"
}
