{
  "id": "furkies-purrkies-poetry-0683",
  "title": "Spring And Exercise",
  "date": "2022-01-13T02:59:47.004Z",
  "image": "poetry-0683-illustration.jpg",
  "artwork": "https://unsplash.com/photos/OwwM68FlA9o",
  "audio": "poetry-0683.mp3",
  "guid": "742210de-9daf-494d-9f9b-07a227eb25f4"
}
