{
  "title": "Greatness Of Soul",
  "date": "2020-06-28T03:16:50.267Z",
  "image": "poetry-0120-illustration.jpg",
  "audio": "poetry-0120.mp3",
  "id": "furkies-purrkies-poetry-0120",
  "attachments": {},
  "guid": "ba007b7e-9639-48ef-b61d-04a19333f7cd"
}
