{
  "name": "furkies-purrkies-poetry-0278",
  "title": "Real World Real Future",
  "date": "2020-12-04T03:55:02.075Z",
  "image": "poetry-0278-illustration.jpg",
  "audio": "poetry-0278.mp3",
  "artwork": "https://unsplash.com/photos/QNrkzXgOapY",
  "id": "furkies-purrkies-poetry-0278",
  "attachments": {},
  "guid": "a5780bc5-28e0-4de1-95ac-28c404377642",
  "html": "<div class=\"section\">\n  <p>We, or the younger generations may find ourselves in situations where life does not make sense,</p>\n  <p>where too many things are contradictory, ineffective, and too broken to be of any real use.</p>\n</div>\n<div class=\"section\">\n  <p>When we are children we are taught falsehoods,</p>\n  <p>indoctrinated into religions, made to think of politics as special, and schools as critical.</p>\n</div>\n<div class=\"section\">\n  <p>We have no chance to question anything,</p>\n  <p>we have no experience at all.</p>\n</div>\n<div class=\"section\">\n  <p>Religions, broken politics and ineffective schools feed on blind belief,</p>\n  <p>if we taught children the truth they would try to help the world grow.</p>\n</div>\n<div class=\"section\">\n  <p>Plus, it does not take very long before life gets real, with bullies, rockets, wars, or illnesses,</p>\n  <p>and when we are placed on an imaginary foundation, we can&apos;t quite fight all that back, not very effectively.</p>\n</div>\n<div class=\"section\">\n  <p>Educated or not, Human Beings are still very special, and will fight for what little they know,</p>\n  <p>it is a terrible tragedy when people fight for something imaginary, that in the end, means nothing.</p>\n</div>\n<div class=\"section\">\n  <p>Just out of respect for children, and for the future generations to whom this planet truly belongs to,</p>\n  <p>we must resist propagating fantasies and myths.</p>\n</div>\n<div class=\"section\">\n  <p>The governments are not external forces, and they are not fully functional,</p>\n  <p>they are made to be ran by the people of their nations, and depend on schools that produce real results.</p>\n</div>\n<div class=\"section\">\n  <p>We can&apos;t teach the younger generations that World Peace is a funny fantasy,</p>\n  <p>World Peace has been the next important step for a century now.</p>\n</div>\n<div class=\"section\">\n  <p>Levels of education, wisdom, and greatness all around the world, need to increase,</p>\n  <p>while schools do work to some degree, they mean little when compared to self education and real results.</p>\n</div>\n<div class=\"section\">\n  <p>It is cruel to teach children lessons that will frighten them with a world that does not make sense,</p>\n  <p>all-the-while real life is happening and they need real facts and not imaginary opinions and wishful thinking.</p>\n</div>\n<div class=\"section\">\n  <p>Worst of all, we propagate myths because it is easier to pass on a faerie tale,</p>\n  <p>than to read a thousand books about the world and growing up.</p>\n</div>\n<div class=\"section\">\n  <p>Let us all put an end to this cycle to strangeness,</p>\n  <p>let us all aim to become self educated with world&apos;s finest books and lectures, onward to becoming wise.</p>\n</div>\n<div class=\"section\">\n  <p>Let us inspire the younger generations with facts and not mere opinions,</p>\n  <p>and let us remind, that the world and the politics and schools that demand great repairs, all belongs to them.</p>\n</div>\n<div class=\"section\">\n  <p>May we all rise and rise,</p>\n  <p>until the world becomes wise.</p>\n</div>",
  "bootstrap": "<div class=\"card card-section bg-dark text-warning shadow\">\n  <div class=\"section card-body mb-0 my-2\">\n    <div class=\"paragraph card-text card-stanza my-5 text-center\">We, or the younger generations may find ourselves in situations where life does not make sense,</div>\n    <div class=\"paragraph card-text card-stanza my-5 text-center\">where too many things are contradictory, ineffective, and too broken to be of any real use.</div>\n  </div>\n</div>\n<div class=\"card card-section bg-dark text-warning shadow\">\n  <div class=\"section card-body mb-0 my-2\">\n    <div class=\"paragraph card-text card-stanza my-5 text-center\">When we are children we are taught falsehoods,</div>\n    <div class=\"paragraph card-text card-stanza my-5 text-center\">indoctrinated into religions, made to think of politics as special, and schools as critical.</div>\n  </div>\n</div>\n<div class=\"card card-section bg-dark text-warning shadow\">\n  <div class=\"section card-body mb-0 my-2\">\n    <div class=\"paragraph card-text card-stanza my-5 text-center\">We have no chance to question anything,</div>\n    <div class=\"paragraph card-text card-stanza my-5 text-center\">we have no experience at all.</div>\n  </div>\n</div>\n<div class=\"card card-section bg-dark text-warning shadow\">\n  <div class=\"section card-body mb-0 my-2\">\n    <div class=\"paragraph card-text card-stanza my-5 text-center\">Religions, broken politics and ineffective schools feed on blind belief,</div>\n    <div class=\"paragraph card-text card-stanza my-5 text-center\">if we taught children the truth they would try to help the world grow.</div>\n  </div>\n</div>\n<div class=\"card card-section bg-dark text-warning shadow\">\n  <div class=\"section card-body mb-0 my-2\">\n    <div class=\"paragraph card-text card-stanza my-5 text-center\">Plus, it does not take very long before life gets real, with bullies, rockets, wars, or illnesses,</div>\n    <div class=\"paragraph card-text card-stanza my-5 text-center\">and when we are placed on an imaginary foundation, we can't quite fight all that back, not very effectively.</div>\n  </div>\n</div>\n<div class=\"card card-section bg-dark text-warning shadow\">\n  <div class=\"section card-body mb-0 my-2\">\n    <div class=\"paragraph card-text card-stanza my-5 text-center\">Educated or not, Human Beings are still very special, and will fight for what little they know,</div>\n    <div class=\"paragraph card-text card-stanza my-5 text-center\">it is a terrible tragedy when people fight for something imaginary, that in the end, means nothing.</div>\n  </div>\n</div>\n<div class=\"card card-section bg-dark text-warning shadow\">\n  <div class=\"section card-body mb-0 my-2\">\n    <div class=\"paragraph card-text card-stanza my-5 text-center\">Just out of respect for children, and for the future generations to whom this planet truly belongs to,</div>\n    <div class=\"paragraph card-text card-stanza my-5 text-center\">we must resist propagating fantasies and myths.</div>\n  </div>\n</div>\n<div class=\"card card-section bg-dark text-warning shadow\">\n  <div class=\"section card-body mb-0 my-2\">\n    <div class=\"paragraph card-text card-stanza my-5 text-center\">The governments are not external forces, and they are not fully functional,</div>\n    <div class=\"paragraph card-text card-stanza my-5 text-center\">they are made to be ran by the people of their nations, and depend on schools that produce real results.</div>\n  </div>\n</div>\n<div class=\"card card-section bg-dark text-warning shadow\">\n  <div class=\"section card-body mb-0 my-2\">\n    <div class=\"paragraph card-text card-stanza my-5 text-center\">We can't teach the younger generations that World Peace is a funny fantasy,</div>\n    <div class=\"paragraph card-text card-stanza my-5 text-center\">World Peace has been the next important step for a century now.</div>\n  </div>\n</div>\n<div class=\"card card-section bg-dark text-warning shadow\">\n  <div class=\"section card-body mb-0 my-2\">\n    <div class=\"paragraph card-text card-stanza my-5 text-center\">Levels of education, wisdom, and greatness all around the world, need to increase,</div>\n    <div class=\"paragraph card-text card-stanza my-5 text-center\">while schools do work to some degree, they mean little when compared to self education and real results.</div>\n  </div>\n</div>\n<div class=\"card card-section bg-dark text-warning shadow\">\n  <div class=\"section card-body mb-0 my-2\">\n    <div class=\"paragraph card-text card-stanza my-5 text-center\">It is cruel to teach children lessons that will frighten them with a world that does not make sense,</div>\n    <div class=\"paragraph card-text card-stanza my-5 text-center\">all-the-while real life is happening and they need real facts and not imaginary opinions and wishful thinking.</div>\n  </div>\n</div>\n<div class=\"card card-section bg-dark text-warning shadow\">\n  <div class=\"section card-body mb-0 my-2\">\n    <div class=\"paragraph card-text card-stanza my-5 text-center\">Worst of all, we propagate myths because it is easier to pass on a faerie tale,</div>\n    <div class=\"paragraph card-text card-stanza my-5 text-center\">than to read a thousand books about the world and growing up.</div>\n  </div>\n</div>\n<div class=\"card card-section bg-dark text-warning shadow\">\n  <div class=\"section card-body mb-0 my-2\">\n    <div class=\"paragraph card-text card-stanza my-5 text-center\">Let us all put an end to this cycle to strangeness,</div>\n    <div class=\"paragraph card-text card-stanza my-5 text-center\">let us all aim to become self educated with world's finest books and lectures, onward to becoming wise.</div>\n  </div>\n</div>\n<div class=\"card card-section bg-dark text-warning shadow\">\n  <div class=\"section card-body mb-0 my-2\">\n    <div class=\"paragraph card-text card-stanza my-5 text-center\">Let us inspire the younger generations with facts and not mere opinions,</div>\n    <div class=\"paragraph card-text card-stanza my-5 text-center\">and let us remind, that the world and the politics and schools that demand great repairs, all belongs to them.</div>\n  </div>\n</div>\n<div class=\"card card-section bg-dark text-warning shadow\">\n  <div class=\"section card-body mb-0 my-2\">\n    <div class=\"paragraph card-text card-stanza my-5 text-center\">May we all rise and rise,</div>\n    <div class=\"paragraph card-text card-stanza my-5 text-center\">until the world becomes wise.</div>\n  </div>\n</div>",
  "print": "<div class=\"section avoid-break-inside\" style=\"padding-bottom: 2rem;\">\n  <div class=\"paragraph\">We, or the younger generations may find ourselves in situations where life does not make sense,</div>\n  <div class=\"paragraph\">where too many things are contradictory, ineffective, and too broken to be of any real use.</div>\n</div>\n<div class=\"section avoid-break-inside\" style=\"padding-bottom: 2rem;\">\n  <div class=\"paragraph\">When we are children we are taught falsehoods,</div>\n  <div class=\"paragraph\">indoctrinated into religions, made to think of politics as special, and schools as critical.</div>\n</div>\n<div class=\"section avoid-break-inside\" style=\"padding-bottom: 2rem;\">\n  <div class=\"paragraph\">We have no chance to question anything,</div>\n  <div class=\"paragraph\">we have no experience at all.</div>\n</div>\n<div class=\"section avoid-break-inside\" style=\"padding-bottom: 2rem;\">\n  <div class=\"paragraph\">Religions, broken politics and ineffective schools feed on blind belief,</div>\n  <div class=\"paragraph\">if we taught children the truth they would try to help the world grow.</div>\n</div>\n<div class=\"section avoid-break-inside\" style=\"padding-bottom: 2rem;\">\n  <div class=\"paragraph\">Plus, it does not take very long before life gets real, with bullies, rockets, wars, or illnesses,</div>\n  <div class=\"paragraph\">and when we are placed on an imaginary foundation, we can't quite fight all that back, not very effectively.</div>\n</div>\n<div class=\"section avoid-break-inside\" style=\"padding-bottom: 2rem;\">\n  <div class=\"paragraph\">Educated or not, Human Beings are still very special, and will fight for what little they know,</div>\n  <div class=\"paragraph\">it is a terrible tragedy when people fight for something imaginary, that in the end, means nothing.</div>\n</div>\n<div class=\"section avoid-break-inside\" style=\"padding-bottom: 2rem;\">\n  <div class=\"paragraph\">Just out of respect for children, and for the future generations to whom this planet truly belongs to,</div>\n  <div class=\"paragraph\">we must resist propagating fantasies and myths.</div>\n</div>\n<div class=\"section avoid-break-inside\" style=\"padding-bottom: 2rem;\">\n  <div class=\"paragraph\">The governments are not external forces, and they are not fully functional,</div>\n  <div class=\"paragraph\">they are made to be ran by the people of their nations, and depend on schools that produce real results.</div>\n</div>\n<div class=\"section avoid-break-inside\" style=\"padding-bottom: 2rem;\">\n  <div class=\"paragraph\">We can't teach the younger generations that World Peace is a funny fantasy,</div>\n  <div class=\"paragraph\">World Peace has been the next important step for a century now.</div>\n</div>\n<div class=\"section avoid-break-inside\" style=\"padding-bottom: 2rem;\">\n  <div class=\"paragraph\">Levels of education, wisdom, and greatness all around the world, need to increase,</div>\n  <div class=\"paragraph\">while schools do work to some degree, they mean little when compared to self education and real results.</div>\n</div>\n<div class=\"section avoid-break-inside\" style=\"padding-bottom: 2rem;\">\n  <div class=\"paragraph\">It is cruel to teach children lessons that will frighten them with a world that does not make sense,</div>\n  <div class=\"paragraph\">all-the-while real life is happening and they need real facts and not imaginary opinions and wishful thinking.</div>\n</div>\n<div class=\"section avoid-break-inside\" style=\"padding-bottom: 2rem;\">\n  <div class=\"paragraph\">Worst of all, we propagate myths because it is easier to pass on a faerie tale,</div>\n  <div class=\"paragraph\">than to read a thousand books about the world and growing up.</div>\n</div>\n<div class=\"section avoid-break-inside\" style=\"padding-bottom: 2rem;\">\n  <div class=\"paragraph\">Let us all put an end to this cycle to strangeness,</div>\n  <div class=\"paragraph\">let us all aim to become self educated with world's finest books and lectures, onward to becoming wise.</div>\n</div>\n<div class=\"section avoid-break-inside\" style=\"padding-bottom: 2rem;\">\n  <div class=\"paragraph\">Let us inspire the younger generations with facts and not mere opinions,</div>\n  <div class=\"paragraph\">and let us remind, that the world and the politics and schools that demand great repairs, all belongs to them.</div>\n</div>\n<div class=\"section avoid-break-inside\" style=\"padding-bottom: 2rem;\">\n  <div class=\"paragraph\">May we all rise and rise,</div>\n  <div class=\"paragraph\">until the world becomes wise.</div>\n</div>",
  "text": "We, or the younger generations may find ourselves in situations where life does not make sense,\nwhere too many things are contradictory, ineffective, and too broken to be of any real use.\nWhen we are children we are taught falsehoods,\nindoctrinated into religions, made to think of politics as special, and schools as critical.\nWe have no chance to question anything,\nwe have no experience at all.\nReligions, broken politics and ineffective schools feed on blind belief,\nif we taught children the truth they would try to help the world grow.\nPlus, it does not take very long before life gets real, with bullies, rockets, wars, or illnesses,\nand when we are placed on an imaginary foundation, we can't quite fight all that back, not very effectively.\nEducated or not, Human Beings are still very special, and will fight for what little they know,\nit is a terrible tragedy when people fight for something imaginary, that in the end, means nothing.\nJust out of respect for children, and for the future generations to whom this planet truly belongs to,\nwe must resist propagating fantasies and myths.\nThe governments are not external forces, and they are not fully functional,\nthey are made to be ran by the people of their nations, and depend on schools that produce real results.\nWe can't teach the younger generations that World Peace is a funny fantasy,\nWorld Peace has been the next important step for a century now.\nLevels of education, wisdom, and greatness all around the world, need to increase,\nwhile schools do work to some degree, they mean little when compared to self education and real results.\nIt is cruel to teach children lessons that will frighten them with a world that does not make sense,\nall-the-while real life is happening and they need real facts and not imaginary opinions and wishful thinking.\nWorst of all, we propagate myths because it is easier to pass on a faerie tale,\nthan to read a thousand books about the world and growing up.\nLet us all put an end to this cycle to strangeness,\nlet us all aim to become self educated with world's finest books and lectures, onward to becoming wise.\nLet us inspire the younger generations with facts and not mere opinions,\nand let us remind, that the world and the politics and schools that demand great repairs, all belongs to them.\nMay we all rise and rise,\nuntil the world becomes wise.",
  "images": [],
  "links": []
}