{
  "id": "furkies-purrkies-poetry-0807",
  "title": "Programming Jewelry Explained",
  "date": "2022-05-16T23:07:51.561Z",
  "image": "poetry-0807-illustration.jpg",
  "artwork": "https://catpea.com",
  "audio": "poetry-0807.mp3",
  "guid": "1295286d-b1f0-4531-8998-6fefa86db679"
}
