{
  "title": "The Next Eighty Years",
  "date": "2020-10-19T20:43:58.804Z",
  "image": "poetry-0233-illustration.jpg",
  "audio": "poetry-0233.mp3",
  "artwork": "https://unsplash.com/",
  "id": "furkies-purrkies-poetry-0233",
  "attachments": {},
  "guid": "0d14c24f-d920-45dc-a184-7fef1670e7d3"
}
