{
  "name": "furkies-purrkies-poetry-0767",
  "id": "furkies-purrkies-poetry-0767",
  "title": "Tea And Biscuit, Or How To Paint A Perfect Selfie Portrait",
  "date": "2022-04-06T23:36:11.477Z",
  "image": "poetry-0767-illustration.jpg",
  "artwork": "https://catpea.com",
  "audio": "poetry-0767.mp3",
  "guid": "441c38bf-fcf4-41e5-a19a-90e3efe9f316",
  "html": "<div class=\"section\">\n  <p>Not all art sessions,<br>take lots of preparation.</p>\n  <p>Creating digital ink sketches,<br>takes a minute per sketch.</p>\n  <p>Line art can be just as magical,<br>as impressionism.</p>\n  <p>There is nothing to stop line art<br>from perfectly capturing a face.</p>\n</div>\n<div class=\"section\">\n  <hr>\n</div>\n<div class=\"section\">\n  <p>But playing <strong>with</strong> the sun and clouds,<br>summer shadows, and nature's own colors.</p>\n  <p>And discovering just the right background colors,<br>to match the weather is wonderful.</p>\n</div>\n<div class=\"section\">\n  <hr>\n</div>\n<div class=\"section\">\n  <p>An you know what, you almost certainly,<br>are going to need a bicycle.</p>\n  <p>The simpler the better,<br>and fat tire ones are very stable.</p>\n  <p>Get a camera,<br>perhaps with a wide angle lens.</p>\n  <p>Or clip-on lenses for your phone,<br>though a dedicated camera is best, somehow.</p>\n</div>\n<div class=\"section\">\n  <hr>\n</div>\n<div class=\"section\">\n  <p>And grab a thermos of tea,<br>perhaps cold sweet tea, even.</p>\n  <p>And some biscuits,<br>because you never know.</p>\n  <p>Or perhaps even,<br>grab a bun and a hot dog.</p>\n  <p>A couple bits of charcoal<br>and a mean stick or two.</p>\n  <p>And throw them in your backpack,<br>a lot of sunny parks have little BBQ girls.</p>\n  <p>And they are not all,<br>bespidered.</p>\n</div>\n<div class=\"section\">\n  <hr>\n</div>\n<div class=\"section\">\n  <p>It is a little know fact,<br>but picnics are a huge part of being an artist.</p>\n  <p>You always,<br>see a painter by his canvas.</p>\n  <p>But you never see what is up,<br>behind the person taking the photo.</p>\n  <p>Let me tell you,<br>it's a picnic.</p>\n  <p>Biscuits,<br>and everything.</p>\n</div>\n<div class=\"section\">\n  <hr>\n</div>\n<div class=\"section\">\n  <p>Be careful,<br>of cloudy days.</p>\n  <p>Even great portrait photos taken on cloudy days,<br>may end up feeling flat.</p>\n  <p>Though adding sun to a cloudy day photo,<br>is a great way to learn more about painting.</p>\n  <p>Make it a two day adventure,<br>instead of canceling one altogether.</p>\n  <p>And make sure there are good shadows<br>and strong highlights in your photos.</p>\n  <p>Those make a world of difference in a painting,<br>deepest dark and brightest light do most of the talking.</p>\n</div>\n<div class=\"section\">\n  <hr>\n</div>\n<div class=\"section\">\n  <p>Pose here and there,<br>take plenty of photos.</p>\n  <p>Often they are good for many painting sessions,<br>and make for precious reference.</p>\n</div>\n<div class=\"section\">\n  <hr>\n</div>\n<div class=\"section\">\n  <p>When ready, open up Krita,<br>use the Reference Images Tool.</p>\n  <p>Stretch your reference over the entire canvas, set it to 50% opacity.<br>and use it as a shape and color guide.</p>\n  <p>And you may wish to adjust your photo temperature,<br>and post process your painting by sharpening it and adding some noise.</p>\n</div>\n<div class=\"section\">\n  <hr>\n</div>\n<div class=\"section\">\n  <p>While it is hard to see in a photo,<br>every painting has its own atmosphere.</p>\n  <p>Facial expression, temperature,<br>horizon and space.</p>\n  <p>And even detail like a thin sun highlight,<br>on the side of a face...</p>\n  <p>And whether or not you blur the background,<br>to focus sharper on the face.</p>\n  <p>Create a new world,<br>a world that has not yet existed.</p>\n  <p>Every one of your paintings,<br>will come with its own mystery.</p>\n  <p><a href=\"https://youtu.be/4OGyN1l1PIc\">Title Painting Time-lapse</a></p>\n</div>",
  "bootstrap": "<div class=\"card card-section bg-dark text-warning shadow\">\n  <div class=\"section card-body mb-0 my-2\">\n    <div class=\"paragraph card-text card-stanza my-5 text-center\">Not all art sessions,<br>take lots of preparation.</div>\n    <div class=\"paragraph card-text card-stanza my-5 text-center\">Creating digital ink sketches,<br>takes a minute per sketch.</div>\n    <div class=\"paragraph card-text card-stanza my-5 text-center\">Line art can be just as magical,<br>as impressionism.</div>\n    <div class=\"paragraph card-text card-stanza my-5 text-center\">There is nothing to stop line art<br>from perfectly capturing a face.</div>\n  </div>\n</div>\n<div class=\"mb-5 section-spacer\">&nbsp;</div>\n<div class=\"card card-section bg-dark text-warning shadow\">\n  <div class=\"section card-body mb-0 my-2\">\n    <div class=\"paragraph card-text card-stanza my-5 text-center\">But playing <strong>with</strong> the sun and clouds,<br>summer shadows, and nature's own colors.</div>\n    <div class=\"paragraph card-text card-stanza my-5 text-center\">And discovering just the right background colors,<br>to match the weather is wonderful.</div>\n  </div>\n</div>\n<div class=\"mb-5 section-spacer\">&nbsp;</div>\n<div class=\"card card-section bg-dark text-warning shadow\">\n  <div class=\"section card-body mb-0 my-2\">\n    <div class=\"paragraph card-text card-stanza my-5 text-center\">An you know what, you almost certainly,<br>are going to need a bicycle.</div>\n    <div class=\"paragraph card-text card-stanza my-5 text-center\">The simpler the better,<br>and fat tire ones are very stable.</div>\n    <div class=\"paragraph card-text card-stanza my-5 text-center\">Get a camera,<br>perhaps with a wide angle lens.</div>\n    <div class=\"paragraph card-text card-stanza my-5 text-center\">Or clip-on lenses for your phone,<br>though a dedicated camera is best, somehow.</div>\n  </div>\n</div>\n<div class=\"mb-5 section-spacer\">&nbsp;</div>\n<div class=\"card card-section bg-dark text-warning shadow\">\n  <div class=\"section card-body mb-0 my-2\">\n    <div class=\"paragraph card-text card-stanza my-5 text-center\">And grab a thermos of tea,<br>perhaps cold sweet tea, even.</div>\n    <div class=\"paragraph card-text card-stanza my-5 text-center\">And some biscuits,<br>because you never know.</div>\n    <div class=\"paragraph card-text card-stanza my-5 text-center\">Or perhaps even,<br>grab a bun and a hot dog.</div>\n    <div class=\"paragraph card-text card-stanza my-5 text-center\">A couple bits of charcoal<br>and a mean stick or two.</div>\n    <div class=\"paragraph card-text card-stanza my-5 text-center\">And throw them in your backpack,<br>a lot of sunny parks have little BBQ girls.</div>\n    <div class=\"paragraph card-text card-stanza my-5 text-center\">And they are not all,<br>bespidered.</div>\n  </div>\n</div>\n<div class=\"mb-5 section-spacer\">&nbsp;</div>\n<div class=\"card card-section bg-dark text-warning shadow\">\n  <div class=\"section card-body mb-0 my-2\">\n    <div class=\"paragraph card-text card-stanza my-5 text-center\">It is a little know fact,<br>but picnics are a huge part of being an artist.</div>\n    <div class=\"paragraph card-text card-stanza my-5 text-center\">You always,<br>see a painter by his canvas.</div>\n    <div class=\"paragraph card-text card-stanza my-5 text-center\">But you never see what is up,<br>behind the person taking the photo.</div>\n    <div class=\"paragraph card-text card-stanza my-5 text-center\">Let me tell you,<br>it's a picnic.</div>\n    <div class=\"paragraph card-text card-stanza my-5 text-center\">Biscuits,<br>and everything.</div>\n  </div>\n</div>\n<div class=\"mb-5 section-spacer\">&nbsp;</div>\n<div class=\"card card-section bg-dark text-warning shadow\">\n  <div class=\"section card-body mb-0 my-2\">\n    <div class=\"paragraph card-text card-stanza my-5 text-center\">Be careful,<br>of cloudy days.</div>\n    <div class=\"paragraph card-text card-stanza my-5 text-center\">Even great portrait photos taken on cloudy days,<br>may end up feeling flat.</div>\n    <div class=\"paragraph card-text card-stanza my-5 text-center\">Though adding sun to a cloudy day photo,<br>is a great way to learn more about painting.</div>\n    <div class=\"paragraph card-text card-stanza my-5 text-center\">Make it a two day adventure,<br>instead of canceling one altogether.</div>\n    <div class=\"paragraph card-text card-stanza my-5 text-center\">And make sure there are good shadows<br>and strong highlights in your photos.</div>\n    <div class=\"paragraph card-text card-stanza my-5 text-center\">Those make a world of difference in a painting,<br>deepest dark and brightest light do most of the talking.</div>\n  </div>\n</div>\n<div class=\"mb-5 section-spacer\">&nbsp;</div>\n<div class=\"card card-section bg-dark text-warning shadow\">\n  <div class=\"section card-body mb-0 my-2\">\n    <div class=\"paragraph card-text card-stanza my-5 text-center\">Pose here and there,<br>take plenty of photos.</div>\n    <div class=\"paragraph card-text card-stanza my-5 text-center\">Often they are good for many painting sessions,<br>and make for precious reference.</div>\n  </div>\n</div>\n<div class=\"mb-5 section-spacer\">&nbsp;</div>\n<div class=\"card card-section bg-dark text-warning shadow\">\n  <div class=\"section card-body mb-0 my-2\">\n    <div class=\"paragraph card-text card-stanza my-5 text-center\">When ready, open up Krita,<br>use the Reference Images Tool.</div>\n    <div class=\"paragraph card-text card-stanza my-5 text-center\">Stretch your reference over the entire canvas, set it to 50% opacity.<br>and use it as a shape and color guide.</div>\n    <div class=\"paragraph card-text card-stanza my-5 text-center\">And you may wish to adjust your photo temperature,<br>and post process your painting by sharpening it and adding some noise.</div>\n  </div>\n</div>\n<div class=\"mb-5 section-spacer\">&nbsp;</div>\n<div class=\"card card-section bg-dark text-warning shadow\">\n  <div class=\"section card-body mb-0 my-2\">\n    <div class=\"paragraph card-text card-stanza my-5 text-center\">While it is hard to see in a photo,<br>every painting has its own atmosphere.</div>\n    <div class=\"paragraph card-text card-stanza my-5 text-center\">Facial expression, temperature,<br>horizon and space.</div>\n    <div class=\"paragraph card-text card-stanza my-5 text-center\">And even detail like a thin sun highlight,<br>on the side of a face...</div>\n    <div class=\"paragraph card-text card-stanza my-5 text-center\">And whether or not you blur the background,<br>to focus sharper on the face.</div>\n    <div class=\"paragraph card-text card-stanza my-5 text-center\">Create a new world,<br>a world that has not yet existed.</div>\n    <div class=\"paragraph card-text card-stanza my-5 text-center\">Every one of your paintings,<br>will come with its own mystery.</div>\n    <div class=\"paragraph card-text card-stanza my-5 text-center\"><a href=\"https://youtu.be/4OGyN1l1PIc\">Title Painting Time-lapse</a></div>\n  </div>\n</div>",
  "print": "<div class=\"section avoid-break-inside\" style=\"padding-bottom: 2rem;\">\n  <div class=\"paragraph\">Not all art sessions,<br>take lots of preparation.</div>\n  <div class=\"paragraph\">Creating digital ink sketches,<br>takes a minute per sketch.</div>\n  <div class=\"paragraph\">Line art can be just as magical,<br>as impressionism.</div>\n  <div class=\"paragraph\">There is nothing to stop line art<br>from perfectly capturing a face.</div>\n</div>\n<div class=\"section avoid-break-inside\" style=\"padding-bottom: 2rem;\">\n  <br>\n</div>\n<div class=\"section avoid-break-inside\" style=\"padding-bottom: 2rem;\">\n  <div class=\"paragraph\">But playing <strong>with</strong> the sun and clouds,<br>summer shadows, and nature's own colors.</div>\n  <div class=\"paragraph\">And discovering just the right background colors,<br>to match the weather is wonderful.</div>\n</div>\n<div class=\"section avoid-break-inside\" style=\"padding-bottom: 2rem;\">\n  <br>\n</div>\n<div class=\"section avoid-break-inside\" style=\"padding-bottom: 2rem;\">\n  <div class=\"paragraph\">An you know what, you almost certainly,<br>are going to need a bicycle.</div>\n  <div class=\"paragraph\">The simpler the better,<br>and fat tire ones are very stable.</div>\n  <div class=\"paragraph\">Get a camera,<br>perhaps with a wide angle lens.</div>\n  <div class=\"paragraph\">Or clip-on lenses for your phone,<br>though a dedicated camera is best, somehow.</div>\n</div>\n<div class=\"section avoid-break-inside\" style=\"padding-bottom: 2rem;\">\n  <br>\n</div>\n<div class=\"section avoid-break-inside\" style=\"padding-bottom: 2rem;\">\n  <div class=\"paragraph\">And grab a thermos of tea,<br>perhaps cold sweet tea, even.</div>\n  <div class=\"paragraph\">And some biscuits,<br>because you never know.</div>\n  <div class=\"paragraph\">Or perhaps even,<br>grab a bun and a hot dog.</div>\n  <div class=\"paragraph\">A couple bits of charcoal<br>and a mean stick or two.</div>\n  <div class=\"paragraph\">And throw them in your backpack,<br>a lot of sunny parks have little BBQ girls.</div>\n  <div class=\"paragraph\">And they are not all,<br>bespidered.</div>\n</div>\n<div class=\"section avoid-break-inside\" style=\"padding-bottom: 2rem;\">\n  <br>\n</div>\n<div class=\"section avoid-break-inside\" style=\"padding-bottom: 2rem;\">\n  <div class=\"paragraph\">It is a little know fact,<br>but picnics are a huge part of being an artist.</div>\n  <div class=\"paragraph\">You always,<br>see a painter by his canvas.</div>\n  <div class=\"paragraph\">But you never see what is up,<br>behind the person taking the photo.</div>\n  <div class=\"paragraph\">Let me tell you,<br>it's a picnic.</div>\n  <div class=\"paragraph\">Biscuits,<br>and everything.</div>\n</div>\n<div class=\"section avoid-break-inside\" style=\"padding-bottom: 2rem;\">\n  <br>\n</div>\n<div class=\"section avoid-break-inside\" style=\"padding-bottom: 2rem;\">\n  <div class=\"paragraph\">Be careful,<br>of cloudy days.</div>\n  <div class=\"paragraph\">Even great portrait photos taken on cloudy days,<br>may end up feeling flat.</div>\n  <div class=\"paragraph\">Though adding sun to a cloudy day photo,<br>is a great way to learn more about painting.</div>\n  <div class=\"paragraph\">Make it a two day adventure,<br>instead of canceling one altogether.</div>\n  <div class=\"paragraph\">And make sure there are good shadows<br>and strong highlights in your photos.</div>\n  <div class=\"paragraph\">Those make a world of difference in a painting,<br>deepest dark and brightest light do most of the talking.</div>\n</div>\n<div class=\"section avoid-break-inside\" style=\"padding-bottom: 2rem;\">\n  <br>\n</div>\n<div class=\"section avoid-break-inside\" style=\"padding-bottom: 2rem;\">\n  <div class=\"paragraph\">Pose here and there,<br>take plenty of photos.</div>\n  <div class=\"paragraph\">Often they are good for many painting sessions,<br>and make for precious reference.</div>\n</div>\n<div class=\"section avoid-break-inside\" style=\"padding-bottom: 2rem;\">\n  <br>\n</div>\n<div class=\"section avoid-break-inside\" style=\"padding-bottom: 2rem;\">\n  <div class=\"paragraph\">When ready, open up Krita,<br>use the Reference Images Tool.</div>\n  <div class=\"paragraph\">Stretch your reference over the entire canvas, set it to 50% opacity.<br>and use it as a shape and color guide.</div>\n  <div class=\"paragraph\">And you may wish to adjust your photo temperature,<br>and post process your painting by sharpening it and adding some noise.</div>\n</div>\n<div class=\"section avoid-break-inside\" style=\"padding-bottom: 2rem;\">\n  <br>\n</div>\n<div class=\"section avoid-break-inside\" style=\"padding-bottom: 2rem;\">\n  <div class=\"paragraph\">While it is hard to see in a photo,<br>every painting has its own atmosphere.</div>\n  <div class=\"paragraph\">Facial expression, temperature,<br>horizon and space.</div>\n  <div class=\"paragraph\">And even detail like a thin sun highlight,<br>on the side of a face...</div>\n  <div class=\"paragraph\">And whether or not you blur the background,<br>to focus sharper on the face.</div>\n  <div class=\"paragraph\">Create a new world,<br>a world that has not yet existed.</div>\n  <div class=\"paragraph\">Every one of your paintings,<br>will come with its own mystery.</div>\n  <div class=\"paragraph\"><span>Title Painting Time-lapse<sup>[1]</sup></span></div>\n</div>\n<div class=\"break-after\">&nbsp;</div>\n<div>\n  <div class=\"section\" style=\"padding-bottom: 1rem;\">References</div>\n  <div>[1]: https://youtu.be/4OGyN1l1PIc</div>\n</div>",
  "text": "Not all art sessions,\ntake lots of preparation.\nCreating digital ink sketches,\ntakes a minute per sketch.\nLine art can be just as magical,\nas impressionism.\nThere is nothing to stop line art\nfrom perfectly capturing a face.\n\nBut playing with the sun and clouds,\nsummer shadows, and nature's own colors.\nAnd discovering just the right background colors,\nto match the weather is wonderful.\n\nAn you know what, you almost certainly,\nare going to need a bicycle.\nThe simpler the better,\nand fat tire ones are very stable.\nGet a camera,\nperhaps with a wide angle lens.\nOr clip-on lenses for your phone,\nthough a dedicated camera is best, somehow.\n\nAnd grab a thermos of tea,\nperhaps cold sweet tea, even.\nAnd some biscuits,\nbecause you never know.\nOr perhaps even,\ngrab a bun and a hot dog.\nA couple bits of charcoal\nand a mean stick or two.\nAnd throw them in your backpack,\na lot of sunny parks have little BBQ girls.\nAnd they are not all,\nbespidered.\n\nIt is a little know fact,\nbut picnics are a huge part of being an artist.\nYou always,\nsee a painter by his canvas.\nBut you never see what is up,\nbehind the person taking the photo.\nLet me tell you,\nit's a picnic.\nBiscuits,\nand everything.\n\nBe careful,\nof cloudy days.\nEven great portrait photos taken on cloudy days,\nmay end up feeling flat.\nThough adding sun to a cloudy day photo,\nis a great way to learn more about painting.\nMake it a two day adventure,\ninstead of canceling one altogether.\nAnd make sure there are good shadows\nand strong highlights in your photos.\nThose make a world of difference in a painting,\ndeepest dark and brightest light do most of the talking.\n\nPose here and there,\ntake plenty of photos.\nOften they are good for many painting sessions,\nand make for precious reference.\n\nWhen ready, open up Krita,\nuse the Reference Images Tool.\nStretch your reference over the entire canvas, set it to 50% opacity.\nand use it as a shape and color guide.\nAnd you may wish to adjust your photo temperature,\nand post process your painting by sharpening it and adding some noise.\n\nWhile it is hard to see in a photo,\nevery painting has its own atmosphere.\nFacial expression, temperature,\nhorizon and space.\nAnd even detail like a thin sun highlight,\non the side of a face...\nAnd whether or not you blur the background,\nto focus sharper on the face.\nCreate a new world,\na world that has not yet existed.\nEvery one of your paintings,\nwill come with its own mystery.\nTitle Painting Time-lapse[1]\n \nReferences\n[1]: https://youtu.be/4OGyN1l1PIc",
  "images": [],
  "links": [
    {
      "title": "Title Painting Time-lapse",
      "url": "https://youtu.be/4OGyN1l1PIc",
      "hostname": "youtu.be"
    }
  ]
}