{
  "name": "furkies-purrkies-poetry-0236",
  "title": "Seeing In Parallel: The Colors Of Night",
  "date": "2020-10-23T02:38:24.596Z",
  "image": "poetry-0236-illustration.jpg",
  "audio": "poetry-0236.mp3",
  "artwork": "https://catpea.com/",
  "id": "furkies-purrkies-poetry-0236",
  "attachments": {},
  "guid": "75ea8007-550d-4cba-abf8-0738ed56df1f",
  "html": "<div class=\"section\"><img src=\"/image/poetry-0236-color.jpg\" alt=\"Color\"></div>\n<div class=\"section\"><img src=\"/image/poetry-0236-ir.jpg\" alt=\"IR\"></div>\n<div class=\"section\">\n  <p>The distance between Science and Play, between Adventurer and Scientist,</p>\n  <p>approaches zero will approach zero in proportion to just how much fun you are having.</p>\n</div>\n<div class=\"section\">\n  <hr>\n</div>\n<div class=\"section\">\n  <p>My first independent invention was a CD based Car MP3 player in 1998,</p>\n  <p>there were many other mp3 player patents, dating many years back, I didn&apos;t invent anything new.</p>\n</div>\n<div class=\"section\">\n  <hr>\n</div>\n<div class=\"section\">\n  <p>My second invention about 10 year later, was a freaking star-ship,</p>\n  <p>and it was safe to teenagers fly.</p>\n</div>\n<div class=\"section\">\n  <p>It was a high altitude balloon with a miniature craft that would beam down video and movement of the platform,</p>\n  <p>to a trailer down on the ground where the crew would be experiencing all the motion in near real time.</p>\n</div>\n<div class=\"section\">\n  <p>Once the balloon pops it would be possible to the dismay of the FAA, and evey other three letter agancy,</p>\n  <p>to attempt to stair it, the kids in the trailer on the ground would be getting real feedback to whatever the heck they were trying to do.</p>\n</div>\n<div class=\"section\">\n  <p>Once someone slams the deploy parachute button,</p>\n  <p>the miniature craft would slow its descent, the trailer would shudder.</p>\n</div>\n<div class=\"section\">\n  <hr>\n</div>\n<div class=\"section\">\n  <p>My third invention, from just not too far back was a board game,</p>\n  <p>but a fascinating one.</p>\n</div>\n<div class=\"section\">\n  <p>Amazon sells see through acrylic padlocks, and deadbolts for locksmith training,</p>\n  <p>and I realized that one could create a little game out of them.</p>\n</div>\n<div class=\"section\">\n  <p>Basically the players would have to lock-pick their way through the game,</p>\n  <p>they would each receive a little lock picking kit, which is the real deal.</p>\n</div>\n<div class=\"section\">\n  <p>As a bonus the last door they would have to pick,</p>\n  <p>was the door to their own house.</p>\n</div>\n<div class=\"section\">\n  <p>This would teach the players to find a quality lock,</p>\n  <p>and actually help them in real life.</p>\n</div>\n<div class=\"section\">\n  <hr>\n</div>\n<div class=\"section\">\n  <p>And just now, I am toying with the extremely CPU intensive post processing of photographs,</p>\n  <p>I was just able to bring color to an infrared photo taken in the middle of the night.</p>\n</div>\n<div class=\"section\">\n  <p>There are no practical applications,</p>\n  <p>I am just looking towards astrography, contemplating the milky way.</p>\n</div>\n<div class=\"section\">\n  <p>Toying with a program called <a href=\"https://en.wikipedia.org/wiki/ZeroMQ\">ZeroMQ</a>,</p>\n  <p>it is just meant to send information between programs and commuters,</p>\n  <p>but I can also see that it could control a large array of cameras and I am just wondering what that could mean for slow motion,</p>\n  <p>super resolution, and things like home made supernovae detection software.</p>\n</div>\n<div class=\"section\">\n  <hr>\n</div>\n<div class=\"section\">\n  <p>It is all fun and games, I am hardly programming any of this, and it is all just about as unscientific as it can be,</p>\n  <p>but it does help with day dreams, having a bold idea, and looking into it, teaches something.</p>\n</div>\n<div class=\"section\">\n  <p>This kind of exploratory learning, or self education,</p>\n  <p>if far more powerful than reading textbooks, or listening to lectures.</p>\n</div>\n<div class=\"section\">\n  <hr>\n</div>\n<div class=\"section\">\n  <p>Do not be afraid of imagining interesting things,</p>\n  <p>take to the microscope, infrared and thermal imaging.</p>\n</div>\n<div class=\"section\">\n  <p>I think self education is the only way to make the world a better place,</p>\n  <p>treat school for what it is, and don&apos;t let it stand between you and real knowledge, and fun.</p>\n</div>",
  "bootstrap": "<div class=\"card card-section bg-dark text-warning shadow\">\n  <div class=\"section card-body mb-0 my-2\"><img src=\"/image/poetry-0236-color.jpg\" alt=\"Color\" class=\"w-100\"></div>\n</div>\n<div class=\"card card-section bg-dark text-warning shadow\">\n  <div class=\"section card-body mb-0 my-2\"><img src=\"/image/poetry-0236-ir.jpg\" alt=\"IR\" class=\"w-100\"></div>\n</div>\n<div class=\"card card-section bg-dark text-warning shadow\">\n  <div class=\"section card-body mb-0 my-2\">\n    <div class=\"paragraph card-text card-stanza my-5 text-center\">The distance between Science and Play, between Adventurer and Scientist,</div>\n    <div class=\"paragraph card-text card-stanza my-5 text-center\">approaches zero will approach zero in proportion to just how much fun you are having.</div>\n  </div>\n</div>\n<div class=\"mb-5 section-spacer\">&nbsp;</div>\n<div class=\"card card-section bg-dark text-warning shadow\">\n  <div class=\"section card-body mb-0 my-2\">\n    <div class=\"paragraph card-text card-stanza my-5 text-center\">My first independent invention was a CD based Car MP3 player in 1998,</div>\n    <div class=\"paragraph card-text card-stanza my-5 text-center\">there were many other mp3 player patents, dating many years back, I didn't invent anything new.</div>\n  </div>\n</div>\n<div class=\"mb-5 section-spacer\">&nbsp;</div>\n<div class=\"card card-section bg-dark text-warning shadow\">\n  <div class=\"section card-body mb-0 my-2\">\n    <div class=\"paragraph card-text card-stanza my-5 text-center\">My second invention about 10 year later, was a freaking star-ship,</div>\n    <div class=\"paragraph card-text card-stanza my-5 text-center\">and it was safe to teenagers fly.</div>\n  </div>\n</div>\n<div class=\"card card-section bg-dark text-warning shadow\">\n  <div class=\"section card-body mb-0 my-2\">\n    <div class=\"paragraph card-text card-stanza my-5 text-center\">It was a high altitude balloon with a miniature craft that would beam down video and movement of the platform,</div>\n    <div class=\"paragraph card-text card-stanza my-5 text-center\">to a trailer down on the ground where the crew would be experiencing all the motion in near real time.</div>\n  </div>\n</div>\n<div class=\"card card-section bg-dark text-warning shadow\">\n  <div class=\"section card-body mb-0 my-2\">\n    <div class=\"paragraph card-text card-stanza my-5 text-center\">Once the balloon pops it would be possible to the dismay of the FAA, and evey other three letter agancy,</div>\n    <div class=\"paragraph card-text card-stanza my-5 text-center\">to attempt to stair it, the kids in the trailer on the ground would be getting real feedback to whatever the heck they were trying to do.</div>\n  </div>\n</div>\n<div class=\"card card-section bg-dark text-warning shadow\">\n  <div class=\"section card-body mb-0 my-2\">\n    <div class=\"paragraph card-text card-stanza my-5 text-center\">Once someone slams the deploy parachute button,</div>\n    <div class=\"paragraph card-text card-stanza my-5 text-center\">the miniature craft would slow its descent, the trailer would shudder.</div>\n  </div>\n</div>\n<div class=\"mb-5 section-spacer\">&nbsp;</div>\n<div class=\"card card-section bg-dark text-warning shadow\">\n  <div class=\"section card-body mb-0 my-2\">\n    <div class=\"paragraph card-text card-stanza my-5 text-center\">My third invention, from just not too far back was a board game,</div>\n    <div class=\"paragraph card-text card-stanza my-5 text-center\">but a fascinating one.</div>\n  </div>\n</div>\n<div class=\"card card-section bg-dark text-warning shadow\">\n  <div class=\"section card-body mb-0 my-2\">\n    <div class=\"paragraph card-text card-stanza my-5 text-center\">Amazon sells see through acrylic padlocks, and deadbolts for locksmith training,</div>\n    <div class=\"paragraph card-text card-stanza my-5 text-center\">and I realized that one could create a little game out of them.</div>\n  </div>\n</div>\n<div class=\"card card-section bg-dark text-warning shadow\">\n  <div class=\"section card-body mb-0 my-2\">\n    <div class=\"paragraph card-text card-stanza my-5 text-center\">Basically the players would have to lock-pick their way through the game,</div>\n    <div class=\"paragraph card-text card-stanza my-5 text-center\">they would each receive a little lock picking kit, which is the real deal.</div>\n  </div>\n</div>\n<div class=\"card card-section bg-dark text-warning shadow\">\n  <div class=\"section card-body mb-0 my-2\">\n    <div class=\"paragraph card-text card-stanza my-5 text-center\">As a bonus the last door they would have to pick,</div>\n    <div class=\"paragraph card-text card-stanza my-5 text-center\">was the door to their own house.</div>\n  </div>\n</div>\n<div class=\"card card-section bg-dark text-warning shadow\">\n  <div class=\"section card-body mb-0 my-2\">\n    <div class=\"paragraph card-text card-stanza my-5 text-center\">This would teach the players to find a quality lock,</div>\n    <div class=\"paragraph card-text card-stanza my-5 text-center\">and actually help them in real life.</div>\n  </div>\n</div>\n<div class=\"mb-5 section-spacer\">&nbsp;</div>\n<div class=\"card card-section bg-dark text-warning shadow\">\n  <div class=\"section card-body mb-0 my-2\">\n    <div class=\"paragraph card-text card-stanza my-5 text-center\">And just now, I am toying with the extremely CPU intensive post processing of photographs,</div>\n    <div class=\"paragraph card-text card-stanza my-5 text-center\">I was just able to bring color to an infrared photo taken in the middle of the night.</div>\n  </div>\n</div>\n<div class=\"card card-section bg-dark text-warning shadow\">\n  <div class=\"section card-body mb-0 my-2\">\n    <div class=\"paragraph card-text card-stanza my-5 text-center\">There are no practical applications,</div>\n    <div class=\"paragraph card-text card-stanza my-5 text-center\">I am just looking towards astrography, contemplating the milky way.</div>\n  </div>\n</div>\n<div class=\"card card-section bg-dark text-warning shadow\">\n  <div class=\"section card-body mb-0 my-2\">\n    <div class=\"paragraph card-text card-stanza my-5 text-center\">Toying with a program called <a href=\"https://en.wikipedia.org/wiki/ZeroMQ\">ZeroMQ</a>,</div>\n    <div class=\"paragraph card-text card-stanza my-5 text-center\">it is just meant to send information between programs and commuters,</div>\n    <div class=\"paragraph card-text card-stanza my-5 text-center\">but I can also see that it could control a large array of cameras and I am just wondering what that could mean for slow motion,</div>\n    <div class=\"paragraph card-text card-stanza my-5 text-center\">super resolution, and things like home made supernovae detection software.</div>\n  </div>\n</div>\n<div class=\"mb-5 section-spacer\">&nbsp;</div>\n<div class=\"card card-section bg-dark text-warning shadow\">\n  <div class=\"section card-body mb-0 my-2\">\n    <div class=\"paragraph card-text card-stanza my-5 text-center\">It is all fun and games, I am hardly programming any of this, and it is all just about as unscientific as it can be,</div>\n    <div class=\"paragraph card-text card-stanza my-5 text-center\">but it does help with day dreams, having a bold idea, and looking into it, teaches something.</div>\n  </div>\n</div>\n<div class=\"card card-section bg-dark text-warning shadow\">\n  <div class=\"section card-body mb-0 my-2\">\n    <div class=\"paragraph card-text card-stanza my-5 text-center\">This kind of exploratory learning, or self education,</div>\n    <div class=\"paragraph card-text card-stanza my-5 text-center\">if far more powerful than reading textbooks, or listening to lectures.</div>\n  </div>\n</div>\n<div class=\"mb-5 section-spacer\">&nbsp;</div>\n<div class=\"card card-section bg-dark text-warning shadow\">\n  <div class=\"section card-body mb-0 my-2\">\n    <div class=\"paragraph card-text card-stanza my-5 text-center\">Do not be afraid of imagining interesting things,</div>\n    <div class=\"paragraph card-text card-stanza my-5 text-center\">take to the microscope, infrared and thermal imaging.</div>\n  </div>\n</div>\n<div class=\"card card-section bg-dark text-warning shadow\">\n  <div class=\"section card-body mb-0 my-2\">\n    <div class=\"paragraph card-text card-stanza my-5 text-center\">I think self education is the only way to make the world a better place,</div>\n    <div class=\"paragraph card-text card-stanza my-5 text-center\">treat school for what it is, and don't let it stand between you and real knowledge, and fun.</div>\n  </div>\n</div>",
  "print": "<div class=\"section avoid-break-inside\" style=\"padding-bottom: 2rem;\"><img src=\"/image/poetry-0236-color.jpg\" alt=\"Color\" style=\"width: 50%;\"></div>\n<div class=\"section avoid-break-inside\" style=\"padding-bottom: 2rem;\"><img src=\"/image/poetry-0236-ir.jpg\" alt=\"IR\" style=\"width: 50%;\"></div>\n<div class=\"section avoid-break-inside\" style=\"padding-bottom: 2rem;\">\n  <div class=\"paragraph\">The distance between Science and Play, between Adventurer and Scientist,</div>\n  <div class=\"paragraph\">approaches zero will approach zero in proportion to just how much fun you are having.</div>\n</div>\n<div class=\"section avoid-break-inside\" style=\"padding-bottom: 2rem;\">\n  <br>\n</div>\n<div class=\"section avoid-break-inside\" style=\"padding-bottom: 2rem;\">\n  <div class=\"paragraph\">My first independent invention was a CD based Car MP3 player in 1998,</div>\n  <div class=\"paragraph\">there were many other mp3 player patents, dating many years back, I didn't invent anything new.</div>\n</div>\n<div class=\"section avoid-break-inside\" style=\"padding-bottom: 2rem;\">\n  <br>\n</div>\n<div class=\"section avoid-break-inside\" style=\"padding-bottom: 2rem;\">\n  <div class=\"paragraph\">My second invention about 10 year later, was a freaking star-ship,</div>\n  <div class=\"paragraph\">and it was safe to teenagers fly.</div>\n</div>\n<div class=\"section avoid-break-inside\" style=\"padding-bottom: 2rem;\">\n  <div class=\"paragraph\">It was a high altitude balloon with a miniature craft that would beam down video and movement of the platform,</div>\n  <div class=\"paragraph\">to a trailer down on the ground where the crew would be experiencing all the motion in near real time.</div>\n</div>\n<div class=\"section avoid-break-inside\" style=\"padding-bottom: 2rem;\">\n  <div class=\"paragraph\">Once the balloon pops it would be possible to the dismay of the FAA, and evey other three letter agancy,</div>\n  <div class=\"paragraph\">to attempt to stair it, the kids in the trailer on the ground would be getting real feedback to whatever the heck they were trying to do.</div>\n</div>\n<div class=\"section avoid-break-inside\" style=\"padding-bottom: 2rem;\">\n  <div class=\"paragraph\">Once someone slams the deploy parachute button,</div>\n  <div class=\"paragraph\">the miniature craft would slow its descent, the trailer would shudder.</div>\n</div>\n<div class=\"section avoid-break-inside\" style=\"padding-bottom: 2rem;\">\n  <br>\n</div>\n<div class=\"section avoid-break-inside\" style=\"padding-bottom: 2rem;\">\n  <div class=\"paragraph\">My third invention, from just not too far back was a board game,</div>\n  <div class=\"paragraph\">but a fascinating one.</div>\n</div>\n<div class=\"section avoid-break-inside\" style=\"padding-bottom: 2rem;\">\n  <div class=\"paragraph\">Amazon sells see through acrylic padlocks, and deadbolts for locksmith training,</div>\n  <div class=\"paragraph\">and I realized that one could create a little game out of them.</div>\n</div>\n<div class=\"section avoid-break-inside\" style=\"padding-bottom: 2rem;\">\n  <div class=\"paragraph\">Basically the players would have to lock-pick their way through the game,</div>\n  <div class=\"paragraph\">they would each receive a little lock picking kit, which is the real deal.</div>\n</div>\n<div class=\"section avoid-break-inside\" style=\"padding-bottom: 2rem;\">\n  <div class=\"paragraph\">As a bonus the last door they would have to pick,</div>\n  <div class=\"paragraph\">was the door to their own house.</div>\n</div>\n<div class=\"section avoid-break-inside\" style=\"padding-bottom: 2rem;\">\n  <div class=\"paragraph\">This would teach the players to find a quality lock,</div>\n  <div class=\"paragraph\">and actually help them in real life.</div>\n</div>\n<div class=\"section avoid-break-inside\" style=\"padding-bottom: 2rem;\">\n  <br>\n</div>\n<div class=\"section avoid-break-inside\" style=\"padding-bottom: 2rem;\">\n  <div class=\"paragraph\">And just now, I am toying with the extremely CPU intensive post processing of photographs,</div>\n  <div class=\"paragraph\">I was just able to bring color to an infrared photo taken in the middle of the night.</div>\n</div>\n<div class=\"section avoid-break-inside\" style=\"padding-bottom: 2rem;\">\n  <div class=\"paragraph\">There are no practical applications,</div>\n  <div class=\"paragraph\">I am just looking towards astrography, contemplating the milky way.</div>\n</div>\n<div class=\"section avoid-break-inside\" style=\"padding-bottom: 2rem;\">\n  <div class=\"paragraph\">Toying with a program called <span>ZeroMQ<sup>[1]</sup></span>,</div>\n  <div class=\"paragraph\">it is just meant to send information between programs and commuters,</div>\n  <div class=\"paragraph\">but I can also see that it could control a large array of cameras and I am just wondering what that could mean for slow motion,</div>\n  <div class=\"paragraph\">super resolution, and things like home made supernovae detection software.</div>\n</div>\n<div class=\"section avoid-break-inside\" style=\"padding-bottom: 2rem;\">\n  <br>\n</div>\n<div class=\"section avoid-break-inside\" style=\"padding-bottom: 2rem;\">\n  <div class=\"paragraph\">It is all fun and games, I am hardly programming any of this, and it is all just about as unscientific as it can be,</div>\n  <div class=\"paragraph\">but it does help with day dreams, having a bold idea, and looking into it, teaches something.</div>\n</div>\n<div class=\"section avoid-break-inside\" style=\"padding-bottom: 2rem;\">\n  <div class=\"paragraph\">This kind of exploratory learning, or self education,</div>\n  <div class=\"paragraph\">if far more powerful than reading textbooks, or listening to lectures.</div>\n</div>\n<div class=\"section avoid-break-inside\" style=\"padding-bottom: 2rem;\">\n  <br>\n</div>\n<div class=\"section avoid-break-inside\" style=\"padding-bottom: 2rem;\">\n  <div class=\"paragraph\">Do not be afraid of imagining interesting things,</div>\n  <div class=\"paragraph\">take to the microscope, infrared and thermal imaging.</div>\n</div>\n<div class=\"section avoid-break-inside\" style=\"padding-bottom: 2rem;\">\n  <div class=\"paragraph\">I think self education is the only way to make the world a better place,</div>\n  <div class=\"paragraph\">treat school for what it is, and don't let it stand between you and real knowledge, and fun.</div>\n</div>\n<div class=\"break-after\">&nbsp;</div>\n<div>\n  <div class=\"section\" style=\"padding-bottom: 1rem;\">References</div>\n  <div>[1]: https://en.wikipedia.org/wiki/ZeroMQ</div>\n</div>",
  "text": "The distance between Science and Play, between Adventurer and Scientist,\napproaches zero will approach zero in proportion to just how much fun you are having.\n\nMy first independent invention was a CD based Car MP3 player in 1998,\nthere were many other mp3 player patents, dating many years back, I didn't invent anything new.\n\nMy second invention about 10 year later, was a freaking star-ship,\nand it was safe to teenagers fly.\nIt was a high altitude balloon with a miniature craft that would beam down video and movement of the platform,\nto a trailer down on the ground where the crew would be experiencing all the motion in near real time.\nOnce the balloon pops it would be possible to the dismay of the FAA, and evey other three letter agancy,\nto attempt to stair it, the kids in the trailer on the ground would be getting real feedback to whatever the heck they were trying to do.\nOnce someone slams the deploy parachute button,\nthe miniature craft would slow its descent, the trailer would shudder.\n\nMy third invention, from just not too far back was a board game,\nbut a fascinating one.\nAmazon sells see through acrylic padlocks, and deadbolts for locksmith training,\nand I realized that one could create a little game out of them.\nBasically the players would have to lock-pick their way through the game,\nthey would each receive a little lock picking kit, which is the real deal.\nAs a bonus the last door they would have to pick,\nwas the door to their own house.\nThis would teach the players to find a quality lock,\nand actually help them in real life.\n\nAnd just now, I am toying with the extremely CPU intensive post processing of photographs,\nI was just able to bring color to an infrared photo taken in the middle of the night.\nThere are no practical applications,\nI am just looking towards astrography, contemplating the milky way.\nToying with a program called ZeroMQ[1],\nit is just meant to send information between programs and commuters,\nbut I can also see that it could control a large array of cameras and I am just wondering what that could mean for slow motion,\nsuper resolution, and things like home made supernovae detection software.\n\nIt is all fun and games, I am hardly programming any of this, and it is all just about as unscientific as it can be,\nbut it does help with day dreams, having a bold idea, and looking into it, teaches something.\nThis kind of exploratory learning, or self education,\nif far more powerful than reading textbooks, or listening to lectures.\n\nDo not be afraid of imagining interesting things,\ntake to the microscope, infrared and thermal imaging.\nI think self education is the only way to make the world a better place,\ntreat school for what it is, and don't let it stand between you and real knowledge, and fun.\n \nReferences\n[1]: https://en.wikipedia.org/wiki/ZeroMQ",
  "images": [
    {
      "title": "Color",
      "url": "poetry-0236-color.jpg"
    },
    {
      "title": "IR",
      "url": "poetry-0236-ir.jpg"
    }
  ],
  "links": [
    {
      "title": "ZeroMQ",
      "url": "https://en.wikipedia.org/wiki/ZeroMQ",
      "hostname": "en.wikipedia.org"
    }
  ]
}