{
  "id": "furkies-purrkies-poetry-0786",
  "title": "Never Pugnacious, Always Gracious",
  "date": "2022-04-25T17:51:20.702Z",
  "image": "poetry-0786-illustration.jpg",
  "artwork": "https://catpea.com/",
  "artworks": [
    "https://www.reddit.com/r/redditgetsdrawn/comments/uawo78/my_dog/",
    "https://en.wikipedia.org/wiki/File:Elements_of_a_Light-Cavalry_Armor_MET_DT780.jpg",
    "https://en.wikipedia.org/wiki/File:Dresden-Zwinger-Armoury-Armor.02.JPG",
    "https://pixabay.com/photos/white-pony-white-tiny-horse-ungulate-951772/",
    "https://unsplash.com/photos/cPiXO2BSGZE"
  ],
  "audio": "poetry-0786.mp3",
  "guid": "57ec4f5b-95ca-4923-974b-8e992afa3a99"
}
