{
  "title": "Art Of Art",
  "date": "2021-06-03T02:53:50.401Z",
  "image": "poetry-0459-illustration.jpg",
  "audio": "poetry-0459.mp3",
  "artwork": "https://unsplash.com/photos/cwTZxq13Uos",
  "id": "furkies-purrkies-poetry-0459",
  "attachments": {},
  "guid": "08cacd11-c683-4e01-bf1a-c4cd3e80c51a"
}
