{
  "name": "furkies-purrkies-poetry-0178",
  "title": "Greatness Is Your Right",
  "date": "2020-08-25T23:19:38.990Z",
  "image": "poetry-0178-illustration.jpg",
  "audio": "poetry-0178.mp3",
  "id": "furkies-purrkies-poetry-0178",
  "attachments": {},
  "guid": "5626b6ef-7058-4a1d-b36a-f5b01adebe66",
  "html": "<div class=\"section\">\n  <p>It will bring light wherever there is darkness,</p>\n  <p>it will light up the City Streets and help our vision.</p>\n</div>\n<div class=\"section\">\n  <p>It will bring us words when we are tired,</p>\n  <p>it will bring us strength when we can&#x2019;t go no more.</p>\n</div>\n<div class=\"section\">\n  <p>It is good for a million things,</p>\n  <p>and it does make us Unbreakable.</p>\n</div>\n<div class=\"section\">\n  <p>There are so many ways to inherit wisdom.</p>\n  <p>But, the best we can do, in chaos, and noise, and haste, and poverty, is books.</p>\n</div>\n<div class=\"section\">\n  <p>The stories of Wisdom in Lectures and Audio Books,</p>\n  <p>and the Super Humanity they bring to us.</p>\n</div>\n<div class=\"section\">\n  <hr>\n</div>\n<div class=\"section\">\n  <p>To the Cries of the Philosophers,</p>\n  <p>the schools have become heartless machines.</p>\n</div>\n<div class=\"section\">\n  <p>Processing plants, pushing humans along,</p>\n  <p>to more poverty, more stress, more sacrifice, more achy bones.</p>\n</div>\n<div class=\"section\">\n  <p>Just, say, no, because you are not that simple, and your life is too precious,</p>\n  <p>just say no to the ordinary, to the plain, to the push along, play along, force fed mornings.</p>\n</div>\n<div class=\"section\">\n  <hr>\n</div>\n<div class=\"section\">\n  <p>Go to the library, find a way to find all the Audio Books that will move you,</p>\n  <p>go to the beach and just listen how each and every great being rejected that ordinary life.</p>\n</div>\n<div class=\"section\">\n  <p>Oh, it cost them all the worthless grades, and all the office space and windows one could ever wish for,</p>\n  <p>but it granted them Freedom, Greatness of Mind, Vastness of Oceans, and Content of Character.</p>\n</div>\n<div class=\"section\">\n  <p>Please, break away from the ordinary life,</p>\n  <p>it is just a play along, live along fantasy meant to lull you to sleep.</p>\n</div>\n<div class=\"section\">\n  <hr>\n</div>\n<div class=\"section\">\n  <p>You are meant to be a Force of Nature,</p>\n  <p>a Wave of Change, of Aspiration and Inspiration.</p>\n</div>\n<div class=\"section\">\n  <p>Do not go quietly into old age, do not let years and decades pass you by, they only move one way,</p>\n  <p>take to books and adventures, sleep by lakes, travel by boat, by bicycle, swim and distance run.</p>\n</div>\n<div class=\"section\">\n  <p>Do not let a moment go by, tick by irreplaceable tock, sleep in the storm and awake to thunder,</p>\n  <p>may each and every irreplaceable moment of your life become a shiny little precious gemstone.</p>\n</div>\n<div class=\"section\">\n  <p>You must become a great being,</p>\n  <p>do not let the ordinary life trick you, Greatness it is your Right!</p>\n</div>",
  "bootstrap": "<div class=\"card card-section bg-dark text-warning shadow\">\n  <div class=\"section card-body mb-0 my-2\">\n    <div class=\"paragraph card-text card-stanza my-5 text-center\">It will bring light wherever there is darkness,</div>\n    <div class=\"paragraph card-text card-stanza my-5 text-center\">it will light up the City Streets and help our vision.</div>\n  </div>\n</div>\n<div class=\"card card-section bg-dark text-warning shadow\">\n  <div class=\"section card-body mb-0 my-2\">\n    <div class=\"paragraph card-text card-stanza my-5 text-center\">It will bring us words when we are tired,</div>\n    <div class=\"paragraph card-text card-stanza my-5 text-center\">it will bring us strength when we can’t go no more.</div>\n  </div>\n</div>\n<div class=\"card card-section bg-dark text-warning shadow\">\n  <div class=\"section card-body mb-0 my-2\">\n    <div class=\"paragraph card-text card-stanza my-5 text-center\">It is good for a million things,</div>\n    <div class=\"paragraph card-text card-stanza my-5 text-center\">and it does make us Unbreakable.</div>\n  </div>\n</div>\n<div class=\"card card-section bg-dark text-warning shadow\">\n  <div class=\"section card-body mb-0 my-2\">\n    <div class=\"paragraph card-text card-stanza my-5 text-center\">There are so many ways to inherit wisdom.</div>\n    <div class=\"paragraph card-text card-stanza my-5 text-center\">But, the best we can do, in chaos, and noise, and haste, and poverty, is books.</div>\n  </div>\n</div>\n<div class=\"card card-section bg-dark text-warning shadow\">\n  <div class=\"section card-body mb-0 my-2\">\n    <div class=\"paragraph card-text card-stanza my-5 text-center\">The stories of Wisdom in Lectures and Audio Books,</div>\n    <div class=\"paragraph card-text card-stanza my-5 text-center\">and the Super Humanity they bring to us.</div>\n  </div>\n</div>\n<div class=\"mb-5 section-spacer\">&nbsp;</div>\n<div class=\"card card-section bg-dark text-warning shadow\">\n  <div class=\"section card-body mb-0 my-2\">\n    <div class=\"paragraph card-text card-stanza my-5 text-center\">To the Cries of the Philosophers,</div>\n    <div class=\"paragraph card-text card-stanza my-5 text-center\">the schools have become heartless machines.</div>\n  </div>\n</div>\n<div class=\"card card-section bg-dark text-warning shadow\">\n  <div class=\"section card-body mb-0 my-2\">\n    <div class=\"paragraph card-text card-stanza my-5 text-center\">Processing plants, pushing humans along,</div>\n    <div class=\"paragraph card-text card-stanza my-5 text-center\">to more poverty, more stress, more sacrifice, more achy bones.</div>\n  </div>\n</div>\n<div class=\"card card-section bg-dark text-warning shadow\">\n  <div class=\"section card-body mb-0 my-2\">\n    <div class=\"paragraph card-text card-stanza my-5 text-center\">Just, say, no, because you are not that simple, and your life is too precious,</div>\n    <div class=\"paragraph card-text card-stanza my-5 text-center\">just say no to the ordinary, to the plain, to the push along, play along, force fed mornings.</div>\n  </div>\n</div>\n<div class=\"mb-5 section-spacer\">&nbsp;</div>\n<div class=\"card card-section bg-dark text-warning shadow\">\n  <div class=\"section card-body mb-0 my-2\">\n    <div class=\"paragraph card-text card-stanza my-5 text-center\">Go to the library, find a way to find all the Audio Books that will move you,</div>\n    <div class=\"paragraph card-text card-stanza my-5 text-center\">go to the beach and just listen how each and every great being rejected that ordinary life.</div>\n  </div>\n</div>\n<div class=\"card card-section bg-dark text-warning shadow\">\n  <div class=\"section card-body mb-0 my-2\">\n    <div class=\"paragraph card-text card-stanza my-5 text-center\">Oh, it cost them all the worthless grades, and all the office space and windows one could ever wish for,</div>\n    <div class=\"paragraph card-text card-stanza my-5 text-center\">but it granted them Freedom, Greatness of Mind, Vastness of Oceans, and Content of Character.</div>\n  </div>\n</div>\n<div class=\"card card-section bg-dark text-warning shadow\">\n  <div class=\"section card-body mb-0 my-2\">\n    <div class=\"paragraph card-text card-stanza my-5 text-center\">Please, break away from the ordinary life,</div>\n    <div class=\"paragraph card-text card-stanza my-5 text-center\">it is just a play along, live along fantasy meant to lull you to sleep.</div>\n  </div>\n</div>\n<div class=\"mb-5 section-spacer\">&nbsp;</div>\n<div class=\"card card-section bg-dark text-warning shadow\">\n  <div class=\"section card-body mb-0 my-2\">\n    <div class=\"paragraph card-text card-stanza my-5 text-center\">You are meant to be a Force of Nature,</div>\n    <div class=\"paragraph card-text card-stanza my-5 text-center\">a Wave of Change, of Aspiration and Inspiration.</div>\n  </div>\n</div>\n<div class=\"card card-section bg-dark text-warning shadow\">\n  <div class=\"section card-body mb-0 my-2\">\n    <div class=\"paragraph card-text card-stanza my-5 text-center\">Do not go quietly into old age, do not let years and decades pass you by, they only move one way,</div>\n    <div class=\"paragraph card-text card-stanza my-5 text-center\">take to books and adventures, sleep by lakes, travel by boat, by bicycle, swim and distance run.</div>\n  </div>\n</div>\n<div class=\"card card-section bg-dark text-warning shadow\">\n  <div class=\"section card-body mb-0 my-2\">\n    <div class=\"paragraph card-text card-stanza my-5 text-center\">Do not let a moment go by, tick by irreplaceable tock, sleep in the storm and awake to thunder,</div>\n    <div class=\"paragraph card-text card-stanza my-5 text-center\">may each and every irreplaceable moment of your life become a shiny little precious gemstone.</div>\n  </div>\n</div>\n<div class=\"card card-section bg-dark text-warning shadow\">\n  <div class=\"section card-body mb-0 my-2\">\n    <div class=\"paragraph card-text card-stanza my-5 text-center\">You must become a great being,</div>\n    <div class=\"paragraph card-text card-stanza my-5 text-center\">do not let the ordinary life trick you, Greatness it is your Right!</div>\n  </div>\n</div>",
  "print": "<div class=\"section avoid-break-inside\" style=\"padding-bottom: 2rem;\">\n  <div class=\"paragraph\">It will bring light wherever there is darkness,</div>\n  <div class=\"paragraph\">it will light up the City Streets and help our vision.</div>\n</div>\n<div class=\"section avoid-break-inside\" style=\"padding-bottom: 2rem;\">\n  <div class=\"paragraph\">It will bring us words when we are tired,</div>\n  <div class=\"paragraph\">it will bring us strength when we can’t go no more.</div>\n</div>\n<div class=\"section avoid-break-inside\" style=\"padding-bottom: 2rem;\">\n  <div class=\"paragraph\">It is good for a million things,</div>\n  <div class=\"paragraph\">and it does make us Unbreakable.</div>\n</div>\n<div class=\"section avoid-break-inside\" style=\"padding-bottom: 2rem;\">\n  <div class=\"paragraph\">There are so many ways to inherit wisdom.</div>\n  <div class=\"paragraph\">But, the best we can do, in chaos, and noise, and haste, and poverty, is books.</div>\n</div>\n<div class=\"section avoid-break-inside\" style=\"padding-bottom: 2rem;\">\n  <div class=\"paragraph\">The stories of Wisdom in Lectures and Audio Books,</div>\n  <div class=\"paragraph\">and the Super Humanity they bring to us.</div>\n</div>\n<div class=\"section avoid-break-inside\" style=\"padding-bottom: 2rem;\">\n  <br>\n</div>\n<div class=\"section avoid-break-inside\" style=\"padding-bottom: 2rem;\">\n  <div class=\"paragraph\">To the Cries of the Philosophers,</div>\n  <div class=\"paragraph\">the schools have become heartless machines.</div>\n</div>\n<div class=\"section avoid-break-inside\" style=\"padding-bottom: 2rem;\">\n  <div class=\"paragraph\">Processing plants, pushing humans along,</div>\n  <div class=\"paragraph\">to more poverty, more stress, more sacrifice, more achy bones.</div>\n</div>\n<div class=\"section avoid-break-inside\" style=\"padding-bottom: 2rem;\">\n  <div class=\"paragraph\">Just, say, no, because you are not that simple, and your life is too precious,</div>\n  <div class=\"paragraph\">just say no to the ordinary, to the plain, to the push along, play along, force fed mornings.</div>\n</div>\n<div class=\"section avoid-break-inside\" style=\"padding-bottom: 2rem;\">\n  <br>\n</div>\n<div class=\"section avoid-break-inside\" style=\"padding-bottom: 2rem;\">\n  <div class=\"paragraph\">Go to the library, find a way to find all the Audio Books that will move you,</div>\n  <div class=\"paragraph\">go to the beach and just listen how each and every great being rejected that ordinary life.</div>\n</div>\n<div class=\"section avoid-break-inside\" style=\"padding-bottom: 2rem;\">\n  <div class=\"paragraph\">Oh, it cost them all the worthless grades, and all the office space and windows one could ever wish for,</div>\n  <div class=\"paragraph\">but it granted them Freedom, Greatness of Mind, Vastness of Oceans, and Content of Character.</div>\n</div>\n<div class=\"section avoid-break-inside\" style=\"padding-bottom: 2rem;\">\n  <div class=\"paragraph\">Please, break away from the ordinary life,</div>\n  <div class=\"paragraph\">it is just a play along, live along fantasy meant to lull you to sleep.</div>\n</div>\n<div class=\"section avoid-break-inside\" style=\"padding-bottom: 2rem;\">\n  <br>\n</div>\n<div class=\"section avoid-break-inside\" style=\"padding-bottom: 2rem;\">\n  <div class=\"paragraph\">You are meant to be a Force of Nature,</div>\n  <div class=\"paragraph\">a Wave of Change, of Aspiration and Inspiration.</div>\n</div>\n<div class=\"section avoid-break-inside\" style=\"padding-bottom: 2rem;\">\n  <div class=\"paragraph\">Do not go quietly into old age, do not let years and decades pass you by, they only move one way,</div>\n  <div class=\"paragraph\">take to books and adventures, sleep by lakes, travel by boat, by bicycle, swim and distance run.</div>\n</div>\n<div class=\"section avoid-break-inside\" style=\"padding-bottom: 2rem;\">\n  <div class=\"paragraph\">Do not let a moment go by, tick by irreplaceable tock, sleep in the storm and awake to thunder,</div>\n  <div class=\"paragraph\">may each and every irreplaceable moment of your life become a shiny little precious gemstone.</div>\n</div>\n<div class=\"section avoid-break-inside\" style=\"padding-bottom: 2rem;\">\n  <div class=\"paragraph\">You must become a great being,</div>\n  <div class=\"paragraph\">do not let the ordinary life trick you, Greatness it is your Right!</div>\n</div>",
  "text": "It will bring light wherever there is darkness,\nit will light up the City Streets and help our vision.\nIt will bring us words when we are tired,\nit will bring us strength when we can’t go no more.\nIt is good for a million things,\nand it does make us Unbreakable.\nThere are so many ways to inherit wisdom.\nBut, the best we can do, in chaos, and noise, and haste, and poverty, is books.\nThe stories of Wisdom in Lectures and Audio Books,\nand the Super Humanity they bring to us.\n\nTo the Cries of the Philosophers,\nthe schools have become heartless machines.\nProcessing plants, pushing humans along,\nto more poverty, more stress, more sacrifice, more achy bones.\nJust, say, no, because you are not that simple, and your life is too precious,\njust say no to the ordinary, to the plain, to the push along, play along, force fed mornings.\n\nGo to the library, find a way to find all the Audio Books that will move you,\ngo to the beach and just listen how each and every great being rejected that ordinary life.\nOh, it cost them all the worthless grades, and all the office space and windows one could ever wish for,\nbut it granted them Freedom, Greatness of Mind, Vastness of Oceans, and Content of Character.\nPlease, break away from the ordinary life,\nit is just a play along, live along fantasy meant to lull you to sleep.\n\nYou are meant to be a Force of Nature,\na Wave of Change, of Aspiration and Inspiration.\nDo not go quietly into old age, do not let years and decades pass you by, they only move one way,\ntake to books and adventures, sleep by lakes, travel by boat, by bicycle, swim and distance run.\nDo not let a moment go by, tick by irreplaceable tock, sleep in the storm and awake to thunder,\nmay each and every irreplaceable moment of your life become a shiny little precious gemstone.\nYou must become a great being,\ndo not let the ordinary life trick you, Greatness it is your Right!",
  "images": [],
  "links": []
}