{
  "name": "furkies-purrkies-poetry-0358",
  "title": "Real Education Is Everywhere",
  "date": "2021-02-21T22:49:24.409Z",
  "image": "poetry-0358-illustration.jpg",
  "audio": "poetry-0358.mp3",
  "artwork": "https://unsplash.com/photos/eAXpbb4vzKU",
  "id": "furkies-purrkies-poetry-0358",
  "attachments": {},
  "guid": "3548832c-20e4-4ec3-9534-4bd3f27435b8",
  "html": "<div class=\"section\">\n  <p>The worst thing about schools being bad for us,</p>\n  <p>is how amazing getting a real education is.</p>\n</div>\n\n<div class=\"section\">\n  <hr>\n</div>\n\n<div class=\"section\">\n  <p>Above all, a real education will take you through,</p>\n  <p>a series of small businesses that will help you learn about moneymaking.</p>\n</div>\n\n<div class=\"section\">\n  <p>It ends poverty, fears of losing a job,</p>\n  <p>or losing a little home, or working in a cubicle.</p>\n</div>\n\n<div class=\"section\">\n  <hr>\n</div>\n\n<div class=\"section\">\n  <p>Real education teaches you real things,</p>\n  <p>and real things are pretty useful in the real world.</p>\n</div>\n\n<div class=\"section\">\n  <p>Real education begins with you,</p>\n  <p>what you like, where you are going, and where you have already been.</p>\n</div>\n\n<div class=\"section\">\n  <hr>\n</div>\n\n<div class=\"section\">\n  <p>You read books that touch your heart,</p>\n  <p>you listen to music that moves you.</p>\n</div>\n\n<div class=\"section\">\n  <p>You do things that are connected,</p>\n  <p>to you, to your future, to your knowledge.</p>\n</div>\n\n<div class=\"section\">\n  <hr>\n</div>\n\n<div class=\"section\">\n  <p>You don&apos;t <a href=\"https://www.youtube.com/watch?v=D_O6pbT7Ovw\">practice photography</a>,</p>\n  <p>for some undefined reason.</p>\n</div>\n\n<div class=\"section\">\n  <p>You have a need to take a photo,</p>\n  <p>to learn the power of light and darkness, and the <a href=\"https://www.youtube.com/watch?v=iSj5IQ_1gbc\">magic of focal length</a>.</p>\n</div>\n\n<div class=\"section\">\n  <p>So that you can begin your portrait drawings,</p>\n  <p>by projecting that photo on a large paper sheet and tracing it.</p>\n</div>\n\n<div class=\"section\">\n  <p>You will learn photo editing in the process,</p>\n  <p>as you fiddle with <a href=\"https://www.youtube.com/watch?v=x6pXJ7Ijir0\">GIMP</a> to trace edges, find mid-tones, and make your portrait perfect.</p>\n</div>\n\n<div class=\"section\">\n  <p>By the time you sit down to your first oil paining,</p>\n  <p>your photography and portrait drawings are going to be perfect.</p>\n</div>\n\n<div class=\"section\">\n  <hr>\n</div>\n\n<div class=\"section\">\n  <p>Music, will accompany your studies,</p>\n  <p>and it won&apos;t be too long before you will <a href=\"https://www.youtube.com/watch?v=0sRvkaxh8EU\">begin composing your own music</a>.</p>\n</div>\n\n<div class=\"section\">\n  <p>You will discover some of your call to music,</p>\n  <p>when you paint, it just make sense that you should learn from the greats and make your own.</p>\n</div>\n\n<div class=\"section\">\n  <p>Programs like <a href=\"https://www.youtube.com/watch?v=3qfa9hGJzoY\">LMMS</a> take care of all the boring parts,</p>\n  <p>and let you sit down to compose chords and melodies.</p>\n</div>\n\n<div class=\"section\">\n  <p>Whether you take to dance music or begin composing for an impossibly large orchestra,</p>\n  <p>you will discover another call.</p>\n</div>\n\n<div class=\"section\">\n  <p>A call to automation,</p>\n  <p>a call to programming.</p>\n</div>\n\n<div class=\"section\">\n  <hr>\n</div>\n\n<div class=\"section\">\n  <p>Software development is very easy,</p>\n  <p>people just make it sound complicated.</p>\n</div>\n\n<div class=\"section\">\n  <p><a href=\"https://www.youtube.com/watch?v=BMGixkvJ-6w\">Learn just a tiny little bit about Linux</a>,</p>\n  <p>and <a href=\"https://www.youtube.com/watch?v=E2h2ECEiTo4\">begin building your own commands</a>.</p>\n</div>\n\n<div class=\"section\">\n  <p>Learn how data can be efficiently streamed between programs,</p>\n  <p>chunk by chunk without needing to transfer the whole data-set.</p>\n</div>\n\n<div class=\"section\">\n  <p>And take to using the <a href=\"https://www.youtube.com/watch?v=l20MBBFZAmA\">Event Emitter</a> or Streams in your programs,</p>\n  <p>so that all components can communicate, and stream as well.</p>\n</div>\n\n<div class=\"section\">\n  <hr>\n</div>\n\n<div class=\"section\">\n  <p>Programming will help you <a href=\"https://www.youtube.com/watch?v=8j0UDiN7my4\">automate art</a>,</p>\n  <p>it will help you compose endless music.</p>\n</div>\n\n<div class=\"section\">\n  <p>Where business is concerned, it is a tool that eliminates the need for warehouses,</p>\n  <p>and keeps your upfront investment at zero.</p>\n</div>\n\n<div class=\"section\">\n  <p>Art, music and product generation,</p>\n  <p>will call to mathematics.</p>\n</div>\n\n<div class=\"section\">\n  <p>And as you can imagine by now,</p>\n  <p><a href=\"https://github.com/Jam3/math-as-code\">math is pretty simple</a>.</p>\n</div>\n\n<div class=\"section\">\n  <p>The biggest challenge in mathematics is finding a use for it,</p>\n  <p>but you already have one, Generative Music and Art, maybe games, perhaps with Pixel Art?</p>\n</div>\n\n<div class=\"section\">\n  <hr>\n</div>\n\n<div class=\"section\">\n  <p>As you carry on, <a href=\"https://www.youtube.com/watch?v=mbbdTTm2wUA\">it is impossible to resist narrated non-fiction books</a>,</p>\n  <p>and you will no doubt <a href=\"https://www.youtube.com/watch?v=S5Q_Cr-4iXc\">fall in love with science</a> by going over the <a href=\"https://www.youtube.com/watch?v=my8hgroUKZ0\">science popularizer books</a>.</p>\n</div>\n\n<div class=\"section\">\n  <p>From here even the sky is not a limit,</p>\n  <p>one day you maybe collecting micro-meteorites and studying microbiology, and the next day tending to your greenhouses and electronics.</p>\n</div>\n\n<div class=\"section\">\n  <p>The more your work takes you outside,</p>\n  <p>the more you will find it useful to bring electronics along with you.</p>\n</div>\n\n<div class=\"section\">\n  <p>Here you&apos;ll find yourself soldering <a href=\"https://www.youtube.com/watch?v=xiR14tSfc-U&amp;list=PLPK2l9Knytg67nkvpnnl81ossAHfOgmqU\">single board computers</a> and sensors,</p>\n  <p>programming relays and maybe controlling robots and drones.</p>\n</div>\n\n<div class=\"section\">\n  <hr>\n</div>\n\n\n<div class=\"section\">\n  <p>The more you learn the harder it is to predict what will call to you,</p>\n  <p>Philosophy and Psychology, Education and Mathematics, Engineering and Entrepreneurship, Leadership and Wisdom.</p>\n</div>\n\n<div class=\"section\">\n  <p>But eventually you will wish to share what you know, to help the world grow a little bit,</p>\n  <p>and that is almost certainly about creating inspirational Audio Books and Books.</p>\n</div>\n\n<div class=\"section\">\n  <p>And if you ever need proof of exceptional ability your Portfolio, Experiments, Adventures and Videos,</p>\n  <p>will speak more than words.</p>\n</div>\n\n<div class=\"section\">\n  <p><a href=\"https://www.youtube.com/watch?v=17fbxRQgMlU\">Real education</a>,</p>\n  <p>is found in all the real things we do.</p>\n</div>",
  "bootstrap": "<div class=\"card card-section bg-dark text-warning shadow\">\n  <div class=\"section card-body mb-0 my-2\">\n    <div class=\"paragraph card-text card-stanza my-5 text-center\">The worst thing about schools being bad for us,</div>\n    <div class=\"paragraph card-text card-stanza my-5 text-center\">is how amazing getting a real education is.</div>\n  </div>\n</div>\n<div class=\"mb-5 section-spacer\">&nbsp;</div>\n<div class=\"card card-section bg-dark text-warning shadow\">\n  <div class=\"section card-body mb-0 my-2\">\n    <div class=\"paragraph card-text card-stanza my-5 text-center\">Above all, a real education will take you through,</div>\n    <div class=\"paragraph card-text card-stanza my-5 text-center\">a series of small businesses that will help you learn about moneymaking.</div>\n  </div>\n</div>\n<div class=\"card card-section bg-dark text-warning shadow\">\n  <div class=\"section card-body mb-0 my-2\">\n    <div class=\"paragraph card-text card-stanza my-5 text-center\">It ends poverty, fears of losing a job,</div>\n    <div class=\"paragraph card-text card-stanza my-5 text-center\">or losing a little home, or working in a cubicle.</div>\n  </div>\n</div>\n<div class=\"mb-5 section-spacer\">&nbsp;</div>\n<div class=\"card card-section bg-dark text-warning shadow\">\n  <div class=\"section card-body mb-0 my-2\">\n    <div class=\"paragraph card-text card-stanza my-5 text-center\">Real education teaches you real things,</div>\n    <div class=\"paragraph card-text card-stanza my-5 text-center\">and real things are pretty useful in the real world.</div>\n  </div>\n</div>\n<div class=\"card card-section bg-dark text-warning shadow\">\n  <div class=\"section card-body mb-0 my-2\">\n    <div class=\"paragraph card-text card-stanza my-5 text-center\">Real education begins with you,</div>\n    <div class=\"paragraph card-text card-stanza my-5 text-center\">what you like, where you are going, and where you have already been.</div>\n  </div>\n</div>\n<div class=\"mb-5 section-spacer\">&nbsp;</div>\n<div class=\"card card-section bg-dark text-warning shadow\">\n  <div class=\"section card-body mb-0 my-2\">\n    <div class=\"paragraph card-text card-stanza my-5 text-center\">You read books that touch your heart,</div>\n    <div class=\"paragraph card-text card-stanza my-5 text-center\">you listen to music that moves you.</div>\n  </div>\n</div>\n<div class=\"card card-section bg-dark text-warning shadow\">\n  <div class=\"section card-body mb-0 my-2\">\n    <div class=\"paragraph card-text card-stanza my-5 text-center\">You do things that are connected,</div>\n    <div class=\"paragraph card-text card-stanza my-5 text-center\">to you, to your future, to your knowledge.</div>\n  </div>\n</div>\n<div class=\"mb-5 section-spacer\">&nbsp;</div>\n<div class=\"card card-section bg-dark text-warning shadow\">\n  <div class=\"section card-body mb-0 my-2\">\n    <div class=\"paragraph card-text card-stanza my-5 text-center\">You don't <a href=\"https://www.youtube.com/watch?v=D_O6pbT7Ovw\">practice photography</a>,</div>\n    <div class=\"paragraph card-text card-stanza my-5 text-center\">for some undefined reason.</div>\n  </div>\n</div>\n<div class=\"card card-section bg-dark text-warning shadow\">\n  <div class=\"section card-body mb-0 my-2\">\n    <div class=\"paragraph card-text card-stanza my-5 text-center\">You have a need to take a photo,</div>\n    <div class=\"paragraph card-text card-stanza my-5 text-center\">to learn the power of light and darkness, and the <a href=\"https://www.youtube.com/watch?v=iSj5IQ_1gbc\">magic of focal length</a>.</div>\n  </div>\n</div>\n<div class=\"card card-section bg-dark text-warning shadow\">\n  <div class=\"section card-body mb-0 my-2\">\n    <div class=\"paragraph card-text card-stanza my-5 text-center\">So that you can begin your portrait drawings,</div>\n    <div class=\"paragraph card-text card-stanza my-5 text-center\">by projecting that photo on a large paper sheet and tracing it.</div>\n  </div>\n</div>\n<div class=\"card card-section bg-dark text-warning shadow\">\n  <div class=\"section card-body mb-0 my-2\">\n    <div class=\"paragraph card-text card-stanza my-5 text-center\">You will learn photo editing in the process,</div>\n    <div class=\"paragraph card-text card-stanza my-5 text-center\">as you fiddle with <a href=\"https://www.youtube.com/watch?v=x6pXJ7Ijir0\">GIMP</a> to trace edges, find mid-tones, and make your portrait perfect.</div>\n  </div>\n</div>\n<div class=\"card card-section bg-dark text-warning shadow\">\n  <div class=\"section card-body mb-0 my-2\">\n    <div class=\"paragraph card-text card-stanza my-5 text-center\">By the time you sit down to your first oil paining,</div>\n    <div class=\"paragraph card-text card-stanza my-5 text-center\">your photography and portrait drawings are going to be perfect.</div>\n  </div>\n</div>\n<div class=\"mb-5 section-spacer\">&nbsp;</div>\n<div class=\"card card-section bg-dark text-warning shadow\">\n  <div class=\"section card-body mb-0 my-2\">\n    <div class=\"paragraph card-text card-stanza my-5 text-center\">Music, will accompany your studies,</div>\n    <div class=\"paragraph card-text card-stanza my-5 text-center\">and it won't be too long before you will <a href=\"https://www.youtube.com/watch?v=0sRvkaxh8EU\">begin composing your own music</a>.</div>\n  </div>\n</div>\n<div class=\"card card-section bg-dark text-warning shadow\">\n  <div class=\"section card-body mb-0 my-2\">\n    <div class=\"paragraph card-text card-stanza my-5 text-center\">You will discover some of your call to music,</div>\n    <div class=\"paragraph card-text card-stanza my-5 text-center\">when you paint, it just make sense that you should learn from the greats and make your own.</div>\n  </div>\n</div>\n<div class=\"card card-section bg-dark text-warning shadow\">\n  <div class=\"section card-body mb-0 my-2\">\n    <div class=\"paragraph card-text card-stanza my-5 text-center\">Programs like <a href=\"https://www.youtube.com/watch?v=3qfa9hGJzoY\">LMMS</a> take care of all the boring parts,</div>\n    <div class=\"paragraph card-text card-stanza my-5 text-center\">and let you sit down to compose chords and melodies.</div>\n  </div>\n</div>\n<div class=\"card card-section bg-dark text-warning shadow\">\n  <div class=\"section card-body mb-0 my-2\">\n    <div class=\"paragraph card-text card-stanza my-5 text-center\">Whether you take to dance music or begin composing for an impossibly large orchestra,</div>\n    <div class=\"paragraph card-text card-stanza my-5 text-center\">you will discover another call.</div>\n  </div>\n</div>\n<div class=\"card card-section bg-dark text-warning shadow\">\n  <div class=\"section card-body mb-0 my-2\">\n    <div class=\"paragraph card-text card-stanza my-5 text-center\">A call to automation,</div>\n    <div class=\"paragraph card-text card-stanza my-5 text-center\">a call to programming.</div>\n  </div>\n</div>\n<div class=\"mb-5 section-spacer\">&nbsp;</div>\n<div class=\"card card-section bg-dark text-warning shadow\">\n  <div class=\"section card-body mb-0 my-2\">\n    <div class=\"paragraph card-text card-stanza my-5 text-center\">Software development is very easy,</div>\n    <div class=\"paragraph card-text card-stanza my-5 text-center\">people just make it sound complicated.</div>\n  </div>\n</div>\n<div class=\"card card-section bg-dark text-warning shadow\">\n  <div class=\"section card-body mb-0 my-2\">\n    <div class=\"paragraph card-text card-stanza my-5 text-center\"><a href=\"https://www.youtube.com/watch?v=BMGixkvJ-6w\">Learn just a tiny little bit about Linux</a>,</div>\n    <div class=\"paragraph card-text card-stanza my-5 text-center\">and <a href=\"https://www.youtube.com/watch?v=E2h2ECEiTo4\">begin building your own commands</a>.</div>\n  </div>\n</div>\n<div class=\"card card-section bg-dark text-warning shadow\">\n  <div class=\"section card-body mb-0 my-2\">\n    <div class=\"paragraph card-text card-stanza my-5 text-center\">Learn how data can be efficiently streamed between programs,</div>\n    <div class=\"paragraph card-text card-stanza my-5 text-center\">chunk by chunk without needing to transfer the whole data-set.</div>\n  </div>\n</div>\n<div class=\"card card-section bg-dark text-warning shadow\">\n  <div class=\"section card-body mb-0 my-2\">\n    <div class=\"paragraph card-text card-stanza my-5 text-center\">And take to using the <a href=\"https://www.youtube.com/watch?v=l20MBBFZAmA\">Event Emitter</a> or Streams in your programs,</div>\n    <div class=\"paragraph card-text card-stanza my-5 text-center\">so that all components can communicate, and stream as well.</div>\n  </div>\n</div>\n<div class=\"mb-5 section-spacer\">&nbsp;</div>\n<div class=\"card card-section bg-dark text-warning shadow\">\n  <div class=\"section card-body mb-0 my-2\">\n    <div class=\"paragraph card-text card-stanza my-5 text-center\">Programming will help you <a href=\"https://www.youtube.com/watch?v=8j0UDiN7my4\">automate art</a>,</div>\n    <div class=\"paragraph card-text card-stanza my-5 text-center\">it will help you compose endless music.</div>\n  </div>\n</div>\n<div class=\"card card-section bg-dark text-warning shadow\">\n  <div class=\"section card-body mb-0 my-2\">\n    <div class=\"paragraph card-text card-stanza my-5 text-center\">Where business is concerned, it is a tool that eliminates the need for warehouses,</div>\n    <div class=\"paragraph card-text card-stanza my-5 text-center\">and keeps your upfront investment at zero.</div>\n  </div>\n</div>\n<div class=\"card card-section bg-dark text-warning shadow\">\n  <div class=\"section card-body mb-0 my-2\">\n    <div class=\"paragraph card-text card-stanza my-5 text-center\">Art, music and product generation,</div>\n    <div class=\"paragraph card-text card-stanza my-5 text-center\">will call to mathematics.</div>\n  </div>\n</div>\n<div class=\"card card-section bg-dark text-warning shadow\">\n  <div class=\"section card-body mb-0 my-2\">\n    <div class=\"paragraph card-text card-stanza my-5 text-center\">And as you can imagine by now,</div>\n    <div class=\"paragraph card-text card-stanza my-5 text-center\"><a href=\"https://github.com/Jam3/math-as-code\">math is pretty simple</a>.</div>\n  </div>\n</div>\n<div class=\"card card-section bg-dark text-warning shadow\">\n  <div class=\"section card-body mb-0 my-2\">\n    <div class=\"paragraph card-text card-stanza my-5 text-center\">The biggest challenge in mathematics is finding a use for it,</div>\n    <div class=\"paragraph card-text card-stanza my-5 text-center\">but you already have one, Generative Music and Art, maybe games, perhaps with Pixel Art?</div>\n  </div>\n</div>\n<div class=\"mb-5 section-spacer\">&nbsp;</div>\n<div class=\"card card-section bg-dark text-warning shadow\">\n  <div class=\"section card-body mb-0 my-2\">\n    <div class=\"paragraph card-text card-stanza my-5 text-center\">As you carry on, <a href=\"https://www.youtube.com/watch?v=mbbdTTm2wUA\">it is impossible to resist narrated non-fiction books</a>,</div>\n    <div class=\"paragraph card-text card-stanza my-5 text-center\">and you will no doubt <a href=\"https://www.youtube.com/watch?v=S5Q_Cr-4iXc\">fall in love with science</a> by going over the <a href=\"https://www.youtube.com/watch?v=my8hgroUKZ0\">science popularizer books</a>.</div>\n  </div>\n</div>\n<div class=\"card card-section bg-dark text-warning shadow\">\n  <div class=\"section card-body mb-0 my-2\">\n    <div class=\"paragraph card-text card-stanza my-5 text-center\">From here even the sky is not a limit,</div>\n    <div class=\"paragraph card-text card-stanza my-5 text-center\">one day you maybe collecting micro-meteorites and studying microbiology, and the next day tending to your greenhouses and electronics.</div>\n  </div>\n</div>\n<div class=\"card card-section bg-dark text-warning shadow\">\n  <div class=\"section card-body mb-0 my-2\">\n    <div class=\"paragraph card-text card-stanza my-5 text-center\">The more your work takes you outside,</div>\n    <div class=\"paragraph card-text card-stanza my-5 text-center\">the more you will find it useful to bring electronics along with you.</div>\n  </div>\n</div>\n<div class=\"card card-section bg-dark text-warning shadow\">\n  <div class=\"section card-body mb-0 my-2\">\n    <div class=\"paragraph card-text card-stanza my-5 text-center\">Here you'll find yourself soldering <a href=\"https://www.youtube.com/watch?v=xiR14tSfc-U&list=PLPK2l9Knytg67nkvpnnl81ossAHfOgmqU\">single board computers</a> and sensors,</div>\n    <div class=\"paragraph card-text card-stanza my-5 text-center\">programming relays and maybe controlling robots and drones.</div>\n  </div>\n</div>\n<div class=\"mb-5 section-spacer\">&nbsp;</div>\n<div class=\"card card-section bg-dark text-warning shadow\">\n  <div class=\"section card-body mb-0 my-2\">\n    <div class=\"paragraph card-text card-stanza my-5 text-center\">The more you learn the harder it is to predict what will call to you,</div>\n    <div class=\"paragraph card-text card-stanza my-5 text-center\">Philosophy and Psychology, Education and Mathematics, Engineering and Entrepreneurship, Leadership and Wisdom.</div>\n  </div>\n</div>\n<div class=\"card card-section bg-dark text-warning shadow\">\n  <div class=\"section card-body mb-0 my-2\">\n    <div class=\"paragraph card-text card-stanza my-5 text-center\">But eventually you will wish to share what you know, to help the world grow a little bit,</div>\n    <div class=\"paragraph card-text card-stanza my-5 text-center\">and that is almost certainly about creating inspirational Audio Books and Books.</div>\n  </div>\n</div>\n<div class=\"card card-section bg-dark text-warning shadow\">\n  <div class=\"section card-body mb-0 my-2\">\n    <div class=\"paragraph card-text card-stanza my-5 text-center\">And if you ever need proof of exceptional ability your Portfolio, Experiments, Adventures and Videos,</div>\n    <div class=\"paragraph card-text card-stanza my-5 text-center\">will speak more than words.</div>\n  </div>\n</div>\n<div class=\"card card-section bg-dark text-warning shadow\">\n  <div class=\"section card-body mb-0 my-2\">\n    <div class=\"paragraph card-text card-stanza my-5 text-center\"><a href=\"https://www.youtube.com/watch?v=17fbxRQgMlU\">Real education</a>,</div>\n    <div class=\"paragraph card-text card-stanza my-5 text-center\">is found in all the real things we do.</div>\n  </div>\n</div>",
  "print": "<div class=\"section avoid-break-inside\" style=\"padding-bottom: 2rem;\">\n  <div class=\"paragraph\">The worst thing about schools being bad for us,</div>\n  <div class=\"paragraph\">is how amazing getting a real education is.</div>\n</div>\n<div class=\"section avoid-break-inside\" style=\"padding-bottom: 2rem;\">\n  <br>\n</div>\n<div class=\"section avoid-break-inside\" style=\"padding-bottom: 2rem;\">\n  <div class=\"paragraph\">Above all, a real education will take you through,</div>\n  <div class=\"paragraph\">a series of small businesses that will help you learn about moneymaking.</div>\n</div>\n<div class=\"section avoid-break-inside\" style=\"padding-bottom: 2rem;\">\n  <div class=\"paragraph\">It ends poverty, fears of losing a job,</div>\n  <div class=\"paragraph\">or losing a little home, or working in a cubicle.</div>\n</div>\n<div class=\"section avoid-break-inside\" style=\"padding-bottom: 2rem;\">\n  <br>\n</div>\n<div class=\"section avoid-break-inside\" style=\"padding-bottom: 2rem;\">\n  <div class=\"paragraph\">Real education teaches you real things,</div>\n  <div class=\"paragraph\">and real things are pretty useful in the real world.</div>\n</div>\n<div class=\"section avoid-break-inside\" style=\"padding-bottom: 2rem;\">\n  <div class=\"paragraph\">Real education begins with you,</div>\n  <div class=\"paragraph\">what you like, where you are going, and where you have already been.</div>\n</div>\n<div class=\"section avoid-break-inside\" style=\"padding-bottom: 2rem;\">\n  <br>\n</div>\n<div class=\"section avoid-break-inside\" style=\"padding-bottom: 2rem;\">\n  <div class=\"paragraph\">You read books that touch your heart,</div>\n  <div class=\"paragraph\">you listen to music that moves you.</div>\n</div>\n<div class=\"section avoid-break-inside\" style=\"padding-bottom: 2rem;\">\n  <div class=\"paragraph\">You do things that are connected,</div>\n  <div class=\"paragraph\">to you, to your future, to your knowledge.</div>\n</div>\n<div class=\"section avoid-break-inside\" style=\"padding-bottom: 2rem;\">\n  <br>\n</div>\n<div class=\"section avoid-break-inside\" style=\"padding-bottom: 2rem;\">\n  <div class=\"paragraph\">You don't <span>practice photography<sup>[1]</sup></span>,</div>\n  <div class=\"paragraph\">for some undefined reason.</div>\n</div>\n<div class=\"section avoid-break-inside\" style=\"padding-bottom: 2rem;\">\n  <div class=\"paragraph\">You have a need to take a photo,</div>\n  <div class=\"paragraph\">to learn the power of light and darkness, and the <span>magic of focal length<sup>[2]</sup></span>.</div>\n</div>\n<div class=\"section avoid-break-inside\" style=\"padding-bottom: 2rem;\">\n  <div class=\"paragraph\">So that you can begin your portrait drawings,</div>\n  <div class=\"paragraph\">by projecting that photo on a large paper sheet and tracing it.</div>\n</div>\n<div class=\"section avoid-break-inside\" style=\"padding-bottom: 2rem;\">\n  <div class=\"paragraph\">You will learn photo editing in the process,</div>\n  <div class=\"paragraph\">as you fiddle with <span>GIMP<sup>[3]</sup></span> to trace edges, find mid-tones, and make your portrait perfect.</div>\n</div>\n<div class=\"section avoid-break-inside\" style=\"padding-bottom: 2rem;\">\n  <div class=\"paragraph\">By the time you sit down to your first oil paining,</div>\n  <div class=\"paragraph\">your photography and portrait drawings are going to be perfect.</div>\n</div>\n<div class=\"section avoid-break-inside\" style=\"padding-bottom: 2rem;\">\n  <br>\n</div>\n<div class=\"section avoid-break-inside\" style=\"padding-bottom: 2rem;\">\n  <div class=\"paragraph\">Music, will accompany your studies,</div>\n  <div class=\"paragraph\">and it won't be too long before you will <span>begin composing your own music<sup>[4]</sup></span>.</div>\n</div>\n<div class=\"section avoid-break-inside\" style=\"padding-bottom: 2rem;\">\n  <div class=\"paragraph\">You will discover some of your call to music,</div>\n  <div class=\"paragraph\">when you paint, it just make sense that you should learn from the greats and make your own.</div>\n</div>\n<div class=\"section avoid-break-inside\" style=\"padding-bottom: 2rem;\">\n  <div class=\"paragraph\">Programs like <span>LMMS<sup>[5]</sup></span> take care of all the boring parts,</div>\n  <div class=\"paragraph\">and let you sit down to compose chords and melodies.</div>\n</div>\n<div class=\"section avoid-break-inside\" style=\"padding-bottom: 2rem;\">\n  <div class=\"paragraph\">Whether you take to dance music or begin composing for an impossibly large orchestra,</div>\n  <div class=\"paragraph\">you will discover another call.</div>\n</div>\n<div class=\"section avoid-break-inside\" style=\"padding-bottom: 2rem;\">\n  <div class=\"paragraph\">A call to automation,</div>\n  <div class=\"paragraph\">a call to programming.</div>\n</div>\n<div class=\"section avoid-break-inside\" style=\"padding-bottom: 2rem;\">\n  <br>\n</div>\n<div class=\"section avoid-break-inside\" style=\"padding-bottom: 2rem;\">\n  <div class=\"paragraph\">Software development is very easy,</div>\n  <div class=\"paragraph\">people just make it sound complicated.</div>\n</div>\n<div class=\"section avoid-break-inside\" style=\"padding-bottom: 2rem;\">\n  <div class=\"paragraph\"><span>Learn just a tiny little bit about Linux<sup>[6]</sup></span>,</div>\n  <div class=\"paragraph\">and <span>begin building your own commands<sup>[7]</sup></span>.</div>\n</div>\n<div class=\"section avoid-break-inside\" style=\"padding-bottom: 2rem;\">\n  <div class=\"paragraph\">Learn how data can be efficiently streamed between programs,</div>\n  <div class=\"paragraph\">chunk by chunk without needing to transfer the whole data-set.</div>\n</div>\n<div class=\"section avoid-break-inside\" style=\"padding-bottom: 2rem;\">\n  <div class=\"paragraph\">And take to using the <span>Event Emitter<sup>[8]</sup></span> or Streams in your programs,</div>\n  <div class=\"paragraph\">so that all components can communicate, and stream as well.</div>\n</div>\n<div class=\"section avoid-break-inside\" style=\"padding-bottom: 2rem;\">\n  <br>\n</div>\n<div class=\"section avoid-break-inside\" style=\"padding-bottom: 2rem;\">\n  <div class=\"paragraph\">Programming will help you <span>automate art<sup>[9]</sup></span>,</div>\n  <div class=\"paragraph\">it will help you compose endless music.</div>\n</div>\n<div class=\"section avoid-break-inside\" style=\"padding-bottom: 2rem;\">\n  <div class=\"paragraph\">Where business is concerned, it is a tool that eliminates the need for warehouses,</div>\n  <div class=\"paragraph\">and keeps your upfront investment at zero.</div>\n</div>\n<div class=\"section avoid-break-inside\" style=\"padding-bottom: 2rem;\">\n  <div class=\"paragraph\">Art, music and product generation,</div>\n  <div class=\"paragraph\">will call to mathematics.</div>\n</div>\n<div class=\"section avoid-break-inside\" style=\"padding-bottom: 2rem;\">\n  <div class=\"paragraph\">And as you can imagine by now,</div>\n  <div class=\"paragraph\"><span>math is pretty simple<sup>[10]</sup></span>.</div>\n</div>\n<div class=\"section avoid-break-inside\" style=\"padding-bottom: 2rem;\">\n  <div class=\"paragraph\">The biggest challenge in mathematics is finding a use for it,</div>\n  <div class=\"paragraph\">but you already have one, Generative Music and Art, maybe games, perhaps with Pixel Art?</div>\n</div>\n<div class=\"section avoid-break-inside\" style=\"padding-bottom: 2rem;\">\n  <br>\n</div>\n<div class=\"section avoid-break-inside\" style=\"padding-bottom: 2rem;\">\n  <div class=\"paragraph\">As you carry on, <span>it is impossible to resist narrated non-fiction books<sup>[11]</sup></span>,</div>\n  <div class=\"paragraph\">and you will no doubt <span>fall in love with science<sup>[12]</sup></span> by going over the <span>science popularizer books<sup>[13]</sup></span>.</div>\n</div>\n<div class=\"section avoid-break-inside\" style=\"padding-bottom: 2rem;\">\n  <div class=\"paragraph\">From here even the sky is not a limit,</div>\n  <div class=\"paragraph\">one day you maybe collecting micro-meteorites and studying microbiology, and the next day tending to your greenhouses and electronics.</div>\n</div>\n<div class=\"section avoid-break-inside\" style=\"padding-bottom: 2rem;\">\n  <div class=\"paragraph\">The more your work takes you outside,</div>\n  <div class=\"paragraph\">the more you will find it useful to bring electronics along with you.</div>\n</div>\n<div class=\"section avoid-break-inside\" style=\"padding-bottom: 2rem;\">\n  <div class=\"paragraph\">Here you'll find yourself soldering <span>single board computers<sup>[14]</sup></span> and sensors,</div>\n  <div class=\"paragraph\">programming relays and maybe controlling robots and drones.</div>\n</div>\n<div class=\"section avoid-break-inside\" style=\"padding-bottom: 2rem;\">\n  <br>\n</div>\n<div class=\"section avoid-break-inside\" style=\"padding-bottom: 2rem;\">\n  <div class=\"paragraph\">The more you learn the harder it is to predict what will call to you,</div>\n  <div class=\"paragraph\">Philosophy and Psychology, Education and Mathematics, Engineering and Entrepreneurship, Leadership and Wisdom.</div>\n</div>\n<div class=\"section avoid-break-inside\" style=\"padding-bottom: 2rem;\">\n  <div class=\"paragraph\">But eventually you will wish to share what you know, to help the world grow a little bit,</div>\n  <div class=\"paragraph\">and that is almost certainly about creating inspirational Audio Books and Books.</div>\n</div>\n<div class=\"section avoid-break-inside\" style=\"padding-bottom: 2rem;\">\n  <div class=\"paragraph\">And if you ever need proof of exceptional ability your Portfolio, Experiments, Adventures and Videos,</div>\n  <div class=\"paragraph\">will speak more than words.</div>\n</div>\n<div class=\"section avoid-break-inside\" style=\"padding-bottom: 2rem;\">\n  <div class=\"paragraph\"><span>Real education<sup>[15]</sup></span>,</div>\n  <div class=\"paragraph\">is found in all the real things we do.</div>\n</div>\n<div class=\"break-after\">&nbsp;</div>\n<div>\n  <div class=\"section\" style=\"padding-bottom: 1rem;\">References</div>\n  <div>[1]: https://www.youtube.com/watch?v=D_O6pbT7Ovw</div>\n  <div>[2]: https://www.youtube.com/watch?v=iSj5IQ_1gbc</div>\n  <div>[3]: https://www.youtube.com/watch?v=x6pXJ7Ijir0</div>\n  <div>[4]: https://www.youtube.com/watch?v=0sRvkaxh8EU</div>\n  <div>[5]: https://www.youtube.com/watch?v=3qfa9hGJzoY</div>\n  <div>[6]: https://www.youtube.com/watch?v=BMGixkvJ-6w</div>\n  <div>[7]: https://www.youtube.com/watch?v=E2h2ECEiTo4</div>\n  <div>[8]: https://www.youtube.com/watch?v=l20MBBFZAmA</div>\n  <div>[9]: https://www.youtube.com/watch?v=8j0UDiN7my4</div>\n  <div>[10]: https://github.com/Jam3/math-as-code</div>\n  <div>[11]: https://www.youtube.com/watch?v=mbbdTTm2wUA</div>\n  <div>[12]: https://www.youtube.com/watch?v=S5Q_Cr-4iXc</div>\n  <div>[13]: https://www.youtube.com/watch?v=my8hgroUKZ0</div>\n  <div>[14]: https://www.youtube.com/watch?v=xiR14tSfc-U&list=PLPK2l9Knytg67nkvpnnl81ossAHfOgmqU</div>\n  <div>[15]: https://www.youtube.com/watch?v=17fbxRQgMlU</div>\n</div>",
  "text": "The worst thing about schools being bad for us,\nis how amazing getting a real education is.\n\nAbove all, a real education will take you through,\na series of small businesses that will help you learn about moneymaking.\nIt ends poverty, fears of losing a job,\nor losing a little home, or working in a cubicle.\n\nReal education teaches you real things,\nand real things are pretty useful in the real world.\nReal education begins with you,\nwhat you like, where you are going, and where you have already been.\n\nYou read books that touch your heart,\nyou listen to music that moves you.\nYou do things that are connected,\nto you, to your future, to your knowledge.\n\nYou don't practice photography[1],\nfor some undefined reason.\nYou have a need to take a photo,\nto learn the power of light and darkness, and the magic of focal length[2].\nSo that you can begin your portrait drawings,\nby projecting that photo on a large paper sheet and tracing it.\nYou will learn photo editing in the process,\nas you fiddle with GIMP[3] to trace edges, find mid-tones, and make your portrait perfect.\nBy the time you sit down to your first oil paining,\nyour photography and portrait drawings are going to be perfect.\n\nMusic, will accompany your studies,\nand it won't be too long before you will begin composing your own music[4].\nYou will discover some of your call to music,\nwhen you paint, it just make sense that you should learn from the greats and make your own.\nPrograms like LMMS[5] take care of all the boring parts,\nand let you sit down to compose chords and melodies.\nWhether you take to dance music or begin composing for an impossibly large orchestra,\nyou will discover another call.\nA call to automation,\na call to programming.\n\nSoftware development is very easy,\npeople just make it sound complicated.\nLearn just a tiny little bit about Linux[6],\nand begin building your own commands[7].\nLearn how data can be efficiently streamed between programs,\nchunk by chunk without needing to transfer the whole data-set.\nAnd take to using the Event Emitter[8] or Streams in your programs,\nso that all components can communicate, and stream as well.\n\nProgramming will help you automate art[9],\nit will help you compose endless music.\nWhere business is concerned, it is a tool that eliminates the need for warehouses,\nand keeps your upfront investment at zero.\nArt, music and product generation,\nwill call to mathematics.\nAnd as you can imagine by now,\nmath is pretty simple[10].\nThe biggest challenge in mathematics is finding a use for it,\nbut you already have one, Generative Music and Art, maybe games, perhaps with Pixel Art?\n\nAs you carry on, it is impossible to resist narrated non-fiction books[11],\nand you will no doubt fall in love with science[12] by going over the science popularizer books[13].\nFrom here even the sky is not a limit,\none day you maybe collecting micro-meteorites and studying microbiology, and the next day tending to your greenhouses and electronics.\nThe more your work takes you outside,\nthe more you will find it useful to bring electronics along with you.\nHere you'll find yourself soldering single board computers[14] and sensors,\nprogramming relays and maybe controlling robots and drones.\n\nThe more you learn the harder it is to predict what will call to you,\nPhilosophy and Psychology, Education and Mathematics, Engineering and Entrepreneurship, Leadership and Wisdom.\nBut eventually you will wish to share what you know, to help the world grow a little bit,\nand that is almost certainly about creating inspirational Audio Books and Books.\nAnd if you ever need proof of exceptional ability your Portfolio, Experiments, Adventures and Videos,\nwill speak more than words.\nReal education[15],\nis found in all the real things we do.\n \nReferences\n[1]: https://www.youtube.com/watch?v=D_O6pbT7Ovw\n[2]: https://www.youtube.com/watch?v=iSj5IQ_1gbc\n[3]: https://www.youtube.com/watch?v=x6pXJ7Ijir0\n[4]: https://www.youtube.com/watch?v=0sRvkaxh8EU\n[5]: https://www.youtube.com/watch?v=3qfa9hGJzoY\n[6]: https://www.youtube.com/watch?v=BMGixkvJ-6w\n[7]: https://www.youtube.com/watch?v=E2h2ECEiTo4\n[8]: https://www.youtube.com/watch?v=l20MBBFZAmA\n[9]: https://www.youtube.com/watch?v=8j0UDiN7my4\n[10]: https://github.com/Jam3/math-as-code\n[11]: https://www.youtube.com/watch?v=mbbdTTm2wUA\n[12]: https://www.youtube.com/watch?v=S5Q_Cr-4iXc\n[13]: https://www.youtube.com/watch?v=my8hgroUKZ0\n[14]: https://www.youtube.com/watch?v=xiR14tSfc-U&list=PLPK2l9Knytg67nkvpnnl81ossAHfOgmqU\n[15]: https://www.youtube.com/watch?v=17fbxRQgMlU",
  "images": [],
  "links": [
    {
      "title": "practice photography",
      "url": "https://www.youtube.com/watch?v=D_O6pbT7Ovw",
      "hostname": "www.youtube.com"
    },
    {
      "title": "magic of focal length",
      "url": "https://www.youtube.com/watch?v=iSj5IQ_1gbc",
      "hostname": "www.youtube.com"
    },
    {
      "title": "GIMP",
      "url": "https://www.youtube.com/watch?v=x6pXJ7Ijir0",
      "hostname": "www.youtube.com"
    },
    {
      "title": "begin composing your own music",
      "url": "https://www.youtube.com/watch?v=0sRvkaxh8EU",
      "hostname": "www.youtube.com"
    },
    {
      "title": "LMMS",
      "url": "https://www.youtube.com/watch?v=3qfa9hGJzoY",
      "hostname": "www.youtube.com"
    },
    {
      "title": "Learn just a tiny little bit about Linux",
      "url": "https://www.youtube.com/watch?v=BMGixkvJ-6w",
      "hostname": "www.youtube.com"
    },
    {
      "title": "begin building your own commands",
      "url": "https://www.youtube.com/watch?v=E2h2ECEiTo4",
      "hostname": "www.youtube.com"
    },
    {
      "title": "Event Emitter",
      "url": "https://www.youtube.com/watch?v=l20MBBFZAmA",
      "hostname": "www.youtube.com"
    },
    {
      "title": "automate art",
      "url": "https://www.youtube.com/watch?v=8j0UDiN7my4",
      "hostname": "www.youtube.com"
    },
    {
      "title": "math is pretty simple",
      "url": "https://github.com/Jam3/math-as-code",
      "hostname": "github.com"
    },
    {
      "title": "it is impossible to resist narrated non-fiction books",
      "url": "https://www.youtube.com/watch?v=mbbdTTm2wUA",
      "hostname": "www.youtube.com"
    },
    {
      "title": "fall in love with science",
      "url": "https://www.youtube.com/watch?v=S5Q_Cr-4iXc",
      "hostname": "www.youtube.com"
    },
    {
      "title": "science popularizer books",
      "url": "https://www.youtube.com/watch?v=my8hgroUKZ0",
      "hostname": "www.youtube.com"
    },
    {
      "title": "single board computers",
      "url": "https://www.youtube.com/watch?v=xiR14tSfc-U&list=PLPK2l9Knytg67nkvpnnl81ossAHfOgmqU",
      "hostname": "www.youtube.com"
    },
    {
      "title": "Real education",
      "url": "https://www.youtube.com/watch?v=17fbxRQgMlU",
      "hostname": "www.youtube.com"
    }
  ]
}