{
  "title": "Real Education Is Everywhere",
  "date": "2021-02-21T22:49:24.409Z",
  "image": "poetry-0358-illustration.jpg",
  "audio": "poetry-0358.mp3",
  "artwork": "https://unsplash.com/photos/eAXpbb4vzKU",
  "id": "furkies-purrkies-poetry-0358",
  "attachments": {},
  "guid": "3548832c-20e4-4ec3-9534-4bd3f27435b8"
}
