{
  "id": "furkies-purrkies-poetry-0614",
  "title": "Full Of Stars",
  "date": "2021-11-05T01:26:20.794Z",
  "image": "poetry-0614-illustration.jpg",
  "artwork": "https://unsplash.com/photos/8xx5BRBYwHY",
  "audio": "poetry-0614.mp3",
  "guid": "cd290fbc-5bed-46a9-829f-656dd8338a76"
}
