{
  "name": "furkies-purrkies-poetry-0076",
  "title": "Little Treasures in Our Hearts",
  "date": "2020-05-21T03:22:12.511Z",
  "image": "poetry-0076-illustration.jpg",
  "audio": "poetry-0076.mp3",
  "id": "furkies-purrkies-poetry-0076",
  "attachments": {},
  "guid": "a2f5523b-14a6-424a-84f7-7af9250dffe8",
  "html": "<div class=\"section\">\n  <p>With each little triumph, we add to our treasures,</p>\n  <p>and it grows over time, it grows beyond measures.</p>\n</div>\n<div class=\"section\">\n  <p>Sometimes, it all starts in loneliness,</p>\n  <p>but it quickly fills up as it reaches silliness.</p>\n</div>\n<div class=\"section\">\n  <p>And so, we carry our fancy treasure chest,</p>\n  <p>we take it with us on every quest.</p>\n</div>\n<div class=\"section\">\n  <p>It is not possible for it to get lost,</p>\n  <p>and nobody else can touch it - at any cost.</p>\n</div>\n<div class=\"section\">\n  <p>In no way could it ever be sacrificed,</p>\n  <p>and no robbers could ever stage a big enough heist.</p>\n</div>\n<div class=\"section\">\n  <hr>\n</div>\n<div class=\"section\">\n  <p>Little chest in a safe place deep in our heart,</p>\n  <p>it serves to light the fire that fuels our art.</p>\n</div>\n<div class=\"section\">\n  <p>It prevents us from walking in reverse,</p>\n  <p>it helps to make our existence more diverse.</p>\n</div>\n<div class=\"section\">\n  <p>It also adds a great deal unto our beauty,</p>\n  <p>as it drives us to create out of love, and not mere duty.</p>\n</div>\n<div class=\"section\">\n  <p>All those petite little things that make us proud,</p>\n  <p>also make us stand out in a crowd.</p>\n</div>\n<div class=\"section\">\n  <p>So it also serves as a lighthouse with a bright beam</p>\n  <p>that lights the way betwixt us, and our dream.</p>\n</div>\n<div class=\"section\">\n  <hr>\n</div>\n<div class=\"section\">\n  <p>I think one reason why nobody ever mentions it,</p>\n  <p>is because it is too sacred, to just talk about it.</p>\n</div>\n<div class=\"section\">\n  <p>But I want to remind you, my Dear Friends,</p>\n  <p>that sometimes we need to look through this lens.</p>\n</div>\n<div class=\"section\">\n  <p>Your treasure chest will show you,</p>\n  <p>a picture of you that is most true.</p>\n</div>\n<div class=\"section\">\n  <hr>\n</div>\n<div class=\"section\">\n  <p>Oh, don&apos;t worry if you have only one thing,</p>\n  <p>it is still a treasure, it still makes you a Queen or King.</p>\n</div>\n<div class=\"section\">\n  <p>We all have a few simple treasures when we start,</p>\n  <p>but they grow as we use our heart to turn our life to art.</p>\n</div>",
  "bootstrap": "<div class=\"card card-section bg-dark text-warning shadow\">\n  <div class=\"section card-body mb-0 my-2\">\n    <div class=\"paragraph card-text card-stanza my-5 text-center\">With each little triumph, we add to our treasures,</div>\n    <div class=\"paragraph card-text card-stanza my-5 text-center\">and it grows over time, it grows beyond measures.</div>\n  </div>\n</div>\n<div class=\"card card-section bg-dark text-warning shadow\">\n  <div class=\"section card-body mb-0 my-2\">\n    <div class=\"paragraph card-text card-stanza my-5 text-center\">Sometimes, it all starts in loneliness,</div>\n    <div class=\"paragraph card-text card-stanza my-5 text-center\">but it quickly fills up as it reaches silliness.</div>\n  </div>\n</div>\n<div class=\"card card-section bg-dark text-warning shadow\">\n  <div class=\"section card-body mb-0 my-2\">\n    <div class=\"paragraph card-text card-stanza my-5 text-center\">And so, we carry our fancy treasure chest,</div>\n    <div class=\"paragraph card-text card-stanza my-5 text-center\">we take it with us on every quest.</div>\n  </div>\n</div>\n<div class=\"card card-section bg-dark text-warning shadow\">\n  <div class=\"section card-body mb-0 my-2\">\n    <div class=\"paragraph card-text card-stanza my-5 text-center\">It is not possible for it to get lost,</div>\n    <div class=\"paragraph card-text card-stanza my-5 text-center\">and nobody else can touch it - at any cost.</div>\n  </div>\n</div>\n<div class=\"card card-section bg-dark text-warning shadow\">\n  <div class=\"section card-body mb-0 my-2\">\n    <div class=\"paragraph card-text card-stanza my-5 text-center\">In no way could it ever be sacrificed,</div>\n    <div class=\"paragraph card-text card-stanza my-5 text-center\">and no robbers could ever stage a big enough heist.</div>\n  </div>\n</div>\n<div class=\"mb-5 section-spacer\">&nbsp;</div>\n<div class=\"card card-section bg-dark text-warning shadow\">\n  <div class=\"section card-body mb-0 my-2\">\n    <div class=\"paragraph card-text card-stanza my-5 text-center\">Little chest in a safe place deep in our heart,</div>\n    <div class=\"paragraph card-text card-stanza my-5 text-center\">it serves to light the fire that fuels our art.</div>\n  </div>\n</div>\n<div class=\"card card-section bg-dark text-warning shadow\">\n  <div class=\"section card-body mb-0 my-2\">\n    <div class=\"paragraph card-text card-stanza my-5 text-center\">It prevents us from walking in reverse,</div>\n    <div class=\"paragraph card-text card-stanza my-5 text-center\">it helps to make our existence more diverse.</div>\n  </div>\n</div>\n<div class=\"card card-section bg-dark text-warning shadow\">\n  <div class=\"section card-body mb-0 my-2\">\n    <div class=\"paragraph card-text card-stanza my-5 text-center\">It also adds a great deal unto our beauty,</div>\n    <div class=\"paragraph card-text card-stanza my-5 text-center\">as it drives us to create out of love, and not mere duty.</div>\n  </div>\n</div>\n<div class=\"card card-section bg-dark text-warning shadow\">\n  <div class=\"section card-body mb-0 my-2\">\n    <div class=\"paragraph card-text card-stanza my-5 text-center\">All those petite little things that make us proud,</div>\n    <div class=\"paragraph card-text card-stanza my-5 text-center\">also make us stand out in a crowd.</div>\n  </div>\n</div>\n<div class=\"card card-section bg-dark text-warning shadow\">\n  <div class=\"section card-body mb-0 my-2\">\n    <div class=\"paragraph card-text card-stanza my-5 text-center\">So it also serves as a lighthouse with a bright beam</div>\n    <div class=\"paragraph card-text card-stanza my-5 text-center\">that lights the way betwixt us, and our dream.</div>\n  </div>\n</div>\n<div class=\"mb-5 section-spacer\">&nbsp;</div>\n<div class=\"card card-section bg-dark text-warning shadow\">\n  <div class=\"section card-body mb-0 my-2\">\n    <div class=\"paragraph card-text card-stanza my-5 text-center\">I think one reason why nobody ever mentions it,</div>\n    <div class=\"paragraph card-text card-stanza my-5 text-center\">is because it is too sacred, to just talk about it.</div>\n  </div>\n</div>\n<div class=\"card card-section bg-dark text-warning shadow\">\n  <div class=\"section card-body mb-0 my-2\">\n    <div class=\"paragraph card-text card-stanza my-5 text-center\">But I want to remind you, my Dear Friends,</div>\n    <div class=\"paragraph card-text card-stanza my-5 text-center\">that sometimes we need to look through this lens.</div>\n  </div>\n</div>\n<div class=\"card card-section bg-dark text-warning shadow\">\n  <div class=\"section card-body mb-0 my-2\">\n    <div class=\"paragraph card-text card-stanza my-5 text-center\">Your treasure chest will show you,</div>\n    <div class=\"paragraph card-text card-stanza my-5 text-center\">a picture of you that is most true.</div>\n  </div>\n</div>\n<div class=\"mb-5 section-spacer\">&nbsp;</div>\n<div class=\"card card-section bg-dark text-warning shadow\">\n  <div class=\"section card-body mb-0 my-2\">\n    <div class=\"paragraph card-text card-stanza my-5 text-center\">Oh, don't worry if you have only one thing,</div>\n    <div class=\"paragraph card-text card-stanza my-5 text-center\">it is still a treasure, it still makes you a Queen or King.</div>\n  </div>\n</div>\n<div class=\"card card-section bg-dark text-warning shadow\">\n  <div class=\"section card-body mb-0 my-2\">\n    <div class=\"paragraph card-text card-stanza my-5 text-center\">We all have a few simple treasures when we start,</div>\n    <div class=\"paragraph card-text card-stanza my-5 text-center\">but they grow as we use our heart to turn our life to art.</div>\n  </div>\n</div>",
  "print": "<div class=\"section avoid-break-inside\" style=\"padding-bottom: 2rem;\">\n  <div class=\"paragraph\">With each little triumph, we add to our treasures,</div>\n  <div class=\"paragraph\">and it grows over time, it grows beyond measures.</div>\n</div>\n<div class=\"section avoid-break-inside\" style=\"padding-bottom: 2rem;\">\n  <div class=\"paragraph\">Sometimes, it all starts in loneliness,</div>\n  <div class=\"paragraph\">but it quickly fills up as it reaches silliness.</div>\n</div>\n<div class=\"section avoid-break-inside\" style=\"padding-bottom: 2rem;\">\n  <div class=\"paragraph\">And so, we carry our fancy treasure chest,</div>\n  <div class=\"paragraph\">we take it with us on every quest.</div>\n</div>\n<div class=\"section avoid-break-inside\" style=\"padding-bottom: 2rem;\">\n  <div class=\"paragraph\">It is not possible for it to get lost,</div>\n  <div class=\"paragraph\">and nobody else can touch it - at any cost.</div>\n</div>\n<div class=\"section avoid-break-inside\" style=\"padding-bottom: 2rem;\">\n  <div class=\"paragraph\">In no way could it ever be sacrificed,</div>\n  <div class=\"paragraph\">and no robbers could ever stage a big enough heist.</div>\n</div>\n<div class=\"section avoid-break-inside\" style=\"padding-bottom: 2rem;\">\n  <br>\n</div>\n<div class=\"section avoid-break-inside\" style=\"padding-bottom: 2rem;\">\n  <div class=\"paragraph\">Little chest in a safe place deep in our heart,</div>\n  <div class=\"paragraph\">it serves to light the fire that fuels our art.</div>\n</div>\n<div class=\"section avoid-break-inside\" style=\"padding-bottom: 2rem;\">\n  <div class=\"paragraph\">It prevents us from walking in reverse,</div>\n  <div class=\"paragraph\">it helps to make our existence more diverse.</div>\n</div>\n<div class=\"section avoid-break-inside\" style=\"padding-bottom: 2rem;\">\n  <div class=\"paragraph\">It also adds a great deal unto our beauty,</div>\n  <div class=\"paragraph\">as it drives us to create out of love, and not mere duty.</div>\n</div>\n<div class=\"section avoid-break-inside\" style=\"padding-bottom: 2rem;\">\n  <div class=\"paragraph\">All those petite little things that make us proud,</div>\n  <div class=\"paragraph\">also make us stand out in a crowd.</div>\n</div>\n<div class=\"section avoid-break-inside\" style=\"padding-bottom: 2rem;\">\n  <div class=\"paragraph\">So it also serves as a lighthouse with a bright beam</div>\n  <div class=\"paragraph\">that lights the way betwixt us, and our dream.</div>\n</div>\n<div class=\"section avoid-break-inside\" style=\"padding-bottom: 2rem;\">\n  <br>\n</div>\n<div class=\"section avoid-break-inside\" style=\"padding-bottom: 2rem;\">\n  <div class=\"paragraph\">I think one reason why nobody ever mentions it,</div>\n  <div class=\"paragraph\">is because it is too sacred, to just talk about it.</div>\n</div>\n<div class=\"section avoid-break-inside\" style=\"padding-bottom: 2rem;\">\n  <div class=\"paragraph\">But I want to remind you, my Dear Friends,</div>\n  <div class=\"paragraph\">that sometimes we need to look through this lens.</div>\n</div>\n<div class=\"section avoid-break-inside\" style=\"padding-bottom: 2rem;\">\n  <div class=\"paragraph\">Your treasure chest will show you,</div>\n  <div class=\"paragraph\">a picture of you that is most true.</div>\n</div>\n<div class=\"section avoid-break-inside\" style=\"padding-bottom: 2rem;\">\n  <br>\n</div>\n<div class=\"section avoid-break-inside\" style=\"padding-bottom: 2rem;\">\n  <div class=\"paragraph\">Oh, don't worry if you have only one thing,</div>\n  <div class=\"paragraph\">it is still a treasure, it still makes you a Queen or King.</div>\n</div>\n<div class=\"section avoid-break-inside\" style=\"padding-bottom: 2rem;\">\n  <div class=\"paragraph\">We all have a few simple treasures when we start,</div>\n  <div class=\"paragraph\">but they grow as we use our heart to turn our life to art.</div>\n</div>",
  "text": "With each little triumph, we add to our treasures,\nand it grows over time, it grows beyond measures.\nSometimes, it all starts in loneliness,\nbut it quickly fills up as it reaches silliness.\nAnd so, we carry our fancy treasure chest,\nwe take it with us on every quest.\nIt is not possible for it to get lost,\nand nobody else can touch it - at any cost.\nIn no way could it ever be sacrificed,\nand no robbers could ever stage a big enough heist.\n\nLittle chest in a safe place deep in our heart,\nit serves to light the fire that fuels our art.\nIt prevents us from walking in reverse,\nit helps to make our existence more diverse.\nIt also adds a great deal unto our beauty,\nas it drives us to create out of love, and not mere duty.\nAll those petite little things that make us proud,\nalso make us stand out in a crowd.\nSo it also serves as a lighthouse with a bright beam\nthat lights the way betwixt us, and our dream.\n\nI think one reason why nobody ever mentions it,\nis because it is too sacred, to just talk about it.\nBut I want to remind you, my Dear Friends,\nthat sometimes we need to look through this lens.\nYour treasure chest will show you,\na picture of you that is most true.\n\nOh, don't worry if you have only one thing,\nit is still a treasure, it still makes you a Queen or King.\nWe all have a few simple treasures when we start,\nbut they grow as we use our heart to turn our life to art.",
  "images": [],
  "links": []
}